V26 autopilot
13 autopilot.F90 S582 0
04/24/2012  15:51:37
use parser private
use parser private
enduse
D 58 21 6 1 3 20 0 0 0 0 0
 0 20 3 3 20 20
D 61 18 32
D 63 21 6 1 3 20 0 0 0 0 0
 0 20 3 3 20 20
D 66 21 6 1 3 20 0 0 0 0 0
 0 20 3 3 20 20
D 69 21 9 1 3 20 0 0 0 0 0
 0 20 3 3 20 20
D 72 21 9 1 3 20 0 0 0 0 0
 0 20 3 3 20 20
D 75 18 33
D 77 21 75 1 3 20 0 0 0 0 0
 0 20 3 3 20 20
D 80 21 9 1 3 20 0 0 0 0 0
 0 20 3 3 20 20
D 83 21 75 1 3 20 0 0 0 0 0
 0 20 3 3 20 20
D 86 21 9 1 3 20 0 0 0 0 0
 0 20 3 3 20 20
D 89 21 75 1 3 20 0 0 0 0 0
 0 20 3 3 20 20
D 92 21 9 1 3 20 0 0 0 0 0
 0 20 3 3 20 20
D 95 21 16 1 3 20 0 0 0 0 0
 0 20 3 3 20 20
D 98 21 16 1 3 20 0 0 0 0 0
 0 20 3 3 20 20
D 101 21 16 1 3 20 0 0 0 0 0
 0 20 3 3 20 20
D 104 21 16 1 3 20 0 0 0 0 0
 0 20 3 3 20 20
D 107 21 16 1 3 20 0 0 0 0 0
 0 20 3 3 20 20
D 110 21 16 1 3 20 0 0 0 0 0
 0 20 3 3 20 20
D 113 21 16 1 3 20 0 0 0 0 0
 0 20 3 3 20 20
D 116 21 16 1 3 20 0 0 0 0 0
 0 20 3 3 20 20
D 119 21 16 1 3 20 0 0 0 0 0
 0 20 3 3 20 20
D 122 21 16 1 3 20 0 0 0 0 0
 0 20 3 3 20 20
D 125 18 32
D 127 18 32
D 129 18 20
S 582 24 0 0 0 9 1 0 4658 10015 0 A 0 0 0 0 0 0 0 0 0 0 0 0 0 0 0 0 0 0 0 0 0 60 0 0 0 0 0 0 autopilot
S 585 23 0 0 0 9 638 582 4681 14 0 A 0 0 0 0 0 0 0 0 0 0 0 0 0 0 0 0 0 0 0 0 0 0 0 582 0 0 0 0 read_line
S 619 3 0 0 0 6 1 1 0 0 0 A 0 0 0 0 0 0 0 0 0 10 0 0 0 0 0 0 0 0 0 0 0 0 0 0 0 0 0 0 6
R 638 14 19 parser read_line
S 661 16 0 0 0 6 1 582 5085 14 400000 A 0 0 0 0 0 0 0 0 2147483647 18 0 0 0 0 0 0 0 0 0 0 0 0 0 582 0 0 0 0 max_int
S 662 3 0 0 0 6 0 1 0 0 0 A 0 0 0 0 0 0 0 0 0 2147483647 0 0 0 0 0 0 0 0 0 0 0 0 0 0 0 0 0 0 6
S 663 16 1 0 0 6 1 582 5093 4 400000 A 0 0 0 0 0 0 0 0 32 20 0 0 0 0 0 0 0 0 0 0 0 0 0 582 0 0 0 0 max_event_step
S 664 3 0 0 0 6 1 1 0 0 0 A 0 0 0 0 0 0 0 0 0 32 0 0 0 0 0 0 0 0 0 0 0 0 0 0 0 0 0 0 6
S 665 16 0 0 0 6 1 582 5108 14 400000 A 0 0 0 0 0 0 0 0 10 17 0 0 0 0 0 0 0 0 0 0 0 0 0 582 0 0 0 0 n_auto_vars
S 666 6 4 0 0 6 670 582 5120 14 0 A 0 0 0 0 0 0 0 0 0 0 0 0 709 0 0 0 0 0 0 0 0 0 0 582 0 0 0 0 n_events
S 667 6 4 0 0 6 673 582 5129 80000c 0 A 0 0 0 0 0 0 0 0 0 0 0 0 710 0 0 0 0 0 0 0 0 0 0 582 0 0 0 0 event_index
S 668 6 4 0 0 6 1 582 5141 80001c 0 A 0 0 0 0 0 0 0 0 0 0 0 0 711 0 0 0 0 0 0 0 0 0 0 582 0 0 0 0 max_rules
S 670 6 4 0 0 6 1 582 5151 14 0 A 0 0 0 0 0 4 0 0 0 0 0 0 709 0 0 0 0 0 0 0 0 0 0 582 0 0 0 0 n_rules
S 671 7 4 0 4 58 672 582 5159 800004 100 A 0 0 0 0 0 0 0 0 0 0 0 0 712 0 0 0 0 0 0 0 0 0 0 582 0 0 0 0 event_step
S 672 6 4 0 0 6 681 582 5170 4 0 A 0 0 0 0 0 128 0 0 0 0 0 0 712 0 0 0 0 0 0 0 0 0 0 582 0 0 0 0 current_nfi
S 673 6 4 0 0 16 675 582 5182 80000c 0 A 0 0 0 0 0 4 0 0 0 0 0 0 710 0 0 0 0 0 0 0 0 0 0 582 0 0 0 0 pilot_p
S 675 6 4 0 0 16 676 582 5190 80000c 0 A 0 0 0 0 0 8 0 0 0 0 0 0 710 0 0 0 0 0 0 0 0 0 0 582 0 0 0 0 restart_p
S 676 6 4 0 0 16 677 582 5200 80000c 0 A 0 0 0 0 0 12 0 0 0 0 0 0 710 0 0 0 0 0 0 0 0 0 0 582 0 0 0 0 pause_p
S 677 6 4 0 0 6 1 582 5208 80000c 0 A 0 0 0 0 0 16 0 0 0 0 0 0 710 0 0 0 0 0 0 0 0 0 0 582 0 0 0 0 pilot_unit
S 679 3 0 0 0 6 1 1 0 0 0 A 0 0 0 0 0 0 0 0 0 256 0 0 0 0 0 0 0 0 0 0 0 0 0 0 0 0 0 0 6
S 680 6 4 0 0 61 1 582 5219 14 0 A 0 0 0 0 0 0 0 0 0 0 0 0 713 0 0 0 0 0 0 0 0 0 0 582 0 0 0 0 pilot_type
S 681 7 4 0 4 63 682 582 5230 800004 100 A 0 0 0 0 0 144 0 0 0 0 0 0 712 0 0 0 0 0 0 0 0 0 0 582 0 0 0 0 rule_isave
S 682 7 4 0 4 66 692 582 5241 800004 100 A 0 0 0 0 0 272 0 0 0 0 0 0 712 0 0 0 0 0 0 0 0 0 0 582 0 0 0 0 rule_iprint
S 683 7 4 0 4 69 684 582 5253 800004 100 A 0 0 0 0 0 0 0 0 0 0 0 0 714 0 0 0 0 0 0 0 0 0 0 582 0 0 0 0 rule_dt
S 684 7 4 0 4 72 687 582 5261 800004 100 A 0 0 0 0 0 256 0 0 0 0 0 0 714 0 0 0 0 0 0 0 0 0 0 582 0 0 0 0 rule_emass
S 685 3 0 0 0 6 0 1 0 0 0 A 0 0 0 0 0 0 0 0 0 80 0 0 0 0 0 0 0 0 0 0 0 0 0 0 0 0 0 0 6
S 686 7 4 0 4 77 688 582 5272 800004 100 A 0 0 0 0 0 0 0 0 0 0 0 0 715 0 0 0 0 0 0 0 0 0 0 582 0 0 0 0 rule_electron_dynamics
S 687 7 4 0 4 80 689 582 5295 800004 100 A 0 0 0 0 0 512 0 0 0 0 0 0 714 0 0 0 0 0 0 0 0 0 0 582 0 0 0 0 rule_electron_damping
S 688 7 4 0 4 83 690 582 5317 800004 100 A 0 0 0 0 0 2560 0 0 0 0 0 0 715 0 0 0 0 0 0 0 0 0 0 582 0 0 0 0 rule_ion_dynamics
S 689 7 4 0 4 86 691 582 5335 800004 100 A 0 0 0 0 0 768 0 0 0 0 0 0 714 0 0 0 0 0 0 0 0 0 0 582 0 0 0 0 rule_ion_damping
S 690 7 4 0 4 89 1 582 5352 800004 100 A 0 0 0 0 0 5120 0 0 0 0 0 0 715 0 0 0 0 0 0 0 0 0 0 582 0 0 0 0 rule_ion_temperature
S 691 7 4 0 4 92 1 582 5373 800004 100 A 0 0 0 0 0 1024 0 0 0 0 0 0 714 0 0 0 0 0 0 0 0 0 0 582 0 0 0 0 rule_tempw
S 692 7 4 0 4 95 693 582 5384 800004 100 A 0 0 0 0 0 400 0 0 0 0 0 0 712 0 0 0 0 0 0 0 0 0 0 582 0 0 0 0 event_isave
S 693 7 4 0 4 98 694 582 5396 800004 100 A 0 0 0 0 0 528 0 0 0 0 0 0 712 0 0 0 0 0 0 0 0 0 0 582 0 0 0 0 event_iprint
S 694 7 4 0 4 101 695 582 5409 800004 100 A 0 0 0 0 0 656 0 0 0 0 0 0 712 0 0 0 0 0 0 0 0 0 0 582 0 0 0 0 event_dt
S 695 7 4 0 4 104 696 582 5418 800004 100 A 0 0 0 0 0 784 0 0 0 0 0 0 712 0 0 0 0 0 0 0 0 0 0 582 0 0 0 0 event_emass
S 696 7 4 0 4 107 697 582 5430 800004 100 A 0 0 0 0 0 912 0 0 0 0 0 0 712 0 0 0 0 0 0 0 0 0 0 582 0 0 0 0 event_electron_dynamics
S 697 7 4 0 4 110 698 582 5454 800004 100 A 0 0 0 0 0 1040 0 0 0 0 0 0 712 0 0 0 0 0 0 0 0 0 0 582 0 0 0 0 event_electron_damping
S 698 7 4 0 4 113 699 582 5477 800004 100 A 0 0 0 0 0 1168 0 0 0 0 0 0 712 0 0 0 0 0 0 0 0 0 0 582 0 0 0 0 event_ion_dynamics
S 699 7 4 0 4 116 700 582 5496 800004 100 A 0 0 0 0 0 1296 0 0 0 0 0 0 712 0 0 0 0 0 0 0 0 0 0 582 0 0 0 0 event_ion_damping
S 700 7 4 0 4 119 701 582 5514 800004 100 A 0 0 0 0 0 1424 0 0 0 0 0 0 712 0 0 0 0 0 0 0 0 0 0 582 0 0 0 0 event_ion_temperature
S 701 7 4 0 4 122 1 582 5536 800004 100 A 0 0 0 0 0 1552 0 0 0 0 0 0 712 0 0 0 0 0 0 0 0 0 0 582 0 0 0 0 event_tempw
S 702 27 0 0 0 9 720 582 5548 0 0 A 0 0 0 0 0 0 0 0 0 0 0 0 0 0 0 0 0 0 0 0 0 0 0 582 0 0 0 0 auto_check
S 703 27 0 0 0 6 725 582 5559 0 0 A 0 0 0 0 0 0 0 0 0 0 0 0 0 0 0 0 0 0 0 0 0 0 0 582 0 0 0 0 init_autopilot
S 704 27 0 0 0 9 727 582 5574 0 0 A 0 0 0 0 0 0 0 0 0 0 0 0 0 0 0 0 0 0 0 0 0 0 0 582 0 0 0 0 card_autopilot
S 705 27 0 0 0 9 730 582 5589 0 0 A 0 0 0 0 0 0 0 0 0 0 0 0 0 0 0 0 0 0 0 0 0 0 0 582 0 0 0 0 add_rule
S 706 27 0 0 0 9 733 582 5598 0 0 A 0 0 0 0 0 0 0 0 0 0 0 0 0 0 0 0 0 0 0 0 0 0 0 582 0 0 0 0 assign_rule
S 707 27 0 0 0 9 716 582 5610 0 0 A 0 0 0 0 0 0 0 0 0 0 0 0 0 0 0 0 0 0 0 0 0 0 0 582 0 0 0 0 auto_error
S 708 27 0 0 0 9 738 582 5621 0 0 A 0 0 0 0 0 0 0 0 0 0 0 0 0 0 0 0 0 0 0 0 0 0 0 582 0 0 0 0 parse_mailbox
S 709 11 0 0 0 9 627 582 5635 40800010 801000 A 0 0 0 0 0 8 0 0 666 670 0 0 0 0 0 0 0 0 0 0 0 0 0 0 0 0 0 0 _autopilot$4
S 710 11 0 0 0 9 709 582 5648 40800000 801000 A 0 0 0 0 0 20 0 0 667 677 0 0 0 0 0 0 0 0 0 0 0 0 0 0 0 0 0 0 _autopilot$8
S 711 11 0 0 0 9 710 582 5661 40800010 801000 A 0 0 0 0 0 4 0 0 668 668 0 0 0 0 0 0 0 0 0 0 0 0 0 0 0 0 0 0 _autopilot$12
S 712 11 0 0 4 9 711 582 5675 40800000 801000 A 0 0 0 0 0 1680 0 0 671 701 0 0 0 0 0 0 0 0 0 0 0 0 0 0 0 0 0 0 _autopilot$0
S 713 11 0 0 0 9 712 582 5688 40800010 801000 A 0 0 0 0 0 256 0 0 680 680 0 0 0 0 0 0 0 0 0 0 0 0 0 0 0 0 0 0 _autopilot$5
S 714 11 0 0 4 9 713 582 5701 40800000 801000 A 0 0 0 0 0 1280 0 0 683 691 0 0 0 0 0 0 0 0 0 0 0 0 0 0 0 0 0 0 _autopilot$2
S 715 11 0 0 4 9 714 582 5714 40800000 801000 A 0 0 0 0 0 7680 0 0 686 690 0 0 0 0 0 0 0 0 0 0 0 0 0 0 0 0 0 0 _autopilot$1
S 716 23 5 0 0 0 719 582 5610 0 0 A 0 0 0 0 0 0 0 0 0 0 0 0 0 0 0 0 0 0 0 0 0 0 0 0 0 0 0 0 auto_error
S 717 1 3 1 0 28 1 716 5727 14 43000 A 0 0 0 0 0 0 0 0 0 0 0 0 0 0 0 0 0 0 0 0 0 0 0 0 0 0 0 0 calling_routine
S 718 1 3 1 0 28 1 716 5743 14 43000 A 0 0 0 0 0 0 0 0 0 0 0 0 0 0 0 0 0 0 0 0 0 0 0 0 0 0 0 0 message
S 719 14 5 0 0 0 1 716 5610 0 400000 A 0 0 0 0 0 0 0 39 2 0 0 0 0 0 0 0 0 0 0 0 0 168 0 582 0 0 0 0 auto_error
F 719 2 717 718
S 720 23 5 0 0 16 723 582 5548 4 0 A 0 0 0 0 0 0 0 0 0 0 0 0 0 0 0 0 0 0 0 0 0 0 0 0 0 0 0 0 auto_check
S 721 1 3 1 0 6 1 720 5751 14 3000 A 0 0 0 0 0 0 0 0 0 0 0 0 0 0 0 0 0 0 0 0 0 0 0 0 0 0 0 0 ndr
S 722 1 3 1 0 28 1 720 5755 14 43000 A 0 0 0 0 0 0 0 0 0 0 0 0 0 0 0 0 0 0 0 0 0 0 0 0 0 0 0 0 outdir
S 723 14 5 0 0 16 1 720 5548 4 400000 A 0 0 0 0 0 0 0 42 2 0 0 724 0 0 0 0 0 0 0 0 0 218 0 582 0 0 0 0 auto_check
F 723 2 721 722
S 724 1 3 0 0 16 1 720 5548 14 1003000 A 0 0 0 0 0 0 0 0 0 0 0 0 0 0 0 0 0 0 0 0 0 0 0 0 0 0 0 0 auto_check
S 725 23 5 0 0 0 726 582 5559 0 0 A 0 0 0 0 0 0 0 0 0 0 0 0 0 0 0 0 0 0 0 0 0 0 0 0 0 0 0 0 init_autopilot
S 726 14 5 0 0 0 1 725 5559 0 400000 A 0 0 0 0 0 0 0 45 0 0 0 0 0 0 0 0 0 0 0 0 0 259 0 582 0 0 0 0 init_autopilot
F 726 0
S 727 23 5 0 0 0 729 582 5574 0 0 A 0 0 0 0 0 0 0 0 0 0 0 0 0 0 0 0 0 0 0 0 0 0 0 0 0 0 0 0 card_autopilot
S 728 1 3 0 0 125 1 727 5762 14 3000 A 0 0 0 0 0 0 0 0 0 0 0 0 0 0 0 0 0 0 0 0 0 0 0 0 0 0 0 0 input_line
S 729 14 5 0 0 0 1 727 5574 0 400000 A 0 0 0 0 0 0 0 46 1 0 0 0 0 0 0 0 0 0 0 0 0 313 0 582 0 0 0 0 card_autopilot
F 729 1 728
S 730 23 5 0 0 0 732 582 5589 0 0 A 0 0 0 0 0 0 0 0 0 0 0 0 0 0 0 0 0 0 0 0 0 0 0 0 0 0 0 0 add_rule
S 731 1 3 0 0 127 1 730 5762 14 3000 A 0 0 0 0 0 0 0 0 0 0 0 0 0 0 0 0 0 0 0 0 0 0 0 0 0 0 0 0 input_line
S 732 14 5 0 0 0 1 730 5589 0 400000 A 0 0 0 0 0 0 0 48 1 0 0 0 0 0 0 0 0 0 0 0 0 412 0 582 0 0 0 0 add_rule
F 732 1 731
S 733 23 5 0 0 0 737 582 5598 0 0 A 0 0 0 0 0 0 0 0 0 0 0 0 0 0 0 0 0 0 0 0 0 0 0 0 0 0 0 0 assign_rule
S 734 1 3 0 0 6 1 733 5773 14 3000 A 0 0 0 0 0 0 0 0 0 0 0 0 0 0 0 0 0 0 0 0 0 0 0 0 0 0 0 0 event
S 735 1 3 0 0 129 1 733 5040 14 3000 A 0 0 0 0 0 0 0 0 0 0 0 0 0 0 0 0 0 0 0 0 0 0 0 0 0 0 0 0 var
S 736 1 3 0 0 129 1 733 5779 14 3000 A 0 0 0 0 0 0 0 0 0 0 0 0 0 0 0 0 0 0 0 0 0 0 0 0 0 0 0 0 value
S 737 14 5 0 0 0 1 733 5598 0 400000 A 0 0 0 0 0 0 0 50 3 0 0 0 0 0 0 0 0 0 0 0 0 662 0 582 0 0 0 0 assign_rule
F 737 3 734 735 736
S 738 23 5 0 0 0 739 582 5621 0 0 A 0 0 0 0 0 0 0 0 0 0 0 0 0 0 0 0 0 0 0 0 0 0 0 0 0 0 0 0 parse_mailbox
S 739 14 5 0 0 0 1 738 5621 0 400000 A 0 0 0 0 0 0 0 54 0 0 0 0 0 0 0 0 0 0 0 0 0 768 0 582 0 0 0 0 parse_mailbox
F 739 0
A 17 2 0 0 0 6 619 0 0 0 17 0 0 0 0 0 0 0 0 0
A 18 2 0 0 0 6 662 0 0 0 18 0 0 0 0 0 0 0 0 0
A 20 2 0 0 0 6 664 0 0 0 20 0 0 0 0 0 0 0 0 0
A 32 2 0 0 0 6 679 0 0 0 32 0 0 0 0 0 0 0 0 0
A 33 2 0 0 0 6 685 0 0 0 33 0 0 0 0 0 0 0 0 0
Z
Z
