V26 basic_algebra_routines
26 basic_algebra_routines.F90 S582 0
04/24/2012  15:51:02
use kinds private
use kinds private
enduse
D 56 21 9 1 17 20 1 1 0 0 1
 3 18 3 3 18 19
D 59 21 9 1 21 24 1 1 0 0 1
 3 22 3 3 22 23
D 62 21 9 1 25 28 1 1 0 0 1
 3 26 3 3 26 27
D 65 21 9 1 29 32 1 1 0 0 1
 3 30 3 3 30 31
D 68 21 9 1 3 36 0 0 1 0 0
 0 35 3 3 36 36
D 71 21 9 1 38 41 1 1 0 0 1
 3 39 3 3 39 40
D 74 21 9 1 42 45 1 1 0 0 1
 3 43 3 3 43 44
D 77 21 9 2 46 52 1 1 0 0 1
 3 47 3 3 47 48
 3 49 50 3 49 51
D 80 21 9 1 3 55 0 0 1 0 0
 0 54 3 3 55 55
D 83 21 9 1 57 60 1 1 0 0 1
 3 58 3 3 58 59
D 86 21 9 2 61 67 1 1 0 0 1
 3 62 3 3 62 63
 3 64 65 3 64 66
D 89 21 9 1 3 70 0 0 1 0 0
 0 69 3 3 70 70
D 92 21 9 1 72 75 1 1 0 0 1
 3 73 3 3 73 74
D 95 21 9 1 76 79 1 1 0 0 1
 3 77 3 3 77 78
D 98 21 9 2 80 87 0 0 1 0 0
 0 82 3 3 83 83
 0 85 83 3 86 86
D 101 21 9 2 90 93 0 0 1 0 0
 0 91 3 3 92 92
 0 91 92 3 92 92
S 582 24 0 0 0 9 1 0 4658 10005 0 A 0 0 0 0 0 0 0 0 0 0 0 0 0 0 0 0 0 0 0 0 0 27 0 0 0 0 0 0 basic_algebra_routines
S 584 23 0 0 0 9 587 582 4687 4 0 A 0 0 0 0 0 0 0 0 0 0 0 0 0 0 0 0 0 0 0 0 0 0 0 582 0 0 0 0 dp
R 587 16 1 kinds dp
S 594 26 0 0 0 9 1 582 4721 0 0 A 0 0 0 0 0 0 0 0 0 0 0 0 0 0 0 0 3 1 0 0 0 0 0 582 0 0 0 0 dot
O 594 1 595
S 595 27 0 0 0 9 601 582 4725 10000 400000 A 0 0 0 0 0 0 10 0 0 0 0 0 0 0 0 0 0 0 0 0 0 0 0 582 0 0 0 0 dot_product_
Q 595 594 0
S 596 26 0 0 0 9 1 582 4738 0 0 A 0 0 0 0 0 0 0 0 0 0 0 0 0 0 0 0 5 1 0 0 0 0 0 582 0 0 0 0 ext
O 596 1 597
S 597 27 0 0 0 9 614 582 4742 10000 400000 A 0 0 0 0 0 0 11 0 0 0 0 0 0 0 0 0 0 0 0 0 0 0 0 582 0 0 0 0 external_product_
Q 597 596 0
S 598 26 0 0 0 9 1 582 4760 0 0 A 0 0 0 0 0 0 0 0 0 0 0 0 0 0 0 0 9 2 0 0 0 0 0 582 0 0 0 0 times
O 598 2 600 599
S 599 27 0 0 0 6 637 582 4766 10000 400000 A 0 0 0 0 0 0 12 0 0 0 0 0 0 0 0 0 0 0 0 0 0 0 0 582 0 0 0 0 matrix_times_vector
Q 599 598 0
S 600 27 0 0 0 9 654 582 4786 10000 400000 A 0 0 0 0 0 0 13 0 0 0 0 0 0 0 0 0 0 0 0 0 0 0 0 582 0 0 0 0 vector_times_matrix
Q 600 598 0
S 601 23 5 0 0 9 604 582 4725 0 0 A 0 0 0 0 0 0 0 0 0 0 0 0 0 0 0 0 0 0 0 0 0 0 0 0 0 0 0 0 dot_product_
S 602 7 3 1 0 56 1 601 4806 20000004 10003000 A 0 0 0 0 0 0 0 0 0 0 0 0 0 0 0 0 0 0 0 0 0 0 0 0 0 0 0 0 vec1
S 603 7 3 1 0 59 1 601 4811 20000004 10003000 A 0 0 0 0 0 0 0 0 0 0 0 0 0 0 0 0 0 0 0 0 0 0 0 0 0 0 0 0 vec2
S 604 14 5 0 0 9 1 601 4725 20000004 400000 A 0 0 0 0 0 0 0 4 2 0 0 605 0 0 0 0 0 0 0 0 0 71 0 582 0 0 0 0 dot_product_
F 604 2 602 603
S 605 1 3 0 0 9 1 601 4725 4 1003000 A 0 0 0 0 0 0 0 0 0 0 0 0 0 0 0 0 0 0 0 0 0 0 0 0 0 0 0 0 dot_product_
S 606 6 1 0 0 6 1 601 4816 40800006 3000 A 0 0 0 0 0 0 0 0 0 0 0 0 0 0 0 0 0 0 0 0 0 0 0 0 0 0 0 0 z_b_0
S 607 6 1 0 0 6 1 601 4822 40800006 3000 A 0 0 0 0 0 0 0 0 0 0 0 0 0 0 0 0 0 0 0 0 0 0 0 0 0 0 0 0 z_b_2
S 608 6 1 0 0 6 1 601 4828 40800006 3000 A 0 0 0 0 0 0 0 0 0 0 0 0 0 0 0 0 0 0 0 0 0 0 0 0 0 0 0 0 z_b_3
S 609 6 1 0 0 6 1 601 4834 40800006 3000 A 0 0 0 0 0 0 0 0 0 0 0 0 0 0 0 0 0 0 0 0 0 0 0 0 0 0 0 0 z_e_22
S 610 6 1 0 0 6 1 601 4841 40800006 3000 A 0 0 0 0 0 0 0 0 0 0 0 0 0 0 0 0 0 0 0 0 0 0 0 0 0 0 0 0 z_b_4
S 611 6 1 0 0 6 1 601 4847 40800006 3000 A 0 0 0 0 0 0 0 0 0 0 0 0 0 0 0 0 0 0 0 0 0 0 0 0 0 0 0 0 z_b_6
S 612 6 1 0 0 6 1 601 4853 40800006 3000 A 0 0 0 0 0 0 0 0 0 0 0 0 0 0 0 0 0 0 0 0 0 0 0 0 0 0 0 0 z_b_7
S 613 6 1 0 0 6 1 601 4859 40800006 3000 A 0 0 0 0 0 0 0 0 0 0 0 0 0 0 0 0 0 0 0 0 0 0 0 0 0 0 0 0 z_e_29
S 614 23 5 0 0 9 617 582 4742 0 0 A 0 0 0 0 0 0 0 0 0 0 0 0 0 0 0 0 0 0 0 0 0 0 0 0 0 0 0 0 external_product_
S 615 7 3 1 0 62 1 614 4806 20400004 10003000 A 0 0 0 0 0 0 0 0 0 0 0 0 0 0 0 0 0 0 0 0 0 0 0 0 0 0 0 0 vec1
S 616 7 3 1 0 65 1 614 4811 20000004 10003000 A 0 0 0 0 0 0 0 0 0 0 0 0 0 0 0 0 0 0 0 0 0 0 0 0 0 0 0 0 vec2
S 617 14 5 0 0 68 1 614 4742 20000204 400000 A 0 0 0 0 0 0 0 7 2 0 0 618 0 0 0 0 0 0 0 0 0 87 0 582 0 0 0 0 external_product_
F 617 2 615 616
S 618 7 3 0 0 68 1 614 4742 800204 1003000 A 0 0 0 0 0 0 0 0 0 0 0 0 0 0 0 0 0 0 0 0 0 0 0 0 0 0 0 0 external_product_
S 619 6 1 0 0 6 1 614 4816 40800006 3000 A 0 0 0 0 0 0 0 0 0 0 0 0 0 0 0 0 0 0 0 0 0 0 0 0 0 0 0 0 z_b_0
S 620 6 1 0 0 6 1 614 4822 40800006 3000 A 0 0 0 0 0 0 0 0 0 0 0 0 0 0 0 0 0 0 0 0 0 0 0 0 0 0 0 0 z_b_2
S 621 6 1 0 0 6 1 614 4828 40800006 3000 A 0 0 0 0 0 0 0 0 0 0 0 0 0 0 0 0 0 0 0 0 0 0 0 0 0 0 0 0 z_b_3
S 622 6 1 0 0 6 1 614 4866 40800006 3000 A 0 0 0 0 0 0 0 0 0 0 0 0 0 0 0 0 0 0 0 0 0 0 0 0 0 0 0 0 z_e_30
S 623 6 1 0 0 6 1 614 4841 40800006 3000 A 0 0 0 0 0 0 0 0 0 0 0 0 0 0 0 0 0 0 0 0 0 0 0 0 0 0 0 0 z_b_4
S 624 6 1 0 0 6 1 614 4847 40800006 3000 A 0 0 0 0 0 0 0 0 0 0 0 0 0 0 0 0 0 0 0 0 0 0 0 0 0 0 0 0 z_b_6
S 625 6 1 0 0 6 1 614 4853 40800006 3000 A 0 0 0 0 0 0 0 0 0 0 0 0 0 0 0 0 0 0 0 0 0 0 0 0 0 0 0 0 z_b_7
S 626 6 1 0 0 6 1 614 4873 40800006 3000 A 0 0 0 0 0 0 0 0 0 0 0 0 0 0 0 0 0 0 0 0 0 0 0 0 0 0 0 0 z_e_37
S 627 6 1 0 0 6 1 614 4880 40800006 3000 A 0 0 0 0 0 0 0 0 0 0 0 0 0 0 0 0 0 0 0 0 0 0 0 0 0 0 0 0 z_e_41
S 629 23 5 0 0 6 631 582 4898 0 0 A 0 0 0 0 0 0 0 0 0 0 0 0 0 0 0 0 0 0 0 0 0 0 0 0 0 0 0 0 norm
S 630 7 3 1 0 71 1 629 4903 20000004 10003000 A 0 0 0 0 0 0 0 0 0 0 0 0 0 0 0 0 0 0 0 0 0 0 0 0 0 0 0 0 vec
S 631 14 5 0 0 9 1 629 4898 20000004 400000 A 0 0 0 0 0 0 0 10 1 0 0 632 0 0 0 0 0 0 0 0 0 103 0 582 0 0 0 0 norm
F 631 1 630
S 632 1 3 0 0 9 1 629 4898 4 1003000 A 0 0 0 0 0 0 0 0 0 0 0 0 0 0 0 0 0 0 0 0 0 0 0 0 0 0 0 0 norm
S 633 6 1 0 0 6 1 629 4816 40800006 3000 A 0 0 0 0 0 0 0 0 0 0 0 0 0 0 0 0 0 0 0 0 0 0 0 0 0 0 0 0 z_b_0
S 634 6 1 0 0 6 1 629 4822 40800006 3000 A 0 0 0 0 0 0 0 0 0 0 0 0 0 0 0 0 0 0 0 0 0 0 0 0 0 0 0 0 z_b_2
S 635 6 1 0 0 6 1 629 4828 40800006 3000 A 0 0 0 0 0 0 0 0 0 0 0 0 0 0 0 0 0 0 0 0 0 0 0 0 0 0 0 0 z_b_3
S 636 6 1 0 0 6 1 629 4907 40800006 3000 A 0 0 0 0 0 0 0 0 0 0 0 0 0 0 0 0 0 0 0 0 0 0 0 0 0 0 0 0 z_e_43
S 637 23 5 0 0 6 640 582 4766 0 0 A 0 0 0 0 0 0 0 0 0 0 0 0 0 0 0 0 0 0 0 0 0 0 0 0 0 0 0 0 matrix_times_vector
S 638 7 3 1 0 77 1 637 4914 20000004 10003000 A 0 0 0 0 0 0 0 0 0 0 0 0 0 0 0 0 0 0 0 0 0 0 0 0 0 0 0 0 mat
S 639 7 3 1 0 74 1 637 4903 20400004 10003000 A 0 0 0 0 0 0 0 0 0 0 0 0 0 0 0 0 0 0 0 0 0 0 0 0 0 0 0 0 vec
S 640 14 5 0 0 80 1 637 4766 20000204 400000 A 0 0 0 0 0 0 0 12 2 0 0 641 0 0 0 0 0 0 0 0 0 119 0 582 0 0 0 0 matrix_times_vector
F 640 2 638 639
S 641 7 3 0 0 80 1 637 4766 800204 1003000 A 0 0 0 0 0 0 0 0 0 0 0 0 0 0 0 0 0 0 0 0 0 0 0 0 0 0 0 0 matrix_times_vector
S 642 6 1 0 0 6 1 637 4816 40800006 3000 A 0 0 0 0 0 0 0 0 0 0 0 0 0 0 0 0 0 0 0 0 0 0 0 0 0 0 0 0 z_b_0
S 643 6 1 0 0 6 1 637 4822 40800006 3000 A 0 0 0 0 0 0 0 0 0 0 0 0 0 0 0 0 0 0 0 0 0 0 0 0 0 0 0 0 z_b_2
S 644 6 1 0 0 6 1 637 4828 40800006 3000 A 0 0 0 0 0 0 0 0 0 0 0 0 0 0 0 0 0 0 0 0 0 0 0 0 0 0 0 0 z_b_3
S 645 6 1 0 0 6 1 637 4918 40800006 3000 A 0 0 0 0 0 0 0 0 0 0 0 0 0 0 0 0 0 0 0 0 0 0 0 0 0 0 0 0 z_e_47
S 646 6 1 0 0 6 1 637 4841 40800006 3000 A 0 0 0 0 0 0 0 0 0 0 0 0 0 0 0 0 0 0 0 0 0 0 0 0 0 0 0 0 z_b_4
S 647 6 1 0 0 6 1 637 4847 40800006 3000 A 0 0 0 0 0 0 0 0 0 0 0 0 0 0 0 0 0 0 0 0 0 0 0 0 0 0 0 0 z_b_6
S 648 6 1 0 0 6 1 637 4853 40800006 3000 A 0 0 0 0 0 0 0 0 0 0 0 0 0 0 0 0 0 0 0 0 0 0 0 0 0 0 0 0 z_b_7
S 649 6 1 0 0 6 1 637 4925 40800006 3000 A 0 0 0 0 0 0 0 0 0 0 0 0 0 0 0 0 0 0 0 0 0 0 0 0 0 0 0 0 z_b_9
S 650 6 1 0 0 6 1 637 4931 40800006 3000 A 0 0 0 0 0 0 0 0 0 0 0 0 0 0 0 0 0 0 0 0 0 0 0 0 0 0 0 0 z_b_10
S 651 6 1 0 0 6 1 637 4938 40800006 3000 A 0 0 0 0 0 0 0 0 0 0 0 0 0 0 0 0 0 0 0 0 0 0 0 0 0 0 0 0 z_e_57
S 652 6 1 0 0 6 1 637 4945 40800006 3000 A 0 0 0 0 0 0 0 0 0 0 0 0 0 0 0 0 0 0 0 0 0 0 0 0 0 0 0 0 z_e_60
S 653 6 1 0 0 6 1 637 4952 40800006 3000 A 0 0 0 0 0 0 0 0 0 0 0 0 0 0 0 0 0 0 0 0 0 0 0 0 0 0 0 0 z_e_64
S 654 23 5 0 0 9 657 582 4786 0 0 A 0 0 0 0 0 0 0 0 0 0 0 0 0 0 0 0 0 0 0 0 0 0 0 0 0 0 0 0 vector_times_matrix
S 655 7 3 1 0 83 1 654 4903 20400004 10003000 A 0 0 0 0 0 0 0 0 0 0 0 0 0 0 0 0 0 0 0 0 0 0 0 0 0 0 0 0 vec
S 656 7 3 1 0 86 1 654 4914 20000004 10003000 A 0 0 0 0 0 0 0 0 0 0 0 0 0 0 0 0 0 0 0 0 0 0 0 0 0 0 0 0 mat
S 657 14 5 0 0 89 1 654 4786 20000204 400000 A 0 0 0 0 0 0 0 15 2 0 0 658 0 0 0 0 0 0 0 0 0 143 0 582 0 0 0 0 vector_times_matrix
F 657 2 655 656
S 658 7 3 0 0 89 1 654 4786 800204 1003000 A 0 0 0 0 0 0 0 0 0 0 0 0 0 0 0 0 0 0 0 0 0 0 0 0 0 0 0 0 vector_times_matrix
S 659 6 1 0 0 6 1 654 4816 40800006 3000 A 0 0 0 0 0 0 0 0 0 0 0 0 0 0 0 0 0 0 0 0 0 0 0 0 0 0 0 0 z_b_0
S 660 6 1 0 0 6 1 654 4822 40800006 3000 A 0 0 0 0 0 0 0 0 0 0 0 0 0 0 0 0 0 0 0 0 0 0 0 0 0 0 0 0 z_b_2
S 661 6 1 0 0 6 1 654 4828 40800006 3000 A 0 0 0 0 0 0 0 0 0 0 0 0 0 0 0 0 0 0 0 0 0 0 0 0 0 0 0 0 z_b_3
S 662 6 1 0 0 6 1 654 4959 40800006 3000 A 0 0 0 0 0 0 0 0 0 0 0 0 0 0 0 0 0 0 0 0 0 0 0 0 0 0 0 0 z_e_62
S 663 6 1 0 0 6 1 654 4841 40800006 3000 A 0 0 0 0 0 0 0 0 0 0 0 0 0 0 0 0 0 0 0 0 0 0 0 0 0 0 0 0 z_b_4
S 664 6 1 0 0 6 1 654 4847 40800006 3000 A 0 0 0 0 0 0 0 0 0 0 0 0 0 0 0 0 0 0 0 0 0 0 0 0 0 0 0 0 z_b_6
S 665 6 1 0 0 6 1 654 4853 40800006 3000 A 0 0 0 0 0 0 0 0 0 0 0 0 0 0 0 0 0 0 0 0 0 0 0 0 0 0 0 0 z_b_7
S 666 6 1 0 0 6 1 654 4925 40800006 3000 A 0 0 0 0 0 0 0 0 0 0 0 0 0 0 0 0 0 0 0 0 0 0 0 0 0 0 0 0 z_b_9
S 667 6 1 0 0 6 1 654 4931 40800006 3000 A 0 0 0 0 0 0 0 0 0 0 0 0 0 0 0 0 0 0 0 0 0 0 0 0 0 0 0 0 z_b_10
S 668 6 1 0 0 6 1 654 4966 40800006 3000 A 0 0 0 0 0 0 0 0 0 0 0 0 0 0 0 0 0 0 0 0 0 0 0 0 0 0 0 0 z_e_72
S 669 6 1 0 0 6 1 654 4973 40800006 3000 A 0 0 0 0 0 0 0 0 0 0 0 0 0 0 0 0 0 0 0 0 0 0 0 0 0 0 0 0 z_e_75
S 670 6 1 0 0 6 1 654 4980 40800006 3000 A 0 0 0 0 0 0 0 0 0 0 0 0 0 0 0 0 0 0 0 0 0 0 0 0 0 0 0 0 z_e_79
S 671 23 5 0 0 6 674 582 4987 0 0 A 0 0 0 0 0 0 0 0 0 0 0 0 0 0 0 0 0 0 0 0 0 0 0 0 0 0 0 0 matrix
S 672 7 3 1 0 92 1 671 4806 20400004 10003000 A 0 0 0 0 0 0 0 0 0 0 0 0 0 0 0 0 0 0 0 0 0 0 0 0 0 0 0 0 vec1
S 673 7 3 1 0 95 1 671 4811 20400004 10003000 A 0 0 0 0 0 0 0 0 0 0 0 0 0 0 0 0 0 0 0 0 0 0 0 0 0 0 0 0 vec2
S 674 14 5 0 0 98 1 671 4987 20000204 400000 A 0 0 0 0 0 0 0 18 2 0 0 675 0 0 0 0 0 0 0 0 0 167 0 582 0 0 0 0 matrix
F 674 2 672 673
S 675 7 3 0 0 98 1 671 4987 800204 1003000 A 0 0 0 0 0 0 0 0 0 0 0 0 0 0 0 0 0 0 0 0 0 0 0 0 0 0 0 0 matrix
S 676 6 1 0 0 6 1 671 4816 40800006 3000 A 0 0 0 0 0 0 0 0 0 0 0 0 0 0 0 0 0 0 0 0 0 0 0 0 0 0 0 0 z_b_0
S 677 6 1 0 0 6 1 671 4822 40800006 3000 A 0 0 0 0 0 0 0 0 0 0 0 0 0 0 0 0 0 0 0 0 0 0 0 0 0 0 0 0 z_b_2
S 678 6 1 0 0 6 1 671 4828 40800006 3000 A 0 0 0 0 0 0 0 0 0 0 0 0 0 0 0 0 0 0 0 0 0 0 0 0 0 0 0 0 z_b_3
S 679 6 1 0 0 6 1 671 4994 40800006 3000 A 0 0 0 0 0 0 0 0 0 0 0 0 0 0 0 0 0 0 0 0 0 0 0 0 0 0 0 0 z_e_77
S 680 6 1 0 0 6 1 671 4841 40800006 3000 A 0 0 0 0 0 0 0 0 0 0 0 0 0 0 0 0 0 0 0 0 0 0 0 0 0 0 0 0 z_b_4
S 681 6 1 0 0 6 1 671 4847 40800006 3000 A 0 0 0 0 0 0 0 0 0 0 0 0 0 0 0 0 0 0 0 0 0 0 0 0 0 0 0 0 z_b_6
S 682 6 1 0 0 6 1 671 4853 40800006 3000 A 0 0 0 0 0 0 0 0 0 0 0 0 0 0 0 0 0 0 0 0 0 0 0 0 0 0 0 0 z_b_7
S 683 6 1 0 0 6 1 671 5001 40800006 3000 A 0 0 0 0 0 0 0 0 0 0 0 0 0 0 0 0 0 0 0 0 0 0 0 0 0 0 0 0 z_e_84
S 684 6 1 0 0 6 1 671 5008 40800006 3000 A 0 0 0 0 0 0 0 0 0 0 0 0 0 0 0 0 0 0 0 0 0 0 0 0 0 0 0 0 z_e_88
S 685 6 1 0 0 6 1 671 5015 40800006 3000 A 0 0 0 0 0 0 0 0 0 0 0 0 0 0 0 0 0 0 0 0 0 0 0 0 0 0 0 0 z_e_91
S 686 6 1 0 0 6 1 671 5022 40800006 3000 A 0 0 0 0 0 0 0 0 0 0 0 0 0 0 0 0 0 0 0 0 0 0 0 0 0 0 0 0 z_e_94
S 687 6 1 0 0 6 1 671 5029 40800006 3000 A 0 0 0 0 0 0 0 0 0 0 0 0 0 0 0 0 0 0 0 0 0 0 0 0 0 0 0 0 z_e_96
S 688 23 5 0 0 6 690 582 5036 0 0 A 0 0 0 0 0 0 0 0 0 0 0 0 0 0 0 0 0 0 0 0 0 0 0 0 0 0 0 0 identity
S 689 6 3 1 0 6 1 688 2375 800004 3000 A 0 0 0 0 0 0 0 0 0 0 0 0 0 0 0 0 0 0 0 0 0 0 0 0 0 0 0 0 dim
S 690 14 5 0 0 101 1 688 5036 204 400000 A 0 0 0 0 0 0 0 21 1 0 0 691 0 0 0 0 0 0 0 0 0 188 0 582 0 0 0 0 identity
F 690 1 689
S 691 7 3 0 0 101 1 688 5036 800204 1003000 A 0 0 0 0 0 0 0 0 0 0 0 0 0 0 0 0 0 0 0 0 0 0 0 0 0 0 0 0 identity
S 692 6 1 0 0 6 1 688 5045 40800006 3000 A 0 0 0 0 0 0 0 0 0 0 0 0 0 0 0 0 0 0 0 0 0 0 0 0 0 0 0 0 z_e_90
S 693 6 1 0 0 6 1 688 5052 40800006 3000 A 0 0 0 0 0 0 0 0 0 0 0 0 0 0 0 0 0 0 0 0 0 0 0 0 0 0 0 0 z_e_92
S 694 6 1 0 0 6 1 688 5022 40800006 3000 A 0 0 0 0 0 0 0 0 0 0 0 0 0 0 0 0 0 0 0 0 0 0 0 0 0 0 0 0 z_e_94
A 17 1 0 0 0 6 608 0 0 0 0 0 0 0 0 0 0 0 0 0
A 18 1 0 0 0 6 606 0 0 0 0 0 0 0 0 0 0 0 0 0
A 19 1 0 0 0 6 609 0 0 0 0 0 0 0 0 0 0 0 0 0
A 20 1 0 0 0 6 607 0 0 0 0 0 0 0 0 0 0 0 0 0
A 21 1 0 0 0 6 612 0 0 0 0 0 0 0 0 0 0 0 0 0
A 22 1 0 0 0 6 610 0 0 0 0 0 0 0 0 0 0 0 0 0
A 23 1 0 0 0 6 613 0 0 0 0 0 0 0 0 0 0 0 0 0
A 24 1 0 0 0 6 611 0 0 0 0 0 0 0 0 0 0 0 0 0
A 25 1 0 0 0 6 621 0 0 0 0 0 0 0 0 0 0 0 0 0
A 26 1 0 0 0 6 619 0 0 0 0 0 0 0 0 0 0 0 0 0
A 27 1 0 0 0 6 622 0 0 0 0 0 0 0 0 0 0 0 0 0
A 28 1 0 0 0 6 620 0 0 0 0 0 0 0 0 0 0 0 0 0
A 29 1 0 0 0 6 625 0 0 0 0 0 0 0 0 0 0 0 0 0
A 30 1 0 0 0 6 623 0 0 0 0 0 0 0 0 0 0 0 0 0
A 31 1 0 0 0 6 626 0 0 0 0 0 0 0 0 0 0 0 0 0
A 32 1 0 0 0 6 624 0 0 0 0 0 0 0 0 0 0 0 0 0
A 33 1 0 0 0 0 426 0 0 0 0 0 0 0 0 0 0 0 0 0
A 34 1 0 1 0 62 615 0 0 0 0 0 0 0 0 0 0 0 0 0
A 35 14 0 0 0 6 33 0 0 0 0 0 0 243 2 1 0 0 0 0
W 2 34 5
A 36 1 0 0 0 6 627 0 0 0 0 0 0 0 0 0 0 0 0 0
A 38 1 0 0 0 6 635 0 0 0 0 0 0 0 0 0 0 0 0 0
A 39 1 0 0 0 6 633 0 0 0 0 0 0 0 0 0 0 0 0 0
A 40 1 0 0 0 6 636 0 0 0 0 0 0 0 0 0 0 0 0 0
A 41 1 0 0 0 6 634 0 0 0 0 0 0 0 0 0 0 0 0 0
A 42 1 0 0 0 6 644 0 0 0 0 0 0 0 0 0 0 0 0 0
A 43 1 0 0 0 6 642 0 0 0 0 0 0 0 0 0 0 0 0 0
A 44 1 0 0 0 6 645 0 0 0 0 0 0 0 0 0 0 0 0 0
A 45 1 0 0 0 6 643 0 0 0 0 0 0 0 0 0 0 0 0 0
A 46 1 0 0 0 6 650 0 0 0 0 0 0 0 0 0 0 0 0 0
A 47 1 0 0 0 6 646 0 0 0 0 0 0 0 0 0 0 0 0 0
A 48 1 0 0 0 6 651 0 0 0 0 0 0 0 0 0 0 0 0 0
A 49 1 0 0 0 6 648 0 0 0 0 0 0 0 0 0 0 0 0 0
A 50 1 0 0 0 6 647 0 0 0 0 0 0 0 0 0 0 0 0 0
A 51 1 0 0 0 6 652 0 0 0 0 0 0 0 0 0 0 0 0 0
A 52 1 0 0 0 6 649 0 0 0 0 0 0 0 0 0 0 0 0 0
A 53 1 0 3 0 74 639 0 0 0 0 0 0 0 0 0 0 0 0 0
A 54 14 0 0 0 6 33 0 0 0 0 0 0 243 2 4 0 0 0 0
W 2 53 5
A 55 1 0 0 0 6 653 0 0 0 0 0 0 0 0 0 0 0 0 0
A 57 1 0 0 0 6 661 0 0 0 0 0 0 0 0 0 0 0 0 0
A 58 1 0 0 0 6 659 0 0 0 0 0 0 0 0 0 0 0 0 0
A 59 1 0 0 0 6 662 0 0 0 0 0 0 0 0 0 0 0 0 0
A 60 1 0 0 0 6 660 0 0 0 0 0 0 0 0 0 0 0 0 0
A 61 1 0 0 0 6 667 0 0 0 0 0 0 0 0 0 0 0 0 0
A 62 1 0 0 0 6 663 0 0 0 0 0 0 0 0 0 0 0 0 0
A 63 1 0 0 0 6 668 0 0 0 0 0 0 0 0 0 0 0 0 0
A 64 1 0 0 0 6 665 0 0 0 0 0 0 0 0 0 0 0 0 0
A 65 1 0 0 0 6 664 0 0 0 0 0 0 0 0 0 0 0 0 0
A 66 1 0 0 0 6 669 0 0 0 0 0 0 0 0 0 0 0 0 0
A 67 1 0 0 0 6 666 0 0 0 0 0 0 0 0 0 0 0 0 0
A 68 1 0 5 0 83 655 0 0 0 0 0 0 0 0 0 0 0 0 0
A 69 14 0 0 0 6 33 0 0 0 0 0 0 243 2 7 0 0 0 0
W 2 68 5
A 70 1 0 0 0 6 670 0 0 0 0 0 0 0 0 0 0 0 0 0
A 72 1 0 0 0 6 678 0 0 0 0 0 0 0 0 0 0 0 0 0
A 73 1 0 0 0 6 676 0 0 0 0 0 0 0 0 0 0 0 0 0
A 74 1 0 0 0 6 679 0 0 0 0 0 0 0 0 0 0 0 0 0
A 75 1 0 0 0 6 677 0 0 0 0 0 0 0 0 0 0 0 0 0
A 76 1 0 0 10 6 682 0 0 0 0 0 0 0 0 0 0 0 0 0
A 77 1 0 0 0 6 680 0 0 0 0 0 0 0 0 0 0 0 0 0
A 78 1 0 0 3 6 683 0 0 0 0 0 0 0 0 0 0 0 0 0
A 79 1 0 0 2 6 681 0 0 0 0 0 0 0 0 0 0 0 0 0
A 80 1 0 0 0 6 687 0 0 0 0 0 0 0 0 0 0 0 0 0
A 81 1 0 7 0 92 672 0 0 0 0 0 0 0 0 0 0 0 0 0
A 82 14 0 0 0 6 33 0 0 0 0 0 0 243 2 10 0 0 0 0
W 2 81 5
A 83 1 0 0 11 6 684 0 0 0 0 0 0 0 0 0 0 0 0 0
A 84 1 0 9 0 95 673 0 0 0 0 0 0 0 0 0 0 0 0 0
A 85 14 0 0 0 6 33 0 0 0 0 0 0 243 2 13 0 0 0 0
W 2 84 5
A 86 1 0 0 0 6 685 0 0 0 0 0 0 0 0 0 0 0 0 0
A 87 1 0 0 0 6 686 0 0 0 0 0 0 0 0 0 0 0 0 0
A 90 1 0 0 0 6 694 0 0 0 0 0 0 0 0 0 0 0 0 0
A 91 1 0 0 0 6 689 0 0 0 0 0 0 0 0 0 0 0 0 0
A 92 1 0 0 0 6 692 0 0 0 0 0 0 0 0 0 0 0 0 0
A 93 1 0 0 0 6 693 0 0 0 0 0 0 0 0 0 0 0 0 0
Z
Z
