V26 berry_phase
15 berry_phase.F90 S582 0
04/24/2012  15:51:41
use io_global private
use io_global private
enduse
D 56 21 6 2 35 33 0 1 0 0 1
 17 21 29 17 21 19
 23 27 31 23 27 25
D 59 21 6 1 0 14 0 0 0 0 0
 0 14 0 3 14 0
D 62 21 6 2 50 49 0 1 0 0 1
 39 42 47 39 42 40
 43 46 48 43 46 44
D 65 21 6 1 0 14 0 0 0 0 0
 0 14 0 3 14 0
D 68 21 6 2 65 64 0 1 0 0 1
 54 57 62 54 57 55
 58 61 63 58 61 59
D 71 21 6 1 0 14 0 0 0 0 0
 0 14 0 3 14 0
D 74 21 6 1 3 34 0 0 0 0 0
 0 34 3 3 34 34
D 77 21 6 1 3 34 0 0 0 0 0
 0 34 3 3 34 34
D 80 21 6 1 3 34 0 0 0 0 0
 0 34 3 3 34 34
D 83 21 6 2 71 77 1 1 0 0 1
 3 72 3 3 72 73
 3 74 75 3 74 76
D 86 21 6 2 78 84 1 1 0 0 1
 3 79 3 3 79 80
 3 81 82 3 81 83
D 89 21 6 1 85 88 1 1 0 0 1
 3 86 3 3 86 87
D 92 21 6 1 89 92 1 1 0 0 1
 3 90 3 3 90 91
S 582 24 0 0 0 9 1 0 4658 10015 0 A 0 0 0 0 0 0 0 0 0 0 0 0 0 0 0 0 0 0 0 0 0 11 0 0 0 0 0 0 berry_phase
S 584 23 0 0 0 9 588 582 4680 14 0 A 0 0 0 0 0 0 0 0 0 0 0 0 0 0 0 0 0 0 0 0 0 0 0 582 0 0 0 0 stdout
R 588 6 4 io_global stdout
S 608 27 0 0 0 9 662 582 4860 0 0 A 0 0 0 0 0 0 0 0 0 0 0 0 0 0 0 0 0 0 0 0 0 0 0 582 0 0 0 0 berry_setup
S 609 27 0 0 0 9 673 582 4872 0 0 A 0 0 0 0 0 0 0 0 0 0 0 0 0 0 0 0 0 0 0 0 0 0 0 582 0 0 0 0 berry_closeup
S 610 7 6 0 0 56 1 582 4886 10a00004 59 A 0 0 0 0 0 0 615 0 0 0 617 0 0 0 0 0 0 0 0 614 0 0 616 582 0 0 0 0 indi_l
S 611 6 4 0 0 6 612 582 4893 40800016 0 A 0 0 0 0 0 0 0 0 0 0 0 0 645 0 0 0 0 0 0 0 0 0 0 582 0 0 0 0 z_b_0
S 612 6 4 0 0 6 627 582 4899 40800016 0 A 0 0 0 0 0 4 0 0 0 0 0 0 645 0 0 0 0 0 0 0 0 0 0 582 0 0 0 0 z_b_1
S 613 3 0 0 0 6 0 1 0 0 0 A 0 0 0 0 0 0 0 0 0 24 0 0 0 0 0 0 0 0 0 0 0 0 0 0 0 0 0 0 6
S 614 8 4 0 0 59 630 582 4905 40822064 1020 A 0 0 0 0 0 0 0 0 0 0 0 0 648 0 0 0 0 0 0 0 0 0 0 582 0 0 0 0 indi_l$sd
S 615 6 4 0 0 7 616 582 4915 40802061 1020 A 0 0 0 0 0 96 0 0 0 0 0 0 648 0 0 0 0 0 0 0 0 0 0 582 0 0 0 0 indi_l$p
S 616 6 4 0 0 7 614 582 4924 40802060 1020 A 0 0 0 0 0 104 0 0 0 0 0 0 648 0 0 0 0 0 0 0 0 0 0 582 0 0 0 0 indi_l$o
S 617 22 1 0 0 6 1 582 4933 40000000 1000 A 0 0 0 0 0 0 0 610 0 0 0 0 614 0 0 0 0 0 0 0 0 0 0 582 0 0 0 0 indi_l$arrdsc
S 618 3 0 0 0 6 0 1 0 0 0 A 0 0 0 0 0 0 0 0 0 13 0 0 0 0 0 0 0 0 0 0 0 0 0 0 0 0 0 0 6
S 619 3 0 0 0 6 0 1 0 0 0 A 0 0 0 0 0 0 0 0 0 14 0 0 0 0 0 0 0 0 0 0 0 0 0 0 0 0 0 0 6
S 620 3 0 0 0 6 0 1 0 0 0 A 0 0 0 0 0 0 0 0 0 19 0 0 0 0 0 0 0 0 0 0 0 0 0 0 0 0 0 0 6
S 621 3 0 0 0 6 0 1 0 0 0 A 0 0 0 0 0 0 0 0 0 20 0 0 0 0 0 0 0 0 0 0 0 0 0 0 0 0 0 0 6
S 622 3 0 0 0 6 0 1 0 0 0 A 0 0 0 0 0 0 0 0 0 17 0 0 0 0 0 0 0 0 0 0 0 0 0 0 0 0 0 0 6
S 623 3 0 0 0 6 0 1 0 0 0 A 0 0 0 0 0 0 0 0 0 23 0 0 0 0 0 0 0 0 0 0 0 0 0 0 0 0 0 0 6
S 624 3 0 0 0 6 0 1 0 0 0 A 0 0 0 0 0 0 0 0 0 7 0 0 0 0 0 0 0 0 0 0 0 0 0 0 0 0 0 0 6
S 625 3 0 0 0 6 0 1 0 0 0 A 0 0 0 0 0 0 0 0 0 8 0 0 0 0 0 0 0 0 0 0 0 0 0 0 0 0 0 0 6
S 626 7 6 0 0 62 1 582 4947 10a00004 59 A 0 0 0 0 0 0 630 0 0 0 632 0 0 0 0 0 0 0 0 629 0 0 631 582 0 0 0 0 sour_indi
S 627 6 4 0 0 6 628 582 4957 40800016 0 A 0 0 0 0 0 8 0 0 0 0 0 0 645 0 0 0 0 0 0 0 0 0 0 582 0 0 0 0 z_b_2
S 628 6 4 0 0 6 634 582 4963 40800016 0 A 0 0 0 0 0 12 0 0 0 0 0 0 645 0 0 0 0 0 0 0 0 0 0 582 0 0 0 0 z_b_3
S 629 8 4 0 0 65 637 582 4969 40822064 1020 A 0 0 0 0 0 112 0 0 0 0 0 0 648 0 0 0 0 0 0 0 0 0 0 582 0 0 0 0 sour_indi$sd
S 630 6 4 0 0 7 631 582 4982 40802061 1020 A 0 0 0 0 0 208 0 0 0 0 0 0 648 0 0 0 0 0 0 0 0 0 0 582 0 0 0 0 sour_indi$p
S 631 6 4 0 0 7 629 582 4994 40802060 1020 A 0 0 0 0 0 216 0 0 0 0 0 0 648 0 0 0 0 0 0 0 0 0 0 582 0 0 0 0 sour_indi$o
S 632 22 1 0 0 9 1 582 5006 40000000 1000 A 0 0 0 0 0 0 0 626 0 0 0 0 629 0 0 0 0 0 0 0 0 0 0 582 0 0 0 0 sour_indi$arrdsc
S 633 7 6 0 0 68 1 582 5023 10a00004 59 A 0 0 0 0 0 0 637 0 0 0 639 0 0 0 0 0 0 0 0 636 0 0 638 582 0 0 0 0 dest_indi
S 634 6 4 0 0 6 635 582 5033 40800016 0 A 0 0 0 0 0 16 0 0 0 0 0 0 645 0 0 0 0 0 0 0 0 0 0 582 0 0 0 0 z_b_4
S 635 6 4 0 0 6 1 582 5039 40800016 0 A 0 0 0 0 0 20 0 0 0 0 0 0 645 0 0 0 0 0 0 0 0 0 0 582 0 0 0 0 z_b_5
S 636 8 4 0 0 71 1 582 5045 40822064 1020 A 0 0 0 0 0 224 0 0 0 0 0 0 648 0 0 0 0 0 0 0 0 0 0 582 0 0 0 0 dest_indi$sd
S 637 6 4 0 0 7 638 582 5058 40802061 1020 A 0 0 0 0 0 320 0 0 0 0 0 0 648 0 0 0 0 0 0 0 0 0 0 582 0 0 0 0 dest_indi$p
S 638 6 4 0 0 7 636 582 5070 40802060 1020 A 0 0 0 0 0 328 0 0 0 0 0 0 648 0 0 0 0 0 0 0 0 0 0 582 0 0 0 0 dest_indi$o
S 639 22 1 0 0 9 1 582 5082 40000000 1000 A 0 0 0 0 0 0 0 633 0 0 0 0 636 0 0 0 0 0 0 0 0 0 0 582 0 0 0 0 dest_indi$arrdsc
S 640 7 4 0 4 74 641 582 5099 80000c 100 A 0 0 0 0 0 0 0 0 0 0 0 0 646 0 0 0 0 0 0 0 0 0 0 582 0 0 0 0 n_indi_rcv
S 641 7 4 0 4 77 642 582 5110 80000c 100 A 0 0 0 0 0 32 0 0 0 0 0 0 646 0 0 0 0 0 0 0 0 0 0 582 0 0 0 0 n_indi_snd
S 642 7 4 0 4 80 1 582 5121 80000c 100 A 0 0 0 0 0 64 0 0 0 0 0 0 646 0 0 0 0 0 0 0 0 0 0 582 0 0 0 0 icntix
S 643 6 4 0 0 16 1 582 5128 80001c 0 A 0 0 0 0 0 0 0 0 0 0 0 0 647 0 0 0 0 0 0 0 0 0 0 582 0 0 0 0 lsetup
S 645 11 0 0 0 9 595 582 5135 40800010 801000 A 0 0 0 0 0 24 0 0 611 635 0 0 0 0 0 0 0 0 0 0 0 0 0 0 0 0 0 0 _berry_phase$4
S 646 11 0 0 4 9 645 582 5150 40800000 801000 A 0 0 0 0 0 96 0 0 640 642 0 0 0 0 0 0 0 0 0 0 0 0 0 0 0 0 0 0 _berry_phase$8
S 647 11 0 0 0 9 646 582 5165 40800010 801000 A 0 0 0 0 0 4 0 0 643 643 0 0 0 0 0 0 0 0 0 0 0 0 0 0 0 0 0 0 _berry_phase$12
S 648 11 0 0 0 9 647 582 5181 40800000 801000 A 0 0 0 0 0 336 0 0 615 636 0 0 0 0 0 0 0 0 0 0 0 0 0 0 0 0 0 0 _berry_phase$0
S 649 23 5 0 0 0 652 582 5196 10 0 A 0 0 0 0 0 0 0 0 0 0 0 0 0 0 0 0 0 0 0 0 0 0 0 0 0 0 0 0 ln_setup
S 650 7 3 0 0 83 1 649 5205 20000014 10003000 A 0 0 0 0 0 0 0 0 0 0 0 0 0 0 0 0 0 0 0 0 0 0 0 0 0 0 0 0 mill
S 651 1 3 0 0 6 1 649 5210 14 3000 A 0 0 0 0 0 0 0 0 0 0 0 0 0 0 0 0 0 0 0 0 0 0 0 0 0 0 0 0 ngwt
S 652 14 5 0 0 0 1 649 5196 20000010 400000 A 0 0 0 0 0 0 0 11 2 0 0 0 0 0 0 0 0 0 0 0 0 35 0 582 0 0 0 0 ln_setup
F 652 2 650 651
S 653 6 1 0 0 6 1 649 5215 40800016 3000 A 0 0 0 0 0 0 0 0 0 0 0 0 0 0 0 0 0 0 0 0 0 0 0 0 0 0 0 0 z_b_0_1
S 654 6 1 0 0 6 1 649 5223 40800016 3000 A 0 0 0 0 0 0 0 0 0 0 0 0 0 0 0 0 0 0 0 0 0 0 0 0 0 0 0 0 z_b_2_1
S 655 6 1 0 0 6 1 649 5231 40800016 3000 A 0 0 0 0 0 0 0 0 0 0 0 0 0 0 0 0 0 0 0 0 0 0 0 0 0 0 0 0 z_b_3_1
S 656 6 1 0 0 6 1 649 5239 40800016 3000 A 0 0 0 0 0 0 0 0 0 0 0 0 0 0 0 0 0 0 0 0 0 0 0 0 0 0 0 0 z_b_5_1
S 657 6 1 0 0 6 1 649 5247 40800016 3000 A 0 0 0 0 0 0 0 0 0 0 0 0 0 0 0 0 0 0 0 0 0 0 0 0 0 0 0 0 z_b_6
S 658 6 1 0 0 6 1 649 5253 40800016 3000 A 0 0 0 0 0 0 0 0 0 0 0 0 0 0 0 0 0 0 0 0 0 0 0 0 0 0 0 0 z_e_79
S 659 6 1 0 0 6 1 649 5260 40800016 3000 A 0 0 0 0 0 0 0 0 0 0 0 0 0 0 0 0 0 0 0 0 0 0 0 0 0 0 0 0 z_e_82
S 660 23 5 0 0 0 661 582 5267 10 0 A 0 0 0 0 0 0 0 0 0 0 0 0 0 0 0 0 0 0 0 0 0 0 0 0 0 0 0 0 ln_closeup
S 661 14 5 0 0 0 1 660 5267 10 400000 A 0 0 0 0 0 0 0 14 0 0 0 0 0 0 0 0 0 0 0 0 0 57 0 582 0 0 0 0 ln_closeup
F 661 0
S 662 23 5 0 0 0 665 582 4860 0 0 A 0 0 0 0 0 0 0 0 0 0 0 0 0 0 0 0 0 0 0 0 0 0 0 0 0 0 0 0 berry_setup
S 663 1 3 0 0 6 1 662 5278 14 3000 A 0 0 0 0 0 0 0 0 0 0 0 0 0 0 0 0 0 0 0 0 0 0 0 0 0 0 0 0 ngw
S 664 7 3 0 0 86 1 662 5205 20000014 10003000 A 0 0 0 0 0 0 0 0 0 0 0 0 0 0 0 0 0 0 0 0 0 0 0 0 0 0 0 0 mill
S 665 14 5 0 0 0 1 662 4860 20000000 400000 A 0 0 0 0 0 0 0 15 2 0 0 0 0 0 0 0 0 0 0 0 0 63 0 582 0 0 0 0 berry_setup
F 665 2 663 664
S 666 6 1 0 0 6 1 662 5282 40800016 3000 A 0 0 0 0 0 0 0 0 0 0 0 0 0 0 0 0 0 0 0 0 0 0 0 0 0 0 0 0 z_b_0_2
S 667 6 1 0 0 6 1 662 5290 40800016 3000 A 0 0 0 0 0 0 0 0 0 0 0 0 0 0 0 0 0 0 0 0 0 0 0 0 0 0 0 0 z_b_2_2
S 668 6 1 0 0 6 1 662 5298 40800016 3000 A 0 0 0 0 0 0 0 0 0 0 0 0 0 0 0 0 0 0 0 0 0 0 0 0 0 0 0 0 z_b_3_2
S 669 6 1 0 0 6 1 662 5306 40800016 3000 A 0 0 0 0 0 0 0 0 0 0 0 0 0 0 0 0 0 0 0 0 0 0 0 0 0 0 0 0 z_b_5_2
S 670 6 1 0 0 6 1 662 5314 40800016 3000 A 0 0 0 0 0 0 0 0 0 0 0 0 0 0 0 0 0 0 0 0 0 0 0 0 0 0 0 0 z_b_6_2
S 671 6 1 0 0 6 1 662 5322 40800016 3000 A 0 0 0 0 0 0 0 0 0 0 0 0 0 0 0 0 0 0 0 0 0 0 0 0 0 0 0 0 z_e_1624
S 672 6 1 0 0 6 1 662 5331 40800016 3000 A 0 0 0 0 0 0 0 0 0 0 0 0 0 0 0 0 0 0 0 0 0 0 0 0 0 0 0 0 z_e_1627
S 673 23 5 0 0 0 674 582 4872 0 0 A 0 0 0 0 0 0 0 0 0 0 0 0 0 0 0 0 0 0 0 0 0 0 0 0 0 0 0 0 berry_closeup
S 674 14 5 0 0 0 1 673 4872 0 400000 A 0 0 0 0 0 0 0 18 0 0 0 0 0 0 0 0 0 0 0 0 0 182 0 582 0 0 0 0 berry_closeup
F 674 0
S 675 23 5 0 0 0 678 582 5340 10 0 A 0 0 0 0 0 0 0 0 0 0 0 0 0 0 0 0 0 0 0 0 0 0 0 0 0 0 0 0 indi_of_ig
S 676 7 3 1 0 89 1 675 5205 20000014 10003000 A 0 0 0 0 0 0 0 0 0 0 0 0 0 0 0 0 0 0 0 0 0 0 0 0 0 0 0 0 mill
S 677 7 3 2 0 92 1 675 5351 20000014 10003000 A 0 0 0 0 0 0 0 0 0 0 0 0 0 0 0 0 0 0 0 0 0 0 0 0 0 0 0 0 indi
S 678 14 5 0 0 0 1 675 5340 20000010 400000 A 0 0 0 0 0 0 0 19 2 0 0 0 0 0 0 0 0 0 0 0 0 190 0 582 0 0 0 0 indi_of_ig
F 678 2 676 677
S 679 6 1 0 0 6 1 675 5215 40800016 3000 A 0 0 0 0 0 0 0 0 0 0 0 0 0 0 0 0 0 0 0 0 0 0 0 0 0 0 0 0 z_b_0_1
S 680 6 1 0 0 6 1 675 5223 40800016 3000 A 0 0 0 0 0 0 0 0 0 0 0 0 0 0 0 0 0 0 0 0 0 0 0 0 0 0 0 0 z_b_2_1
S 681 6 1 0 0 6 1 675 5231 40800016 3000 A 0 0 0 0 0 0 0 0 0 0 0 0 0 0 0 0 0 0 0 0 0 0 0 0 0 0 0 0 z_b_3_1
S 682 6 1 0 0 6 1 675 5356 40800016 3000 A 0 0 0 0 0 0 0 0 0 0 0 0 0 0 0 0 0 0 0 0 0 0 0 0 0 0 0 0 z_e_90
S 683 6 1 0 0 6 1 675 5363 40800016 3000 A 0 0 0 0 0 0 0 0 0 0 0 0 0 0 0 0 0 0 0 0 0 0 0 0 0 0 0 0 z_b_4_1
S 684 6 1 0 0 6 1 675 5247 40800016 3000 A 0 0 0 0 0 0 0 0 0 0 0 0 0 0 0 0 0 0 0 0 0 0 0 0 0 0 0 0 z_b_6
S 685 6 1 0 0 6 1 675 5371 40800016 3000 A 0 0 0 0 0 0 0 0 0 0 0 0 0 0 0 0 0 0 0 0 0 0 0 0 0 0 0 0 z_b_7
S 686 6 1 0 0 6 1 675 5377 40800016 3000 A 0 0 0 0 0 0 0 0 0 0 0 0 0 0 0 0 0 0 0 0 0 0 0 0 0 0 0 0 z_e_97
A 14 2 0 0 0 6 613 0 0 0 14 0 0 0 0 0 0 0 0 0
A 15 2 0 0 0 6 618 0 0 0 15 0 0 0 0 0 0 0 0 0
A 16 1 0 1 0 59 614 0 0 0 0 0 0 0 0 0 0 0 0 0
A 17 10 0 0 0 6 16 1 0 0 0 0 0 0 0 0 0 0 0 0
X 1 15
A 18 2 0 0 0 6 619 0 0 0 18 0 0 0 0 0 0 0 0 0
A 19 10 0 0 17 6 16 4 0 0 0 0 0 0 0 0 0 0 0 0
X 1 18
A 20 4 0 0 0 6 19 0 3 0 0 0 0 2 0 0 0 0 0 0
A 21 4 0 0 0 6 17 0 20 0 0 0 0 1 0 0 0 0 0 0
A 22 2 0 0 0 6 620 0 0 0 22 0 0 0 0 0 0 0 0 0
A 23 10 0 0 19 6 16 7 0 0 0 0 0 0 0 0 0 0 0 0
X 1 22
A 24 2 0 0 0 6 621 0 0 0 24 0 0 0 0 0 0 0 0 0
A 25 10 0 0 23 6 16 10 0 0 0 0 0 0 0 0 0 0 0 0
X 1 24
A 26 4 0 0 0 6 25 0 3 0 0 0 0 2 0 0 0 0 0 0
A 27 4 0 0 0 6 23 0 26 0 0 0 0 1 0 0 0 0 0 0
A 28 2 0 0 0 6 622 0 0 0 28 0 0 0 0 0 0 0 0 0
A 29 10 0 0 25 6 16 13 0 0 0 0 0 0 0 0 0 0 0 0
X 1 28
A 30 2 0 0 0 6 623 0 0 0 30 0 0 0 0 0 0 0 0 0
A 31 10 0 0 29 6 16 16 0 0 0 0 0 0 0 0 0 0 0 0
X 1 30
A 32 2 0 0 0 6 624 0 0 0 32 0 0 0 0 0 0 0 0 0
A 33 10 0 0 31 6 16 19 0 0 0 0 0 0 0 0 0 0 0 0
X 1 32
A 34 2 0 0 0 6 625 0 0 0 34 0 0 0 0 0 0 0 0 0
A 35 10 0 0 33 6 16 22 0 0 0 0 0 0 0 0 0 0 0 0
X 1 34
A 38 1 0 1 0 65 629 0 0 0 0 0 0 0 0 0 0 0 0 0
A 39 10 0 0 0 6 38 1 0 0 0 0 0 0 0 0 0 0 0 0
X 1 15
A 40 10 0 0 39 6 38 4 0 0 0 0 0 0 0 0 0 0 0 0
X 1 18
A 41 4 0 0 0 6 40 0 3 0 0 0 0 2 0 0 0 0 0 0
A 42 4 0 0 0 6 39 0 41 0 0 0 0 1 0 0 0 0 0 0
A 43 10 0 0 40 6 38 7 0 0 0 0 0 0 0 0 0 0 0 0
X 1 22
A 44 10 0 0 43 6 38 10 0 0 0 0 0 0 0 0 0 0 0 0
X 1 24
A 45 4 0 0 0 6 44 0 3 0 0 0 0 2 0 0 0 0 0 0
A 46 4 0 0 0 6 43 0 45 0 0 0 0 1 0 0 0 0 0 0
A 47 10 0 0 44 6 38 13 0 0 0 0 0 0 0 0 0 0 0 0
X 1 28
A 48 10 0 0 47 6 38 16 0 0 0 0 0 0 0 0 0 0 0 0
X 1 30
A 49 10 0 0 48 6 38 19 0 0 0 0 0 0 0 0 0 0 0 0
X 1 32
A 50 10 0 0 49 6 38 22 0 0 0 0 0 0 0 0 0 0 0 0
X 1 34
A 53 1 0 1 0 71 636 0 0 0 0 0 0 0 0 0 0 0 0 0
A 54 10 0 0 0 6 53 1 0 0 0 0 0 0 0 0 0 0 0 0
X 1 15
A 55 10 0 0 54 6 53 4 0 0 0 0 0 0 0 0 0 0 0 0
X 1 18
A 56 4 0 0 0 6 55 0 3 0 0 0 0 2 0 0 0 0 0 0
A 57 4 0 0 0 6 54 0 56 0 0 0 0 1 0 0 0 0 0 0
A 58 10 0 0 55 6 53 7 0 0 0 0 0 0 0 0 0 0 0 0
X 1 22
A 59 10 0 0 58 6 53 10 0 0 0 0 0 0 0 0 0 0 0 0
X 1 24
A 60 4 0 0 0 6 59 0 3 0 0 0 0 2 0 0 0 0 0 0
A 61 4 0 0 0 6 58 0 60 0 0 0 0 1 0 0 0 0 0 0
A 62 10 0 0 59 6 53 13 0 0 0 0 0 0 0 0 0 0 0 0
X 1 28
A 63 10 0 0 62 6 53 16 0 0 0 0 0 0 0 0 0 0 0 0
X 1 30
A 64 10 0 0 63 6 53 19 0 0 0 0 0 0 0 0 0 0 0 0
X 1 32
A 65 10 0 0 64 6 53 22 0 0 0 0 0 0 0 0 0 0 0 0
X 1 34
A 71 1 0 0 0 6 657 0 0 0 0 0 0 0 0 0 0 0 0 0
A 72 1 0 0 0 6 653 0 0 0 0 0 0 0 0 0 0 0 0 0
A 73 1 0 0 0 6 658 0 0 0 0 0 0 0 0 0 0 0 0 0
A 74 1 0 0 0 6 655 0 0 0 0 0 0 0 0 0 0 0 0 0
A 75 1 0 0 0 6 654 0 0 0 0 0 0 0 0 0 0 0 0 0
A 76 1 0 0 0 6 659 0 0 0 0 0 0 0 0 0 0 0 0 0
A 77 1 0 0 56 6 656 0 0 0 0 0 0 0 0 0 0 0 0 0
A 78 1 0 0 0 6 670 0 0 0 0 0 0 0 0 0 0 0 0 0
A 79 1 0 0 0 6 666 0 0 0 0 0 0 0 0 0 0 0 0 0
A 80 1 0 0 0 6 671 0 0 0 0 0 0 0 0 0 0 0 0 0
A 81 1 0 0 0 6 668 0 0 0 0 0 0 0 0 0 0 0 0 0
A 82 1 0 0 0 6 667 0 0 0 0 0 0 0 0 0 0 0 0 0
A 83 1 0 0 0 6 672 0 0 0 0 0 0 0 0 0 0 0 0 0
A 84 1 0 0 0 6 669 0 0 0 0 0 0 0 0 0 0 0 0 0
A 85 1 0 0 2 6 681 0 0 0 0 0 0 0 0 0 0 0 0 0
A 86 1 0 0 0 6 679 0 0 0 0 0 0 0 0 0 0 0 0 0
A 87 1 0 0 10 6 682 0 0 0 0 0 0 0 0 0 0 0 0 0
A 88 1 0 0 0 6 680 0 0 0 0 0 0 0 0 0 0 0 0 0
A 89 1 0 0 0 6 685 0 0 0 0 0 0 0 0 0 0 0 0 0
A 90 1 0 0 3 6 683 0 0 0 0 0 0 0 0 0 0 0 0 0
A 91 1 0 0 0 6 686 0 0 0 0 0 0 0 0 0 0 0 0 0
A 92 1 0 0 11 6 684 0 0 0 0 0 0 0 0 0 0 0 0 0
Z
Z
