V26 bfgs_module
15 bfgs_module.F90 S582 0
04/24/2012  15:51:03
use constants private
use io_files private
use kinds private
use constants private
use io_files private
use kinds private
enduse
D 161 18 13
D 163 21 9 1 254 253 0 1 0 0 1
 248 251 252 248 251 249
D 166 21 6 1 0 246 0 0 0 0 0
 0 246 0 3 246 0
D 169 21 9 1 263 262 0 1 0 0 1
 257 260 261 257 260 258
D 172 21 6 1 0 246 0 0 0 0 0
 0 246 0 3 246 0
D 175 21 9 1 272 271 0 1 0 0 1
 266 269 270 266 269 267
D 178 21 6 1 0 246 0 0 0 0 0
 0 246 0 3 246 0
D 181 21 9 1 281 280 0 1 0 0 1
 275 278 279 275 278 276
D 184 21 6 1 0 246 0 0 0 0 0
 0 246 0 3 246 0
D 187 21 9 2 299 298 0 1 0 0 1
 286 289 295 286 289 287
 290 294 297 290 294 292
D 190 21 6 1 0 284 0 0 0 0 0
 0 284 0 3 284 0
D 193 21 9 2 314 313 0 1 0 0 1
 303 306 311 303 306 304
 307 310 312 307 310 308
D 196 21 6 1 0 284 0 0 0 0 0
 0 284 0 3 284 0
D 199 21 9 2 329 328 0 1 0 0 1
 318 321 326 318 321 319
 322 325 327 322 325 323
D 202 21 6 1 0 284 0 0 0 0 0
 0 284 0 3 284 0
D 205 21 9 2 344 343 0 1 0 0 1
 333 336 341 333 336 334
 337 340 342 337 340 338
D 208 21 6 1 0 284 0 0 0 0 0
 0 284 0 3 284 0
D 211 21 9 1 353 352 0 1 0 0 1
 347 350 351 347 350 348
D 214 21 6 1 0 246 0 0 0 0 0
 0 246 0 3 246 0
D 217 21 9 1 362 361 0 1 0 0 1
 356 359 360 356 359 357
D 220 21 6 1 0 246 0 0 0 0 0
 0 246 0 3 246 0
D 223 21 9 2 377 376 0 1 0 0 1
 366 369 374 366 369 367
 370 373 375 370 373 371
D 226 21 6 1 0 284 0 0 0 0 0
 0 284 0 3 284 0
D 229 21 9 2 392 391 0 1 0 0 1
 381 384 389 381 384 382
 385 388 390 385 388 386
D 232 21 6 1 0 284 0 0 0 0 0
 0 284 0 3 284 0
D 235 21 9 1 401 400 0 1 0 0 1
 395 398 399 395 398 396
D 238 21 6 1 0 246 0 0 0 0 0
 0 246 0 3 246 0
D 241 21 9 1 402 405 1 1 0 0 1
 3 403 3 3 403 404
D 244 21 9 2 15 41 0 0 0 0 0
 0 23 3 3 23 23
 0 23 23 3 23 23
D 247 21 9 1 406 409 1 1 0 0 1
 3 407 3 3 407 408
D 250 21 9 2 15 41 0 0 0 0 0
 0 23 3 3 23 23
 0 23 23 3 23 23
D 253 21 6 1 410 413 1 1 0 0 1
 3 411 3 3 411 412
D 256 21 9 1 414 417 1 1 0 0 1
 3 415 3 3 415 416
D 259 21 9 1 418 421 1 1 0 0 1
 3 419 3 3 419 420
D 262 21 6 1 422 425 1 1 0 0 1
 3 423 3 3 423 424
D 265 21 9 1 426 429 1 1 0 0 1
 3 427 3 3 427 428
D 268 21 9 1 430 433 1 1 0 0 1
 3 431 3 3 431 432
D 271 21 9 1 434 437 1 1 0 0 1
 3 435 3 3 435 436
D 274 21 9 1 438 441 1 1 0 0 1
 3 439 3 3 439 440
D 277 21 9 1 442 445 1 1 0 0 1
 3 443 3 3 443 444
D 280 21 9 1 446 449 1 1 0 0 1
 3 447 3 3 447 448
D 283 21 9 1 450 453 1 1 0 0 1
 3 451 3 3 451 452
S 582 24 0 0 0 9 1 0 4658 10015 0 A 0 0 0 0 0 0 0 0 0 0 0 0 0 0 0 0 0 0 0 0 0 11 0 0 0 0 0 0 bfgs_module
S 584 23 0 0 0 9 593 582 4676 14 0 A 0 0 0 0 0 0 0 0 0 0 0 0 0 0 0 0 0 0 0 0 0 0 0 582 0 0 0 0 dp
S 586 23 0 0 0 6 709 582 4688 14 0 A 0 0 0 0 0 0 0 0 0 0 0 0 0 0 0 0 0 0 0 0 0 0 0 582 0 0 0 0 iunbfgs
S 587 23 0 0 0 9 646 582 4696 14 0 A 0 0 0 0 0 0 0 0 0 0 0 0 0 0 0 0 0 0 0 0 0 0 0 582 0 0 0 0 prefix
S 589 23 0 0 0 9 820 582 4713 14 0 A 0 0 0 0 0 0 0 0 0 0 0 0 0 0 0 0 0 0 0 0 0 0 0 582 0 0 0 0 eps16
S 591 3 0 0 0 6 1 1 0 0 0 A 0 0 0 0 0 0 0 0 0 8 0 0 0 0 0 0 0 0 0 0 0 0 0 0 0 0 0 0 6
S 592 3 0 0 0 6 1 1 0 0 0 A 0 0 0 0 0 0 0 0 0 4 0 0 0 0 0 0 0 0 0 0 0 0 0 0 0 0 0 0 6
R 593 16 1 kinds dp
S 603 3 0 0 0 6 1 1 0 0 0 A 0 0 0 0 0 0 0 0 0 3 0 0 0 0 0 0 0 0 0 0 0 0 0 0 0 0 0 0 6
S 605 3 0 0 0 6 1 1 0 0 0 A 0 0 0 0 0 0 0 0 0 7 0 0 0 0 0 0 0 0 0 0 0 0 0 0 0 0 0 0 6
S 619 3 0 0 0 6 1 1 0 0 0 A 0 0 0 0 0 0 0 0 0 9 0 0 0 0 0 0 0 0 0 0 0 0 0 0 0 0 0 0 6
S 621 3 0 0 0 6 1 1 0 0 0 A 0 0 0 0 0 0 0 0 0 19 0 0 0 0 0 0 0 0 0 0 0 0 0 0 0 0 0 0 6
S 622 3 0 0 0 6 1 1 0 0 0 A 0 0 0 0 0 0 0 0 0 14 0 0 0 0 0 0 0 0 0 0 0 0 0 0 0 0 0 0 6
S 624 3 0 0 0 6 1 1 0 0 0 A 0 0 0 0 0 0 0 0 0 17 0 0 0 0 0 0 0 0 0 0 0 0 0 0 0 0 0 0 6
S 641 3 0 0 0 6 1 1 0 0 0 A 0 0 0 0 0 0 0 0 0 13 0 0 0 0 0 0 0 0 0 0 0 0 0 0 0 0 0 0 6
R 646 6 4 io_files prefix
R 709 6 67 io_files iunbfgs
R 820 16 38 constants eps16
S 936 27 0 0 0 9 1048 582 6652 0 0 A 0 0 0 0 0 0 0 0 0 0 0 0 0 0 0 0 0 0 0 0 0 0 0 582 0 0 0 0 bfgs
S 937 27 0 0 0 9 1161 582 6657 0 0 A 0 0 0 0 0 0 0 0 0 0 0 0 0 0 0 0 0 0 0 0 0 0 0 582 0 0 0 0 terminate_bfgs
S 938 6 4 0 0 6 1 582 6672 4 0 A 0 0 0 0 0 0 0 0 0 0 0 0 1043 0 0 0 0 0 0 0 0 0 0 582 0 0 0 0 bfgs_ndim
S 939 6 4 0 0 9 940 582 6682 4 0 A 0 0 0 0 0 0 0 0 0 0 0 0 1044 0 0 0 0 0 0 0 0 0 0 582 0 0 0 0 trust_radius_max
S 940 6 4 0 0 9 941 582 6699 4 0 A 0 0 0 0 0 8 0 0 0 0 0 0 1044 0 0 0 0 0 0 0 0 0 0 582 0 0 0 0 trust_radius_min
S 941 6 4 0 0 9 942 582 6716 4 0 A 0 0 0 0 0 16 0 0 0 0 0 0 1044 0 0 0 0 0 0 0 0 0 0 582 0 0 0 0 trust_radius_ini
S 942 6 4 0 0 9 943 582 6733 4 0 A 0 0 0 0 0 24 0 0 0 0 0 0 1044 0 0 0 0 0 0 0 0 0 0 582 0 0 0 0 w_1
S 943 6 4 0 0 9 1 582 6737 4 0 A 0 0 0 0 0 32 0 0 0 0 0 0 1044 0 0 0 0 0 0 0 0 0 0 582 0 0 0 0 w_2
S 945 6 4 0 0 161 1 582 6748 80001c 0 A 0 0 0 0 0 0 0 0 0 0 0 0 1045 0 0 0 0 0 0 0 0 0 0 582 0 0 0 0 fname
S 946 7 6 0 0 163 1 582 6754 10a00014 51 A 0 0 0 0 0 0 950 0 0 0 952 0 0 0 0 0 0 0 0 949 0 0 951 582 0 0 0 0 pos
S 947 6 4 0 0 6 954 582 6409 40800016 0 A 0 0 0 0 0 0 0 0 0 0 0 0 1046 0 0 0 0 0 0 0 0 0 0 582 0 0 0 0 z_b_0
S 948 3 0 0 0 6 0 1 0 0 0 A 0 0 0 0 0 0 0 0 0 18 0 0 0 0 0 0 0 0 0 0 0 0 0 0 0 0 0 0 6
S 949 8 4 0 0 166 956 582 6758 40822074 1020 A 0 0 0 0 0 0 0 0 0 0 0 0 1046 0 0 0 0 0 0 0 0 0 0 582 0 0 0 0 pos$sd
S 950 6 4 0 0 7 951 582 6765 40802071 1020 A 0 0 0 0 0 72 0 0 0 0 0 0 1046 0 0 0 0 0 0 0 0 0 0 582 0 0 0 0 pos$p
S 951 6 4 0 0 7 949 582 6771 40802070 1020 A 0 0 0 0 0 80 0 0 0 0 0 0 1046 0 0 0 0 0 0 0 0 0 0 582 0 0 0 0 pos$o
S 952 22 1 0 0 9 1 582 6777 40000000 1000 A 0 0 0 0 0 0 0 946 0 0 0 0 949 0 0 0 0 0 0 0 0 0 0 582 0 0 0 0 pos$arrdsc
S 953 7 6 0 0 169 1 582 6788 10a00014 51 A 0 0 0 0 0 0 956 0 0 0 958 0 0 0 0 0 0 0 0 955 0 0 957 582 0 0 0 0 grad
S 954 6 4 0 0 6 960 582 6793 40800016 0 A 0 0 0 0 0 4 0 0 0 0 0 0 1046 0 0 0 0 0 0 0 0 0 0 582 0 0 0 0 z_b_1
S 955 8 4 0 0 172 962 582 6799 40822074 1020 A 0 0 0 0 0 88 0 0 0 0 0 0 1046 0 0 0 0 0 0 0 0 0 0 582 0 0 0 0 grad$sd
S 956 6 4 0 0 7 957 582 6807 40802071 1020 A 0 0 0 0 0 160 0 0 0 0 0 0 1046 0 0 0 0 0 0 0 0 0 0 582 0 0 0 0 grad$p
S 957 6 4 0 0 7 955 582 6814 40802070 1020 A 0 0 0 0 0 168 0 0 0 0 0 0 1046 0 0 0 0 0 0 0 0 0 0 582 0 0 0 0 grad$o
S 958 22 1 0 0 9 1 582 6821 40000000 1000 A 0 0 0 0 0 0 0 953 0 0 0 0 955 0 0 0 0 0 0 0 0 0 0 582 0 0 0 0 grad$arrdsc
S 959 7 6 0 0 175 1 582 6833 10a00014 51 A 0 0 0 0 0 0 962 0 0 0 964 0 0 0 0 0 0 0 0 961 0 0 963 582 0 0 0 0 pos_p
S 960 6 4 0 0 6 966 582 6415 40800016 0 A 0 0 0 0 0 8 0 0 0 0 0 0 1046 0 0 0 0 0 0 0 0 0 0 582 0 0 0 0 z_b_2
S 961 8 4 0 0 178 968 582 6839 40822074 1020 A 0 0 0 0 0 176 0 0 0 0 0 0 1046 0 0 0 0 0 0 0 0 0 0 582 0 0 0 0 pos_p$sd
S 962 6 4 0 0 7 963 582 6848 40802071 1020 A 0 0 0 0 0 248 0 0 0 0 0 0 1046 0 0 0 0 0 0 0 0 0 0 582 0 0 0 0 pos_p$p
S 963 6 4 0 0 7 961 582 6856 40802070 1020 A 0 0 0 0 0 256 0 0 0 0 0 0 1046 0 0 0 0 0 0 0 0 0 0 582 0 0 0 0 pos_p$o
S 964 22 1 0 0 9 1 582 6864 40000000 1000 A 0 0 0 0 0 0 0 959 0 0 0 0 961 0 0 0 0 0 0 0 0 0 0 582 0 0 0 0 pos_p$arrdsc
S 965 7 6 0 0 181 1 582 6877 10a00014 51 A 0 0 0 0 0 0 968 0 0 0 970 0 0 0 0 0 0 0 0 967 0 0 969 582 0 0 0 0 grad_p
S 966 6 4 0 0 6 972 582 6421 40800016 0 A 0 0 0 0 0 12 0 0 0 0 0 0 1046 0 0 0 0 0 0 0 0 0 0 582 0 0 0 0 z_b_3
S 967 8 4 0 0 184 976 582 6884 40822074 1020 A 0 0 0 0 0 264 0 0 0 0 0 0 1046 0 0 0 0 0 0 0 0 0 0 582 0 0 0 0 grad_p$sd
S 968 6 4 0 0 7 969 582 6894 40802071 1020 A 0 0 0 0 0 336 0 0 0 0 0 0 1046 0 0 0 0 0 0 0 0 0 0 582 0 0 0 0 grad_p$p
S 969 6 4 0 0 7 967 582 6903 40802070 1020 A 0 0 0 0 0 344 0 0 0 0 0 0 1046 0 0 0 0 0 0 0 0 0 0 582 0 0 0 0 grad_p$o
S 970 22 1 0 0 9 1 582 6912 40000000 1000 A 0 0 0 0 0 0 0 965 0 0 0 0 967 0 0 0 0 0 0 0 0 0 0 582 0 0 0 0 grad_p$arrdsc
S 971 7 6 0 0 187 1 582 6926 10a00014 51 A 0 0 0 0 0 0 976 0 0 0 978 0 0 0 0 0 0 0 0 975 0 0 977 582 0 0 0 0 inv_hess
S 972 6 4 0 0 6 973 582 6434 40800016 0 A 0 0 0 0 0 16 0 0 0 0 0 0 1046 0 0 0 0 0 0 0 0 0 0 582 0 0 0 0 z_b_4
S 973 6 4 0 0 6 982 582 6935 40800016 0 A 0 0 0 0 0 20 0 0 0 0 0 0 1046 0 0 0 0 0 0 0 0 0 0 582 0 0 0 0 z_b_5
S 974 3 0 0 0 6 0 1 0 0 0 A 0 0 0 0 0 0 0 0 0 24 0 0 0 0 0 0 0 0 0 0 0 0 0 0 0 0 0 0 6
S 975 8 4 0 0 190 985 582 6941 40822074 1020 A 0 0 0 0 0 352 0 0 0 0 0 0 1046 0 0 0 0 0 0 0 0 0 0 582 0 0 0 0 inv_hess$sd
S 976 6 4 0 0 7 977 582 6953 40802071 1020 A 0 0 0 0 0 448 0 0 0 0 0 0 1046 0 0 0 0 0 0 0 0 0 0 582 0 0 0 0 inv_hess$p
S 977 6 4 0 0 7 975 582 6964 40802070 1020 A 0 0 0 0 0 456 0 0 0 0 0 0 1046 0 0 0 0 0 0 0 0 0 0 582 0 0 0 0 inv_hess$o
S 978 22 1 0 0 6 1 582 6975 40000000 1000 A 0 0 0 0 0 0 0 971 0 0 0 0 975 0 0 0 0 0 0 0 0 0 0 582 0 0 0 0 inv_hess$arrdsc
S 979 3 0 0 0 6 0 1 0 0 0 A 0 0 0 0 0 0 0 0 0 20 0 0 0 0 0 0 0 0 0 0 0 0 0 0 0 0 0 0 6
S 980 3 0 0 0 6 0 1 0 0 0 A 0 0 0 0 0 0 0 0 0 23 0 0 0 0 0 0 0 0 0 0 0 0 0 0 0 0 0 0 6
S 981 7 6 0 0 193 1 582 6991 10a00014 51 A 0 0 0 0 0 0 985 0 0 0 987 0 0 0 0 0 0 0 0 984 0 0 986 582 0 0 0 0 metric
S 982 6 4 0 0 6 983 582 6440 40800016 0 A 0 0 0 0 0 24 0 0 0 0 0 0 1046 0 0 0 0 0 0 0 0 0 0 582 0 0 0 0 z_b_6
S 983 6 4 0 0 6 989 582 6446 40800016 0 A 0 0 0 0 0 28 0 0 0 0 0 0 1046 0 0 0 0 0 0 0 0 0 0 582 0 0 0 0 z_b_7
S 984 8 4 0 0 196 992 582 6998 40822074 1020 A 0 0 0 0 0 464 0 0 0 0 0 0 1046 0 0 0 0 0 0 0 0 0 0 582 0 0 0 0 metric$sd
S 985 6 4 0 0 7 986 582 7008 40802071 1020 A 0 0 0 0 0 560 0 0 0 0 0 0 1046 0 0 0 0 0 0 0 0 0 0 582 0 0 0 0 metric$p
S 986 6 4 0 0 7 984 582 7017 40802070 1020 A 0 0 0 0 0 568 0 0 0 0 0 0 1046 0 0 0 0 0 0 0 0 0 0 582 0 0 0 0 metric$o
S 987 22 1 0 0 6 1 582 7026 40000000 1000 A 0 0 0 0 0 0 0 981 0 0 0 0 984 0 0 0 0 0 0 0 0 0 0 582 0 0 0 0 metric$arrdsc
S 988 7 6 0 0 199 1 582 7040 10a00014 51 A 0 0 0 0 0 0 992 0 0 0 994 0 0 0 0 0 0 0 0 991 0 0 993 582 0 0 0 0 h_block
S 989 6 4 0 0 6 990 582 7048 40800016 0 A 0 0 0 0 0 32 0 0 0 0 0 0 1046 0 0 0 0 0 0 0 0 0 0 582 0 0 0 0 z_b_8
S 990 6 4 0 0 6 996 582 6507 40800016 0 A 0 0 0 0 0 36 0 0 0 0 0 0 1046 0 0 0 0 0 0 0 0 0 0 582 0 0 0 0 z_b_9
S 991 8 4 0 0 202 999 582 7054 40822074 1020 A 0 0 0 0 0 576 0 0 0 0 0 0 1046 0 0 0 0 0 0 0 0 0 0 582 0 0 0 0 h_block$sd
S 992 6 4 0 0 7 993 582 7065 40802071 1020 A 0 0 0 0 0 672 0 0 0 0 0 0 1046 0 0 0 0 0 0 0 0 0 0 582 0 0 0 0 h_block$p
S 993 6 4 0 0 7 991 582 7075 40802070 1020 A 0 0 0 0 0 680 0 0 0 0 0 0 1046 0 0 0 0 0 0 0 0 0 0 582 0 0 0 0 h_block$o
S 994 22 1 0 0 9 1 582 7085 40000000 1000 A 0 0 0 0 0 0 0 988 0 0 0 0 991 0 0 0 0 0 0 0 0 0 0 582 0 0 0 0 h_block$arrdsc
S 995 7 6 0 0 205 1 582 7100 10a00014 51 A 0 0 0 0 0 0 999 0 0 0 1001 0 0 0 0 0 0 0 0 998 0 0 1000 582 0 0 0 0 hinv_block
S 996 6 4 0 0 6 997 582 6513 40800016 0 A 0 0 0 0 0 40 0 0 0 0 0 0 1046 0 0 0 0 0 0 0 0 0 0 582 0 0 0 0 z_b_10
S 997 6 4 0 0 6 1003 582 7111 40800016 0 A 0 0 0 0 0 44 0 0 0 0 0 0 1046 0 0 0 0 0 0 0 0 0 0 582 0 0 0 0 z_b_11
S 998 8 4 0 0 208 1005 582 7118 40822074 1020 A 0 0 0 0 0 688 0 0 0 0 0 0 1046 0 0 0 0 0 0 0 0 0 0 582 0 0 0 0 hinv_block$sd
S 999 6 4 0 0 7 1000 582 7132 40802071 1020 A 0 0 0 0 0 784 0 0 0 0 0 0 1046 0 0 0 0 0 0 0 0 0 0 582 0 0 0 0 hinv_block$p
S 1000 6 4 0 0 7 998 582 7145 40802070 1020 A 0 0 0 0 0 792 0 0 0 0 0 0 1046 0 0 0 0 0 0 0 0 0 0 582 0 0 0 0 hinv_block$o
S 1001 22 1 0 0 9 1 582 7158 40000000 1000 A 0 0 0 0 0 0 0 995 0 0 0 0 998 0 0 0 0 0 0 0 0 0 0 582 0 0 0 0 hinv_block$arrdsc
S 1002 7 6 0 0 211 1 582 7176 10a00014 51 A 0 0 0 0 0 0 1005 0 0 0 1007 0 0 0 0 0 0 0 0 1004 0 0 1006 582 0 0 0 0 step
S 1003 6 4 0 0 6 1009 582 7181 40800016 0 A 0 0 0 0 0 48 0 0 0 0 0 0 1046 0 0 0 0 0 0 0 0 0 0 582 0 0 0 0 z_b_12
S 1004 8 4 0 0 214 1011 582 7188 40822074 1020 A 0 0 0 0 0 800 0 0 0 0 0 0 1046 0 0 0 0 0 0 0 0 0 0 582 0 0 0 0 step$sd
S 1005 6 4 0 0 7 1006 582 7196 40802071 1020 A 0 0 0 0 0 872 0 0 0 0 0 0 1046 0 0 0 0 0 0 0 0 0 0 582 0 0 0 0 step$p
S 1006 6 4 0 0 7 1004 582 7203 40802070 1020 A 0 0 0 0 0 880 0 0 0 0 0 0 1046 0 0 0 0 0 0 0 0 0 0 582 0 0 0 0 step$o
S 1007 22 1 0 0 9 1 582 7210 40000000 1000 A 0 0 0 0 0 0 0 1002 0 0 0 0 1004 0 0 0 0 0 0 0 0 0 0 582 0 0 0 0 step$arrdsc
S 1008 7 6 0 0 217 1 582 7222 10a00014 51 A 0 0 0 0 0 0 1011 0 0 0 1013 0 0 0 0 0 0 0 0 1010 0 0 1012 582 0 0 0 0 step_old
S 1009 6 4 0 0 6 1015 582 7231 40800016 0 A 0 0 0 0 0 52 0 0 0 0 0 0 1046 0 0 0 0 0 0 0 0 0 0 582 0 0 0 0 z_b_13
S 1010 8 4 0 0 220 1018 582 7238 40822074 1020 A 0 0 0 0 0 888 0 0 0 0 0 0 1046 0 0 0 0 0 0 0 0 0 0 582 0 0 0 0 step_old$sd
S 1011 6 4 0 0 7 1012 582 7250 40802071 1020 A 0 0 0 0 0 960 0 0 0 0 0 0 1046 0 0 0 0 0 0 0 0 0 0 582 0 0 0 0 step_old$p
S 1012 6 4 0 0 7 1010 582 7261 40802070 1020 A 0 0 0 0 0 968 0 0 0 0 0 0 1046 0 0 0 0 0 0 0 0 0 0 582 0 0 0 0 step_old$o
S 1013 22 1 0 0 9 1 582 7272 40000000 1000 A 0 0 0 0 0 0 0 1008 0 0 0 0 1010 0 0 0 0 0 0 0 0 0 0 582 0 0 0 0 step_old$arrdsc
S 1014 7 6 0 0 223 1 582 7288 10a00014 51 A 0 0 0 0 0 0 1018 0 0 0 1020 0 0 0 0 0 0 0 0 1017 0 0 1019 582 0 0 0 0 pos_old
S 1015 6 4 0 0 6 1016 582 7296 40800016 0 A 0 0 0 0 0 56 0 0 0 0 0 0 1046 0 0 0 0 0 0 0 0 0 0 582 0 0 0 0 z_b_14
S 1016 6 4 0 0 6 1022 582 7303 40800016 0 A 0 0 0 0 0 60 0 0 0 0 0 0 1046 0 0 0 0 0 0 0 0 0 0 582 0 0 0 0 z_b_15
S 1017 8 4 0 0 226 1025 582 7310 40822074 1020 A 0 0 0 0 0 976 0 0 0 0 0 0 1046 0 0 0 0 0 0 0 0 0 0 582 0 0 0 0 pos_old$sd
S 1018 6 4 0 0 7 1019 582 7321 40802071 1020 A 0 0 0 0 0 1072 0 0 0 0 0 0 1046 0 0 0 0 0 0 0 0 0 0 582 0 0 0 0 pos_old$p
S 1019 6 4 0 0 7 1017 582 7331 40802070 1020 A 0 0 0 0 0 1080 0 0 0 0 0 0 1046 0 0 0 0 0 0 0 0 0 0 582 0 0 0 0 pos_old$o
S 1020 22 1 0 0 9 1 582 7341 40000000 1000 A 0 0 0 0 0 0 0 1014 0 0 0 0 1017 0 0 0 0 0 0 0 0 0 0 582 0 0 0 0 pos_old$arrdsc
S 1021 7 6 0 0 229 1 582 7356 10a00014 51 A 0 0 0 0 0 0 1025 0 0 0 1027 0 0 0 0 0 0 0 0 1024 0 0 1026 582 0 0 0 0 grad_old
S 1022 6 4 0 0 6 1023 582 7365 40800016 0 A 0 0 0 0 0 64 0 0 0 0 0 0 1046 0 0 0 0 0 0 0 0 0 0 582 0 0 0 0 z_b_16
S 1023 6 4 0 0 6 1029 582 7372 40800016 0 A 0 0 0 0 0 68 0 0 0 0 0 0 1046 0 0 0 0 0 0 0 0 0 0 582 0 0 0 0 z_b_17
S 1024 8 4 0 0 232 1031 582 7379 40822074 1020 A 0 0 0 0 0 1088 0 0 0 0 0 0 1046 0 0 0 0 0 0 0 0 0 0 582 0 0 0 0 grad_old$sd
S 1025 6 4 0 0 7 1026 582 7391 40802071 1020 A 0 0 0 0 0 1184 0 0 0 0 0 0 1046 0 0 0 0 0 0 0 0 0 0 582 0 0 0 0 grad_old$p
S 1026 6 4 0 0 7 1024 582 7402 40802070 1020 A 0 0 0 0 0 1192 0 0 0 0 0 0 1046 0 0 0 0 0 0 0 0 0 0 582 0 0 0 0 grad_old$o
S 1027 22 1 0 0 9 1 582 7413 40000000 1000 A 0 0 0 0 0 0 0 1021 0 0 0 0 1024 0 0 0 0 0 0 0 0 0 0 582 0 0 0 0 grad_old$arrdsc
S 1028 7 6 0 0 235 1 582 7429 10a00014 51 A 0 0 0 0 0 0 1031 0 0 0 1033 0 0 0 0 0 0 0 0 1030 0 0 1032 582 0 0 0 0 pos_best
S 1029 6 4 0 0 6 1037 582 7438 40800016 0 A 0 0 0 0 0 72 0 0 0 0 0 0 1046 0 0 0 0 0 0 0 0 0 0 582 0 0 0 0 z_b_18
S 1030 8 4 0 0 238 947 582 7445 40822074 1020 A 0 0 0 0 0 1200 0 0 0 0 0 0 1046 0 0 0 0 0 0 0 0 0 0 582 0 0 0 0 pos_best$sd
S 1031 6 4 0 0 7 1032 582 7457 40802071 1020 A 0 0 0 0 0 1272 0 0 0 0 0 0 1046 0 0 0 0 0 0 0 0 0 0 582 0 0 0 0 pos_best$p
S 1032 6 4 0 0 7 1030 582 7468 40802070 1020 A 0 0 0 0 0 1280 0 0 0 0 0 0 1046 0 0 0 0 0 0 0 0 0 0 582 0 0 0 0 pos_best$o
S 1033 22 1 0 0 9 1 582 7479 40000000 1000 A 0 0 0 0 0 0 0 1028 0 0 0 0 1030 0 0 0 0 0 0 0 0 0 0 582 0 0 0 0 pos_best$arrdsc
S 1034 6 4 0 0 9 1035 582 7495 14 0 A 0 0 0 0 0 0 0 0 0 0 0 0 1047 0 0 0 0 0 0 0 0 0 0 582 0 0 0 0 trust_radius
S 1035 6 4 0 0 9 1036 582 7508 14 0 A 0 0 0 0 0 8 0 0 0 0 0 0 1047 0 0 0 0 0 0 0 0 0 0 582 0 0 0 0 trust_radius_old
S 1036 6 4 0 0 9 1 582 7525 14 0 A 0 0 0 0 0 16 0 0 0 0 0 0 1047 0 0 0 0 0 0 0 0 0 0 582 0 0 0 0 energy_p
S 1037 6 4 0 0 6 1038 582 7534 14 0 A 0 0 0 0 0 76 0 0 0 0 0 0 1046 0 0 0 0 0 0 0 0 0 0 582 0 0 0 0 scf_iter
S 1038 6 4 0 0 6 1039 582 7543 14 0 A 0 0 0 0 0 80 0 0 0 0 0 0 1046 0 0 0 0 0 0 0 0 0 0 582 0 0 0 0 bfgs_iter
S 1039 6 4 0 0 6 1040 582 7553 14 0 A 0 0 0 0 0 84 0 0 0 0 0 0 1046 0 0 0 0 0 0 0 0 0 0 582 0 0 0 0 gdiis_iter
S 1040 6 4 0 0 16 1041 582 7564 14 0 A 0 0 0 0 0 88 0 0 0 0 0 0 1046 0 0 0 0 0 0 0 0 0 0 582 0 0 0 0 tr_min_hit
S 1041 6 4 0 0 16 1 582 7575 14 0 A 0 0 0 0 0 92 0 0 0 0 0 0 1046 0 0 0 0 0 0 0 0 0 0 582 0 0 0 0 conv_bfgs
S 1043 11 0 0 0 9 729 582 7594 40800000 801000 A 0 0 0 0 0 4 0 0 938 938 0 0 0 0 0 0 0 0 0 0 0 0 0 0 0 0 0 0 _bfgs_module$0
S 1044 11 0 0 0 9 1043 582 7609 40800000 801000 A 0 0 0 0 0 40 0 0 939 943 0 0 0 0 0 0 0 0 0 0 0 0 0 0 0 0 0 0 _bfgs_module$2
S 1045 11 0 0 0 9 1044 582 7624 40800010 801000 A 0 0 0 0 0 8 0 0 945 945 0 0 0 0 0 0 0 0 0 0 0 0 0 0 0 0 0 0 _bfgs_module$13
S 1046 11 0 0 0 9 1045 582 7640 40800010 801000 A 0 0 0 0 0 1384 0 0 950 1041 0 0 0 0 0 0 0 0 0 0 0 0 0 0 0 0 0 0 _bfgs_module$4
S 1047 11 0 0 0 9 1046 582 7655 40800010 801000 A 0 0 0 0 0 24 0 0 1034 1036 0 0 0 0 0 0 0 0 0 0 0 0 0 0 0 0 0 0 _bfgs_module$6
S 1048 23 5 0 0 0 1068 582 6652 0 0 A 0 0 0 0 0 0 0 0 0 0 0 0 0 0 0 0 0 0 0 0 0 0 0 0 0 0 0 0 bfgs
S 1049 7 3 3 0 241 1 1048 7670 20000014 10003000 A 0 0 0 0 0 0 0 0 0 0 0 0 0 0 0 0 0 0 0 0 0 0 0 0 0 0 0 0 pos_in
S 1050 7 3 3 0 244 1 1048 7677 14 3000 A 0 0 0 0 0 0 0 0 0 0 0 0 0 0 0 0 0 0 0 0 0 0 0 0 0 0 0 0 h
S 1051 1 3 3 0 9 1 1048 7679 14 3000 A 0 0 0 0 0 0 0 0 0 0 0 0 0 0 0 0 0 0 0 0 0 0 0 0 0 0 0 0 energy
S 1052 7 3 3 0 247 1 1048 7686 20000014 10003000 A 0 0 0 0 0 0 0 0 0 0 0 0 0 0 0 0 0 0 0 0 0 0 0 0 0 0 0 0 grad_in
S 1053 7 3 3 0 250 1 1048 7694 14 3000 A 0 0 0 0 0 0 0 0 0 0 0 0 0 0 0 0 0 0 0 0 0 0 0 0 0 0 0 0 fcell
S 1054 7 3 1 0 253 1 1048 7700 20000014 10003000 A 0 0 0 0 0 0 0 0 0 0 0 0 0 0 0 0 0 0 0 0 0 0 0 0 0 0 0 0 fixion
S 1055 1 3 1 0 28 1 1048 7707 14 43000 A 0 0 0 0 0 0 0 0 0 0 0 0 0 0 0 0 0 0 0 0 0 0 0 0 0 0 0 0 scratch
S 1056 1 3 1 0 6 1 1048 4766 14 3000 A 0 0 0 0 0 0 0 0 0 0 0 0 0 0 0 0 0 0 0 0 0 0 0 0 0 0 0 0 stdout
S 1057 1 3 1 0 9 1 1048 7715 14 3000 A 0 0 0 0 0 0 0 0 0 0 0 0 0 0 0 0 0 0 0 0 0 0 0 0 0 0 0 0 energy_thr
S 1058 1 3 1 0 9 1 1048 7726 14 3000 A 0 0 0 0 0 0 0 0 0 0 0 0 0 0 0 0 0 0 0 0 0 0 0 0 0 0 0 0 grad_thr
S 1059 1 3 1 0 9 1 1048 7735 14 3000 A 0 0 0 0 0 0 0 0 0 0 0 0 0 0 0 0 0 0 0 0 0 0 0 0 0 0 0 0 cell_thr
S 1060 1 3 2 0 9 1 1048 7744 14 3000 A 0 0 0 0 0 0 0 0 0 0 0 0 0 0 0 0 0 0 0 0 0 0 0 0 0 0 0 0 energy_error
S 1061 1 3 2 0 9 1 1048 7757 14 3000 A 0 0 0 0 0 0 0 0 0 0 0 0 0 0 0 0 0 0 0 0 0 0 0 0 0 0 0 0 grad_error
S 1062 1 3 2 0 9 1 1048 7768 14 3000 A 0 0 0 0 0 0 0 0 0 0 0 0 0 0 0 0 0 0 0 0 0 0 0 0 0 0 0 0 cell_error
S 1063 1 3 2 0 6 1 1048 7779 14 3000 A 0 0 0 0 0 0 0 0 0 0 0 0 0 0 0 0 0 0 0 0 0 0 0 0 0 0 0 0 istep
S 1064 1 3 1 0 6 1 1048 7785 14 3000 A 0 0 0 0 0 0 0 0 0 0 0 0 0 0 0 0 0 0 0 0 0 0 0 0 0 0 0 0 nstep
S 1065 1 3 2 0 16 1 1048 7791 14 3000 A 0 0 0 0 0 0 0 0 0 0 0 0 0 0 0 0 0 0 0 0 0 0 0 0 0 0 0 0 step_accepted
S 1066 1 3 2 0 16 1 1048 7805 14 3000 A 0 0 0 0 0 0 0 0 0 0 0 0 0 0 0 0 0 0 0 0 0 0 0 0 0 0 0 0 stop_bfgs
S 1067 1 3 1 0 16 1 1048 7815 14 3000 A 0 0 0 0 0 0 0 0 0 0 0 0 0 0 0 0 0 0 0 0 0 0 0 0 0 0 0 0 lmovecell
S 1068 14 5 0 0 0 1 1048 6652 0 400000 A 0 0 0 0 0 0 0 29 19 0 0 0 0 0 0 0 0 0 0 0 0 117 0 582 0 0 0 0 bfgs
F 1068 19 1049 1050 1051 1052 1053 1054 1055 1056 1057 1058 1059 1060 1061 1062 1063 1064 1065 1066 1067
S 1069 6 1 0 0 6 1 1048 7825 40000016 3000 A 0 0 0 0 0 0 0 0 0 0 0 0 0 0 0 0 0 0 0 0 0 0 0 0 0 0 0 0 z_b_0_1
S 1070 6 1 0 0 6 1 1048 7833 40000016 3000 A 0 0 0 0 0 0 0 0 0 0 0 0 0 0 0 0 0 0 0 0 0 0 0 0 0 0 0 0 z_b_2_1
S 1071 6 1 0 0 6 1 1048 7841 40000016 3000 A 0 0 0 0 0 0 0 0 0 0 0 0 0 0 0 0 0 0 0 0 0 0 0 0 0 0 0 0 z_b_3_1
S 1072 6 1 0 0 6 1 1048 7849 40000016 3000 A 0 0 0 0 0 0 0 0 0 0 0 0 0 0 0 0 0 0 0 0 0 0 0 0 0 0 0 0 z_e_407
S 1073 6 1 0 0 6 1 1048 7857 40000016 3000 A 0 0 0 0 0 0 0 0 0 0 0 0 0 0 0 0 0 0 0 0 0 0 0 0 0 0 0 0 z_b_4_1
S 1074 6 1 0 0 6 1 1048 7865 40000016 3000 A 0 0 0 0 0 0 0 0 0 0 0 0 0 0 0 0 0 0 0 0 0 0 0 0 0 0 0 0 z_b_6_1
S 1075 6 1 0 0 6 1 1048 7873 40000016 3000 A 0 0 0 0 0 0 0 0 0 0 0 0 0 0 0 0 0 0 0 0 0 0 0 0 0 0 0 0 z_b_7_1
S 1076 6 1 0 0 6 1 1048 7881 40000016 3000 A 0 0 0 0 0 0 0 0 0 0 0 0 0 0 0 0 0 0 0 0 0 0 0 0 0 0 0 0 z_e_414
S 1077 6 1 0 0 6 1 1048 7889 40000016 3000 A 0 0 0 0 0 0 0 0 0 0 0 0 0 0 0 0 0 0 0 0 0 0 0 0 0 0 0 0 z_b_8_1
S 1078 6 1 0 0 6 1 1048 7897 40000016 3000 A 0 0 0 0 0 0 0 0 0 0 0 0 0 0 0 0 0 0 0 0 0 0 0 0 0 0 0 0 z_b_10_1
S 1079 6 1 0 0 6 1 1048 7906 40000016 3000 A 0 0 0 0 0 0 0 0 0 0 0 0 0 0 0 0 0 0 0 0 0 0 0 0 0 0 0 0 z_b_11_1
S 1080 6 1 0 0 6 1 1048 7915 40000016 3000 A 0 0 0 0 0 0 0 0 0 0 0 0 0 0 0 0 0 0 0 0 0 0 0 0 0 0 0 0 z_e_421
S 1081 23 5 0 0 0 1083 582 7923 10 0 A 0 0 0 0 0 0 0 0 0 0 0 0 0 0 0 0 0 0 0 0 0 0 0 0 0 0 0 0 reset_bfgs
S 1082 1 3 1 0 6 1 1081 7934 14 3000 A 0 0 0 0 0 0 0 0 0 0 0 0 0 0 0 0 0 0 0 0 0 0 0 0 0 0 0 0 n
S 1083 14 5 0 0 0 1 1081 7923 10 400000 A 0 0 0 0 0 0 0 49 1 0 0 0 0 0 0 0 0 0 0 0 0 539 0 582 0 0 0 0 reset_bfgs
F 1083 1 1082
S 1084 23 5 0 0 0 1092 582 7936 10 0 A 0 0 0 0 0 0 0 0 0 0 0 0 0 0 0 0 0 0 0 0 0 0 0 0 0 0 0 0 read_bfgs_file
S 1085 7 3 1 0 262 1 1084 7700 20000014 10003000 A 0 0 0 0 0 0 0 0 0 0 0 0 0 0 0 0 0 0 0 0 0 0 0 0 0 0 0 0 fixion
S 1086 1 3 3 0 9 1 1084 7679 14 3000 A 0 0 0 0 0 0 0 0 0 0 0 0 0 0 0 0 0 0 0 0 0 0 0 0 0 0 0 0 energy
S 1087 1 3 1 0 28 1 1084 7707 14 43000 A 0 0 0 0 0 0 0 0 0 0 0 0 0 0 0 0 0 0 0 0 0 0 0 0 0 0 0 0 scratch
S 1088 1 3 1 0 6 1 1084 7934 14 3000 A 0 0 0 0 0 0 0 0 0 0 0 0 0 0 0 0 0 0 0 0 0 0 0 0 0 0 0 0 n
S 1089 1 3 1 0 6 1 1084 4766 14 3000 A 0 0 0 0 0 0 0 0 0 0 0 0 0 0 0 0 0 0 0 0 0 0 0 0 0 0 0 0 stdout
S 1090 7 3 3 0 256 1 1084 6754 20000014 10003000 A 0 0 0 0 0 0 0 0 0 0 0 0 0 0 0 0 0 0 0 0 0 0 0 0 0 0 0 0 pos
S 1091 7 3 3 0 259 1 1084 6788 20000014 10003000 A 0 0 0 0 0 0 0 0 0 0 0 0 0 0 0 0 0 0 0 0 0 0 0 0 0 0 0 0 grad
S 1092 14 5 0 0 0 1 1084 7936 20000010 400000 A 0 0 0 0 0 0 0 51 7 0 0 0 0 0 0 0 0 0 0 0 0 555 0 582 0 0 0 0 read_bfgs_file
F 1092 7 1090 1091 1085 1086 1087 1088 1089
S 1093 6 1 0 0 6 1 1084 7825 40800016 3000 A 0 0 0 0 0 0 0 0 0 0 0 0 0 0 0 0 0 0 0 0 0 0 0 0 0 0 0 0 z_b_0_1
S 1094 6 1 0 0 6 1 1084 7833 40800016 3000 A 0 0 0 0 0 0 0 0 0 0 0 0 0 0 0 0 0 0 0 0 0 0 0 0 0 0 0 0 z_b_2_1
S 1095 6 1 0 0 6 1 1084 7841 40800016 3000 A 0 0 0 0 0 0 0 0 0 0 0 0 0 0 0 0 0 0 0 0 0 0 0 0 0 0 0 0 z_b_3_1
S 1096 6 1 0 0 6 1 1084 7951 40800016 3000 A 0 0 0 0 0 0 0 0 0 0 0 0 0 0 0 0 0 0 0 0 0 0 0 0 0 0 0 0 z_e_419
S 1097 6 1 0 0 6 1 1084 7857 40800016 3000 A 0 0 0 0 0 0 0 0 0 0 0 0 0 0 0 0 0 0 0 0 0 0 0 0 0 0 0 0 z_b_4_1
S 1098 6 1 0 0 6 1 1084 7865 40800016 3000 A 0 0 0 0 0 0 0 0 0 0 0 0 0 0 0 0 0 0 0 0 0 0 0 0 0 0 0 0 z_b_6_1
S 1099 6 1 0 0 6 1 1084 7873 40800016 3000 A 0 0 0 0 0 0 0 0 0 0 0 0 0 0 0 0 0 0 0 0 0 0 0 0 0 0 0 0 z_b_7_1
S 1100 6 1 0 0 6 1 1084 7959 40800016 3000 A 0 0 0 0 0 0 0 0 0 0 0 0 0 0 0 0 0 0 0 0 0 0 0 0 0 0 0 0 z_e_426
S 1101 6 1 0 0 6 1 1084 7889 40800016 3000 A 0 0 0 0 0 0 0 0 0 0 0 0 0 0 0 0 0 0 0 0 0 0 0 0 0 0 0 0 z_b_8_1
S 1102 6 1 0 0 6 1 1084 7897 40800016 3000 A 0 0 0 0 0 0 0 0 0 0 0 0 0 0 0 0 0 0 0 0 0 0 0 0 0 0 0 0 z_b_10_1
S 1103 6 1 0 0 6 1 1084 7906 40800016 3000 A 0 0 0 0 0 0 0 0 0 0 0 0 0 0 0 0 0 0 0 0 0 0 0 0 0 0 0 0 z_b_11_1
S 1104 6 1 0 0 6 1 1084 7967 40800016 3000 A 0 0 0 0 0 0 0 0 0 0 0 0 0 0 0 0 0 0 0 0 0 0 0 0 0 0 0 0 z_e_433
S 1105 23 5 0 0 0 1110 582 7975 10 0 A 0 0 0 0 0 0 0 0 0 0 0 0 0 0 0 0 0 0 0 0 0 0 0 0 0 0 0 0 write_bfgs_file
S 1106 1 3 1 0 9 1 1105 7679 14 3000 A 0 0 0 0 0 0 0 0 0 0 0 0 0 0 0 0 0 0 0 0 0 0 0 0 0 0 0 0 energy
S 1107 1 3 1 0 28 1 1105 7707 14 43000 A 0 0 0 0 0 0 0 0 0 0 0 0 0 0 0 0 0 0 0 0 0 0 0 0 0 0 0 0 scratch
S 1108 7 3 1 0 265 1 1105 6754 20000014 10003000 A 0 0 0 0 0 0 0 0 0 0 0 0 0 0 0 0 0 0 0 0 0 0 0 0 0 0 0 0 pos
S 1109 7 3 1 0 268 1 1105 6788 20000014 10003000 A 0 0 0 0 0 0 0 0 0 0 0 0 0 0 0 0 0 0 0 0 0 0 0 0 0 0 0 0 grad
S 1110 14 5 0 0 0 1 1105 7975 20000010 400000 A 0 0 0 0 0 0 0 59 4 0 0 0 0 0 0 0 0 0 0 0 0 630 0 582 0 0 0 0 write_bfgs_file
F 1110 4 1108 1106 1109 1107
S 1111 6 1 0 0 6 1 1105 7825 40800016 3000 A 0 0 0 0 0 0 0 0 0 0 0 0 0 0 0 0 0 0 0 0 0 0 0 0 0 0 0 0 z_b_0_1
S 1112 6 1 0 0 6 1 1105 7833 40800016 3000 A 0 0 0 0 0 0 0 0 0 0 0 0 0 0 0 0 0 0 0 0 0 0 0 0 0 0 0 0 z_b_2_1
S 1113 6 1 0 0 6 1 1105 7841 40800016 3000 A 0 0 0 0 0 0 0 0 0 0 0 0 0 0 0 0 0 0 0 0 0 0 0 0 0 0 0 0 z_b_3_1
S 1114 6 1 0 0 6 1 1105 7991 40800016 3000 A 0 0 0 0 0 0 0 0 0 0 0 0 0 0 0 0 0 0 0 0 0 0 0 0 0 0 0 0 z_e_431
S 1115 6 1 0 0 6 1 1105 7857 40800016 3000 A 0 0 0 0 0 0 0 0 0 0 0 0 0 0 0 0 0 0 0 0 0 0 0 0 0 0 0 0 z_b_4_1
S 1116 6 1 0 0 6 1 1105 7865 40800016 3000 A 0 0 0 0 0 0 0 0 0 0 0 0 0 0 0 0 0 0 0 0 0 0 0 0 0 0 0 0 z_b_6_1
S 1117 6 1 0 0 6 1 1105 7873 40800016 3000 A 0 0 0 0 0 0 0 0 0 0 0 0 0 0 0 0 0 0 0 0 0 0 0 0 0 0 0 0 z_b_7_1
S 1118 6 1 0 0 6 1 1105 7999 40800016 3000 A 0 0 0 0 0 0 0 0 0 0 0 0 0 0 0 0 0 0 0 0 0 0 0 0 0 0 0 0 z_e_438
S 1119 23 5 0 0 0 1124 582 8007 10 0 A 0 0 0 0 0 0 0 0 0 0 0 0 0 0 0 0 0 0 0 0 0 0 0 0 0 0 0 0 update_inverse_hessian
S 1120 1 3 1 0 6 1 1119 7934 14 3000 A 0 0 0 0 0 0 0 0 0 0 0 0 0 0 0 0 0 0 0 0 0 0 0 0 0 0 0 0 n
S 1121 1 3 1 0 6 1 1119 4766 14 3000 A 0 0 0 0 0 0 0 0 0 0 0 0 0 0 0 0 0 0 0 0 0 0 0 0 0 0 0 0 stdout
S 1122 7 3 1 0 271 1 1119 6754 20000014 10003000 A 0 0 0 0 0 0 0 0 0 0 0 0 0 0 0 0 0 0 0 0 0 0 0 0 0 0 0 0 pos
S 1123 7 3 1 0 274 1 1119 6788 20000014 10003000 A 0 0 0 0 0 0 0 0 0 0 0 0 0 0 0 0 0 0 0 0 0 0 0 0 0 0 0 0 grad
S 1124 14 5 0 0 0 1 1119 8007 20000010 400000 A 0 0 0 0 0 0 0 64 4 0 0 0 0 0 0 0 0 0 0 0 0 660 0 582 0 0 0 0 update_inverse_hessian
F 1124 4 1122 1123 1120 1121
S 1125 6 1 0 0 6 1 1119 7825 40800016 3000 A 0 0 0 0 0 0 0 0 0 0 0 0 0 0 0 0 0 0 0 0 0 0 0 0 0 0 0 0 z_b_0_1
S 1126 6 1 0 0 6 1 1119 7833 40800016 3000 A 0 0 0 0 0 0 0 0 0 0 0 0 0 0 0 0 0 0 0 0 0 0 0 0 0 0 0 0 z_b_2_1
S 1127 6 1 0 0 6 1 1119 7841 40800016 3000 A 0 0 0 0 0 0 0 0 0 0 0 0 0 0 0 0 0 0 0 0 0 0 0 0 0 0 0 0 z_b_3_1
S 1128 6 1 0 0 6 1 1119 8030 40800016 3000 A 0 0 0 0 0 0 0 0 0 0 0 0 0 0 0 0 0 0 0 0 0 0 0 0 0 0 0 0 z_e_439
S 1129 6 1 0 0 6 1 1119 7857 40800016 3000 A 0 0 0 0 0 0 0 0 0 0 0 0 0 0 0 0 0 0 0 0 0 0 0 0 0 0 0 0 z_b_4_1
S 1130 6 1 0 0 6 1 1119 7865 40800016 3000 A 0 0 0 0 0 0 0 0 0 0 0 0 0 0 0 0 0 0 0 0 0 0 0 0 0 0 0 0 z_b_6_1
S 1131 6 1 0 0 6 1 1119 7873 40800016 3000 A 0 0 0 0 0 0 0 0 0 0 0 0 0 0 0 0 0 0 0 0 0 0 0 0 0 0 0 0 z_b_7_1
S 1132 6 1 0 0 6 1 1119 8038 40800016 3000 A 0 0 0 0 0 0 0 0 0 0 0 0 0 0 0 0 0 0 0 0 0 0 0 0 0 0 0 0 z_e_446
S 1133 23 5 0 0 0 1137 582 8046 10 0 A 0 0 0 0 0 0 0 0 0 0 0 0 0 0 0 0 0 0 0 0 0 0 0 0 0 0 0 0 check_wolfe_conditions
S 1134 1 3 2 0 16 1 1133 8069 14 3000 A 0 0 0 0 0 0 0 0 0 0 0 0 0 0 0 0 0 0 0 0 0 0 0 0 0 0 0 0 lwolfe
S 1135 1 3 1 0 9 1 1133 7679 14 3000 A 0 0 0 0 0 0 0 0 0 0 0 0 0 0 0 0 0 0 0 0 0 0 0 0 0 0 0 0 energy
S 1136 7 3 1 0 277 1 1133 6788 20000014 10003000 A 0 0 0 0 0 0 0 0 0 0 0 0 0 0 0 0 0 0 0 0 0 0 0 0 0 0 0 0 grad
S 1137 14 5 0 0 0 1 1133 8046 20000010 400000 A 0 0 0 0 0 0 0 69 3 0 0 0 0 0 0 0 0 0 0 0 0 711 0 582 0 0 0 0 check_wolfe_conditions
F 1137 3 1134 1135 1136
S 1138 6 1 0 0 6 1 1133 7825 40800016 3000 A 0 0 0 0 0 0 0 0 0 0 0 0 0 0 0 0 0 0 0 0 0 0 0 0 0 0 0 0 z_b_0_1
S 1139 6 1 0 0 6 1 1133 7833 40800016 3000 A 0 0 0 0 0 0 0 0 0 0 0 0 0 0 0 0 0 0 0 0 0 0 0 0 0 0 0 0 z_b_2_1
S 1140 6 1 0 0 6 1 1133 7841 40800016 3000 A 0 0 0 0 0 0 0 0 0 0 0 0 0 0 0 0 0 0 0 0 0 0 0 0 0 0 0 0 z_b_3_1
S 1141 6 1 0 0 6 1 1133 8076 40800016 3000 A 0 0 0 0 0 0 0 0 0 0 0 0 0 0 0 0 0 0 0 0 0 0 0 0 0 0 0 0 z_e_447
S 1142 23 5 0 0 0 1148 582 8084 10 0 A 0 0 0 0 0 0 0 0 0 0 0 0 0 0 0 0 0 0 0 0 0 0 0 0 0 0 0 0 compute_trust_radius
S 1143 1 3 1 0 16 1 1142 8069 14 3000 A 0 0 0 0 0 0 0 0 0 0 0 0 0 0 0 0 0 0 0 0 0 0 0 0 0 0 0 0 lwolfe
S 1144 1 3 1 0 9 1 1142 7679 14 3000 A 0 0 0 0 0 0 0 0 0 0 0 0 0 0 0 0 0 0 0 0 0 0 0 0 0 0 0 0 energy
S 1145 1 3 1 0 6 1 1142 7934 14 3000 A 0 0 0 0 0 0 0 0 0 0 0 0 0 0 0 0 0 0 0 0 0 0 0 0 0 0 0 0 n
S 1146 1 3 1 0 6 1 1142 4766 14 3000 A 0 0 0 0 0 0 0 0 0 0 0 0 0 0 0 0 0 0 0 0 0 0 0 0 0 0 0 0 stdout
S 1147 7 3 1 0 280 1 1142 6788 20000014 10003000 A 0 0 0 0 0 0 0 0 0 0 0 0 0 0 0 0 0 0 0 0 0 0 0 0 0 0 0 0 grad
S 1148 14 5 0 0 0 1 1142 8084 20000010 400000 A 0 0 0 0 0 0 0 73 5 0 0 0 0 0 0 0 0 0 0 0 0 727 0 582 0 0 0 0 compute_trust_radius
F 1148 5 1143 1144 1147 1145 1146
S 1149 6 1 0 0 6 1 1142 7825 40800016 3000 A 0 0 0 0 0 0 0 0 0 0 0 0 0 0 0 0 0 0 0 0 0 0 0 0 0 0 0 0 z_b_0_1
S 1150 6 1 0 0 6 1 1142 7833 40800016 3000 A 0 0 0 0 0 0 0 0 0 0 0 0 0 0 0 0 0 0 0 0 0 0 0 0 0 0 0 0 z_b_2_1
S 1151 6 1 0 0 6 1 1142 7841 40800016 3000 A 0 0 0 0 0 0 0 0 0 0 0 0 0 0 0 0 0 0 0 0 0 0 0 0 0 0 0 0 z_b_3_1
S 1152 6 1 0 0 6 1 1142 8105 40800016 3000 A 0 0 0 0 0 0 0 0 0 0 0 0 0 0 0 0 0 0 0 0 0 0 0 0 0 0 0 0 z_e_451
S 1153 23 5 0 0 9 1155 582 8113 14 0 A 0 0 0 0 0 0 0 0 0 0 0 0 0 0 0 0 0 0 0 0 0 0 0 0 0 0 0 0 scnorm
S 1154 7 3 1 0 283 1 1153 8120 20000014 10003000 A 0 0 0 0 0 0 0 0 0 0 0 0 0 0 0 0 0 0 0 0 0 0 0 0 0 0 0 0 vect
S 1155 14 5 0 0 9 1 1153 8113 20000014 400000 A 0 0 0 0 0 0 0 79 1 0 0 1156 0 0 0 0 0 0 0 0 0 799 0 582 0 0 0 0 scnorm
F 1155 1 1154
S 1156 1 3 0 0 9 1 1153 8113 14 1003000 A 0 0 0 0 0 0 0 0 0 0 0 0 0 0 0 0 0 0 0 0 0 0 0 0 0 0 0 0 scnorm
S 1157 6 1 0 0 6 1 1153 7825 40800016 3000 A 0 0 0 0 0 0 0 0 0 0 0 0 0 0 0 0 0 0 0 0 0 0 0 0 0 0 0 0 z_b_0_1
S 1158 6 1 0 0 6 1 1153 7833 40800016 3000 A 0 0 0 0 0 0 0 0 0 0 0 0 0 0 0 0 0 0 0 0 0 0 0 0 0 0 0 0 z_b_2_1
S 1159 6 1 0 0 6 1 1153 7841 40800016 3000 A 0 0 0 0 0 0 0 0 0 0 0 0 0 0 0 0 0 0 0 0 0 0 0 0 0 0 0 0 z_b_3_1
S 1160 6 1 0 0 6 1 1153 8125 40800016 3000 A 0 0 0 0 0 0 0 0 0 0 0 0 0 0 0 0 0 0 0 0 0 0 0 0 0 0 0 0 z_e_455
S 1161 23 5 0 0 0 1165 582 6657 0 0 A 0 0 0 0 0 0 0 0 0 0 0 0 0 0 0 0 0 0 0 0 0 0 0 0 0 0 0 0 terminate_bfgs
S 1162 1 3 1 0 9 1 1161 7679 14 3000 A 0 0 0 0 0 0 0 0 0 0 0 0 0 0 0 0 0 0 0 0 0 0 0 0 0 0 0 0 energy
S 1163 1 3 1 0 6 1 1161 4766 14 3000 A 0 0 0 0 0 0 0 0 0 0 0 0 0 0 0 0 0 0 0 0 0 0 0 0 0 0 0 0 stdout
S 1164 1 3 1 0 28 1 1161 7707 14 43000 A 0 0 0 0 0 0 0 0 0 0 0 0 0 0 0 0 0 0 0 0 0 0 0 0 0 0 0 0 scratch
S 1165 14 5 0 0 0 1 1161 6657 0 400000 A 0 0 0 0 0 0 0 81 3 0 0 0 0 0 0 0 0 0 0 0 0 809 0 582 0 0 0 0 terminate_bfgs
F 1165 3 1162 1163 1164
A 13 2 0 0 0 6 591 0 0 0 13 0 0 0 0 0 0 0 0 0
A 15 2 0 0 0 6 592 0 0 0 15 0 0 0 0 0 0 0 0 0
A 23 2 0 0 0 6 603 0 0 0 23 0 0 0 0 0 0 0 0 0
A 25 2 0 0 0 6 605 0 0 0 25 0 0 0 0 0 0 0 0 0
A 34 2 0 0 0 6 622 0 0 0 34 0 0 0 0 0 0 0 0 0
A 35 2 0 0 0 6 624 0 0 0 35 0 0 0 0 0 0 0 0 0
A 36 2 0 0 0 6 621 0 0 0 36 0 0 0 0 0 0 0 0 0
A 41 2 0 0 0 6 619 0 0 0 41 0 0 0 0 0 0 0 0 0
A 42 2 0 0 0 6 641 0 0 0 42 0 0 0 0 0 0 0 0 0
A 246 2 0 0 0 6 948 0 0 0 246 0 0 0 0 0 0 0 0 0
A 247 1 0 11 0 166 949 0 0 0 0 0 0 0 0 0 0 0 0 0
A 248 10 0 0 0 6 247 1 0 0 0 0 0 0 0 0 0 0 0 0
X 1 42
A 249 10 0 0 248 6 247 4 0 0 0 0 0 0 0 0 0 0 0 0
X 1 34
A 250 4 0 0 168 6 249 0 3 0 0 0 0 2 0 0 0 0 0 0
A 251 4 0 0 13 6 248 0 250 0 0 0 0 1 0 0 0 0 0 0
A 252 10 0 0 249 6 247 7 0 0 0 0 0 0 0 0 0 0 0 0
X 1 35
A 253 10 0 0 252 6 247 10 0 0 0 0 0 0 0 0 0 0 0 0
X 1 25
A 254 10 0 0 253 6 247 13 0 0 0 0 0 0 0 0 0 0 0 0
X 1 13
A 256 1 0 11 0 172 955 0 0 0 0 0 0 0 0 0 0 0 0 0
A 257 10 0 0 0 6 256 1 0 0 0 0 0 0 0 0 0 0 0 0
X 1 42
A 258 10 0 0 257 6 256 4 0 0 0 0 0 0 0 0 0 0 0 0
X 1 34
A 259 4 0 0 250 6 258 0 3 0 0 0 0 2 0 0 0 0 0 0
A 260 4 0 0 0 6 257 0 259 0 0 0 0 1 0 0 0 0 0 0
A 261 10 0 0 258 6 256 7 0 0 0 0 0 0 0 0 0 0 0 0
X 1 35
A 262 10 0 0 261 6 256 10 0 0 0 0 0 0 0 0 0 0 0 0
X 1 25
A 263 10 0 0 262 6 256 13 0 0 0 0 0 0 0 0 0 0 0 0
X 1 13
A 265 1 0 11 0 178 961 0 0 0 0 0 0 0 0 0 0 0 0 0
A 266 10 0 0 0 6 265 1 0 0 0 0 0 0 0 0 0 0 0 0
X 1 42
A 267 10 0 0 266 6 265 4 0 0 0 0 0 0 0 0 0 0 0 0
X 1 34
A 268 4 0 0 86 6 267 0 3 0 0 0 0 2 0 0 0 0 0 0
A 269 4 0 0 108 6 266 0 268 0 0 0 0 1 0 0 0 0 0 0
A 270 10 0 0 267 6 265 7 0 0 0 0 0 0 0 0 0 0 0 0
X 1 35
A 271 10 0 0 270 6 265 10 0 0 0 0 0 0 0 0 0 0 0 0
X 1 25
A 272 10 0 0 271 6 265 13 0 0 0 0 0 0 0 0 0 0 0 0
X 1 13
A 274 1 0 11 0 184 967 0 0 0 0 0 0 0 0 0 0 0 0 0
A 275 10 0 0 0 6 274 1 0 0 0 0 0 0 0 0 0 0 0 0
X 1 42
A 276 10 0 0 275 6 274 4 0 0 0 0 0 0 0 0 0 0 0 0
X 1 34
A 277 4 0 0 185 6 276 0 3 0 0 0 0 2 0 0 0 0 0 0
A 278 4 0 0 0 6 275 0 277 0 0 0 0 1 0 0 0 0 0 0
A 279 10 0 0 276 6 274 7 0 0 0 0 0 0 0 0 0 0 0 0
X 1 35
A 280 10 0 0 279 6 274 10 0 0 0 0 0 0 0 0 0 0 0 0
X 1 25
A 281 10 0 0 280 6 274 13 0 0 0 0 0 0 0 0 0 0 0 0
X 1 13
A 284 2 0 0 0 6 974 0 0 0 284 0 0 0 0 0 0 0 0 0
A 285 1 0 13 0 190 975 0 0 0 0 0 0 0 0 0 0 0 0 0
A 286 10 0 0 85 6 285 1 0 0 0 0 0 0 0 0 0 0 0 0
X 1 42
A 287 10 0 0 286 6 285 4 0 0 0 0 0 0 0 0 0 0 0 0
X 1 34
A 288 4 0 0 127 6 287 0 3 0 0 0 0 2 0 0 0 0 0 0
A 289 4 0 0 0 6 286 0 288 0 0 0 0 1 0 0 0 0 0 0
A 290 10 0 0 287 6 285 16 0 0 0 0 0 0 0 0 0 0 0 0
X 1 36
A 291 2 0 0 0 6 979 0 0 0 291 0 0 0 0 0 0 0 0 0
A 292 10 0 0 290 6 285 19 0 0 0 0 0 0 0 0 0 0 0 0
X 1 291
A 293 4 0 0 190 6 292 0 3 0 0 0 0 2 0 0 0 0 0 0
A 294 4 0 0 0 6 290 0 293 0 0 0 0 1 0 0 0 0 0 0
A 295 10 0 0 292 6 285 7 0 0 0 0 0 0 0 0 0 0 0 0
X 1 35
A 296 2 0 0 0 6 980 0 0 0 296 0 0 0 0 0 0 0 0 0
A 297 10 0 0 295 6 285 22 0 0 0 0 0 0 0 0 0 0 0 0
X 1 296
A 298 10 0 0 297 6 285 10 0 0 0 0 0 0 0 0 0 0 0 0
X 1 25
A 299 10 0 0 298 6 285 13 0 0 0 0 0 0 0 0 0 0 0 0
X 1 13
A 302 1 0 13 142 196 984 0 0 0 0 0 0 0 0 0 0 0 0 0
A 303 10 0 0 118 6 302 1 0 0 0 0 0 0 0 0 0 0 0 0
X 1 42
A 304 10 0 0 303 6 302 4 0 0 0 0 0 0 0 0 0 0 0 0
X 1 34
A 305 4 0 0 0 6 304 0 3 0 0 0 0 2 0 0 0 0 0 0
A 306 4 0 0 0 6 303 0 305 0 0 0 0 1 0 0 0 0 0 0
A 307 10 0 0 304 6 302 16 0 0 0 0 0 0 0 0 0 0 0 0
X 1 36
A 308 10 0 0 307 6 302 19 0 0 0 0 0 0 0 0 0 0 0 0
X 1 291
A 309 4 0 0 207 6 308 0 3 0 0 0 0 2 0 0 0 0 0 0
A 310 4 0 0 0 6 307 0 309 0 0 0 0 1 0 0 0 0 0 0
A 311 10 0 0 308 6 302 7 0 0 0 0 0 0 0 0 0 0 0 0
X 1 35
A 312 10 0 0 311 6 302 22 0 0 0 0 0 0 0 0 0 0 0 0
X 1 296
A 313 10 0 0 312 6 302 10 0 0 0 0 0 0 0 0 0 0 0 0
X 1 25
A 314 10 0 0 313 6 302 13 0 0 0 0 0 0 0 0 0 0 0 0
X 1 13
A 317 1 0 13 154 202 991 0 0 0 0 0 0 0 0 0 0 0 0 0
A 318 10 0 0 148 6 317 1 0 0 0 0 0 0 0 0 0 0 0 0
X 1 42
A 319 10 0 0 318 6 317 4 0 0 0 0 0 0 0 0 0 0 0 0
X 1 34
A 320 4 0 0 0 6 319 0 3 0 0 0 0 2 0 0 0 0 0 0
A 321 4 0 0 0 6 318 0 320 0 0 0 0 1 0 0 0 0 0 0
A 322 10 0 0 319 6 317 16 0 0 0 0 0 0 0 0 0 0 0 0
X 1 36
A 323 10 0 0 322 6 317 19 0 0 0 0 0 0 0 0 0 0 0 0
X 1 291
A 324 4 0 0 0 6 323 0 3 0 0 0 0 2 0 0 0 0 0 0
A 325 4 0 0 17 6 322 0 324 0 0 0 0 1 0 0 0 0 0 0
A 326 10 0 0 323 6 317 7 0 0 0 0 0 0 0 0 0 0 0 0
X 1 35
A 327 10 0 0 326 6 317 22 0 0 0 0 0 0 0 0 0 0 0 0
X 1 296
A 328 10 0 0 327 6 317 10 0 0 0 0 0 0 0 0 0 0 0 0
X 1 25
A 329 10 0 0 328 6 317 13 0 0 0 0 0 0 0 0 0 0 0 0
X 1 13
A 332 1 0 13 0 208 998 0 0 0 0 0 0 0 0 0 0 0 0 0
A 333 10 0 0 0 6 332 1 0 0 0 0 0 0 0 0 0 0 0 0
X 1 42
A 334 10 0 0 333 6 332 4 0 0 0 0 0 0 0 0 0 0 0 0
X 1 34
A 335 4 0 0 233 6 334 0 3 0 0 0 0 2 0 0 0 0 0 0
A 336 4 0 0 217 6 333 0 335 0 0 0 0 1 0 0 0 0 0 0
A 337 10 0 0 334 6 332 16 0 0 0 0 0 0 0 0 0 0 0 0
X 1 36
A 338 10 0 0 337 6 332 19 0 0 0 0 0 0 0 0 0 0 0 0
X 1 291
A 339 4 0 0 0 6 338 0 3 0 0 0 0 2 0 0 0 0 0 0
A 340 4 0 0 236 6 337 0 339 0 0 0 0 1 0 0 0 0 0 0
A 341 10 0 0 338 6 332 7 0 0 0 0 0 0 0 0 0 0 0 0
X 1 35
A 342 10 0 0 341 6 332 22 0 0 0 0 0 0 0 0 0 0 0 0
X 1 296
A 343 10 0 0 342 6 332 10 0 0 0 0 0 0 0 0 0 0 0 0
X 1 25
A 344 10 0 0 343 6 332 13 0 0 0 0 0 0 0 0 0 0 0 0
X 1 13
A 346 1 0 11 0 214 1004 0 0 0 0 0 0 0 0 0 0 0 0 0
A 347 10 0 0 171 6 346 1 0 0 0 0 0 0 0 0 0 0 0 0
X 1 42
A 348 10 0 0 347 6 346 4 0 0 0 0 0 0 0 0 0 0 0 0
X 1 34
A 349 4 0 0 0 6 348 0 3 0 0 0 0 2 0 0 0 0 0 0
A 350 4 0 0 0 6 347 0 349 0 0 0 0 1 0 0 0 0 0 0
A 351 10 0 0 348 6 346 7 0 0 0 0 0 0 0 0 0 0 0 0
X 1 35
A 352 10 0 0 351 6 346 10 0 0 0 0 0 0 0 0 0 0 0 0
X 1 25
A 353 10 0 0 352 6 346 13 0 0 0 0 0 0 0 0 0 0 0 0
X 1 13
A 355 1 0 11 36 220 1010 0 0 0 0 0 0 0 0 0 0 0 0 0
A 356 10 0 0 175 6 355 1 0 0 0 0 0 0 0 0 0 0 0 0
X 1 42
A 357 10 0 0 356 6 355 4 0 0 0 0 0 0 0 0 0 0 0 0
X 1 34
A 358 4 0 0 0 6 357 0 3 0 0 0 0 2 0 0 0 0 0 0
A 359 4 0 0 92 6 356 0 358 0 0 0 0 1 0 0 0 0 0 0
A 360 10 0 0 357 6 355 7 0 0 0 0 0 0 0 0 0 0 0 0
X 1 35
A 361 10 0 0 360 6 355 10 0 0 0 0 0 0 0 0 0 0 0 0
X 1 25
A 362 10 0 0 361 6 355 13 0 0 0 0 0 0 0 0 0 0 0 0
X 1 13
A 365 1 0 13 0 226 1017 0 0 0 0 0 0 0 0 0 0 0 0 0
A 366 10 0 0 109 6 365 1 0 0 0 0 0 0 0 0 0 0 0 0
X 1 42
A 367 10 0 0 366 6 365 4 0 0 0 0 0 0 0 0 0 0 0 0
X 1 34
A 368 4 0 0 0 6 367 0 3 0 0 0 0 2 0 0 0 0 0 0
A 369 4 0 0 166 6 366 0 368 0 0 0 0 1 0 0 0 0 0 0
A 370 10 0 0 367 6 365 16 0 0 0 0 0 0 0 0 0 0 0 0
X 1 36
A 371 10 0 0 370 6 365 19 0 0 0 0 0 0 0 0 0 0 0 0
X 1 291
A 372 4 0 0 265 6 371 0 3 0 0 0 0 2 0 0 0 0 0 0
A 373 4 0 0 111 6 370 0 372 0 0 0 0 1 0 0 0 0 0 0
A 374 10 0 0 371 6 365 7 0 0 0 0 0 0 0 0 0 0 0 0
X 1 35
A 375 10 0 0 374 6 365 22 0 0 0 0 0 0 0 0 0 0 0 0
X 1 296
A 376 10 0 0 375 6 365 10 0 0 0 0 0 0 0 0 0 0 0 0
X 1 25
A 377 10 0 0 376 6 365 13 0 0 0 0 0 0 0 0 0 0 0 0
X 1 13
A 380 1 0 13 0 232 1024 0 0 0 0 0 0 0 0 0 0 0 0 0
A 381 10 0 0 192 6 380 1 0 0 0 0 0 0 0 0 0 0 0 0
X 1 42
A 382 10 0 0 381 6 380 4 0 0 0 0 0 0 0 0 0 0 0 0
X 1 34
A 383 4 0 0 0 6 382 0 3 0 0 0 0 2 0 0 0 0 0 0
A 384 4 0 0 0 6 381 0 383 0 0 0 0 1 0 0 0 0 0 0
A 385 10 0 0 382 6 380 16 0 0 0 0 0 0 0 0 0 0 0 0
X 1 36
A 386 10 0 0 385 6 380 19 0 0 0 0 0 0 0 0 0 0 0 0
X 1 291
A 387 4 0 0 0 6 386 0 3 0 0 0 0 2 0 0 0 0 0 0
A 388 4 0 0 0 6 385 0 387 0 0 0 0 1 0 0 0 0 0 0
A 389 10 0 0 386 6 380 7 0 0 0 0 0 0 0 0 0 0 0 0
X 1 35
A 390 10 0 0 389 6 380 22 0 0 0 0 0 0 0 0 0 0 0 0
X 1 296
A 391 10 0 0 390 6 380 10 0 0 0 0 0 0 0 0 0 0 0 0
X 1 25
A 392 10 0 0 391 6 380 13 0 0 0 0 0 0 0 0 0 0 0 0
X 1 13
A 394 1 0 11 0 238 1030 0 0 0 0 0 0 0 0 0 0 0 0 0
A 395 10 0 0 205 6 394 1 0 0 0 0 0 0 0 0 0 0 0 0
X 1 42
A 396 10 0 0 395 6 394 4 0 0 0 0 0 0 0 0 0 0 0 0
X 1 34
A 397 4 0 0 0 6 396 0 3 0 0 0 0 2 0 0 0 0 0 0
A 398 4 0 0 0 6 395 0 397 0 0 0 0 1 0 0 0 0 0 0
A 399 10 0 0 396 6 394 7 0 0 0 0 0 0 0 0 0 0 0 0
X 1 35
A 400 10 0 0 399 6 394 10 0 0 0 0 0 0 0 0 0 0 0 0
X 1 25
A 401 10 0 0 400 6 394 13 0 0 0 0 0 0 0 0 0 0 0 0
X 1 13
A 402 1 0 0 0 6 1071 0 0 0 0 0 0 0 0 0 0 0 0 0
A 403 1 0 0 256 6 1069 0 0 0 0 0 0 0 0 0 0 0 0 0
A 404 1 0 0 0 6 1072 0 0 0 0 0 0 0 0 0 0 0 0 0
A 405 1 0 0 0 6 1070 0 0 0 0 0 0 0 0 0 0 0 0 0
A 406 1 0 0 0 6 1075 0 0 0 0 0 0 0 0 0 0 0 0 0
A 407 1 0 0 0 6 1073 0 0 0 0 0 0 0 0 0 0 0 0 0
A 408 1 0 0 365 6 1076 0 0 0 0 0 0 0 0 0 0 0 0 0
A 409 1 0 0 0 6 1074 0 0 0 0 0 0 0 0 0 0 0 0 0
A 410 1 0 0 0 6 1079 0 0 0 0 0 0 0 0 0 0 0 0 0
A 411 1 0 0 0 6 1077 0 0 0 0 0 0 0 0 0 0 0 0 0
A 412 1 0 0 0 6 1080 0 0 0 0 0 0 0 0 0 0 0 0 0
A 413 1 0 0 0 6 1078 0 0 0 0 0 0 0 0 0 0 0 0 0
A 414 1 0 0 0 6 1095 0 0 0 0 0 0 0 0 0 0 0 0 0
A 415 1 0 0 0 6 1093 0 0 0 0 0 0 0 0 0 0 0 0 0
A 416 1 0 0 12 6 1096 0 0 0 0 0 0 0 0 0 0 0 0 0
A 417 1 0 0 278 6 1094 0 0 0 0 0 0 0 0 0 0 0 0 0
A 418 1 0 0 0 6 1099 0 0 0 0 0 0 0 0 0 0 0 0 0
A 419 1 0 0 14 6 1097 0 0 0 0 0 0 0 0 0 0 0 0 0
A 420 1 0 0 0 6 1100 0 0 0 0 0 0 0 0 0 0 0 0 0
A 421 1 0 0 16 6 1098 0 0 0 0 0 0 0 0 0 0 0 0 0
A 422 1 0 0 0 6 1103 0 0 0 0 0 0 0 0 0 0 0 0 0
A 423 1 0 0 0 6 1101 0 0 0 0 0 0 0 0 0 0 0 0 0
A 424 1 0 0 0 6 1104 0 0 0 0 0 0 0 0 0 0 0 0 0
A 425 1 0 0 0 6 1102 0 0 0 0 0 0 0 0 0 0 0 0 0
A 426 1 0 0 45 6 1113 0 0 0 0 0 0 0 0 0 0 0 0 0
A 427 1 0 0 19 6 1111 0 0 0 0 0 0 0 0 0 0 0 0 0
A 428 1 0 0 47 6 1114 0 0 0 0 0 0 0 0 0 0 0 0 0
A 429 1 0 0 43 6 1112 0 0 0 0 0 0 0 0 0 0 0 0 0
A 430 1 0 0 53 6 1117 0 0 0 0 0 0 0 0 0 0 0 0 0
A 431 1 0 0 49 6 1115 0 0 0 0 0 0 0 0 0 0 0 0 0
A 432 1 0 0 55 6 1118 0 0 0 0 0 0 0 0 0 0 0 0 0
A 433 1 0 0 51 6 1116 0 0 0 0 0 0 0 0 0 0 0 0 0
A 434 1 0 0 0 6 1127 0 0 0 0 0 0 0 0 0 0 0 0 0
A 435 1 0 0 0 6 1125 0 0 0 0 0 0 0 0 0 0 0 0 0
A 436 1 0 0 0 6 1128 0 0 0 0 0 0 0 0 0 0 0 0 0
A 437 1 0 0 0 6 1126 0 0 0 0 0 0 0 0 0 0 0 0 0
A 438 1 0 0 0 6 1131 0 0 0 0 0 0 0 0 0 0 0 0 0
A 439 1 0 0 0 6 1129 0 0 0 0 0 0 0 0 0 0 0 0 0
A 440 1 0 0 0 6 1132 0 0 0 0 0 0 0 0 0 0 0 0 0
A 441 1 0 0 0 6 1130 0 0 0 0 0 0 0 0 0 0 0 0 0
A 442 1 0 0 0 6 1140 0 0 0 0 0 0 0 0 0 0 0 0 0
A 443 1 0 0 62 6 1138 0 0 0 0 0 0 0 0 0 0 0 0 0
A 444 1 0 0 0 6 1141 0 0 0 0 0 0 0 0 0 0 0 0 0
A 445 1 0 0 64 6 1139 0 0 0 0 0 0 0 0 0 0 0 0 0
A 446 1 0 0 0 6 1151 0 0 0 0 0 0 0 0 0 0 0 0 0
A 447 1 0 0 0 6 1149 0 0 0 0 0 0 0 0 0 0 0 0 0
A 448 1 0 0 0 6 1152 0 0 0 0 0 0 0 0 0 0 0 0 0
A 449 1 0 0 0 6 1150 0 0 0 0 0 0 0 0 0 0 0 0 0
A 450 1 0 0 0 6 1159 0 0 0 0 0 0 0 0 0 0 0 0 0
A 451 1 0 0 0 6 1157 0 0 0 0 0 0 0 0 0 0 0 0 0
A 452 1 0 0 0 6 1160 0 0 0 0 0 0 0 0 0 0 0 0 0
A 453 1 0 0 0 6 1158 0 0 0 0 0 0 0 0 0 0 0 0 0
Z
Z
