V26 cell_base
13 cell_base.F90 S582 0
04/24/2012  15:51:03
use kinds private
use kinds private
enduse
D 56 24 595 680 594 7
D 62 21 9 2 15 18 0 0 0 0 0
 0 17 3 3 17 17
 0 17 17 3 17 17
D 65 21 9 2 15 18 0 0 0 0 0
 0 17 3 3 17 17
 0 17 17 3 17 17
D 68 21 9 2 15 18 0 0 0 0 0
 0 17 3 3 17 17
 0 17 17 3 17 17
D 71 21 9 2 15 18 0 0 0 0 0
 0 17 3 3 17 17
 0 17 17 3 17 17
D 74 21 9 2 15 18 0 0 0 0 0
 0 17 3 3 17 17
 0 17 17 3 17 17
D 77 21 9 2 15 18 0 0 0 0 0
 0 17 3 3 17 17
 0 17 17 3 17 17
D 80 21 9 2 15 18 0 0 0 0 0
 0 17 3 3 17 17
 0 17 17 3 17 17
D 83 21 9 2 15 18 0 0 0 0 0
 0 17 3 3 17 17
 0 17 17 3 17 17
D 86 21 9 2 15 18 0 0 0 0 0
 0 17 3 3 17 17
 0 17 17 3 17 17
D 89 21 6 1 3 17 0 0 0 0 0
 0 17 3 3 17 17
D 92 21 9 1 3 21 0 0 0 0 0
 0 21 3 3 21 21
D 98 21 9 1 3 17 0 0 0 0 0
 0 17 3 3 17 17
D 104 21 9 1 3 17 0 0 0 0 0
 0 17 3 3 17 17
D 110 21 9 1 3 17 0 0 0 0 0
 0 17 3 3 17 17
D 116 21 9 1 3 17 0 0 0 0 0
 0 17 3 3 17 17
D 122 21 9 1 3 17 0 0 0 0 0
 0 17 3 3 17 17
D 128 21 9 1 3 17 0 0 0 0 0
 0 17 3 3 17 17
D 134 21 9 2 15 18 0 0 0 0 0
 0 17 3 3 17 17
 0 17 17 3 17 17
D 137 21 9 2 15 18 0 0 0 0 0
 0 17 3 3 17 17
 0 17 17 3 17 17
D 140 21 9 1 3 3 0 0 0 0 0
 0 3 3 3 3 3
D 143 21 6 1 3 33 0 0 0 0 0
 0 33 3 3 33 33
D 146 21 9 1 3 3 0 0 0 0 0
 0 3 3 3 3 3
D 152 21 9 2 15 18 0 0 0 0 0
 0 17 3 3 17 17
 0 17 17 3 17 17
D 155 21 9 1 3 3 0 0 0 0 0
 0 3 3 3 3 3
D 158 21 6 1 3 33 0 0 0 0 0
 0 33 3 3 33 33
D 161 21 9 1 3 3 0 0 0 0 0
 0 3 3 3 3 3
D 167 18 18
D 169 21 9 2 15 18 0 0 0 0 0
 0 17 3 3 17 17
 0 17 17 3 17 17
D 172 21 9 2 15 18 0 0 0 0 0
 0 17 3 3 17 17
 0 17 17 3 17 17
D 175 21 9 2 15 18 0 0 0 0 0
 0 17 3 3 17 17
 0 17 17 3 17 17
D 178 21 9 2 15 18 0 0 0 0 0
 0 17 3 3 17 17
 0 17 17 3 17 17
D 181 21 6 2 15 18 0 0 0 0 0
 0 17 3 3 17 17
 0 17 17 3 17 17
D 184 21 6 1 0 3 0 0 0 0 0
 0 3 0 3 3 0
D 187 21 9 2 15 18 0 0 0 0 0
 0 17 3 3 17 17
 0 17 17 3 17 17
D 190 21 9 1 3 17 0 0 0 0 0
 0 17 3 3 17 17
D 193 21 9 1 3 17 0 0 0 0 0
 0 17 3 3 17 17
D 196 21 9 1 3 17 0 0 0 0 0
 0 17 3 3 17 17
D 199 21 9 1 3 17 0 0 0 0 0
 0 17 3 3 17 17
D 202 21 9 1 3 17 0 0 0 0 0
 0 17 3 3 17 17
D 205 21 9 2 73 79 1 1 0 0 1
 3 74 3 3 74 75
 3 76 77 3 76 78
D 208 21 6 1 80 83 1 1 0 0 1
 3 81 3 3 81 82
D 211 21 9 2 84 90 1 1 0 0 1
 3 85 3 3 85 86
 3 87 88 3 87 89
D 214 21 9 2 91 97 1 1 0 0 1
 3 92 3 3 92 93
 3 94 95 3 94 96
D 217 21 9 1 98 101 1 1 0 0 1
 3 99 3 3 99 100
D 220 21 9 1 102 105 1 1 0 0 1
 3 103 3 3 103 104
D 223 21 9 2 106 112 1 1 0 0 1
 3 107 3 3 107 108
 3 109 110 3 109 111
D 226 21 9 1 3 17 0 0 0 0 0
 0 17 3 3 17 17
D 229 21 9 1 3 17 0 0 0 0 0
 0 17 3 3 17 17
D 232 21 9 1 3 17 0 0 0 0 0
 0 17 3 3 17 17
D 235 21 9 1 3 17 0 0 0 0 0
 0 17 3 3 17 17
D 238 21 9 2 113 119 1 1 0 0 1
 3 114 3 3 114 115
 3 116 117 3 116 118
D 241 21 9 2 120 126 1 1 0 0 1
 3 121 3 3 121 122
 3 123 124 3 123 125
D 244 21 6 1 127 130 1 1 0 0 1
 3 128 3 3 128 129
D 247 21 9 2 131 137 1 1 0 0 1
 3 132 3 3 132 133
 3 134 135 3 134 136
D 250 21 9 2 138 144 1 1 0 0 1
 3 139 3 3 139 140
 3 141 142 3 141 143
D 253 21 9 2 15 18 0 0 0 0 0
 0 17 3 3 17 17
 0 17 17 3 17 17
D 256 21 9 1 3 17 0 0 0 0 0
 0 17 3 3 17 17
D 259 21 9 1 3 17 0 0 0 0 0
 0 17 3 3 17 17
D 262 21 6 1 3 17 0 0 0 0 0
 0 17 3 3 17 17
D 265 21 9 1 3 17 0 0 0 0 0
 0 17 3 3 17 17
D 268 21 9 1 3 17 0 0 0 0 0
 0 17 3 3 17 17
D 271 21 9 1 3 17 0 0 0 0 0
 0 17 3 3 17 17
D 274 21 9 1 3 17 0 0 0 0 0
 0 17 3 3 17 17
D 277 21 9 1 3 21 0 0 0 0 0
 0 21 3 3 21 21
D 280 21 9 2 15 18 0 0 0 0 0
 0 17 3 3 17 17
 0 17 17 3 17 17
D 283 21 9 2 15 18 0 0 0 0 0
 0 17 3 3 17 17
 0 17 17 3 17 17
D 286 21 9 2 15 18 0 0 0 0 0
 0 17 3 3 17 17
 0 17 17 3 17 17
D 289 21 9 2 15 18 0 0 0 0 0
 0 17 3 3 17 17
 0 17 17 3 17 17
D 292 21 9 2 15 18 0 0 0 0 0
 0 17 3 3 17 17
 0 17 17 3 17 17
D 295 21 6 2 15 18 0 0 0 0 0
 0 17 3 3 17 17
 0 17 17 3 17 17
D 298 21 9 2 15 18 0 0 0 0 0
 0 17 3 3 17 17
 0 17 17 3 17 17
D 301 21 9 2 15 18 0 0 0 0 0
 0 17 3 3 17 17
 0 17 17 3 17 17
D 304 21 9 2 15 18 0 0 0 0 0
 0 17 3 3 17 17
 0 17 17 3 17 17
D 307 21 9 2 15 18 0 0 0 0 0
 0 17 3 3 17 17
 0 17 17 3 17 17
D 310 21 9 2 15 18 0 0 0 0 0
 0 17 3 3 17 17
 0 17 17 3 17 17
D 313 21 6 2 15 18 0 0 0 0 0
 0 17 3 3 17 17
 0 17 17 3 17 17
D 316 21 9 2 15 18 0 0 0 0 0
 0 17 3 3 17 17
 0 17 17 3 17 17
D 319 21 9 2 15 18 0 0 0 0 0
 0 17 3 3 17 17
 0 17 17 3 17 17
D 322 21 9 2 15 18 0 0 0 0 0
 0 17 3 3 17 17
 0 17 17 3 17 17
D 325 21 6 2 15 18 0 0 0 0 0
 0 17 3 3 17 17
 0 17 17 3 17 17
D 328 21 9 2 15 18 0 0 0 0 0
 0 17 3 3 17 17
 0 17 17 3 17 17
D 331 21 9 2 15 18 0 0 0 0 0
 0 17 3 3 17 17
 0 17 17 3 17 17
D 334 21 9 2 15 18 0 0 0 0 0
 0 17 3 3 17 17
 0 17 17 3 17 17
D 337 21 9 2 15 18 0 0 0 0 0
 0 17 3 3 17 17
 0 17 17 3 17 17
D 340 21 9 2 15 18 0 0 0 0 0
 0 17 3 3 17 17
 0 17 17 3 17 17
D 343 21 9 2 15 18 0 0 0 0 0
 0 17 3 3 17 17
 0 17 17 3 17 17
D 346 21 9 2 15 18 0 0 0 0 0
 0 17 3 3 17 17
 0 17 17 3 17 17
D 349 21 9 2 15 18 0 0 0 0 0
 0 17 3 3 17 17
 0 17 17 3 17 17
D 352 21 9 2 15 18 0 0 0 0 0
 0 17 3 3 17 17
 0 17 17 3 17 17
D 355 21 6 2 15 18 0 0 0 0 0
 0 17 3 3 17 17
 0 17 17 3 17 17
D 358 21 9 2 15 18 0 0 0 0 0
 0 17 3 3 17 17
 0 17 17 3 17 17
D 361 21 9 2 15 18 0 0 0 0 0
 0 17 3 3 17 17
 0 17 17 3 17 17
D 364 21 9 2 15 18 0 0 0 0 0
 0 17 3 3 17 17
 0 17 17 3 17 17
D 367 21 9 2 15 18 0 0 0 0 0
 0 17 3 3 17 17
 0 17 17 3 17 17
D 370 21 9 2 15 18 0 0 0 0 0
 0 17 3 3 17 17
 0 17 17 3 17 17
D 373 21 9 2 15 18 0 0 0 0 0
 0 17 3 3 17 17
 0 17 17 3 17 17
S 582 24 0 0 0 9 1 0 4658 10005 0 A 0 0 0 0 0 0 0 0 0 0 0 0 0 0 0 0 0 0 0 0 0 12 0 0 0 0 0 0 cell_base
S 584 23 0 0 0 9 587 582 4674 4 0 A 0 0 0 0 0 0 0 0 0 0 0 0 0 0 0 0 0 0 0 0 0 0 0 582 0 0 0 0 dp
S 586 3 0 0 0 6 1 1 0 0 0 A 0 0 0 0 0 0 0 0 0 4 0 0 0 0 0 0 0 0 0 0 0 0 0 0 0 0 0 0 6
R 587 16 1 kinds dp
S 594 25 0 0 0 56 1 582 4708 10000004 800010 A 0 0 0 0 0 0 0 0 0 0 0 0 0 0 0 0 0 0 0 666 0 0 0 582 0 0 0 0 boxdimensions
S 595 5 0 0 0 62 598 582 4722 800004 0 A 0 0 0 0 0 0 0 0 56 0 0 0 0 0 0 0 0 0 0 0 1 595 0 582 0 0 0 0 a
S 596 3 0 0 0 6 1 1 0 0 0 A 0 0 0 0 0 0 0 0 0 3 0 0 0 0 0 0 0 0 0 0 0 0 0 0 0 0 0 0 6
S 597 3 0 0 0 6 1 1 0 0 0 A 0 0 0 0 0 0 0 0 0 9 0 0 0 0 0 0 0 0 0 0 0 0 0 0 0 0 0 0 6
S 598 5 0 0 0 65 599 582 4724 800004 0 A 0 0 0 0 0 72 0 0 56 0 0 0 0 0 0 0 0 0 0 0 595 598 0 582 0 0 0 0 m1
S 599 5 0 0 0 9 600 582 4727 800004 0 A 0 0 0 0 0 144 0 0 56 0 0 0 0 0 0 0 0 0 0 0 598 599 0 582 0 0 0 0 omega
S 600 5 0 0 0 68 601 582 4733 800004 0 A 0 0 0 0 0 152 0 0 56 0 0 0 0 0 0 0 0 0 0 0 599 600 0 582 0 0 0 0 g
S 601 5 0 0 0 71 602 582 4735 800004 0 A 0 0 0 0 0 224 0 0 56 0 0 0 0 0 0 0 0 0 0 0 600 601 0 582 0 0 0 0 gvel
S 602 5 0 0 0 74 603 582 4740 800004 0 A 0 0 0 0 0 296 0 0 56 0 0 0 0 0 0 0 0 0 0 0 601 602 0 582 0 0 0 0 pail
S 603 5 0 0 0 77 604 582 4745 800004 0 A 0 0 0 0 0 368 0 0 56 0 0 0 0 0 0 0 0 0 0 0 602 603 0 582 0 0 0 0 paiu
S 604 5 0 0 0 80 605 582 4750 800004 0 A 0 0 0 0 0 440 0 0 56 0 0 0 0 0 0 0 0 0 0 0 603 604 0 582 0 0 0 0 hmat
S 605 5 0 0 0 83 606 582 4755 800004 0 A 0 0 0 0 0 512 0 0 56 0 0 0 0 0 0 0 0 0 0 0 604 605 0 582 0 0 0 0 hvel
S 606 5 0 0 0 86 607 582 4760 800004 0 A 0 0 0 0 0 584 0 0 56 0 0 0 0 0 0 0 0 0 0 0 605 606 0 582 0 0 0 0 hinv
S 607 5 0 0 0 9 608 582 4765 800004 0 A 0 0 0 0 0 656 0 0 56 0 0 0 0 0 0 0 0 0 0 0 606 607 0 582 0 0 0 0 deth
S 608 5 0 0 0 89 1 582 4770 800004 0 A 0 0 0 0 0 664 0 0 56 0 0 0 0 0 0 0 0 0 0 0 607 608 0 582 0 0 0 0 perd
S 609 6 4 0 0 9 610 582 4775 80000c 0 A 0 0 0 0 0 0 0 0 0 0 0 0 667 0 0 0 0 0 0 0 0 0 0 582 0 0 0 0 alat
S 610 7 4 0 4 92 612 582 4787 80000c 100 A 0 0 0 0 0 16 0 0 0 0 0 0 667 0 0 0 0 0 0 0 0 0 0 582 0 0 0 0 celldm
S 611 3 0 0 0 6 1 1 0 0 0 A 0 0 0 0 0 0 0 0 0 6 0 0 0 0 0 0 0 0 0 0 0 0 0 0 0 0 0 0 6
S 612 7 4 0 4 98 613 582 4836 80000c 100 A 0 0 0 0 0 64 0 0 0 0 0 0 667 0 0 0 0 0 0 0 0 0 0 582 0 0 0 0 a1
S 613 7 4 0 4 104 614 582 4860 80000c 100 A 0 0 0 0 0 96 0 0 0 0 0 0 667 0 0 0 0 0 0 0 0 0 0 582 0 0 0 0 a2
S 614 7 4 0 4 110 615 582 4884 80000c 100 A 0 0 0 0 0 128 0 0 0 0 0 0 667 0 0 0 0 0 0 0 0 0 0 582 0 0 0 0 a3
S 615 7 4 0 4 116 616 582 4908 80000c 100 A 0 0 0 0 0 160 0 0 0 0 0 0 667 0 0 0 0 0 0 0 0 0 0 582 0 0 0 0 b1
S 616 7 4 0 4 122 617 582 4932 80000c 100 A 0 0 0 0 0 192 0 0 0 0 0 0 667 0 0 0 0 0 0 0 0 0 0 582 0 0 0 0 b2
S 617 7 4 0 4 128 618 582 4956 80000c 100 A 0 0 0 0 0 224 0 0 0 0 0 0 667 0 0 0 0 0 0 0 0 0 0 582 0 0 0 0 b3
S 618 7 4 0 4 134 619 582 4980 80000c 100 A 0 0 0 0 0 256 0 0 0 0 0 0 667 0 0 0 0 0 0 0 0 0 0 582 0 0 0 0 ainv
S 619 6 4 0 0 9 620 582 4727 80000c 0 A 0 0 0 0 0 328 0 0 0 0 0 0 667 0 0 0 0 0 0 0 0 0 0 582 0 0 0 0 omega
S 620 6 4 0 0 9 621 582 4999 80000c 0 A 0 0 0 0 0 336 0 0 0 0 0 0 667 0 0 0 0 0 0 0 0 0 0 582 0 0 0 0 tpiba
S 621 6 4 0 0 9 622 582 5012 80000c 0 A 0 0 0 0 0 344 0 0 0 0 0 0 667 0 0 0 0 0 0 0 0 0 0 582 0 0 0 0 tpiba2
S 622 7 4 0 4 137 627 582 5026 80000c 100 A 0 0 0 0 0 352 0 0 0 0 0 0 667 0 0 0 0 0 0 0 0 0 0 582 0 0 0 0 at
S 623 3 0 0 0 6 0 1 0 0 0 A 0 0 0 0 0 0 0 0 0 2 0 0 0 0 0 0 0 0 0 0 0 0 0 0 0 0 0 0 6
S 624 16 0 0 0 143 1 582 5043 40000004 400000 A 0 0 0 0 0 0 0 0 625 1 0 0 0 0 0 0 0 0 0 0 0 36 0 582 0 0 0 0 z_c_0
S 625 7 4 0 4 143 632 582 5049 4080004c 400100 A 0 0 0 0 0 0 0 0 0 0 0 0 668 0 0 0 0 0 0 0 0 36 0 582 0 624 0 0 z_c_0$ac
S 626 16 0 0 0 146 1 582 5058 40000004 400000 A 0 0 0 0 0 0 0 0 627 2 0 0 0 0 0 0 0 0 0 0 0 39 0 582 0 0 0 0 z_c_1
S 627 7 4 0 4 146 629 582 5064 4080004c 400100 A 0 0 0 0 0 432 0 0 0 0 0 0 667 0 0 0 0 0 0 0 0 39 0 582 0 626 0 0 z_c_1$ac
S 628 16 0 0 0 140 1 582 5073 40000004 400000 A 0 0 0 0 0 0 0 0 629 3 0 0 0 0 0 0 0 0 0 0 0 42 0 582 0 0 0 0 z_c_2
S 629 7 4 0 4 140 630 582 5079 4080004c 400100 A 0 0 0 0 0 448 0 0 0 0 0 0 667 0 0 0 0 0 0 0 0 42 0 582 0 628 0 0 z_c_2$ac
S 630 7 4 0 4 152 634 582 5088 80000c 100 A 0 0 0 0 0 464 0 0 0 0 0 0 667 0 0 0 0 0 0 0 0 0 0 582 0 0 0 0 bg
S 631 16 0 0 0 158 1 582 5105 40000004 400000 A 0 0 0 0 0 0 0 0 632 4 0 0 0 0 0 0 0 0 0 0 0 49 0 582 0 0 0 0 z_c_3
S 632 7 4 0 4 158 644 582 5111 4080004c 400100 A 0 0 0 0 0 16 0 0 0 0 0 0 668 0 0 0 0 0 0 0 0 49 0 582 0 631 0 0 z_c_3$ac
S 633 16 0 0 0 161 1 582 5120 40000004 400000 A 0 0 0 0 0 0 0 0 634 5 0 0 0 0 0 0 0 0 0 0 0 52 0 582 0 0 0 0 z_c_4
S 634 7 4 0 4 161 636 582 5126 4080004c 400100 A 0 0 0 0 0 544 0 0 0 0 0 0 667 0 0 0 0 0 0 0 0 52 0 582 0 633 0 0 z_c_4$ac
S 635 16 0 0 0 155 1 582 5135 40000004 400000 A 0 0 0 0 0 0 0 0 636 6 0 0 0 0 0 0 0 0 0 0 0 55 0 582 0 0 0 0 z_c_5
S 636 7 4 0 4 155 639 582 5141 4080004c 400100 A 0 0 0 0 0 560 0 0 0 0 0 0 667 0 0 0 0 0 0 0 0 55 0 582 0 635 0 0 z_c_5$ac
S 637 6 4 0 0 6 1 582 5150 4 0 A 0 0 0 0 0 0 0 0 0 0 0 0 669 0 0 0 0 0 0 0 0 0 0 582 0 0 0 0 ibrav
S 638 6 4 0 0 167 1 582 5156 4 0 A 0 0 0 0 0 0 0 0 0 0 0 0 670 0 0 0 0 0 0 0 0 0 0 582 0 0 0 0 symm_type
S 639 7 4 0 4 169 640 582 5166 80000c 100 A 0 0 0 0 0 576 0 0 0 0 0 0 667 0 0 0 0 0 0 0 0 0 0 582 0 0 0 0 h
S 640 7 4 0 4 172 641 582 5175 80000c 100 A 0 0 0 0 0 656 0 0 0 0 0 0 667 0 0 0 0 0 0 0 0 0 0 582 0 0 0 0 hold
S 641 7 4 0 4 175 642 582 5187 80000c 100 A 0 0 0 0 0 736 0 0 0 0 0 0 667 0 0 0 0 0 0 0 0 0 0 582 0 0 0 0 hnew
S 642 7 4 0 4 178 643 582 5199 80000c 100 A 0 0 0 0 0 816 0 0 0 0 0 0 667 0 0 0 0 0 0 0 0 0 0 582 0 0 0 0 velh
S 643 6 4 0 0 9 647 582 4765 80000c 0 A 0 0 0 0 0 888 0 0 0 0 0 0 667 0 0 0 0 0 0 0 0 0 0 582 0 0 0 0 deth
S 644 7 4 0 4 181 645 582 5218 80000c 100 A 0 0 0 0 0 32 0 0 0 0 0 0 668 0 0 0 0 0 0 0 0 0 0 582 0 0 0 0 iforceh
S 645 6 4 0 0 16 651 582 5226 80000c 0 A 0 0 0 0 0 68 0 0 0 0 0 0 668 0 0 0 0 0 0 0 0 0 0 582 0 0 0 0 thdiag
S 647 6 4 0 0 9 648 582 5233 80000c 0 A 0 0 0 0 0 896 0 0 0 0 0 0 667 0 0 0 0 0 0 0 0 0 0 582 0 0 0 0 wmass
S 648 6 4 0 0 9 649 582 5246 80000c 0 A 0 0 0 0 0 904 0 0 0 0 0 0 667 0 0 0 0 0 0 0 0 0 0 582 0 0 0 0 press
S 649 6 4 0 0 9 650 582 5259 80000c 0 A 0 0 0 0 0 912 0 0 0 0 0 0 667 0 0 0 0 0 0 0 0 0 0 582 0 0 0 0 frich
S 650 6 4 0 0 9 1 582 5272 80000c 0 A 0 0 0 0 0 920 0 0 0 0 0 0 667 0 0 0 0 0 0 0 0 0 0 582 0 0 0 0 greash
S 651 6 4 0 0 16 1 582 5286 80000c 0 A 0 0 0 0 0 72 0 0 0 0 0 0 668 0 0 0 0 0 0 0 0 0 0 582 0 0 0 0 tcell_base_init
S 652 19 0 0 0 9 1 582 5302 4000 0 A 0 0 0 0 0 0 0 0 0 0 0 0 0 0 0 0 5 2 0 0 0 0 0 582 0 0 0 0 cell_init
O 652 2 654 653
S 653 27 0 0 0 9 676 582 5312 10000 400000 A 0 0 0 0 0 0 22 0 0 0 0 0 0 0 0 0 0 0 0 0 0 0 0 582 0 0 0 0 cell_init_ht
Q 653 652 0
S 654 27 0 0 0 9 680 582 5325 10000 400000 A 0 0 0 0 0 0 23 0 0 0 0 0 0 0 0 0 0 0 0 0 0 0 0 582 0 0 0 0 cell_init_a
Q 654 652 0
S 655 19 0 0 0 9 1 582 5337 4000 0 A 0 0 0 0 0 0 0 0 0 0 0 0 0 0 0 0 9 2 0 0 0 0 0 582 0 0 0 0 pbcs
O 655 2 657 656
S 656 27 0 0 0 9 810 582 5342 10000 400000 A 0 0 0 0 0 0 30 0 0 0 0 0 0 0 0 0 0 0 0 0 0 0 0 582 0 0 0 0 pbcs_components
Q 656 655 0
S 657 27 0 0 0 9 819 582 5358 10000 400000 A 0 0 0 0 0 0 31 0 0 0 0 0 0 0 0 0 0 0 0 0 0 0 0 582 0 0 0 0 pbcs_vectors
Q 657 655 0
S 658 19 0 0 0 9 1 582 5371 4000 0 A 0 0 0 0 0 0 0 0 0 0 0 0 0 0 0 0 15 3 0 0 0 0 0 582 0 0 0 0 s_to_r
O 658 3 661 660 659
S 659 27 0 0 0 9 743 582 5378 10000 400000 A 0 0 0 0 0 0 27 0 0 0 0 0 0 0 0 0 0 0 0 0 0 0 0 582 0 0 0 0 s_to_r1
Q 659 658 0
S 660 27 0 0 0 9 748 582 5386 10000 400000 A 0 0 0 0 0 0 28 0 0 0 0 0 0 0 0 0 0 0 0 0 0 0 0 582 0 0 0 0 s_to_r1b
Q 660 658 0
S 661 27 0 0 0 9 760 582 5395 10000 400000 A 0 0 0 0 0 0 29 0 0 0 0 0 0 0 0 0 0 0 0 0 0 0 0 582 0 0 0 0 s_to_r3
Q 661 658 0
S 662 19 0 0 0 9 1 582 5403 4000 0 A 0 0 0 0 0 0 0 0 0 0 0 0 0 0 0 0 21 3 0 0 0 0 0 582 0 0 0 0 r_to_s
O 662 3 665 664 663
S 663 27 0 0 0 9 686 582 5410 10000 400000 A 0 0 0 0 0 0 24 0 0 0 0 0 0 0 0 0 0 0 0 0 0 0 0 582 0 0 0 0 r_to_s1
Q 663 662 0
S 664 27 0 0 0 9 723 582 5418 10000 400000 A 0 0 0 0 0 0 26 0 0 0 0 0 0 0 0 0 0 0 0 0 0 0 0 582 0 0 0 0 r_to_s1b
Q 664 662 0
S 665 27 0 0 0 9 691 582 5427 10000 400000 A 0 0 0 0 0 0 25 0 0 0 0 0 0 0 0 0 0 0 0 0 0 0 0 582 0 0 0 0 r_to_s3
Q 665 662 0
S 666 8 5 0 0 184 1 582 5435 40022004 1220 A 0 0 0 0 0 0 0 56 0 0 0 0 0 0 0 0 0 0 0 0 0 0 0 582 0 0 0 0 cell_base$boxdimensions$td
S 667 11 0 0 4 9 1 582 5462 40800000 801000 A 0 0 0 0 0 928 0 0 609 650 0 0 0 0 0 0 0 0 0 0 0 0 0 0 0 0 0 0 _cell_base$10
S 668 11 0 0 4 9 667 582 5476 40800000 801000 A 0 0 0 0 0 76 0 0 625 651 0 0 0 0 0 0 0 0 0 0 0 0 0 0 0 0 0 0 _cell_base$8
S 669 11 0 0 0 9 668 582 5489 40800000 801000 A 0 0 0 0 0 4 0 0 637 637 0 0 0 0 0 0 0 0 0 0 0 0 0 0 0 0 0 0 _cell_base$0
S 670 11 0 0 0 9 669 582 5502 40800000 801000 A 0 0 0 0 0 9 0 0 638 638 0 0 0 0 0 0 0 0 0 0 0 0 0 0 0 0 0 0 _cell_base$1
S 671 23 5 0 0 0 675 582 5515 0 0 A 0 0 0 0 0 0 0 0 0 0 0 0 0 0 0 0 0 0 0 0 0 0 0 0 0 0 0 0 updatecell
S 672 1 3 0 0 56 1 671 5526 4 3000 A 0 0 0 0 0 0 0 0 0 0 0 0 0 0 0 0 0 0 0 0 0 0 0 0 0 0 0 0 box_tm1
S 673 1 3 0 0 56 1 671 5534 4 3000 A 0 0 0 0 0 0 0 0 0 0 0 0 0 0 0 0 0 0 0 0 0 0 0 0 0 0 0 0 box_t0
S 674 1 3 0 0 56 1 671 5541 4 3000 A 0 0 0 0 0 0 0 0 0 0 0 0 0 0 0 0 0 0 0 0 0 0 0 0 0 0 0 0 box_tp1
S 675 14 5 0 0 0 1 671 5515 0 400000 A 0 0 0 0 0 0 0 4 3 0 0 0 0 0 0 0 0 0 0 0 0 126 0 582 0 0 0 0 updatecell
F 675 3 672 673 674
S 676 23 5 0 0 0 679 582 5312 0 0 A 0 0 0 0 0 0 0 0 0 0 0 0 0 0 0 0 0 0 0 0 0 0 0 0 0 0 0 0 cell_init_ht
S 677 1 3 0 0 56 1 676 5549 4 3000 A 0 0 0 0 0 0 0 0 0 0 0 0 0 0 0 0 0 0 0 0 0 0 0 0 0 0 0 0 box
S 678 7 3 0 0 187 1 676 5553 800004 3000 A 0 0 0 0 0 0 0 0 0 0 0 0 0 0 0 0 0 0 0 0 0 0 0 0 0 0 0 0 ht
S 679 14 5 0 0 0 1 676 5312 0 400000 A 0 0 0 0 0 0 0 8 2 0 0 0 0 0 0 0 0 0 0 0 0 143 0 582 0 0 0 0 cell_init_ht
F 679 2 677 678
S 680 23 5 0 0 0 685 582 5325 0 0 A 0 0 0 0 0 0 0 0 0 0 0 0 0 0 0 0 0 0 0 0 0 0 0 0 0 0 0 0 cell_init_a
S 681 1 3 0 0 56 1 680 5549 4 3000 A 0 0 0 0 0 0 0 0 0 0 0 0 0 0 0 0 0 0 0 0 0 0 0 0 0 0 0 0 box
S 682 7 3 0 0 190 1 680 4836 800004 3000 A 0 0 0 0 0 0 0 0 0 0 0 0 0 0 0 0 0 0 0 0 0 0 0 0 0 0 0 0 a1
S 683 7 3 0 0 193 1 680 4860 800004 3000 A 0 0 0 0 0 0 0 0 0 0 0 0 0 0 0 0 0 0 0 0 0 0 0 0 0 0 0 0 a2
S 684 7 3 0 0 196 1 680 4884 800004 3000 A 0 0 0 0 0 0 0 0 0 0 0 0 0 0 0 0 0 0 0 0 0 0 0 0 0 0 0 0 a3
S 685 14 5 0 0 0 1 680 5325 0 400000 A 0 0 0 0 0 0 0 11 4 0 0 0 0 0 0 0 0 0 0 0 0 159 0 582 0 0 0 0 cell_init_a
F 685 4 681 682 683 684
S 686 23 5 0 0 0 690 582 5410 0 0 A 0 0 0 0 0 0 0 0 0 0 0 0 0 0 0 0 0 0 0 0 0 0 0 0 0 0 0 0 r_to_s1
S 687 7 3 1 0 202 1 686 5556 800004 3000 A 0 0 0 0 0 0 0 0 0 0 0 0 0 0 0 0 0 0 0 0 0 0 0 0 0 0 0 0 r
S 688 7 3 2 0 199 1 686 5558 800004 3000 A 0 0 0 0 0 0 0 0 0 0 0 0 0 0 0 0 0 0 0 0 0 0 0 0 0 0 0 0 s
S 689 1 3 1 0 56 1 686 5549 4 3000 A 0 0 0 0 0 0 0 0 0 0 0 0 0 0 0 0 0 0 0 0 0 0 0 0 0 0 0 0 box
S 690 14 5 0 0 0 1 686 5410 0 400000 A 0 0 0 0 0 0 0 16 3 0 0 0 0 0 0 0 0 0 0 0 0 182 0 582 0 0 0 0 r_to_s1
F 690 3 687 688 689
S 691 23 5 0 0 0 697 582 5427 0 0 A 0 0 0 0 0 0 0 0 0 0 0 0 0 0 0 0 0 0 0 0 0 0 0 0 0 0 0 0 r_to_s3
S 692 7 3 1 0 211 1 691 5556 20000004 10003000 A 0 0 0 0 0 0 0 0 0 0 0 0 0 0 0 0 0 0 0 0 0 0 0 0 0 0 0 0 r
S 693 7 3 2 0 205 1 691 5558 20000004 10003000 A 0 0 0 0 0 0 0 0 0 0 0 0 0 0 0 0 0 0 0 0 0 0 0 0 0 0 0 0 s
S 694 7 3 1 0 208 1 691 5560 20000004 10003000 A 0 0 0 0 0 0 0 0 0 0 0 0 0 0 0 0 0 0 0 0 0 0 0 0 0 0 0 0 na
S 695 1 3 1 0 6 1 691 5563 4 3000 A 0 0 0 0 0 0 0 0 0 0 0 0 0 0 0 0 0 0 0 0 0 0 0 0 0 0 0 0 nsp
S 696 7 3 1 0 214 1 691 4760 20000004 10003000 A 0 0 0 0 0 0 0 0 0 0 0 0 0 0 0 0 0 0 0 0 0 0 0 0 0 0 0 0 hinv
S 697 14 5 0 0 0 1 691 5427 20000000 400000 A 0 0 0 0 0 0 0 20 5 0 0 0 0 0 0 0 0 0 0 0 0 198 0 582 0 0 0 0 r_to_s3
F 697 5 692 693 694 695 696
S 698 6 1 0 0 6 1 691 5567 40800006 3000 A 0 0 0 0 0 0 0 0 0 0 0 0 0 0 0 0 0 0 0 0 0 0 0 0 0 0 0 0 z_b_0
S 699 6 1 0 0 6 1 691 5573 40800006 3000 A 0 0 0 0 0 0 0 0 0 0 0 0 0 0 0 0 0 0 0 0 0 0 0 0 0 0 0 0 z_b_2
S 700 6 1 0 0 6 1 691 5579 40800006 3000 A 0 0 0 0 0 0 0 0 0 0 0 0 0 0 0 0 0 0 0 0 0 0 0 0 0 0 0 0 z_b_3
S 701 6 1 0 0 6 1 691 5585 40800006 3000 A 0 0 0 0 0 0 0 0 0 0 0 0 0 0 0 0 0 0 0 0 0 0 0 0 0 0 0 0 z_b_5
S 702 6 1 0 0 6 1 691 5591 40800006 3000 A 0 0 0 0 0 0 0 0 0 0 0 0 0 0 0 0 0 0 0 0 0 0 0 0 0 0 0 0 z_b_6
S 703 6 1 0 0 6 1 691 5597 40800006 3000 A 0 0 0 0 0 0 0 0 0 0 0 0 0 0 0 0 0 0 0 0 0 0 0 0 0 0 0 0 z_e_81
S 704 6 1 0 0 6 1 691 5604 40800006 3000 A 0 0 0 0 0 0 0 0 0 0 0 0 0 0 0 0 0 0 0 0 0 0 0 0 0 0 0 0 z_e_84
S 705 6 1 0 0 6 1 691 5611 40800006 3000 A 0 0 0 0 0 0 0 0 0 0 0 0 0 0 0 0 0 0 0 0 0 0 0 0 0 0 0 0 z_b_7
S 706 6 1 0 0 6 1 691 5617 40800006 3000 A 0 0 0 0 0 0 0 0 0 0 0 0 0 0 0 0 0 0 0 0 0 0 0 0 0 0 0 0 z_b_9
S 707 6 1 0 0 6 1 691 5623 40800006 3000 A 0 0 0 0 0 0 0 0 0 0 0 0 0 0 0 0 0 0 0 0 0 0 0 0 0 0 0 0 z_b_10
S 708 6 1 0 0 6 1 691 5630 40800006 3000 A 0 0 0 0 0 0 0 0 0 0 0 0 0 0 0 0 0 0 0 0 0 0 0 0 0 0 0 0 z_e_91
S 709 6 1 0 0 6 1 691 5637 40800006 3000 A 0 0 0 0 0 0 0 0 0 0 0 0 0 0 0 0 0 0 0 0 0 0 0 0 0 0 0 0 z_b_11
S 710 6 1 0 0 6 1 691 5644 40800006 3000 A 0 0 0 0 0 0 0 0 0 0 0 0 0 0 0 0 0 0 0 0 0 0 0 0 0 0 0 0 z_b_13
S 711 6 1 0 0 6 1 691 5651 40800006 3000 A 0 0 0 0 0 0 0 0 0 0 0 0 0 0 0 0 0 0 0 0 0 0 0 0 0 0 0 0 z_b_14
S 712 6 1 0 0 6 1 691 5658 40800006 3000 A 0 0 0 0 0 0 0 0 0 0 0 0 0 0 0 0 0 0 0 0 0 0 0 0 0 0 0 0 z_b_16
S 713 6 1 0 0 6 1 691 5665 40800006 3000 A 0 0 0 0 0 0 0 0 0 0 0 0 0 0 0 0 0 0 0 0 0 0 0 0 0 0 0 0 z_b_17
S 714 6 1 0 0 6 1 691 5672 40800006 3000 A 0 0 0 0 0 0 0 0 0 0 0 0 0 0 0 0 0 0 0 0 0 0 0 0 0 0 0 0 z_e_101
S 715 6 1 0 0 6 1 691 5680 40800006 3000 A 0 0 0 0 0 0 0 0 0 0 0 0 0 0 0 0 0 0 0 0 0 0 0 0 0 0 0 0 z_e_104
S 716 6 1 0 0 6 1 691 5688 40800006 3000 A 0 0 0 0 0 0 0 0 0 0 0 0 0 0 0 0 0 0 0 0 0 0 0 0 0 0 0 0 z_b_18
S 717 6 1 0 0 6 1 691 5695 40800006 3000 A 0 0 0 0 0 0 0 0 0 0 0 0 0 0 0 0 0 0 0 0 0 0 0 0 0 0 0 0 z_b_20
S 718 6 1 0 0 6 1 691 5702 40800006 3000 A 0 0 0 0 0 0 0 0 0 0 0 0 0 0 0 0 0 0 0 0 0 0 0 0 0 0 0 0 z_b_21
S 719 6 1 0 0 6 1 691 5709 40800006 3000 A 0 0 0 0 0 0 0 0 0 0 0 0 0 0 0 0 0 0 0 0 0 0 0 0 0 0 0 0 z_b_23
S 720 6 1 0 0 6 1 691 5716 40800006 3000 A 0 0 0 0 0 0 0 0 0 0 0 0 0 0 0 0 0 0 0 0 0 0 0 0 0 0 0 0 z_b_24
S 721 6 1 0 0 6 1 691 5723 40800006 3000 A 0 0 0 0 0 0 0 0 0 0 0 0 0 0 0 0 0 0 0 0 0 0 0 0 0 0 0 0 z_e_114
S 722 6 1 0 0 6 1 691 5731 40800006 3000 A 0 0 0 0 0 0 0 0 0 0 0 0 0 0 0 0 0 0 0 0 0 0 0 0 0 0 0 0 z_e_117
S 723 23 5 0 0 0 727 582 5418 0 0 A 0 0 0 0 0 0 0 0 0 0 0 0 0 0 0 0 0 0 0 0 0 0 0 0 0 0 0 0 r_to_s1b
S 724 7 3 1 0 220 1 723 5556 20000004 10003000 A 0 0 0 0 0 0 0 0 0 0 0 0 0 0 0 0 0 0 0 0 0 0 0 0 0 0 0 0 r
S 725 7 3 2 0 217 1 723 5558 20000004 10003000 A 0 0 0 0 0 0 0 0 0 0 0 0 0 0 0 0 0 0 0 0 0 0 0 0 0 0 0 0 s
S 726 7 3 1 0 223 1 723 4760 20000004 10003000 A 0 0 0 0 0 0 0 0 0 0 0 0 0 0 0 0 0 0 0 0 0 0 0 0 0 0 0 0 hinv
S 727 14 5 0 0 0 1 723 5418 20000000 400000 A 0 0 0 0 0 0 0 26 3 0 0 0 0 0 0 0 0 0 0 0 0 221 0 582 0 0 0 0 r_to_s1b
F 727 3 724 725 726
S 728 6 1 0 0 6 1 723 5567 40800006 3000 A 0 0 0 0 0 0 0 0 0 0 0 0 0 0 0 0 0 0 0 0 0 0 0 0 0 0 0 0 z_b_0
S 729 6 1 0 0 6 1 723 5573 40800006 3000 A 0 0 0 0 0 0 0 0 0 0 0 0 0 0 0 0 0 0 0 0 0 0 0 0 0 0 0 0 z_b_2
S 730 6 1 0 0 6 1 723 5579 40800006 3000 A 0 0 0 0 0 0 0 0 0 0 0 0 0 0 0 0 0 0 0 0 0 0 0 0 0 0 0 0 z_b_3
S 731 6 1 0 0 6 1 723 5739 40800006 3000 A 0 0 0 0 0 0 0 0 0 0 0 0 0 0 0 0 0 0 0 0 0 0 0 0 0 0 0 0 z_e_103
S 732 6 1 0 0 6 1 723 5747 40800006 3000 A 0 0 0 0 0 0 0 0 0 0 0 0 0 0 0 0 0 0 0 0 0 0 0 0 0 0 0 0 z_b_4
S 733 6 1 0 0 6 1 723 5591 40800006 3000 A 0 0 0 0 0 0 0 0 0 0 0 0 0 0 0 0 0 0 0 0 0 0 0 0 0 0 0 0 z_b_6
S 734 6 1 0 0 6 1 723 5611 40800006 3000 A 0 0 0 0 0 0 0 0 0 0 0 0 0 0 0 0 0 0 0 0 0 0 0 0 0 0 0 0 z_b_7
S 735 6 1 0 0 6 1 723 5753 40800006 3000 A 0 0 0 0 0 0 0 0 0 0 0 0 0 0 0 0 0 0 0 0 0 0 0 0 0 0 0 0 z_e_110
S 736 6 1 0 0 6 1 723 5761 40800006 3000 A 0 0 0 0 0 0 0 0 0 0 0 0 0 0 0 0 0 0 0 0 0 0 0 0 0 0 0 0 z_b_8
S 737 6 1 0 0 6 1 723 5623 40800006 3000 A 0 0 0 0 0 0 0 0 0 0 0 0 0 0 0 0 0 0 0 0 0 0 0 0 0 0 0 0 z_b_10
S 738 6 1 0 0 6 1 723 5637 40800006 3000 A 0 0 0 0 0 0 0 0 0 0 0 0 0 0 0 0 0 0 0 0 0 0 0 0 0 0 0 0 z_b_11
S 739 6 1 0 0 6 1 723 5644 40800006 3000 A 0 0 0 0 0 0 0 0 0 0 0 0 0 0 0 0 0 0 0 0 0 0 0 0 0 0 0 0 z_b_13
S 740 6 1 0 0 6 1 723 5651 40800006 3000 A 0 0 0 0 0 0 0 0 0 0 0 0 0 0 0 0 0 0 0 0 0 0 0 0 0 0 0 0 z_b_14
S 741 6 1 0 0 6 1 723 5767 40800006 3000 A 0 0 0 0 0 0 0 0 0 0 0 0 0 0 0 0 0 0 0 0 0 0 0 0 0 0 0 0 z_e_120
S 742 6 1 0 0 6 1 723 5775 40800006 3000 A 0 0 0 0 0 0 0 0 0 0 0 0 0 0 0 0 0 0 0 0 0 0 0 0 0 0 0 0 z_e_123
S 743 23 5 0 0 0 747 582 5378 0 0 A 0 0 0 0 0 0 0 0 0 0 0 0 0 0 0 0 0 0 0 0 0 0 0 0 0 0 0 0 s_to_r1
S 744 7 3 1 0 226 1 743 5558 800004 3000 A 0 0 0 0 0 0 0 0 0 0 0 0 0 0 0 0 0 0 0 0 0 0 0 0 0 0 0 0 s
S 745 7 3 2 0 229 1 743 5556 800004 3000 A 0 0 0 0 0 0 0 0 0 0 0 0 0 0 0 0 0 0 0 0 0 0 0 0 0 0 0 0 r
S 746 1 3 1 0 56 1 743 5549 4 3000 A 0 0 0 0 0 0 0 0 0 0 0 0 0 0 0 0 0 0 0 0 0 0 0 0 0 0 0 0 box
S 747 14 5 0 0 0 1 743 5378 0 400000 A 0 0 0 0 0 0 0 30 3 0 0 0 0 0 0 0 0 0 0 0 0 238 0 582 0 0 0 0 s_to_r1
F 747 3 744 745 746
S 748 23 5 0 0 0 752 582 5386 0 0 A 0 0 0 0 0 0 0 0 0 0 0 0 0 0 0 0 0 0 0 0 0 0 0 0 0 0 0 0 s_to_r1b
S 749 7 3 1 0 232 1 748 5558 800004 3000 A 0 0 0 0 0 0 0 0 0 0 0 0 0 0 0 0 0 0 0 0 0 0 0 0 0 0 0 0 s
S 750 7 3 2 0 235 1 748 5556 800004 3000 A 0 0 0 0 0 0 0 0 0 0 0 0 0 0 0 0 0 0 0 0 0 0 0 0 0 0 0 0 r
S 751 7 3 1 0 238 1 748 5166 20000004 10003000 A 0 0 0 0 0 0 0 0 0 0 0 0 0 0 0 0 0 0 0 0 0 0 0 0 0 0 0 0 h
S 752 14 5 0 0 0 1 748 5386 20000000 400000 A 0 0 0 0 0 0 0 34 3 0 0 0 0 0 0 0 0 0 0 0 0 254 0 582 0 0 0 0 s_to_r1b
F 752 3 749 750 751
S 753 6 1 0 0 6 1 748 5567 40800006 3000 A 0 0 0 0 0 0 0 0 0 0 0 0 0 0 0 0 0 0 0 0 0 0 0 0 0 0 0 0 z_b_0
S 754 6 1 0 0 6 1 748 5573 40800006 3000 A 0 0 0 0 0 0 0 0 0 0 0 0 0 0 0 0 0 0 0 0 0 0 0 0 0 0 0 0 z_b_2
S 755 6 1 0 0 6 1 748 5579 40800006 3000 A 0 0 0 0 0 0 0 0 0 0 0 0 0 0 0 0 0 0 0 0 0 0 0 0 0 0 0 0 z_b_3
S 756 6 1 0 0 6 1 748 5585 40800006 3000 A 0 0 0 0 0 0 0 0 0 0 0 0 0 0 0 0 0 0 0 0 0 0 0 0 0 0 0 0 z_b_5
S 757 6 1 0 0 6 1 748 5591 40800006 3000 A 0 0 0 0 0 0 0 0 0 0 0 0 0 0 0 0 0 0 0 0 0 0 0 0 0 0 0 0 z_b_6
S 758 6 1 0 0 6 1 748 5783 40800006 3000 A 0 0 0 0 0 0 0 0 0 0 0 0 0 0 0 0 0 0 0 0 0 0 0 0 0 0 0 0 z_e_121
S 759 6 1 0 0 6 1 748 5791 40800006 3000 A 0 0 0 0 0 0 0 0 0 0 0 0 0 0 0 0 0 0 0 0 0 0 0 0 0 0 0 0 z_e_124
S 760 23 5 0 0 0 766 582 5395 0 0 A 0 0 0 0 0 0 0 0 0 0 0 0 0 0 0 0 0 0 0 0 0 0 0 0 0 0 0 0 s_to_r3
S 761 7 3 1 0 241 1 760 5558 20000004 10003000 A 0 0 0 0 0 0 0 0 0 0 0 0 0 0 0 0 0 0 0 0 0 0 0 0 0 0 0 0 s
S 762 7 3 2 0 247 1 760 5556 20000004 10003000 A 0 0 0 0 0 0 0 0 0 0 0 0 0 0 0 0 0 0 0 0 0 0 0 0 0 0 0 0 r
S 763 7 3 1 0 244 1 760 5560 20000004 10003000 A 0 0 0 0 0 0 0 0 0 0 0 0 0 0 0 0 0 0 0 0 0 0 0 0 0 0 0 0 na
S 764 1 3 1 0 6 1 760 5563 4 3000 A 0 0 0 0 0 0 0 0 0 0 0 0 0 0 0 0 0 0 0 0 0 0 0 0 0 0 0 0 nsp
S 765 7 3 1 0 250 1 760 5166 20000004 10003000 A 0 0 0 0 0 0 0 0 0 0 0 0 0 0 0 0 0 0 0 0 0 0 0 0 0 0 0 0 h
S 766 14 5 0 0 0 1 760 5395 20000000 400000 A 0 0 0 0 0 0 0 38 5 0 0 0 0 0 0 0 0 0 0 0 0 270 0 582 0 0 0 0 s_to_r3
F 766 5 761 762 763 764 765
S 767 6 1 0 0 6 1 760 5567 40800006 3000 A 0 0 0 0 0 0 0 0 0 0 0 0 0 0 0 0 0 0 0 0 0 0 0 0 0 0 0 0 z_b_0
S 768 6 1 0 0 6 1 760 5573 40800006 3000 A 0 0 0 0 0 0 0 0 0 0 0 0 0 0 0 0 0 0 0 0 0 0 0 0 0 0 0 0 z_b_2
S 769 6 1 0 0 6 1 760 5579 40800006 3000 A 0 0 0 0 0 0 0 0 0 0 0 0 0 0 0 0 0 0 0 0 0 0 0 0 0 0 0 0 z_b_3
S 770 6 1 0 0 6 1 760 5585 40800006 3000 A 0 0 0 0 0 0 0 0 0 0 0 0 0 0 0 0 0 0 0 0 0 0 0 0 0 0 0 0 z_b_5
S 771 6 1 0 0 6 1 760 5591 40800006 3000 A 0 0 0 0 0 0 0 0 0 0 0 0 0 0 0 0 0 0 0 0 0 0 0 0 0 0 0 0 z_b_6
S 772 6 1 0 0 6 1 760 5799 40800006 3000 A 0 0 0 0 0 0 0 0 0 0 0 0 0 0 0 0 0 0 0 0 0 0 0 0 0 0 0 0 z_e_128
S 773 6 1 0 0 6 1 760 5807 40800006 3000 A 0 0 0 0 0 0 0 0 0 0 0 0 0 0 0 0 0 0 0 0 0 0 0 0 0 0 0 0 z_e_131
S 774 6 1 0 0 6 1 760 5611 40800006 3000 A 0 0 0 0 0 0 0 0 0 0 0 0 0 0 0 0 0 0 0 0 0 0 0 0 0 0 0 0 z_b_7
S 775 6 1 0 0 6 1 760 5617 40800006 3000 A 0 0 0 0 0 0 0 0 0 0 0 0 0 0 0 0 0 0 0 0 0 0 0 0 0 0 0 0 z_b_9
S 776 6 1 0 0 6 1 760 5623 40800006 3000 A 0 0 0 0 0 0 0 0 0 0 0 0 0 0 0 0 0 0 0 0 0 0 0 0 0 0 0 0 z_b_10
S 777 6 1 0 0 6 1 760 5815 40800006 3000 A 0 0 0 0 0 0 0 0 0 0 0 0 0 0 0 0 0 0 0 0 0 0 0 0 0 0 0 0 z_e_138
S 778 6 1 0 0 6 1 760 5637 40800006 3000 A 0 0 0 0 0 0 0 0 0 0 0 0 0 0 0 0 0 0 0 0 0 0 0 0 0 0 0 0 z_b_11
S 779 6 1 0 0 6 1 760 5644 40800006 3000 A 0 0 0 0 0 0 0 0 0 0 0 0 0 0 0 0 0 0 0 0 0 0 0 0 0 0 0 0 z_b_13
S 780 6 1 0 0 6 1 760 5651 40800006 3000 A 0 0 0 0 0 0 0 0 0 0 0 0 0 0 0 0 0 0 0 0 0 0 0 0 0 0 0 0 z_b_14
S 781 6 1 0 0 6 1 760 5658 40800006 3000 A 0 0 0 0 0 0 0 0 0 0 0 0 0 0 0 0 0 0 0 0 0 0 0 0 0 0 0 0 z_b_16
S 782 6 1 0 0 6 1 760 5665 40800006 3000 A 0 0 0 0 0 0 0 0 0 0 0 0 0 0 0 0 0 0 0 0 0 0 0 0 0 0 0 0 z_b_17
S 783 6 1 0 0 6 1 760 5823 40800006 3000 A 0 0 0 0 0 0 0 0 0 0 0 0 0 0 0 0 0 0 0 0 0 0 0 0 0 0 0 0 z_e_148
S 784 6 1 0 0 6 1 760 5831 40800006 3000 A 0 0 0 0 0 0 0 0 0 0 0 0 0 0 0 0 0 0 0 0 0 0 0 0 0 0 0 0 z_e_151
S 785 6 1 0 0 6 1 760 5688 40800006 3000 A 0 0 0 0 0 0 0 0 0 0 0 0 0 0 0 0 0 0 0 0 0 0 0 0 0 0 0 0 z_b_18
S 786 6 1 0 0 6 1 760 5695 40800006 3000 A 0 0 0 0 0 0 0 0 0 0 0 0 0 0 0 0 0 0 0 0 0 0 0 0 0 0 0 0 z_b_20
S 787 6 1 0 0 6 1 760 5702 40800006 3000 A 0 0 0 0 0 0 0 0 0 0 0 0 0 0 0 0 0 0 0 0 0 0 0 0 0 0 0 0 z_b_21
S 788 6 1 0 0 6 1 760 5709 40800006 3000 A 0 0 0 0 0 0 0 0 0 0 0 0 0 0 0 0 0 0 0 0 0 0 0 0 0 0 0 0 z_b_23
S 789 6 1 0 0 6 1 760 5716 40800006 3000 A 0 0 0 0 0 0 0 0 0 0 0 0 0 0 0 0 0 0 0 0 0 0 0 0 0 0 0 0 z_b_24
S 790 6 1 0 0 6 1 760 5839 40800006 3000 A 0 0 0 0 0 0 0 0 0 0 0 0 0 0 0 0 0 0 0 0 0 0 0 0 0 0 0 0 z_e_161
S 791 6 1 0 0 6 1 760 5847 40800006 3000 A 0 0 0 0 0 0 0 0 0 0 0 0 0 0 0 0 0 0 0 0 0 0 0 0 0 0 0 0 z_e_164
S 792 23 5 0 0 0 794 582 5855 0 0 A 0 0 0 0 0 0 0 0 0 0 0 0 0 0 0 0 0 0 0 0 0 0 0 0 0 0 0 0 gethinv
S 793 1 3 3 0 56 1 792 5549 4 3000 A 0 0 0 0 0 0 0 0 0 0 0 0 0 0 0 0 0 0 0 0 0 0 0 0 0 0 0 0 box
S 794 14 5 0 0 0 1 792 5855 0 400000 A 0 0 0 0 0 0 0 44 1 0 0 0 0 0 0 0 0 0 0 0 0 296 0 582 0 0 0 0 gethinv
F 794 1 793
S 795 23 5 0 0 9 797 582 5863 0 0 A 0 0 0 0 0 0 0 0 0 0 0 0 0 0 0 0 0 0 0 0 0 0 0 0 0 0 0 0 get_volume
S 796 7 3 0 0 253 1 795 4750 800004 3000 A 0 0 0 0 0 0 0 0 0 0 0 0 0 0 0 0 0 0 0 0 0 0 0 0 0 0 0 0 hmat
S 797 14 5 0 0 9 1 795 5863 4 400000 A 0 0 0 0 0 0 0 46 1 0 0 798 0 0 0 0 0 0 0 0 0 308 0 582 0 0 0 0 get_volume
F 797 1 796
S 798 1 3 0 0 9 1 795 5863 4 1003000 A 0 0 0 0 0 0 0 0 0 0 0 0 0 0 0 0 0 0 0 0 0 0 0 0 0 0 0 0 get_volume
S 799 23 5 0 0 9 804 582 5874 0 0 A 0 0 0 0 0 0 0 0 0 0 0 0 0 0 0 0 0 0 0 0 0 0 0 0 0 0 0 0 pbc
S 800 7 3 0 0 256 1 799 5878 800004 3000 A 0 0 0 0 0 0 0 0 0 0 0 0 0 0 0 0 0 0 0 0 0 0 0 0 0 0 0 0 rin
S 801 1 3 0 0 56 1 799 5549 4 3000 A 0 0 0 0 0 0 0 0 0 0 0 0 0 0 0 0 0 0 0 0 0 0 0 0 0 0 0 0 box
S 802 7 3 0 0 262 1 799 5882 80800004 3000 A 0 0 0 0 0 0 0 0 0 0 0 0 0 0 0 0 0 0 0 0 0 0 0 0 0 0 0 0 nl
S 803 7 3 0 0 259 1 799 5885 800004 1003000 A 0 0 0 0 0 0 0 0 0 0 0 0 0 0 0 0 0 0 0 0 0 0 0 0 0 0 0 0 rout
S 804 14 5 0 0 259 1 799 5874 4 1400000 A 0 0 0 0 0 0 0 48 3 0 0 803 0 0 0 0 0 0 0 0 0 320 0 582 0 0 0 0 pbc
F 804 3 800 801 802
S 805 23 5 0 0 0 809 582 5890 0 0 A 0 0 0 0 0 0 0 0 0 0 0 0 0 0 0 0 0 0 0 0 0 0 0 0 0 0 0 0 get_cell_param
S 806 1 3 1 0 56 1 805 5549 4 3000 A 0 0 0 0 0 0 0 0 0 0 0 0 0 0 0 0 0 0 0 0 0 0 0 0 0 0 0 0 box
S 807 7 3 2 0 265 1 805 5905 800004 3000 A 0 0 0 0 0 0 0 0 0 0 0 0 0 0 0 0 0 0 0 0 0 0 0 0 0 0 0 0 cell
S 808 7 3 2 0 268 1 805 5910 80800004 3000 A 0 0 0 0 0 0 0 0 0 0 0 0 0 0 0 0 0 0 0 0 0 0 0 0 0 0 0 0 ang
S 809 14 5 0 0 0 1 805 5890 0 400000 A 0 0 0 0 0 0 0 52 3 0 0 0 0 0 0 0 0 0 0 0 0 338 0 582 0 0 0 0 get_cell_param
F 809 3 806 807 808
S 810 23 5 0 0 0 818 582 5342 0 0 A 0 0 0 0 0 0 0 0 0 0 0 0 0 0 0 0 0 0 0 0 0 0 0 0 0 0 0 0 pbcs_components
S 811 1 3 1 0 9 1 810 5914 4 3000 A 0 0 0 0 0 0 0 0 0 0 0 0 0 0 0 0 0 0 0 0 0 0 0 0 0 0 0 0 x1
S 812 1 3 1 0 9 1 810 5917 4 3000 A 0 0 0 0 0 0 0 0 0 0 0 0 0 0 0 0 0 0 0 0 0 0 0 0 0 0 0 0 y1
S 813 1 3 1 0 9 1 810 5920 4 3000 A 0 0 0 0 0 0 0 0 0 0 0 0 0 0 0 0 0 0 0 0 0 0 0 0 0 0 0 0 z1
S 814 1 3 2 0 9 1 810 5923 4 3000 A 0 0 0 0 0 0 0 0 0 0 0 0 0 0 0 0 0 0 0 0 0 0 0 0 0 0 0 0 x2
S 815 1 3 2 0 9 1 810 5926 4 3000 A 0 0 0 0 0 0 0 0 0 0 0 0 0 0 0 0 0 0 0 0 0 0 0 0 0 0 0 0 y2
S 816 1 3 2 0 9 1 810 5929 4 3000 A 0 0 0 0 0 0 0 0 0 0 0 0 0 0 0 0 0 0 0 0 0 0 0 0 0 0 0 0 z2
S 817 1 3 1 0 6 1 810 5932 4 3000 A 0 0 0 0 0 0 0 0 0 0 0 0 0 0 0 0 0 0 0 0 0 0 0 0 0 0 0 0 m
S 818 14 5 0 0 0 1 810 5342 0 400000 A 0 0 0 0 0 0 0 56 7 0 0 0 0 0 0 0 0 0 0 0 0 373 0 582 0 0 0 0 pbcs_components
F 818 7 811 812 813 814 815 816 817
S 819 23 5 0 0 0 823 582 5358 0 0 A 0 0 0 0 0 0 0 0 0 0 0 0 0 0 0 0 0 0 0 0 0 0 0 0 0 0 0 0 pbcs_vectors
S 820 7 3 1 0 271 1 819 5934 800004 3000 A 0 0 0 0 0 0 0 0 0 0 0 0 0 0 0 0 0 0 0 0 0 0 0 0 0 0 0 0 v
S 821 7 3 2 0 274 1 819 5936 800004 3000 A 0 0 0 0 0 0 0 0 0 0 0 0 0 0 0 0 0 0 0 0 0 0 0 0 0 0 0 0 w
S 822 1 3 1 0 6 1 819 5932 4 3000 A 0 0 0 0 0 0 0 0 0 0 0 0 0 0 0 0 0 0 0 0 0 0 0 0 0 0 0 0 m
S 823 14 5 0 0 0 1 819 5358 0 400000 A 0 0 0 0 0 0 0 64 3 0 0 0 0 0 0 0 0 0 0 0 0 390 0 582 0 0 0 0 pbcs_vectors
F 823 3 820 821 822
S 824 23 5 0 0 0 843 582 5938 0 0 A 0 0 0 0 0 0 0 0 0 0 0 0 0 0 0 0 0 0 0 0 0 0 0 0 0 0 0 0 cell_base_init
S 825 1 3 1 0 6 1 824 5953 4 3000 A 0 0 0 0 0 0 0 0 0 0 0 0 0 0 0 0 0 0 0 0 0 0 0 0 0 0 0 0 ibrav_
S 826 7 3 1 0 277 1 824 5960 800004 3000 A 0 0 0 0 0 0 0 0 0 0 0 0 0 0 0 0 0 0 0 0 0 0 0 0 0 0 0 0 celldm_
S 827 1 3 1 0 16 1 824 5968 4 3000 A 0 0 0 0 0 0 0 0 0 0 0 0 0 0 0 0 0 0 0 0 0 0 0 0 0 0 0 0 trd_ht
S 828 1 3 1 0 28 1 824 5975 4 43000 A 0 0 0 0 0 0 0 0 0 0 0 0 0 0 0 0 0 0 0 0 0 0 0 0 0 0 0 0 cell_symmetry
S 829 7 3 1 0 280 1 824 5989 800004 3000 A 0 0 0 0 0 0 0 0 0 0 0 0 0 0 0 0 0 0 0 0 0 0 0 0 0 0 0 0 rd_ht
S 830 1 3 1 0 28 1 824 5995 4 43000 A 0 0 0 0 0 0 0 0 0 0 0 0 0 0 0 0 0 0 0 0 0 0 0 0 0 0 0 0 cell_units
S 831 1 3 1 0 9 1 824 6006 4 3000 A 0 0 0 0 0 0 0 0 0 0 0 0 0 0 0 0 0 0 0 0 0 0 0 0 0 0 0 0 a_
S 832 1 3 1 0 9 1 824 6009 4 3000 A 0 0 0 0 0 0 0 0 0 0 0 0 0 0 0 0 0 0 0 0 0 0 0 0 0 0 0 0 b_
S 833 1 3 1 0 9 1 824 6012 4 3000 A 0 0 0 0 0 0 0 0 0 0 0 0 0 0 0 0 0 0 0 0 0 0 0 0 0 0 0 0 c_
S 834 1 3 1 0 9 1 824 6015 4 3000 A 0 0 0 0 0 0 0 0 0 0 0 0 0 0 0 0 0 0 0 0 0 0 0 0 0 0 0 0 cosab
S 835 1 3 1 0 9 1 824 6021 4 3000 A 0 0 0 0 0 0 0 0 0 0 0 0 0 0 0 0 0 0 0 0 0 0 0 0 0 0 0 0 cosac
S 836 1 3 1 0 9 1 824 6027 4 3000 A 0 0 0 0 0 0 0 0 0 0 0 0 0 0 0 0 0 0 0 0 0 0 0 0 0 0 0 0 cosbc
S 837 1 3 1 0 9 1 824 6033 4 3000 A 0 0 0 0 0 0 0 0 0 0 0 0 0 0 0 0 0 0 0 0 0 0 0 0 0 0 0 0 wc_
S 838 1 3 1 0 9 1 824 6037 4 3000 A 0 0 0 0 0 0 0 0 0 0 0 0 0 0 0 0 0 0 0 0 0 0 0 0 0 0 0 0 total_ions_mass
S 839 1 3 1 0 9 1 824 6053 4 3000 A 0 0 0 0 0 0 0 0 0 0 0 0 0 0 0 0 0 0 0 0 0 0 0 0 0 0 0 0 press_
S 840 1 3 1 0 9 1 824 6060 4 3000 A 0 0 0 0 0 0 0 0 0 0 0 0 0 0 0 0 0 0 0 0 0 0 0 0 0 0 0 0 frich_
S 841 1 3 1 0 9 1 824 6067 4 3000 A 0 0 0 0 0 0 0 0 0 0 0 0 0 0 0 0 0 0 0 0 0 0 0 0 0 0 0 0 greash_
S 842 1 3 1 0 28 1 824 6075 4 43000 A 0 0 0 0 0 0 0 0 0 0 0 0 0 0 0 0 0 0 0 0 0 0 0 0 0 0 0 0 cell_dofree
S 843 14 5 0 0 0 1 824 5938 0 400000 A 0 0 0 0 0 0 0 68 18 0 0 0 0 0 0 0 0 0 0 0 0 407 0 582 0 0 0 0 cell_base_init
F 843 18 825 826 827 828 829 830 831 832 833 834 835 836 837 838 839 840 841 842
S 844 23 5 0 0 0 846 582 6087 0 0 A 0 0 0 0 0 0 0 0 0 0 0 0 0 0 0 0 0 0 0 0 0 0 0 0 0 0 0 0 cell_base_reinit
S 845 7 3 1 0 283 1 844 5553 800004 3000 A 0 0 0 0 0 0 0 0 0 0 0 0 0 0 0 0 0 0 0 0 0 0 0 0 0 0 0 0 ht
S 846 14 5 0 0 0 1 844 6087 0 400000 A 0 0 0 0 0 0 0 87 1 0 0 0 0 0 0 0 0 0 0 0 0 653 0 582 0 0 0 0 cell_base_reinit
F 846 1 845
S 847 23 5 0 0 0 853 582 6104 0 0 A 0 0 0 0 0 0 0 0 0 0 0 0 0 0 0 0 0 0 0 0 0 0 0 0 0 0 0 0 cell_steepest
S 848 1 3 1 0 9 1 847 6118 4 3000 A 0 0 0 0 0 0 0 0 0 0 0 0 0 0 0 0 0 0 0 0 0 0 0 0 0 0 0 0 delt
S 849 7 3 1 0 292 1 847 6123 800004 3000 A 0 0 0 0 0 0 0 0 0 0 0 0 0 0 0 0 0 0 0 0 0 0 0 0 0 0 0 0 fcell
S 850 7 3 2 0 286 1 847 5187 800004 3000 A 0 0 0 0 0 0 0 0 0 0 0 0 0 0 0 0 0 0 0 0 0 0 0 0 0 0 0 0 hnew
S 851 7 3 1 0 289 1 847 5166 800004 3000 A 0 0 0 0 0 0 0 0 0 0 0 0 0 0 0 0 0 0 0 0 0 0 0 0 0 0 0 0 h
S 852 7 3 1 0 295 1 847 5218 800004 3000 A 0 0 0 0 0 0 0 0 0 0 0 0 0 0 0 0 0 0 0 0 0 0 0 0 0 0 0 0 iforceh
S 853 14 5 0 0 0 1 847 6104 0 400000 A 0 0 0 0 0 0 0 89 5 0 0 0 0 0 0 0 0 0 0 0 0 733 0 582 0 0 0 0 cell_steepest
F 853 5 850 851 848 852 849
S 854 23 5 0 0 0 864 582 6129 0 0 A 0 0 0 0 0 0 0 0 0 0 0 0 0 0 0 0 0 0 0 0 0 0 0 0 0 0 0 0 cell_verlet
S 855 1 3 1 0 9 1 854 6118 4 3000 A 0 0 0 0 0 0 0 0 0 0 0 0 0 0 0 0 0 0 0 0 0 0 0 0 0 0 0 0 delt
S 856 7 3 1 0 310 1 854 6123 800004 3000 A 0 0 0 0 0 0 0 0 0 0 0 0 0 0 0 0 0 0 0 0 0 0 0 0 0 0 0 0 fcell
S 857 1 3 1 0 16 1 854 6141 4 3000 A 0 0 0 0 0 0 0 0 0 0 0 0 0 0 0 0 0 0 0 0 0 0 0 0 0 0 0 0 tnoseh
S 858 7 3 1 0 307 1 854 6148 800004 3000 A 0 0 0 0 0 0 0 0 0 0 0 0 0 0 0 0 0 0 0 0 0 0 0 0 0 0 0 0 hnos
S 859 7 3 2 0 298 1 854 5187 800004 3000 A 0 0 0 0 0 0 0 0 0 0 0 0 0 0 0 0 0 0 0 0 0 0 0 0 0 0 0 0 hnew
S 860 7 3 1 0 301 1 854 5166 800004 3000 A 0 0 0 0 0 0 0 0 0 0 0 0 0 0 0 0 0 0 0 0 0 0 0 0 0 0 0 0 h
S 861 7 3 1 0 304 1 854 5175 800004 3000 A 0 0 0 0 0 0 0 0 0 0 0 0 0 0 0 0 0 0 0 0 0 0 0 0 0 0 0 0 hold
S 862 7 3 1 0 313 1 854 5218 800004 3000 A 0 0 0 0 0 0 0 0 0 0 0 0 0 0 0 0 0 0 0 0 0 0 0 0 0 0 0 0 iforceh
S 863 1 3 1 0 9 1 854 5259 4 3000 A 0 0 0 0 0 0 0 0 0 0 0 0 0 0 0 0 0 0 0 0 0 0 0 0 0 0 0 0 frich
S 864 14 5 0 0 0 1 854 6129 0 400000 A 0 0 0 0 0 0 0 95 9 0 0 0 0 0 0 0 0 0 0 0 0 752 0 582 0 0 0 0 cell_verlet
F 864 9 859 860 861 855 862 856 863 857 858
S 865 23 5 0 0 0 871 582 6153 0 0 A 0 0 0 0 0 0 0 0 0 0 0 0 0 0 0 0 0 0 0 0 0 0 0 0 0 0 0 0 cell_hmove
S 866 1 3 1 0 9 1 865 6118 4 3000 A 0 0 0 0 0 0 0 0 0 0 0 0 0 0 0 0 0 0 0 0 0 0 0 0 0 0 0 0 delt
S 867 7 3 1 0 322 1 865 6123 800004 3000 A 0 0 0 0 0 0 0 0 0 0 0 0 0 0 0 0 0 0 0 0 0 0 0 0 0 0 0 0 fcell
S 868 7 3 2 0 316 1 865 5166 800004 3000 A 0 0 0 0 0 0 0 0 0 0 0 0 0 0 0 0 0 0 0 0 0 0 0 0 0 0 0 0 h
S 869 7 3 1 0 319 1 865 5175 800004 3000 A 0 0 0 0 0 0 0 0 0 0 0 0 0 0 0 0 0 0 0 0 0 0 0 0 0 0 0 0 hold
S 870 7 3 1 0 325 1 865 5218 800004 3000 A 0 0 0 0 0 0 0 0 0 0 0 0 0 0 0 0 0 0 0 0 0 0 0 0 0 0 0 0 iforceh
S 871 14 5 0 0 0 1 865 6153 0 400000 A 0 0 0 0 0 0 0 105 5 0 0 0 0 0 0 0 0 0 0 0 0 789 0 582 0 0 0 0 cell_hmove
F 871 5 868 869 866 870 867
S 872 23 5 0 0 0 879 582 6164 0 0 A 0 0 0 0 0 0 0 0 0 0 0 0 0 0 0 0 0 0 0 0 0 0 0 0 0 0 0 0 cell_force
S 873 7 3 2 0 328 1 872 6123 800004 3000 A 0 0 0 0 0 0 0 0 0 0 0 0 0 0 0 0 0 0 0 0 0 0 0 0 0 0 0 0 fcell
S 874 7 3 1 0 331 1 872 6175 800004 3000 A 0 0 0 0 0 0 0 0 0 0 0 0 0 0 0 0 0 0 0 0 0 0 0 0 0 0 0 0 stress
S 875 1 3 1 0 9 1 872 6182 80000004 3000 A 0 0 0 0 0 0 0 0 0 0 0 0 0 0 0 0 0 0 0 0 0 0 0 0 0 0 0 0 wmassin
S 876 7 3 1 0 334 1 872 4980 800004 3000 A 0 0 0 0 0 0 0 0 0 0 0 0 0 0 0 0 0 0 0 0 0 0 0 0 0 0 0 0 ainv
S 877 1 3 1 0 9 1 872 4727 4 3000 A 0 0 0 0 0 0 0 0 0 0 0 0 0 0 0 0 0 0 0 0 0 0 0 0 0 0 0 0 omega
S 878 1 3 1 0 9 1 872 5246 4 3000 A 0 0 0 0 0 0 0 0 0 0 0 0 0 0 0 0 0 0 0 0 0 0 0 0 0 0 0 0 press
S 879 14 5 0 0 0 1 872 6164 0 400000 A 0 0 0 0 0 0 0 111 6 0 0 0 0 0 0 0 0 0 0 0 0 808 0 582 0 0 0 0 cell_force
F 879 6 873 876 874 877 878 875
S 880 23 5 0 0 0 892 582 6190 0 0 A 0 0 0 0 0 0 0 0 0 0 0 0 0 0 0 0 0 0 0 0 0 0 0 0 0 0 0 0 cell_move
S 881 1 3 1 0 9 1 880 6118 4 3000 A 0 0 0 0 0 0 0 0 0 0 0 0 0 0 0 0 0 0 0 0 0 0 0 0 0 0 0 0 delt
S 882 7 3 1 0 346 1 880 6123 800004 3000 A 0 0 0 0 0 0 0 0 0 0 0 0 0 0 0 0 0 0 0 0 0 0 0 0 0 0 0 0 fcell
S 883 1 3 1 0 16 1 880 6141 4 3000 A 0 0 0 0 0 0 0 0 0 0 0 0 0 0 0 0 0 0 0 0 0 0 0 0 0 0 0 0 tnoseh
S 884 7 3 1 0 349 1 880 6200 800004 3000 A 0 0 0 0 0 0 0 0 0 0 0 0 0 0 0 0 0 0 0 0 0 0 0 0 0 0 0 0 vnhh
S 885 1 3 1 0 16 1 880 6205 4 3000 A 0 0 0 0 0 0 0 0 0 0 0 0 0 0 0 0 0 0 0 0 0 0 0 0 0 0 0 0 tsdc
S 886 7 3 2 0 337 1 880 5187 800004 3000 A 0 0 0 0 0 0 0 0 0 0 0 0 0 0 0 0 0 0 0 0 0 0 0 0 0 0 0 0 hnew
S 887 7 3 1 0 340 1 880 5166 800004 3000 A 0 0 0 0 0 0 0 0 0 0 0 0 0 0 0 0 0 0 0 0 0 0 0 0 0 0 0 0 h
S 888 7 3 1 0 343 1 880 5175 800004 3000 A 0 0 0 0 0 0 0 0 0 0 0 0 0 0 0 0 0 0 0 0 0 0 0 0 0 0 0 0 hold
S 889 7 3 1 0 355 1 880 5218 800004 3000 A 0 0 0 0 0 0 0 0 0 0 0 0 0 0 0 0 0 0 0 0 0 0 0 0 0 0 0 0 iforceh
S 890 1 3 1 0 9 1 880 5259 4 3000 A 0 0 0 0 0 0 0 0 0 0 0 0 0 0 0 0 0 0 0 0 0 0 0 0 0 0 0 0 frich
S 891 7 3 1 0 352 1 880 5199 800004 3000 A 0 0 0 0 0 0 0 0 0 0 0 0 0 0 0 0 0 0 0 0 0 0 0 0 0 0 0 0 velh
S 892 14 5 0 0 0 1 880 6190 0 400000 A 0 0 0 0 0 0 0 118 11 0 0 0 0 0 0 0 0 0 0 0 0 839 0 582 0 0 0 0 cell_move
F 892 11 886 887 888 881 889 882 890 883 884 891 885
S 893 23 5 0 0 0 898 582 6210 0 0 A 0 0 0 0 0 0 0 0 0 0 0 0 0 0 0 0 0 0 0 0 0 0 0 0 0 0 0 0 cell_gamma
S 894 7 3 2 0 358 1 893 6221 800004 3000 A 0 0 0 0 0 0 0 0 0 0 0 0 0 0 0 0 0 0 0 0 0 0 0 0 0 0 0 0 hgamma
S 895 7 3 1 0 361 1 893 4980 800004 3000 A 0 0 0 0 0 0 0 0 0 0 0 0 0 0 0 0 0 0 0 0 0 0 0 0 0 0 0 0 ainv
S 896 7 3 1 0 364 1 893 5166 800004 3000 A 0 0 0 0 0 0 0 0 0 0 0 0 0 0 0 0 0 0 0 0 0 0 0 0 0 0 0 0 h
S 897 7 3 1 0 367 1 893 5199 800004 3000 A 0 0 0 0 0 0 0 0 0 0 0 0 0 0 0 0 0 0 0 0 0 0 0 0 0 0 0 0 velh
S 898 14 5 0 0 0 1 893 6210 0 400000 A 0 0 0 0 0 0 0 130 4 0 0 0 0 0 0 0 0 0 0 0 0 866 0 582 0 0 0 0 cell_gamma
F 898 4 894 895 896 897
S 899 23 5 0 0 0 903 582 6228 0 0 A 0 0 0 0 0 0 0 0 0 0 0 0 0 0 0 0 0 0 0 0 0 0 0 0 0 0 0 0 cell_kinene
S 900 1 3 2 0 9 1 899 6240 4 3000 A 0 0 0 0 0 0 0 0 0 0 0 0 0 0 0 0 0 0 0 0 0 0 0 0 0 0 0 0 ekinh
S 901 7 3 2 0 370 1 899 6246 800004 3000 A 0 0 0 0 0 0 0 0 0 0 0 0 0 0 0 0 0 0 0 0 0 0 0 0 0 0 0 0 temphh
S 902 7 3 1 0 373 1 899 5199 800004 3000 A 0 0 0 0 0 0 0 0 0 0 0 0 0 0 0 0 0 0 0 0 0 0 0 0 0 0 0 0 velh
S 903 14 5 0 0 0 1 899 6228 0 400000 A 0 0 0 0 0 0 0 135 3 0 0 0 0 0 0 0 0 0 0 0 0 891 0 582 0 0 0 0 cell_kinene
F 903 3 900 901 902
S 904 23 5 0 0 9 905 582 6253 0 0 A 0 0 0 0 0 0 0 0 0 0 0 0 0 0 0 0 0 0 0 0 0 0 0 0 0 0 0 0 cell_alat
S 905 14 5 0 0 9 1 904 6253 4 400000 A 0 0 0 0 0 0 0 139 0 0 0 906 0 0 0 0 0 0 0 0 0 909 0 582 0 0 0 0 cell_alat
F 905 0
S 906 1 3 0 0 9 1 904 6253 4 1003000 A 0 0 0 0 0 0 0 0 0 0 0 0 0 0 0 0 0 0 0 0 0 0 0 0 0 0 0 0 cell_alat
A 15 2 0 0 0 6 586 0 0 0 15 0 0 0 0 0 0 0 0 0
A 17 2 0 0 0 6 596 0 0 0 17 0 0 0 0 0 0 0 0 0
A 18 2 0 0 0 6 597 0 0 0 18 0 0 0 0 0 0 0 0 0
A 19 2 0 0 0 9 577 0 0 0 19 0 0 0 0 0 0 0 0 0
A 21 2 0 0 0 6 611 0 0 0 21 0 0 0 0 0 0 0 0 0
A 33 2 0 0 0 6 623 0 0 0 33 0 0 0 0 0 0 0 0 0
A 34 15 0 0 0 6 624 17 35 0 0 0 0 0 0 0 0 0 0 0
A 35 15 0 0 0 6 624 17 0 0 0 0 0 0 0 0 0 0 0 0
A 36 15 0 0 0 143 624 34 0 0 0 0 0 0 0 0 0 0 0 0
A 37 1 0 8 0 143 625 0 0 0 0 0 0 0 0 0 0 0 0 0
A 38 15 0 0 0 9 626 19 0 0 0 0 0 0 0 0 0 0 0 0
A 39 15 0 0 0 146 626 38 0 0 0 0 0 0 0 0 0 0 0 0
A 40 1 0 10 0 146 627 0 0 0 0 0 0 0 0 0 0 0 0 0
A 41 15 0 0 0 9 628 19 0 0 0 0 0 0 0 0 0 0 0 0
A 42 15 0 0 0 140 628 41 0 0 0 0 0 0 0 0 0 0 0 0
A 43 1 0 10 0 140 629 0 0 0 0 0 0 0 0 0 0 0 0 0
A 47 15 0 0 0 6 631 17 48 0 0 0 0 0 0 0 0 0 0 0
A 48 15 0 0 0 6 631 17 0 0 0 0 0 0 0 0 0 0 0 0
A 49 15 0 0 0 158 631 47 0 0 0 0 0 0 0 0 0 0 0 0
A 50 1 0 8 0 158 632 0 0 0 0 0 0 0 0 0 0 0 0 0
A 51 15 0 0 0 9 633 19 0 0 0 0 0 0 0 0 0 0 0 0
A 52 15 0 0 0 161 633 51 0 0 0 0 0 0 0 0 0 0 0 0
A 53 1 0 10 0 161 634 0 0 0 0 0 0 0 0 0 0 0 0 0
A 54 15 0 0 0 9 635 19 0 0 0 0 0 0 0 0 0 0 0 0
A 55 15 0 0 0 155 635 54 0 0 0 0 0 0 0 0 0 0 0 0
A 56 1 0 10 0 155 636 0 0 0 0 0 0 0 0 0 0 0 0 0
A 73 1 0 0 0 6 702 0 0 0 0 0 0 0 0 0 0 0 0 0
A 74 1 0 0 15 6 698 0 0 0 0 0 0 0 0 0 0 0 0 0
A 75 1 0 0 0 6 703 0 0 0 0 0 0 0 0 0 0 0 0 0
A 76 1 0 0 0 6 700 0 0 0 0 0 0 0 0 0 0 0 0 0
A 77 1 0 0 0 6 699 0 0 0 0 0 0 0 0 0 0 0 0 0
A 78 1 0 0 0 6 704 0 0 0 0 0 0 0 0 0 0 0 0 0
A 79 1 0 0 0 6 701 0 0 0 0 0 0 0 0 0 0 0 0 0
A 80 1 0 0 0 6 707 0 0 0 0 0 0 0 0 0 0 0 0 0
A 81 1 0 0 0 6 705 0 0 0 0 0 0 0 0 0 0 0 0 0
A 82 1 0 0 17 6 708 0 0 0 0 0 0 0 0 0 0 0 0 0
A 83 1 0 0 0 6 706 0 0 0 0 0 0 0 0 0 0 0 0 0
A 84 1 0 0 0 6 713 0 0 0 0 0 0 0 0 0 0 0 0 0
A 85 1 0 0 18 6 709 0 0 0 0 0 0 0 0 0 0 0 0 0
A 86 1 0 0 0 6 714 0 0 0 0 0 0 0 0 0 0 0 0 0
A 87 1 0 0 0 6 711 0 0 0 0 0 0 0 0 0 0 0 0 0
A 88 1 0 0 0 6 710 0 0 0 0 0 0 0 0 0 0 0 0 0
A 89 1 0 0 0 6 715 0 0 0 0 0 0 0 0 0 0 0 0 0
A 90 1 0 0 0 6 712 0 0 0 0 0 0 0 0 0 0 0 0 0
A 91 1 0 0 0 6 720 0 0 0 0 0 0 0 0 0 0 0 0 0
A 92 1 0 0 0 6 716 0 0 0 0 0 0 0 0 0 0 0 0 0
A 93 1 0 0 0 6 721 0 0 0 0 0 0 0 0 0 0 0 0 0
A 94 1 0 0 0 6 718 0 0 0 0 0 0 0 0 0 0 0 0 0
A 95 1 0 0 0 6 717 0 0 0 0 0 0 0 0 0 0 0 0 0
A 96 1 0 0 0 6 722 0 0 0 0 0 0 0 0 0 0 0 0 0
A 97 1 0 0 0 6 719 0 0 0 0 0 0 0 0 0 0 0 0 0
A 98 1 0 0 0 6 730 0 0 0 0 0 0 0 0 0 0 0 0 0
A 99 1 0 0 0 6 728 0 0 0 0 0 0 0 0 0 0 0 0 0
A 100 1 0 0 0 6 731 0 0 0 0 0 0 0 0 0 0 0 0 0
A 101 1 0 0 0 6 729 0 0 0 0 0 0 0 0 0 0 0 0 0
A 102 1 0 0 0 6 734 0 0 0 0 0 0 0 0 0 0 0 0 0
A 103 1 0 0 0 6 732 0 0 0 0 0 0 0 0 0 0 0 0 0
A 104 1 0 0 33 6 735 0 0 0 0 0 0 0 0 0 0 0 0 0
A 105 1 0 0 0 6 733 0 0 0 0 0 0 0 0 0 0 0 0 0
A 106 1 0 0 0 6 740 0 0 0 0 0 0 0 0 0 0 0 0 0
A 107 1 0 0 0 6 736 0 0 0 0 0 0 0 0 0 0 0 0 0
A 108 1 0 0 0 6 741 0 0 0 0 0 0 0 0 0 0 0 0 0
A 109 1 0 0 0 6 738 0 0 0 0 0 0 0 0 0 0 0 0 0
A 110 1 0 0 0 6 737 0 0 0 0 0 0 0 0 0 0 0 0 0
A 111 1 0 0 0 6 742 0 0 0 0 0 0 0 0 0 0 0 0 0
A 112 1 0 0 0 6 739 0 0 0 0 0 0 0 0 0 0 0 0 0
A 113 1 0 0 0 6 757 0 0 0 0 0 0 0 0 0 0 0 0 0
A 114 1 0 0 59 6 753 0 0 0 0 0 0 0 0 0 0 0 0 0
A 115 1 0 0 0 6 758 0 0 0 0 0 0 0 0 0 0 0 0 0
A 116 1 0 0 61 6 755 0 0 0 0 0 0 0 0 0 0 0 0 0
A 117 1 0 0 60 6 754 0 0 0 0 0 0 0 0 0 0 0 0 0
A 118 1 0 0 0 6 759 0 0 0 0 0 0 0 0 0 0 0 0 0
A 119 1 0 0 0 6 756 0 0 0 0 0 0 0 0 0 0 0 0 0
A 120 1 0 0 0 6 771 0 0 0 0 0 0 0 0 0 0 0 0 0
A 121 1 0 0 0 6 767 0 0 0 0 0 0 0 0 0 0 0 0 0
A 122 1 0 0 0 6 772 0 0 0 0 0 0 0 0 0 0 0 0 0
A 123 1 0 0 0 6 769 0 0 0 0 0 0 0 0 0 0 0 0 0
A 124 1 0 0 0 6 768 0 0 0 0 0 0 0 0 0 0 0 0 0
A 125 1 0 0 0 6 773 0 0 0 0 0 0 0 0 0 0 0 0 0
A 126 1 0 0 0 6 770 0 0 0 0 0 0 0 0 0 0 0 0 0
A 127 1 0 0 0 6 776 0 0 0 0 0 0 0 0 0 0 0 0 0
A 128 1 0 0 0 6 774 0 0 0 0 0 0 0 0 0 0 0 0 0
A 129 1 0 0 0 6 777 0 0 0 0 0 0 0 0 0 0 0 0 0
A 130 1 0 0 0 6 775 0 0 0 0 0 0 0 0 0 0 0 0 0
A 131 1 0 0 24 6 782 0 0 0 0 0 0 0 0 0 0 0 0 0
A 132 1 0 0 0 6 778 0 0 0 0 0 0 0 0 0 0 0 0 0
A 133 1 0 0 25 6 783 0 0 0 0 0 0 0 0 0 0 0 0 0
A 134 1 0 0 0 6 780 0 0 0 0 0 0 0 0 0 0 0 0 0
A 135 1 0 0 0 6 779 0 0 0 0 0 0 0 0 0 0 0 0 0
A 136 1 0 0 0 6 784 0 0 0 0 0 0 0 0 0 0 0 0 0
A 137 1 0 0 23 6 781 0 0 0 0 0 0 0 0 0 0 0 0 0
A 138 1 0 0 0 6 789 0 0 0 0 0 0 0 0 0 0 0 0 0
A 139 1 0 0 0 6 785 0 0 0 0 0 0 0 0 0 0 0 0 0
A 140 1 0 0 0 6 790 0 0 0 0 0 0 0 0 0 0 0 0 0
A 141 1 0 0 0 6 787 0 0 0 0 0 0 0 0 0 0 0 0 0
A 142 1 0 0 0 6 786 0 0 0 0 0 0 0 0 0 0 0 0 0
A 143 1 0 0 0 6 791 0 0 0 0 0 0 0 0 0 0 0 0 0
A 144 1 0 0 0 6 788 0 0 0 0 0 0 0 0 0 0 0 0 0
Z
J 78 1 1
V 37 143 7 0
R 0 143 0 0
A 0 6 0 0 1 17 1
A 0 6 0 0 1 17 0
J 78 1 1
V 40 146 7 0
R 0 146 0 0
A 0 9 0 0 1 19 0
J 78 1 1
V 43 140 7 0
R 0 140 0 0
A 0 9 0 0 1 19 0
J 79 1 1
V 50 158 7 0
R 0 158 0 0
A 0 6 0 0 1 17 1
A 0 6 0 0 1 17 0
J 79 1 1
V 53 161 7 0
R 0 161 0 0
A 0 9 0 0 1 19 0
J 79 1 1
V 56 155 7 0
R 0 155 0 0
A 0 9 0 0 1 19 0
Z
