V26 cell_nose
13 cell_base.F90 S582 0
04/24/2012  15:51:03
use kinds private
use kinds private
enduse
D 56 21 9 2 15 18 0 0 0 0 0
 0 17 3 3 17 17
 0 17 17 3 17 17
D 59 21 9 2 15 18 0 0 0 0 0
 0 17 3 3 17 17
 0 17 17 3 17 17
D 62 21 9 2 15 18 0 0 0 0 0
 0 17 3 3 17 17
 0 17 17 3 17 17
D 65 21 9 2 15 18 0 0 0 0 0
 0 17 3 3 17 17
 0 17 17 3 17 17
D 68 21 9 2 15 18 0 0 0 0 0
 0 17 3 3 17 17
 0 17 17 3 17 17
D 71 21 9 2 15 18 0 0 0 0 0
 0 17 3 3 17 17
 0 17 17 3 17 17
D 74 21 9 2 15 18 0 0 0 0 0
 0 17 3 3 17 17
 0 17 17 3 17 17
D 77 21 9 2 15 18 0 0 0 0 0
 0 17 3 3 17 17
 0 17 17 3 17 17
D 80 21 9 2 15 18 0 0 0 0 0
 0 17 3 3 17 17
 0 17 17 3 17 17
D 83 21 9 2 15 18 0 0 0 0 0
 0 17 3 3 17 17
 0 17 17 3 17 17
D 86 21 9 2 15 18 0 0 0 0 0
 0 17 3 3 17 17
 0 17 17 3 17 17
D 89 21 9 2 15 18 0 0 0 0 0
 0 17 3 3 17 17
 0 17 17 3 17 17
D 92 21 9 2 15 18 0 0 0 0 0
 0 17 3 3 17 17
 0 17 17 3 17 17
D 95 21 9 2 15 18 0 0 0 0 0
 0 17 3 3 17 17
 0 17 17 3 17 17
D 98 21 9 2 15 18 0 0 0 0 0
 0 17 3 3 17 17
 0 17 17 3 17 17
D 101 21 9 2 15 18 0 0 0 0 0
 0 17 3 3 17 17
 0 17 17 3 17 17
D 104 21 9 2 15 18 0 0 0 0 0
 0 17 3 3 17 17
 0 17 17 3 17 17
D 107 21 6 2 15 18 0 0 0 0 0
 0 17 3 3 17 17
 0 17 17 3 17 17
D 110 21 9 2 15 18 0 0 0 0 0
 0 17 3 3 17 17
 0 17 17 3 17 17
D 113 21 9 2 15 18 0 0 0 0 0
 0 17 3 3 17 17
 0 17 17 3 17 17
D 116 21 9 2 15 18 0 0 0 0 0
 0 17 3 3 17 17
 0 17 17 3 17 17
S 582 24 0 0 0 9 1 0 4658 10005 0 A 0 0 0 0 0 0 0 0 0 0 0 0 0 0 0 0 0 0 0 0 0 924 0 0 0 0 0 0 cell_nose
S 584 23 0 0 0 9 587 582 4674 4 0 A 0 0 0 0 0 0 0 0 0 0 0 0 0 0 0 0 0 0 0 0 0 0 0 582 0 0 0 0 dp
S 586 3 0 0 0 6 1 1 0 0 0 A 0 0 0 0 0 0 0 0 0 4 0 0 0 0 0 0 0 0 0 0 0 0 0 0 0 0 0 0 6
R 587 16 1 kinds dp
S 594 7 4 0 4 56 597 582 4708 80000c 100 A 0 0 0 0 0 0 0 0 0 0 0 0 603 0 0 0 0 0 0 0 0 0 0 582 0 0 0 0 xnhh0
S 595 3 0 0 0 6 1 1 0 0 0 A 0 0 0 0 0 0 0 0 0 3 0 0 0 0 0 0 0 0 0 0 0 0 0 0 0 0 0 0 6
S 596 3 0 0 0 6 1 1 0 0 0 A 0 0 0 0 0 0 0 0 0 9 0 0 0 0 0 0 0 0 0 0 0 0 0 0 0 0 0 0 6
S 597 7 4 0 4 59 598 582 4721 80000c 100 A 0 0 0 0 0 80 0 0 0 0 0 0 603 0 0 0 0 0 0 0 0 0 0 582 0 0 0 0 xnhhm
S 598 7 4 0 4 62 599 582 4734 80000c 100 A 0 0 0 0 0 160 0 0 0 0 0 0 603 0 0 0 0 0 0 0 0 0 0 582 0 0 0 0 xnhhp
S 599 7 4 0 4 65 600 582 4747 80000c 100 A 0 0 0 0 0 240 0 0 0 0 0 0 603 0 0 0 0 0 0 0 0 0 0 582 0 0 0 0 vnhh
S 600 6 4 0 0 9 601 582 4759 80000c 0 A 0 0 0 0 0 312 0 0 0 0 0 0 603 0 0 0 0 0 0 0 0 0 0 582 0 0 0 0 temph
S 601 6 4 0 0 9 602 582 4772 80000c 0 A 0 0 0 0 0 320 0 0 0 0 0 0 603 0 0 0 0 0 0 0 0 0 0 582 0 0 0 0 fnoseh
S 602 6 4 0 0 9 1 582 4786 80000c 0 A 0 0 0 0 0 328 0 0 0 0 0 0 603 0 0 0 0 0 0 0 0 0 0 582 0 0 0 0 qnh
S 603 11 0 0 4 9 1 582 4797 40800000 801000 A 0 0 0 0 0 336 0 0 594 602 0 0 0 0 0 0 0 0 0 0 0 0 0 0 0 0 0 0 _cell_nose$10
S 604 23 5 0 0 0 607 582 4811 0 0 A 0 0 0 0 0 0 0 0 0 0 0 0 0 0 0 0 0 0 0 0 0 0 0 0 0 0 0 0 cell_nose_init
S 605 1 3 1 0 9 1 604 4826 4 3000 A 0 0 0 0 0 0 0 0 0 0 0 0 0 0 0 0 0 0 0 0 0 0 0 0 0 0 0 0 temph_init
S 606 1 3 1 0 9 1 604 4837 4 3000 A 0 0 0 0 0 0 0 0 0 0 0 0 0 0 0 0 0 0 0 0 0 0 0 0 0 0 0 0 fnoseh_init
S 607 14 5 0 0 0 1 604 4811 0 400000 A 0 0 0 0 0 0 0 4 2 0 0 0 0 0 0 0 0 0 0 0 0 942 0 582 0 0 0 0 cell_nose_init
F 607 2 605 606
S 608 23 5 0 0 0 612 582 4849 0 0 A 0 0 0 0 0 0 0 0 0 0 0 0 0 0 0 0 0 0 0 0 0 0 0 0 0 0 0 0 cell_nosezero
S 609 7 3 2 0 68 1 608 4747 800004 3000 A 0 0 0 0 0 0 0 0 0 0 0 0 0 0 0 0 0 0 0 0 0 0 0 0 0 0 0 0 vnhh
S 610 7 3 2 0 71 1 608 4708 800004 3000 A 0 0 0 0 0 0 0 0 0 0 0 0 0 0 0 0 0 0 0 0 0 0 0 0 0 0 0 0 xnhh0
S 611 7 3 2 0 74 1 608 4721 800004 3000 A 0 0 0 0 0 0 0 0 0 0 0 0 0 0 0 0 0 0 0 0 0 0 0 0 0 0 0 0 xnhhm
S 612 14 5 0 0 0 1 608 4849 0 400000 A 0 0 0 0 0 0 0 7 3 0 0 0 0 0 0 0 0 0 0 0 0 954 0 582 0 0 0 0 cell_nosezero
F 612 3 609 610 611
S 613 23 5 0 0 0 618 582 4863 0 0 A 0 0 0 0 0 0 0 0 0 0 0 0 0 0 0 0 0 0 0 0 0 0 0 0 0 0 0 0 cell_nosevel
S 614 1 3 1 0 9 1 613 4876 4 3000 A 0 0 0 0 0 0 0 0 0 0 0 0 0 0 0 0 0 0 0 0 0 0 0 0 0 0 0 0 delt
S 615 7 3 3 0 77 1 613 4747 800004 3000 A 0 0 0 0 0 0 0 0 0 0 0 0 0 0 0 0 0 0 0 0 0 0 0 0 0 0 0 0 vnhh
S 616 7 3 1 0 80 1 613 4708 800004 3000 A 0 0 0 0 0 0 0 0 0 0 0 0 0 0 0 0 0 0 0 0 0 0 0 0 0 0 0 0 xnhh0
S 617 7 3 1 0 83 1 613 4721 800004 3000 A 0 0 0 0 0 0 0 0 0 0 0 0 0 0 0 0 0 0 0 0 0 0 0 0 0 0 0 0 xnhhm
S 618 14 5 0 0 0 1 613 4863 0 400000 A 0 0 0 0 0 0 0 11 4 0 0 0 0 0 0 0 0 0 0 0 0 962 0 582 0 0 0 0 cell_nosevel
F 618 4 615 616 617 614
S 619 23 5 0 0 0 628 582 4881 0 0 A 0 0 0 0 0 0 0 0 0 0 0 0 0 0 0 0 0 0 0 0 0 0 0 0 0 0 0 0 cell_noseupd
S 620 1 3 1 0 9 1 619 4876 4 3000 A 0 0 0 0 0 0 0 0 0 0 0 0 0 0 0 0 0 0 0 0 0 0 0 0 0 0 0 0 delt
S 621 7 3 1 0 98 1 619 4894 800004 3000 A 0 0 0 0 0 0 0 0 0 0 0 0 0 0 0 0 0 0 0 0 0 0 0 0 0 0 0 0 temphh
S 622 7 3 2 0 86 1 619 4734 800004 3000 A 0 0 0 0 0 0 0 0 0 0 0 0 0 0 0 0 0 0 0 0 0 0 0 0 0 0 0 0 xnhhp
S 623 7 3 1 0 92 1 619 4708 800004 3000 A 0 0 0 0 0 0 0 0 0 0 0 0 0 0 0 0 0 0 0 0 0 0 0 0 0 0 0 0 xnhh0
S 624 7 3 1 0 95 1 619 4721 800004 3000 A 0 0 0 0 0 0 0 0 0 0 0 0 0 0 0 0 0 0 0 0 0 0 0 0 0 0 0 0 xnhhm
S 625 1 3 1 0 9 1 619 4786 4 3000 A 0 0 0 0 0 0 0 0 0 0 0 0 0 0 0 0 0 0 0 0 0 0 0 0 0 0 0 0 qnh
S 626 1 3 1 0 9 1 619 4759 4 3000 A 0 0 0 0 0 0 0 0 0 0 0 0 0 0 0 0 0 0 0 0 0 0 0 0 0 0 0 0 temph
S 627 7 3 2 0 89 1 619 4747 800004 3000 A 0 0 0 0 0 0 0 0 0 0 0 0 0 0 0 0 0 0 0 0 0 0 0 0 0 0 0 0 vnhh
S 628 14 5 0 0 0 1 619 4881 0 400000 A 0 0 0 0 0 0 0 16 8 0 0 0 0 0 0 0 0 0 0 0 0 970 0 582 0 0 0 0 cell_noseupd
F 628 8 622 623 624 620 625 621 626 627
S 629 23 5 0 0 9 635 582 4901 4 0 A 0 0 0 0 0 0 0 0 0 0 0 0 0 0 0 0 0 0 0 0 0 0 0 0 0 0 0 0 cell_nose_nrg
S 630 7 3 0 0 107 1 629 4915 800004 3000 A 0 0 0 0 0 0 0 0 0 0 0 0 0 0 0 0 0 0 0 0 0 0 0 0 0 0 0 0 iforceh
S 631 1 3 0 0 9 1 629 4786 4 3000 A 0 0 0 0 0 0 0 0 0 0 0 0 0 0 0 0 0 0 0 0 0 0 0 0 0 0 0 0 qnh
S 632 7 3 0 0 104 1 629 4708 800004 3000 A 0 0 0 0 0 0 0 0 0 0 0 0 0 0 0 0 0 0 0 0 0 0 0 0 0 0 0 0 xnhh0
S 633 7 3 0 0 101 1 629 4747 800004 3000 A 0 0 0 0 0 0 0 0 0 0 0 0 0 0 0 0 0 0 0 0 0 0 0 0 0 0 0 0 vnhh
S 634 1 3 0 0 9 1 629 4759 4 3000 A 0 0 0 0 0 0 0 0 0 0 0 0 0 0 0 0 0 0 0 0 0 0 0 0 0 0 0 0 temph
S 635 14 5 0 0 9 1 629 4901 4 400000 A 0 0 0 0 0 0 0 25 5 0 0 636 0 0 0 0 0 0 0 0 0 987 0 582 0 0 0 0 cell_nose_nrg
F 635 5 631 632 633 634 630
S 636 1 3 0 0 9 1 629 4901 4 1003000 A 0 0 0 0 0 0 0 0 0 0 0 0 0 0 0 0 0 0 0 0 0 0 0 0 0 0 0 0 cell_nose_nrg
S 637 23 5 0 0 0 641 582 4923 0 0 A 0 0 0 0 0 0 0 0 0 0 0 0 0 0 0 0 0 0 0 0 0 0 0 0 0 0 0 0 cell_nose_shiftvar
S 638 7 3 1 0 116 1 637 4734 800004 3000 A 0 0 0 0 0 0 0 0 0 0 0 0 0 0 0 0 0 0 0 0 0 0 0 0 0 0 0 0 xnhhp
S 639 7 3 3 0 113 1 637 4708 800004 3000 A 0 0 0 0 0 0 0 0 0 0 0 0 0 0 0 0 0 0 0 0 0 0 0 0 0 0 0 0 xnhh0
S 640 7 3 2 0 110 1 637 4721 800004 3000 A 0 0 0 0 0 0 0 0 0 0 0 0 0 0 0 0 0 0 0 0 0 0 0 0 0 0 0 0 xnhhm
S 641 14 5 0 0 0 1 637 4923 0 400000 A 0 0 0 0 0 0 0 31 3 0 0 0 0 0 0 0 0 0 0 0 0 1004 0 582 0 0 0 0 cell_nose_shiftvar
F 641 3 638 639 640
S 642 23 5 0 0 0 643 582 4942 0 0 A 0 0 0 0 0 0 0 0 0 0 0 0 0 0 0 0 0 0 0 0 0 0 0 0 0 0 0 0 cell_nose_info
S 643 14 5 0 0 0 1 642 4942 0 400000 A 0 0 0 0 0 0 0 35 0 0 0 0 0 0 0 0 0 0 0 0 0 1016 0 582 0 0 0 0 cell_nose_info
F 643 0
A 15 2 0 0 0 6 586 0 0 0 15 0 0 0 0 0 0 0 0 0
A 17 2 0 0 0 6 595 0 0 0 17 0 0 0 0 0 0 0 0 0
A 18 2 0 0 0 6 596 0 0 0 18 0 0 0 0 0 0 0 0 0
Z
Z
