V26 check_stop
14 check_stop.F90 S582 0
04/24/2012  15:51:15
use kinds public 0 direct
enduse
S 582 24 0 0 0 9 1 0 4658 10005 0 A 0 0 0 0 0 0 0 0 0 0 0 0 0 0 0 0 0 0 0 0 0 18 0 0 0 0 0 0 check_stop
S 593 6 4 0 0 9 1 582 4709 80000c 0 A 0 0 0 0 0 0 0 0 0 0 0 0 598 0 0 0 0 0 0 0 0 0 0 582 0 0 0 0 max_seconds
S 595 6 4 0 0 16 1 582 4730 80001c 0 A 0 0 0 0 0 0 0 0 0 0 0 0 599 0 0 0 0 0 0 0 0 0 0 582 0 0 0 0 tinit
S 597 6 4 0 0 9 1 582 4736 4 0 A 0 0 0 0 0 0 0 0 0 0 0 0 600 0 0 0 0 0 0 0 0 0 0 582 0 0 0 0 init_second
S 598 11 0 0 0 9 1 582 4748 40800000 801000 A 0 0 0 0 0 8 0 0 593 593 0 0 0 0 0 0 0 0 0 0 0 0 0 0 0 0 0 0 _check_stop$10
S 599 11 0 0 0 9 598 582 4763 40800010 801000 A 0 0 0 0 0 4 0 0 595 595 0 0 0 0 0 0 0 0 0 0 0 0 0 0 0 0 0 0 _check_stop$12
S 600 11 0 0 0 9 599 582 4778 40800000 801000 A 0 0 0 0 0 8 0 0 597 597 0 0 0 0 0 0 0 0 0 0 0 0 0 0 0 0 0 0 _check_stop$2
S 601 23 5 0 0 0 602 582 4792 0 0 A 0 0 0 0 0 0 0 0 0 0 0 0 0 0 0 0 0 0 0 0 0 0 0 0 0 0 0 0 check_stop_init
S 602 14 5 0 0 0 1 601 4792 0 400000 A 0 0 0 0 0 0 0 4 0 0 0 0 0 0 0 0 0 0 0 0 0 38 0 582 0 0 0 0 check_stop_init
F 602 0
S 603 23 5 0 0 9 605 582 4808 0 0 A 0 0 0 0 0 0 0 0 0 0 0 0 0 0 0 0 0 0 0 0 0 0 0 0 0 0 0 0 check_stop_now
S 604 1 3 1 0 6 1 603 4823 80000004 3000 A 0 0 0 0 0 0 0 0 0 0 0 0 0 0 0 0 0 0 0 0 0 0 0 0 0 0 0 0 inunit
S 605 14 5 0 0 16 1 603 4808 4 400000 A 0 0 0 0 0 0 0 5 1 0 0 606 0 0 0 0 0 0 0 0 0 81 0 582 0 0 0 0 check_stop_now
F 605 1 604
S 606 1 3 0 0 16 1 603 4808 4 1003000 A 0 0 0 0 0 0 0 0 0 0 0 0 0 0 0 0 0 0 0 0 0 0 0 0 0 0 0 0 check_stop_now
Z
Z
