V26 constants
13 constants.F90 S582 0
04/24/2012  15:51:02
use kinds private
use kinds private
enduse
S 582 24 0 0 0 9 1 0 4658 5 0 A 0 0 0 0 0 0 0 0 0 0 0 0 113 0 0 0 0 0 0 0 0 11 0 0 0 0 0 0 constants
S 584 23 0 0 0 9 587 582 4674 4 0 A 0 0 0 0 0 0 0 0 0 0 0 0 0 0 0 0 0 0 0 0 0 0 0 582 0 0 0 0 dp
R 587 16 1 kinds dp
S 594 16 1 0 0 9 596 582 4708 800004 400000 A 0 0 0 0 0 0 0 0 595 17 0 0 0 0 0 0 0 0 0 0 0 0 0 582 0 0 0 0 pi
S 595 3 0 0 0 9 0 1 0 0 0 A 0 0 0 0 0 0 0 0 1074340347 1413754136 0 0 0 0 0 0 0 0 0 0 0 0 0 0 0 0 0 0 9
S 596 16 1 0 0 9 598 582 4711 800004 400000 A 0 0 0 0 0 0 0 0 597 20 0 0 0 0 0 0 0 0 0 0 0 0 0 582 0 0 0 0 tpi
S 597 3 0 0 0 9 0 1 0 0 0 A 0 0 0 0 0 0 0 0 1075388923 1413754136 0 0 0 0 0 0 0 0 0 0 0 0 0 0 0 0 0 0 9
S 598 16 0 0 0 9 601 582 4715 800004 400000 A 0 0 0 0 0 0 0 0 600 23 0 0 0 0 0 0 0 0 0 0 0 0 0 582 0 0 0 0 fpi
S 600 3 0 0 0 9 0 1 0 0 0 A 0 0 0 0 0 0 0 0 1076437499 1413754136 0 0 0 0 0 0 0 0 0 0 0 0 0 0 0 0 0 0 9
S 601 16 1 0 0 9 603 582 4719 800004 400000 A 0 0 0 0 0 0 0 0 602 25 0 0 0 0 0 0 0 0 0 0 0 0 0 582 0 0 0 0 sqrtpi
S 602 3 0 0 0 9 0 1 0 0 0 A 0 0 0 0 0 0 0 0 1073503224 -1850413205 0 0 0 0 0 0 0 0 0 0 0 0 0 0 0 0 0 0 9
S 603 16 0 0 0 9 605 582 4726 800004 400000 A 0 0 0 0 0 0 0 0 604 28 0 0 0 0 0 0 0 0 0 0 0 0 0 582 0 0 0 0 sqrtpm1
S 604 3 0 0 0 9 0 1 0 0 0 A 0 0 0 0 0 0 0 0 1071779287 1346542445 0 0 0 0 0 0 0 0 0 0 0 0 0 0 0 0 0 0 9
S 605 16 0 0 0 9 607 582 4734 800004 400000 A 0 0 0 0 0 0 0 0 606 30 0 0 0 0 0 0 0 0 0 0 0 0 0 582 0 0 0 0 sqrt2
S 606 3 0 0 0 9 0 1 0 0 0 A 0 0 0 0 0 0 0 0 1073127582 1719614413 0 0 0 0 0 0 0 0 0 0 0 0 0 0 0 0 0 0 9
S 607 16 1 0 0 9 609 582 4740 800004 400000 A 0 0 0 0 0 0 0 0 608 32 0 0 0 0 0 0 0 0 0 0 0 0 0 582 0 0 0 0 h_planck_si
S 608 3 0 0 0 9 0 1 0 0 0 A 0 0 0 0 0 0 0 0 957056523 -1961631270 0 0 0 0 0 0 0 0 0 0 0 0 0 0 0 0 0 0 9
S 609 16 1 0 0 9 611 582 4752 800004 400000 A 0 0 0 0 0 0 0 0 610 34 0 0 0 0 0 0 0 0 0 0 0 0 0 582 0 0 0 0 k_boltzmann_si
S 610 3 0 0 0 9 0 1 0 0 0 A 0 0 0 0 0 0 0 0 993046759 -246248339 0 0 0 0 0 0 0 0 0 0 0 0 0 0 0 0 0 0 9
S 611 16 1 0 0 9 613 582 4767 800004 400000 A 0 0 0 0 0 0 0 0 612 36 0 0 0 0 0 0 0 0 0 0 0 0 0 582 0 0 0 0 electron_si
S 612 3 0 0 0 9 0 1 0 0 0 A 0 0 0 0 0 0 0 0 1007133914 78043893 0 0 0 0 0 0 0 0 0 0 0 0 0 0 0 0 0 0 9
S 613 16 1 0 0 9 614 582 4779 800004 400000 A 0 0 0 0 0 0 0 0 612 36 0 0 0 0 0 0 0 0 0 0 0 0 0 582 0 0 0 0 electronvolt_si
S 614 16 1 0 0 9 616 582 4795 800004 400000 A 0 0 0 0 0 0 0 0 615 39 0 0 0 0 0 0 0 0 0 0 0 0 0 582 0 0 0 0 electronmass_si
S 615 3 0 0 0 9 0 1 0 0 0 A 0 0 0 0 0 0 0 0 967997916 -1813299378 0 0 0 0 0 0 0 0 0 0 0 0 0 0 0 0 0 0 9
S 616 16 1 0 0 9 618 582 4811 800004 400000 A 0 0 0 0 0 0 0 0 617 41 0 0 0 0 0 0 0 0 0 0 0 0 0 582 0 0 0 0 hartree_si
S 617 3 0 0 0 9 0 1 0 0 0 A 0 0 0 0 0 0 0 0 1012144915 -1056589429 0 0 0 0 0 0 0 0 0 0 0 0 0 0 0 0 0 0 9
S 618 16 1 0 0 9 620 582 4822 800004 400000 A 0 0 0 0 0 0 0 0 619 43 0 0 0 0 0 0 0 0 0 0 0 0 0 582 0 0 0 0 rydberg_si
S 619 3 0 0 0 9 0 1 0 0 0 A 0 0 0 0 0 0 0 0 1011096339 -1056589429 0 0 0 0 0 0 0 0 0 0 0 0 0 0 0 0 0 0 9
S 620 16 1 0 0 9 622 582 4833 800004 400000 A 0 0 0 0 0 0 0 0 621 45 0 0 0 0 0 0 0 0 0 0 0 0 0 582 0 0 0 0 bohr_radius_si
S 621 3 0 0 0 9 0 1 0 0 0 A 0 0 0 0 0 0 0 0 1036851073 -757910946 0 0 0 0 0 0 0 0 0 0 0 0 0 0 0 0 0 0 9
S 622 16 1 0 0 9 624 582 4848 800004 400000 A 0 0 0 0 0 0 0 0 623 47 0 0 0 0 0 0 0 0 0 0 0 0 0 582 0 0 0 0 amu_si
S 623 3 0 0 0 9 0 1 0 0 0 A 0 0 0 0 0 0 0 0 979399159 1235476253 0 0 0 0 0 0 0 0 0 0 0 0 0 0 0 0 0 0 9
S 624 16 1 0 0 9 626 582 4855 800004 400000 A 0 0 0 0 0 0 0 0 625 49 0 0 0 0 0 0 0 0 0 0 0 0 0 582 0 0 0 0 c_si
S 625 3 0 0 0 9 0 1 0 0 0 A 0 0 0 0 0 0 0 0 1102175864 1241513984 0 0 0 0 0 0 0 0 0 0 0 0 0 0 0 0 0 0 9
S 626 16 0 0 0 9 628 582 4860 800004 400000 A 0 0 0 0 0 0 0 0 627 51 0 0 0 0 0 0 0 0 0 0 0 0 0 582 0 0 0 0 k_boltzmann_au
S 627 3 0 0 0 9 0 1 0 0 0 A 0 0 0 0 0 0 0 0 1053462703 628054124 0 0 0 0 0 0 0 0 0 0 0 0 0 0 0 0 0 0 9
S 628 16 0 0 0 9 630 582 4875 800004 400000 A 0 0 0 0 0 0 0 0 629 53 0 0 0 0 0 0 0 0 0 0 0 0 0 582 0 0 0 0 k_boltzmann_ry
S 629 3 0 0 0 9 0 1 0 0 0 A 0 0 0 0 0 0 0 0 1054511279 628054124 0 0 0 0 0 0 0 0 0 0 0 0 0 0 0 0 0 0 9
S 630 16 1 0 0 9 632 582 4890 800004 400000 A 0 0 0 0 0 0 0 0 631 55 0 0 0 0 0 0 0 0 0 0 0 0 0 582 0 0 0 0 autoev
S 631 3 0 0 0 9 0 1 0 0 0 A 0 0 0 0 0 0 0 0 1077622301 1085255473 0 0 0 0 0 0 0 0 0 0 0 0 0 0 0 0 0 0 9
S 632 16 0 0 0 9 634 582 4897 800004 400000 A 0 0 0 0 0 0 0 0 633 57 0 0 0 0 0 0 0 0 0 0 0 0 0 582 0 0 0 0 rytoev
S 633 3 0 0 0 9 0 1 0 0 0 A 0 0 0 0 0 0 0 0 1076573725 1085255473 0 0 0 0 0 0 0 0 0 0 0 0 0 0 0 0 0 0 9
S 634 16 1 0 0 9 636 582 4904 800004 400000 A 0 0 0 0 0 0 0 0 635 59 0 0 0 0 0 0 0 0 0 0 0 0 0 582 0 0 0 0 amu_au
S 635 3 0 0 0 9 0 1 0 0 0 A 0 0 0 0 0 0 0 0 1083997069 -825119507 0 0 0 0 0 0 0 0 0 0 0 0 0 0 0 0 0 0 9
S 636 16 1 0 0 9 638 582 4911 800004 400000 A 0 0 0 0 0 0 0 0 637 61 0 0 0 0 0 0 0 0 0 0 0 0 0 582 0 0 0 0 amu_ry
S 637 3 0 0 0 9 0 1 0 0 0 A 0 0 0 0 0 0 0 0 1082948493 -825119507 0 0 0 0 0 0 0 0 0 0 0 0 0 0 0 0 0 0 9
S 638 16 1 0 0 9 641 582 4918 800004 400000 A 0 0 0 0 0 0 0 0 640 64 0 0 0 0 0 0 0 0 0 0 0 0 0 582 0 0 0 0 au_sec
S 640 3 0 0 0 9 0 1 0 0 0 A 0 0 0 0 0 0 0 0 1014752073 1386604973 0 0 0 0 0 0 0 0 0 0 0 0 0 0 0 0 0 0 9
S 641 16 1 0 0 9 644 582 4925 800004 400000 A 0 0 0 0 0 0 0 0 643 67 0 0 0 0 0 0 0 0 0 0 0 0 0 582 0 0 0 0 au_ps
S 643 3 0 0 0 9 0 1 0 0 0 A 0 0 0 0 0 0 0 0 1056529700 -1495579644 0 0 0 0 0 0 0 0 0 0 0 0 0 0 0 0 0 0 9
S 644 16 1 0 0 9 651 582 4931 800004 400000 A 0 0 0 0 0 0 0 0 650 73 0 0 0 0 0 0 0 0 0 0 0 0 0 582 0 0 0 0 au_gpa
S 650 3 0 0 0 9 0 1 0 0 0 A 0 0 0 0 0 0 0 0 1088207680 -1325263617 0 0 0 0 0 0 0 0 0 0 0 0 0 0 0 0 0 0 9
S 651 16 1 0 0 9 655 582 4938 800004 400000 A 0 0 0 0 0 0 0 0 654 77 0 0 0 0 0 0 0 0 0 0 0 0 0 582 0 0 0 0 ry_kbar
S 654 3 0 0 0 9 0 1 0 0 0 A 0 0 0 0 0 0 0 0 1090647304 1856064799 0 0 0 0 0 0 0 0 0 0 0 0 0 0 0 0 0 0 9
S 655 16 1 0 0 9 659 582 4946 800004 400000 A 0 0 0 0 0 0 0 0 658 81 0 0 0 0 0 0 0 0 0 0 0 0 0 582 0 0 0 0 debye_si
S 658 3 0 0 0 9 0 1 0 0 0 A 0 0 0 0 0 0 0 0 969992680 -711727485 0 0 0 0 0 0 0 0 0 0 0 0 0 0 0 0 0 0 9
S 659 16 1 0 0 9 662 582 4955 800004 400000 A 0 0 0 0 0 0 0 0 661 84 0 0 0 0 0 0 0 0 0 0 0 0 0 582 0 0 0 0 au_debye
S 661 3 0 0 0 9 0 1 0 0 0 A 0 0 0 0 0 0 0 0 1074025855 201343132 0 0 0 0 0 0 0 0 0 0 0 0 0 0 0 0 0 0 9
S 662 16 0 0 0 9 664 582 4964 800004 400000 A 0 0 0 0 0 0 0 0 663 86 0 0 0 0 0 0 0 0 0 0 0 0 0 582 0 0 0 0 ev_to_kelvin
S 663 3 0 0 0 9 0 1 0 0 0 A 0 0 0 0 0 0 0 0 1086761536 -1386934488 0 0 0 0 0 0 0 0 0 0 0 0 0 0 0 0 0 0 9
S 664 16 0 0 0 9 666 582 4977 800004 400000 A 0 0 0 0 0 0 0 0 665 88 0 0 0 0 0 0 0 0 0 0 0 0 0 582 0 0 0 0 ry_to_kelvin
S 665 3 0 0 0 9 0 1 0 0 0 A 0 0 0 0 0 0 0 0 1090733562 -1753230869 0 0 0 0 0 0 0 0 0 0 0 0 0 0 0 0 0 0 9
S 666 16 0 0 0 9 669 582 4990 800004 400000 A 0 0 0 0 0 0 0 0 668 91 0 0 0 0 0 0 0 0 0 0 0 0 0 582 0 0 0 0 c_au
S 668 3 0 0 0 9 0 1 0 0 0 A 0 0 0 0 0 0 0 0 1080107302 -389975242 0 0 0 0 0 0 0 0 0 0 0 0 0 0 0 0 0 0 9
S 669 16 0 0 0 9 671 582 4995 800004 400000 A 0 0 0 0 0 0 0 0 670 93 0 0 0 0 0 0 0 0 0 0 0 0 0 582 0 0 0 0 eps4
S 670 3 0 0 0 9 0 1 0 0 0 A 0 0 0 0 0 0 0 0 1058682594 -350469331 0 0 0 0 0 0 0 0 0 0 0 0 0 0 0 0 0 0 9
S 671 16 0 0 0 9 673 582 5000 800004 400000 A 0 0 0 0 0 0 0 0 672 95 0 0 0 0 0 0 0 0 0 0 0 0 0 582 0 0 0 0 eps6
S 672 3 0 0 0 9 0 1 0 0 0 A 0 0 0 0 0 0 0 0 1051772663 -1598689907 0 0 0 0 0 0 0 0 0 0 0 0 0 0 0 0 0 0 9
S 673 16 0 0 0 9 675 582 5005 800004 400000 A 0 0 0 0 0 0 0 0 674 97 0 0 0 0 0 0 0 0 0 0 0 0 0 582 0 0 0 0 eps8
S 674 3 0 0 0 9 0 1 0 0 0 A 0 0 0 0 0 0 0 0 1044740494 -500134854 0 0 0 0 0 0 0 0 0 0 0 0 0 0 0 0 0 0 9
S 675 16 0 0 0 9 677 582 5010 800004 400000 A 0 0 0 0 0 0 0 0 676 99 0 0 0 0 0 0 0 0 0 0 0 0 0 582 0 0 0 0 eps12
S 676 3 0 0 0 9 0 1 0 0 0 A 0 0 0 0 0 0 0 0 1030854553 -2127697391 0 0 0 0 0 0 0 0 0 0 0 0 0 0 0 0 0 0 9
S 677 16 0 0 0 9 679 582 5016 800004 400000 A 0 0 0 0 0 0 0 0 678 101 0 0 0 0 0 0 0 0 0 0 0 0 0 582 0 0 0 0 eps14
S 678 3 0 0 0 9 0 1 0 0 0 A 0 0 0 0 0 0 0 0 1023837339 -2036257893 0 0 0 0 0 0 0 0 0 0 0 0 0 0 0 0 0 0 9
S 679 16 0 0 0 9 681 582 5022 800004 400000 A 0 0 0 0 0 0 0 0 680 103 0 0 0 0 0 0 0 0 0 0 0 0 0 582 0 0 0 0 eps16
S 680 3 0 0 0 9 0 1 0 0 0 A 0 0 0 0 0 0 0 0 1016910514 -1747416644 0 0 0 0 0 0 0 0 0 0 0 0 0 0 0 0 0 0 9
S 681 16 0 0 0 9 683 582 5028 800004 400000 A 0 0 0 0 0 0 0 0 682 105 0 0 0 0 0 0 0 0 0 0 0 0 0 582 0 0 0 0 eps24
S 682 3 0 0 0 9 0 1 0 0 0 A 0 0 0 0 0 0 0 0 989026242 -1717006681 0 0 0 0 0 0 0 0 0 0 0 0 0 0 0 0 0 0 9
S 683 16 0 0 0 9 685 582 5034 800004 400000 A 0 0 0 0 0 0 0 0 684 107 0 0 0 0 0 0 0 0 0 0 0 0 0 582 0 0 0 0 eps32
S 684 3 0 0 0 9 0 1 0 0 0 A 0 0 0 0 0 0 0 0 961148451 -710367437 0 0 0 0 0 0 0 0 0 0 0 0 0 0 0 0 0 0 9
S 685 16 0 0 0 9 686 582 5040 800004 400000 A 0 0 0 0 0 0 0 0 676 99 0 0 0 0 0 0 0 0 0 0 0 0 0 582 0 0 0 0 gsmall
S 686 16 0 0 0 9 687 582 5047 800004 400000 A 0 0 0 0 0 0 0 0 579 19 0 0 0 0 0 0 0 0 0 0 0 0 0 582 0 0 0 0 e2
S 687 16 0 0 0 9 688 582 5050 800004 400000 A 0 0 0 0 0 0 0 0 579 19 0 0 0 0 0 0 0 0 0 0 0 0 0 582 0 0 0 0 degspin
S 688 16 0 0 0 9 689 582 5058 800004 400000 A 0 0 0 0 0 0 0 0 637 61 0 0 0 0 0 0 0 0 0 0 0 0 0 582 0 0 0 0 amconv
S 689 16 0 0 0 9 690 582 5065 800004 400000 A 0 0 0 0 0 0 0 0 654 77 0 0 0 0 0 0 0 0 0 0 0 0 0 582 0 0 0 0 uakbar
S 690 16 1 0 0 9 693 582 5072 800004 400000 A 0 0 0 0 0 0 0 0 692 115 0 0 0 0 0 0 0 0 0 0 0 0 0 582 0 0 0 0 bohr_radius_cm
S 692 3 0 0 0 9 0 1 0 0 0 A 0 0 0 0 0 0 0 0 1043774045 1823801177 0 0 0 0 0 0 0 0 0 0 0 0 0 0 0 0 0 0 9
S 693 16 1 0 0 9 696 582 5087 800004 400000 A 0 0 0 0 0 0 0 0 695 118 0 0 0 0 0 0 0 0 0 0 0 0 0 582 0 0 0 0 bohr_radius_angs
S 695 3 0 0 0 9 0 1 0 0 0 A 0 0 0 0 0 0 0 0 1071705861 177592326 0 0 0 0 0 0 0 0 0 0 0 0 0 0 0 0 0 0 9
S 696 16 0 0 0 9 698 582 5104 800004 400000 A 0 0 0 0 0 0 0 0 697 120 0 0 0 0 0 0 0 0 0 0 0 0 0 582 0 0 0 0 angstrom_au
S 697 3 0 0 0 9 0 1 0 0 0 A 0 0 0 0 0 0 0 0 1073626193 2016558855 0 0 0 0 0 0 0 0 0 0 0 0 0 0 0 0 0 0 9
S 698 16 0 0 0 9 699 582 5116 800004 400000 A 0 0 0 0 0 0 0 0 661 84 0 0 0 0 0 0 0 0 0 0 0 0 0 582 0 0 0 0 dip_debye
S 699 16 0 0 0 9 700 582 5126 800004 400000 A 0 0 0 0 0 0 0 0 643 67 0 0 0 0 0 0 0 0 0 0 0 0 0 582 0 0 0 0 au_terahertz
S 700 16 0 0 0 9 0 582 5139 800004 400000 A 0 0 0 0 0 0 0 0 701 124 0 0 0 0 0 0 0 0 0 0 0 0 0 582 0 0 0 0 au_to_ohmcmm1
S 701 3 0 0 0 9 0 1 0 0 0 A 0 0 0 0 0 0 0 0 1088845312 0 0 0 0 0 0 0 0 0 0 0 0 0 0 0 0 0 0 0 9
A 17 2 0 0 0 9 595 0 0 0 17 0 0 0 0 0 0 0 0 0
A 19 2 0 0 0 9 579 0 0 0 19 0 0 0 0 0 0 0 0 0
A 20 2 0 0 0 9 597 0 0 0 20 0 0 0 0 0 0 0 0 0
A 23 2 0 0 0 9 600 0 0 0 23 0 0 0 0 0 0 0 0 0
A 25 2 0 0 0 9 602 0 0 0 25 0 0 0 0 0 0 0 0 0
A 28 2 0 0 0 9 604 0 0 0 28 0 0 0 0 0 0 0 0 0
A 30 2 0 0 0 9 606 0 0 0 30 0 0 0 0 0 0 0 0 0
A 32 2 0 0 0 9 608 0 0 0 32 0 0 0 0 0 0 0 0 0
A 34 2 0 0 0 9 610 0 0 0 34 0 0 0 0 0 0 0 0 0
A 36 2 0 0 0 9 612 0 0 0 36 0 0 0 0 0 0 0 0 0
A 39 2 0 0 0 9 615 0 0 0 39 0 0 0 0 0 0 0 0 0
A 41 2 0 0 0 9 617 0 0 0 41 0 0 0 0 0 0 0 0 0
A 43 2 0 0 0 9 619 0 0 0 43 0 0 0 0 0 0 0 0 0
A 45 2 0 0 0 9 621 0 0 0 45 0 0 0 0 0 0 0 0 0
A 47 2 0 0 0 9 623 0 0 0 47 0 0 0 0 0 0 0 0 0
A 49 2 0 0 0 9 625 0 0 0 49 0 0 0 0 0 0 0 0 0
A 51 2 0 0 0 9 627 0 0 0 51 0 0 0 0 0 0 0 0 0
A 53 2 0 0 0 9 629 0 0 0 53 0 0 0 0 0 0 0 0 0
A 55 2 0 0 0 9 631 0 0 0 55 0 0 0 0 0 0 0 0 0
A 57 2 0 0 0 9 633 0 0 0 57 0 0 0 0 0 0 0 0 0
A 59 2 0 0 0 9 635 0 0 0 59 0 0 0 0 0 0 0 0 0
A 61 2 0 0 0 9 637 0 0 0 61 0 0 0 0 0 0 0 0 0
A 64 2 0 0 0 9 640 0 0 0 64 0 0 0 0 0 0 0 0 0
A 67 2 0 0 0 9 643 0 0 0 67 0 0 0 0 0 0 0 0 0
A 73 2 0 0 0 9 650 0 0 0 73 0 0 0 0 0 0 0 0 0
A 77 2 0 0 0 9 654 0 0 0 77 0 0 0 0 0 0 0 0 0
A 81 2 0 0 0 9 658 0 0 0 81 0 0 0 0 0 0 0 0 0
A 84 2 0 0 0 9 661 0 0 0 84 0 0 0 0 0 0 0 0 0
A 86 2 0 0 0 9 663 0 0 0 86 0 0 0 0 0 0 0 0 0
A 88 2 0 0 0 9 665 0 0 0 88 0 0 0 0 0 0 0 0 0
A 91 2 0 0 0 9 668 0 0 0 91 0 0 0 0 0 0 0 0 0
A 93 2 0 0 0 9 670 0 0 0 93 0 0 0 0 0 0 0 0 0
A 95 2 0 0 0 9 672 0 0 0 95 0 0 0 0 0 0 0 0 0
A 97 2 0 0 0 9 674 0 0 0 97 0 0 0 0 0 0 0 0 0
A 99 2 0 0 0 9 676 0 0 0 99 0 0 0 0 0 0 0 0 0
A 101 2 0 0 0 9 678 0 0 0 101 0 0 0 0 0 0 0 0 0
A 103 2 0 0 0 9 680 0 0 0 103 0 0 0 0 0 0 0 0 0
A 105 2 0 0 0 9 682 0 0 0 105 0 0 0 0 0 0 0 0 0
A 107 2 0 0 0 9 684 0 0 0 107 0 0 0 0 0 0 0 0 0
A 115 2 0 0 0 9 692 0 0 0 115 0 0 0 0 0 0 0 0 0
A 118 2 0 0 0 9 695 0 0 0 118 0 0 0 0 0 0 0 0 0
A 120 2 0 0 0 9 697 0 0 0 120 0 0 0 0 0 0 0 0 0
A 124 2 0 0 0 9 701 0 0 0 124 0 0 0 0 0 0 0 0 0
Z
Z
