V26 constraints_module
22 constraints_module.F90 S582 0
04/24/2012  15:51:37
use io_global private
use constants private
use kinds private
use io_global private
use constants private
use kinds private
enduse
D 104 21 6 1 200 199 0 1 0 0 1
 191 195 197 191 195 193
D 107 21 6 1 0 188 0 0 0 0 0
 0 188 0 3 188 0
D 110 21 9 2 219 218 0 1 0 0 1
 205 208 215 205 208 206
 210 214 217 210 214 212
D 113 21 6 1 0 203 0 0 0 0 0
 0 203 0 3 203 0
D 116 21 9 1 228 227 0 1 0 0 1
 222 225 226 222 225 223
D 119 21 6 1 0 188 0 0 0 0 0
 0 188 0 3 188 0
D 122 21 9 1 237 236 0 1 0 0 1
 231 234 235 231 234 232
D 125 21 6 1 0 188 0 0 0 0 0
 0 188 0 3 188 0
D 128 21 9 2 15 241 0 0 1 0 0
 0 238 3 3 238 238
 0 239 238 3 240 240
D 131 21 6 1 3 240 0 0 1 0 0
 0 239 3 3 240 240
D 134 21 9 2 242 248 1 1 0 0 1
 3 243 3 3 243 244
 3 245 246 3 245 247
D 137 21 6 2 249 255 1 1 0 0 1
 3 250 3 3 250 251
 3 252 253 3 252 254
D 140 21 6 1 256 259 1 1 0 0 1
 3 257 3 3 257 258
D 143 21 9 2 260 266 1 1 0 0 1
 3 261 3 3 261 262
 3 263 264 3 263 265
D 146 21 9 2 15 269 0 0 1 0 0
 0 238 3 3 238 238
 0 267 238 3 268 268
D 149 21 9 2 15 269 0 0 1 0 0
 0 238 3 3 238 238
 0 267 238 3 268 268
D 152 21 6 2 15 269 0 0 1 0 0
 0 238 3 3 238 238
 0 267 238 3 268 268
D 155 21 9 2 15 269 0 0 1 0 0
 0 238 3 3 238 238
 0 267 238 3 268 268
D 158 21 6 1 3 268 0 0 1 0 0
 0 267 3 3 268 268
D 161 21 9 2 270 276 1 1 0 0 1
 3 271 3 3 271 272
 3 273 274 3 273 275
D 164 21 6 2 277 283 1 1 0 0 1
 3 278 3 3 278 279
 3 280 281 3 280 282
D 167 21 6 1 284 287 1 1 0 0 1
 3 285 3 3 285 286
D 170 21 9 2 288 294 1 1 0 0 1
 3 289 3 3 289 290
 3 291 292 3 291 293
D 173 21 9 2 295 301 1 1 0 0 1
 3 296 3 3 296 297
 3 298 299 3 298 300
D 176 21 6 2 302 308 1 1 0 0 1
 3 303 3 3 303 304
 3 305 306 3 305 307
D 179 21 6 1 309 312 1 1 0 0 1
 3 310 3 3 310 311
D 182 21 9 2 313 319 1 1 0 0 1
 3 314 3 3 314 315
 3 316 317 3 316 318
D 185 21 9 1 3 238 0 0 0 0 0
 0 238 3 3 238 238
D 188 21 9 1 3 238 0 0 0 0 0
 0 238 3 3 238 238
S 582 24 0 0 0 9 1 0 4658 10015 0 A 0 0 0 0 0 0 0 0 0 0 0 0 0 0 0 0 0 0 0 0 0 29 0 0 0 0 0 0 constraints_module
S 584 23 0 0 0 9 596 582 4683 14 0 A 0 0 0 0 0 0 0 0 0 0 0 0 0 0 0 0 0 0 0 0 0 0 0 582 0 0 0 0 dp
S 586 23 0 0 0 9 679 582 4696 14 0 A 0 0 0 0 0 0 0 0 0 0 0 0 0 0 0 0 0 0 0 0 0 0 0 582 0 0 0 0 eps8
S 587 23 0 0 0 9 682 582 4701 14 0 A 0 0 0 0 0 0 0 0 0 0 0 0 0 0 0 0 0 0 0 0 0 0 0 582 0 0 0 0 eps16
S 588 23 0 0 0 9 684 582 4707 14 0 A 0 0 0 0 0 0 0 0 0 0 0 0 0 0 0 0 0 0 0 0 0 0 0 582 0 0 0 0 eps32
S 589 23 0 0 0 9 647 582 4713 14 0 A 0 0 0 0 0 0 0 0 0 0 0 0 0 0 0 0 0 0 0 0 0 0 0 582 0 0 0 0 tpi
S 590 23 0 0 0 9 648 582 4717 14 0 A 0 0 0 0 0 0 0 0 0 0 0 0 0 0 0 0 0 0 0 0 0 0 0 582 0 0 0 0 fpi
S 592 23 0 0 0 9 699 582 4731 14 0 A 0 0 0 0 0 0 0 0 0 0 0 0 0 0 0 0 0 0 0 0 0 0 0 582 0 0 0 0 stdout
S 594 3 0 0 0 6 1 1 0 0 0 A 0 0 0 0 0 0 0 0 0 8 0 0 0 0 0 0 0 0 0 0 0 0 0 0 0 0 0 0 6
S 595 3 0 0 0 6 1 1 0 0 0 A 0 0 0 0 0 0 0 0 0 4 0 0 0 0 0 0 0 0 0 0 0 0 0 0 0 0 0 0 6
R 596 16 1 kinds dp
R 647 16 3 constants tpi
R 648 16 4 constants fpi
R 679 16 35 constants eps8
R 682 16 38 constants eps16
R 684 16 40 constants eps32
R 699 6 4 io_global stdout
S 821 27 0 0 0 6 868 582 5716 0 0 A 0 0 0 0 0 0 0 0 0 0 0 0 0 0 0 0 0 0 0 0 0 0 0 582 0 0 0 0 init_constraint
S 822 27 0 0 0 9 912 582 5732 0 0 A 0 0 0 0 0 0 0 0 0 0 0 0 0 0 0 0 0 0 0 0 0 0 0 582 0 0 0 0 check_constraint
S 823 27 0 0 0 9 925 582 5749 0 0 A 0 0 0 0 0 0 0 0 0 0 0 0 0 0 0 0 0 0 0 0 0 0 0 582 0 0 0 0 remove_constr_force
S 824 27 0 0 0 9 958 582 5769 0 0 A 0 0 0 0 0 0 0 0 0 0 0 0 0 0 0 0 0 0 0 0 0 0 0 582 0 0 0 0 remove_constr_vec
S 825 27 0 0 0 9 991 582 5787 0 0 A 0 0 0 0 0 0 0 0 0 0 0 0 0 0 0 0 0 0 0 0 0 0 0 582 0 0 0 0 deallocate_constraint
S 826 27 0 0 0 9 997 582 5809 0 0 A 0 0 0 0 0 0 0 0 0 0 0 0 0 0 0 0 0 0 0 0 0 0 0 582 0 0 0 0 compute_dmax
S 827 27 0 0 0 9 993 582 5822 0 0 A 0 0 0 0 0 0 0 0 0 0 0 0 0 0 0 0 0 0 0 0 0 0 0 582 0 0 0 0 pbc
S 828 6 4 0 0 6 1 582 5826 4 0 A 0 0 0 0 0 0 0 0 0 0 0 0 865 0 0 0 0 0 0 0 0 0 0 582 0 0 0 0 nconstr
S 829 6 4 0 0 9 834 582 5834 4 0 A 0 0 0 0 0 0 0 0 0 0 0 0 866 0 0 0 0 0 0 0 0 0 0 582 0 0 0 0 constr_tol
S 830 7 6 0 0 104 1 582 5845 10a00004 51 A 0 0 0 0 0 0 838 0 0 0 840 0 0 0 0 0 0 0 0 837 0 0 839 582 0 0 0 0 constr_type
S 831 7 6 0 0 110 1 582 5857 10a00004 51 A 0 0 0 0 0 0 849 0 0 0 851 0 0 0 0 0 0 0 0 848 0 0 850 582 0 0 0 0 constr
S 832 7 6 0 0 122 1 582 5864 10a00004 51 A 0 0 0 0 0 0 862 0 0 0 864 0 0 0 0 0 0 0 0 861 0 0 863 582 0 0 0 0 lagrange
S 833 7 6 0 0 116 1 582 5873 10a00004 51 A 0 0 0 0 0 0 857 0 0 0 859 0 0 0 0 0 0 0 0 856 0 0 858 582 0 0 0 0 constr_target
S 834 6 4 0 0 9 1 582 5887 4 0 A 0 0 0 0 0 8 0 0 0 0 0 0 866 0 0 0 0 0 0 0 0 0 0 582 0 0 0 0 dmax
S 835 6 4 0 0 6 845 582 5473 40800016 0 A 0 0 0 0 0 0 0 0 0 0 0 0 867 0 0 0 0 0 0 0 0 0 0 582 0 0 0 0 z_b_0
S 836 3 0 0 0 6 0 1 0 0 0 A 0 0 0 0 0 0 0 0 0 18 0 0 0 0 0 0 0 0 0 0 0 0 0 0 0 0 0 0 6
S 837 8 4 0 0 107 849 582 5892 40822064 1020 A 0 0 0 0 0 0 0 0 0 0 0 0 865 0 0 0 0 0 0 0 0 0 0 582 0 0 0 0 constr_type$sd
S 838 6 4 0 0 7 839 582 5907 40802061 1020 A 0 0 0 0 0 72 0 0 0 0 0 0 865 0 0 0 0 0 0 0 0 0 0 582 0 0 0 0 constr_type$p
S 839 6 4 0 0 7 837 582 5921 40802060 1020 A 0 0 0 0 0 80 0 0 0 0 0 0 865 0 0 0 0 0 0 0 0 0 0 582 0 0 0 0 constr_type$o
S 840 22 1 0 0 9 1 582 5935 40000000 1000 A 0 0 0 0 0 0 0 830 0 0 0 0 837 0 0 0 0 0 0 0 0 0 0 582 0 0 0 0 constr_type$arrdsc
S 841 3 0 0 0 6 0 1 0 0 0 A 0 0 0 0 0 0 0 0 0 13 0 0 0 0 0 0 0 0 0 0 0 0 0 0 0 0 0 0 6
S 842 3 0 0 0 6 0 1 0 0 0 A 0 0 0 0 0 0 0 0 0 14 0 0 0 0 0 0 0 0 0 0 0 0 0 0 0 0 0 0 6
S 843 3 0 0 0 6 0 1 0 0 0 A 0 0 0 0 0 0 0 0 0 17 0 0 0 0 0 0 0 0 0 0 0 0 0 0 0 0 0 0 6
S 844 3 0 0 0 6 0 1 0 0 0 A 0 0 0 0 0 0 0 0 0 7 0 0 0 0 0 0 0 0 0 0 0 0 0 0 0 0 0 0 6
S 845 6 4 0 0 6 846 582 5954 40800016 0 A 0 0 0 0 0 4 0 0 0 0 0 0 867 0 0 0 0 0 0 0 0 0 0 582 0 0 0 0 z_b_1
S 846 6 4 0 0 6 855 582 5479 40800016 0 A 0 0 0 0 0 8 0 0 0 0 0 0 867 0 0 0 0 0 0 0 0 0 0 582 0 0 0 0 z_b_2
S 847 3 0 0 0 6 0 1 0 0 0 A 0 0 0 0 0 0 0 0 0 24 0 0 0 0 0 0 0 0 0 0 0 0 0 0 0 0 0 0 6
S 848 8 4 0 0 113 862 582 5960 40822064 1020 A 0 0 0 0 0 88 0 0 0 0 0 0 865 0 0 0 0 0 0 0 0 0 0 582 0 0 0 0 constr$sd
S 849 6 4 0 0 7 850 582 5970 40802061 1020 A 0 0 0 0 0 184 0 0 0 0 0 0 865 0 0 0 0 0 0 0 0 0 0 582 0 0 0 0 constr$p
S 850 6 4 0 0 7 848 582 5979 40802060 1020 A 0 0 0 0 0 192 0 0 0 0 0 0 865 0 0 0 0 0 0 0 0 0 0 582 0 0 0 0 constr$o
S 851 22 1 0 0 9 1 582 5988 40000000 1000 A 0 0 0 0 0 0 0 831 0 0 0 0 848 0 0 0 0 0 0 0 0 0 0 582 0 0 0 0 constr$arrdsc
S 852 3 0 0 0 6 0 1 0 0 0 A 0 0 0 0 0 0 0 0 0 19 0 0 0 0 0 0 0 0 0 0 0 0 0 0 0 0 0 0 6
S 853 3 0 0 0 6 0 1 0 0 0 A 0 0 0 0 0 0 0 0 0 20 0 0 0 0 0 0 0 0 0 0 0 0 0 0 0 0 0 0 6
S 854 3 0 0 0 6 0 1 0 0 0 A 0 0 0 0 0 0 0 0 0 23 0 0 0 0 0 0 0 0 0 0 0 0 0 0 0 0 0 0 6
S 855 6 4 0 0 6 860 582 5485 40800016 0 A 0 0 0 0 0 12 0 0 0 0 0 0 867 0 0 0 0 0 0 0 0 0 0 582 0 0 0 0 z_b_3
S 856 8 4 0 0 119 828 582 6002 40822064 1020 A 0 0 0 0 0 200 0 0 0 0 0 0 865 0 0 0 0 0 0 0 0 0 0 582 0 0 0 0 constr_target$sd
S 857 6 4 0 0 7 858 582 6019 40802061 1020 A 0 0 0 0 0 272 0 0 0 0 0 0 865 0 0 0 0 0 0 0 0 0 0 582 0 0 0 0 constr_target$p
S 858 6 4 0 0 7 856 582 6035 40802060 1020 A 0 0 0 0 0 280 0 0 0 0 0 0 865 0 0 0 0 0 0 0 0 0 0 582 0 0 0 0 constr_target$o
S 859 22 1 0 0 9 1 582 6051 40000000 1000 A 0 0 0 0 0 0 0 833 0 0 0 0 856 0 0 0 0 0 0 0 0 0 0 582 0 0 0 0 constr_target$arrdsc
S 860 6 4 0 0 6 1 582 5498 40800016 0 A 0 0 0 0 0 16 0 0 0 0 0 0 867 0 0 0 0 0 0 0 0 0 0 582 0 0 0 0 z_b_4
S 861 8 4 0 0 125 857 582 6072 40822064 1020 A 0 0 0 0 0 288 0 0 0 0 0 0 865 0 0 0 0 0 0 0 0 0 0 582 0 0 0 0 lagrange$sd
S 862 6 4 0 0 7 863 582 6084 40802061 1020 A 0 0 0 0 0 360 0 0 0 0 0 0 865 0 0 0 0 0 0 0 0 0 0 582 0 0 0 0 lagrange$p
S 863 6 4 0 0 7 861 582 6095 40802060 1020 A 0 0 0 0 0 368 0 0 0 0 0 0 865 0 0 0 0 0 0 0 0 0 0 582 0 0 0 0 lagrange$o
S 864 22 1 0 0 6 1 582 6106 40000000 1000 A 0 0 0 0 0 0 0 832 0 0 0 0 861 0 0 0 0 0 0 0 0 0 0 582 0 0 0 0 lagrange$arrdsc
S 865 11 0 0 0 9 706 582 6122 40800000 801000 A 0 0 0 0 0 380 0 0 838 828 0 0 0 0 0 0 0 0 0 0 0 0 0 0 0 0 0 0 _constraints_module$0
S 866 11 0 0 0 9 865 582 6144 40800000 801000 A 0 0 0 0 0 16 0 0 829 834 0 0 0 0 0 0 0 0 0 0 0 0 0 0 0 0 0 0 _constraints_module$2
S 867 11 0 0 0 9 866 582 6166 40800010 801000 A 0 0 0 0 0 20 0 0 835 860 0 0 0 0 0 0 0 0 0 0 0 0 0 0 0 0 0 0 _constraints_module$4
S 868 23 5 0 0 0 873 582 5716 0 0 A 0 0 0 0 0 0 0 0 0 0 0 0 0 0 0 0 0 0 0 0 0 0 0 0 0 0 0 0 init_constraint
S 869 6 3 1 0 6 1 868 6188 14 3000 A 0 0 0 0 0 0 0 0 0 0 0 0 0 0 0 0 0 0 0 0 0 0 0 0 0 0 0 0 nat
S 870 7 3 1 0 128 1 868 6192 214 3000 A 0 0 0 0 0 0 0 0 0 0 0 0 0 0 0 0 0 0 0 0 0 0 0 0 0 0 0 0 tau
S 871 7 3 1 0 131 1 868 6196 214 3000 A 0 0 0 0 0 0 0 0 0 0 0 0 0 0 0 0 0 0 0 0 0 0 0 0 0 0 0 0 ityp
S 872 1 3 1 0 9 1 868 6201 14 3000 A 0 0 0 0 0 0 0 0 0 0 0 0 0 0 0 0 0 0 0 0 0 0 0 0 0 0 0 0 tau_units
S 873 14 5 0 0 0 1 868 5716 0 400000 A 0 0 0 0 0 0 0 32 4 0 0 0 0 0 0 0 0 0 0 0 0 94 0 582 0 0 0 0 init_constraint
F 873 4 869 870 871 872
S 874 3 0 0 0 6 1 1 0 0 0 A 0 0 0 0 0 0 0 0 0 3 0 0 0 0 0 0 0 0 0 0 0 0 0 0 0 0 0 0 6
S 875 6 1 0 0 6 1 868 6211 40000016 3000 A 0 0 0 0 0 0 0 0 0 0 0 0 0 0 0 0 0 0 0 0 0 0 0 0 0 0 0 0 z_e_470
S 876 6 1 0 0 6 1 868 6219 40000016 3000 A 0 0 0 0 0 0 0 0 0 0 0 0 0 0 0 0 0 0 0 0 0 0 0 0 0 0 0 0 z_e_472
S 877 23 5 0 0 0 886 582 6227 10 0 A 0 0 0 0 0 0 0 0 0 0 0 0 0 0 0 0 0 0 0 0 0 0 0 0 0 0 0 0 constraint_grad
S 878 1 3 1 0 6 1 877 6243 14 3000 A 0 0 0 0 0 0 0 0 0 0 0 0 0 0 0 0 0 0 0 0 0 0 0 0 0 0 0 0 idx
S 879 1 3 1 0 6 1 877 6188 14 3000 A 0 0 0 0 0 0 0 0 0 0 0 0 0 0 0 0 0 0 0 0 0 0 0 0 0 0 0 0 nat
S 880 7 3 1 0 134 1 877 6192 20000014 10003000 A 0 0 0 0 0 0 0 0 0 0 0 0 0 0 0 0 0 0 0 0 0 0 0 0 0 0 0 0 tau
S 881 7 3 1 0 137 1 877 6247 20000014 10003000 A 0 0 0 0 0 0 0 0 0 0 0 0 0 0 0 0 0 0 0 0 0 0 0 0 0 0 0 0 if_pos
S 882 7 3 1 0 140 1 877 6196 20000014 10003000 A 0 0 0 0 0 0 0 0 0 0 0 0 0 0 0 0 0 0 0 0 0 0 0 0 0 0 0 0 ityp
S 883 1 3 1 0 9 1 877 6201 14 3000 A 0 0 0 0 0 0 0 0 0 0 0 0 0 0 0 0 0 0 0 0 0 0 0 0 0 0 0 0 tau_units
S 884 1 3 2 0 9 1 877 6254 14 3000 A 0 0 0 0 0 0 0 0 0 0 0 0 0 0 0 0 0 0 0 0 0 0 0 0 0 0 0 0 g
S 885 7 3 2 0 143 1 877 6256 20000014 10003000 A 0 0 0 0 0 0 0 0 0 0 0 0 0 0 0 0 0 0 0 0 0 0 0 0 0 0 0 0 dg
S 886 14 5 0 0 0 1 877 6227 20000010 400000 A 0 0 0 0 0 0 0 37 8 0 0 0 0 0 0 0 0 0 0 0 0 761 0 582 0 0 0 0 constraint_grad
F 886 8 878 879 880 881 882 883 884 885
S 887 6 1 0 0 6 1 877 6259 40800016 3000 A 0 0 0 0 0 0 0 0 0 0 0 0 0 0 0 0 0 0 0 0 0 0 0 0 0 0 0 0 z_b_0_1
S 888 6 1 0 0 6 1 877 6267 40800016 3000 A 0 0 0 0 0 0 0 0 0 0 0 0 0 0 0 0 0 0 0 0 0 0 0 0 0 0 0 0 z_b_2_1
S 889 6 1 0 0 6 1 877 6275 40800016 3000 A 0 0 0 0 0 0 0 0 0 0 0 0 0 0 0 0 0 0 0 0 0 0 0 0 0 0 0 0 z_b_3_1
S 890 6 1 0 0 6 1 877 6283 40800016 3000 A 0 0 0 0 0 0 0 0 0 0 0 0 0 0 0 0 0 0 0 0 0 0 0 0 0 0 0 0 z_b_5
S 891 6 1 0 0 6 1 877 5504 40800016 3000 A 0 0 0 0 0 0 0 0 0 0 0 0 0 0 0 0 0 0 0 0 0 0 0 0 0 0 0 0 z_b_6
S 892 6 1 0 0 6 1 877 6289 40800016 3000 A 0 0 0 0 0 0 0 0 0 0 0 0 0 0 0 0 0 0 0 0 0 0 0 0 0 0 0 0 z_e_250
S 893 6 1 0 0 6 1 877 6297 40800016 3000 A 0 0 0 0 0 0 0 0 0 0 0 0 0 0 0 0 0 0 0 0 0 0 0 0 0 0 0 0 z_e_253
S 894 6 1 0 0 6 1 877 5510 40800016 3000 A 0 0 0 0 0 0 0 0 0 0 0 0 0 0 0 0 0 0 0 0 0 0 0 0 0 0 0 0 z_b_7
S 895 6 1 0 0 6 1 877 5571 40800016 3000 A 0 0 0 0 0 0 0 0 0 0 0 0 0 0 0 0 0 0 0 0 0 0 0 0 0 0 0 0 z_b_9
S 896 6 1 0 0 6 1 877 5577 40800016 3000 A 0 0 0 0 0 0 0 0 0 0 0 0 0 0 0 0 0 0 0 0 0 0 0 0 0 0 0 0 z_b_10
S 897 6 1 0 0 6 1 877 6305 40800016 3000 A 0 0 0 0 0 0 0 0 0 0 0 0 0 0 0 0 0 0 0 0 0 0 0 0 0 0 0 0 z_b_12
S 898 6 1 0 0 6 1 877 6312 40800016 3000 A 0 0 0 0 0 0 0 0 0 0 0 0 0 0 0 0 0 0 0 0 0 0 0 0 0 0 0 0 z_b_13
S 899 6 1 0 0 6 1 877 6319 40800016 3000 A 0 0 0 0 0 0 0 0 0 0 0 0 0 0 0 0 0 0 0 0 0 0 0 0 0 0 0 0 z_e_263
S 900 6 1 0 0 6 1 877 6327 40800016 3000 A 0 0 0 0 0 0 0 0 0 0 0 0 0 0 0 0 0 0 0 0 0 0 0 0 0 0 0 0 z_e_266
S 901 6 1 0 0 6 1 877 6335 40800016 3000 A 0 0 0 0 0 0 0 0 0 0 0 0 0 0 0 0 0 0 0 0 0 0 0 0 0 0 0 0 z_b_14
S 902 6 1 0 0 6 1 877 6342 40800016 3000 A 0 0 0 0 0 0 0 0 0 0 0 0 0 0 0 0 0 0 0 0 0 0 0 0 0 0 0 0 z_b_16
S 903 6 1 0 0 6 1 877 6349 40800016 3000 A 0 0 0 0 0 0 0 0 0 0 0 0 0 0 0 0 0 0 0 0 0 0 0 0 0 0 0 0 z_b_17
S 904 6 1 0 0 6 1 877 6356 40800016 3000 A 0 0 0 0 0 0 0 0 0 0 0 0 0 0 0 0 0 0 0 0 0 0 0 0 0 0 0 0 z_e_273
S 905 6 1 0 0 6 1 877 6364 40800016 3000 A 0 0 0 0 0 0 0 0 0 0 0 0 0 0 0 0 0 0 0 0 0 0 0 0 0 0 0 0 z_b_18
S 906 6 1 0 0 6 1 877 6371 40800016 3000 A 0 0 0 0 0 0 0 0 0 0 0 0 0 0 0 0 0 0 0 0 0 0 0 0 0 0 0 0 z_b_20
S 907 6 1 0 0 6 1 877 6378 40800016 3000 A 0 0 0 0 0 0 0 0 0 0 0 0 0 0 0 0 0 0 0 0 0 0 0 0 0 0 0 0 z_b_21
S 908 6 1 0 0 6 1 877 6385 40800016 3000 A 0 0 0 0 0 0 0 0 0 0 0 0 0 0 0 0 0 0 0 0 0 0 0 0 0 0 0 0 z_b_23
S 909 6 1 0 0 6 1 877 6392 40800016 3000 A 0 0 0 0 0 0 0 0 0 0 0 0 0 0 0 0 0 0 0 0 0 0 0 0 0 0 0 0 z_b_24
S 910 6 1 0 0 6 1 877 6399 40800016 3000 A 0 0 0 0 0 0 0 0 0 0 0 0 0 0 0 0 0 0 0 0 0 0 0 0 0 0 0 0 z_e_283
S 911 6 1 0 0 6 1 877 6407 40800016 3000 A 0 0 0 0 0 0 0 0 0 0 0 0 0 0 0 0 0 0 0 0 0 0 0 0 0 0 0 0 z_e_286
S 912 23 5 0 0 0 922 582 5732 0 0 A 0 0 0 0 0 0 0 0 0 0 0 0 0 0 0 0 0 0 0 0 0 0 0 0 0 0 0 0 check_constraint
S 913 6 3 1 0 6 1 912 6188 800014 3000 A 0 0 0 0 0 0 0 0 0 0 0 0 0 0 0 0 0 0 0 0 0 0 0 0 0 0 0 0 nat
S 914 7 3 3 0 146 1 912 6415 800214 3000 A 0 0 0 0 0 0 0 0 0 0 0 0 0 0 0 0 0 0 0 0 0 0 0 0 0 0 0 0 taup
S 915 7 3 1 0 149 1 912 6420 800214 3000 A 0 0 0 0 0 0 0 0 0 0 0 0 0 0 0 0 0 0 0 0 0 0 0 0 0 0 0 0 tau0
S 916 7 3 3 0 155 1 912 6425 800214 3000 A 0 0 0 0 0 0 0 0 0 0 0 0 0 0 0 0 0 0 0 0 0 0 0 0 0 0 0 0 force
S 917 7 3 1 0 152 1 912 6247 800214 3000 A 0 0 0 0 0 0 0 0 0 0 0 0 0 0 0 0 0 0 0 0 0 0 0 0 0 0 0 0 if_pos
S 918 7 3 1 0 158 1 912 6196 800214 3000 A 0 0 0 0 0 0 0 0 0 0 0 0 0 0 0 0 0 0 0 0 0 0 0 0 0 0 0 0 ityp
S 919 1 3 1 0 9 1 912 6201 14 3000 A 0 0 0 0 0 0 0 0 0 0 0 0 0 0 0 0 0 0 0 0 0 0 0 0 0 0 0 0 tau_units
S 920 1 3 1 0 9 1 912 6431 14 3000 A 0 0 0 0 0 0 0 0 0 0 0 0 0 0 0 0 0 0 0 0 0 0 0 0 0 0 0 0 dt
S 921 1 3 1 0 9 1 912 6434 14 3000 A 0 0 0 0 0 0 0 0 0 0 0 0 0 0 0 0 0 0 0 0 0 0 0 0 0 0 0 0 massconv
S 922 14 5 0 0 0 1 912 5732 200 400000 A 0 0 0 0 0 0 0 46 9 0 0 0 0 0 0 0 0 0 0 0 0 1106 0 582 0 0 0 0 check_constraint
F 922 9 913 914 915 916 917 918 919 920 921
S 923 6 1 0 0 6 1 912 6443 40800016 3000 A 0 0 0 0 0 0 0 0 0 0 0 0 0 0 0 0 0 0 0 0 0 0 0 0 0 0 0 0 z_e_792
S 924 6 1 0 0 6 1 912 6451 40800016 3000 A 0 0 0 0 0 0 0 0 0 0 0 0 0 0 0 0 0 0 0 0 0 0 0 0 0 0 0 0 z_e_794
S 925 23 5 0 0 0 932 582 5749 0 0 A 0 0 0 0 0 0 0 0 0 0 0 0 0 0 0 0 0 0 0 0 0 0 0 0 0 0 0 0 remove_constr_force
S 926 1 3 1 0 6 1 925 6188 14 3000 A 0 0 0 0 0 0 0 0 0 0 0 0 0 0 0 0 0 0 0 0 0 0 0 0 0 0 0 0 nat
S 927 7 3 1 0 161 1 925 6192 20000014 10003000 A 0 0 0 0 0 0 0 0 0 0 0 0 0 0 0 0 0 0 0 0 0 0 0 0 0 0 0 0 tau
S 928 7 3 1 0 164 1 925 6247 20000014 10003000 A 0 0 0 0 0 0 0 0 0 0 0 0 0 0 0 0 0 0 0 0 0 0 0 0 0 0 0 0 if_pos
S 929 7 3 1 0 167 1 925 6196 20000014 10003000 A 0 0 0 0 0 0 0 0 0 0 0 0 0 0 0 0 0 0 0 0 0 0 0 0 0 0 0 0 ityp
S 930 1 3 1 0 9 1 925 6201 14 3000 A 0 0 0 0 0 0 0 0 0 0 0 0 0 0 0 0 0 0 0 0 0 0 0 0 0 0 0 0 tau_units
S 931 7 3 3 0 170 1 925 6425 20000014 10003000 A 0 0 0 0 0 0 0 0 0 0 0 0 0 0 0 0 0 0 0 0 0 0 0 0 0 0 0 0 force
S 932 14 5 0 0 0 1 925 5749 20000000 400000 A 0 0 0 0 0 0 0 56 6 0 0 0 0 0 0 0 0 0 0 0 0 1244 0 582 0 0 0 0 remove_constr_force
F 932 6 926 927 928 929 930 931
S 933 6 1 0 0 6 1 925 6259 40800016 3000 A 0 0 0 0 0 0 0 0 0 0 0 0 0 0 0 0 0 0 0 0 0 0 0 0 0 0 0 0 z_b_0_1
S 934 6 1 0 0 6 1 925 6267 40800016 3000 A 0 0 0 0 0 0 0 0 0 0 0 0 0 0 0 0 0 0 0 0 0 0 0 0 0 0 0 0 z_b_2_1
S 935 6 1 0 0 6 1 925 6275 40800016 3000 A 0 0 0 0 0 0 0 0 0 0 0 0 0 0 0 0 0 0 0 0 0 0 0 0 0 0 0 0 z_b_3_1
S 936 6 1 0 0 6 1 925 6283 40800016 3000 A 0 0 0 0 0 0 0 0 0 0 0 0 0 0 0 0 0 0 0 0 0 0 0 0 0 0 0 0 z_b_5
S 937 6 1 0 0 6 1 925 5504 40800016 3000 A 0 0 0 0 0 0 0 0 0 0 0 0 0 0 0 0 0 0 0 0 0 0 0 0 0 0 0 0 z_b_6
S 938 6 1 0 0 6 1 925 6459 40800016 3000 A 0 0 0 0 0 0 0 0 0 0 0 0 0 0 0 0 0 0 0 0 0 0 0 0 0 0 0 0 z_e_278
S 939 6 1 0 0 6 1 925 6467 40800016 3000 A 0 0 0 0 0 0 0 0 0 0 0 0 0 0 0 0 0 0 0 0 0 0 0 0 0 0 0 0 z_e_281
S 940 6 1 0 0 6 1 925 5510 40800016 3000 A 0 0 0 0 0 0 0 0 0 0 0 0 0 0 0 0 0 0 0 0 0 0 0 0 0 0 0 0 z_b_7
S 941 6 1 0 0 6 1 925 5571 40800016 3000 A 0 0 0 0 0 0 0 0 0 0 0 0 0 0 0 0 0 0 0 0 0 0 0 0 0 0 0 0 z_b_9
S 942 6 1 0 0 6 1 925 5577 40800016 3000 A 0 0 0 0 0 0 0 0 0 0 0 0 0 0 0 0 0 0 0 0 0 0 0 0 0 0 0 0 z_b_10
S 943 6 1 0 0 6 1 925 6305 40800016 3000 A 0 0 0 0 0 0 0 0 0 0 0 0 0 0 0 0 0 0 0 0 0 0 0 0 0 0 0 0 z_b_12
S 944 6 1 0 0 6 1 925 6312 40800016 3000 A 0 0 0 0 0 0 0 0 0 0 0 0 0 0 0 0 0 0 0 0 0 0 0 0 0 0 0 0 z_b_13
S 945 6 1 0 0 6 1 925 6475 40800016 3000 A 0 0 0 0 0 0 0 0 0 0 0 0 0 0 0 0 0 0 0 0 0 0 0 0 0 0 0 0 z_e_291
S 946 6 1 0 0 6 1 925 6483 40800016 3000 A 0 0 0 0 0 0 0 0 0 0 0 0 0 0 0 0 0 0 0 0 0 0 0 0 0 0 0 0 z_e_294
S 947 6 1 0 0 6 1 925 6335 40800016 3000 A 0 0 0 0 0 0 0 0 0 0 0 0 0 0 0 0 0 0 0 0 0 0 0 0 0 0 0 0 z_b_14
S 948 6 1 0 0 6 1 925 6342 40800016 3000 A 0 0 0 0 0 0 0 0 0 0 0 0 0 0 0 0 0 0 0 0 0 0 0 0 0 0 0 0 z_b_16
S 949 6 1 0 0 6 1 925 6349 40800016 3000 A 0 0 0 0 0 0 0 0 0 0 0 0 0 0 0 0 0 0 0 0 0 0 0 0 0 0 0 0 z_b_17
S 950 6 1 0 0 6 1 925 6491 40800016 3000 A 0 0 0 0 0 0 0 0 0 0 0 0 0 0 0 0 0 0 0 0 0 0 0 0 0 0 0 0 z_e_301
S 951 6 1 0 0 6 1 925 6364 40800016 3000 A 0 0 0 0 0 0 0 0 0 0 0 0 0 0 0 0 0 0 0 0 0 0 0 0 0 0 0 0 z_b_18
S 952 6 1 0 0 6 1 925 6371 40800016 3000 A 0 0 0 0 0 0 0 0 0 0 0 0 0 0 0 0 0 0 0 0 0 0 0 0 0 0 0 0 z_b_20
S 953 6 1 0 0 6 1 925 6378 40800016 3000 A 0 0 0 0 0 0 0 0 0 0 0 0 0 0 0 0 0 0 0 0 0 0 0 0 0 0 0 0 z_b_21
S 954 6 1 0 0 6 1 925 6385 40800016 3000 A 0 0 0 0 0 0 0 0 0 0 0 0 0 0 0 0 0 0 0 0 0 0 0 0 0 0 0 0 z_b_23
S 955 6 1 0 0 6 1 925 6392 40800016 3000 A 0 0 0 0 0 0 0 0 0 0 0 0 0 0 0 0 0 0 0 0 0 0 0 0 0 0 0 0 z_b_24
S 956 6 1 0 0 6 1 925 6499 40800016 3000 A 0 0 0 0 0 0 0 0 0 0 0 0 0 0 0 0 0 0 0 0 0 0 0 0 0 0 0 0 z_e_311
S 957 6 1 0 0 6 1 925 6507 40800016 3000 A 0 0 0 0 0 0 0 0 0 0 0 0 0 0 0 0 0 0 0 0 0 0 0 0 0 0 0 0 z_e_314
S 958 23 5 0 0 0 965 582 5769 0 0 A 0 0 0 0 0 0 0 0 0 0 0 0 0 0 0 0 0 0 0 0 0 0 0 0 0 0 0 0 remove_constr_vec
S 959 1 3 1 0 6 1 958 6188 14 3000 A 0 0 0 0 0 0 0 0 0 0 0 0 0 0 0 0 0 0 0 0 0 0 0 0 0 0 0 0 nat
S 960 7 3 1 0 173 1 958 6192 20000014 10003000 A 0 0 0 0 0 0 0 0 0 0 0 0 0 0 0 0 0 0 0 0 0 0 0 0 0 0 0 0 tau
S 961 7 3 1 0 176 1 958 6247 20000014 10003000 A 0 0 0 0 0 0 0 0 0 0 0 0 0 0 0 0 0 0 0 0 0 0 0 0 0 0 0 0 if_pos
S 962 7 3 1 0 179 1 958 6196 20000014 10003000 A 0 0 0 0 0 0 0 0 0 0 0 0 0 0 0 0 0 0 0 0 0 0 0 0 0 0 0 0 ityp
S 963 1 3 1 0 9 1 958 6201 14 3000 A 0 0 0 0 0 0 0 0 0 0 0 0 0 0 0 0 0 0 0 0 0 0 0 0 0 0 0 0 tau_units
S 964 7 3 3 0 182 1 958 5549 20000014 10003000 A 0 0 0 0 0 0 0 0 0 0 0 0 0 0 0 0 0 0 0 0 0 0 0 0 0 0 0 0 vec
S 965 14 5 0 0 0 1 958 5769 20000000 400000 A 0 0 0 0 0 0 0 63 6 0 0 0 0 0 0 0 0 0 0 0 0 1362 0 582 0 0 0 0 remove_constr_vec
F 965 6 959 960 961 962 963 964
S 966 6 1 0 0 6 1 958 6259 40800016 3000 A 0 0 0 0 0 0 0 0 0 0 0 0 0 0 0 0 0 0 0 0 0 0 0 0 0 0 0 0 z_b_0_1
S 967 6 1 0 0 6 1 958 6267 40800016 3000 A 0 0 0 0 0 0 0 0 0 0 0 0 0 0 0 0 0 0 0 0 0 0 0 0 0 0 0 0 z_b_2_1
S 968 6 1 0 0 6 1 958 6275 40800016 3000 A 0 0 0 0 0 0 0 0 0 0 0 0 0 0 0 0 0 0 0 0 0 0 0 0 0 0 0 0 z_b_3_1
S 969 6 1 0 0 6 1 958 6283 40800016 3000 A 0 0 0 0 0 0 0 0 0 0 0 0 0 0 0 0 0 0 0 0 0 0 0 0 0 0 0 0 z_b_5
S 970 6 1 0 0 6 1 958 5504 40800016 3000 A 0 0 0 0 0 0 0 0 0 0 0 0 0 0 0 0 0 0 0 0 0 0 0 0 0 0 0 0 z_b_6
S 971 6 1 0 0 6 1 958 6515 40800016 3000 A 0 0 0 0 0 0 0 0 0 0 0 0 0 0 0 0 0 0 0 0 0 0 0 0 0 0 0 0 z_e_303
S 972 6 1 0 0 6 1 958 6523 40800016 3000 A 0 0 0 0 0 0 0 0 0 0 0 0 0 0 0 0 0 0 0 0 0 0 0 0 0 0 0 0 z_e_306
S 973 6 1 0 0 6 1 958 5510 40800016 3000 A 0 0 0 0 0 0 0 0 0 0 0 0 0 0 0 0 0 0 0 0 0 0 0 0 0 0 0 0 z_b_7
S 974 6 1 0 0 6 1 958 5571 40800016 3000 A 0 0 0 0 0 0 0 0 0 0 0 0 0 0 0 0 0 0 0 0 0 0 0 0 0 0 0 0 z_b_9
S 975 6 1 0 0 6 1 958 5577 40800016 3000 A 0 0 0 0 0 0 0 0 0 0 0 0 0 0 0 0 0 0 0 0 0 0 0 0 0 0 0 0 z_b_10
S 976 6 1 0 0 6 1 958 6305 40800016 3000 A 0 0 0 0 0 0 0 0 0 0 0 0 0 0 0 0 0 0 0 0 0 0 0 0 0 0 0 0 z_b_12
S 977 6 1 0 0 6 1 958 6312 40800016 3000 A 0 0 0 0 0 0 0 0 0 0 0 0 0 0 0 0 0 0 0 0 0 0 0 0 0 0 0 0 z_b_13
S 978 6 1 0 0 6 1 958 6531 40800016 3000 A 0 0 0 0 0 0 0 0 0 0 0 0 0 0 0 0 0 0 0 0 0 0 0 0 0 0 0 0 z_e_316
S 979 6 1 0 0 6 1 958 6539 40800016 3000 A 0 0 0 0 0 0 0 0 0 0 0 0 0 0 0 0 0 0 0 0 0 0 0 0 0 0 0 0 z_e_319
S 980 6 1 0 0 6 1 958 6335 40800016 3000 A 0 0 0 0 0 0 0 0 0 0 0 0 0 0 0 0 0 0 0 0 0 0 0 0 0 0 0 0 z_b_14
S 981 6 1 0 0 6 1 958 6342 40800016 3000 A 0 0 0 0 0 0 0 0 0 0 0 0 0 0 0 0 0 0 0 0 0 0 0 0 0 0 0 0 z_b_16
S 982 6 1 0 0 6 1 958 6349 40800016 3000 A 0 0 0 0 0 0 0 0 0 0 0 0 0 0 0 0 0 0 0 0 0 0 0 0 0 0 0 0 z_b_17
S 983 6 1 0 0 6 1 958 6547 40800016 3000 A 0 0 0 0 0 0 0 0 0 0 0 0 0 0 0 0 0 0 0 0 0 0 0 0 0 0 0 0 z_e_326
S 984 6 1 0 0 6 1 958 6364 40800016 3000 A 0 0 0 0 0 0 0 0 0 0 0 0 0 0 0 0 0 0 0 0 0 0 0 0 0 0 0 0 z_b_18
S 985 6 1 0 0 6 1 958 6371 40800016 3000 A 0 0 0 0 0 0 0 0 0 0 0 0 0 0 0 0 0 0 0 0 0 0 0 0 0 0 0 0 z_b_20
S 986 6 1 0 0 6 1 958 6378 40800016 3000 A 0 0 0 0 0 0 0 0 0 0 0 0 0 0 0 0 0 0 0 0 0 0 0 0 0 0 0 0 z_b_21
S 987 6 1 0 0 6 1 958 6385 40800016 3000 A 0 0 0 0 0 0 0 0 0 0 0 0 0 0 0 0 0 0 0 0 0 0 0 0 0 0 0 0 z_b_23
S 988 6 1 0 0 6 1 958 6392 40800016 3000 A 0 0 0 0 0 0 0 0 0 0 0 0 0 0 0 0 0 0 0 0 0 0 0 0 0 0 0 0 z_b_24
S 989 6 1 0 0 6 1 958 6555 40800016 3000 A 0 0 0 0 0 0 0 0 0 0 0 0 0 0 0 0 0 0 0 0 0 0 0 0 0 0 0 0 z_e_336
S 990 6 1 0 0 6 1 958 6563 40800016 3000 A 0 0 0 0 0 0 0 0 0 0 0 0 0 0 0 0 0 0 0 0 0 0 0 0 0 0 0 0 z_e_339
S 991 23 5 0 0 0 992 582 5787 0 0 A 0 0 0 0 0 0 0 0 0 0 0 0 0 0 0 0 0 0 0 0 0 0 0 0 0 0 0 0 deallocate_constraint
S 992 14 5 0 0 0 1 991 5787 0 400000 A 0 0 0 0 0 0 0 70 0 0 0 0 0 0 0 0 0 0 0 0 0 1455 0 582 0 0 0 0 deallocate_constraint
F 992 0
S 993 23 5 0 0 9 995 582 5822 0 0 A 0 0 0 0 0 0 0 0 0 0 0 0 0 0 0 0 0 0 0 0 0 0 0 0 0 0 0 0 pbc
S 994 7 3 1 0 185 1 993 6571 800014 3000 A 0 0 0 0 0 0 0 0 0 0 0 0 0 0 0 0 0 0 0 0 0 0 0 0 0 0 0 0 vect
S 995 14 5 0 0 188 1 993 5822 4 400000 A 0 0 0 0 0 0 0 71 1 0 0 996 0 0 0 0 0 0 0 0 0 1471 0 582 0 0 0 0 pbc
F 995 1 994
S 996 7 3 0 0 188 1 993 5822 800014 1003000 A 0 0 0 0 0 0 0 0 0 0 0 0 0 0 0 0 0 0 0 0 0 0 0 0 0 0 0 0 pbc
S 997 23 5 0 0 0 998 582 5809 0 0 A 0 0 0 0 0 0 0 0 0 0 0 0 0 0 0 0 0 0 0 0 0 0 0 0 0 0 0 0 compute_dmax
S 998 14 5 0 0 0 1 997 5809 0 400000 A 0 0 0 0 0 0 0 73 0 0 0 0 0 0 0 0 0 0 0 0 0 1503 0 582 0 0 0 0 compute_dmax
F 998 0
A 13 2 0 0 0 6 594 0 0 0 13 0 0 0 0 0 0 0 0 0
A 15 2 0 0 0 6 595 0 0 0 15 0 0 0 0 0 0 0 0 0
A 188 2 0 0 0 6 836 0 0 0 188 0 0 0 0 0 0 0 0 0
A 189 2 0 0 0 6 841 0 0 0 189 0 0 0 0 0 0 0 0 0
A 190 1 0 11 0 107 837 0 0 0 0 0 0 0 0 0 0 0 0 0
A 191 10 0 0 108 6 190 1 0 0 0 0 0 0 0 0 0 0 0 0
X 1 189
A 192 2 0 0 0 6 842 0 0 0 192 0 0 0 0 0 0 0 0 0
A 193 10 0 0 191 6 190 4 0 0 0 0 0 0 0 0 0 0 0 0
X 1 192
A 194 4 0 0 157 6 193 0 3 0 0 0 0 2 0 0 0 0 0 0
A 195 4 0 0 0 6 191 0 194 0 0 0 0 1 0 0 0 0 0 0
A 196 2 0 0 5 6 843 0 0 0 196 0 0 0 0 0 0 0 0 0
A 197 10 0 0 193 6 190 7 0 0 0 0 0 0 0 0 0 0 0 0
X 1 196
A 198 2 0 0 0 6 844 0 0 0 198 0 0 0 0 0 0 0 0 0
A 199 10 0 0 197 6 190 10 0 0 0 0 0 0 0 0 0 0 0 0
X 1 198
A 200 10 0 0 199 6 190 13 0 0 0 0 0 0 0 0 0 0 0 0
X 1 13
A 203 2 0 0 0 6 847 0 0 0 203 0 0 0 0 0 0 0 0 0
A 204 1 0 13 0 113 848 0 0 0 0 0 0 0 0 0 0 0 0 0
A 205 10 0 0 145 6 204 1 0 0 0 0 0 0 0 0 0 0 0 0
X 1 189
A 206 10 0 0 205 6 204 4 0 0 0 0 0 0 0 0 0 0 0 0
X 1 192
A 207 4 0 0 166 6 206 0 3 0 0 0 0 2 0 0 0 0 0 0
A 208 4 0 0 24 6 205 0 207 0 0 0 0 1 0 0 0 0 0 0
A 209 2 0 0 0 6 852 0 0 0 209 0 0 0 0 0 0 0 0 0
A 210 10 0 0 206 6 204 16 0 0 0 0 0 0 0 0 0 0 0 0
X 1 209
A 211 2 0 0 0 6 853 0 0 0 211 0 0 0 0 0 0 0 0 0
A 212 10 0 0 210 6 204 19 0 0 0 0 0 0 0 0 0 0 0 0
X 1 211
A 213 4 0 0 0 6 212 0 3 0 0 0 0 2 0 0 0 0 0 0
A 214 4 0 0 125 6 210 0 213 0 0 0 0 1 0 0 0 0 0 0
A 215 10 0 0 212 6 204 7 0 0 0 0 0 0 0 0 0 0 0 0
X 1 196
A 216 2 0 0 0 6 854 0 0 0 216 0 0 0 0 0 0 0 0 0
A 217 10 0 0 215 6 204 22 0 0 0 0 0 0 0 0 0 0 0 0
X 1 216
A 218 10 0 0 217 6 204 10 0 0 0 0 0 0 0 0 0 0 0 0
X 1 198
A 219 10 0 0 218 6 204 13 0 0 0 0 0 0 0 0 0 0 0 0
X 1 13
A 221 1 0 11 0 119 856 0 0 0 0 0 0 0 0 0 0 0 0 0
A 222 10 0 0 41 6 221 1 0 0 0 0 0 0 0 0 0 0 0 0
X 1 189
A 223 10 0 0 222 6 221 4 0 0 0 0 0 0 0 0 0 0 0 0
X 1 192
A 224 4 0 0 0 6 223 0 3 0 0 0 0 2 0 0 0 0 0 0
A 225 4 0 0 0 6 222 0 224 0 0 0 0 1 0 0 0 0 0 0
A 226 10 0 0 223 6 221 7 0 0 0 0 0 0 0 0 0 0 0 0
X 1 196
A 227 10 0 0 226 6 221 10 0 0 0 0 0 0 0 0 0 0 0 0
X 1 198
A 228 10 0 0 227 6 221 13 0 0 0 0 0 0 0 0 0 0 0 0
X 1 13
A 230 1 0 11 0 125 861 0 0 0 0 0 0 0 0 0 0 0 0 0
A 231 10 0 0 112 6 230 1 0 0 0 0 0 0 0 0 0 0 0 0
X 1 189
A 232 10 0 0 231 6 230 4 0 0 0 0 0 0 0 0 0 0 0 0
X 1 192
A 233 4 0 0 0 6 232 0 3 0 0 0 0 2 0 0 0 0 0 0
A 234 4 0 0 0 6 231 0 233 0 0 0 0 1 0 0 0 0 0 0
A 235 10 0 0 232 6 230 7 0 0 0 0 0 0 0 0 0 0 0 0
X 1 196
A 236 10 0 0 235 6 230 10 0 0 0 0 0 0 0 0 0 0 0 0
X 1 198
A 237 10 0 0 236 6 230 13 0 0 0 0 0 0 0 0 0 0 0 0
X 1 13
A 238 2 0 0 0 6 874 0 0 0 238 0 0 0 0 0 0 0 0 0
A 239 1 0 0 0 6 869 0 0 0 0 0 0 0 0 0 0 0 0 0
A 240 1 0 0 0 6 875 0 0 0 0 0 0 0 0 0 0 0 0 0
A 241 1 0 0 0 6 876 0 0 0 0 0 0 0 0 0 0 0 0 0
A 242 1 0 0 0 6 891 0 0 0 0 0 0 0 0 0 0 0 0 0
A 243 1 0 0 0 6 887 0 0 0 0 0 0 0 0 0 0 0 0 0
A 244 1 0 0 0 6 892 0 0 0 0 0 0 0 0 0 0 0 0 0
A 245 1 0 0 0 6 889 0 0 0 0 0 0 0 0 0 0 0 0 0
A 246 1 0 0 0 6 888 0 0 0 0 0 0 0 0 0 0 0 0 0
A 247 1 0 0 0 6 893 0 0 0 0 0 0 0 0 0 0 0 0 0
A 248 1 0 0 0 6 890 0 0 0 0 0 0 0 0 0 0 0 0 0
A 249 1 0 0 0 6 898 0 0 0 0 0 0 0 0 0 0 0 0 0
A 250 1 0 0 0 6 894 0 0 0 0 0 0 0 0 0 0 0 0 0
A 251 1 0 0 0 6 899 0 0 0 0 0 0 0 0 0 0 0 0 0
A 252 1 0 0 0 6 896 0 0 0 0 0 0 0 0 0 0 0 0 0
A 253 1 0 0 0 6 895 0 0 0 0 0 0 0 0 0 0 0 0 0
A 254 1 0 0 0 6 900 0 0 0 0 0 0 0 0 0 0 0 0 0
A 255 1 0 0 195 6 897 0 0 0 0 0 0 0 0 0 0 0 0 0
A 256 1 0 0 0 6 903 0 0 0 0 0 0 0 0 0 0 0 0 0
A 257 1 0 0 0 6 901 0 0 0 0 0 0 0 0 0 0 0 0 0
A 258 1 0 0 0 6 904 0 0 0 0 0 0 0 0 0 0 0 0 0
A 259 1 0 0 0 6 902 0 0 0 0 0 0 0 0 0 0 0 0 0
A 260 1 0 0 0 6 909 0 0 0 0 0 0 0 0 0 0 0 0 0
A 261 1 0 0 204 6 905 0 0 0 0 0 0 0 0 0 0 0 0 0
A 262 1 0 0 0 6 910 0 0 0 0 0 0 0 0 0 0 0 0 0
A 263 1 0 0 0 6 907 0 0 0 0 0 0 0 0 0 0 0 0 0
A 264 1 0 0 0 6 906 0 0 0 0 0 0 0 0 0 0 0 0 0
A 265 1 0 0 0 6 911 0 0 0 0 0 0 0 0 0 0 0 0 0
A 266 1 0 0 0 6 908 0 0 0 0 0 0 0 0 0 0 0 0 0
A 267 1 0 0 221 6 913 0 0 0 0 0 0 0 0 0 0 0 0 0
A 268 1 0 0 0 6 923 0 0 0 0 0 0 0 0 0 0 0 0 0
A 269 1 0 0 0 6 924 0 0 0 0 0 0 0 0 0 0 0 0 0
A 270 1 0 0 0 6 937 0 0 0 0 0 0 0 0 0 0 0 0 0
A 271 1 0 0 0 6 933 0 0 0 0 0 0 0 0 0 0 0 0 0
A 272 1 0 0 0 6 938 0 0 0 0 0 0 0 0 0 0 0 0 0
A 273 1 0 0 0 6 935 0 0 0 0 0 0 0 0 0 0 0 0 0
A 274 1 0 0 0 6 934 0 0 0 0 0 0 0 0 0 0 0 0 0
A 275 1 0 0 0 6 939 0 0 0 0 0 0 0 0 0 0 0 0 0
A 276 1 0 0 0 6 936 0 0 0 0 0 0 0 0 0 0 0 0 0
A 277 1 0 0 0 6 944 0 0 0 0 0 0 0 0 0 0 0 0 0
A 278 1 0 0 0 6 940 0 0 0 0 0 0 0 0 0 0 0 0 0
A 279 1 0 0 0 6 945 0 0 0 0 0 0 0 0 0 0 0 0 0
A 280 1 0 0 0 6 942 0 0 0 0 0 0 0 0 0 0 0 0 0
A 281 1 0 0 0 6 941 0 0 0 0 0 0 0 0 0 0 0 0 0
A 282 1 0 0 0 6 946 0 0 0 0 0 0 0 0 0 0 0 0 0
A 283 1 0 0 0 6 943 0 0 0 0 0 0 0 0 0 0 0 0 0
A 284 1 0 0 0 6 949 0 0 0 0 0 0 0 0 0 0 0 0 0
A 285 1 0 0 0 6 947 0 0 0 0 0 0 0 0 0 0 0 0 0
A 286 1 0 0 0 6 950 0 0 0 0 0 0 0 0 0 0 0 0 0
A 287 1 0 0 188 6 948 0 0 0 0 0 0 0 0 0 0 0 0 0
A 288 1 0 0 196 6 955 0 0 0 0 0 0 0 0 0 0 0 0 0
A 289 1 0 0 0 6 951 0 0 0 0 0 0 0 0 0 0 0 0 0
A 290 1 0 0 198 6 956 0 0 0 0 0 0 0 0 0 0 0 0 0
A 291 1 0 0 189 6 953 0 0 0 0 0 0 0 0 0 0 0 0 0
A 292 1 0 0 0 6 952 0 0 0 0 0 0 0 0 0 0 0 0 0
A 293 1 0 0 7 6 957 0 0 0 0 0 0 0 0 0 0 0 0 0
A 294 1 0 0 192 6 954 0 0 0 0 0 0 0 0 0 0 0 0 0
A 295 1 0 0 0 6 970 0 0 0 0 0 0 0 0 0 0 0 0 0
A 296 1 0 0 216 6 966 0 0 0 0 0 0 0 0 0 0 0 0 0
A 297 1 0 0 0 6 971 0 0 0 0 0 0 0 0 0 0 0 0 0
A 298 1 0 0 0 6 968 0 0 0 0 0 0 0 0 0 0 0 0 0
A 299 1 0 0 0 6 967 0 0 0 0 0 0 0 0 0 0 0 0 0
A 300 1 0 0 0 6 972 0 0 0 0 0 0 0 0 0 0 0 0 0
A 301 1 0 0 0 6 969 0 0 0 0 0 0 0 0 0 0 0 0 0
A 302 1 0 0 0 6 977 0 0 0 0 0 0 0 0 0 0 0 0 0
A 303 1 0 0 0 6 973 0 0 0 0 0 0 0 0 0 0 0 0 0
A 304 1 0 0 0 6 978 0 0 0 0 0 0 0 0 0 0 0 0 0
A 305 1 0 0 0 6 975 0 0 0 0 0 0 0 0 0 0 0 0 0
A 306 1 0 0 0 6 974 0 0 0 0 0 0 0 0 0 0 0 0 0
A 307 1 0 0 0 6 979 0 0 0 0 0 0 0 0 0 0 0 0 0
A 308 1 0 0 0 6 976 0 0 0 0 0 0 0 0 0 0 0 0 0
A 309 1 0 0 0 6 982 0 0 0 0 0 0 0 0 0 0 0 0 0
A 310 1 0 0 0 6 980 0 0 0 0 0 0 0 0 0 0 0 0 0
A 311 1 0 0 0 6 983 0 0 0 0 0 0 0 0 0 0 0 0 0
A 312 1 0 0 0 6 981 0 0 0 0 0 0 0 0 0 0 0 0 0
A 313 1 0 0 0 6 988 0 0 0 0 0 0 0 0 0 0 0 0 0
A 314 1 0 0 0 6 984 0 0 0 0 0 0 0 0 0 0 0 0 0
A 315 1 0 0 0 6 989 0 0 0 0 0 0 0 0 0 0 0 0 0
A 316 1 0 0 238 6 986 0 0 0 0 0 0 0 0 0 0 0 0 0
A 317 1 0 0 0 6 985 0 0 0 0 0 0 0 0 0 0 0 0 0
A 318 1 0 0 0 6 990 0 0 0 0 0 0 0 0 0 0 0 0 0
A 319 1 0 0 0 6 987 0 0 0 0 0 0 0 0 0 0 0 0 0
Z
Z
