V26 control_flags
17 control_flags.F90 S582 0
04/24/2012  15:51:03
enduse
D 56 24 612 32 611 7
D 62 18 15
D 64 21 16 1 3 18 0 0 0 0 0
 0 18 3 3 18 18
D 67 21 9 1 3 18 0 0 0 0 0
 0 18 3 3 18 18
D 70 21 6 1 0 3 0 0 0 0 0
 0 3 0 3 3 0
S 582 24 0 0 0 9 1 0 4658 10015 0 A 0 0 0 0 0 0 0 0 0 0 0 0 0 0 0 0 0 0 0 0 0 11 0 0 0 0 0 0 control_flags
S 586 3 0 0 0 6 1 1 0 0 0 A 0 0 0 0 0 0 0 0 0 4 0 0 0 0 0 0 0 0 0 0 0 0 0 0 0 0 0 0 6
S 594 3 0 0 0 6 1 1 0 0 0 A 0 0 0 0 0 0 0 0 0 10 0 0 0 0 0 0 0 0 0 0 0 0 0 0 0 0 0 0 6
S 611 25 0 0 0 56 1 582 4789 10000004 800010 A 0 0 0 0 0 0 0 0 0 0 0 0 0 0 0 0 0 0 0 753 0 0 0 582 0 0 0 0 convergence_criteria
S 612 5 0 0 0 16 613 582 4810 800004 0 A 0 0 0 0 0 0 0 0 56 0 0 0 0 0 0 0 0 0 0 0 1 612 0 582 0 0 0 0 active
S 613 5 0 0 0 6 614 582 4817 800004 0 A 0 0 0 0 0 4 0 0 56 0 0 0 0 0 0 0 0 0 0 0 612 613 0 582 0 0 0 0 nstep
S 614 5 0 0 0 9 615 582 4823 800004 0 A 0 0 0 0 0 8 0 0 56 0 0 0 0 0 0 0 0 0 0 0 613 614 0 582 0 0 0 0 ekin
S 615 5 0 0 0 9 616 582 4828 800004 0 A 0 0 0 0 0 16 0 0 56 0 0 0 0 0 0 0 0 0 0 0 614 615 0 582 0 0 0 0 derho
S 616 5 0 0 0 9 1 582 4834 800004 0 A 0 0 0 0 0 24 0 0 56 0 0 0 0 0 0 0 0 0 0 0 615 616 0 582 0 0 0 0 force
S 617 6 4 0 0 16 618 582 4840 80000c 0 A 0 0 0 0 0 0 0 0 0 0 0 0 754 0 0 0 0 0 0 0 0 0 0 582 0 0 0 0 tbeg
S 618 6 4 0 0 6 619 582 4845 80000c 0 A 0 0 0 0 0 4 0 0 0 0 0 0 754 0 0 0 0 0 0 0 0 0 0 582 0 0 0 0 nomore
S 619 6 4 0 0 6 620 582 4852 80000c 0 A 0 0 0 0 0 8 0 0 0 0 0 0 754 0 0 0 0 0 0 0 0 0 0 582 0 0 0 0 nbeg
S 620 6 4 0 0 6 621 582 4857 80000c 0 A 0 0 0 0 0 12 0 0 0 0 0 0 754 0 0 0 0 0 0 0 0 0 0 582 0 0 0 0 isave
S 621 6 4 0 0 6 622 582 4863 80000c 0 A 0 0 0 0 0 16 0 0 0 0 0 0 754 0 0 0 0 0 0 0 0 0 0 582 0 0 0 0 iprint
S 622 6 4 0 0 16 623 582 4870 80000c 0 A 0 0 0 0 0 20 0 0 0 0 0 0 754 0 0 0 0 0 0 0 0 0 0 582 0 0 0 0 tv0rd
S 623 6 4 0 0 6 624 582 4876 80000c 0 A 0 0 0 0 0 24 0 0 0 0 0 0 754 0 0 0 0 0 0 0 0 0 0 582 0 0 0 0 nv0rd
S 624 6 4 0 0 16 625 582 4882 80000c 0 A 0 0 0 0 0 28 0 0 0 0 0 0 754 0 0 0 0 0 0 0 0 0 0 582 0 0 0 0 tzeroc
S 625 6 4 0 0 16 626 582 4889 80000c 0 A 0 0 0 0 0 32 0 0 0 0 0 0 754 0 0 0 0 0 0 0 0 0 0 582 0 0 0 0 tzerop
S 626 6 4 0 0 6 627 582 4896 80000c 0 A 0 0 0 0 0 36 0 0 0 0 0 0 754 0 0 0 0 0 0 0 0 0 0 582 0 0 0 0 newnfi
S 627 6 4 0 0 16 628 582 4903 80000c 0 A 0 0 0 0 0 40 0 0 0 0 0 0 754 0 0 0 0 0 0 0 0 0 0 582 0 0 0 0 tnewnfi
S 628 6 4 0 0 16 629 582 4911 80000c 0 A 0 0 0 0 0 44 0 0 0 0 0 0 754 0 0 0 0 0 0 0 0 0 0 582 0 0 0 0 tfor
S 629 6 4 0 0 16 630 582 4916 80000c 0 A 0 0 0 0 0 48 0 0 0 0 0 0 754 0 0 0 0 0 0 0 0 0 0 582 0 0 0 0 tpre
S 630 6 4 0 0 16 631 582 4921 80000c 0 A 0 0 0 0 0 52 0 0 0 0 0 0 754 0 0 0 0 0 0 0 0 0 0 582 0 0 0 0 tzeroe
S 631 6 4 0 0 16 632 582 4928 80000c 0 A 0 0 0 0 0 56 0 0 0 0 0 0 754 0 0 0 0 0 0 0 0 0 0 582 0 0 0 0 tsde
S 632 6 4 0 0 16 633 582 4933 80000c 0 A 0 0 0 0 0 60 0 0 0 0 0 0 754 0 0 0 0 0 0 0 0 0 0 582 0 0 0 0 tsdp
S 633 6 4 0 0 16 634 582 4938 80000c 0 A 0 0 0 0 0 64 0 0 0 0 0 0 754 0 0 0 0 0 0 0 0 0 0 582 0 0 0 0 tsdc
S 634 6 4 0 0 16 635 582 4943 80000c 0 A 0 0 0 0 0 68 0 0 0 0 0 0 754 0 0 0 0 0 0 0 0 0 0 582 0 0 0 0 taurdr
S 635 6 4 0 0 6 636 582 4950 80000c 0 A 0 0 0 0 0 72 0 0 0 0 0 0 754 0 0 0 0 0 0 0 0 0 0 582 0 0 0 0 ndr
S 636 6 4 0 0 6 637 582 4954 80000c 0 A 0 0 0 0 0 76 0 0 0 0 0 0 754 0 0 0 0 0 0 0 0 0 0 582 0 0 0 0 ndw
S 637 6 4 0 0 16 639 582 4958 80000c 0 A 0 0 0 0 0 80 0 0 0 0 0 0 754 0 0 0 0 0 0 0 0 0 0 582 0 0 0 0 tortho
S 638 6 4 0 0 9 647 582 4965 80000c 0 A 0 0 0 0 0 0 0 0 0 0 0 0 755 0 0 0 0 0 0 0 0 0 0 582 0 0 0 0 ortho_eps
S 639 6 4 0 0 6 640 582 4975 80000c 0 A 0 0 0 0 0 84 0 0 0 0 0 0 754 0 0 0 0 0 0 0 0 0 0 582 0 0 0 0 ortho_max
S 640 6 4 0 0 16 641 582 4985 80000c 0 A 0 0 0 0 0 88 0 0 0 0 0 0 754 0 0 0 0 0 0 0 0 0 0 582 0 0 0 0 tstress
S 641 6 4 0 0 16 642 582 4993 80000c 0 A 0 0 0 0 0 92 0 0 0 0 0 0 754 0 0 0 0 0 0 0 0 0 0 582 0 0 0 0 tprnfor
S 642 6 4 0 0 16 643 582 5001 80000c 0 A 0 0 0 0 0 96 0 0 0 0 0 0 754 0 0 0 0 0 0 0 0 0 0 582 0 0 0 0 timing
S 643 6 4 0 0 16 644 582 5008 80000c 0 A 0 0 0 0 0 100 0 0 0 0 0 0 754 0 0 0 0 0 0 0 0 0 0 582 0 0 0 0 memchk
S 644 6 4 0 0 16 645 582 5015 80000c 0 A 0 0 0 0 0 104 0 0 0 0 0 0 754 0 0 0 0 0 0 0 0 0 0 582 0 0 0 0 tprnsfac
S 645 6 4 0 0 16 646 582 5024 80000c 0 A 0 0 0 0 0 108 0 0 0 0 0 0 754 0 0 0 0 0 0 0 0 0 0 582 0 0 0 0 tcarpar
S 646 6 4 0 0 16 649 582 5032 80000c 0 A 0 0 0 0 0 112 0 0 0 0 0 0 754 0 0 0 0 0 0 0 0 0 0 582 0 0 0 0 trane
S 647 6 4 0 0 9 648 582 5038 80000c 0 A 0 0 0 0 0 8 0 0 0 0 0 0 755 0 0 0 0 0 0 0 0 0 0 582 0 0 0 0 dt_old
S 648 6 4 0 0 9 650 582 5045 80000c 0 A 0 0 0 0 0 16 0 0 0 0 0 0 755 0 0 0 0 0 0 0 0 0 0 582 0 0 0 0 ampre
S 649 7 4 0 4 64 651 582 5051 80000c 100 A 0 0 0 0 0 128 0 0 0 0 0 0 754 0 0 0 0 0 0 0 0 0 0 582 0 0 0 0 tranp
S 650 7 4 0 4 67 663 582 5057 80000c 100 A 0 0 0 0 0 32 0 0 0 0 0 0 755 0 0 0 0 0 0 0 0 0 0 582 0 0 0 0 amprp
S 651 6 4 0 0 16 652 582 5063 80000c 0 A 0 0 0 0 0 168 0 0 0 0 0 0 754 0 0 0 0 0 0 0 0 0 0 582 0 0 0 0 tdipole
S 652 6 4 0 0 16 653 582 5071 80000c 0 A 0 0 0 0 0 172 0 0 0 0 0 0 754 0 0 0 0 0 0 0 0 0 0 582 0 0 0 0 t_diis
S 653 6 4 0 0 16 654 582 5078 80000c 0 A 0 0 0 0 0 176 0 0 0 0 0 0 754 0 0 0 0 0 0 0 0 0 0 582 0 0 0 0 t_diis_simple
S 654 6 4 0 0 16 655 582 5092 80000c 0 A 0 0 0 0 0 180 0 0 0 0 0 0 754 0 0 0 0 0 0 0 0 0 0 582 0 0 0 0 t_diis_rot
S 655 6 4 0 0 16 656 582 5103 80000c 0 A 0 0 0 0 0 184 0 0 0 0 0 0 754 0 0 0 0 0 0 0 0 0 0 582 0 0 0 0 tnosee
S 656 6 4 0 0 16 657 582 5110 80000c 0 A 0 0 0 0 0 188 0 0 0 0 0 0 754 0 0 0 0 0 0 0 0 0 0 582 0 0 0 0 tnosep
S 657 6 4 0 0 16 658 582 5117 80000c 0 A 0 0 0 0 0 192 0 0 0 0 0 0 754 0 0 0 0 0 0 0 0 0 0 582 0 0 0 0 tnoseh
S 658 6 4 0 0 16 659 582 5124 80000c 0 A 0 0 0 0 0 196 0 0 0 0 0 0 754 0 0 0 0 0 0 0 0 0 0 582 0 0 0 0 tcp
S 659 6 4 0 0 16 660 582 5128 80000c 0 A 0 0 0 0 0 200 0 0 0 0 0 0 754 0 0 0 0 0 0 0 0 0 0 582 0 0 0 0 tcap
S 660 6 4 0 0 16 661 582 5133 80000c 0 A 0 0 0 0 0 204 0 0 0 0 0 0 754 0 0 0 0 0 0 0 0 0 0 582 0 0 0 0 tdamp
S 661 6 4 0 0 16 664 582 5139 80000c 0 A 0 0 0 0 0 208 0 0 0 0 0 0 754 0 0 0 0 0 0 0 0 0 0 582 0 0 0 0 tdampions
S 662 6 4 0 0 56 695 582 5149 4 0 A 0 0 0 0 0 0 0 0 0 0 0 0 756 0 0 0 0 0 0 0 0 0 0 582 0 0 0 0 tconvthrs
S 663 6 4 0 0 9 689 582 5159 80000c 0 A 0 0 0 0 0 112 0 0 0 0 0 0 755 0 0 0 0 0 0 0 0 0 0 582 0 0 0 0 tolp
S 664 6 4 0 0 16 665 582 5164 80000c 0 A 0 0 0 0 0 212 0 0 0 0 0 0 754 0 0 0 0 0 0 0 0 0 0 582 0 0 0 0 tionstep
S 665 6 4 0 0 6 666 582 5173 80000c 0 A 0 0 0 0 0 216 0 0 0 0 0 0 754 0 0 0 0 0 0 0 0 0 0 582 0 0 0 0 nstepe
S 666 6 4 0 0 16 667 582 5180 80000c 0 A 0 0 0 0 0 220 0 0 0 0 0 0 754 0 0 0 0 0 0 0 0 0 0 582 0 0 0 0 tsteepdesc
S 667 6 4 0 0 16 668 582 5191 80000c 0 A 0 0 0 0 0 224 0 0 0 0 0 0 754 0 0 0 0 0 0 0 0 0 0 582 0 0 0 0 tatomicwfc
S 668 6 4 0 0 16 669 582 5202 80000c 0 A 0 0 0 0 0 228 0 0 0 0 0 0 754 0 0 0 0 0 0 0 0 0 0 582 0 0 0 0 tscreen
S 669 6 4 0 0 16 670 582 5210 80000c 0 A 0 0 0 0 0 232 0 0 0 0 0 0 754 0 0 0 0 0 0 0 0 0 0 582 0 0 0 0 gamma_only
S 670 6 4 0 0 16 671 582 5221 80000c 0 A 0 0 0 0 0 236 0 0 0 0 0 0 754 0 0 0 0 0 0 0 0 0 0 582 0 0 0 0 force_pairing
S 671 6 4 0 0 16 674 582 5235 80000c 0 A 0 0 0 0 0 240 0 0 0 0 0 0 754 0 0 0 0 0 0 0 0 0 0 582 0 0 0 0 tchi2
S 672 27 0 0 0 9 760 582 5241 0 0 A 0 0 0 0 0 0 0 0 0 0 0 0 0 0 0 0 0 0 0 0 0 0 0 582 0 0 0 0 fix_dependencies
S 673 27 0 0 0 9 762 582 5258 0 0 A 0 0 0 0 0 0 0 0 0 0 0 0 0 0 0 0 0 0 0 0 0 0 0 582 0 0 0 0 check_flags
S 674 6 4 0 0 16 675 582 5270 80000c 0 A 0 0 0 0 0 244 0 0 0 0 0 0 754 0 0 0 0 0 0 0 0 0 0 582 0 0 0 0 tksw
S 675 6 4 0 0 16 676 582 5275 80000c 0 A 0 0 0 0 0 248 0 0 0 0 0 0 754 0 0 0 0 0 0 0 0 0 0 582 0 0 0 0 trhor
S 676 6 4 0 0 16 677 582 5281 80000c 0 A 0 0 0 0 0 252 0 0 0 0 0 0 754 0 0 0 0 0 0 0 0 0 0 582 0 0 0 0 thdyn
S 677 6 4 0 0 6 678 582 5287 80000c 0 A 0 0 0 0 0 256 0 0 0 0 0 0 754 0 0 0 0 0 0 0 0 0 0 582 0 0 0 0 iprsta
S 678 6 4 0 0 16 679 582 5294 80000c 0 A 0 0 0 0 0 260 0 0 0 0 0 0 754 0 0 0 0 0 0 0 0 0 0 582 0 0 0 0 trhow
S 679 6 4 0 0 16 680 582 5300 80000c 0 A 0 0 0 0 0 264 0 0 0 0 0 0 754 0 0 0 0 0 0 0 0 0 0 582 0 0 0 0 twfcollect
S 680 6 4 0 0 6 681 582 5311 80000c 0 A 0 0 0 0 0 268 0 0 0 0 0 0 754 0 0 0 0 0 0 0 0 0 0 582 0 0 0 0 printwfc
S 681 6 4 0 0 16 692 582 5320 80000c 0 A 0 0 0 0 0 272 0 0 0 0 0 0 754 0 0 0 0 0 0 0 0 0 0 582 0 0 0 0 lkpoint_dir
S 682 6 4 0 0 62 749 582 5332 80000c 0 A 0 0 0 0 0 0 0 0 0 0 0 0 757 0 0 0 0 0 0 0 0 0 0 582 0 0 0 0 program_name
S 685 6 4 0 0 16 1 582 5347 80001c 0 A 0 0 0 0 0 0 0 0 0 0 0 0 758 0 0 0 0 0 0 0 0 0 0 582 0 0 0 0 tconjgrad
S 689 6 4 0 0 9 690 582 5385 80000c 0 A 0 0 0 0 0 120 0 0 0 0 0 0 755 0 0 0 0 0 0 0 0 0 0 582 0 0 0 0 ekin_conv_thr
S 690 6 4 0 0 9 691 582 5406 80000c 0 A 0 0 0 0 0 128 0 0 0 0 0 0 755 0 0 0 0 0 0 0 0 0 0 582 0 0 0 0 etot_conv_thr
S 691 6 4 0 0 9 746 582 5427 80000c 0 A 0 0 0 0 0 136 0 0 0 0 0 0 755 0 0 0 0 0 0 0 0 0 0 582 0 0 0 0 forc_conv_thr
S 692 6 4 0 0 6 693 582 5448 80000c 0 A 0 0 0 0 0 276 0 0 0 0 0 0 754 0 0 0 0 0 0 0 0 0 0 582 0 0 0 0 ekin_maxiter
S 693 6 4 0 0 6 694 582 5461 80000c 0 A 0 0 0 0 0 280 0 0 0 0 0 0 754 0 0 0 0 0 0 0 0 0 0 582 0 0 0 0 etot_maxiter
S 694 6 4 0 0 6 731 582 5474 80000c 0 A 0 0 0 0 0 284 0 0 0 0 0 0 754 0 0 0 0 0 0 0 0 0 0 582 0 0 0 0 forc_maxiter
S 695 6 4 0 0 16 696 582 5487 4 0 A 0 0 0 0 0 32 0 0 0 0 0 0 756 0 0 0 0 0 0 0 0 0 0 582 0 0 0 0 lfixatom
S 696 6 4 0 0 16 697 582 5496 4 0 A 0 0 0 0 0 36 0 0 0 0 0 0 756 0 0 0 0 0 0 0 0 0 0 582 0 0 0 0 lscf
S 697 6 4 0 0 16 698 582 5501 4 0 A 0 0 0 0 0 40 0 0 0 0 0 0 756 0 0 0 0 0 0 0 0 0 0 582 0 0 0 0 lbfgs
S 698 6 4 0 0 16 699 582 5507 4 0 A 0 0 0 0 0 44 0 0 0 0 0 0 756 0 0 0 0 0 0 0 0 0 0 582 0 0 0 0 lmd
S 699 6 4 0 0 16 700 582 5511 4 0 A 0 0 0 0 0 48 0 0 0 0 0 0 756 0 0 0 0 0 0 0 0 0 0 582 0 0 0 0 llang
S 700 6 4 0 0 16 701 582 5517 4 0 A 0 0 0 0 0 52 0 0 0 0 0 0 756 0 0 0 0 0 0 0 0 0 0 582 0 0 0 0 lmetadyn
S 701 6 4 0 0 16 702 582 5526 4 0 A 0 0 0 0 0 56 0 0 0 0 0 0 756 0 0 0 0 0 0 0 0 0 0 582 0 0 0 0 lpath
S 702 6 4 0 0 16 703 582 5532 4 0 A 0 0 0 0 0 60 0 0 0 0 0 0 756 0 0 0 0 0 0 0 0 0 0 582 0 0 0 0 lneb
S 703 6 4 0 0 16 704 582 5537 4 0 A 0 0 0 0 0 64 0 0 0 0 0 0 756 0 0 0 0 0 0 0 0 0 0 582 0 0 0 0 lsmd
S 704 6 4 0 0 16 705 582 5542 4 0 A 0 0 0 0 0 68 0 0 0 0 0 0 756 0 0 0 0 0 0 0 0 0 0 582 0 0 0 0 lwf
S 705 6 4 0 0 16 706 582 5546 4 0 A 0 0 0 0 0 72 0 0 0 0 0 0 756 0 0 0 0 0 0 0 0 0 0 582 0 0 0 0 lphonon
S 706 6 4 0 0 16 707 582 5554 4 0 A 0 0 0 0 0 76 0 0 0 0 0 0 756 0 0 0 0 0 0 0 0 0 0 582 0 0 0 0 lbands
S 707 6 4 0 0 16 708 582 5561 4 0 A 0 0 0 0 0 80 0 0 0 0 0 0 756 0 0 0 0 0 0 0 0 0 0 582 0 0 0 0 lconstrain
S 708 6 4 0 0 16 709 582 5572 4 0 A 0 0 0 0 0 84 0 0 0 0 0 0 756 0 0 0 0 0 0 0 0 0 0 582 0 0 0 0 ldamped
S 709 6 4 0 0 16 710 582 5580 4 0 A 0 0 0 0 0 88 0 0 0 0 0 0 756 0 0 0 0 0 0 0 0 0 0 582 0 0 0 0 lcoarsegrained
S 710 6 4 0 0 16 711 582 5595 4 0 A 0 0 0 0 0 92 0 0 0 0 0 0 756 0 0 0 0 0 0 0 0 0 0 582 0 0 0 0 restart
S 711 6 4 0 0 6 712 582 5603 4 0 A 0 0 0 0 0 96 0 0 0 0 0 0 756 0 0 0 0 0 0 0 0 0 0 582 0 0 0 0 ngm0
S 712 6 4 0 0 6 713 582 5608 4 0 A 0 0 0 0 0 100 0 0 0 0 0 0 756 0 0 0 0 0 0 0 0 0 0 582 0 0 0 0 niter
S 713 6 4 0 0 6 714 582 5614 4 0 A 0 0 0 0 0 104 0 0 0 0 0 0 756 0 0 0 0 0 0 0 0 0 0 582 0 0 0 0 nmix
S 714 6 4 0 0 6 717 582 5619 4 0 A 0 0 0 0 0 108 0 0 0 0 0 0 756 0 0 0 0 0 0 0 0 0 0 582 0 0 0 0 imix
S 715 6 4 0 0 9 716 582 5624 4 0 A 0 0 0 0 0 0 0 0 0 0 0 0 759 0 0 0 0 0 0 0 0 0 0 582 0 0 0 0 mixing_beta
S 716 6 4 0 0 9 718 582 5636 4 0 A 0 0 0 0 0 8 0 0 0 0 0 0 759 0 0 0 0 0 0 0 0 0 0 582 0 0 0 0 tr2
S 717 6 4 0 0 16 719 582 5640 4 0 A 0 0 0 0 0 112 0 0 0 0 0 0 756 0 0 0 0 0 0 0 0 0 0 582 0 0 0 0 conv_elec
S 718 6 4 0 0 9 725 582 5650 4 0 A 0 0 0 0 0 16 0 0 0 0 0 0 759 0 0 0 0 0 0 0 0 0 0 582 0 0 0 0 ethr
S 719 6 4 0 0 6 720 582 5655 4 0 A 0 0 0 0 0 116 0 0 0 0 0 0 756 0 0 0 0 0 0 0 0 0 0 582 0 0 0 0 david
S 720 6 4 0 0 6 721 582 5661 4 0 A 0 0 0 0 0 120 0 0 0 0 0 0 756 0 0 0 0 0 0 0 0 0 0 582 0 0 0 0 isolve
S 721 6 4 0 0 6 722 582 5668 4 0 A 0 0 0 0 0 124 0 0 0 0 0 0 756 0 0 0 0 0 0 0 0 0 0 582 0 0 0 0 max_cg_iter
S 722 6 4 0 0 6 723 582 5680 4 0 A 0 0 0 0 0 128 0 0 0 0 0 0 756 0 0 0 0 0 0 0 0 0 0 582 0 0 0 0 diis_buff
S 723 6 4 0 0 6 724 582 5690 4 0 A 0 0 0 0 0 132 0 0 0 0 0 0 756 0 0 0 0 0 0 0 0 0 0 582 0 0 0 0 diis_ndim
S 724 6 4 0 0 16 727 582 5700 4 0 A 0 0 0 0 0 136 0 0 0 0 0 0 756 0 0 0 0 0 0 0 0 0 0 582 0 0 0 0 diago_full_acc
S 725 6 4 0 0 9 726 582 5715 4 0 A 0 0 0 0 0 24 0 0 0 0 0 0 759 0 0 0 0 0 0 0 0 0 0 582 0 0 0 0 alpha0
S 726 6 4 0 0 9 733 582 5722 4 0 A 0 0 0 0 0 32 0 0 0 0 0 0 759 0 0 0 0 0 0 0 0 0 0 582 0 0 0 0 beta0
S 727 6 4 0 0 6 728 582 5728 4 0 A 0 0 0 0 0 140 0 0 0 0 0 0 756 0 0 0 0 0 0 0 0 0 0 582 0 0 0 0 history
S 728 6 4 0 0 6 729 582 5736 4 0 A 0 0 0 0 0 144 0 0 0 0 0 0 756 0 0 0 0 0 0 0 0 0 0 582 0 0 0 0 pot_order
S 729 6 4 0 0 6 730 582 5746 4 0 A 0 0 0 0 0 148 0 0 0 0 0 0 756 0 0 0 0 0 0 0 0 0 0 582 0 0 0 0 wfc_order
S 730 6 4 0 0 6 732 582 4817 4 0 A 0 0 0 0 0 152 0 0 0 0 0 0 756 0 0 0 0 0 0 0 0 0 0 582 0 0 0 0 nstep
S 731 6 4 0 0 6 735 582 5756 80000c 0 A 0 0 0 0 0 288 0 0 0 0 0 0 754 0 0 0 0 0 0 0 0 0 0 582 0 0 0 0 istep
S 732 6 4 0 0 16 734 582 5762 4 0 A 0 0 0 0 0 156 0 0 0 0 0 0 756 0 0 0 0 0 0 0 0 0 0 582 0 0 0 0 conv_ions
S 733 6 4 0 0 9 1 582 5772 4 0 A 0 0 0 0 0 40 0 0 0 0 0 0 759 0 0 0 0 0 0 0 0 0 0 582 0 0 0 0 upscale
S 734 6 4 0 0 16 736 582 5780 4 0 A 0 0 0 0 0 160 0 0 0 0 0 0 756 0 0 0 0 0 0 0 0 0 0 582 0 0 0 0 nosym
S 735 6 4 0 0 16 737 582 5786 80000c 0 A 0 0 0 0 0 292 0 0 0 0 0 0 754 0 0 0 0 0 0 0 0 0 0 582 0 0 0 0 noinv
S 736 6 4 0 0 6 738 582 5792 4 0 A 0 0 0 0 0 164 0 0 0 0 0 0 756 0 0 0 0 0 0 0 0 0 0 582 0 0 0 0 modenum
S 737 6 4 0 0 6 739 582 5800 80000c 0 A 0 0 0 0 0 296 0 0 0 0 0 0 754 0 0 0 0 0 0 0 0 0 0 582 0 0 0 0 io_level
S 738 6 4 0 0 6 1 582 5809 4 0 A 0 0 0 0 0 168 0 0 0 0 0 0 756 0 0 0 0 0 0 0 0 0 0 582 0 0 0 0 iverbosity
S 739 6 4 0 0 16 740 582 5820 80000c 0 A 0 0 0 0 0 300 0 0 0 0 0 0 754 0 0 0 0 0 0 0 0 0 0 582 0 0 0 0 use_para_diag
S 740 6 4 0 0 16 741 582 5834 80000c 0 A 0 0 0 0 0 304 0 0 0 0 0 0 754 0 0 0 0 0 0 0 0 0 0 582 0 0 0 0 remove_rigid_rot
S 741 6 4 0 0 16 742 582 5851 80000c 0 A 0 0 0 0 0 308 0 0 0 0 0 0 754 0 0 0 0 0 0 0 0 0 0 582 0 0 0 0 assume_isolated
S 742 6 4 0 0 6 743 582 5874 80000c 0 A 0 0 0 0 0 312 0 0 0 0 0 0 754 0 0 0 0 0 0 0 0 0 0 582 0 0 0 0 ortho_para
S 743 6 4 0 0 16 744 582 5885 80000c 0 A 0 0 0 0 0 316 0 0 0 0 0 0 754 0 0 0 0 0 0 0 0 0 0 582 0 0 0 0 use_task_groups
S 744 6 4 0 0 6 745 582 5901 80000c 0 A 0 0 0 0 0 320 0 0 0 0 0 0 754 0 0 0 0 0 0 0 0 0 0 582 0 0 0 0 iesr
S 745 6 4 0 0 16 750 582 5906 80000c 0 A 0 0 0 0 0 324 0 0 0 0 0 0 754 0 0 0 0 0 0 0 0 0 0 582 0 0 0 0 tvhmean
S 746 6 4 0 0 9 747 582 5914 80000c 0 A 0 0 0 0 0 144 0 0 0 0 0 0 755 0 0 0 0 0 0 0 0 0 0 582 0 0 0 0 vhrmin
S 747 6 4 0 0 9 1 582 5928 80000c 0 A 0 0 0 0 0 152 0 0 0 0 0 0 755 0 0 0 0 0 0 0 0 0 0 582 0 0 0 0 vhrmax
S 749 6 4 0 0 20 1 582 5944 80000c 0 A 0 0 0 0 0 4 0 0 0 0 0 0 757 0 0 0 0 0 0 0 0 0 0 582 0 0 0 0 vhasse
S 750 6 4 0 0 16 751 582 5951 80000c 0 A 0 0 0 0 0 328 0 0 0 0 0 0 754 0 0 0 0 0 0 0 0 0 0 582 0 0 0 0 tprojwfc
S 751 6 4 0 0 16 1 582 5960 80000c 0 A 0 0 0 0 0 332 0 0 0 0 0 0 754 0 0 0 0 0 0 0 0 0 0 582 0 0 0 0 tqr
S 753 8 5 0 0 70 1 582 5969 40022004 1220 A 0 0 0 0 0 0 0 56 0 0 0 0 0 0 0 0 0 0 0 0 0 0 0 582 0 0 0 0 control_flags$convergence_criteria$td
S 754 11 0 0 4 9 1 582 6007 40800000 801000 A 0 0 0 0 0 336 0 0 617 751 0 0 0 0 0 0 0 0 0 0 0 0 0 0 0 0 0 0 _control_flags$8
S 755 11 0 0 4 9 754 582 6024 40800000 801000 A 0 0 0 0 0 160 0 0 638 747 0 0 0 0 0 0 0 0 0 0 0 0 0 0 0 0 0 0 _control_flags$10
S 756 11 0 0 0 9 755 582 6042 40800000 801000 A 0 0 0 0 0 172 0 0 662 738 0 0 0 0 0 0 0 0 0 0 0 0 0 0 0 0 0 0 _control_flags$0
S 757 11 0 0 0 9 756 582 6059 40800000 801000 A 0 0 0 0 0 5 0 0 682 749 0 0 0 0 0 0 0 0 0 0 0 0 0 0 0 0 0 0 _control_flags$9
S 758 11 0 0 0 9 757 582 6076 40800010 801000 A 0 0 0 0 0 4 0 0 685 685 0 0 0 0 0 0 0 0 0 0 0 0 0 0 0 0 0 0 _control_flags$12
S 759 11 0 0 0 9 758 582 6094 40800000 801000 A 0 0 0 0 0 48 0 0 715 733 0 0 0 0 0 0 0 0 0 0 0 0 0 0 0 0 0 0 _control_flags$2
S 760 23 5 0 0 0 761 582 5241 0 0 A 0 0 0 0 0 0 0 0 0 0 0 0 0 0 0 0 0 0 0 0 0 0 0 0 0 0 0 0 fix_dependencies
S 761 14 5 0 0 0 1 760 5241 0 400000 A 0 0 0 0 0 0 0 4 0 0 0 0 0 0 0 0 0 0 0 0 0 317 0 582 0 0 0 0 fix_dependencies
F 761 0
S 762 23 5 0 0 0 763 582 5258 0 0 A 0 0 0 0 0 0 0 0 0 0 0 0 0 0 0 0 0 0 0 0 0 0 0 0 0 0 0 0 check_flags
S 763 14 5 0 0 0 1 762 5258 0 400000 A 0 0 0 0 0 0 0 5 0 0 0 0 0 0 0 0 0 0 0 0 0 374 0 582 0 0 0 0 check_flags
F 763 0
A 15 2 0 0 0 6 586 0 0 0 15 0 0 0 0 0 0 0 0 0
A 18 2 0 0 0 6 594 0 0 0 18 0 0 0 0 0 0 0 0 0
Z
Z
