V26 descriptors
15 descriptors.F90 S582 0
04/24/2012  15:51:01
enduse
D 56 21 6 1 44 47 1 1 0 0 1
 3 45 3 3 45 46
D 59 21 6 1 3 15 0 0 0 0 0
 0 15 3 3 15 15
D 62 21 6 1 3 15 0 0 0 0 0
 0 15 3 3 15 15
S 582 24 0 0 0 9 1 0 4658 10005 0 A 0 0 0 0 0 0 0 0 0 0 0 0 0 0 0 0 0 0 0 0 0 11 0 0 0 0 0 0 descriptors
S 583 14 0 0 0 6 1 582 4670 10004 0 A 0 0 0 0 0 0 0 0 0 0 0 0 0 0 0 0 0 0 0 0 0 0 0 582 0 0 0 0 ldim_block
S 584 14 0 0 0 6 1 582 4681 10004 0 A 0 0 0 0 0 0 0 0 0 0 0 0 0 0 0 0 0 0 0 0 0 0 0 582 0 0 0 0 ldim_cyclic
S 585 14 0 0 0 6 1 582 4693 10004 0 A 0 0 0 0 0 0 0 0 0 0 0 0 0 0 0 0 0 0 0 0 0 0 0 582 0 0 0 0 ldim_block_cyclic
S 586 14 0 0 0 6 1 582 4711 10004 0 A 0 0 0 0 0 0 0 0 0 0 0 0 0 0 0 0 0 0 0 0 0 0 0 582 0 0 0 0 lind_block
S 587 14 0 0 0 6 1 582 4722 10004 0 A 0 0 0 0 0 0 0 0 0 0 0 0 0 0 0 0 0 0 0 0 0 0 0 582 0 0 0 0 lind_cyclic
S 588 14 0 0 0 6 1 582 4734 10004 0 A 0 0 0 0 0 0 0 0 0 0 0 0 0 0 0 0 0 0 0 0 0 0 0 582 0 0 0 0 lind_block_cyclic
S 589 14 0 0 0 6 1 582 4752 10004 0 A 0 0 0 0 0 0 0 0 0 0 0 0 0 0 0 0 0 0 0 0 0 0 0 582 0 0 0 0 gind_block
S 590 14 0 0 0 6 1 582 4763 10004 0 A 0 0 0 0 0 0 0 0 0 0 0 0 0 0 0 0 0 0 0 0 0 0 0 582 0 0 0 0 gind_cyclic
S 591 14 0 0 0 6 1 582 4775 10004 0 A 0 0 0 0 0 0 0 0 0 0 0 0 0 0 0 0 0 0 0 0 0 0 0 582 0 0 0 0 gind_block_cyclic
S 592 16 0 0 0 6 1 582 4793 4 400000 A 0 0 0 0 0 0 0 0 16 12 0 0 0 0 0 0 0 0 0 0 0 0 0 582 0 0 0 0 descla_siz_
S 593 3 0 0 0 6 0 1 0 0 0 A 0 0 0 0 0 0 0 0 0 16 0 0 0 0 0 0 0 0 0 0 0 0 0 0 0 0 0 0 6
S 594 16 0 0 0 6 1 582 4805 4 400000 A 0 0 0 0 0 0 0 0 1 3 0 0 0 0 0 0 0 0 0 0 0 0 0 582 0 0 0 0 ilar_
S 595 16 0 0 0 6 1 582 4811 4 400000 A 0 0 0 0 0 0 0 0 2 15 0 0 0 0 0 0 0 0 0 0 0 0 0 582 0 0 0 0 nlar_
S 596 3 0 0 0 6 1 1 0 0 0 A 0 0 0 0 0 0 0 0 0 2 0 0 0 0 0 0 0 0 0 0 0 0 0 0 0 0 0 0 6
S 597 16 0 0 0 6 1 582 4817 4 400000 A 0 0 0 0 0 0 0 0 3 17 0 0 0 0 0 0 0 0 0 0 0 0 0 582 0 0 0 0 ilac_
S 598 3 0 0 0 6 0 1 0 0 0 A 0 0 0 0 0 0 0 0 0 3 0 0 0 0 0 0 0 0 0 0 0 0 0 0 0 0 0 0 6
S 599 16 0 0 0 6 1 582 4823 4 400000 A 0 0 0 0 0 0 0 0 4 19 0 0 0 0 0 0 0 0 0 0 0 0 0 582 0 0 0 0 nlac_
S 600 3 0 0 0 6 0 1 0 0 0 A 0 0 0 0 0 0 0 0 0 4 0 0 0 0 0 0 0 0 0 0 0 0 0 0 0 0 0 0 6
S 601 16 0 0 0 6 1 582 4829 4 400000 A 0 0 0 0 0 0 0 0 5 21 0 0 0 0 0 0 0 0 0 0 0 0 0 582 0 0 0 0 nlax_
S 602 3 0 0 0 6 0 1 0 0 0 A 0 0 0 0 0 0 0 0 0 5 0 0 0 0 0 0 0 0 0 0 0 0 0 0 0 0 0 0 6
S 603 16 0 0 0 6 1 582 4835 4 400000 A 0 0 0 0 0 0 0 0 6 23 0 0 0 0 0 0 0 0 0 0 0 0 0 582 0 0 0 0 lambda_node_
S 604 3 0 0 0 6 0 1 0 0 0 A 0 0 0 0 0 0 0 0 0 6 0 0 0 0 0 0 0 0 0 0 0 0 0 0 0 0 0 0 6
S 605 16 0 0 0 6 1 582 4848 4 400000 A 0 0 0 0 0 0 0 0 7 25 0 0 0 0 0 0 0 0 0 0 0 0 0 582 0 0 0 0 la_n_
S 606 3 0 0 0 6 0 1 0 0 0 A 0 0 0 0 0 0 0 0 0 7 0 0 0 0 0 0 0 0 0 0 0 0 0 0 0 0 0 0 6
S 607 16 0 0 0 6 1 582 4854 4 400000 A 0 0 0 0 0 0 0 0 8 27 0 0 0 0 0 0 0 0 0 0 0 0 0 582 0 0 0 0 la_nx_
S 608 3 0 0 0 6 0 1 0 0 0 A 0 0 0 0 0 0 0 0 0 8 0 0 0 0 0 0 0 0 0 0 0 0 0 0 0 0 0 0 6
S 609 16 0 0 0 6 1 582 4861 4 400000 A 0 0 0 0 0 0 0 0 9 29 0 0 0 0 0 0 0 0 0 0 0 0 0 582 0 0 0 0 la_npr_
S 610 3 0 0 0 6 0 1 0 0 0 A 0 0 0 0 0 0 0 0 0 9 0 0 0 0 0 0 0 0 0 0 0 0 0 0 0 0 0 0 6
S 611 16 0 0 0 6 1 582 4869 4 400000 A 0 0 0 0 0 0 0 0 10 31 0 0 0 0 0 0 0 0 0 0 0 0 0 582 0 0 0 0 la_npc_
S 612 3 0 0 0 6 0 1 0 0 0 A 0 0 0 0 0 0 0 0 0 10 0 0 0 0 0 0 0 0 0 0 0 0 0 0 0 0 0 0 6
S 613 16 0 0 0 6 1 582 4877 4 400000 A 0 0 0 0 0 0 0 0 11 33 0 0 0 0 0 0 0 0 0 0 0 0 0 582 0 0 0 0 la_myr_
S 614 3 0 0 0 6 0 1 0 0 0 A 0 0 0 0 0 0 0 0 0 11 0 0 0 0 0 0 0 0 0 0 0 0 0 0 0 0 0 0 6
S 615 16 0 0 0 6 1 582 4885 4 400000 A 0 0 0 0 0 0 0 0 12 35 0 0 0 0 0 0 0 0 0 0 0 0 0 582 0 0 0 0 la_myc_
S 616 3 0 0 0 6 0 1 0 0 0 A 0 0 0 0 0 0 0 0 0 12 0 0 0 0 0 0 0 0 0 0 0 0 0 0 0 0 0 0 6
S 617 16 0 0 0 6 1 582 4893 4 400000 A 0 0 0 0 0 0 0 0 13 37 0 0 0 0 0 0 0 0 0 0 0 0 0 582 0 0 0 0 la_comm_
S 618 3 0 0 0 6 0 1 0 0 0 A 0 0 0 0 0 0 0 0 0 13 0 0 0 0 0 0 0 0 0 0 0 0 0 0 0 0 0 0 6
S 619 16 0 0 0 6 1 582 4902 4 400000 A 0 0 0 0 0 0 0 0 14 39 0 0 0 0 0 0 0 0 0 0 0 0 0 582 0 0 0 0 la_me_
S 620 3 0 0 0 6 0 1 0 0 0 A 0 0 0 0 0 0 0 0 0 14 0 0 0 0 0 0 0 0 0 0 0 0 0 0 0 0 0 0 6
S 621 16 0 0 0 6 1 582 4909 4 400000 A 0 0 0 0 0 0 0 0 15 41 0 0 0 0 0 0 0 0 0 0 0 0 0 582 0 0 0 0 la_nrl_
S 622 3 0 0 0 6 0 1 0 0 0 A 0 0 0 0 0 0 0 0 0 15 0 0 0 0 0 0 0 0 0 0 0 0 0 0 0 0 0 0 6
S 623 16 0 0 0 6 1 582 4917 4 400000 A 0 0 0 0 0 0 0 0 16 12 0 0 0 0 0 0 0 0 0 0 0 0 0 582 0 0 0 0 la_nrlx_
S 624 23 5 0 0 0 631 582 4926 0 0 A 0 0 0 0 0 0 0 0 0 0 0 0 0 0 0 0 0 0 0 0 0 0 0 0 0 0 0 0 descla_local_dims
S 625 1 3 2 0 6 1 624 4944 4 3000 A 0 0 0 0 0 0 0 0 0 0 0 0 0 0 0 0 0 0 0 0 0 0 0 0 0 0 0 0 i2g
S 626 1 3 2 0 6 1 624 4948 4 3000 A 0 0 0 0 0 0 0 0 0 0 0 0 0 0 0 0 0 0 0 0 0 0 0 0 0 0 0 0 nl
S 627 1 3 1 0 6 1 624 4951 4 3000 A 0 0 0 0 0 0 0 0 0 0 0 0 0 0 0 0 0 0 0 0 0 0 0 0 0 0 0 0 n
S 628 1 3 1 0 6 1 624 4953 4 3000 A 0 0 0 0 0 0 0 0 0 0 0 0 0 0 0 0 0 0 0 0 0 0 0 0 0 0 0 0 nx
S 629 1 3 1 0 6 1 624 4956 4 3000 A 0 0 0 0 0 0 0 0 0 0 0 0 0 0 0 0 0 0 0 0 0 0 0 0 0 0 0 0 np
S 630 1 3 1 0 6 1 624 4959 4 3000 A 0 0 0 0 0 0 0 0 0 0 0 0 0 0 0 0 0 0 0 0 0 0 0 0 0 0 0 0 me
S 631 14 5 0 0 0 1 624 4926 0 400000 A 0 0 0 0 0 0 0 2 6 0 0 0 0 0 0 0 0 0 0 0 0 69 0 582 0 0 0 0 descla_local_dims
F 631 6 625 626 627 628 629 630
S 632 23 5 0 0 0 640 582 4962 0 0 A 0 0 0 0 0 0 0 0 0 0 0 0 0 0 0 0 0 0 0 0 0 0 0 0 0 0 0 0 descla_init
S 633 7 3 2 0 56 1 632 4974 20000004 10003000 A 0 0 0 0 0 0 0 0 0 0 0 0 0 0 0 0 0 0 0 0 0 0 0 0 0 0 0 0 desc
S 634 1 3 1 0 6 1 632 4951 4 3000 A 0 0 0 0 0 0 0 0 0 0 0 0 0 0 0 0 0 0 0 0 0 0 0 0 0 0 0 0 n
S 635 1 3 1 0 6 1 632 4953 4 3000 A 0 0 0 0 0 0 0 0 0 0 0 0 0 0 0 0 0 0 0 0 0 0 0 0 0 0 0 0 nx
S 636 7 3 1 0 59 1 632 4956 800004 3000 A 0 0 0 0 0 0 0 0 0 0 0 0 0 0 0 0 0 0 0 0 0 0 0 0 0 0 0 0 np
S 637 7 3 1 0 62 1 632 4959 800004 3000 A 0 0 0 0 0 0 0 0 0 0 0 0 0 0 0 0 0 0 0 0 0 0 0 0 0 0 0 0 me
S 638 1 3 1 0 6 1 632 4979 4 3000 A 0 0 0 0 0 0 0 0 0 0 0 0 0 0 0 0 0 0 0 0 0 0 0 0 0 0 0 0 comm
S 639 1 3 1 0 6 1 632 4984 4 3000 A 0 0 0 0 0 0 0 0 0 0 0 0 0 0 0 0 0 0 0 0 0 0 0 0 0 0 0 0 includeme
S 640 14 5 0 0 0 1 632 4962 20000000 400000 A 0 0 0 0 0 0 0 9 7 0 0 0 0 0 0 0 0 0 0 0 0 91 0 582 0 0 0 0 descla_init
F 640 7 633 634 635 636 637 638 639
S 641 6 1 0 0 6 1 632 4994 40800006 3000 A 0 0 0 0 0 0 0 0 0 0 0 0 0 0 0 0 0 0 0 0 0 0 0 0 0 0 0 0 z_b_0
S 642 6 1 0 0 6 1 632 5000 40800006 3000 A 0 0 0 0 0 0 0 0 0 0 0 0 0 0 0 0 0 0 0 0 0 0 0 0 0 0 0 0 z_b_2
S 643 6 1 0 0 6 1 632 5006 40800006 3000 A 0 0 0 0 0 0 0 0 0 0 0 0 0 0 0 0 0 0 0 0 0 0 0 0 0 0 0 0 z_b_3
S 644 6 1 0 0 6 1 632 5012 40800006 3000 A 0 0 0 0 0 0 0 0 0 0 0 0 0 0 0 0 0 0 0 0 0 0 0 0 0 0 0 0 z_e_49
A 12 2 0 0 0 6 593 0 0 0 12 0 0 0 0 0 0 0 0 0
A 15 2 0 0 0 6 596 0 0 0 15 0 0 0 0 0 0 0 0 0
A 17 2 0 0 0 6 598 0 0 0 17 0 0 0 0 0 0 0 0 0
A 19 2 0 0 0 6 600 0 0 0 19 0 0 0 0 0 0 0 0 0
A 21 2 0 0 0 6 602 0 0 0 21 0 0 0 0 0 0 0 0 0
A 23 2 0 0 0 6 604 0 0 0 23 0 0 0 0 0 0 0 0 0
A 25 2 0 0 0 6 606 0 0 0 25 0 0 0 0 0 0 0 0 0
A 27 2 0 0 0 6 608 0 0 0 27 0 0 0 0 0 0 0 0 0
A 29 2 0 0 0 6 610 0 0 0 29 0 0 0 0 0 0 0 0 0
A 31 2 0 0 0 6 612 0 0 0 31 0 0 0 0 0 0 0 0 0
A 33 2 0 0 0 6 614 0 0 0 33 0 0 0 0 0 0 0 0 0
A 35 2 0 0 0 6 616 0 0 0 35 0 0 0 0 0 0 0 0 0
A 37 2 0 0 0 6 618 0 0 0 37 0 0 0 0 0 0 0 0 0
A 39 2 0 0 0 6 620 0 0 0 39 0 0 0 0 0 0 0 0 0
A 41 2 0 0 0 6 622 0 0 0 41 0 0 0 0 0 0 0 0 0
A 44 1 0 0 0 6 643 0 0 0 0 0 0 0 0 0 0 0 0 0
A 45 1 0 0 0 6 641 0 0 0 0 0 0 0 0 0 0 0 0 0
A 46 1 0 0 0 6 644 0 0 0 0 0 0 0 0 0 0 0 0 0
A 47 1 0 0 0 6 642 0 0 0 0 0 0 0 0 0 0 0 0 0
Z
Z
