V26 dspev_module
13 dspev_drv.F90 S582 0
04/24/2012  15:51:03
enduse
D 56 21 9 2 12 17 0 0 1 0 0
 0 13 3 3 14 14
 0 15 14 3 16 16
D 59 21 9 1 3 16 0 0 1 0 0
 0 15 3 3 16 16
D 62 21 9 1 3 16 0 0 1 0 0
 0 15 3 3 16 16
D 65 21 9 2 18 21 0 0 1 0 0
 0 19 3 3 20 20
 0 15 20 3 16 16
D 68 21 9 1 3 23 0 0 1 0 0
 0 22 3 3 23 23
D 71 21 9 1 3 23 0 0 1 0 0
 0 22 3 3 23 23
D 74 21 9 2 24 27 0 0 1 0 0
 0 25 3 3 26 26
 0 22 26 3 23 23
D 77 21 9 1 3 29 0 0 1 0 0
 0 28 3 3 29 29
D 80 21 9 2 30 33 0 0 1 0 0
 0 31 3 3 32 32
 0 28 32 3 29 29
D 83 21 9 2 34 0 0 0 1 1 0
 0 35 3 3 36 36
 0 0 36 3 0 37
D 86 21 9 1 3 0 0 0 0 1 0
 0 0 3 3 0 38
D 89 21 9 2 39 0 0 0 1 1 0
 0 40 3 3 41 41
 0 0 41 3 0 42
D 92 21 9 1 3 0 0 0 0 1 0
 0 0 3 3 0 43
D 95 21 9 1 3 0 0 0 0 1 0
 0 0 3 3 0 44
D 98 21 9 2 45 0 0 0 1 1 0
 0 46 3 3 47 47
 0 0 47 3 0 48
S 582 24 0 0 0 9 1 0 4658 10015 0 A 0 0 0 0 0 0 0 0 0 0 0 0 0 0 0 0 0 0 0 0 0 27 0 0 0 0 0 0 dspev_module
S 583 27 0 0 0 9 635 582 4671 0 0 A 0 0 0 0 0 0 0 0 0 0 0 0 0 0 0 0 0 0 0 0 0 0 0 582 0 0 0 0 pdspev_drv
S 584 27 0 0 0 9 655 582 4682 0 0 A 0 0 0 0 0 0 0 0 0 0 0 0 0 0 0 0 0 0 0 0 0 0 0 582 0 0 0 0 dspev_drv
S 585 23 5 0 0 0 597 582 4692 10 0 A 0 0 0 0 0 0 0 0 0 0 0 0 0 0 0 0 0 0 0 0 0 0 0 0 0 0 0 0 ptredv
S 586 7 3 0 0 56 1 585 4699 800214 3000 A 0 0 0 0 0 0 0 0 0 0 0 0 0 0 0 0 0 0 0 0 0 0 0 0 0 0 0 0 a
S 587 6 3 1 0 6 1 585 4701 800014 3000 A 0 0 0 0 0 0 0 0 0 0 0 0 0 0 0 0 0 0 0 0 0 0 0 0 0 0 0 0 lda
S 588 7 3 0 0 59 1 585 4705 800214 3000 A 0 0 0 0 0 0 0 0 0 0 0 0 0 0 0 0 0 0 0 0 0 0 0 0 0 0 0 0 d
S 589 7 3 0 0 62 1 585 4707 800214 3000 A 0 0 0 0 0 0 0 0 0 0 0 0 0 0 0 0 0 0 0 0 0 0 0 0 0 0 0 0 e
S 590 7 3 0 0 65 1 585 4709 800214 3000 A 0 0 0 0 0 0 0 0 0 0 0 0 0 0 0 0 0 0 0 0 0 0 0 0 0 0 0 0 v
S 591 6 3 1 0 6 1 585 4711 800014 3000 A 0 0 0 0 0 0 0 0 0 0 0 0 0 0 0 0 0 0 0 0 0 0 0 0 0 0 0 0 ldv
S 592 1 3 1 0 6 1 585 4715 14 3000 A 0 0 0 0 0 0 0 0 0 0 0 0 0 0 0 0 0 0 0 0 0 0 0 0 0 0 0 0 nrl
S 593 6 3 1 0 6 1 585 4719 800014 3000 A 0 0 0 0 0 0 0 0 0 0 0 0 0 0 0 0 0 0 0 0 0 0 0 0 0 0 0 0 n
S 594 1 3 1 0 6 1 585 4721 14 3000 A 0 0 0 0 0 0 0 0 0 0 0 0 0 0 0 0 0 0 0 0 0 0 0 0 0 0 0 0 nproc
S 595 1 3 1 0 6 1 585 4727 14 3000 A 0 0 0 0 0 0 0 0 0 0 0 0 0 0 0 0 0 0 0 0 0 0 0 0 0 0 0 0 me
S 596 1 3 1 0 6 1 585 4730 14 3000 A 0 0 0 0 0 0 0 0 0 0 0 0 0 0 0 0 0 0 0 0 0 0 0 0 0 0 0 0 comm
S 597 14 5 0 0 0 1 585 4692 210 400000 A 0 0 0 0 0 0 0 2 11 0 0 0 0 0 0 0 0 0 0 0 0 39 0 582 0 0 0 0 ptredv
F 597 11 586 587 588 589 590 591 592 593 594 595 596
S 598 6 1 0 0 6 1 585 4735 40800016 3000 A 0 0 0 0 0 0 0 0 0 0 0 0 0 0 0 0 0 0 0 0 0 0 0 0 0 0 0 0 z_e_428
S 599 6 1 0 0 6 1 585 4743 40800016 3000 A 0 0 0 0 0 0 0 0 0 0 0 0 0 0 0 0 0 0 0 0 0 0 0 0 0 0 0 0 z_e_429
S 600 6 1 0 0 6 1 585 4751 40800016 3000 A 0 0 0 0 0 0 0 0 0 0 0 0 0 0 0 0 0 0 0 0 0 0 0 0 0 0 0 0 z_e_432
S 601 6 1 0 0 6 1 585 4759 40800016 3000 A 0 0 0 0 0 0 0 0 0 0 0 0 0 0 0 0 0 0 0 0 0 0 0 0 0 0 0 0 z_e_434
S 602 6 1 0 0 6 1 585 4767 40800016 3000 A 0 0 0 0 0 0 0 0 0 0 0 0 0 0 0 0 0 0 0 0 0 0 0 0 0 0 0 0 z_e_436
S 603 6 1 0 0 6 1 585 4775 40800016 3000 A 0 0 0 0 0 0 0 0 0 0 0 0 0 0 0 0 0 0 0 0 0 0 0 0 0 0 0 0 z_e_438
S 604 6 1 0 0 6 1 585 4783 40800016 3000 A 0 0 0 0 0 0 0 0 0 0 0 0 0 0 0 0 0 0 0 0 0 0 0 0 0 0 0 0 z_e_440
S 605 23 5 0 0 0 614 582 4791 10 0 A 0 0 0 0 0 0 0 0 0 0 0 0 0 0 0 0 0 0 0 0 0 0 0 0 0 0 0 0 ptqliv
S 606 7 3 0 0 68 1 605 4705 800214 3000 A 0 0 0 0 0 0 0 0 0 0 0 0 0 0 0 0 0 0 0 0 0 0 0 0 0 0 0 0 d
S 607 7 3 0 0 71 1 605 4707 800214 3000 A 0 0 0 0 0 0 0 0 0 0 0 0 0 0 0 0 0 0 0 0 0 0 0 0 0 0 0 0 e
S 608 6 3 1 0 6 1 605 4719 800014 3000 A 0 0 0 0 0 0 0 0 0 0 0 0 0 0 0 0 0 0 0 0 0 0 0 0 0 0 0 0 n
S 609 7 3 0 0 74 1 605 4798 800214 3000 A 0 0 0 0 0 0 0 0 0 0 0 0 0 0 0 0 0 0 0 0 0 0 0 0 0 0 0 0 z
S 610 6 3 1 0 6 1 605 4800 800014 3000 A 0 0 0 0 0 0 0 0 0 0 0 0 0 0 0 0 0 0 0 0 0 0 0 0 0 0 0 0 ldz
S 611 1 3 1 0 6 1 605 4715 14 3000 A 0 0 0 0 0 0 0 0 0 0 0 0 0 0 0 0 0 0 0 0 0 0 0 0 0 0 0 0 nrl
S 612 1 3 1 0 6 1 605 4804 14 3000 A 0 0 0 0 0 0 0 0 0 0 0 0 0 0 0 0 0 0 0 0 0 0 0 0 0 0 0 0 mpime
S 613 1 3 1 0 6 1 605 4730 14 3000 A 0 0 0 0 0 0 0 0 0 0 0 0 0 0 0 0 0 0 0 0 0 0 0 0 0 0 0 0 comm
S 614 14 5 0 0 0 1 605 4791 210 400000 A 0 0 0 0 0 0 0 14 8 0 0 0 0 0 0 0 0 0 0 0 0 336 0 582 0 0 0 0 ptqliv
F 614 8 606 607 608 609 610 611 612 613
S 615 6 1 0 0 6 1 605 4775 40800016 3000 A 0 0 0 0 0 0 0 0 0 0 0 0 0 0 0 0 0 0 0 0 0 0 0 0 0 0 0 0 z_e_438
S 616 6 1 0 0 6 1 605 4783 40800016 3000 A 0 0 0 0 0 0 0 0 0 0 0 0 0 0 0 0 0 0 0 0 0 0 0 0 0 0 0 0 z_e_440
S 617 6 1 0 0 6 1 605 4810 40800016 3000 A 0 0 0 0 0 0 0 0 0 0 0 0 0 0 0 0 0 0 0 0 0 0 0 0 0 0 0 0 z_e_442
S 618 6 1 0 0 6 1 605 4818 40800016 3000 A 0 0 0 0 0 0 0 0 0 0 0 0 0 0 0 0 0 0 0 0 0 0 0 0 0 0 0 0 z_e_444
S 619 23 5 0 0 0 625 582 4826 10 0 A 0 0 0 0 0 0 0 0 0 0 0 0 0 0 0 0 0 0 0 0 0 0 0 0 0 0 0 0 peigsrtv
S 620 7 3 3 0 77 1 619 4705 800214 3000 A 0 0 0 0 0 0 0 0 0 0 0 0 0 0 0 0 0 0 0 0 0 0 0 0 0 0 0 0 d
S 621 7 3 3 0 80 1 619 4709 800214 3000 A 0 0 0 0 0 0 0 0 0 0 0 0 0 0 0 0 0 0 0 0 0 0 0 0 0 0 0 0 v
S 622 6 3 1 0 6 1 619 4711 800014 3000 A 0 0 0 0 0 0 0 0 0 0 0 0 0 0 0 0 0 0 0 0 0 0 0 0 0 0 0 0 ldv
S 623 6 3 1 0 6 1 619 4719 800014 3000 A 0 0 0 0 0 0 0 0 0 0 0 0 0 0 0 0 0 0 0 0 0 0 0 0 0 0 0 0 n
S 624 1 3 1 0 6 1 619 4715 14 3000 A 0 0 0 0 0 0 0 0 0 0 0 0 0 0 0 0 0 0 0 0 0 0 0 0 0 0 0 0 nrl
S 625 14 5 0 0 0 1 619 4826 210 400000 A 0 0 0 0 0 0 0 23 5 0 0 0 0 0 0 0 0 0 0 0 0 533 0 582 0 0 0 0 peigsrtv
F 625 5 620 621 622 623 624
S 626 6 1 0 0 6 1 619 4835 40800016 3000 A 0 0 0 0 0 0 0 0 0 0 0 0 0 0 0 0 0 0 0 0 0 0 0 0 0 0 0 0 z_e_33
S 627 6 1 0 0 6 1 619 4842 40800016 3000 A 0 0 0 0 0 0 0 0 0 0 0 0 0 0 0 0 0 0 0 0 0 0 0 0 0 0 0 0 z_e_35
S 628 6 1 0 0 6 1 619 4849 40800016 3000 A 0 0 0 0 0 0 0 0 0 0 0 0 0 0 0 0 0 0 0 0 0 0 0 0 0 0 0 0 z_e_37
S 629 6 1 0 0 6 1 619 4856 40800016 3000 A 0 0 0 0 0 0 0 0 0 0 0 0 0 0 0 0 0 0 0 0 0 0 0 0 0 0 0 0 z_e_39
S 630 23 5 0 0 9 633 582 4863 10 0 A 0 0 0 0 0 0 0 0 0 0 0 0 0 0 0 0 0 0 0 0 0 0 0 0 0 0 0 0 pythag
S 631 1 3 0 0 9 1 630 4699 14 3000 A 0 0 0 0 0 0 0 0 0 0 0 0 0 0 0 0 0 0 0 0 0 0 0 0 0 0 0 0 a
S 632 1 3 0 0 9 1 630 4870 14 3000 A 0 0 0 0 0 0 0 0 0 0 0 0 0 0 0 0 0 0 0 0 0 0 0 0 0 0 0 0 b
S 633 14 5 0 0 9 1 630 4863 14 400000 A 0 0 0 0 0 0 0 29 2 0 0 634 0 0 0 0 0 0 0 0 0 579 0 582 0 0 0 0 pythag
F 633 2 631 632
S 634 1 3 0 0 9 1 630 4863 14 1003000 A 0 0 0 0 0 0 0 0 0 0 0 0 0 0 0 0 0 0 0 0 0 0 0 0 0 0 0 0 pythag
S 635 23 5 0 0 0 647 582 4671 0 0 A 0 0 0 0 0 0 0 0 0 0 0 0 0 0 0 0 0 0 0 0 0 0 0 0 0 0 0 0 pdspev_drv
S 636 1 3 0 0 20 1 635 4872 14 3000 A 0 0 0 0 0 0 0 0 0 0 0 0 0 0 0 0 0 0 0 0 0 0 0 0 0 0 0 0 jobz
S 637 7 3 0 0 83 1 635 4877 800314 3000 A 0 0 0 0 0 0 0 0 0 0 0 0 0 0 0 0 0 0 0 0 0 0 0 0 0 0 0 0 ap
S 638 6 3 0 0 6 1 635 4701 800014 3000 A 0 0 0 0 0 0 0 0 0 0 0 0 0 0 0 0 0 0 0 0 0 0 0 0 0 0 0 0 lda
S 639 7 3 0 0 86 1 635 4880 800114 3000 A 0 0 0 0 0 0 0 0 0 0 0 0 0 0 0 0 0 0 0 0 0 0 0 0 0 0 0 0 w
S 640 7 3 0 0 89 1 635 4798 800314 3000 A 0 0 0 0 0 0 0 0 0 0 0 0 0 0 0 0 0 0 0 0 0 0 0 0 0 0 0 0 z
S 641 6 3 0 0 6 1 635 4800 800014 3000 A 0 0 0 0 0 0 0 0 0 0 0 0 0 0 0 0 0 0 0 0 0 0 0 0 0 0 0 0 ldz
S 642 1 3 0 0 6 1 635 4715 14 3000 A 0 0 0 0 0 0 0 0 0 0 0 0 0 0 0 0 0 0 0 0 0 0 0 0 0 0 0 0 nrl
S 643 1 3 0 0 6 1 635 4719 14 3000 A 0 0 0 0 0 0 0 0 0 0 0 0 0 0 0 0 0 0 0 0 0 0 0 0 0 0 0 0 n
S 644 1 3 0 0 6 1 635 4721 14 3000 A 0 0 0 0 0 0 0 0 0 0 0 0 0 0 0 0 0 0 0 0 0 0 0 0 0 0 0 0 nproc
S 645 1 3 0 0 6 1 635 4804 14 3000 A 0 0 0 0 0 0 0 0 0 0 0 0 0 0 0 0 0 0 0 0 0 0 0 0 0 0 0 0 mpime
S 646 1 3 1 0 6 1 635 4882 80000014 3000 A 0 0 0 0 0 0 0 0 0 0 0 0 0 0 0 0 0 0 0 0 0 0 0 0 0 0 0 0 comm_in
S 647 14 5 0 0 0 1 635 4671 300 400000 A 0 0 0 0 0 0 0 32 11 0 0 0 0 0 0 0 0 0 0 0 0 600 0 582 0 0 0 0 pdspev_drv
F 647 11 636 637 638 639 640 641 642 643 644 645 646
S 648 6 1 0 0 6 1 635 4890 40800016 3000 A 0 0 0 0 0 0 0 0 0 0 0 0 0 0 0 0 0 0 0 0 0 0 0 0 0 0 0 0 z_e_450
S 649 6 1 0 0 6 1 635 4898 40800016 3000 A 0 0 0 0 0 0 0 0 0 0 0 0 0 0 0 0 0 0 0 0 0 0 0 0 0 0 0 0 z_b_0
S 650 6 1 0 0 6 1 635 4904 40800016 3000 A 0 0 0 0 0 0 0 0 0 0 0 0 0 0 0 0 0 0 0 0 0 0 0 0 0 0 0 0 z_e_453
S 651 6 1 0 0 6 1 635 4912 40800016 3000 A 0 0 0 0 0 0 0 0 0 0 0 0 0 0 0 0 0 0 0 0 0 0 0 0 0 0 0 0 z_b_1
S 652 6 1 0 0 6 1 635 4918 40800016 3000 A 0 0 0 0 0 0 0 0 0 0 0 0 0 0 0 0 0 0 0 0 0 0 0 0 0 0 0 0 z_e_456
S 653 6 1 0 0 6 1 635 4926 40800016 3000 A 0 0 0 0 0 0 0 0 0 0 0 0 0 0 0 0 0 0 0 0 0 0 0 0 0 0 0 0 z_b_2
S 654 6 1 0 0 6 1 635 4932 40800016 3000 A 0 0 0 0 0 0 0 0 0 0 0 0 0 0 0 0 0 0 0 0 0 0 0 0 0 0 0 0 z_e_459
S 655 23 5 0 0 0 663 582 4682 0 0 A 0 0 0 0 0 0 0 0 0 0 0 0 0 0 0 0 0 0 0 0 0 0 0 0 0 0 0 0 dspev_drv
S 656 1 3 0 0 20 1 655 4872 14 3000 A 0 0 0 0 0 0 0 0 0 0 0 0 0 0 0 0 0 0 0 0 0 0 0 0 0 0 0 0 jobz
S 657 1 3 0 0 20 1 655 4940 14 3000 A 0 0 0 0 0 0 0 0 0 0 0 0 0 0 0 0 0 0 0 0 0 0 0 0 0 0 0 0 uplo
S 658 1 3 0 0 6 1 655 4719 14 3000 A 0 0 0 0 0 0 0 0 0 0 0 0 0 0 0 0 0 0 0 0 0 0 0 0 0 0 0 0 n
S 659 7 3 0 0 92 1 655 4877 800114 3000 A 0 0 0 0 0 0 0 0 0 0 0 0 0 0 0 0 0 0 0 0 0 0 0 0 0 0 0 0 ap
S 660 7 3 0 0 95 1 655 4880 800114 3000 A 0 0 0 0 0 0 0 0 0 0 0 0 0 0 0 0 0 0 0 0 0 0 0 0 0 0 0 0 w
S 661 7 3 0 0 98 1 655 4798 800314 3000 A 0 0 0 0 0 0 0 0 0 0 0 0 0 0 0 0 0 0 0 0 0 0 0 0 0 0 0 0 z
S 662 6 3 0 0 6 1 655 4800 800014 3000 A 0 0 0 0 0 0 0 0 0 0 0 0 0 0 0 0 0 0 0 0 0 0 0 0 0 0 0 0 ldz
S 663 14 5 0 0 0 1 655 4682 300 400000 A 0 0 0 0 0 0 0 44 7 0 0 0 0 0 0 0 0 0 0 0 0 631 0 582 0 0 0 0 dspev_drv
F 663 7 656 657 658 659 660 661 662
S 664 6 1 0 0 6 1 655 4898 40800016 3000 A 0 0 0 0 0 0 0 0 0 0 0 0 0 0 0 0 0 0 0 0 0 0 0 0 0 0 0 0 z_b_0
S 665 6 1 0 0 6 1 655 4912 40800016 3000 A 0 0 0 0 0 0 0 0 0 0 0 0 0 0 0 0 0 0 0 0 0 0 0 0 0 0 0 0 z_b_1
S 666 6 1 0 0 6 1 655 4945 40800016 3000 A 0 0 0 0 0 0 0 0 0 0 0 0 0 0 0 0 0 0 0 0 0 0 0 0 0 0 0 0 z_e_461
S 667 6 1 0 0 6 1 655 4926 40800016 3000 A 0 0 0 0 0 0 0 0 0 0 0 0 0 0 0 0 0 0 0 0 0 0 0 0 0 0 0 0 z_b_2
S 668 6 1 0 0 6 1 655 4953 40800016 3000 A 0 0 0 0 0 0 0 0 0 0 0 0 0 0 0 0 0 0 0 0 0 0 0 0 0 0 0 0 z_e_464
A 12 1 0 0 0 6 601 0 0 0 0 0 0 0 0 0 0 0 0 0
A 13 1 0 0 0 6 587 0 0 0 0 0 0 0 0 0 0 0 0 0
A 14 1 0 0 0 6 598 0 0 0 0 0 0 0 0 0 0 0 0 0
A 15 1 0 0 0 6 593 0 0 0 0 0 0 0 0 0 0 0 0 0
A 16 1 0 0 0 6 599 0 0 0 0 0 0 0 0 0 0 0 0 0
A 17 1 0 0 0 6 600 0 0 0 0 0 0 0 0 0 0 0 0 0
A 18 1 0 0 0 6 604 0 0 0 0 0 0 0 0 0 0 0 0 0
A 19 1 0 0 0 6 591 0 0 0 0 0 0 0 0 0 0 0 0 0
A 20 1 0 0 0 6 602 0 0 0 0 0 0 0 0 0 0 0 0 0
A 21 1 0 0 0 6 603 0 0 0 0 0 0 0 0 0 0 0 0 0
A 22 1 0 0 0 6 608 0 0 0 0 0 0 0 0 0 0 0 0 0
A 23 1 0 0 0 6 615 0 0 0 0 0 0 0 0 0 0 0 0 0
A 24 1 0 0 0 6 618 0 0 0 0 0 0 0 0 0 0 0 0 0
A 25 1 0 0 0 6 610 0 0 0 0 0 0 0 0 0 0 0 0 0
A 26 1 0 0 0 6 616 0 0 0 0 0 0 0 0 0 0 0 0 0
A 27 1 0 0 0 6 617 0 0 0 0 0 0 0 0 0 0 0 0 0
A 28 1 0 0 0 6 623 0 0 0 0 0 0 0 0 0 0 0 0 0
A 29 1 0 0 0 6 626 0 0 0 0 0 0 0 0 0 0 0 0 0
A 30 1 0 0 0 6 629 0 0 0 0 0 0 0 0 0 0 0 0 0
A 31 1 0 0 0 6 622 0 0 0 0 0 0 0 0 0 0 0 0 0
A 32 1 0 0 0 6 627 0 0 0 0 0 0 0 0 0 0 0 0 0
A 33 1 0 0 0 6 628 0 0 0 0 0 0 0 0 0 0 0 0 0
A 34 1 0 0 0 6 650 0 0 0 0 0 0 0 0 0 0 0 0 0
A 35 1 0 0 0 6 638 0 0 0 0 0 0 0 0 0 0 0 0 0
A 36 1 0 0 0 6 648 0 0 0 0 0 0 0 0 0 0 0 0 0
A 37 1 0 0 0 6 649 0 0 0 0 0 0 0 0 0 0 0 0 0
A 38 1 0 0 0 6 651 0 0 0 0 0 0 0 0 0 0 0 0 0
A 39 1 0 0 0 6 654 0 0 0 0 0 0 0 0 0 0 0 0 0
A 40 1 0 0 0 6 641 0 0 0 0 0 0 0 0 0 0 0 0 0
A 41 1 0 0 0 6 652 0 0 0 0 0 0 0 0 0 0 0 0 0
A 42 1 0 0 0 6 653 0 0 0 0 0 0 0 0 0 0 0 0 0
A 43 1 0 0 0 6 664 0 0 0 0 0 0 0 0 0 0 0 0 0
A 44 1 0 0 0 6 665 0 0 0 0 0 0 0 0 0 0 0 0 0
A 45 1 0 0 0 6 668 0 0 0 0 0 0 0 0 0 0 0 0 0
A 46 1 0 0 0 6 662 0 0 0 0 0 0 0 0 0 0 0 0 0
A 47 1 0 0 0 6 666 0 0 0 0 0 0 0 0 0 0 0 0 0
A 48 1 0 0 0 6 667 0 0 0 0 0 0 0 0 0 0 0 0 0
Z
Z
