V26 electrons_base
18 electrons_base.F90 S582 0
04/24/2012  15:51:03
use kinds private
use kinds private
enduse
D 56 21 6 1 3 20 0 0 0 0 0
 0 20 3 3 20 20
D 59 21 6 1 3 20 0 0 0 0 0
 0 20 3 3 20 20
D 62 21 6 1 3 20 0 0 0 0 0
 0 20 3 3 20 20
D 65 21 9 1 44 43 0 1 0 0 1
 35 39 41 35 39 37
D 68 21 6 1 0 32 0 0 0 0 0
 0 32 0 3 32 0
D 71 21 6 1 55 54 0 1 0 0 1
 49 52 53 49 52 50
D 74 21 6 1 0 32 0 0 0 0 0
 0 32 0 3 32 0
D 77 21 9 1 56 59 1 1 0 0 1
 3 57 3 3 57 58
D 80 21 9 2 60 66 1 1 0 0 1
 3 61 3 3 61 62
 3 63 64 3 63 65
D 83 21 6 1 67 70 1 1 0 0 1
 3 68 3 3 68 69
S 582 24 0 0 0 9 1 0 4658 10005 0 A 0 0 0 0 0 0 0 0 0 0 0 0 0 0 0 0 0 0 0 0 0 11 0 0 0 0 0 0 electrons_base
S 584 23 0 0 0 9 587 582 4679 4 0 A 0 0 0 0 0 0 0 0 0 0 0 0 0 0 0 0 0 0 0 0 0 0 0 582 0 0 0 0 dp
S 585 3 0 0 0 6 1 1 0 0 0 A 0 0 0 0 0 0 0 0 0 8 0 0 0 0 0 0 0 0 0 0 0 0 0 0 0 0 0 0 6
R 587 16 1 kinds dp
S 594 6 4 0 0 6 595 582 4713 80000c 0 A 0 0 0 0 0 0 0 0 0 0 0 0 626 0 0 0 0 0 0 0 0 0 0 582 0 0 0 0 nbnd
S 595 6 4 0 0 6 596 582 4718 80000c 0 A 0 0 0 0 0 4 0 0 0 0 0 0 626 0 0 0 0 0 0 0 0 0 0 582 0 0 0 0 nbndx
S 596 6 4 0 0 6 597 582 4724 80000c 0 A 0 0 0 0 0 8 0 0 0 0 0 0 626 0 0 0 0 0 0 0 0 0 0 582 0 0 0 0 nspin
S 597 7 4 0 4 56 599 582 4730 80000c 100 A 0 0 0 0 0 16 0 0 0 0 0 0 626 0 0 0 0 0 0 0 0 0 0 582 0 0 0 0 nel
S 598 3 0 0 0 6 0 1 0 0 0 A 0 0 0 0 0 0 0 0 0 2 0 0 0 0 0 0 0 0 0 0 0 0 0 0 0 0 0 0 6
S 599 6 4 0 0 6 600 582 4734 80000c 0 A 0 0 0 0 0 24 0 0 0 0 0 0 626 0 0 0 0 0 0 0 0 0 0 582 0 0 0 0 nelt
S 600 7 4 0 4 59 601 582 4739 80000c 100 A 0 0 0 0 0 32 0 0 0 0 0 0 626 0 0 0 0 0 0 0 0 0 0 582 0 0 0 0 nupdwn
S 601 7 4 0 4 62 602 582 4746 80000c 100 A 0 0 0 0 0 48 0 0 0 0 0 0 626 0 0 0 0 0 0 0 0 0 0 582 0 0 0 0 iupdwn
S 602 6 4 0 0 6 603 582 4753 80000c 0 A 0 0 0 0 0 56 0 0 0 0 0 0 626 0 0 0 0 0 0 0 0 0 0 582 0 0 0 0 nudx
S 603 6 4 0 0 6 604 582 4758 80000c 0 A 0 0 0 0 0 60 0 0 0 0 0 0 626 0 0 0 0 0 0 0 0 0 0 582 0 0 0 0 nbsp
S 604 6 4 0 0 6 605 582 4763 80000c 0 A 0 0 0 0 0 64 0 0 0 0 0 0 626 0 0 0 0 0 0 0 0 0 0 582 0 0 0 0 nbspx
S 605 6 4 0 0 16 607 582 4769 80000c 0 A 0 0 0 0 0 68 0 0 0 0 0 0 626 0 0 0 0 0 0 0 0 0 0 582 0 0 0 0 telectrons_base_initval
S 607 6 4 0 0 16 1 582 4793 80000c 0 A 0 0 0 0 0 72 0 0 0 0 0 0 626 0 0 0 0 0 0 0 0 0 0 582 0 0 0 0 keep_occ
S 608 7 6 0 0 65 1 582 4802 10a00004 51 A 0 0 0 0 0 0 612 0 0 0 614 0 0 0 0 0 0 0 0 611 0 0 613 582 0 0 0 0 f
S 609 6 4 0 0 6 621 582 4804 40800006 0 A 0 0 0 0 0 0 0 0 0 0 0 0 627 0 0 0 0 0 0 0 0 0 0 582 0 0 0 0 z_b_0
S 610 3 0 0 0 6 0 1 0 0 0 A 0 0 0 0 0 0 0 0 0 18 0 0 0 0 0 0 0 0 0 0 0 0 0 0 0 0 0 0 6
S 611 8 4 0 0 68 623 582 4810 40822064 1020 A 0 0 0 0 0 0 0 0 0 0 0 0 627 0 0 0 0 0 0 0 0 0 0 582 0 0 0 0 f$sd
S 612 6 4 0 0 7 613 582 4815 40802061 1020 A 0 0 0 0 0 72 0 0 0 0 0 0 627 0 0 0 0 0 0 0 0 0 0 582 0 0 0 0 f$p
S 613 6 4 0 0 7 611 582 4819 40802060 1020 A 0 0 0 0 0 80 0 0 0 0 0 0 627 0 0 0 0 0 0 0 0 0 0 582 0 0 0 0 f$o
S 614 22 1 0 0 9 1 582 4823 40000000 1000 A 0 0 0 0 0 0 0 608 0 0 0 0 611 0 0 0 0 0 0 0 0 0 0 582 0 0 0 0 f$arrdsc
S 615 3 0 0 0 6 0 1 0 0 0 A 0 0 0 0 0 0 0 0 0 13 0 0 0 0 0 0 0 0 0 0 0 0 0 0 0 0 0 0 6
S 616 3 0 0 0 6 0 1 0 0 0 A 0 0 0 0 0 0 0 0 0 14 0 0 0 0 0 0 0 0 0 0 0 0 0 0 0 0 0 0 6
S 617 3 0 0 0 6 0 1 0 0 0 A 0 0 0 0 0 0 0 0 0 17 0 0 0 0 0 0 0 0 0 0 0 0 0 0 0 0 0 0 6
S 618 3 0 0 0 6 0 1 0 0 0 A 0 0 0 0 0 0 0 0 0 7 0 0 0 0 0 0 0 0 0 0 0 0 0 0 0 0 0 0 6
S 619 6 4 0 0 9 1 582 4832 80000c 0 A 0 0 0 0 0 0 0 0 0 0 0 0 628 0 0 0 0 0 0 0 0 0 0 582 0 0 0 0 qbac
S 620 7 6 0 0 71 1 582 4844 10a00004 51 A 0 0 0 0 0 0 623 0 0 0 625 0 0 0 0 0 0 0 0 622 0 0 624 582 0 0 0 0 ispin
S 621 6 4 0 0 6 1 582 4850 40800006 0 A 0 0 0 0 0 4 0 0 0 0 0 0 627 0 0 0 0 0 0 0 0 0 0 582 0 0 0 0 z_b_1
S 622 8 4 0 0 74 609 582 4856 40822064 1020 A 0 0 0 0 0 88 0 0 0 0 0 0 627 0 0 0 0 0 0 0 0 0 0 582 0 0 0 0 ispin$sd
S 623 6 4 0 0 7 624 582 4865 40802061 1020 A 0 0 0 0 0 160 0 0 0 0 0 0 627 0 0 0 0 0 0 0 0 0 0 582 0 0 0 0 ispin$p
S 624 6 4 0 0 7 622 582 4873 40802060 1020 A 0 0 0 0 0 168 0 0 0 0 0 0 627 0 0 0 0 0 0 0 0 0 0 582 0 0 0 0 ispin$o
S 625 22 1 0 0 6 1 582 4881 40000000 1000 A 0 0 0 0 0 0 0 620 0 0 0 0 622 0 0 0 0 0 0 0 0 0 0 582 0 0 0 0 ispin$arrdsc
S 626 11 0 0 4 9 1 582 4894 40800000 801000 A 0 0 0 0 0 76 0 0 594 607 0 0 0 0 0 0 0 0 0 0 0 0 0 0 0 0 0 0 _electrons_base$8
S 627 11 0 0 0 9 626 582 4912 40800000 801000 A 0 0 0 0 0 184 0 0 612 621 0 0 0 0 0 0 0 0 0 0 0 0 0 0 0 0 0 0 _electrons_base$0
S 628 11 0 0 0 9 627 582 4930 40800000 801000 A 0 0 0 0 0 8 0 0 619 619 0 0 0 0 0 0 0 0 0 0 0 0 0 0 0 0 0 0 _electrons_base$10
S 629 23 5 0 0 0 643 582 4949 0 0 A 0 0 0 0 0 0 0 0 0 0 0 0 0 0 0 0 0 0 0 0 0 0 0 0 0 0 0 0 electrons_base_initval
S 630 7 3 1 0 77 1 629 4972 20000004 10003000 A 0 0 0 0 0 0 0 0 0 0 0 0 0 0 0 0 0 0 0 0 0 0 0 0 0 0 0 0 zv_
S 631 7 3 1 0 83 1 629 4976 20000004 10003000 A 0 0 0 0 0 0 0 0 0 0 0 0 0 0 0 0 0 0 0 0 0 0 0 0 0 0 0 0 na_
S 632 1 3 1 0 6 1 629 4980 4 3000 A 0 0 0 0 0 0 0 0 0 0 0 0 0 0 0 0 0 0 0 0 0 0 0 0 0 0 0 0 nsp_
S 633 1 3 1 0 9 1 629 4985 4 3000 A 0 0 0 0 0 0 0 0 0 0 0 0 0 0 0 0 0 0 0 0 0 0 0 0 0 0 0 0 nelec_
S 634 1 3 1 0 9 1 629 4992 4 3000 A 0 0 0 0 0 0 0 0 0 0 0 0 0 0 0 0 0 0 0 0 0 0 0 0 0 0 0 0 nelup_
S 635 1 3 1 0 9 1 629 4999 4 3000 A 0 0 0 0 0 0 0 0 0 0 0 0 0 0 0 0 0 0 0 0 0 0 0 0 0 0 0 0 neldw_
S 636 1 3 1 0 6 1 629 5006 4 3000 A 0 0 0 0 0 0 0 0 0 0 0 0 0 0 0 0 0 0 0 0 0 0 0 0 0 0 0 0 nbnd_
S 637 1 3 1 0 6 1 629 5012 4 3000 A 0 0 0 0 0 0 0 0 0 0 0 0 0 0 0 0 0 0 0 0 0 0 0 0 0 0 0 0 nspin_
S 638 1 3 1 0 28 1 629 5019 4 43000 A 0 0 0 0 0 0 0 0 0 0 0 0 0 0 0 0 0 0 0 0 0 0 0 0 0 0 0 0 occupations_
S 639 7 3 1 0 80 1 629 5032 20000004 10003000 A 0 0 0 0 0 0 0 0 0 0 0 0 0 0 0 0 0 0 0 0 0 0 0 0 0 0 0 0 f_inp
S 640 1 3 1 0 9 1 629 5038 4 3000 A 0 0 0 0 0 0 0 0 0 0 0 0 0 0 0 0 0 0 0 0 0 0 0 0 0 0 0 0 tot_charge_
S 641 1 3 1 0 6 1 629 5050 4 3000 A 0 0 0 0 0 0 0 0 0 0 0 0 0 0 0 0 0 0 0 0 0 0 0 0 0 0 0 0 multiplicity_
S 642 1 3 1 0 6 1 629 5064 4 3000 A 0 0 0 0 0 0 0 0 0 0 0 0 0 0 0 0 0 0 0 0 0 0 0 0 0 0 0 0 tot_magnetization_
S 643 14 5 0 0 0 1 629 4949 20000000 400000 A 0 0 0 0 0 0 0 4 13 0 0 0 0 0 0 0 0 0 0 0 0 45 0 582 0 0 0 0 electrons_base_initval
F 643 13 630 631 632 633 634 635 636 637 638 639 640 641 642
S 644 6 1 0 0 6 1 629 5083 40800006 3000 A 0 0 0 0 0 0 0 0 0 0 0 0 0 0 0 0 0 0 0 0 0 0 0 0 0 0 0 0 z_b_0_1
S 645 6 1 0 0 6 1 629 5091 40800006 3000 A 0 0 0 0 0 0 0 0 0 0 0 0 0 0 0 0 0 0 0 0 0 0 0 0 0 0 0 0 z_b_2
S 646 6 1 0 0 6 1 629 5097 40800006 3000 A 0 0 0 0 0 0 0 0 0 0 0 0 0 0 0 0 0 0 0 0 0 0 0 0 0 0 0 0 z_b_3
S 647 6 1 0 0 6 1 629 5103 40800006 3000 A 0 0 0 0 0 0 0 0 0 0 0 0 0 0 0 0 0 0 0 0 0 0 0 0 0 0 0 0 z_e_155
S 648 6 1 0 0 6 1 629 5111 40800006 3000 A 0 0 0 0 0 0 0 0 0 0 0 0 0 0 0 0 0 0 0 0 0 0 0 0 0 0 0 0 z_b_4
S 649 6 1 0 0 6 1 629 5117 40800006 3000 A 0 0 0 0 0 0 0 0 0 0 0 0 0 0 0 0 0 0 0 0 0 0 0 0 0 0 0 0 z_b_6
S 650 6 1 0 0 6 1 629 5123 40800006 3000 A 0 0 0 0 0 0 0 0 0 0 0 0 0 0 0 0 0 0 0 0 0 0 0 0 0 0 0 0 z_b_7
S 651 6 1 0 0 6 1 629 5129 40800006 3000 A 0 0 0 0 0 0 0 0 0 0 0 0 0 0 0 0 0 0 0 0 0 0 0 0 0 0 0 0 z_b_9
S 652 6 1 0 0 6 1 629 5135 40800006 3000 A 0 0 0 0 0 0 0 0 0 0 0 0 0 0 0 0 0 0 0 0 0 0 0 0 0 0 0 0 z_b_10
S 653 6 1 0 0 6 1 629 5142 40800006 3000 A 0 0 0 0 0 0 0 0 0 0 0 0 0 0 0 0 0 0 0 0 0 0 0 0 0 0 0 0 z_e_165
S 654 6 1 0 0 6 1 629 5150 40800006 3000 A 0 0 0 0 0 0 0 0 0 0 0 0 0 0 0 0 0 0 0 0 0 0 0 0 0 0 0 0 z_e_168
S 655 6 1 0 0 6 1 629 5158 40800006 3000 A 0 0 0 0 0 0 0 0 0 0 0 0 0 0 0 0 0 0 0 0 0 0 0 0 0 0 0 0 z_b_11
S 656 6 1 0 0 6 1 629 5165 40800006 3000 A 0 0 0 0 0 0 0 0 0 0 0 0 0 0 0 0 0 0 0 0 0 0 0 0 0 0 0 0 z_b_13
S 657 6 1 0 0 6 1 629 5172 40800006 3000 A 0 0 0 0 0 0 0 0 0 0 0 0 0 0 0 0 0 0 0 0 0 0 0 0 0 0 0 0 z_b_14
S 658 6 1 0 0 6 1 629 5179 40800006 3000 A 0 0 0 0 0 0 0 0 0 0 0 0 0 0 0 0 0 0 0 0 0 0 0 0 0 0 0 0 z_e_175
S 659 23 5 0 0 0 665 582 5187 0 0 A 0 0 0 0 0 0 0 0 0 0 0 0 0 0 0 0 0 0 0 0 0 0 0 0 0 0 0 0 set_nelup_neldw
S 660 1 3 1 0 9 1 659 4985 4 3000 A 0 0 0 0 0 0 0 0 0 0 0 0 0 0 0 0 0 0 0 0 0 0 0 0 0 0 0 0 nelec_
S 661 1 3 3 0 9 1 659 4992 4 3000 A 0 0 0 0 0 0 0 0 0 0 0 0 0 0 0 0 0 0 0 0 0 0 0 0 0 0 0 0 nelup_
S 662 1 3 3 0 9 1 659 4999 4 3000 A 0 0 0 0 0 0 0 0 0 0 0 0 0 0 0 0 0 0 0 0 0 0 0 0 0 0 0 0 neldw_
S 663 1 3 1 0 6 1 659 5064 4 3000 A 0 0 0 0 0 0 0 0 0 0 0 0 0 0 0 0 0 0 0 0 0 0 0 0 0 0 0 0 tot_magnetization_
S 664 1 3 1 0 6 1 659 5050 4 3000 A 0 0 0 0 0 0 0 0 0 0 0 0 0 0 0 0 0 0 0 0 0 0 0 0 0 0 0 0 multiplicity_
S 665 14 5 0 0 0 1 659 5187 0 400000 A 0 0 0 0 0 0 0 18 5 0 0 0 0 0 0 0 0 0 0 0 0 312 0 582 0 0 0 0 set_nelup_neldw
F 665 5 660 661 662 663 664
S 666 23 5 0 0 0 667 582 5203 0 0 A 0 0 0 0 0 0 0 0 0 0 0 0 0 0 0 0 0 0 0 0 0 0 0 0 0 0 0 0 deallocate_elct
S 667 14 5 0 0 0 1 666 5203 0 400000 A 0 0 0 0 0 0 0 24 0 0 0 0 0 0 0 0 0 0 0 0 0 414 0 582 0 0 0 0 deallocate_elct
F 667 0
A 13 2 0 0 0 6 585 0 0 0 13 0 0 0 0 0 0 0 0 0
A 20 2 0 0 0 6 598 0 0 0 20 0 0 0 0 0 0 0 0 0
A 32 2 0 0 0 6 610 0 0 0 32 0 0 0 0 0 0 0 0 0
A 33 2 0 0 0 6 615 0 0 0 33 0 0 0 0 0 0 0 0 0
A 34 1 0 3 0 68 611 0 0 0 0 0 0 0 0 0 0 0 0 0
A 35 10 0 0 0 6 34 1 0 0 0 0 0 0 0 0 0 0 0 0
X 1 33
A 36 2 0 0 0 6 616 0 0 0 36 0 0 0 0 0 0 0 0 0
A 37 10 0 0 35 6 34 4 0 0 0 0 0 0 0 0 0 0 0 0
X 1 36
A 38 4 0 0 0 6 37 0 3 0 0 0 0 2 0 0 0 0 0 0
A 39 4 0 0 0 6 35 0 38 0 0 0 0 1 0 0 0 0 0 0
A 40 2 0 0 0 6 617 0 0 0 40 0 0 0 0 0 0 0 0 0
A 41 10 0 0 37 6 34 7 0 0 0 0 0 0 0 0 0 0 0 0
X 1 40
A 42 2 0 0 0 6 618 0 0 0 42 0 0 0 0 0 0 0 0 0
A 43 10 0 0 41 6 34 10 0 0 0 0 0 0 0 0 0 0 0 0
X 1 42
A 44 10 0 0 43 6 34 13 0 0 0 0 0 0 0 0 0 0 0 0
X 1 13
A 48 1 0 3 0 74 622 0 0 0 0 0 0 0 0 0 0 0 0 0
A 49 10 0 0 0 6 48 1 0 0 0 0 0 0 0 0 0 0 0 0
X 1 33
A 50 10 0 0 49 6 48 4 0 0 0 0 0 0 0 0 0 0 0 0
X 1 36
A 51 4 0 0 0 6 50 0 3 0 0 0 0 2 0 0 0 0 0 0
A 52 4 0 0 0 6 49 0 51 0 0 0 0 1 0 0 0 0 0 0
A 53 10 0 0 50 6 48 7 0 0 0 0 0 0 0 0 0 0 0 0
X 1 40
A 54 10 0 0 53 6 48 10 0 0 0 0 0 0 0 0 0 0 0 0
X 1 42
A 55 10 0 0 54 6 48 13 0 0 0 0 0 0 0 0 0 0 0 0
X 1 13
A 56 1 0 0 0 6 646 0 0 0 0 0 0 0 0 0 0 0 0 0
A 57 1 0 0 0 6 644 0 0 0 0 0 0 0 0 0 0 0 0 0
A 58 1 0 0 0 6 647 0 0 0 0 0 0 0 0 0 0 0 0 0
A 59 1 0 0 0 6 645 0 0 0 0 0 0 0 0 0 0 0 0 0
A 60 1 0 0 0 6 652 0 0 0 0 0 0 0 0 0 0 0 0 0
A 61 1 0 0 0 6 648 0 0 0 0 0 0 0 0 0 0 0 0 0
A 62 1 0 0 0 6 653 0 0 0 0 0 0 0 0 0 0 0 0 0
A 63 1 0 0 0 6 650 0 0 0 0 0 0 0 0 0 0 0 0 0
A 64 1 0 0 0 6 649 0 0 0 0 0 0 0 0 0 0 0 0 0
A 65 1 0 0 0 6 654 0 0 0 0 0 0 0 0 0 0 0 0 0
A 66 1 0 0 51 6 651 0 0 0 0 0 0 0 0 0 0 0 0 0
A 67 1 0 0 0 6 657 0 0 0 0 0 0 0 0 0 0 0 0 0
A 68 1 0 0 0 6 655 0 0 0 0 0 0 0 0 0 0 0 0 0
A 69 1 0 0 0 6 658 0 0 0 0 0 0 0 0 0 0 0 0 0
A 70 1 0 0 0 6 656 0 0 0 0 0 0 0 0 0 0 0 0 0
Z
Z
