V26 electrons_nose
18 electrons_base.F90 S582 0
04/24/2012  15:51:03
use kinds private
use kinds private
enduse
S 582 24 0 0 0 9 1 0 4658 10005 0 A 0 0 0 0 0 0 0 0 0 0 0 0 0 0 0 0 0 0 0 0 0 429 0 0 0 0 0 0 electrons_nose
S 584 23 0 0 0 9 587 582 4679 4 0 A 0 0 0 0 0 0 0 0 0 0 0 0 0 0 0 0 0 0 0 0 0 0 0 582 0 0 0 0 dp
R 587 16 1 kinds dp
S 594 6 4 0 0 9 595 582 4713 80000c 0 A 0 0 0 0 0 0 0 0 0 0 0 0 601 0 0 0 0 0 0 0 0 0 0 582 0 0 0 0 fnosee
S 595 6 4 0 0 9 596 582 4727 80000c 0 A 0 0 0 0 0 8 0 0 0 0 0 0 601 0 0 0 0 0 0 0 0 0 0 582 0 0 0 0 qne
S 596 6 4 0 0 9 597 582 4738 80000c 0 A 0 0 0 0 0 16 0 0 0 0 0 0 601 0 0 0 0 0 0 0 0 0 0 582 0 0 0 0 ekincw
S 597 6 4 0 0 9 598 582 4752 80000c 0 A 0 0 0 0 0 24 0 0 0 0 0 0 601 0 0 0 0 0 0 0 0 0 0 582 0 0 0 0 xnhe0
S 598 6 4 0 0 9 599 582 4765 80000c 0 A 0 0 0 0 0 32 0 0 0 0 0 0 601 0 0 0 0 0 0 0 0 0 0 582 0 0 0 0 xnhep
S 599 6 4 0 0 9 600 582 4778 80000c 0 A 0 0 0 0 0 40 0 0 0 0 0 0 601 0 0 0 0 0 0 0 0 0 0 582 0 0 0 0 xnhem
S 600 6 4 0 0 9 1 582 4791 80000c 0 A 0 0 0 0 0 48 0 0 0 0 0 0 601 0 0 0 0 0 0 0 0 0 0 582 0 0 0 0 vnhe
S 601 11 0 0 0 9 1 582 4803 40800000 801000 A 0 0 0 0 0 56 0 0 594 600 0 0 0 0 0 0 0 0 0 0 0 0 0 0 0 0 0 0 _electrons_nose$10
S 602 23 5 0 0 0 605 582 4822 0 0 A 0 0 0 0 0 0 0 0 0 0 0 0 0 0 0 0 0 0 0 0 0 0 0 0 0 0 0 0 electrons_nose_init
S 603 1 3 1 0 9 1 602 4842 4 3000 A 0 0 0 0 0 0 0 0 0 0 0 0 0 0 0 0 0 0 0 0 0 0 0 0 0 0 0 0 ekincw_
S 604 1 3 1 0 9 1 602 4850 4 3000 A 0 0 0 0 0 0 0 0 0 0 0 0 0 0 0 0 0 0 0 0 0 0 0 0 0 0 0 0 fnosee_
S 605 14 5 0 0 0 1 602 4822 0 400000 A 0 0 0 0 0 0 0 4 2 0 0 0 0 0 0 0 0 0 0 0 0 451 0 582 0 0 0 0 electrons_nose_init
F 605 2 603 604
S 606 23 5 0 0 9 611 582 4858 0 0 A 0 0 0 0 0 0 0 0 0 0 0 0 0 0 0 0 0 0 0 0 0 0 0 0 0 0 0 0 electrons_nose_nrg
S 607 1 3 1 0 9 1 606 4752 4 3000 A 0 0 0 0 0 0 0 0 0 0 0 0 0 0 0 0 0 0 0 0 0 0 0 0 0 0 0 0 xnhe0
S 608 1 3 1 0 9 1 606 4791 4 3000 A 0 0 0 0 0 0 0 0 0 0 0 0 0 0 0 0 0 0 0 0 0 0 0 0 0 0 0 0 vnhe
S 609 1 3 1 0 9 1 606 4727 4 3000 A 0 0 0 0 0 0 0 0 0 0 0 0 0 0 0 0 0 0 0 0 0 0 0 0 0 0 0 0 qne
S 610 1 3 1 0 9 1 606 4738 4 3000 A 0 0 0 0 0 0 0 0 0 0 0 0 0 0 0 0 0 0 0 0 0 0 0 0 0 0 0 0 ekincw
S 611 14 5 0 0 9 1 606 4858 4 400000 A 0 0 0 0 0 0 0 7 4 0 0 612 0 0 0 0 0 0 0 0 0 467 0 582 0 0 0 0 electrons_nose_nrg
F 611 4 607 608 609 610
S 612 1 3 0 0 9 1 606 4858 4 1003000 A 0 0 0 0 0 0 0 0 0 0 0 0 0 0 0 0 0 0 0 0 0 0 0 0 0 0 0 0 electrons_nose_nrg
S 613 23 5 0 0 0 617 582 4877 0 0 A 0 0 0 0 0 0 0 0 0 0 0 0 0 0 0 0 0 0 0 0 0 0 0 0 0 0 0 0 electrons_nose_shiftvar
S 614 1 3 1 0 9 1 613 4765 4 3000 A 0 0 0 0 0 0 0 0 0 0 0 0 0 0 0 0 0 0 0 0 0 0 0 0 0 0 0 0 xnhep
S 615 1 3 3 0 9 1 613 4752 4 3000 A 0 0 0 0 0 0 0 0 0 0 0 0 0 0 0 0 0 0 0 0 0 0 0 0 0 0 0 0 xnhe0
S 616 1 3 2 0 9 1 613 4778 4 3000 A 0 0 0 0 0 0 0 0 0 0 0 0 0 0 0 0 0 0 0 0 0 0 0 0 0 0 0 0 xnhem
S 617 14 5 0 0 0 1 613 4877 0 400000 A 0 0 0 0 0 0 0 12 3 0 0 0 0 0 0 0 0 0 0 0 0 478 0 582 0 0 0 0 electrons_nose_shiftvar
F 617 3 614 615 616
S 618 23 5 0 0 0 623 582 4901 0 0 A 0 0 0 0 0 0 0 0 0 0 0 0 0 0 0 0 0 0 0 0 0 0 0 0 0 0 0 0 electrons_nosevel
S 619 1 3 1 0 9 1 618 4919 4 3000 A 0 0 0 0 0 0 0 0 0 0 0 0 0 0 0 0 0 0 0 0 0 0 0 0 0 0 0 0 delt
S 620 1 3 3 0 9 1 618 4791 4 3000 A 0 0 0 0 0 0 0 0 0 0 0 0 0 0 0 0 0 0 0 0 0 0 0 0 0 0 0 0 vnhe
S 621 1 3 1 0 9 1 618 4752 4 3000 A 0 0 0 0 0 0 0 0 0 0 0 0 0 0 0 0 0 0 0 0 0 0 0 0 0 0 0 0 xnhe0
S 622 1 3 1 0 9 1 618 4778 4 3000 A 0 0 0 0 0 0 0 0 0 0 0 0 0 0 0 0 0 0 0 0 0 0 0 0 0 0 0 0 xnhem
S 623 14 5 0 0 0 1 618 4901 0 400000 A 0 0 0 0 0 0 0 16 4 0 0 0 0 0 0 0 0 0 0 0 0 491 0 582 0 0 0 0 electrons_nosevel
F 623 4 620 621 622 619
S 624 23 5 0 0 0 633 582 4924 0 0 A 0 0 0 0 0 0 0 0 0 0 0 0 0 0 0 0 0 0 0 0 0 0 0 0 0 0 0 0 electrons_noseupd
S 625 1 3 1 0 9 1 624 4919 4 3000 A 0 0 0 0 0 0 0 0 0 0 0 0 0 0 0 0 0 0 0 0 0 0 0 0 0 0 0 0 delt
S 626 1 3 1 0 9 1 624 4942 4 3000 A 0 0 0 0 0 0 0 0 0 0 0 0 0 0 0 0 0 0 0 0 0 0 0 0 0 0 0 0 ekinc
S 627 1 3 2 0 9 1 624 4765 4 3000 A 0 0 0 0 0 0 0 0 0 0 0 0 0 0 0 0 0 0 0 0 0 0 0 0 0 0 0 0 xnhep
S 628 1 3 1 0 9 1 624 4752 4 3000 A 0 0 0 0 0 0 0 0 0 0 0 0 0 0 0 0 0 0 0 0 0 0 0 0 0 0 0 0 xnhe0
S 629 1 3 1 0 9 1 624 4778 4 3000 A 0 0 0 0 0 0 0 0 0 0 0 0 0 0 0 0 0 0 0 0 0 0 0 0 0 0 0 0 xnhem
S 630 1 3 1 0 9 1 624 4727 4 3000 A 0 0 0 0 0 0 0 0 0 0 0 0 0 0 0 0 0 0 0 0 0 0 0 0 0 0 0 0 qne
S 631 1 3 1 0 9 1 624 4738 4 3000 A 0 0 0 0 0 0 0 0 0 0 0 0 0 0 0 0 0 0 0 0 0 0 0 0 0 0 0 0 ekincw
S 632 1 3 2 0 9 1 624 4791 4 3000 A 0 0 0 0 0 0 0 0 0 0 0 0 0 0 0 0 0 0 0 0 0 0 0 0 0 0 0 0 vnhe
S 633 14 5 0 0 0 1 624 4924 0 400000 A 0 0 0 0 0 0 0 21 8 0 0 0 0 0 0 0 0 0 0 0 0 499 0 582 0 0 0 0 electrons_noseupd
F 633 8 627 628 629 625 630 626 631 632
S 634 23 5 0 0 0 635 582 4948 0 0 A 0 0 0 0 0 0 0 0 0 0 0 0 0 0 0 0 0 0 0 0 0 0 0 0 0 0 0 0 electrons_nose_info
S 635 14 5 0 0 0 1 634 4948 0 400000 A 0 0 0 0 0 0 0 30 0 0 0 0 0 0 0 0 0 0 0 0 0 509 0 582 0 0 0 0 electrons_nose_info
F 635 0
Z
Z
