V26 energies
12 energies.F90 S582 0
04/24/2012  15:51:03
use io_global private
use io_global private
enduse
D 56 24 619 192 618 7
D 62 21 6 1 0 3 0 0 0 0 0
 0 3 0 3 3 0
D 65 21 9 1 41 44 1 1 0 0 1
 3 42 3 3 42 43
S 582 24 0 0 0 9 1 0 4658 10015 0 A 0 0 0 0 0 0 0 0 0 0 0 0 0 0 0 0 0 0 0 0 0 11 0 0 0 0 0 0 energies
S 584 23 0 0 0 9 589 582 4677 14 0 A 0 0 0 0 0 0 0 0 0 0 0 0 0 0 0 0 0 0 0 0 0 0 0 582 0 0 0 0 stdout
R 589 6 4 io_global stdout
S 618 25 0 0 0 56 1 582 4890 10000004 800010 A 0 0 0 0 0 0 0 0 0 0 0 0 0 0 0 0 0 0 0 671 0 0 0 582 0 0 0 0 dft_energy_type
S 619 5 0 0 0 9 620 582 4906 800004 0 A 0 0 0 0 0 0 0 0 56 0 0 0 0 0 0 0 0 0 0 0 1 619 0 582 0 0 0 0 etot
S 620 5 0 0 0 9 621 582 4911 800004 0 A 0 0 0 0 0 8 0 0 56 0 0 0 0 0 0 0 0 0 0 0 619 620 0 582 0 0 0 0 skin
S 621 5 0 0 0 9 622 582 4916 800004 0 A 0 0 0 0 0 16 0 0 56 0 0 0 0 0 0 0 0 0 0 0 620 621 0 582 0 0 0 0 emkin
S 622 5 0 0 0 9 623 582 4922 800004 0 A 0 0 0 0 0 24 0 0 56 0 0 0 0 0 0 0 0 0 0 0 621 622 0 582 0 0 0 0 eht
S 623 5 0 0 0 9 624 582 4926 800004 0 A 0 0 0 0 0 32 0 0 56 0 0 0 0 0 0 0 0 0 0 0 622 623 0 582 0 0 0 0 eh
S 624 5 0 0 0 9 625 582 4929 800004 0 A 0 0 0 0 0 40 0 0 56 0 0 0 0 0 0 0 0 0 0 0 623 624 0 582 0 0 0 0 self_ehte
S 625 5 0 0 0 9 626 582 4939 800004 0 A 0 0 0 0 0 48 0 0 56 0 0 0 0 0 0 0 0 0 0 0 624 625 0 582 0 0 0 0 ehte
S 626 5 0 0 0 9 627 582 4944 800004 0 A 0 0 0 0 0 56 0 0 56 0 0 0 0 0 0 0 0 0 0 0 625 626 0 582 0 0 0 0 ehti
S 627 5 0 0 0 9 628 582 4949 800004 0 A 0 0 0 0 0 64 0 0 56 0 0 0 0 0 0 0 0 0 0 0 626 627 0 582 0 0 0 0 epseu
S 628 5 0 0 0 9 629 582 4955 800004 0 A 0 0 0 0 0 72 0 0 56 0 0 0 0 0 0 0 0 0 0 0 627 628 0 582 0 0 0 0 enl
S 629 5 0 0 0 9 630 582 4959 800004 0 A 0 0 0 0 0 80 0 0 56 0 0 0 0 0 0 0 0 0 0 0 628 629 0 582 0 0 0 0 ent
S 630 5 0 0 0 9 631 582 4963 800004 0 A 0 0 0 0 0 88 0 0 56 0 0 0 0 0 0 0 0 0 0 0 629 630 0 582 0 0 0 0 vxc
S 631 5 0 0 0 9 632 582 4967 800004 0 A 0 0 0 0 0 96 0 0 56 0 0 0 0 0 0 0 0 0 0 0 630 631 0 582 0 0 0 0 exc
S 632 5 0 0 0 9 633 582 4971 800004 0 A 0 0 0 0 0 104 0 0 56 0 0 0 0 0 0 0 0 0 0 0 631 632 0 582 0 0 0 0 self_vxc
S 633 5 0 0 0 9 634 582 4980 800004 0 A 0 0 0 0 0 112 0 0 56 0 0 0 0 0 0 0 0 0 0 0 632 633 0 582 0 0 0 0 self_exc
S 634 5 0 0 0 9 635 582 4989 800004 0 A 0 0 0 0 0 120 0 0 56 0 0 0 0 0 0 0 0 0 0 0 633 634 0 582 0 0 0 0 eself
S 635 5 0 0 0 9 636 582 4995 800004 0 A 0 0 0 0 0 128 0 0 56 0 0 0 0 0 0 0 0 0 0 0 634 635 0 582 0 0 0 0 esr
S 636 5 0 0 0 9 637 582 4999 800004 0 A 0 0 0 0 0 136 0 0 56 0 0 0 0 0 0 0 0 0 0 0 635 636 0 582 0 0 0 0 evdw
S 637 5 0 0 0 9 638 582 5004 800004 0 A 0 0 0 0 0 144 0 0 56 0 0 0 0 0 0 0 0 0 0 0 636 637 0 582 0 0 0 0 eband
S 638 5 0 0 0 9 639 582 5010 800004 0 A 0 0 0 0 0 152 0 0 56 0 0 0 0 0 0 0 0 0 0 0 637 638 0 582 0 0 0 0 ekin
S 639 5 0 0 0 9 640 582 5015 800004 0 A 0 0 0 0 0 160 0 0 56 0 0 0 0 0 0 0 0 0 0 0 638 639 0 582 0 0 0 0 atot
S 640 5 0 0 0 9 641 582 5020 800004 0 A 0 0 0 0 0 168 0 0 56 0 0 0 0 0 0 0 0 0 0 0 639 640 0 582 0 0 0 0 entropy
S 641 5 0 0 0 9 642 582 5028 800004 0 A 0 0 0 0 0 176 0 0 56 0 0 0 0 0 0 0 0 0 0 0 640 641 0 582 0 0 0 0 egrand
S 642 5 0 0 0 9 1 582 5035 800004 0 A 0 0 0 0 0 184 0 0 56 0 0 0 0 0 0 0 0 0 0 0 641 642 0 582 0 0 0 0 vave
S 643 6 4 0 0 9 645 582 4939 80001c 0 A 0 0 0 0 0 0 0 0 0 0 0 0 672 0 0 0 0 0 0 0 0 0 0 582 0 0 0 0 ehte
S 644 6 4 0 0 9 647 582 4929 80000c 0 A 0 0 0 0 0 0 0 0 0 0 0 0 673 0 0 0 0 0 0 0 0 0 0 582 0 0 0 0 self_ehte
S 645 6 4 0 0 9 646 582 4944 80001c 0 A 0 0 0 0 0 8 0 0 0 0 0 0 672 0 0 0 0 0 0 0 0 0 0 582 0 0 0 0 ehti
S 646 6 4 0 0 9 649 582 4926 80001c 0 A 0 0 0 0 0 16 0 0 0 0 0 0 672 0 0 0 0 0 0 0 0 0 0 582 0 0 0 0 eh
S 647 6 4 0 0 9 648 582 4922 80000c 0 A 0 0 0 0 0 8 0 0 0 0 0 0 673 0 0 0 0 0 0 0 0 0 0 582 0 0 0 0 eht
S 648 6 4 0 0 9 650 582 4980 80000c 0 A 0 0 0 0 0 16 0 0 0 0 0 0 673 0 0 0 0 0 0 0 0 0 0 582 0 0 0 0 self_exc
S 649 6 4 0 0 9 652 582 4971 80001c 0 A 0 0 0 0 0 24 0 0 0 0 0 0 672 0 0 0 0 0 0 0 0 0 0 582 0 0 0 0 self_vxc
S 650 6 4 0 0 9 651 582 5010 80000c 0 A 0 0 0 0 0 24 0 0 0 0 0 0 673 0 0 0 0 0 0 0 0 0 0 582 0 0 0 0 ekin
S 651 6 4 0 0 9 653 582 4989 80000c 0 A 0 0 0 0 0 32 0 0 0 0 0 0 673 0 0 0 0 0 0 0 0 0 0 582 0 0 0 0 eself
S 652 6 4 0 0 9 654 582 4999 80001c 0 A 0 0 0 0 0 32 0 0 0 0 0 0 672 0 0 0 0 0 0 0 0 0 0 582 0 0 0 0 evdw
S 653 6 4 0 0 9 655 582 4949 80000c 0 A 0 0 0 0 0 40 0 0 0 0 0 0 673 0 0 0 0 0 0 0 0 0 0 582 0 0 0 0 epseu
S 654 6 4 0 0 9 659 582 4959 80001c 0 A 0 0 0 0 0 40 0 0 0 0 0 0 672 0 0 0 0 0 0 0 0 0 0 582 0 0 0 0 ent
S 655 6 4 0 0 9 656 582 4906 80000c 0 A 0 0 0 0 0 48 0 0 0 0 0 0 673 0 0 0 0 0 0 0 0 0 0 582 0 0 0 0 etot
S 656 6 4 0 0 9 657 582 4955 80000c 0 A 0 0 0 0 0 56 0 0 0 0 0 0 673 0 0 0 0 0 0 0 0 0 0 582 0 0 0 0 enl
S 657 6 4 0 0 9 658 582 4995 80000c 0 A 0 0 0 0 0 64 0 0 0 0 0 0 673 0 0 0 0 0 0 0 0 0 0 582 0 0 0 0 esr
S 658 6 4 0 0 9 661 582 4967 80000c 0 A 0 0 0 0 0 72 0 0 0 0 0 0 673 0 0 0 0 0 0 0 0 0 0 582 0 0 0 0 exc
S 659 6 4 0 0 9 660 582 4963 80001c 0 A 0 0 0 0 0 48 0 0 0 0 0 0 672 0 0 0 0 0 0 0 0 0 0 582 0 0 0 0 vxc
S 660 6 4 0 0 9 1 582 5004 80001c 0 A 0 0 0 0 0 56 0 0 0 0 0 0 672 0 0 0 0 0 0 0 0 0 0 582 0 0 0 0 eband
S 661 6 4 0 0 9 662 582 5015 80000c 0 A 0 0 0 0 0 80 0 0 0 0 0 0 673 0 0 0 0 0 0 0 0 0 0 582 0 0 0 0 atot
S 662 6 4 0 0 9 663 582 5020 80000c 0 A 0 0 0 0 0 88 0 0 0 0 0 0 673 0 0 0 0 0 0 0 0 0 0 582 0 0 0 0 entropy
S 663 6 4 0 0 9 664 582 5028 80000c 0 A 0 0 0 0 0 96 0 0 0 0 0 0 673 0 0 0 0 0 0 0 0 0 0 582 0 0 0 0 egrand
S 664 6 4 0 0 9 665 582 5035 80000c 0 A 0 0 0 0 0 104 0 0 0 0 0 0 673 0 0 0 0 0 0 0 0 0 0 582 0 0 0 0 vave
S 665 6 4 0 0 9 1 582 5194 80000c 0 A 0 0 0 0 0 112 0 0 0 0 0 0 673 0 0 0 0 0 0 0 0 0 0 582 0 0 0 0 enthal
S 666 6 4 0 0 9 1 582 5208 4 0 A 0 0 0 0 0 0 0 0 0 0 0 0 674 0 0 0 0 0 0 0 0 0 0 582 0 0 0 0 ekincm
S 667 27 0 0 0 9 675 582 5215 0 0 A 0 0 0 0 0 0 0 0 0 0 0 0 0 0 0 0 0 0 0 0 0 0 0 582 0 0 0 0 total_energy
S 668 27 0 0 0 9 678 582 5228 0 0 A 0 0 0 0 0 0 0 0 0 0 0 0 0 0 0 0 0 0 0 0 0 0 0 582 0 0 0 0 eig_total_energy
S 669 27 0 0 0 9 685 582 5245 0 0 A 0 0 0 0 0 0 0 0 0 0 0 0 0 0 0 0 0 0 0 0 0 0 0 582 0 0 0 0 print_energies
S 670 27 0 0 0 9 692 582 5260 0 0 A 0 0 0 0 0 0 0 0 0 0 0 0 0 0 0 0 0 0 0 0 0 0 0 582 0 0 0 0 debug_energies
S 671 8 5 0 0 62 1 582 5275 40022004 1220 A 0 0 0 0 0 0 0 56 0 0 0 0 0 0 0 0 0 0 0 0 0 0 0 582 0 0 0 0 energies$dft_energy_type$td
S 672 11 0 0 0 9 596 582 5303 40800010 801000 A 0 0 0 0 0 64 0 0 643 660 0 0 0 0 0 0 0 0 0 0 0 0 0 0 0 0 0 0 _energies$14
S 673 11 0 0 0 9 672 582 5316 40800000 801000 A 0 0 0 0 0 120 0 0 644 665 0 0 0 0 0 0 0 0 0 0 0 0 0 0 0 0 0 0 _energies$10
S 674 11 0 0 0 9 673 582 5329 40800000 801000 A 0 0 0 0 0 8 0 0 666 666 0 0 0 0 0 0 0 0 0 0 0 0 0 0 0 0 0 0 _energies$2
S 675 23 5 0 0 0 677 582 5215 0 0 A 0 0 0 0 0 0 0 0 0 0 0 0 0 0 0 0 0 0 0 0 0 0 0 0 0 0 0 0 total_energy
S 676 1 3 0 0 56 1 675 5341 14 3000 A 0 0 0 0 0 0 0 0 0 0 0 0 0 0 0 0 0 0 0 0 0 0 0 0 0 0 0 0 edft
S 677 14 5 0 0 0 1 675 5215 0 400000 A 0 0 0 0 0 0 0 13 1 0 0 0 0 0 0 0 0 0 0 0 0 84 0 582 0 0 0 0 total_energy
F 677 1 676
S 678 23 5 0 0 0 680 582 5228 0 0 A 0 0 0 0 0 0 0 0 0 0 0 0 0 0 0 0 0 0 0 0 0 0 0 0 0 0 0 0 eig_total_energy
S 679 7 3 1 0 65 1 678 5346 20000014 10003000 A 0 0 0 0 0 0 0 0 0 0 0 0 0 0 0 0 0 0 0 0 0 0 0 0 0 0 0 0 ei
S 680 14 5 0 0 0 1 678 5228 20000000 400000 A 0 0 0 0 0 0 0 15 1 0 0 0 0 0 0 0 0 0 0 0 0 113 0 582 0 0 0 0 eig_total_energy
F 680 1 679
S 681 6 1 0 0 6 1 678 5349 40800016 3000 A 0 0 0 0 0 0 0 0 0 0 0 0 0 0 0 0 0 0 0 0 0 0 0 0 0 0 0 0 z_b_0
S 682 6 1 0 0 6 1 678 5355 40800016 3000 A 0 0 0 0 0 0 0 0 0 0 0 0 0 0 0 0 0 0 0 0 0 0 0 0 0 0 0 0 z_b_2
S 683 6 1 0 0 6 1 678 5361 40800016 3000 A 0 0 0 0 0 0 0 0 0 0 0 0 0 0 0 0 0 0 0 0 0 0 0 0 0 0 0 0 z_b_3
S 684 6 1 0 0 6 1 678 5367 40800016 3000 A 0 0 0 0 0 0 0 0 0 0 0 0 0 0 0 0 0 0 0 0 0 0 0 0 0 0 0 0 z_e_46
S 685 23 5 0 0 0 691 582 5245 0 0 A 0 0 0 0 0 0 0 0 0 0 0 0 0 0 0 0 0 0 0 0 0 0 0 0 0 0 0 0 print_energies
S 686 1 3 1 0 16 1 685 5374 14 3000 A 0 0 0 0 0 0 0 0 0 0 0 0 0 0 0 0 0 0 0 0 0 0 0 0 0 0 0 0 tsic
S 687 1 3 1 0 6 1 685 5379 80000014 3000 A 0 0 0 0 0 0 0 0 0 0 0 0 0 0 0 0 0 0 0 0 0 0 0 0 0 0 0 0 iprsta
S 688 1 3 1 0 56 1 685 5341 80000014 3000 A 0 0 0 0 0 0 0 0 0 0 0 0 0 0 0 0 0 0 0 0 0 0 0 0 0 0 0 0 edft
S 689 1 3 1 0 9 1 685 5386 80000014 3000 A 0 0 0 0 0 0 0 0 0 0 0 0 0 0 0 0 0 0 0 0 0 0 0 0 0 0 0 0 sic_alpha
S 690 1 3 1 0 9 1 685 5396 80000014 3000 A 0 0 0 0 0 0 0 0 0 0 0 0 0 0 0 0 0 0 0 0 0 0 0 0 0 0 0 0 sic_epsilon
S 691 14 5 0 0 0 1 685 5245 0 400000 A 0 0 0 0 0 0 0 17 5 0 0 0 0 0 0 0 0 0 0 0 0 135 0 582 0 0 0 0 print_energies
F 691 5 686 687 688 689 690
S 692 23 5 0 0 0 694 582 5260 0 0 A 0 0 0 0 0 0 0 0 0 0 0 0 0 0 0 0 0 0 0 0 0 0 0 0 0 0 0 0 debug_energies
S 693 1 3 1 0 56 1 692 5341 80000014 3000 A 0 0 0 0 0 0 0 0 0 0 0 0 0 0 0 0 0 0 0 0 0 0 0 0 0 0 0 0 edft
S 694 14 5 0 0 0 1 692 5260 0 400000 A 0 0 0 0 0 0 0 23 1 0 0 0 0 0 0 0 0 0 0 0 0 215 0 582 0 0 0 0 debug_energies
F 694 1 693
A 41 1 0 0 3 6 683 0 0 0 0 0 0 0 0 0 0 0 0 0
A 42 1 0 0 2 6 681 0 0 0 0 0 0 0 0 0 0 0 0 0
A 43 1 0 0 11 6 684 0 0 0 0 0 0 0 0 0 0 0 0 0
A 44 1 0 0 10 6 682 0 0 0 0 0 0 0 0 0 0 0 0 0
Z
Z
