V26 error_handler
17 error_handler.F90 S582 0
04/24/2012  15:51:03
enduse
D 56 24 590 48 588 7
D 62 18 12
D 64 21 6 1 0 3 0 0 0 0 0
 0 3 0 3 3 0
D 67 21 6 1 0 3 0 0 0 0 0
 0 3 0 3 3 0
D 70 21 6 1 0 3 0 0 0 0 0
 0 3 0 3 3 0
S 582 24 0 0 0 9 1 0 4658 10015 0 A 0 0 0 0 0 0 0 0 0 0 0 0 0 0 0 0 0 0 0 0 0 122 0 0 0 0 0 0 error_handler
S 583 27 0 0 0 6 601 582 4672 0 0 A 0 0 0 0 0 0 0 0 0 0 0 0 0 0 0 0 0 0 0 0 0 0 0 582 0 0 0 0 init_error
S 584 27 0 0 0 9 604 582 4683 0 0 A 0 0 0 0 0 0 0 0 0 0 0 0 0 0 0 0 0 0 0 0 0 0 0 582 0 0 0 0 add_name
S 585 27 0 0 0 9 607 582 4692 0 0 A 0 0 0 0 0 0 0 0 0 0 0 0 0 0 0 0 0 0 0 0 0 0 0 582 0 0 0 0 chop_name
S 586 27 0 0 0 9 612 582 4702 0 0 A 0 0 0 0 0 0 0 0 0 0 0 0 0 0 0 0 0 0 0 0 0 0 0 582 0 0 0 0 error_mem
S 587 27 0 0 0 9 616 582 4712 0 0 A 0 0 0 0 0 0 0 0 0 0 0 0 0 0 0 0 0 0 0 0 0 0 0 582 0 0 0 0 warning
S 588 25 0 0 0 56 1 582 4720 10000014 800014 A 0 0 0 0 0 0 0 0 0 0 0 0 0 0 0 0 0 0 0 596 0 0 0 582 0 0 0 0 chain
S 589 3 0 0 0 6 0 1 0 0 0 A 0 0 0 0 0 0 0 0 0 35 0 0 0 0 0 0 0 0 0 0 0 0 0 0 0 0 0 0 6
S 590 5 0 0 0 62 591 582 4726 800004 0 A 0 0 0 0 0 0 0 0 56 0 0 0 0 0 0 0 0 0 0 0 1 590 0 582 0 0 0 0 routine_name
S 591 5 6 0 0 56 593 582 4739 800004 14 A 0 0 0 0 0 40 593 0 56 0 0 0 0 0 0 0 0 0 0 592 590 591 594 582 0 0 0 0 previous_link
S 592 8 1 0 0 64 1 582 4753 40822004 1020 A 0 0 0 0 0 0 0 0 0 0 0 0 0 0 0 0 0 0 0 0 0 0 0 582 0 0 0 0 previous_link$sd
S 593 5 0 0 0 7 1 582 4770 40802001 1020 A 0 0 0 0 0 40 0 0 56 0 0 0 0 0 0 0 0 0 0 0 591 593 0 582 0 0 0 0 previous_link$p
S 594 6 1 0 0 7 1 582 4786 40802010 1020 A 0 0 0 0 0 0 0 0 0 0 0 0 0 0 0 0 0 0 0 0 0 0 0 582 0 0 0 0 previous_link$o
S 595 6 6 0 0 56 1 582 4802 14 14 A 0 0 0 0 0 0 598 0 0 0 0 0 0 0 0 0 0 0 0 597 0 0 599 582 0 0 0 0 routine_chain
S 596 8 5 0 0 67 1 582 4816 40022004 1220 A 0 0 0 0 0 0 0 56 0 0 0 0 0 0 0 0 0 0 0 0 0 0 0 582 0 0 0 0 error_handler$chain$td
S 597 8 4 0 0 70 1 582 4839 40022014 1020 A 0 0 0 0 0 0 0 0 0 0 0 0 600 0 0 0 0 0 0 0 0 0 0 582 0 0 0 0 routine_chain$sd
S 598 6 4 0 0 7 599 582 4856 40002011 1020 A 0 0 0 0 0 0 0 0 0 0 0 0 600 0 0 0 0 0 0 0 0 0 0 582 0 0 0 0 routine_chain$p
S 599 6 4 0 0 7 597 582 4872 40002010 1020 A 0 0 0 0 0 0 0 0 0 0 0 0 600 0 0 0 0 0 0 0 0 0 0 582 0 0 0 0 routine_chain$o
S 600 11 0 0 0 9 1 582 4888 40800010 801000 A 0 0 0 0 0 20 0 0 598 597 0 0 0 0 0 0 0 0 0 0 0 0 0 0 0 0 0 0 _error_handler$4
S 601 23 5 0 0 0 603 582 4672 0 0 A 0 0 0 0 0 0 0 0 0 0 0 0 0 0 0 0 0 0 0 0 0 0 0 0 0 0 0 0 init_error
S 602 1 3 1 0 28 1 601 4726 14 43000 A 0 0 0 0 0 0 0 0 0 0 0 0 0 0 0 0 0 0 0 0 0 0 0 0 0 0 0 0 routine_name
S 603 14 5 0 0 0 1 601 4672 0 400000 A 0 0 0 0 0 0 0 2 1 0 0 0 0 0 0 0 0 0 0 0 0 137 0 582 0 0 0 0 init_error
F 603 1 602
S 604 23 5 0 0 0 606 582 4683 0 0 A 0 0 0 0 0 0 0 0 0 0 0 0 0 0 0 0 0 0 0 0 0 0 0 0 0 0 0 0 add_name
S 605 1 3 1 0 28 1 604 4726 14 43000 A 0 0 0 0 0 0 0 0 0 0 0 0 0 0 0 0 0 0 0 0 0 0 0 0 0 0 0 0 routine_name
S 606 14 5 0 0 0 1 604 4683 0 400000 A 0 0 0 0 0 0 0 4 1 0 0 0 0 0 0 0 0 0 0 0 0 149 0 582 0 0 0 0 add_name
F 606 1 605
S 607 23 5 0 0 0 608 582 4692 0 0 A 0 0 0 0 0 0 0 0 0 0 0 0 0 0 0 0 0 0 0 0 0 0 0 0 0 0 0 0 chop_name
S 608 14 5 0 0 0 1 607 4692 0 400000 A 0 0 0 0 0 0 0 6 0 0 0 0 0 0 0 0 0 0 0 0 0 162 0 582 0 0 0 0 chop_name
F 608 0
S 609 23 5 0 0 0 611 582 4905 20010 0 A 0 0 0 0 0 0 0 0 0 0 0 0 0 0 0 0 0 0 0 0 0 0 0 0 0 0 0 0 trace_back
S 610 1 3 0 0 6 1 609 4916 14 3000 A 0 0 0 0 0 0 0 0 0 0 0 0 0 0 0 0 0 0 0 0 0 0 0 0 0 0 0 0 error_code
S 611 14 5 0 0 0 1 609 4905 20010 400000 A 0 0 0 0 0 0 0 7 1 0 0 0 0 0 0 0 0 0 0 0 0 173 0 582 0 0 0 0 trace_back
F 611 1 610
S 612 23 5 0 0 0 615 582 4702 0 0 A 0 0 0 0 0 0 0 0 0 0 0 0 0 0 0 0 0 0 0 0 0 0 0 0 0 0 0 0 error_mem
S 613 1 3 1 0 28 1 612 4927 14 43000 A 0 0 0 0 0 0 0 0 0 0 0 0 0 0 0 0 0 0 0 0 0 0 0 0 0 0 0 0 message
S 614 1 3 1 0 6 1 612 4916 80000014 3000 A 0 0 0 0 0 0 0 0 0 0 0 0 0 0 0 0 0 0 0 0 0 0 0 0 0 0 0 0 error_code
S 615 14 5 0 0 0 1 612 4702 0 400000 A 0 0 0 0 0 0 0 9 2 0 0 0 0 0 0 0 0 0 0 0 0 195 0 582 0 0 0 0 error_mem
F 615 2 613 614
S 616 23 5 0 0 0 618 582 4712 0 0 A 0 0 0 0 0 0 0 0 0 0 0 0 0 0 0 0 0 0 0 0 0 0 0 0 0 0 0 0 warning
S 617 1 3 1 0 28 1 616 4927 14 43000 A 0 0 0 0 0 0 0 0 0 0 0 0 0 0 0 0 0 0 0 0 0 0 0 0 0 0 0 0 message
S 618 14 5 0 0 0 1 616 4712 0 400000 A 0 0 0 0 0 0 0 12 1 0 0 0 0 0 0 0 0 0 0 0 0 230 0 582 0 0 0 0 warning
F 618 1 617
A 12 2 0 0 0 6 589 0 0 0 12 0 0 0 0 0 0 0 0 0
Z
Z
