V26 fft_types
13 fft_types.F90 S582 0
04/24/2012  15:51:03
use io_global private
use io_global private
enduse
D 56 24 609 1584 608 7
D 62 21 6 1 26 24 0 1 0 0 1
 16 20 22 16 20 18
D 65 21 6 1 0 13 0 0 0 0 0
 0 13 0 3 13 0
D 68 21 6 1 35 34 0 1 0 0 1
 29 32 33 29 32 30
D 71 21 6 1 0 13 0 0 0 0 0
 0 13 0 3 13 0
D 74 21 6 1 44 43 0 1 0 0 1
 38 41 42 38 41 39
D 77 21 6 1 0 13 0 0 0 0 0
 0 13 0 3 13 0
D 80 21 6 1 53 52 0 1 0 0 1
 47 50 51 47 50 48
D 83 21 6 1 0 13 0 0 0 0 0
 0 13 0 3 13 0
D 86 21 6 1 62 61 0 1 0 0 1
 56 59 60 56 59 57
D 89 21 6 1 0 13 0 0 0 0 0
 0 13 0 3 13 0
D 92 21 6 1 71 70 0 1 0 0 1
 65 68 69 65 68 66
D 95 21 6 1 0 13 0 0 0 0 0
 0 13 0 3 13 0
D 98 21 6 1 80 79 0 1 0 0 1
 74 77 78 74 77 75
D 101 21 6 1 0 13 0 0 0 0 0
 0 13 0 3 13 0
D 104 21 6 1 89 88 0 1 0 0 1
 83 86 87 83 86 84
D 107 21 6 1 0 13 0 0 0 0 0
 0 13 0 3 13 0
D 110 21 6 1 98 97 0 1 0 0 1
 92 95 96 92 95 93
D 113 21 6 1 0 13 0 0 0 0 0
 0 13 0 3 13 0
D 116 21 6 1 107 106 0 1 0 0 1
 101 104 105 101 104 102
D 119 21 6 1 0 13 0 0 0 0 0
 0 13 0 3 13 0
D 122 21 6 1 116 115 0 1 0 0 1
 110 113 114 110 113 111
D 125 21 6 1 0 13 0 0 0 0 0
 0 13 0 3 13 0
D 128 21 6 2 135 134 0 1 0 0 1
 121 124 131 121 124 122
 126 130 133 126 130 128
D 131 21 6 1 0 119 0 0 0 0 0
 0 119 0 3 119 0
D 134 21 6 1 144 143 0 1 0 0 1
 138 141 142 138 141 139
D 137 21 6 1 0 13 0 0 0 0 0
 0 13 0 3 13 0
D 140 21 6 1 153 152 0 1 0 0 1
 147 150 151 147 150 148
D 143 21 6 1 0 13 0 0 0 0 0
 0 13 0 3 13 0
D 146 21 6 1 162 161 0 1 0 0 1
 156 159 160 156 159 157
D 149 21 6 1 0 13 0 0 0 0 0
 0 13 0 3 13 0
D 152 21 6 1 171 170 0 1 0 0 1
 165 168 169 165 168 166
D 155 21 6 1 0 13 0 0 0 0 0
 0 13 0 3 13 0
D 158 21 6 1 180 179 0 1 0 0 1
 174 177 178 174 177 175
D 161 21 6 1 0 13 0 0 0 0 0
 0 13 0 3 13 0
D 164 21 6 1 0 3 0 0 0 0 0
 0 3 0 3 3 0
D 167 21 6 1 182 185 1 1 0 0 1
 3 183 3 3 183 184
D 170 21 6 1 186 189 1 1 0 0 1
 3 187 3 3 187 188
D 173 21 6 1 190 193 1 1 0 0 1
 3 191 3 3 191 192
D 176 21 6 1 194 197 1 1 0 0 1
 3 195 3 3 195 196
D 179 21 6 1 198 201 1 1 0 0 1
 3 199 3 3 199 200
D 182 21 6 1 202 205 1 1 0 0 1
 3 203 3 3 203 204
D 185 21 6 1 206 209 1 1 0 0 1
 3 207 3 3 207 208
D 188 21 6 1 210 213 1 1 0 0 1
 3 211 3 3 211 212
D 191 21 6 1 214 217 1 1 0 0 1
 3 215 3 3 215 216
D 194 21 6 2 218 232 0 0 1 0 0
 220 222 3 223 224 225
 227 228 225 229 230 231
D 197 21 6 2 218 232 0 0 1 0 0
 220 222 3 223 224 225
 227 228 225 229 230 231
D 200 21 6 2 233 239 1 1 0 0 1
 3 234 3 3 234 235
 3 236 237 3 236 238
D 203 21 6 1 240 243 1 1 0 0 1
 3 241 3 3 241 242
D 206 21 6 1 244 247 1 1 0 0 1
 3 245 3 3 245 246
D 209 21 6 1 248 251 1 1 0 0 1
 3 249 3 3 249 250
D 212 21 6 1 252 255 1 1 0 0 1
 3 253 3 3 253 254
D 215 21 6 2 256 270 0 0 1 0 0
 258 260 3 261 262 263
 265 266 263 267 268 269
S 582 24 0 0 0 9 1 0 4658 10005 0 A 0 0 0 0 0 0 0 0 0 0 0 0 0 0 0 0 0 0 0 0 0 11 0 0 0 0 0 0 fft_types
S 584 23 0 0 0 9 588 582 4678 4 0 A 0 0 0 0 0 0 0 0 0 0 0 0 0 0 0 0 0 0 0 0 0 0 0 582 0 0 0 0 stdout
R 588 6 4 io_global stdout
S 608 25 0 0 0 56 1 582 4858 10000004 800014 A 0 0 0 0 0 0 0 0 0 0 0 0 0 0 0 0 0 0 0 738 0 0 0 582 0 0 0 0 fft_dlay_descriptor
S 609 5 0 0 0 6 610 582 4878 800004 0 A 0 0 0 0 0 0 0 0 56 0 0 0 0 0 0 0 0 0 0 0 1 609 0 582 0 0 0 0 nst
S 610 5 6 0 0 62 614 582 4882 10a00004 14 A 0 0 0 0 0 8 614 0 56 0 616 0 0 0 0 0 0 0 0 613 609 610 615 582 0 0 0 0 nsp
S 611 6 4 0 0 6 623 582 4886 40800006 0 A 0 0 0 0 0 0 0 0 0 0 0 0 739 0 0 0 0 0 0 0 0 0 0 582 0 0 0 0 z_b_0
S 612 3 0 0 0 6 1 1 0 0 0 A 0 0 0 0 0 0 0 0 0 18 0 0 0 0 0 0 0 0 0 0 0 0 0 0 0 0 0 0 6
S 613 5 0 0 0 65 622 582 4892 40822004 1020 A 0 0 0 0 0 24 0 0 56 0 0 0 0 0 0 0 0 0 0 0 615 613 0 582 0 0 0 0 nsp$sd
S 614 5 0 0 0 7 615 582 4899 40802001 1020 A 0 0 0 0 0 8 0 0 56 0 0 0 0 0 0 0 0 0 0 0 610 614 0 582 0 0 0 0 nsp$p
S 615 5 0 0 0 7 613 582 4905 40802000 1020 A 0 0 0 0 0 16 0 0 56 0 0 0 0 0 0 0 0 0 0 0 614 615 0 582 0 0 0 0 nsp$o
S 616 22 1 0 0 6 1 582 4911 40000000 1000 A 0 0 0 0 0 0 0 610 0 0 0 0 613 0 0 0 0 0 0 0 0 0 0 582 0 0 0 0 nsp$arrdsc
S 617 3 0 0 0 6 1 1 0 0 0 A 0 0 0 0 0 0 0 0 0 13 0 0 0 0 0 0 0 0 0 0 0 0 0 0 0 0 0 0 6
S 618 3 0 0 0 6 1 1 0 0 0 A 0 0 0 0 0 0 0 0 0 14 0 0 0 0 0 0 0 0 0 0 0 0 0 0 0 0 0 0 6
S 619 3 0 0 0 6 1 1 0 0 0 A 0 0 0 0 0 0 0 0 0 17 0 0 0 0 0 0 0 0 0 0 0 0 0 0 0 0 0 0 6
S 620 3 0 0 0 6 1 1 0 0 0 A 0 0 0 0 0 0 0 0 0 7 0 0 0 0 0 0 0 0 0 0 0 0 0 0 0 0 0 0 6
S 621 3 0 0 0 6 1 1 0 0 0 A 0 0 0 0 0 0 0 0 0 8 0 0 0 0 0 0 0 0 0 0 0 0 0 0 0 0 0 0 6
S 622 5 6 0 0 68 625 582 4922 10a00004 14 A 0 0 0 0 0 96 625 0 56 0 627 0 0 0 0 0 0 0 0 624 610 622 626 582 0 0 0 0 nsw
S 623 6 4 0 0 6 639 582 4926 40800006 0 A 0 0 0 0 0 4 0 0 0 0 0 0 739 0 0 0 0 0 0 0 0 0 0 582 0 0 0 0 z_b_1
S 624 5 0 0 0 71 628 582 4932 40822004 1020 A 0 0 0 0 0 112 0 0 56 0 0 0 0 0 0 0 0 0 0 0 626 624 0 582 0 0 0 0 nsw$sd
S 625 5 0 0 0 7 626 582 4939 40802001 1020 A 0 0 0 0 0 96 0 0 56 0 0 0 0 0 0 0 0 0 0 0 622 625 0 582 0 0 0 0 nsw$p
S 626 5 0 0 0 7 624 582 4945 40802000 1020 A 0 0 0 0 0 104 0 0 56 0 0 0 0 0 0 0 0 0 0 0 625 626 0 582 0 0 0 0 nsw$o
S 627 22 1 0 0 6 1 582 4951 40000000 1000 A 0 0 0 0 0 0 0 622 0 0 0 0 624 0 0 0 0 0 0 0 0 0 0 582 0 0 0 0 nsw$arrdsc
S 628 5 0 0 0 6 629 582 4962 800004 0 A 0 0 0 0 0 184 0 0 56 0 0 0 0 0 0 0 0 0 0 0 622 628 0 582 0 0 0 0 nr1
S 629 5 0 0 0 6 630 582 4966 800004 0 A 0 0 0 0 0 188 0 0 56 0 0 0 0 0 0 0 0 0 0 0 628 629 0 582 0 0 0 0 nr2
S 630 5 0 0 0 6 631 582 4970 800004 0 A 0 0 0 0 0 192 0 0 56 0 0 0 0 0 0 0 0 0 0 0 629 630 0 582 0 0 0 0 nr3
S 631 5 0 0 0 6 632 582 4974 800004 0 A 0 0 0 0 0 196 0 0 56 0 0 0 0 0 0 0 0 0 0 0 630 631 0 582 0 0 0 0 nr1x
S 632 5 0 0 0 6 633 582 4979 800004 0 A 0 0 0 0 0 200 0 0 56 0 0 0 0 0 0 0 0 0 0 0 631 632 0 582 0 0 0 0 nr2x
S 633 5 0 0 0 6 634 582 4984 800004 0 A 0 0 0 0 0 204 0 0 56 0 0 0 0 0 0 0 0 0 0 0 632 633 0 582 0 0 0 0 nr3x
S 634 5 0 0 0 6 635 582 4989 800004 0 A 0 0 0 0 0 208 0 0 56 0 0 0 0 0 0 0 0 0 0 0 633 634 0 582 0 0 0 0 npl
S 635 5 0 0 0 6 636 582 4993 800004 0 A 0 0 0 0 0 212 0 0 56 0 0 0 0 0 0 0 0 0 0 0 634 635 0 582 0 0 0 0 nnp
S 636 5 0 0 0 6 637 582 4997 800004 0 A 0 0 0 0 0 216 0 0 56 0 0 0 0 0 0 0 0 0 0 0 635 636 0 582 0 0 0 0 nnr
S 637 5 0 0 0 6 638 582 5001 800004 0 A 0 0 0 0 0 220 0 0 56 0 0 0 0 0 0 0 0 0 0 0 636 637 0 582 0 0 0 0 ngt
S 638 5 6 0 0 74 641 582 5005 10a00004 14 A 0 0 0 0 0 224 641 0 56 0 643 0 0 0 0 0 0 0 0 640 637 638 642 582 0 0 0 0 ngl
S 639 6 4 0 0 6 645 582 5009 40800006 0 A 0 0 0 0 0 8 0 0 0 0 0 0 739 0 0 0 0 0 0 0 0 0 0 582 0 0 0 0 z_b_2
S 640 5 0 0 0 77 644 582 5015 40822004 1020 A 0 0 0 0 0 240 0 0 56 0 0 0 0 0 0 0 0 0 0 0 642 640 0 582 0 0 0 0 ngl$sd
S 641 5 0 0 0 7 642 582 5022 40802001 1020 A 0 0 0 0 0 224 0 0 56 0 0 0 0 0 0 0 0 0 0 0 638 641 0 582 0 0 0 0 ngl$p
S 642 5 0 0 0 7 640 582 5028 40802000 1020 A 0 0 0 0 0 232 0 0 56 0 0 0 0 0 0 0 0 0 0 0 641 642 0 582 0 0 0 0 ngl$o
S 643 22 1 0 0 6 1 582 5034 40000000 1000 A 0 0 0 0 0 0 0 638 0 0 0 0 640 0 0 0 0 0 0 0 0 0 0 582 0 0 0 0 ngl$arrdsc
S 644 5 6 0 0 80 647 582 5045 10a00004 14 A 0 0 0 0 0 312 647 0 56 0 649 0 0 0 0 0 0 0 0 646 638 644 648 582 0 0 0 0 nwl
S 645 6 4 0 0 6 651 582 5049 40800006 0 A 0 0 0 0 0 12 0 0 0 0 0 0 739 0 0 0 0 0 0 0 0 0 0 582 0 0 0 0 z_b_3
S 646 5 0 0 0 83 650 582 5055 40822004 1020 A 0 0 0 0 0 328 0 0 56 0 0 0 0 0 0 0 0 0 0 0 648 646 0 582 0 0 0 0 nwl$sd
S 647 5 0 0 0 7 648 582 5062 40802001 1020 A 0 0 0 0 0 312 0 0 56 0 0 0 0 0 0 0 0 0 0 0 644 647 0 582 0 0 0 0 nwl$p
S 648 5 0 0 0 7 646 582 5068 40802000 1020 A 0 0 0 0 0 320 0 0 56 0 0 0 0 0 0 0 0 0 0 0 647 648 0 582 0 0 0 0 nwl$o
S 649 22 1 0 0 6 1 582 5074 40000000 1000 A 0 0 0 0 0 0 0 644 0 0 0 0 646 0 0 0 0 0 0 0 0 0 0 582 0 0 0 0 nwl$arrdsc
S 650 5 6 0 0 86 653 582 5085 10a00004 14 A 0 0 0 0 0 400 653 0 56 0 655 0 0 0 0 0 0 0 0 652 644 650 654 582 0 0 0 0 npp
S 651 6 4 0 0 6 657 582 5089 40800006 0 A 0 0 0 0 0 16 0 0 0 0 0 0 739 0 0 0 0 0 0 0 0 0 0 582 0 0 0 0 z_b_4
S 652 5 0 0 0 89 656 582 5095 40822004 1020 A 0 0 0 0 0 416 0 0 56 0 0 0 0 0 0 0 0 0 0 0 654 652 0 582 0 0 0 0 npp$sd
S 653 5 0 0 0 7 654 582 5102 40802001 1020 A 0 0 0 0 0 400 0 0 56 0 0 0 0 0 0 0 0 0 0 0 650 653 0 582 0 0 0 0 npp$p
S 654 5 0 0 0 7 652 582 5108 40802000 1020 A 0 0 0 0 0 408 0 0 56 0 0 0 0 0 0 0 0 0 0 0 653 654 0 582 0 0 0 0 npp$o
S 655 22 1 0 0 6 1 582 5114 40000000 1000 A 0 0 0 0 0 0 0 650 0 0 0 0 652 0 0 0 0 0 0 0 0 0 0 582 0 0 0 0 npp$arrdsc
S 656 5 6 0 0 92 659 582 5125 10a00004 14 A 0 0 0 0 0 488 659 0 56 0 661 0 0 0 0 0 0 0 0 658 650 656 660 582 0 0 0 0 ipp
S 657 6 4 0 0 6 663 582 5129 40800006 0 A 0 0 0 0 0 20 0 0 0 0 0 0 739 0 0 0 0 0 0 0 0 0 0 582 0 0 0 0 z_b_5
S 658 5 0 0 0 95 662 582 5135 40822004 1020 A 0 0 0 0 0 504 0 0 56 0 0 0 0 0 0 0 0 0 0 0 660 658 0 582 0 0 0 0 ipp$sd
S 659 5 0 0 0 7 660 582 5142 40802001 1020 A 0 0 0 0 0 488 0 0 56 0 0 0 0 0 0 0 0 0 0 0 656 659 0 582 0 0 0 0 ipp$p
S 660 5 0 0 0 7 658 582 5148 40802000 1020 A 0 0 0 0 0 496 0 0 56 0 0 0 0 0 0 0 0 0 0 0 659 660 0 582 0 0 0 0 ipp$o
S 661 22 1 0 0 6 1 582 5154 40000000 1000 A 0 0 0 0 0 0 0 656 0 0 0 0 658 0 0 0 0 0 0 0 0 0 0 582 0 0 0 0 ipp$arrdsc
S 662 5 6 0 0 98 665 582 5165 10a00004 14 A 0 0 0 0 0 576 665 0 56 0 667 0 0 0 0 0 0 0 0 664 656 662 666 582 0 0 0 0 iss
S 663 6 4 0 0 6 669 582 5169 40800006 0 A 0 0 0 0 0 24 0 0 0 0 0 0 739 0 0 0 0 0 0 0 0 0 0 582 0 0 0 0 z_b_6
S 664 5 0 0 0 101 668 582 5175 40822004 1020 A 0 0 0 0 0 592 0 0 56 0 0 0 0 0 0 0 0 0 0 0 666 664 0 582 0 0 0 0 iss$sd
S 665 5 0 0 0 7 666 582 5182 40802001 1020 A 0 0 0 0 0 576 0 0 56 0 0 0 0 0 0 0 0 0 0 0 662 665 0 582 0 0 0 0 iss$p
S 666 5 0 0 0 7 664 582 5188 40802000 1020 A 0 0 0 0 0 584 0 0 56 0 0 0 0 0 0 0 0 0 0 0 665 666 0 582 0 0 0 0 iss$o
S 667 22 1 0 0 6 1 582 5194 40000000 1000 A 0 0 0 0 0 0 0 662 0 0 0 0 664 0 0 0 0 0 0 0 0 0 0 582 0 0 0 0 iss$arrdsc
S 668 5 6 0 0 104 671 582 5205 10a00004 14 A 0 0 0 0 0 664 671 0 56 0 673 0 0 0 0 0 0 0 0 670 662 668 672 582 0 0 0 0 isind
S 669 6 4 0 0 6 675 582 5211 40800006 0 A 0 0 0 0 0 28 0 0 0 0 0 0 739 0 0 0 0 0 0 0 0 0 0 582 0 0 0 0 z_b_7
S 670 5 0 0 0 107 674 582 5217 40822004 1020 A 0 0 0 0 0 680 0 0 56 0 0 0 0 0 0 0 0 0 0 0 672 670 0 582 0 0 0 0 isind$sd
S 671 5 0 0 0 7 672 582 5226 40802001 1020 A 0 0 0 0 0 664 0 0 56 0 0 0 0 0 0 0 0 0 0 0 668 671 0 582 0 0 0 0 isind$p
S 672 5 0 0 0 7 670 582 5234 40802000 1020 A 0 0 0 0 0 672 0 0 56 0 0 0 0 0 0 0 0 0 0 0 671 672 0 582 0 0 0 0 isind$o
S 673 22 1 0 0 6 1 582 5242 40000000 1000 A 0 0 0 0 0 0 0 668 0 0 0 0 670 0 0 0 0 0 0 0 0 0 0 582 0 0 0 0 isind$arrdsc
S 674 5 6 0 0 110 677 582 5255 10a00004 14 A 0 0 0 0 0 752 677 0 56 0 679 0 0 0 0 0 0 0 0 676 668 674 678 582 0 0 0 0 ismap
S 675 6 4 0 0 6 681 582 5261 40800006 0 A 0 0 0 0 0 32 0 0 0 0 0 0 739 0 0 0 0 0 0 0 0 0 0 582 0 0 0 0 z_b_8
S 676 5 0 0 0 113 680 582 5267 40822004 1020 A 0 0 0 0 0 768 0 0 56 0 0 0 0 0 0 0 0 0 0 0 678 676 0 582 0 0 0 0 ismap$sd
S 677 5 0 0 0 7 678 582 5276 40802001 1020 A 0 0 0 0 0 752 0 0 56 0 0 0 0 0 0 0 0 0 0 0 674 677 0 582 0 0 0 0 ismap$p
S 678 5 0 0 0 7 676 582 5284 40802000 1020 A 0 0 0 0 0 760 0 0 56 0 0 0 0 0 0 0 0 0 0 0 677 678 0 582 0 0 0 0 ismap$o
S 679 22 1 0 0 6 1 582 5292 40000000 1000 A 0 0 0 0 0 0 0 674 0 0 0 0 676 0 0 0 0 0 0 0 0 0 0 582 0 0 0 0 ismap$arrdsc
S 680 5 6 0 0 116 683 582 5305 10a00004 14 A 0 0 0 0 0 840 683 0 56 0 685 0 0 0 0 0 0 0 0 682 674 680 684 582 0 0 0 0 iplp
S 681 6 4 0 0 6 687 582 5310 40800006 0 A 0 0 0 0 0 36 0 0 0 0 0 0 739 0 0 0 0 0 0 0 0 0 0 582 0 0 0 0 z_b_9
S 682 5 0 0 0 119 686 582 5316 40822004 1020 A 0 0 0 0 0 856 0 0 56 0 0 0 0 0 0 0 0 0 0 0 684 682 0 582 0 0 0 0 iplp$sd
S 683 5 0 0 0 7 684 582 5324 40802001 1020 A 0 0 0 0 0 840 0 0 56 0 0 0 0 0 0 0 0 0 0 0 680 683 0 582 0 0 0 0 iplp$p
S 684 5 0 0 0 7 682 582 5331 40802000 1020 A 0 0 0 0 0 848 0 0 56 0 0 0 0 0 0 0 0 0 0 0 683 684 0 582 0 0 0 0 iplp$o
S 685 22 1 0 0 6 1 582 5338 40000000 1000 A 0 0 0 0 0 0 0 680 0 0 0 0 682 0 0 0 0 0 0 0 0 0 0 582 0 0 0 0 iplp$arrdsc
S 686 5 6 0 0 122 689 582 5350 10a00004 14 A 0 0 0 0 0 928 689 0 56 0 691 0 0 0 0 0 0 0 0 688 680 686 690 582 0 0 0 0 iplw
S 687 6 4 0 0 6 695 582 5355 40800006 0 A 0 0 0 0 0 40 0 0 0 0 0 0 739 0 0 0 0 0 0 0 0 0 0 582 0 0 0 0 z_b_10
S 688 5 0 0 0 125 692 582 5362 40822004 1020 A 0 0 0 0 0 944 0 0 56 0 0 0 0 0 0 0 0 0 0 0 690 688 0 582 0 0 0 0 iplw$sd
S 689 5 0 0 0 7 690 582 5370 40802001 1020 A 0 0 0 0 0 928 0 0 56 0 0 0 0 0 0 0 0 0 0 0 686 689 0 582 0 0 0 0 iplw$p
S 690 5 0 0 0 7 688 582 5377 40802000 1020 A 0 0 0 0 0 936 0 0 56 0 0 0 0 0 0 0 0 0 0 0 689 690 0 582 0 0 0 0 iplw$o
S 691 22 1 0 0 6 1 582 5384 40000000 1000 A 0 0 0 0 0 0 0 686 0 0 0 0 688 0 0 0 0 0 0 0 0 0 0 582 0 0 0 0 iplw$arrdsc
S 692 5 0 0 0 6 693 582 5396 800004 0 A 0 0 0 0 0 1016 0 0 56 0 0 0 0 0 0 0 0 0 0 0 686 692 0 582 0 0 0 0 id
S 693 5 0 0 0 6 694 582 5399 800004 0 A 0 0 0 0 0 1020 0 0 56 0 0 0 0 0 0 0 0 0 0 0 692 693 0 582 0 0 0 0 tptr
S 694 5 6 0 0 128 699 582 5404 10a00004 14 A 0 0 0 0 0 1024 699 0 56 0 701 0 0 0 0 0 0 0 0 698 693 694 700 582 0 0 0 0 irb
S 695 6 4 0 0 6 696 582 5408 40800006 0 A 0 0 0 0 0 44 0 0 0 0 0 0 739 0 0 0 0 0 0 0 0 0 0 582 0 0 0 0 z_b_11
S 696 6 4 0 0 6 706 582 5415 40800006 0 A 0 0 0 0 0 48 0 0 0 0 0 0 739 0 0 0 0 0 0 0 0 0 0 582 0 0 0 0 z_b_12
S 697 3 0 0 0 6 1 1 0 0 0 A 0 0 0 0 0 0 0 0 0 24 0 0 0 0 0 0 0 0 0 0 0 0 0 0 0 0 0 0 6
S 698 5 0 0 0 131 705 582 5422 40822004 1020 A 0 0 0 0 0 1040 0 0 56 0 0 0 0 0 0 0 0 0 0 0 700 698 0 582 0 0 0 0 irb$sd
S 699 5 0 0 0 7 700 582 5429 40802001 1020 A 0 0 0 0 0 1024 0 0 56 0 0 0 0 0 0 0 0 0 0 0 694 699 0 582 0 0 0 0 irb$p
S 700 5 0 0 0 7 698 582 5435 40802000 1020 A 0 0 0 0 0 1032 0 0 56 0 0 0 0 0 0 0 0 0 0 0 699 700 0 582 0 0 0 0 irb$o
S 701 22 1 0 0 6 1 582 5441 40000000 1000 A 0 0 0 0 0 0 0 694 0 0 0 0 698 0 0 0 0 0 0 0 0 0 0 582 0 0 0 0 irb$arrdsc
S 702 3 0 0 0 6 1 1 0 0 0 A 0 0 0 0 0 0 0 0 0 19 0 0 0 0 0 0 0 0 0 0 0 0 0 0 0 0 0 0 6
S 703 3 0 0 0 6 1 1 0 0 0 A 0 0 0 0 0 0 0 0 0 20 0 0 0 0 0 0 0 0 0 0 0 0 0 0 0 0 0 0 6
S 704 3 0 0 0 6 1 1 0 0 0 A 0 0 0 0 0 0 0 0 0 23 0 0 0 0 0 0 0 0 0 0 0 0 0 0 0 0 0 0 6
S 705 5 6 0 0 134 708 582 5452 10a00004 14 A 0 0 0 0 0 1136 708 0 56 0 710 0 0 0 0 0 0 0 0 707 694 705 709 582 0 0 0 0 imin3
S 706 6 4 0 0 6 712 582 5458 40800006 0 A 0 0 0 0 0 52 0 0 0 0 0 0 739 0 0 0 0 0 0 0 0 0 0 582 0 0 0 0 z_b_13
S 707 5 0 0 0 137 711 582 5465 40822004 1020 A 0 0 0 0 0 1152 0 0 56 0 0 0 0 0 0 0 0 0 0 0 709 707 0 582 0 0 0 0 imin3$sd
S 708 5 0 0 0 7 709 582 5474 40802001 1020 A 0 0 0 0 0 1136 0 0 56 0 0 0 0 0 0 0 0 0 0 0 705 708 0 582 0 0 0 0 imin3$p
S 709 5 0 0 0 7 707 582 5482 40802000 1020 A 0 0 0 0 0 1144 0 0 56 0 0 0 0 0 0 0 0 0 0 0 708 709 0 582 0 0 0 0 imin3$o
S 710 22 1 0 0 6 1 582 5490 40000000 1000 A 0 0 0 0 0 0 0 705 0 0 0 0 707 0 0 0 0 0 0 0 0 0 0 582 0 0 0 0 imin3$arrdsc
S 711 5 6 0 0 140 714 582 5503 10a00004 14 A 0 0 0 0 0 1224 714 0 56 0 716 0 0 0 0 0 0 0 0 713 705 711 715 582 0 0 0 0 imax3
S 712 6 4 0 0 6 718 582 5509 40800006 0 A 0 0 0 0 0 56 0 0 0 0 0 0 739 0 0 0 0 0 0 0 0 0 0 582 0 0 0 0 z_b_14
S 713 5 0 0 0 143 717 582 5516 40822004 1020 A 0 0 0 0 0 1240 0 0 56 0 0 0 0 0 0 0 0 0 0 0 715 713 0 582 0 0 0 0 imax3$sd
S 714 5 0 0 0 7 715 582 5525 40802001 1020 A 0 0 0 0 0 1224 0 0 56 0 0 0 0 0 0 0 0 0 0 0 711 714 0 582 0 0 0 0 imax3$p
S 715 5 0 0 0 7 713 582 5533 40802000 1020 A 0 0 0 0 0 1232 0 0 56 0 0 0 0 0 0 0 0 0 0 0 714 715 0 582 0 0 0 0 imax3$o
S 716 22 1 0 0 6 1 582 5541 40000000 1000 A 0 0 0 0 0 0 0 711 0 0 0 0 713 0 0 0 0 0 0 0 0 0 0 582 0 0 0 0 imax3$arrdsc
S 717 5 6 0 0 146 720 582 5554 10a00004 14 A 0 0 0 0 0 1312 720 0 56 0 722 0 0 0 0 0 0 0 0 719 711 717 721 582 0 0 0 0 np3
S 718 6 4 0 0 6 726 582 5558 40800006 0 A 0 0 0 0 0 60 0 0 0 0 0 0 739 0 0 0 0 0 0 0 0 0 0 582 0 0 0 0 z_b_15
S 719 5 0 0 0 149 723 582 5565 40822004 1020 A 0 0 0 0 0 1328 0 0 56 0 0 0 0 0 0 0 0 0 0 0 721 719 0 582 0 0 0 0 np3$sd
S 720 5 0 0 0 7 721 582 5572 40802001 1020 A 0 0 0 0 0 1312 0 0 56 0 0 0 0 0 0 0 0 0 0 0 717 720 0 582 0 0 0 0 np3$p
S 721 5 0 0 0 7 719 582 5578 40802000 1020 A 0 0 0 0 0 1320 0 0 56 0 0 0 0 0 0 0 0 0 0 0 720 721 0 582 0 0 0 0 np3$o
S 722 22 1 0 0 6 1 582 5584 40000000 1000 A 0 0 0 0 0 0 0 717 0 0 0 0 719 0 0 0 0 0 0 0 0 0 0 582 0 0 0 0 np3$arrdsc
S 723 5 0 0 0 16 724 582 5595 800004 0 A 0 0 0 0 0 1400 0 0 56 0 0 0 0 0 0 0 0 0 0 0 717 723 0 582 0 0 0 0 have_task_groups
S 724 5 0 0 0 6 725 582 5612 800004 0 A 0 0 0 0 0 1404 0 0 56 0 0 0 0 0 0 0 0 0 0 0 723 724 0 582 0 0 0 0 nnrx
S 725 5 6 0 0 152 728 582 5617 10a00004 14 A 0 0 0 0 0 1408 728 0 56 0 730 0 0 0 0 0 0 0 0 727 724 725 729 582 0 0 0 0 tg_nsw
S 726 6 4 0 0 6 732 582 5624 40800006 0 A 0 0 0 0 0 64 0 0 0 0 0 0 739 0 0 0 0 0 0 0 0 0 0 582 0 0 0 0 z_b_16
S 727 5 0 0 0 155 731 582 5631 40822004 1020 A 0 0 0 0 0 1424 0 0 56 0 0 0 0 0 0 0 0 0 0 0 729 727 0 582 0 0 0 0 tg_nsw$sd
S 728 5 0 0 0 7 729 582 5641 40802001 1020 A 0 0 0 0 0 1408 0 0 56 0 0 0 0 0 0 0 0 0 0 0 725 728 0 582 0 0 0 0 tg_nsw$p
S 729 5 0 0 0 7 727 582 5650 40802000 1020 A 0 0 0 0 0 1416 0 0 56 0 0 0 0 0 0 0 0 0 0 0 728 729 0 582 0 0 0 0 tg_nsw$o
S 730 22 1 0 0 9 1 582 5659 40000000 1000 A 0 0 0 0 0 0 0 725 0 0 0 0 727 0 0 0 0 0 0 0 0 0 0 582 0 0 0 0 tg_nsw$arrdsc
S 731 5 6 0 0 158 734 582 5673 10a00004 14 A 0 0 0 0 0 1496 734 0 56 0 736 0 0 0 0 0 0 0 0 733 725 731 735 582 0 0 0 0 tg_npp
S 732 6 4 0 0 6 1 582 5680 40800006 0 A 0 0 0 0 0 68 0 0 0 0 0 0 739 0 0 0 0 0 0 0 0 0 0 582 0 0 0 0 z_b_17
S 733 5 0 0 0 161 1 582 5687 40822004 1020 A 0 0 0 0 0 1512 0 0 56 0 0 0 0 0 0 0 0 0 0 0 735 733 0 582 0 0 0 0 tg_npp$sd
S 734 5 0 0 0 7 735 582 5697 40802001 1020 A 0 0 0 0 0 1496 0 0 56 0 0 0 0 0 0 0 0 0 0 0 731 734 0 582 0 0 0 0 tg_npp$p
S 735 5 0 0 0 7 733 582 5706 40802000 1020 A 0 0 0 0 0 1504 0 0 56 0 0 0 0 0 0 0 0 0 0 0 734 735 0 582 0 0 0 0 tg_npp$o
S 736 22 1 0 0 9 1 582 5715 40000000 1000 A 0 0 0 0 0 0 0 731 0 0 0 0 733 0 0 0 0 0 0 0 0 0 0 582 0 0 0 0 tg_npp$arrdsc
S 737 6 4 0 0 6 1 582 5729 80001c 0 A 0 0 0 0 0 0 0 0 0 0 0 0 740 0 0 0 0 0 0 0 0 0 0 582 0 0 0 0 icount
S 738 8 5 0 0 164 1 582 5736 40022004 1220 A 0 0 0 0 0 0 0 56 0 0 0 0 0 0 0 0 0 0 0 0 0 0 0 582 0 0 0 0 fft_types$fft_dlay_descriptor$td
S 739 11 0 0 0 9 595 582 5769 40800000 801000 A 0 0 0 0 0 72 0 0 611 732 0 0 0 0 0 0 0 0 0 0 0 0 0 0 0 0 0 0 _fft_types$0
S 740 11 0 0 0 9 739 582 5782 40800010 801000 A 0 0 0 0 0 4 0 0 737 737 0 0 0 0 0 0 0 0 0 0 0 0 0 0 0 0 0 0 _fft_types$12
S 741 23 5 0 0 0 746 582 5796 0 0 A 0 0 0 0 0 0 0 0 0 0 0 0 0 0 0 0 0 0 0 0 0 0 0 0 0 0 0 0 fft_dlay_allocate
S 742 1 3 0 0 56 1 741 5814 4 3000 A 0 0 0 0 0 0 0 0 0 0 0 0 0 0 0 0 0 0 0 0 0 0 0 0 0 0 0 0 desc
S 743 1 3 1 0 6 1 741 5819 4 3000 A 0 0 0 0 0 0 0 0 0 0 0 0 0 0 0 0 0 0 0 0 0 0 0 0 0 0 0 0 nproc
S 744 1 3 1 0 6 1 741 5825 4 3000 A 0 0 0 0 0 0 0 0 0 0 0 0 0 0 0 0 0 0 0 0 0 0 0 0 0 0 0 0 nx
S 745 1 3 1 0 6 1 741 5828 4 3000 A 0 0 0 0 0 0 0 0 0 0 0 0 0 0 0 0 0 0 0 0 0 0 0 0 0 0 0 0 ny
S 746 14 5 0 0 0 1 741 5796 0 400000 A 0 0 0 0 0 0 0 11 4 0 0 0 0 0 0 0 0 0 0 0 0 73 0 582 0 0 0 0 fft_dlay_allocate
F 746 4 742 743 744 745
S 747 23 5 0 0 0 749 582 5831 0 0 A 0 0 0 0 0 0 0 0 0 0 0 0 0 0 0 0 0 0 0 0 0 0 0 0 0 0 0 0 fft_dlay_deallocate
S 748 1 3 0 0 56 1 747 5814 4 3000 A 0 0 0 0 0 0 0 0 0 0 0 0 0 0 0 0 0 0 0 0 0 0 0 0 0 0 0 0 desc
S 749 14 5 0 0 0 1 747 5831 0 400000 A 0 0 0 0 0 0 0 16 1 0 0 0 0 0 0 0 0 0 0 0 0 109 0 582 0 0 0 0 fft_dlay_deallocate
F 749 1 748
S 750 23 5 0 0 0 754 582 5851 0 0 A 0 0 0 0 0 0 0 0 0 0 0 0 0 0 0 0 0 0 0 0 0 0 0 0 0 0 0 0 fft_box_allocate
S 751 1 3 0 0 56 1 750 5814 4 3000 A 0 0 0 0 0 0 0 0 0 0 0 0 0 0 0 0 0 0 0 0 0 0 0 0 0 0 0 0 desc
S 752 1 3 1 0 6 1 750 5819 4 3000 A 0 0 0 0 0 0 0 0 0 0 0 0 0 0 0 0 0 0 0 0 0 0 0 0 0 0 0 0 nproc
S 753 1 3 1 0 6 1 750 5868 4 3000 A 0 0 0 0 0 0 0 0 0 0 0 0 0 0 0 0 0 0 0 0 0 0 0 0 0 0 0 0 nat
S 754 14 5 0 0 0 1 750 5851 0 400000 A 0 0 0 0 0 0 0 18 3 0 0 0 0 0 0 0 0 0 0 0 0 132 0 582 0 0 0 0 fft_box_allocate
F 754 3 751 752 753
S 755 23 5 0 0 0 757 582 5872 0 0 A 0 0 0 0 0 0 0 0 0 0 0 0 0 0 0 0 0 0 0 0 0 0 0 0 0 0 0 0 fft_box_deallocate
S 756 1 3 0 0 56 1 755 5814 4 3000 A 0 0 0 0 0 0 0 0 0 0 0 0 0 0 0 0 0 0 0 0 0 0 0 0 0 0 0 0 desc
S 757 14 5 0 0 0 1 755 5872 0 400000 A 0 0 0 0 0 0 0 22 1 0 0 0 0 0 0 0 0 0 0 0 0 150 0 582 0 0 0 0 fft_box_deallocate
F 757 1 756
S 758 23 5 0 0 0 782 582 5891 0 0 A 0 0 0 0 0 0 0 0 0 0 0 0 0 0 0 0 0 0 0 0 0 0 0 0 0 0 0 0 fft_dlay_set
S 759 1 3 0 0 56 1 758 5814 4 3000 A 0 0 0 0 0 0 0 0 0 0 0 0 0 0 0 0 0 0 0 0 0 0 0 0 0 0 0 0 desc
S 760 1 3 1 0 16 1 758 5904 4 3000 A 0 0 0 0 0 0 0 0 0 0 0 0 0 0 0 0 0 0 0 0 0 0 0 0 0 0 0 0 tk
S 761 1 3 1 0 6 1 758 4878 4 3000 A 0 0 0 0 0 0 0 0 0 0 0 0 0 0 0 0 0 0 0 0 0 0 0 0 0 0 0 0 nst
S 762 1 3 1 0 6 1 758 4962 4 3000 A 0 0 0 0 0 0 0 0 0 0 0 0 0 0 0 0 0 0 0 0 0 0 0 0 0 0 0 0 nr1
S 763 1 3 1 0 6 1 758 4966 4 3000 A 0 0 0 0 0 0 0 0 0 0 0 0 0 0 0 0 0 0 0 0 0 0 0 0 0 0 0 0 nr2
S 764 1 3 1 0 6 1 758 4970 4 3000 A 0 0 0 0 0 0 0 0 0 0 0 0 0 0 0 0 0 0 0 0 0 0 0 0 0 0 0 0 nr3
S 765 1 3 1 0 6 1 758 4974 4 3000 A 0 0 0 0 0 0 0 0 0 0 0 0 0 0 0 0 0 0 0 0 0 0 0 0 0 0 0 0 nr1x
S 766 1 3 1 0 6 1 758 4979 4 3000 A 0 0 0 0 0 0 0 0 0 0 0 0 0 0 0 0 0 0 0 0 0 0 0 0 0 0 0 0 nr2x
S 767 1 3 1 0 6 1 758 4984 4 3000 A 0 0 0 0 0 0 0 0 0 0 0 0 0 0 0 0 0 0 0 0 0 0 0 0 0 0 0 0 nr3x
S 768 1 3 1 0 6 1 758 5907 4 3000 A 0 0 0 0 0 0 0 0 0 0 0 0 0 0 0 0 0 0 0 0 0 0 0 0 0 0 0 0 me
S 769 6 3 1 0 6 1 758 5819 800004 3000 A 0 0 0 0 0 0 0 0 0 0 0 0 0 0 0 0 0 0 0 0 0 0 0 0 0 0 0 0 nproc
S 770 1 3 1 0 6 1 758 5910 4 3000 A 0 0 0 0 0 0 0 0 0 0 0 0 0 0 0 0 0 0 0 0 0 0 0 0 0 0 0 0 nogrp
S 771 7 3 1 0 191 1 758 5916 20000004 10003000 A 0 0 0 0 0 0 0 0 0 0 0 0 0 0 0 0 0 0 0 0 0 0 0 0 0 0 0 0 ub
S 772 7 3 1 0 188 1 758 5919 20000004 10003000 A 0 0 0 0 0 0 0 0 0 0 0 0 0 0 0 0 0 0 0 0 0 0 0 0 0 0 0 0 lb
S 773 7 3 1 0 167 1 758 5922 20000004 10003000 A 0 0 0 0 0 0 0 0 0 0 0 0 0 0 0 0 0 0 0 0 0 0 0 0 0 0 0 0 idx
S 774 7 3 1 0 170 1 758 5926 20000004 10003000 A 0 0 0 0 0 0 0 0 0 0 0 0 0 0 0 0 0 0 0 0 0 0 0 0 0 0 0 0 in1
S 775 7 3 1 0 173 1 758 5930 20000004 10003000 A 0 0 0 0 0 0 0 0 0 0 0 0 0 0 0 0 0 0 0 0 0 0 0 0 0 0 0 0 in2
S 776 7 3 1 0 176 1 758 5934 20000004 10003000 A 0 0 0 0 0 0 0 0 0 0 0 0 0 0 0 0 0 0 0 0 0 0 0 0 0 0 0 0 ncp
S 777 7 3 1 0 179 1 758 5938 20000004 10003000 A 0 0 0 0 0 0 0 0 0 0 0 0 0 0 0 0 0 0 0 0 0 0 0 0 0 0 0 0 ncpw
S 778 7 3 1 0 182 1 758 5943 20000004 10003000 A 0 0 0 0 0 0 0 0 0 0 0 0 0 0 0 0 0 0 0 0 0 0 0 0 0 0 0 0 ngp
S 779 7 3 1 0 185 1 758 5947 20000004 10003000 A 0 0 0 0 0 0 0 0 0 0 0 0 0 0 0 0 0 0 0 0 0 0 0 0 0 0 0 0 ngpw
S 780 7 3 1 0 194 1 758 5952 800204 3000 A 0 0 0 0 0 0 0 0 0 0 0 0 0 0 0 0 0 0 0 0 0 0 0 0 0 0 0 0 st
S 781 7 3 1 0 197 1 758 5955 800204 3000 A 0 0 0 0 0 0 0 0 0 0 0 0 0 0 0 0 0 0 0 0 0 0 0 0 0 0 0 0 stw
S 782 14 5 0 0 0 1 758 5891 20000200 400000 A 0 0 0 0 0 0 0 24 23 0 0 0 0 0 0 0 0 0 0 0 0 164 0 582 0 0 0 0 fft_dlay_set
F 782 23 759 760 761 762 763 764 765 766 767 768 769 770 771 772 773 774 775 776 777 778 779 780 781
S 783 6 1 0 0 6 1 758 5959 40800006 3000 A 0 0 0 0 0 0 0 0 0 0 0 0 0 0 0 0 0 0 0 0 0 0 0 0 0 0 0 0 z_b_0_1
S 784 6 1 0 0 6 1 758 5967 40800006 3000 A 0 0 0 0 0 0 0 0 0 0 0 0 0 0 0 0 0 0 0 0 0 0 0 0 0 0 0 0 z_b_2_1
S 785 6 1 0 0 6 1 758 5975 40800006 3000 A 0 0 0 0 0 0 0 0 0 0 0 0 0 0 0 0 0 0 0 0 0 0 0 0 0 0 0 0 z_b_3_1
S 786 6 1 0 0 6 1 758 5983 40800006 3000 A 0 0 0 0 0 0 0 0 0 0 0 0 0 0 0 0 0 0 0 0 0 0 0 0 0 0 0 0 z_e_187
S 787 6 1 0 0 6 1 758 5991 40800006 3000 A 0 0 0 0 0 0 0 0 0 0 0 0 0 0 0 0 0 0 0 0 0 0 0 0 0 0 0 0 z_b_4_1
S 788 6 1 0 0 6 1 758 5999 40800006 3000 A 0 0 0 0 0 0 0 0 0 0 0 0 0 0 0 0 0 0 0 0 0 0 0 0 0 0 0 0 z_b_6_1
S 789 6 1 0 0 6 1 758 6007 40800006 3000 A 0 0 0 0 0 0 0 0 0 0 0 0 0 0 0 0 0 0 0 0 0 0 0 0 0 0 0 0 z_b_7_1
S 790 6 1 0 0 6 1 758 6015 40800006 3000 A 0 0 0 0 0 0 0 0 0 0 0 0 0 0 0 0 0 0 0 0 0 0 0 0 0 0 0 0 z_e_194
S 791 6 1 0 0 6 1 758 6023 40800006 3000 A 0 0 0 0 0 0 0 0 0 0 0 0 0 0 0 0 0 0 0 0 0 0 0 0 0 0 0 0 z_b_8_1
S 792 6 1 0 0 6 1 758 6031 40800006 3000 A 0 0 0 0 0 0 0 0 0 0 0 0 0 0 0 0 0 0 0 0 0 0 0 0 0 0 0 0 z_b_10_1
S 793 6 1 0 0 6 1 758 6040 40800006 3000 A 0 0 0 0 0 0 0 0 0 0 0 0 0 0 0 0 0 0 0 0 0 0 0 0 0 0 0 0 z_b_11_1
S 794 6 1 0 0 6 1 758 6049 40800006 3000 A 0 0 0 0 0 0 0 0 0 0 0 0 0 0 0 0 0 0 0 0 0 0 0 0 0 0 0 0 z_e_201
S 795 6 1 0 0 6 1 758 6057 40800006 3000 A 0 0 0 0 0 0 0 0 0 0 0 0 0 0 0 0 0 0 0 0 0 0 0 0 0 0 0 0 z_b_12_1
S 796 6 1 0 0 6 1 758 6066 40800006 3000 A 0 0 0 0 0 0 0 0 0 0 0 0 0 0 0 0 0 0 0 0 0 0 0 0 0 0 0 0 z_b_14_1
S 797 6 1 0 0 6 1 758 6075 40800006 3000 A 0 0 0 0 0 0 0 0 0 0 0 0 0 0 0 0 0 0 0 0 0 0 0 0 0 0 0 0 z_b_15_1
S 798 6 1 0 0 6 1 758 6084 40800006 3000 A 0 0 0 0 0 0 0 0 0 0 0 0 0 0 0 0 0 0 0 0 0 0 0 0 0 0 0 0 z_e_208
S 799 6 1 0 0 6 1 758 6092 40800006 3000 A 0 0 0 0 0 0 0 0 0 0 0 0 0 0 0 0 0 0 0 0 0 0 0 0 0 0 0 0 z_b_16_1
S 800 6 1 0 0 6 1 758 6101 40800006 3000 A 0 0 0 0 0 0 0 0 0 0 0 0 0 0 0 0 0 0 0 0 0 0 0 0 0 0 0 0 z_b_18
S 801 6 1 0 0 6 1 758 6108 40800006 3000 A 0 0 0 0 0 0 0 0 0 0 0 0 0 0 0 0 0 0 0 0 0 0 0 0 0 0 0 0 z_b_19
S 802 6 1 0 0 6 1 758 6115 40800006 3000 A 0 0 0 0 0 0 0 0 0 0 0 0 0 0 0 0 0 0 0 0 0 0 0 0 0 0 0 0 z_e_215
S 803 6 1 0 0 6 1 758 6123 40800006 3000 A 0 0 0 0 0 0 0 0 0 0 0 0 0 0 0 0 0 0 0 0 0 0 0 0 0 0 0 0 z_b_20
S 804 6 1 0 0 6 1 758 6130 40800006 3000 A 0 0 0 0 0 0 0 0 0 0 0 0 0 0 0 0 0 0 0 0 0 0 0 0 0 0 0 0 z_b_22
S 805 6 1 0 0 6 1 758 6137 40800006 3000 A 0 0 0 0 0 0 0 0 0 0 0 0 0 0 0 0 0 0 0 0 0 0 0 0 0 0 0 0 z_b_23
S 806 6 1 0 0 6 1 758 6144 40800006 3000 A 0 0 0 0 0 0 0 0 0 0 0 0 0 0 0 0 0 0 0 0 0 0 0 0 0 0 0 0 z_e_222
S 807 6 1 0 0 6 1 758 6152 40800006 3000 A 0 0 0 0 0 0 0 0 0 0 0 0 0 0 0 0 0 0 0 0 0 0 0 0 0 0 0 0 z_b_24
S 808 6 1 0 0 6 1 758 6159 40800006 3000 A 0 0 0 0 0 0 0 0 0 0 0 0 0 0 0 0 0 0 0 0 0 0 0 0 0 0 0 0 z_b_26
S 809 6 1 0 0 6 1 758 6166 40800006 3000 A 0 0 0 0 0 0 0 0 0 0 0 0 0 0 0 0 0 0 0 0 0 0 0 0 0 0 0 0 z_b_27
S 810 6 1 0 0 6 1 758 6173 40800006 3000 A 0 0 0 0 0 0 0 0 0 0 0 0 0 0 0 0 0 0 0 0 0 0 0 0 0 0 0 0 z_e_229
S 811 6 1 0 0 6 1 758 6181 40800006 3000 A 0 0 0 0 0 0 0 0 0 0 0 0 0 0 0 0 0 0 0 0 0 0 0 0 0 0 0 0 z_b_28
S 812 6 1 0 0 6 1 758 6188 40800006 3000 A 0 0 0 0 0 0 0 0 0 0 0 0 0 0 0 0 0 0 0 0 0 0 0 0 0 0 0 0 z_b_30
S 813 6 1 0 0 6 1 758 6195 40800006 3000 A 0 0 0 0 0 0 0 0 0 0 0 0 0 0 0 0 0 0 0 0 0 0 0 0 0 0 0 0 z_b_31
S 814 6 1 0 0 6 1 758 6202 40800006 3000 A 0 0 0 0 0 0 0 0 0 0 0 0 0 0 0 0 0 0 0 0 0 0 0 0 0 0 0 0 z_e_236
S 815 6 1 0 0 6 1 758 6210 40800006 3000 A 0 0 0 0 0 0 0 0 0 0 0 0 0 0 0 0 0 0 0 0 0 0 0 0 0 0 0 0 z_b_32
S 816 6 1 0 0 6 1 758 6217 40800006 3000 A 0 0 0 0 0 0 0 0 0 0 0 0 0 0 0 0 0 0 0 0 0 0 0 0 0 0 0 0 z_b_34
S 817 6 1 0 0 6 1 758 6224 40800006 3000 A 0 0 0 0 0 0 0 0 0 0 0 0 0 0 0 0 0 0 0 0 0 0 0 0 0 0 0 0 z_b_35
S 818 6 1 0 0 6 1 758 6231 40800006 3000 A 0 0 0 0 0 0 0 0 0 0 0 0 0 0 0 0 0 0 0 0 0 0 0 0 0 0 0 0 z_e_243
S 819 3 0 0 0 6 1 1 0 0 0 A 0 0 0 0 0 0 0 0 0 2 0 0 0 0 0 0 0 0 0 0 0 0 0 0 0 0 0 0 6
S 820 6 1 0 0 6 1 758 6239 40800006 3000 A 0 0 0 0 0 0 0 0 0 0 0 0 0 0 0 0 0 0 0 0 0 0 0 0 0 0 0 0 z_e_246
S 821 6 1 0 0 6 1 758 6247 40800006 3000 A 0 0 0 0 0 0 0 0 0 0 0 0 0 0 0 0 0 0 0 0 0 0 0 0 0 0 0 0 z_e_248
S 822 6 1 0 0 6 1 758 6255 40800006 3000 A 0 0 0 0 0 0 0 0 0 0 0 0 0 0 0 0 0 0 0 0 0 0 0 0 0 0 0 0 z_e_255
S 823 6 1 0 0 6 1 758 6263 40800006 3000 A 0 0 0 0 0 0 0 0 0 0 0 0 0 0 0 0 0 0 0 0 0 0 0 0 0 0 0 0 z_e_250
S 824 6 1 0 0 6 1 758 6271 40800006 3000 A 0 0 0 0 0 0 0 0 0 0 0 0 0 0 0 0 0 0 0 0 0 0 0 0 0 0 0 0 z_e_251
S 825 6 1 0 0 6 1 758 6279 40800006 3000 A 0 0 0 0 0 0 0 0 0 0 0 0 0 0 0 0 0 0 0 0 0 0 0 0 0 0 0 0 z_e_260
S 826 6 1 0 0 6 1 758 6287 40800006 3000 A 0 0 0 0 0 0 0 0 0 0 0 0 0 0 0 0 0 0 0 0 0 0 0 0 0 0 0 0 z_e_262
S 827 6 1 0 0 6 1 758 6295 40800006 3000 A 0 0 0 0 0 0 0 0 0 0 0 0 0 0 0 0 0 0 0 0 0 0 0 0 0 0 0 0 z_e_265
S 828 23 5 0 0 0 842 582 6303 0 0 A 0 0 0 0 0 0 0 0 0 0 0 0 0 0 0 0 0 0 0 0 0 0 0 0 0 0 0 0 fft_box_set
S 829 1 3 0 0 56 1 828 5814 4 3000 A 0 0 0 0 0 0 0 0 0 0 0 0 0 0 0 0 0 0 0 0 0 0 0 0 0 0 0 0 desc
S 830 1 3 1 0 6 1 828 6315 4 3000 A 0 0 0 0 0 0 0 0 0 0 0 0 0 0 0 0 0 0 0 0 0 0 0 0 0 0 0 0 nr1b
S 831 1 3 1 0 6 1 828 6320 4 3000 A 0 0 0 0 0 0 0 0 0 0 0 0 0 0 0 0 0 0 0 0 0 0 0 0 0 0 0 0 nr2b
S 832 1 3 1 0 6 1 828 6325 4 3000 A 0 0 0 0 0 0 0 0 0 0 0 0 0 0 0 0 0 0 0 0 0 0 0 0 0 0 0 0 nr3b
S 833 1 3 1 0 6 1 828 6330 4 3000 A 0 0 0 0 0 0 0 0 0 0 0 0 0 0 0 0 0 0 0 0 0 0 0 0 0 0 0 0 nr1bx
S 834 1 3 1 0 6 1 828 6336 4 3000 A 0 0 0 0 0 0 0 0 0 0 0 0 0 0 0 0 0 0 0 0 0 0 0 0 0 0 0 0 nr2bx
S 835 1 3 1 0 6 1 828 6342 4 3000 A 0 0 0 0 0 0 0 0 0 0 0 0 0 0 0 0 0 0 0 0 0 0 0 0 0 0 0 0 nr3bx
S 836 1 3 1 0 6 1 828 5868 4 3000 A 0 0 0 0 0 0 0 0 0 0 0 0 0 0 0 0 0 0 0 0 0 0 0 0 0 0 0 0 nat
S 837 7 3 1 0 200 1 828 5404 20000004 10003000 A 0 0 0 0 0 0 0 0 0 0 0 0 0 0 0 0 0 0 0 0 0 0 0 0 0 0 0 0 irb
S 838 1 3 1 0 6 1 828 5907 4 3000 A 0 0 0 0 0 0 0 0 0 0 0 0 0 0 0 0 0 0 0 0 0 0 0 0 0 0 0 0 me
S 839 1 3 1 0 6 1 828 5819 4 3000 A 0 0 0 0 0 0 0 0 0 0 0 0 0 0 0 0 0 0 0 0 0 0 0 0 0 0 0 0 nproc
S 840 7 3 1 0 203 1 828 5085 20000004 10003000 A 0 0 0 0 0 0 0 0 0 0 0 0 0 0 0 0 0 0 0 0 0 0 0 0 0 0 0 0 npp
S 841 7 3 1 0 206 1 828 5125 20000004 10003000 A 0 0 0 0 0 0 0 0 0 0 0 0 0 0 0 0 0 0 0 0 0 0 0 0 0 0 0 0 ipp
S 842 14 5 0 0 0 1 828 6303 20000000 400000 A 0 0 0 0 0 0 0 48 13 0 0 0 0 0 0 0 0 0 0 0 0 419 0 582 0 0 0 0 fft_box_set
F 842 13 829 830 831 832 833 834 835 836 837 838 839 840 841
S 843 6 1 0 0 6 1 828 5959 40800006 3000 A 0 0 0 0 0 0 0 0 0 0 0 0 0 0 0 0 0 0 0 0 0 0 0 0 0 0 0 0 z_b_0_1
S 844 6 1 0 0 6 1 828 5967 40800006 3000 A 0 0 0 0 0 0 0 0 0 0 0 0 0 0 0 0 0 0 0 0 0 0 0 0 0 0 0 0 z_b_2_1
S 845 6 1 0 0 6 1 828 5975 40800006 3000 A 0 0 0 0 0 0 0 0 0 0 0 0 0 0 0 0 0 0 0 0 0 0 0 0 0 0 0 0 z_b_3_1
S 846 6 1 0 0 6 1 828 6348 40800006 3000 A 0 0 0 0 0 0 0 0 0 0 0 0 0 0 0 0 0 0 0 0 0 0 0 0 0 0 0 0 z_b_5_1
S 847 6 1 0 0 6 1 828 5999 40800006 3000 A 0 0 0 0 0 0 0 0 0 0 0 0 0 0 0 0 0 0 0 0 0 0 0 0 0 0 0 0 z_b_6_1
S 848 6 1 0 0 6 1 828 6356 40800006 3000 A 0 0 0 0 0 0 0 0 0 0 0 0 0 0 0 0 0 0 0 0 0 0 0 0 0 0 0 0 z_e_241
S 849 6 1 0 0 6 1 828 6364 40800006 3000 A 0 0 0 0 0 0 0 0 0 0 0 0 0 0 0 0 0 0 0 0 0 0 0 0 0 0 0 0 z_e_244
S 850 6 1 0 0 6 1 828 6007 40800006 3000 A 0 0 0 0 0 0 0 0 0 0 0 0 0 0 0 0 0 0 0 0 0 0 0 0 0 0 0 0 z_b_7_1
S 851 6 1 0 0 6 1 828 6372 40800006 3000 A 0 0 0 0 0 0 0 0 0 0 0 0 0 0 0 0 0 0 0 0 0 0 0 0 0 0 0 0 z_b_9_1
S 852 6 1 0 0 6 1 828 6031 40800006 3000 A 0 0 0 0 0 0 0 0 0 0 0 0 0 0 0 0 0 0 0 0 0 0 0 0 0 0 0 0 z_b_10_1
S 853 6 1 0 0 6 1 828 6271 40800006 3000 A 0 0 0 0 0 0 0 0 0 0 0 0 0 0 0 0 0 0 0 0 0 0 0 0 0 0 0 0 z_e_251
S 854 6 1 0 0 6 1 828 6040 40800006 3000 A 0 0 0 0 0 0 0 0 0 0 0 0 0 0 0 0 0 0 0 0 0 0 0 0 0 0 0 0 z_b_11_1
S 855 6 1 0 0 6 1 828 6380 40800006 3000 A 0 0 0 0 0 0 0 0 0 0 0 0 0 0 0 0 0 0 0 0 0 0 0 0 0 0 0 0 z_b_13_1
S 856 6 1 0 0 6 1 828 6066 40800006 3000 A 0 0 0 0 0 0 0 0 0 0 0 0 0 0 0 0 0 0 0 0 0 0 0 0 0 0 0 0 z_b_14_1
S 857 6 1 0 0 6 1 828 6389 40800006 3000 A 0 0 0 0 0 0 0 0 0 0 0 0 0 0 0 0 0 0 0 0 0 0 0 0 0 0 0 0 z_e_258
S 858 23 5 0 0 0 869 582 6397 0 0 A 0 0 0 0 0 0 0 0 0 0 0 0 0 0 0 0 0 0 0 0 0 0 0 0 0 0 0 0 fft_dlay_scalar
S 859 1 3 0 0 56 1 858 5814 4 3000 A 0 0 0 0 0 0 0 0 0 0 0 0 0 0 0 0 0 0 0 0 0 0 0 0 0 0 0 0 desc
S 860 7 3 1 0 212 1 858 5916 20000004 10003000 A 0 0 0 0 0 0 0 0 0 0 0 0 0 0 0 0 0 0 0 0 0 0 0 0 0 0 0 0 ub
S 861 7 3 1 0 209 1 858 5919 20000004 10003000 A 0 0 0 0 0 0 0 0 0 0 0 0 0 0 0 0 0 0 0 0 0 0 0 0 0 0 0 0 lb
S 862 1 3 0 0 6 1 858 4962 4 3000 A 0 0 0 0 0 0 0 0 0 0 0 0 0 0 0 0 0 0 0 0 0 0 0 0 0 0 0 0 nr1
S 863 1 3 0 0 6 1 858 4966 4 3000 A 0 0 0 0 0 0 0 0 0 0 0 0 0 0 0 0 0 0 0 0 0 0 0 0 0 0 0 0 nr2
S 864 1 3 0 0 6 1 858 4970 4 3000 A 0 0 0 0 0 0 0 0 0 0 0 0 0 0 0 0 0 0 0 0 0 0 0 0 0 0 0 0 nr3
S 865 1 3 0 0 6 1 858 4974 4 3000 A 0 0 0 0 0 0 0 0 0 0 0 0 0 0 0 0 0 0 0 0 0 0 0 0 0 0 0 0 nr1x
S 866 1 3 0 0 6 1 858 4979 4 3000 A 0 0 0 0 0 0 0 0 0 0 0 0 0 0 0 0 0 0 0 0 0 0 0 0 0 0 0 0 nr2x
S 867 1 3 0 0 6 1 858 4984 4 3000 A 0 0 0 0 0 0 0 0 0 0 0 0 0 0 0 0 0 0 0 0 0 0 0 0 0 0 0 0 nr3x
S 868 7 3 1 0 215 1 858 5955 800204 3000 A 0 0 0 0 0 0 0 0 0 0 0 0 0 0 0 0 0 0 0 0 0 0 0 0 0 0 0 0 stw
S 869 14 5 0 0 0 1 858 6397 20000200 400000 A 0 0 0 0 0 0 0 62 10 0 0 0 0 0 0 0 0 0 0 0 0 485 0 582 0 0 0 0 fft_dlay_scalar
F 869 10 859 860 861 862 863 864 865 866 867 868
S 870 6 1 0 0 6 1 858 5959 40800006 3000 A 0 0 0 0 0 0 0 0 0 0 0 0 0 0 0 0 0 0 0 0 0 0 0 0 0 0 0 0 z_b_0_1
S 871 6 1 0 0 6 1 858 5967 40800006 3000 A 0 0 0 0 0 0 0 0 0 0 0 0 0 0 0 0 0 0 0 0 0 0 0 0 0 0 0 0 z_b_2_1
S 872 6 1 0 0 6 1 858 5975 40800006 3000 A 0 0 0 0 0 0 0 0 0 0 0 0 0 0 0 0 0 0 0 0 0 0 0 0 0 0 0 0 z_b_3_1
S 873 6 1 0 0 6 1 858 6413 40800006 3000 A 0 0 0 0 0 0 0 0 0 0 0 0 0 0 0 0 0 0 0 0 0 0 0 0 0 0 0 0 z_e_253
S 874 6 1 0 0 6 1 858 5991 40800006 3000 A 0 0 0 0 0 0 0 0 0 0 0 0 0 0 0 0 0 0 0 0 0 0 0 0 0 0 0 0 z_b_4_1
S 875 6 1 0 0 6 1 858 5999 40800006 3000 A 0 0 0 0 0 0 0 0 0 0 0 0 0 0 0 0 0 0 0 0 0 0 0 0 0 0 0 0 z_b_6_1
S 876 6 1 0 0 6 1 858 6007 40800006 3000 A 0 0 0 0 0 0 0 0 0 0 0 0 0 0 0 0 0 0 0 0 0 0 0 0 0 0 0 0 z_b_7_1
S 877 6 1 0 0 6 1 858 6279 40800006 3000 A 0 0 0 0 0 0 0 0 0 0 0 0 0 0 0 0 0 0 0 0 0 0 0 0 0 0 0 0 z_e_260
S 878 3 0 0 0 6 1 1 0 0 0 A 0 0 0 0 0 0 0 0 0 3 0 0 0 0 0 0 0 0 0 0 0 0 0 0 0 0 0 0 6
S 879 6 1 0 0 6 1 858 6421 40800006 3000 A 0 0 0 0 0 0 0 0 0 0 0 0 0 0 0 0 0 0 0 0 0 0 0 0 0 0 0 0 z_e_263
S 880 6 1 0 0 6 1 858 6295 40800006 3000 A 0 0 0 0 0 0 0 0 0 0 0 0 0 0 0 0 0 0 0 0 0 0 0 0 0 0 0 0 z_e_265
S 881 6 1 0 0 6 1 858 6429 40800006 3000 A 0 0 0 0 0 0 0 0 0 0 0 0 0 0 0 0 0 0 0 0 0 0 0 0 0 0 0 0 z_e_272
S 882 6 1 0 0 6 1 858 6437 40800006 3000 A 0 0 0 0 0 0 0 0 0 0 0 0 0 0 0 0 0 0 0 0 0 0 0 0 0 0 0 0 z_e_267
S 883 6 1 0 0 6 1 858 6445 40800006 3000 A 0 0 0 0 0 0 0 0 0 0 0 0 0 0 0 0 0 0 0 0 0 0 0 0 0 0 0 0 z_e_268
S 884 6 1 0 0 6 1 858 6453 40800006 3000 A 0 0 0 0 0 0 0 0 0 0 0 0 0 0 0 0 0 0 0 0 0 0 0 0 0 0 0 0 z_e_277
S 885 6 1 0 0 6 1 858 6461 40800006 3000 A 0 0 0 0 0 0 0 0 0 0 0 0 0 0 0 0 0 0 0 0 0 0 0 0 0 0 0 0 z_e_279
S 886 6 1 0 0 6 1 858 6469 40800006 3000 A 0 0 0 0 0 0 0 0 0 0 0 0 0 0 0 0 0 0 0 0 0 0 0 0 0 0 0 0 z_e_282
A 13 2 0 0 0 6 612 0 0 0 13 0 0 0 0 0 0 0 0 0
A 14 2 0 0 0 6 617 0 0 0 14 0 0 0 0 0 0 0 0 0
A 15 1 0 1 0 65 613 0 0 0 0 0 0 0 0 0 0 0 0 0
A 16 10 0 0 0 6 15 1 0 0 0 0 0 0 0 0 0 0 0 0
X 1 14
A 17 2 0 0 0 6 618 0 0 0 17 0 0 0 0 0 0 0 0 0
A 18 10 0 0 16 6 15 4 0 0 0 0 0 0 0 0 0 0 0 0
X 1 17
A 19 4 0 0 0 6 18 0 3 0 0 0 0 2 0 0 0 0 0 0
A 20 4 0 0 0 6 16 0 19 0 0 0 0 1 0 0 0 0 0 0
A 21 2 0 0 0 6 619 0 0 0 21 0 0 0 0 0 0 0 0 0
A 22 10 0 0 18 6 15 7 0 0 0 0 0 0 0 0 0 0 0 0
X 1 21
A 23 2 0 0 0 6 620 0 0 0 23 0 0 0 0 0 0 0 0 0
A 24 10 0 0 22 6 15 10 0 0 0 0 0 0 0 0 0 0 0 0
X 1 23
A 25 2 0 0 0 6 621 0 0 0 25 0 0 0 0 0 0 0 0 0
A 26 10 0 0 24 6 15 13 0 0 0 0 0 0 0 0 0 0 0 0
X 1 25
A 28 1 0 1 0 71 624 0 0 0 0 0 0 0 0 0 0 0 0 0
A 29 10 0 0 0 6 28 1 0 0 0 0 0 0 0 0 0 0 0 0
X 1 14
A 30 10 0 0 29 6 28 4 0 0 0 0 0 0 0 0 0 0 0 0
X 1 17
A 31 4 0 0 0 6 30 0 3 0 0 0 0 2 0 0 0 0 0 0
A 32 4 0 0 0 6 29 0 31 0 0 0 0 1 0 0 0 0 0 0
A 33 10 0 0 30 6 28 7 0 0 0 0 0 0 0 0 0 0 0 0
X 1 21
A 34 10 0 0 33 6 28 10 0 0 0 0 0 0 0 0 0 0 0 0
X 1 23
A 35 10 0 0 34 6 28 13 0 0 0 0 0 0 0 0 0 0 0 0
X 1 25
A 37 1 0 1 0 77 640 0 0 0 0 0 0 0 0 0 0 0 0 0
A 38 10 0 0 0 6 37 1 0 0 0 0 0 0 0 0 0 0 0 0
X 1 14
A 39 10 0 0 38 6 37 4 0 0 0 0 0 0 0 0 0 0 0 0
X 1 17
A 40 4 0 0 0 6 39 0 3 0 0 0 0 2 0 0 0 0 0 0
A 41 4 0 0 0 6 38 0 40 0 0 0 0 1 0 0 0 0 0 0
A 42 10 0 0 39 6 37 7 0 0 0 0 0 0 0 0 0 0 0 0
X 1 21
A 43 10 0 0 42 6 37 10 0 0 0 0 0 0 0 0 0 0 0 0
X 1 23
A 44 10 0 0 43 6 37 13 0 0 0 0 0 0 0 0 0 0 0 0
X 1 25
A 46 1 0 1 0 83 646 0 0 0 0 0 0 0 0 0 0 0 0 0
A 47 10 0 0 0 6 46 1 0 0 0 0 0 0 0 0 0 0 0 0
X 1 14
A 48 10 0 0 47 6 46 4 0 0 0 0 0 0 0 0 0 0 0 0
X 1 17
A 49 4 0 0 0 6 48 0 3 0 0 0 0 2 0 0 0 0 0 0
A 50 4 0 0 0 6 47 0 49 0 0 0 0 1 0 0 0 0 0 0
A 51 10 0 0 48 6 46 7 0 0 0 0 0 0 0 0 0 0 0 0
X 1 21
A 52 10 0 0 51 6 46 10 0 0 0 0 0 0 0 0 0 0 0 0
X 1 23
A 53 10 0 0 52 6 46 13 0 0 0 0 0 0 0 0 0 0 0 0
X 1 25
A 55 1 0 1 0 89 652 0 0 0 0 0 0 0 0 0 0 0 0 0
A 56 10 0 0 0 6 55 1 0 0 0 0 0 0 0 0 0 0 0 0
X 1 14
A 57 10 0 0 56 6 55 4 0 0 0 0 0 0 0 0 0 0 0 0
X 1 17
A 58 4 0 0 0 6 57 0 3 0 0 0 0 2 0 0 0 0 0 0
A 59 4 0 0 0 6 56 0 58 0 0 0 0 1 0 0 0 0 0 0
A 60 10 0 0 57 6 55 7 0 0 0 0 0 0 0 0 0 0 0 0
X 1 21
A 61 10 0 0 60 6 55 10 0 0 0 0 0 0 0 0 0 0 0 0
X 1 23
A 62 10 0 0 61 6 55 13 0 0 0 0 0 0 0 0 0 0 0 0
X 1 25
A 64 1 0 1 0 95 658 0 0 0 0 0 0 0 0 0 0 0 0 0
A 65 10 0 0 28 6 64 1 0 0 0 0 0 0 0 0 0 0 0 0
X 1 14
A 66 10 0 0 65 6 64 4 0 0 0 0 0 0 0 0 0 0 0 0
X 1 17
A 67 4 0 0 0 6 66 0 3 0 0 0 0 2 0 0 0 0 0 0
A 68 4 0 0 0 6 65 0 67 0 0 0 0 1 0 0 0 0 0 0
A 69 10 0 0 66 6 64 7 0 0 0 0 0 0 0 0 0 0 0 0
X 1 21
A 70 10 0 0 69 6 64 10 0 0 0 0 0 0 0 0 0 0 0 0
X 1 23
A 71 10 0 0 70 6 64 13 0 0 0 0 0 0 0 0 0 0 0 0
X 1 25
A 73 1 0 1 0 101 664 0 0 0 0 0 0 0 0 0 0 0 0 0
A 74 10 0 0 0 6 73 1 0 0 0 0 0 0 0 0 0 0 0 0
X 1 14
A 75 10 0 0 74 6 73 4 0 0 0 0 0 0 0 0 0 0 0 0
X 1 17
A 76 4 0 0 0 6 75 0 3 0 0 0 0 2 0 0 0 0 0 0
A 77 4 0 0 0 6 74 0 76 0 0 0 0 1 0 0 0 0 0 0
A 78 10 0 0 75 6 73 7 0 0 0 0 0 0 0 0 0 0 0 0
X 1 21
A 79 10 0 0 78 6 73 10 0 0 0 0 0 0 0 0 0 0 0 0
X 1 23
A 80 10 0 0 79 6 73 13 0 0 0 0 0 0 0 0 0 0 0 0
X 1 25
A 82 1 0 1 0 107 670 0 0 0 0 0 0 0 0 0 0 0 0 0
A 83 10 0 0 0 6 82 1 0 0 0 0 0 0 0 0 0 0 0 0
X 1 14
A 84 10 0 0 83 6 82 4 0 0 0 0 0 0 0 0 0 0 0 0
X 1 17
A 85 4 0 0 0 6 84 0 3 0 0 0 0 2 0 0 0 0 0 0
A 86 4 0 0 0 6 83 0 85 0 0 0 0 1 0 0 0 0 0 0
A 87 10 0 0 84 6 82 7 0 0 0 0 0 0 0 0 0 0 0 0
X 1 21
A 88 10 0 0 87 6 82 10 0 0 0 0 0 0 0 0 0 0 0 0
X 1 23
A 89 10 0 0 88 6 82 13 0 0 0 0 0 0 0 0 0 0 0 0
X 1 25
A 91 1 0 1 25 113 676 0 0 0 0 0 0 0 0 0 0 0 0 0
A 92 10 0 0 0 6 91 1 0 0 0 0 0 0 0 0 0 0 0 0
X 1 14
A 93 10 0 0 92 6 91 4 0 0 0 0 0 0 0 0 0 0 0 0
X 1 17
A 94 4 0 0 0 6 93 0 3 0 0 0 0 2 0 0 0 0 0 0
A 95 4 0 0 0 6 92 0 94 0 0 0 0 1 0 0 0 0 0 0
A 96 10 0 0 93 6 91 7 0 0 0 0 0 0 0 0 0 0 0 0
X 1 21
A 97 10 0 0 96 6 91 10 0 0 0 0 0 0 0 0 0 0 0 0
X 1 23
A 98 10 0 0 97 6 91 13 0 0 0 0 0 0 0 0 0 0 0 0
X 1 25
A 100 1 0 1 0 119 682 0 0 0 0 0 0 0 0 0 0 0 0 0
A 101 10 0 0 0 6 100 1 0 0 0 0 0 0 0 0 0 0 0 0
X 1 14
A 102 10 0 0 101 6 100 4 0 0 0 0 0 0 0 0 0 0 0 0
X 1 17
A 103 4 0 0 0 6 102 0 3 0 0 0 0 2 0 0 0 0 0 0
A 104 4 0 0 49 6 101 0 103 0 0 0 0 1 0 0 0 0 0 0
A 105 10 0 0 102 6 100 7 0 0 0 0 0 0 0 0 0 0 0 0
X 1 21
A 106 10 0 0 105 6 100 10 0 0 0 0 0 0 0 0 0 0 0 0
X 1 23
A 107 10 0 0 106 6 100 13 0 0 0 0 0 0 0 0 0 0 0 0
X 1 25
A 109 1 0 1 0 125 688 0 0 0 0 0 0 0 0 0 0 0 0 0
A 110 10 0 0 0 6 109 1 0 0 0 0 0 0 0 0 0 0 0 0
X 1 14
A 111 10 0 0 110 6 109 4 0 0 0 0 0 0 0 0 0 0 0 0
X 1 17
A 112 4 0 0 0 6 111 0 3 0 0 0 0 2 0 0 0 0 0 0
A 113 4 0 0 0 6 110 0 112 0 0 0 0 1 0 0 0 0 0 0
A 114 10 0 0 111 6 109 7 0 0 0 0 0 0 0 0 0 0 0 0
X 1 21
A 115 10 0 0 114 6 109 10 0 0 0 0 0 0 0 0 0 0 0 0
X 1 23
A 116 10 0 0 115 6 109 13 0 0 0 0 0 0 0 0 0 0 0 0
X 1 25
A 119 2 0 0 0 6 697 0 0 0 119 0 0 0 0 0 0 0 0 0
A 120 1 0 3 0 131 698 0 0 0 0 0 0 0 0 0 0 0 0 0
A 121 10 0 0 0 6 120 1 0 0 0 0 0 0 0 0 0 0 0 0
X 1 14
A 122 10 0 0 121 6 120 4 0 0 0 0 0 0 0 0 0 0 0 0
X 1 17
A 123 4 0 0 0 6 122 0 3 0 0 0 0 2 0 0 0 0 0 0
A 124 4 0 0 0 6 121 0 123 0 0 0 0 1 0 0 0 0 0 0
A 125 2 0 0 0 6 702 0 0 0 125 0 0 0 0 0 0 0 0 0
A 126 10 0 0 122 6 120 16 0 0 0 0 0 0 0 0 0 0 0 0
X 1 125
A 127 2 0 0 0 6 703 0 0 0 127 0 0 0 0 0 0 0 0 0
A 128 10 0 0 126 6 120 19 0 0 0 0 0 0 0 0 0 0 0 0
X 1 127
A 129 4 0 0 14 6 128 0 3 0 0 0 0 2 0 0 0 0 0 0
A 130 4 0 0 0 6 126 0 129 0 0 0 0 1 0 0 0 0 0 0
A 131 10 0 0 128 6 120 7 0 0 0 0 0 0 0 0 0 0 0 0
X 1 21
A 132 2 0 0 0 6 704 0 0 0 132 0 0 0 0 0 0 0 0 0
A 133 10 0 0 131 6 120 22 0 0 0 0 0 0 0 0 0 0 0 0
X 1 132
A 134 10 0 0 133 6 120 10 0 0 0 0 0 0 0 0 0 0 0 0
X 1 23
A 135 10 0 0 134 6 120 13 0 0 0 0 0 0 0 0 0 0 0 0
X 1 25
A 137 1 0 1 0 137 707 0 0 0 0 0 0 0 0 0 0 0 0 0
A 138 10 0 0 0 6 137 1 0 0 0 0 0 0 0 0 0 0 0 0
X 1 14
A 139 10 0 0 138 6 137 4 0 0 0 0 0 0 0 0 0 0 0 0
X 1 17
A 140 4 0 0 0 6 139 0 3 0 0 0 0 2 0 0 0 0 0 0
A 141 4 0 0 0 6 138 0 140 0 0 0 0 1 0 0 0 0 0 0
A 142 10 0 0 139 6 137 7 0 0 0 0 0 0 0 0 0 0 0 0
X 1 21
A 143 10 0 0 142 6 137 10 0 0 0 0 0 0 0 0 0 0 0 0
X 1 23
A 144 10 0 0 143 6 137 13 0 0 0 0 0 0 0 0 0 0 0 0
X 1 25
A 146 1 0 1 0 143 713 0 0 0 0 0 0 0 0 0 0 0 0 0
A 147 10 0 0 54 6 146 1 0 0 0 0 0 0 0 0 0 0 0 0
X 1 14
A 148 10 0 0 147 6 146 4 0 0 0 0 0 0 0 0 0 0 0 0
X 1 17
A 149 4 0 0 0 6 148 0 3 0 0 0 0 2 0 0 0 0 0 0
A 150 4 0 0 0 6 147 0 149 0 0 0 0 1 0 0 0 0 0 0
A 151 10 0 0 148 6 146 7 0 0 0 0 0 0 0 0 0 0 0 0
X 1 21
A 152 10 0 0 151 6 146 10 0 0 0 0 0 0 0 0 0 0 0 0
X 1 23
A 153 10 0 0 152 6 146 13 0 0 0 0 0 0 0 0 0 0 0 0
X 1 25
A 155 1 0 1 0 149 719 0 0 0 0 0 0 0 0 0 0 0 0 0
A 156 10 0 0 0 6 155 1 0 0 0 0 0 0 0 0 0 0 0 0
X 1 14
A 157 10 0 0 156 6 155 4 0 0 0 0 0 0 0 0 0 0 0 0
X 1 17
A 158 4 0 0 0 6 157 0 3 0 0 0 0 2 0 0 0 0 0 0
A 159 4 0 0 0 6 156 0 158 0 0 0 0 1 0 0 0 0 0 0
A 160 10 0 0 157 6 155 7 0 0 0 0 0 0 0 0 0 0 0 0
X 1 21
A 161 10 0 0 160 6 155 10 0 0 0 0 0 0 0 0 0 0 0 0
X 1 23
A 162 10 0 0 161 6 155 13 0 0 0 0 0 0 0 0 0 0 0 0
X 1 25
A 164 1 0 1 0 155 727 0 0 0 0 0 0 0 0 0 0 0 0 0
A 165 10 0 0 81 6 164 1 0 0 0 0 0 0 0 0 0 0 0 0
X 1 14
A 166 10 0 0 165 6 164 4 0 0 0 0 0 0 0 0 0 0 0 0
X 1 17
A 167 4 0 0 0 6 166 0 3 0 0 0 0 2 0 0 0 0 0 0
A 168 4 0 0 0 6 165 0 167 0 0 0 0 1 0 0 0 0 0 0
A 169 10 0 0 166 6 164 7 0 0 0 0 0 0 0 0 0 0 0 0
X 1 21
A 170 10 0 0 169 6 164 10 0 0 0 0 0 0 0 0 0 0 0 0
X 1 23
A 171 10 0 0 170 6 164 13 0 0 0 0 0 0 0 0 0 0 0 0
X 1 25
A 173 1 0 1 9 161 733 0 0 0 0 0 0 0 0 0 0 0 0 0
A 174 10 0 0 0 6 173 1 0 0 0 0 0 0 0 0 0 0 0 0
X 1 14
A 175 10 0 0 174 6 173 4 0 0 0 0 0 0 0 0 0 0 0 0
X 1 17
A 176 4 0 0 0 6 175 0 3 0 0 0 0 2 0 0 0 0 0 0
A 177 4 0 0 0 6 174 0 176 0 0 0 0 1 0 0 0 0 0 0
A 178 10 0 0 175 6 173 7 0 0 0 0 0 0 0 0 0 0 0 0
X 1 21
A 179 10 0 0 178 6 173 10 0 0 0 0 0 0 0 0 0 0 0 0
X 1 23
A 180 10 0 0 179 6 173 13 0 0 0 0 0 0 0 0 0 0 0 0
X 1 25
A 182 1 0 0 0 6 785 0 0 0 0 0 0 0 0 0 0 0 0 0
A 183 1 0 0 0 6 783 0 0 0 0 0 0 0 0 0 0 0 0 0
A 184 1 0 0 0 6 786 0 0 0 0 0 0 0 0 0 0 0 0 0
A 185 1 0 0 0 6 784 0 0 0 0 0 0 0 0 0 0 0 0 0
A 186 1 0 0 0 6 789 0 0 0 0 0 0 0 0 0 0 0 0 0
A 187 1 0 0 0 6 787 0 0 0 0 0 0 0 0 0 0 0 0 0
A 188 1 0 0 0 6 790 0 0 0 0 0 0 0 0 0 0 0 0 0
A 189 1 0 0 0 6 788 0 0 0 0 0 0 0 0 0 0 0 0 0
A 190 1 0 0 0 6 793 0 0 0 0 0 0 0 0 0 0 0 0 0
A 191 1 0 0 130 6 791 0 0 0 0 0 0 0 0 0 0 0 0 0
A 192 1 0 0 0 6 794 0 0 0 0 0 0 0 0 0 0 0 0 0
A 193 1 0 0 0 6 792 0 0 0 0 0 0 0 0 0 0 0 0 0
A 194 1 0 0 0 6 797 0 0 0 0 0 0 0 0 0 0 0 0 0
A 195 1 0 0 0 6 795 0 0 0 0 0 0 0 0 0 0 0 0 0
A 196 1 0 0 0 6 798 0 0 0 0 0 0 0 0 0 0 0 0 0
A 197 1 0 0 0 6 796 0 0 0 0 0 0 0 0 0 0 0 0 0
A 198 1 0 0 0 6 801 0 0 0 0 0 0 0 0 0 0 0 0 0
A 199 1 0 0 177 6 799 0 0 0 0 0 0 0 0 0 0 0 0 0
A 200 1 0 0 0 6 802 0 0 0 0 0 0 0 0 0 0 0 0 0
A 201 1 0 0 0 6 800 0 0 0 0 0 0 0 0 0 0 0 0 0
A 202 1 0 0 0 6 805 0 0 0 0 0 0 0 0 0 0 0 0 0
A 203 1 0 0 0 6 803 0 0 0 0 0 0 0 0 0 0 0 0 0
A 204 1 0 0 0 6 806 0 0 0 0 0 0 0 0 0 0 0 0 0
A 205 1 0 0 0 6 804 0 0 0 0 0 0 0 0 0 0 0 0 0
A 206 1 0 0 119 6 809 0 0 0 0 0 0 0 0 0 0 0 0 0
A 207 1 0 0 0 6 807 0 0 0 0 0 0 0 0 0 0 0 0 0
A 208 1 0 0 0 6 810 0 0 0 0 0 0 0 0 0 0 0 0 0
A 209 1 0 0 0 6 808 0 0 0 0 0 0 0 0 0 0 0 0 0
A 210 1 0 0 0 6 813 0 0 0 0 0 0 0 0 0 0 0 0 0
A 211 1 0 0 0 6 811 0 0 0 0 0 0 0 0 0 0 0 0 0
A 212 1 0 0 125 6 814 0 0 0 0 0 0 0 0 0 0 0 0 0
A 213 1 0 0 0 6 812 0 0 0 0 0 0 0 0 0 0 0 0 0
A 214 1 0 0 0 6 817 0 0 0 0 0 0 0 0 0 0 0 0 0
A 215 1 0 0 127 6 815 0 0 0 0 0 0 0 0 0 0 0 0 0
A 216 1 0 0 0 6 818 0 0 0 0 0 0 0 0 0 0 0 0 0
A 217 1 0 0 132 6 816 0 0 0 0 0 0 0 0 0 0 0 0 0
A 218 1 0 0 0 6 827 0 0 0 0 0 0 0 0 0 0 0 0 0
A 219 1 0 5 0 188 772 0 0 0 0 0 0 0 0 0 0 0 0 0
A 220 10 0 0 13 6 219 25 0 0 0 0 0 0 0 0 0 0 0 0
X 1 3
A 221 1 0 7 0 191 771 0 0 0 0 0 0 0 0 0 0 0 0 0
A 222 10 0 0 163 6 221 25 0 0 0 0 0 0 0 0 0 0 0 0
X 1 3
A 223 1 0 0 0 6 820 0 0 0 0 0 0 0 0 0 0 0 0 0
A 224 1 0 0 0 6 821 0 0 0 0 0 0 0 0 0 0 0 0 0
A 225 1 0 0 0 6 822 0 0 0 0 0 0 0 0 0 0 0 0 0
A 226 2 0 0 0 6 819 0 0 0 226 0 0 0 0 0 0 0 0 0
A 227 10 0 0 220 6 219 28 0 0 0 0 0 0 0 0 0 0 0 0
X 1 226
A 228 10 0 0 222 6 221 28 0 0 0 0 0 0 0 0 0 0 0 0
X 1 226
A 229 1 0 0 0 6 823 0 0 0 0 0 0 0 0 0 0 0 0 0
A 230 1 0 0 0 6 824 0 0 0 0 0 0 0 0 0 0 0 0 0
A 231 1 0 0 0 6 825 0 0 0 0 0 0 0 0 0 0 0 0 0
A 232 1 0 0 0 6 826 0 0 0 0 0 0 0 0 0 0 0 0 0
A 233 1 0 0 173 6 847 0 0 0 0 0 0 0 0 0 0 0 0 0
A 234 1 0 0 0 6 843 0 0 0 0 0 0 0 0 0 0 0 0 0
A 235 1 0 0 0 6 848 0 0 0 0 0 0 0 0 0 0 0 0 0
A 236 1 0 0 0 6 845 0 0 0 0 0 0 0 0 0 0 0 0 0
A 237 1 0 0 0 6 844 0 0 0 0 0 0 0 0 0 0 0 0 0
A 238 1 0 0 0 6 849 0 0 0 0 0 0 0 0 0 0 0 0 0
A 239 1 0 0 0 6 846 0 0 0 0 0 0 0 0 0 0 0 0 0
A 240 1 0 0 0 6 852 0 0 0 0 0 0 0 0 0 0 0 0 0
A 241 1 0 0 0 6 850 0 0 0 0 0 0 0 0 0 0 0 0 0
A 242 1 0 0 0 6 853 0 0 0 0 0 0 0 0 0 0 0 0 0
A 243 1 0 0 95 6 851 0 0 0 0 0 0 0 0 0 0 0 0 0
A 244 1 0 0 0 6 856 0 0 0 0 0 0 0 0 0 0 0 0 0
A 245 1 0 0 0 6 854 0 0 0 0 0 0 0 0 0 0 0 0 0
A 246 1 0 0 0 6 857 0 0 0 0 0 0 0 0 0 0 0 0 0
A 247 1 0 0 50 6 855 0 0 0 0 0 0 0 0 0 0 0 0 0
A 248 1 0 0 0 6 872 0 0 0 0 0 0 0 0 0 0 0 0 0
A 249 1 0 0 0 6 870 0 0 0 0 0 0 0 0 0 0 0 0 0
A 250 1 0 0 0 6 873 0 0 0 0 0 0 0 0 0 0 0 0 0
A 251 1 0 0 0 6 871 0 0 0 0 0 0 0 0 0 0 0 0 0
A 252 1 0 0 0 6 876 0 0 0 0 0 0 0 0 0 0 0 0 0
A 253 1 0 0 0 6 874 0 0 0 0 0 0 0 0 0 0 0 0 0
A 254 1 0 0 0 6 877 0 0 0 0 0 0 0 0 0 0 0 0 0
A 255 1 0 0 0 6 875 0 0 0 0 0 0 0 0 0 0 0 0 0
A 256 1 0 0 0 6 886 0 0 0 0 0 0 0 0 0 0 0 0 0
A 257 1 0 9 0 209 861 0 0 0 0 0 0 0 0 0 0 0 0 0
A 258 10 0 0 0 6 257 28 0 0 0 0 0 0 0 0 0 0 0 0
X 1 226
A 259 1 0 11 0 212 860 0 0 0 0 0 0 0 0 0 0 0 0 0
A 260 10 0 0 0 6 259 28 0 0 0 0 0 0 0 0 0 0 0 0
X 1 226
A 261 1 0 0 0 6 879 0 0 0 0 0 0 0 0 0 0 0 0 0
A 262 1 0 0 0 6 880 0 0 0 0 0 0 0 0 0 0 0 0 0
A 263 1 0 0 0 6 881 0 0 0 0 0 0 0 0 0 0 0 0 0
A 264 2 0 0 0 6 878 0 0 0 264 0 0 0 0 0 0 0 0 0
A 265 10 0 0 258 6 257 31 0 0 0 0 0 0 0 0 0 0 0 0
X 1 264
A 266 10 0 0 260 6 259 31 0 0 0 0 0 0 0 0 0 0 0 0
X 1 264
A 267 1 0 0 0 6 882 0 0 0 0 0 0 0 0 0 0 0 0 0
A 268 1 0 0 0 6 883 0 0 0 0 0 0 0 0 0 0 0 0 0
A 269 1 0 0 0 6 884 0 0 0 0 0 0 0 0 0 0 0 0 0
A 270 1 0 0 0 6 885 0 0 0 0 0 0 0 0 0 0 0 0 0
Z
Z
