V26 fft_parallel
16 fft_parallel.F90 S582 0
04/24/2012  15:51:37
use fft_types private
use fft_types private
enduse
D 218 24 622 1584 621 7
D 224 21 12 1 252 255 1 1 0 0 1
 3 253 3 3 253 254
S 582 24 0 0 0 9 1 0 4658 10005 0 A 0 0 0 0 0 0 0 0 0 0 0 0 0 0 0 0 0 0 0 0 0 36 0 0 0 0 0 0 fft_parallel
R 621 25 2 fft_types fft_dlay_descriptor
R 622 5 3 fft_types nst fft_dlay_descriptor
R 623 5 4 fft_types nsp fft_dlay_descriptor
R 625 5 6 fft_types nsp$sd fft_dlay_descriptor
R 626 5 7 fft_types nsp$p fft_dlay_descriptor
R 627 5 8 fft_types nsp$o fft_dlay_descriptor
R 629 5 10 fft_types nsw fft_dlay_descriptor
R 631 5 12 fft_types nsw$sd fft_dlay_descriptor
R 632 5 13 fft_types nsw$p fft_dlay_descriptor
R 633 5 14 fft_types nsw$o fft_dlay_descriptor
R 635 5 16 fft_types nr1 fft_dlay_descriptor
R 636 5 17 fft_types nr2 fft_dlay_descriptor
R 637 5 18 fft_types nr3 fft_dlay_descriptor
R 638 5 19 fft_types nr1x fft_dlay_descriptor
R 639 5 20 fft_types nr2x fft_dlay_descriptor
R 640 5 21 fft_types nr3x fft_dlay_descriptor
R 641 5 22 fft_types npl fft_dlay_descriptor
R 642 5 23 fft_types nnp fft_dlay_descriptor
R 643 5 24 fft_types nnr fft_dlay_descriptor
R 644 5 25 fft_types ngt fft_dlay_descriptor
R 645 5 26 fft_types ngl fft_dlay_descriptor
R 647 5 28 fft_types ngl$sd fft_dlay_descriptor
R 648 5 29 fft_types ngl$p fft_dlay_descriptor
R 649 5 30 fft_types ngl$o fft_dlay_descriptor
R 651 5 32 fft_types nwl fft_dlay_descriptor
R 653 5 34 fft_types nwl$sd fft_dlay_descriptor
R 654 5 35 fft_types nwl$p fft_dlay_descriptor
R 655 5 36 fft_types nwl$o fft_dlay_descriptor
R 657 5 38 fft_types npp fft_dlay_descriptor
R 659 5 40 fft_types npp$sd fft_dlay_descriptor
R 660 5 41 fft_types npp$p fft_dlay_descriptor
R 661 5 42 fft_types npp$o fft_dlay_descriptor
R 663 5 44 fft_types ipp fft_dlay_descriptor
R 665 5 46 fft_types ipp$sd fft_dlay_descriptor
R 666 5 47 fft_types ipp$p fft_dlay_descriptor
R 667 5 48 fft_types ipp$o fft_dlay_descriptor
R 669 5 50 fft_types iss fft_dlay_descriptor
R 671 5 52 fft_types iss$sd fft_dlay_descriptor
R 672 5 53 fft_types iss$p fft_dlay_descriptor
R 673 5 54 fft_types iss$o fft_dlay_descriptor
R 675 5 56 fft_types isind fft_dlay_descriptor
R 677 5 58 fft_types isind$sd fft_dlay_descriptor
R 678 5 59 fft_types isind$p fft_dlay_descriptor
R 679 5 60 fft_types isind$o fft_dlay_descriptor
R 681 5 62 fft_types ismap fft_dlay_descriptor
R 683 5 64 fft_types ismap$sd fft_dlay_descriptor
R 684 5 65 fft_types ismap$p fft_dlay_descriptor
R 685 5 66 fft_types ismap$o fft_dlay_descriptor
R 687 5 68 fft_types iplp fft_dlay_descriptor
R 689 5 70 fft_types iplp$sd fft_dlay_descriptor
R 690 5 71 fft_types iplp$p fft_dlay_descriptor
R 691 5 72 fft_types iplp$o fft_dlay_descriptor
R 693 5 74 fft_types iplw fft_dlay_descriptor
R 695 5 76 fft_types iplw$sd fft_dlay_descriptor
R 696 5 77 fft_types iplw$p fft_dlay_descriptor
R 697 5 78 fft_types iplw$o fft_dlay_descriptor
R 699 5 80 fft_types id fft_dlay_descriptor
R 700 5 81 fft_types tptr fft_dlay_descriptor
R 701 5 82 fft_types irb fft_dlay_descriptor
R 704 5 85 fft_types irb$sd fft_dlay_descriptor
R 705 5 86 fft_types irb$p fft_dlay_descriptor
R 706 5 87 fft_types irb$o fft_dlay_descriptor
R 708 5 89 fft_types imin3 fft_dlay_descriptor
R 710 5 91 fft_types imin3$sd fft_dlay_descriptor
R 711 5 92 fft_types imin3$p fft_dlay_descriptor
R 712 5 93 fft_types imin3$o fft_dlay_descriptor
R 714 5 95 fft_types imax3 fft_dlay_descriptor
R 716 5 97 fft_types imax3$sd fft_dlay_descriptor
R 717 5 98 fft_types imax3$p fft_dlay_descriptor
R 718 5 99 fft_types imax3$o fft_dlay_descriptor
R 720 5 101 fft_types np3 fft_dlay_descriptor
R 722 5 103 fft_types np3$sd fft_dlay_descriptor
R 723 5 104 fft_types np3$p fft_dlay_descriptor
R 724 5 105 fft_types np3$o fft_dlay_descriptor
R 726 5 107 fft_types have_task_groups fft_dlay_descriptor
R 727 5 108 fft_types nnrx fft_dlay_descriptor
R 728 5 109 fft_types tg_nsw fft_dlay_descriptor
R 730 5 111 fft_types tg_nsw$sd fft_dlay_descriptor
R 731 5 112 fft_types tg_nsw$p fft_dlay_descriptor
R 732 5 113 fft_types tg_nsw$o fft_dlay_descriptor
R 734 5 115 fft_types tg_npp fft_dlay_descriptor
R 736 5 117 fft_types tg_npp$sd fft_dlay_descriptor
R 737 5 118 fft_types tg_npp$p fft_dlay_descriptor
R 738 5 119 fft_types tg_npp$o fft_dlay_descriptor
S 888 23 5 0 0 0 893 582 6490 0 0 A 0 0 0 0 0 0 0 0 0 0 0 0 0 0 0 0 0 0 0 0 0 0 0 0 0 0 0 0 tg_cft3s
S 889 7 3 3 0 224 1 888 6499 20000004 10003000 A 0 0 0 0 0 0 0 0 0 0 0 0 0 0 0 0 0 0 0 0 0 0 0 0 0 0 0 0 f
S 890 6 3 1 0 218 1 888 6501 4 3000 A 0 0 0 0 0 0 0 0 0 0 0 0 0 0 0 0 0 0 0 0 0 0 0 0 0 0 0 0 dfft
S 891 1 3 1 0 6 1 888 6506 4 3000 A 0 0 0 0 0 0 0 0 0 0 0 0 0 0 0 0 0 0 0 0 0 0 0 0 0 0 0 0 isgn
S 892 1 3 1 0 16 1 888 6511 80000004 3000 A 0 0 0 0 0 0 0 0 0 0 0 0 0 0 0 0 0 0 0 0 0 0 0 0 0 0 0 0 use_task_groups
S 893 14 5 0 0 0 1 888 6490 0 400000 A 0 0 0 0 0 0 0 73 4 0 0 0 0 0 0 0 0 0 0 0 0 46 0 582 0 0 0 0 tg_cft3s
F 893 4 889 890 891 892
S 894 6 1 0 0 6 1 888 5972 40000006 3000 A 0 0 0 0 0 0 0 0 0 0 0 0 0 0 0 0 0 0 0 0 0 0 0 0 0 0 0 0 z_b_0_1
S 895 6 1 0 0 6 1 888 5980 40000006 3000 A 0 0 0 0 0 0 0 0 0 0 0 0 0 0 0 0 0 0 0 0 0 0 0 0 0 0 0 0 z_b_2_1
S 896 6 1 0 0 6 1 888 5988 40000006 3000 A 0 0 0 0 0 0 0 0 0 0 0 0 0 0 0 0 0 0 0 0 0 0 0 0 0 0 0 0 z_b_3_1
S 897 6 1 0 0 6 1 888 6527 40000006 3000 A 0 0 0 0 0 0 0 0 0 0 0 0 0 0 0 0 0 0 0 0 0 0 0 0 0 0 0 0 z_e_776
A 252 1 0 0 0 6 896 0 0 0 0 0 0 0 0 0 0 0 0 0
A 253 1 0 0 0 6 894 0 0 0 0 0 0 0 0 0 0 0 0 0
A 254 1 0 0 0 6 897 0 0 0 0 0 0 0 0 0 0 0 0 0
A 255 1 0 0 103 6 895 0 0 0 0 0 0 0 0 0 0 0 0 0
Z
Z
