V26 fft_base
12 fft_base.F90 S582 0
04/24/2012  15:51:15
use fft_types private
use kinds private
use fft_types private
use kinds private
enduse
D 71 24 1064 1584 1063 7
D 233 21 6 1 656 659 1 1 0 0 1
 3 657 3 3 657 658
D 236 21 6 1 660 663 1 1 0 0 1
 3 661 3 3 661 662
D 239 21 12 1 3 665 0 0 1 0 0
 0 664 3 3 665 665
D 242 21 12 1 3 665 0 0 1 0 0
 0 664 3 3 665 665
D 245 21 9 1 666 669 1 1 0 0 1
 3 667 3 3 667 668
D 248 21 9 1 670 673 1 1 0 0 1
 3 671 3 3 671 672
D 251 21 9 1 674 677 1 1 0 0 1
 3 675 3 3 675 676
D 254 21 9 1 678 681 1 1 0 0 1
 3 679 3 3 679 680
D 257 21 12 1 682 685 1 1 0 0 1
 3 683 3 3 683 684
D 260 21 12 1 686 689 1 1 0 0 1
 3 687 3 3 687 688
D 263 21 12 1 690 693 1 1 0 0 1
 3 691 3 3 691 692
D 266 21 12 1 694 697 1 1 0 0 1
 3 695 3 3 695 696
D 269 21 12 1 698 701 1 1 0 0 1
 3 699 3 3 699 700
D 272 21 12 1 702 705 1 1 0 0 1
 3 703 3 3 703 704
D 275 21 12 1 706 709 1 1 0 0 1
 3 707 3 3 707 708
D 278 21 12 1 710 713 1 1 0 0 1
 3 711 3 3 711 712
S 582 24 0 0 0 9 1 0 4658 10015 0 A 0 0 0 0 0 0 0 0 0 0 0 0 0 0 0 0 0 0 0 0 0 32 0 0 0 0 0 0 fft_base
S 584 23 0 0 0 9 590 582 4673 14 0 A 0 0 0 0 0 0 0 0 0 0 0 0 0 0 0 0 0 0 0 0 0 0 0 582 0 0 0 0 dp
S 587 23 0 0 0 9 1063 582 4703 4 0 A 0 0 0 0 0 0 0 0 0 0 0 0 0 0 0 0 0 0 0 0 0 0 0 582 0 0 0 0 fft_dlay_descriptor
R 590 16 1 kinds dp
R 1063 25 2 fft_types fft_dlay_descriptor
R 1064 5 3 fft_types nst fft_dlay_descriptor
R 1065 5 4 fft_types nsp fft_dlay_descriptor
R 1067 5 6 fft_types nsp$sd fft_dlay_descriptor
R 1068 5 7 fft_types nsp$p fft_dlay_descriptor
R 1069 5 8 fft_types nsp$o fft_dlay_descriptor
R 1071 5 10 fft_types nsw fft_dlay_descriptor
R 1073 5 12 fft_types nsw$sd fft_dlay_descriptor
R 1074 5 13 fft_types nsw$p fft_dlay_descriptor
R 1075 5 14 fft_types nsw$o fft_dlay_descriptor
R 1077 5 16 fft_types nr1 fft_dlay_descriptor
R 1078 5 17 fft_types nr2 fft_dlay_descriptor
R 1079 5 18 fft_types nr3 fft_dlay_descriptor
R 1080 5 19 fft_types nr1x fft_dlay_descriptor
R 1081 5 20 fft_types nr2x fft_dlay_descriptor
R 1082 5 21 fft_types nr3x fft_dlay_descriptor
R 1083 5 22 fft_types npl fft_dlay_descriptor
R 1084 5 23 fft_types nnp fft_dlay_descriptor
R 1085 5 24 fft_types nnr fft_dlay_descriptor
R 1086 5 25 fft_types ngt fft_dlay_descriptor
R 1087 5 26 fft_types ngl fft_dlay_descriptor
R 1089 5 28 fft_types ngl$sd fft_dlay_descriptor
R 1090 5 29 fft_types ngl$p fft_dlay_descriptor
R 1091 5 30 fft_types ngl$o fft_dlay_descriptor
R 1093 5 32 fft_types nwl fft_dlay_descriptor
R 1095 5 34 fft_types nwl$sd fft_dlay_descriptor
R 1096 5 35 fft_types nwl$p fft_dlay_descriptor
R 1097 5 36 fft_types nwl$o fft_dlay_descriptor
R 1099 5 38 fft_types npp fft_dlay_descriptor
R 1101 5 40 fft_types npp$sd fft_dlay_descriptor
R 1102 5 41 fft_types npp$p fft_dlay_descriptor
R 1103 5 42 fft_types npp$o fft_dlay_descriptor
R 1105 5 44 fft_types ipp fft_dlay_descriptor
R 1107 5 46 fft_types ipp$sd fft_dlay_descriptor
R 1108 5 47 fft_types ipp$p fft_dlay_descriptor
R 1109 5 48 fft_types ipp$o fft_dlay_descriptor
R 1111 5 50 fft_types iss fft_dlay_descriptor
R 1113 5 52 fft_types iss$sd fft_dlay_descriptor
R 1114 5 53 fft_types iss$p fft_dlay_descriptor
R 1115 5 54 fft_types iss$o fft_dlay_descriptor
R 1117 5 56 fft_types isind fft_dlay_descriptor
R 1119 5 58 fft_types isind$sd fft_dlay_descriptor
R 1120 5 59 fft_types isind$p fft_dlay_descriptor
R 1121 5 60 fft_types isind$o fft_dlay_descriptor
R 1123 5 62 fft_types ismap fft_dlay_descriptor
R 1125 5 64 fft_types ismap$sd fft_dlay_descriptor
R 1126 5 65 fft_types ismap$p fft_dlay_descriptor
R 1127 5 66 fft_types ismap$o fft_dlay_descriptor
R 1129 5 68 fft_types iplp fft_dlay_descriptor
R 1131 5 70 fft_types iplp$sd fft_dlay_descriptor
R 1132 5 71 fft_types iplp$p fft_dlay_descriptor
R 1133 5 72 fft_types iplp$o fft_dlay_descriptor
R 1135 5 74 fft_types iplw fft_dlay_descriptor
R 1137 5 76 fft_types iplw$sd fft_dlay_descriptor
R 1138 5 77 fft_types iplw$p fft_dlay_descriptor
R 1139 5 78 fft_types iplw$o fft_dlay_descriptor
R 1141 5 80 fft_types id fft_dlay_descriptor
R 1142 5 81 fft_types tptr fft_dlay_descriptor
R 1143 5 82 fft_types irb fft_dlay_descriptor
R 1146 5 85 fft_types irb$sd fft_dlay_descriptor
R 1147 5 86 fft_types irb$p fft_dlay_descriptor
R 1148 5 87 fft_types irb$o fft_dlay_descriptor
R 1150 5 89 fft_types imin3 fft_dlay_descriptor
R 1152 5 91 fft_types imin3$sd fft_dlay_descriptor
R 1153 5 92 fft_types imin3$p fft_dlay_descriptor
R 1154 5 93 fft_types imin3$o fft_dlay_descriptor
R 1156 5 95 fft_types imax3 fft_dlay_descriptor
R 1158 5 97 fft_types imax3$sd fft_dlay_descriptor
R 1159 5 98 fft_types imax3$p fft_dlay_descriptor
R 1160 5 99 fft_types imax3$o fft_dlay_descriptor
R 1162 5 101 fft_types np3 fft_dlay_descriptor
R 1164 5 103 fft_types np3$sd fft_dlay_descriptor
R 1165 5 104 fft_types np3$p fft_dlay_descriptor
R 1166 5 105 fft_types np3$o fft_dlay_descriptor
R 1168 5 107 fft_types have_task_groups fft_dlay_descriptor
R 1169 5 108 fft_types nnrx fft_dlay_descriptor
R 1170 5 109 fft_types tg_nsw fft_dlay_descriptor
R 1172 5 111 fft_types tg_nsw$sd fft_dlay_descriptor
R 1173 5 112 fft_types tg_nsw$p fft_dlay_descriptor
R 1174 5 113 fft_types tg_nsw$o fft_dlay_descriptor
R 1176 5 115 fft_types tg_npp fft_dlay_descriptor
R 1178 5 117 fft_types tg_npp$sd fft_dlay_descriptor
R 1179 5 118 fft_types tg_npp$p fft_dlay_descriptor
R 1180 5 119 fft_types tg_npp$o fft_dlay_descriptor
S 1330 6 4 0 0 71 1331 582 10667 4 0 A 0 0 0 0 0 0 0 0 0 0 0 0 1340 0 0 0 0 0 0 0 0 0 0 582 0 0 0 0 dfftp
S 1331 6 4 0 0 71 1332 582 10673 4 0 A 0 0 0 0 0 1584 0 0 0 0 0 0 1340 0 0 0 0 0 0 0 0 0 0 582 0 0 0 0 dffts
S 1332 6 4 0 0 71 1 582 10679 4 0 A 0 0 0 0 0 3168 0 0 0 0 0 0 1340 0 0 0 0 0 0 0 0 0 0 582 0 0 0 0 dfftb
S 1333 27 0 0 0 9 1341 582 10685 0 0 A 0 0 0 0 0 0 0 0 0 0 0 0 0 0 0 0 0 0 0 0 0 0 0 582 0 0 0 0 fft_scatter
S 1334 27 0 0 0 9 1360 582 10697 0 0 A 0 0 0 0 0 0 0 0 0 0 0 0 0 0 0 0 0 0 0 0 0 0 0 582 0 0 0 0 grid_gather
S 1335 27 0 0 0 9 1372 582 10709 0 0 A 0 0 0 0 0 0 0 0 0 0 0 0 0 0 0 0 0 0 0 0 0 0 0 582 0 0 0 0 grid_scatter
S 1336 27 0 0 0 9 1384 582 10722 0 0 A 0 0 0 0 0 0 0 0 0 0 0 0 0 0 0 0 0 0 0 0 0 0 0 582 0 0 0 0 cgather_sym
S 1337 27 0 0 0 9 1396 582 10734 0 0 A 0 0 0 0 0 0 0 0 0 0 0 0 0 0 0 0 0 0 0 0 0 0 0 582 0 0 0 0 cgather_smooth
S 1338 27 0 0 0 9 1408 582 10749 0 0 A 0 0 0 0 0 0 0 0 0 0 0 0 0 0 0 0 0 0 0 0 0 0 0 582 0 0 0 0 cscatter_sym
S 1339 27 0 0 0 9 1420 582 10762 0 0 A 0 0 0 0 0 0 0 0 0 0 0 0 0 0 0 0 0 0 0 0 0 0 0 582 0 0 0 0 cscatter_smooth
S 1340 11 0 0 0 9 1185 582 10778 40800000 801000 A 0 0 0 0 0 4752 0 0 1330 1332 0 0 0 0 0 0 0 0 0 0 0 0 0 0 0 0 0 0 _fft_base$0
S 1341 23 5 0 0 0 1350 582 10685 0 0 A 0 0 0 0 0 0 0 0 0 0 0 0 0 0 0 0 0 0 0 0 0 0 0 0 0 0 0 0 fft_scatter
S 1342 7 3 0 0 239 1 1341 10790 800214 3000 A 0 0 0 0 0 0 0 0 0 0 0 0 0 0 0 0 0 0 0 0 0 0 0 0 0 0 0 0 f_in
S 1343 1 3 1 0 6 1 1341 10795 14 3000 A 0 0 0 0 0 0 0 0 0 0 0 0 0 0 0 0 0 0 0 0 0 0 0 0 0 0 0 0 nrx3
S 1344 6 3 1 0 6 1 1341 10800 800014 3000 A 0 0 0 0 0 0 0 0 0 0 0 0 0 0 0 0 0 0 0 0 0 0 0 0 0 0 0 0 nxx_
S 1345 7 3 0 0 242 1 1341 10805 800214 3000 A 0 0 0 0 0 0 0 0 0 0 0 0 0 0 0 0 0 0 0 0 0 0 0 0 0 0 0 0 f_aux
S 1346 7 3 1 0 233 1 1341 10811 20000014 10003000 A 0 0 0 0 0 0 0 0 0 0 0 0 0 0 0 0 0 0 0 0 0 0 0 0 0 0 0 0 ncp_
S 1347 7 3 1 0 236 1 1341 10816 20000014 10003000 A 0 0 0 0 0 0 0 0 0 0 0 0 0 0 0 0 0 0 0 0 0 0 0 0 0 0 0 0 npp_
S 1348 1 3 1 0 6 1 1341 2370 14 3000 A 0 0 0 0 0 0 0 0 0 0 0 0 0 0 0 0 0 0 0 0 0 0 0 0 0 0 0 0 sign
S 1349 1 3 1 0 16 1 1341 10821 80000014 3000 A 0 0 0 0 0 0 0 0 0 0 0 0 0 0 0 0 0 0 0 0 0 0 0 0 0 0 0 0 use_tg
S 1350 14 5 0 0 0 1 1341 10685 20000200 400000 A 0 0 0 0 0 0 0 75 8 0 0 0 0 0 0 0 0 0 0 0 0 71 0 582 0 0 0 0 fft_scatter
F 1350 8 1342 1343 1344 1345 1346 1347 1348 1349
S 1351 6 1 0 0 6 1 1341 10149 40800016 3000 A 0 0 0 0 0 0 0 0 0 0 0 0 0 0 0 0 0 0 0 0 0 0 0 0 0 0 0 0 z_b_0_1
S 1352 6 1 0 0 6 1 1341 10157 40800016 3000 A 0 0 0 0 0 0 0 0 0 0 0 0 0 0 0 0 0 0 0 0 0 0 0 0 0 0 0 0 z_b_2_1
S 1353 6 1 0 0 6 1 1341 10165 40800016 3000 A 0 0 0 0 0 0 0 0 0 0 0 0 0 0 0 0 0 0 0 0 0 0 0 0 0 0 0 0 z_b_3_1
S 1354 6 1 0 0 6 1 1341 10828 40800016 3000 A 0 0 0 0 0 0 0 0 0 0 0 0 0 0 0 0 0 0 0 0 0 0 0 0 0 0 0 0 z_e_677
S 1355 6 1 0 0 6 1 1341 10181 40800016 3000 A 0 0 0 0 0 0 0 0 0 0 0 0 0 0 0 0 0 0 0 0 0 0 0 0 0 0 0 0 z_b_4_1
S 1356 6 1 0 0 6 1 1341 10189 40800016 3000 A 0 0 0 0 0 0 0 0 0 0 0 0 0 0 0 0 0 0 0 0 0 0 0 0 0 0 0 0 z_b_6_1
S 1357 6 1 0 0 6 1 1341 10197 40800016 3000 A 0 0 0 0 0 0 0 0 0 0 0 0 0 0 0 0 0 0 0 0 0 0 0 0 0 0 0 0 z_b_7_1
S 1358 6 1 0 0 6 1 1341 10836 40800016 3000 A 0 0 0 0 0 0 0 0 0 0 0 0 0 0 0 0 0 0 0 0 0 0 0 0 0 0 0 0 z_e_684
S 1359 6 1 0 0 6 1 1341 10844 40800016 3000 A 0 0 0 0 0 0 0 0 0 0 0 0 0 0 0 0 0 0 0 0 0 0 0 0 0 0 0 0 z_e_686
S 1360 23 5 0 0 0 1363 582 10697 0 0 A 0 0 0 0 0 0 0 0 0 0 0 0 0 0 0 0 0 0 0 0 0 0 0 0 0 0 0 0 grid_gather
S 1361 7 3 0 0 245 1 1360 10790 20000014 10003000 A 0 0 0 0 0 0 0 0 0 0 0 0 0 0 0 0 0 0 0 0 0 0 0 0 0 0 0 0 f_in
S 1362 7 3 0 0 248 1 1360 10852 20000014 10003000 A 0 0 0 0 0 0 0 0 0 0 0 0 0 0 0 0 0 0 0 0 0 0 0 0 0 0 0 0 f_out
S 1363 14 5 0 0 0 1 1360 10697 20000000 400000 A 0 0 0 0 0 0 0 84 2 0 0 0 0 0 0 0 0 0 0 0 0 304 0 582 0 0 0 0 grid_gather
F 1363 2 1361 1362
S 1364 6 1 0 0 6 1 1360 10149 40800016 3000 A 0 0 0 0 0 0 0 0 0 0 0 0 0 0 0 0 0 0 0 0 0 0 0 0 0 0 0 0 z_b_0_1
S 1365 6 1 0 0 6 1 1360 10157 40800016 3000 A 0 0 0 0 0 0 0 0 0 0 0 0 0 0 0 0 0 0 0 0 0 0 0 0 0 0 0 0 z_b_2_1
S 1366 6 1 0 0 6 1 1360 10165 40800016 3000 A 0 0 0 0 0 0 0 0 0 0 0 0 0 0 0 0 0 0 0 0 0 0 0 0 0 0 0 0 z_b_3_1
S 1367 6 1 0 0 6 1 1360 10858 40800016 3000 A 0 0 0 0 0 0 0 0 0 0 0 0 0 0 0 0 0 0 0 0 0 0 0 0 0 0 0 0 z_e_687
S 1368 6 1 0 0 6 1 1360 10181 40800016 3000 A 0 0 0 0 0 0 0 0 0 0 0 0 0 0 0 0 0 0 0 0 0 0 0 0 0 0 0 0 z_b_4_1
S 1369 6 1 0 0 6 1 1360 10189 40800016 3000 A 0 0 0 0 0 0 0 0 0 0 0 0 0 0 0 0 0 0 0 0 0 0 0 0 0 0 0 0 z_b_6_1
S 1370 6 1 0 0 6 1 1360 10197 40800016 3000 A 0 0 0 0 0 0 0 0 0 0 0 0 0 0 0 0 0 0 0 0 0 0 0 0 0 0 0 0 z_b_7_1
S 1371 6 1 0 0 6 1 1360 10866 40800016 3000 A 0 0 0 0 0 0 0 0 0 0 0 0 0 0 0 0 0 0 0 0 0 0 0 0 0 0 0 0 z_e_694
S 1372 23 5 0 0 0 1375 582 10709 0 0 A 0 0 0 0 0 0 0 0 0 0 0 0 0 0 0 0 0 0 0 0 0 0 0 0 0 0 0 0 grid_scatter
S 1373 7 3 0 0 251 1 1372 10790 20000014 10003000 A 0 0 0 0 0 0 0 0 0 0 0 0 0 0 0 0 0 0 0 0 0 0 0 0 0 0 0 0 f_in
S 1374 7 3 0 0 254 1 1372 10852 20000014 10003000 A 0 0 0 0 0 0 0 0 0 0 0 0 0 0 0 0 0 0 0 0 0 0 0 0 0 0 0 0 f_out
S 1375 14 5 0 0 0 1 1372 10709 20000000 400000 A 0 0 0 0 0 0 0 87 2 0 0 0 0 0 0 0 0 0 0 0 0 367 0 582 0 0 0 0 grid_scatter
F 1375 2 1373 1374
S 1376 6 1 0 0 6 1 1372 10149 40800016 3000 A 0 0 0 0 0 0 0 0 0 0 0 0 0 0 0 0 0 0 0 0 0 0 0 0 0 0 0 0 z_b_0_1
S 1377 6 1 0 0 6 1 1372 10157 40800016 3000 A 0 0 0 0 0 0 0 0 0 0 0 0 0 0 0 0 0 0 0 0 0 0 0 0 0 0 0 0 z_b_2_1
S 1378 6 1 0 0 6 1 1372 10165 40800016 3000 A 0 0 0 0 0 0 0 0 0 0 0 0 0 0 0 0 0 0 0 0 0 0 0 0 0 0 0 0 z_b_3_1
S 1379 6 1 0 0 6 1 1372 10874 40800016 3000 A 0 0 0 0 0 0 0 0 0 0 0 0 0 0 0 0 0 0 0 0 0 0 0 0 0 0 0 0 z_e_695
S 1380 6 1 0 0 6 1 1372 10181 40800016 3000 A 0 0 0 0 0 0 0 0 0 0 0 0 0 0 0 0 0 0 0 0 0 0 0 0 0 0 0 0 z_b_4_1
S 1381 6 1 0 0 6 1 1372 10189 40800016 3000 A 0 0 0 0 0 0 0 0 0 0 0 0 0 0 0 0 0 0 0 0 0 0 0 0 0 0 0 0 z_b_6_1
S 1382 6 1 0 0 6 1 1372 10197 40800016 3000 A 0 0 0 0 0 0 0 0 0 0 0 0 0 0 0 0 0 0 0 0 0 0 0 0 0 0 0 0 z_b_7_1
S 1383 6 1 0 0 6 1 1372 10882 40800016 3000 A 0 0 0 0 0 0 0 0 0 0 0 0 0 0 0 0 0 0 0 0 0 0 0 0 0 0 0 0 z_e_702
S 1384 23 5 0 0 0 1387 582 10722 0 0 A 0 0 0 0 0 0 0 0 0 0 0 0 0 0 0 0 0 0 0 0 0 0 0 0 0 0 0 0 cgather_sym
S 1385 7 3 0 0 257 1 1384 10790 20000014 10003000 A 0 0 0 0 0 0 0 0 0 0 0 0 0 0 0 0 0 0 0 0 0 0 0 0 0 0 0 0 f_in
S 1386 7 3 0 0 260 1 1384 10852 20000014 10003000 A 0 0 0 0 0 0 0 0 0 0 0 0 0 0 0 0 0 0 0 0 0 0 0 0 0 0 0 0 f_out
S 1387 14 5 0 0 0 1 1384 10722 20000000 400000 A 0 0 0 0 0 0 0 90 2 0 0 0 0 0 0 0 0 0 0 0 0 434 0 582 0 0 0 0 cgather_sym
F 1387 2 1385 1386
S 1388 6 1 0 0 6 1 1384 10149 40800016 3000 A 0 0 0 0 0 0 0 0 0 0 0 0 0 0 0 0 0 0 0 0 0 0 0 0 0 0 0 0 z_b_0_1
S 1389 6 1 0 0 6 1 1384 10157 40800016 3000 A 0 0 0 0 0 0 0 0 0 0 0 0 0 0 0 0 0 0 0 0 0 0 0 0 0 0 0 0 z_b_2_1
S 1390 6 1 0 0 6 1 1384 10165 40800016 3000 A 0 0 0 0 0 0 0 0 0 0 0 0 0 0 0 0 0 0 0 0 0 0 0 0 0 0 0 0 z_b_3_1
S 1391 6 1 0 0 6 1 1384 10890 40800016 3000 A 0 0 0 0 0 0 0 0 0 0 0 0 0 0 0 0 0 0 0 0 0 0 0 0 0 0 0 0 z_e_1127
S 1392 6 1 0 0 6 1 1384 10181 40800016 3000 A 0 0 0 0 0 0 0 0 0 0 0 0 0 0 0 0 0 0 0 0 0 0 0 0 0 0 0 0 z_b_4_1
S 1393 6 1 0 0 6 1 1384 10189 40800016 3000 A 0 0 0 0 0 0 0 0 0 0 0 0 0 0 0 0 0 0 0 0 0 0 0 0 0 0 0 0 z_b_6_1
S 1394 6 1 0 0 6 1 1384 10197 40800016 3000 A 0 0 0 0 0 0 0 0 0 0 0 0 0 0 0 0 0 0 0 0 0 0 0 0 0 0 0 0 z_b_7_1
S 1395 6 1 0 0 6 1 1384 10899 40800016 3000 A 0 0 0 0 0 0 0 0 0 0 0 0 0 0 0 0 0 0 0 0 0 0 0 0 0 0 0 0 z_e_1134
S 1396 23 5 0 0 0 1399 582 10734 0 0 A 0 0 0 0 0 0 0 0 0 0 0 0 0 0 0 0 0 0 0 0 0 0 0 0 0 0 0 0 cgather_smooth
S 1397 7 3 0 0 263 1 1396 10790 20000014 10003000 A 0 0 0 0 0 0 0 0 0 0 0 0 0 0 0 0 0 0 0 0 0 0 0 0 0 0 0 0 f_in
S 1398 7 3 0 0 266 1 1396 10852 20000014 10003000 A 0 0 0 0 0 0 0 0 0 0 0 0 0 0 0 0 0 0 0 0 0 0 0 0 0 0 0 0 f_out
S 1399 14 5 0 0 0 1 1396 10734 20000000 400000 A 0 0 0 0 0 0 0 93 2 0 0 0 0 0 0 0 0 0 0 0 0 491 0 582 0 0 0 0 cgather_smooth
F 1399 2 1397 1398
S 1400 6 1 0 0 6 1 1396 10149 40800016 3000 A 0 0 0 0 0 0 0 0 0 0 0 0 0 0 0 0 0 0 0 0 0 0 0 0 0 0 0 0 z_b_0_1
S 1401 6 1 0 0 6 1 1396 10157 40800016 3000 A 0 0 0 0 0 0 0 0 0 0 0 0 0 0 0 0 0 0 0 0 0 0 0 0 0 0 0 0 z_b_2_1
S 1402 6 1 0 0 6 1 1396 10165 40800016 3000 A 0 0 0 0 0 0 0 0 0 0 0 0 0 0 0 0 0 0 0 0 0 0 0 0 0 0 0 0 z_b_3_1
S 1403 6 1 0 0 6 1 1396 10908 40800016 3000 A 0 0 0 0 0 0 0 0 0 0 0 0 0 0 0 0 0 0 0 0 0 0 0 0 0 0 0 0 z_e_1135
S 1404 6 1 0 0 6 1 1396 10181 40800016 3000 A 0 0 0 0 0 0 0 0 0 0 0 0 0 0 0 0 0 0 0 0 0 0 0 0 0 0 0 0 z_b_4_1
S 1405 6 1 0 0 6 1 1396 10189 40800016 3000 A 0 0 0 0 0 0 0 0 0 0 0 0 0 0 0 0 0 0 0 0 0 0 0 0 0 0 0 0 z_b_6_1
S 1406 6 1 0 0 6 1 1396 10197 40800016 3000 A 0 0 0 0 0 0 0 0 0 0 0 0 0 0 0 0 0 0 0 0 0 0 0 0 0 0 0 0 z_b_7_1
S 1407 6 1 0 0 6 1 1396 10917 40800016 3000 A 0 0 0 0 0 0 0 0 0 0 0 0 0 0 0 0 0 0 0 0 0 0 0 0 0 0 0 0 z_e_1142
S 1408 23 5 0 0 0 1411 582 10749 0 0 A 0 0 0 0 0 0 0 0 0 0 0 0 0 0 0 0 0 0 0 0 0 0 0 0 0 0 0 0 cscatter_sym
S 1409 7 3 0 0 269 1 1408 10790 20000014 10003000 A 0 0 0 0 0 0 0 0 0 0 0 0 0 0 0 0 0 0 0 0 0 0 0 0 0 0 0 0 f_in
S 1410 7 3 0 0 272 1 1408 10852 20000014 10003000 A 0 0 0 0 0 0 0 0 0 0 0 0 0 0 0 0 0 0 0 0 0 0 0 0 0 0 0 0 f_out
S 1411 14 5 0 0 0 1 1408 10749 20000000 400000 A 0 0 0 0 0 0 0 96 2 0 0 0 0 0 0 0 0 0 0 0 0 551 0 582 0 0 0 0 cscatter_sym
F 1411 2 1409 1410
S 1412 6 1 0 0 6 1 1408 10149 40800016 3000 A 0 0 0 0 0 0 0 0 0 0 0 0 0 0 0 0 0 0 0 0 0 0 0 0 0 0 0 0 z_b_0_1
S 1413 6 1 0 0 6 1 1408 10157 40800016 3000 A 0 0 0 0 0 0 0 0 0 0 0 0 0 0 0 0 0 0 0 0 0 0 0 0 0 0 0 0 z_b_2_1
S 1414 6 1 0 0 6 1 1408 10165 40800016 3000 A 0 0 0 0 0 0 0 0 0 0 0 0 0 0 0 0 0 0 0 0 0 0 0 0 0 0 0 0 z_b_3_1
S 1415 6 1 0 0 6 1 1408 10926 40800016 3000 A 0 0 0 0 0 0 0 0 0 0 0 0 0 0 0 0 0 0 0 0 0 0 0 0 0 0 0 0 z_e_1143
S 1416 6 1 0 0 6 1 1408 10181 40800016 3000 A 0 0 0 0 0 0 0 0 0 0 0 0 0 0 0 0 0 0 0 0 0 0 0 0 0 0 0 0 z_b_4_1
S 1417 6 1 0 0 6 1 1408 10189 40800016 3000 A 0 0 0 0 0 0 0 0 0 0 0 0 0 0 0 0 0 0 0 0 0 0 0 0 0 0 0 0 z_b_6_1
S 1418 6 1 0 0 6 1 1408 10197 40800016 3000 A 0 0 0 0 0 0 0 0 0 0 0 0 0 0 0 0 0 0 0 0 0 0 0 0 0 0 0 0 z_b_7_1
S 1419 6 1 0 0 6 1 1408 10935 40800016 3000 A 0 0 0 0 0 0 0 0 0 0 0 0 0 0 0 0 0 0 0 0 0 0 0 0 0 0 0 0 z_e_1150
S 1420 23 5 0 0 0 1423 582 10762 0 0 A 0 0 0 0 0 0 0 0 0 0 0 0 0 0 0 0 0 0 0 0 0 0 0 0 0 0 0 0 cscatter_smooth
S 1421 7 3 0 0 275 1 1420 10790 20000014 10003000 A 0 0 0 0 0 0 0 0 0 0 0 0 0 0 0 0 0 0 0 0 0 0 0 0 0 0 0 0 f_in
S 1422 7 3 0 0 278 1 1420 10852 20000014 10003000 A 0 0 0 0 0 0 0 0 0 0 0 0 0 0 0 0 0 0 0 0 0 0 0 0 0 0 0 0 f_out
S 1423 14 5 0 0 0 1 1420 10762 20000000 400000 A 0 0 0 0 0 0 0 99 2 0 0 0 0 0 0 0 0 0 0 0 0 610 0 582 0 0 0 0 cscatter_smooth
F 1423 2 1421 1422
S 1424 6 1 0 0 6 1 1420 10149 40800016 3000 A 0 0 0 0 0 0 0 0 0 0 0 0 0 0 0 0 0 0 0 0 0 0 0 0 0 0 0 0 z_b_0_1
S 1425 6 1 0 0 6 1 1420 10157 40800016 3000 A 0 0 0 0 0 0 0 0 0 0 0 0 0 0 0 0 0 0 0 0 0 0 0 0 0 0 0 0 z_b_2_1
S 1426 6 1 0 0 6 1 1420 10165 40800016 3000 A 0 0 0 0 0 0 0 0 0 0 0 0 0 0 0 0 0 0 0 0 0 0 0 0 0 0 0 0 z_b_3_1
S 1427 6 1 0 0 6 1 1420 10944 40800016 3000 A 0 0 0 0 0 0 0 0 0 0 0 0 0 0 0 0 0 0 0 0 0 0 0 0 0 0 0 0 z_e_1151
S 1428 6 1 0 0 6 1 1420 10181 40800016 3000 A 0 0 0 0 0 0 0 0 0 0 0 0 0 0 0 0 0 0 0 0 0 0 0 0 0 0 0 0 z_b_4_1
S 1429 6 1 0 0 6 1 1420 10189 40800016 3000 A 0 0 0 0 0 0 0 0 0 0 0 0 0 0 0 0 0 0 0 0 0 0 0 0 0 0 0 0 z_b_6_1
S 1430 6 1 0 0 6 1 1420 10197 40800016 3000 A 0 0 0 0 0 0 0 0 0 0 0 0 0 0 0 0 0 0 0 0 0 0 0 0 0 0 0 0 z_b_7_1
S 1431 6 1 0 0 6 1 1420 10953 40800016 3000 A 0 0 0 0 0 0 0 0 0 0 0 0 0 0 0 0 0 0 0 0 0 0 0 0 0 0 0 0 z_e_1158
A 656 1 0 0 326 6 1353 0 0 0 0 0 0 0 0 0 0 0 0 0
A 657 1 0 0 322 6 1351 0 0 0 0 0 0 0 0 0 0 0 0 0
A 658 1 0 0 328 6 1354 0 0 0 0 0 0 0 0 0 0 0 0 0
A 659 1 0 0 324 6 1352 0 0 0 0 0 0 0 0 0 0 0 0 0
A 660 1 0 0 335 6 1357 0 0 0 0 0 0 0 0 0 0 0 0 0
A 661 1 0 0 331 6 1355 0 0 0 0 0 0 0 0 0 0 0 0 0
A 662 1 0 0 337 6 1358 0 0 0 0 0 0 0 0 0 0 0 0 0
A 663 1 0 0 333 6 1356 0 0 0 0 0 0 0 0 0 0 0 0 0
A 664 1 0 0 306 6 1344 0 0 0 0 0 0 0 0 0 0 0 0 0
A 665 1 0 0 339 6 1359 0 0 0 0 0 0 0 0 0 0 0 0 0
A 666 1 0 0 354 6 1366 0 0 0 0 0 0 0 0 0 0 0 0 0
A 667 1 0 0 643 6 1364 0 0 0 0 0 0 0 0 0 0 0 0 0
A 668 1 0 0 356 6 1367 0 0 0 0 0 0 0 0 0 0 0 0 0
A 669 1 0 0 352 6 1365 0 0 0 0 0 0 0 0 0 0 0 0 0
A 670 1 0 0 383 6 1370 0 0 0 0 0 0 0 0 0 0 0 0 0
A 671 1 0 0 358 6 1368 0 0 0 0 0 0 0 0 0 0 0 0 0
A 672 1 0 0 385 6 1371 0 0 0 0 0 0 0 0 0 0 0 0 0
A 673 1 0 0 381 6 1369 0 0 0 0 0 0 0 0 0 0 0 0 0
A 674 1 0 0 411 6 1378 0 0 0 0 0 0 0 0 0 0 0 0 0
A 675 1 0 0 407 6 1376 0 0 0 0 0 0 0 0 0 0 0 0 0
A 676 1 0 0 413 6 1379 0 0 0 0 0 0 0 0 0 0 0 0 0
A 677 1 0 0 465 6 1377 0 0 0 0 0 0 0 0 0 0 0 0 0
A 678 1 0 0 419 6 1382 0 0 0 0 0 0 0 0 0 0 0 0 0
A 679 1 0 0 415 6 1380 0 0 0 0 0 0 0 0 0 0 0 0 0
A 680 1 0 0 421 6 1383 0 0 0 0 0 0 0 0 0 0 0 0 0
A 681 1 0 0 417 6 1381 0 0 0 0 0 0 0 0 0 0 0 0 0
A 682 1 0 0 219 6 1390 0 0 0 0 0 0 0 0 0 0 0 0 0
A 683 1 0 0 215 6 1388 0 0 0 0 0 0 0 0 0 0 0 0 0
A 684 1 0 0 221 6 1391 0 0 0 0 0 0 0 0 0 0 0 0 0
A 685 1 0 0 217 6 1389 0 0 0 0 0 0 0 0 0 0 0 0 0
A 686 1 0 0 226 6 1394 0 0 0 0 0 0 0 0 0 0 0 0 0
A 687 1 0 0 223 6 1392 0 0 0 0 0 0 0 0 0 0 0 0 0
A 688 1 0 0 228 6 1395 0 0 0 0 0 0 0 0 0 0 0 0 0
A 689 1 0 0 225 6 1393 0 0 0 0 0 0 0 0 0 0 0 0 0
A 690 1 0 0 238 6 1402 0 0 0 0 0 0 0 0 0 0 0 0 0
A 691 1 0 0 234 6 1400 0 0 0 0 0 0 0 0 0 0 0 0 0
A 692 1 0 0 428 6 1403 0 0 0 0 0 0 0 0 0 0 0 0 0
A 693 1 0 0 236 6 1401 0 0 0 0 0 0 0 0 0 0 0 0 0
A 694 1 0 0 246 6 1406 0 0 0 0 0 0 0 0 0 0 0 0 0
A 695 1 0 0 242 6 1404 0 0 0 0 0 0 0 0 0 0 0 0 0
A 696 1 0 0 248 6 1407 0 0 0 0 0 0 0 0 0 0 0 0 0
A 697 1 0 0 244 6 1405 0 0 0 0 0 0 0 0 0 0 0 0 0
A 698 1 0 0 262 6 1414 0 0 0 0 0 0 0 0 0 0 0 0 0
A 699 1 0 0 258 6 1412 0 0 0 0 0 0 0 0 0 0 0 0 0
A 700 1 0 0 264 6 1415 0 0 0 0 0 0 0 0 0 0 0 0 0
A 701 1 0 0 260 6 1413 0 0 0 0 0 0 0 0 0 0 0 0 0
A 702 1 0 0 270 6 1418 0 0 0 0 0 0 0 0 0 0 0 0 0
A 703 1 0 0 266 6 1416 0 0 0 0 0 0 0 0 0 0 0 0 0
A 704 1 0 0 272 6 1419 0 0 0 0 0 0 0 0 0 0 0 0 0
A 705 1 0 0 268 6 1417 0 0 0 0 0 0 0 0 0 0 0 0 0
A 706 1 0 0 284 6 1426 0 0 0 0 0 0 0 0 0 0 0 0 0
A 707 1 0 0 281 6 1424 0 0 0 0 0 0 0 0 0 0 0 0 0
A 708 1 0 0 516 6 1427 0 0 0 0 0 0 0 0 0 0 0 0 0
A 709 1 0 0 444 6 1425 0 0 0 0 0 0 0 0 0 0 0 0 0
A 710 1 0 0 289 6 1430 0 0 0 0 0 0 0 0 0 0 0 0 0
A 711 1 0 0 287 6 1428 0 0 0 0 0 0 0 0 0 0 0 0 0
A 712 1 0 0 291 6 1431 0 0 0 0 0 0 0 0 0 0 0 0 0
A 713 1 0 0 288 6 1429 0 0 0 0 0 0 0 0 0 0 0 0 0
Z
Z
