V26 fft_scalar
14 fft_scalar.F90 S582 0
04/24/2012  15:51:02
enduse
D 56 21 12 1 21 24 1 1 0 0 1
 3 22 3 3 22 23
D 59 21 12 1 25 28 1 1 0 0 1
 3 26 3 3 26 27
D 62 21 6 1 29 32 1 1 0 0 1
 3 30 3 3 30 31
D 65 21 12 1 33 36 1 1 0 0 1
 3 34 3 3 34 35
D 68 21 12 1 37 40 1 1 0 0 1
 3 38 3 3 38 39
D 71 21 12 1 3 46 0 0 1 0 0
 0 45 3 3 46 46
D 74 21 6 1 47 50 1 1 0 0 1
 3 48 3 3 48 49
D 77 21 6 1 51 54 1 1 0 0 1
 3 52 3 3 52 53
D 80 21 12 1 55 58 1 1 0 0 1
 3 56 3 3 56 57
S 582 24 0 0 0 9 1 0 4658 10015 0 A 0 0 0 0 0 0 0 0 0 0 0 0 0 0 0 0 0 0 0 0 0 35 0 0 0 0 0 0 fft_scalar
S 593 27 0 0 0 9 605 582 4709 0 0 A 0 0 0 0 0 0 0 0 0 0 0 0 0 0 0 0 0 0 0 0 0 0 0 582 0 0 0 0 cft_1z
S 594 27 0 0 0 9 621 582 4716 0 0 A 0 0 0 0 0 0 0 0 0 0 0 0 0 0 0 0 0 0 0 0 0 0 0 582 0 0 0 0 cft_2xy
S 595 27 0 0 0 9 674 582 4724 0 0 A 0 0 0 0 0 0 0 0 0 0 0 0 0 0 0 0 0 0 0 0 0 0 0 582 0 0 0 0 cft_b
S 596 27 0 0 0 9 639 582 4730 0 0 A 0 0 0 0 0 0 0 0 0 0 0 0 0 0 0 0 0 0 0 0 0 0 0 582 0 0 0 0 cfft3d
S 597 27 0 0 0 9 653 582 4737 0 0 A 0 0 0 0 0 0 0 0 0 0 0 0 0 0 0 0 0 0 0 0 0 0 0 582 0 0 0 0 cfft3ds
S 598 27 0 0 0 9 690 582 4745 0 0 A 0 0 0 0 0 0 0 0 0 0 0 0 0 0 0 0 0 0 0 0 0 0 0 582 0 0 0 0 good_fft_dimension
S 599 27 0 0 0 9 694 582 4764 0 0 A 0 0 0 0 0 0 0 0 0 0 0 0 0 0 0 0 0 0 0 0 0 0 0 582 0 0 0 0 allowed
S 600 27 0 0 0 9 698 582 4772 0 0 A 0 0 0 0 0 0 0 0 0 0 0 0 0 0 0 0 0 0 0 0 0 0 0 582 0 0 0 0 good_fft_order
S 601 16 0 0 0 6 1 582 4787 14 400000 A 0 0 0 0 0 0 0 0 3 17 0 0 0 0 0 0 0 0 0 0 0 0 0 582 0 0 0 0 ndims
S 602 3 0 0 0 6 0 1 0 0 0 A 0 0 0 0 0 0 0 0 0 3 0 0 0 0 0 0 0 0 0 0 0 0 0 0 0 0 0 0 6
S 603 16 0 0 0 6 1 582 4793 14 400000 A 0 0 0 0 0 0 0 0 2049 19 0 0 0 0 0 0 0 0 0 0 0 0 0 582 0 0 0 0 nfftx
S 604 3 0 0 0 6 0 1 0 0 0 A 0 0 0 0 0 0 0 0 0 2049 0 0 0 0 0 0 0 0 0 0 0 0 0 0 0 0 0 0 6
S 605 23 5 0 0 0 612 582 4709 0 0 A 0 0 0 0 0 0 0 0 0 0 0 0 0 0 0 0 0 0 0 0 0 0 0 0 0 0 0 0 cft_1z
S 606 7 3 0 0 56 1 605 4799 20000014 10003000 A 0 0 0 0 0 0 0 0 0 0 0 0 0 0 0 0 0 0 0 0 0 0 0 0 0 0 0 0 c
S 607 1 3 1 0 6 1 605 4801 14 3000 A 0 0 0 0 0 0 0 0 0 0 0 0 0 0 0 0 0 0 0 0 0 0 0 0 0 0 0 0 nsl
S 608 1 3 1 0 6 1 605 4805 14 3000 A 0 0 0 0 0 0 0 0 0 0 0 0 0 0 0 0 0 0 0 0 0 0 0 0 0 0 0 0 nz
S 609 1 3 1 0 6 1 605 4808 14 3000 A 0 0 0 0 0 0 0 0 0 0 0 0 0 0 0 0 0 0 0 0 0 0 0 0 0 0 0 0 ldz
S 610 1 3 1 0 6 1 605 1601 14 3000 A 0 0 0 0 0 0 0 0 0 0 0 0 0 0 0 0 0 0 0 0 0 0 0 0 0 0 0 0 isign
S 611 7 3 0 0 59 1 605 4812 20000014 10003000 A 0 0 0 0 0 0 0 0 0 0 0 0 0 0 0 0 0 0 0 0 0 0 0 0 0 0 0 0 cout
S 612 14 5 0 0 0 1 605 4709 20000000 400000 A 0 0 0 0 0 0 0 4 6 0 0 0 0 0 0 0 0 0 0 0 0 74 0 582 0 0 0 0 cft_1z
F 612 6 606 607 608 609 610 611
S 613 6 1 0 0 6 1 605 4817 40800016 3000 A 0 0 0 0 0 0 0 0 0 0 0 0 0 0 0 0 0 0 0 0 0 0 0 0 0 0 0 0 z_b_0
S 614 6 1 0 0 6 1 605 4823 40800016 3000 A 0 0 0 0 0 0 0 0 0 0 0 0 0 0 0 0 0 0 0 0 0 0 0 0 0 0 0 0 z_b_2
S 615 6 1 0 0 6 1 605 4829 40800016 3000 A 0 0 0 0 0 0 0 0 0 0 0 0 0 0 0 0 0 0 0 0 0 0 0 0 0 0 0 0 z_b_3
S 616 6 1 0 0 6 1 605 4835 40800016 3000 A 0 0 0 0 0 0 0 0 0 0 0 0 0 0 0 0 0 0 0 0 0 0 0 0 0 0 0 0 z_e_26
S 617 6 1 0 0 6 1 605 4842 40800016 3000 A 0 0 0 0 0 0 0 0 0 0 0 0 0 0 0 0 0 0 0 0 0 0 0 0 0 0 0 0 z_b_4
S 618 6 1 0 0 6 1 605 4848 40800016 3000 A 0 0 0 0 0 0 0 0 0 0 0 0 0 0 0 0 0 0 0 0 0 0 0 0 0 0 0 0 z_b_6
S 619 6 1 0 0 6 1 605 4854 40800016 3000 A 0 0 0 0 0 0 0 0 0 0 0 0 0 0 0 0 0 0 0 0 0 0 0 0 0 0 0 0 z_b_7
S 620 6 1 0 0 6 1 605 4860 40800016 3000 A 0 0 0 0 0 0 0 0 0 0 0 0 0 0 0 0 0 0 0 0 0 0 0 0 0 0 0 0 z_e_33
S 621 23 5 0 0 0 630 582 4716 0 0 A 0 0 0 0 0 0 0 0 0 0 0 0 0 0 0 0 0 0 0 0 0 0 0 0 0 0 0 0 cft_2xy
S 622 7 3 0 0 65 1 621 4867 20000014 10003000 A 0 0 0 0 0 0 0 0 0 0 0 0 0 0 0 0 0 0 0 0 0 0 0 0 0 0 0 0 r
S 623 1 3 1 0 6 1 621 4869 14 3000 A 0 0 0 0 0 0 0 0 0 0 0 0 0 0 0 0 0 0 0 0 0 0 0 0 0 0 0 0 nzl
S 624 1 3 1 0 6 1 621 4873 14 3000 A 0 0 0 0 0 0 0 0 0 0 0 0 0 0 0 0 0 0 0 0 0 0 0 0 0 0 0 0 nx
S 625 1 3 1 0 6 1 621 4876 14 3000 A 0 0 0 0 0 0 0 0 0 0 0 0 0 0 0 0 0 0 0 0 0 0 0 0 0 0 0 0 ny
S 626 1 3 1 0 6 1 621 4879 14 3000 A 0 0 0 0 0 0 0 0 0 0 0 0 0 0 0 0 0 0 0 0 0 0 0 0 0 0 0 0 ldx
S 627 1 3 1 0 6 1 621 4883 14 3000 A 0 0 0 0 0 0 0 0 0 0 0 0 0 0 0 0 0 0 0 0 0 0 0 0 0 0 0 0 ldy
S 628 1 3 1 0 6 1 621 1601 14 3000 A 0 0 0 0 0 0 0 0 0 0 0 0 0 0 0 0 0 0 0 0 0 0 0 0 0 0 0 0 isign
S 629 7 3 1 0 62 1 621 4887 a0000014 10003000 A 0 0 0 0 0 0 0 0 0 0 0 0 0 0 0 0 0 0 0 0 0 0 0 0 0 0 0 0 pl2ix
S 630 14 5 0 0 0 1 621 4716 20000000 400000 A 0 0 0 0 0 0 0 11 8 0 0 0 0 0 0 0 0 0 0 0 0 179 0 582 0 0 0 0 cft_2xy
F 630 8 622 623 624 625 626 627 628 629
S 631 6 1 0 0 6 1 621 4817 40800016 3000 A 0 0 0 0 0 0 0 0 0 0 0 0 0 0 0 0 0 0 0 0 0 0 0 0 0 0 0 0 z_b_0
S 632 6 1 0 0 6 1 621 4823 40800016 3000 A 0 0 0 0 0 0 0 0 0 0 0 0 0 0 0 0 0 0 0 0 0 0 0 0 0 0 0 0 z_b_2
S 633 6 1 0 0 6 1 621 4829 40800016 3000 A 0 0 0 0 0 0 0 0 0 0 0 0 0 0 0 0 0 0 0 0 0 0 0 0 0 0 0 0 z_b_3
S 634 6 1 0 0 6 1 621 4893 40800016 3000 A 0 0 0 0 0 0 0 0 0 0 0 0 0 0 0 0 0 0 0 0 0 0 0 0 0 0 0 0 z_e_34
S 635 6 1 0 0 6 1 621 4842 40800016 3000 A 0 0 0 0 0 0 0 0 0 0 0 0 0 0 0 0 0 0 0 0 0 0 0 0 0 0 0 0 z_b_4
S 636 6 1 0 0 6 1 621 4848 40800016 3000 A 0 0 0 0 0 0 0 0 0 0 0 0 0 0 0 0 0 0 0 0 0 0 0 0 0 0 0 0 z_b_6
S 637 6 1 0 0 6 1 621 4854 40800016 3000 A 0 0 0 0 0 0 0 0 0 0 0 0 0 0 0 0 0 0 0 0 0 0 0 0 0 0 0 0 z_b_7
S 638 6 1 0 0 6 1 621 4900 40800016 3000 A 0 0 0 0 0 0 0 0 0 0 0 0 0 0 0 0 0 0 0 0 0 0 0 0 0 0 0 0 z_e_41
S 639 23 5 0 0 0 648 582 4730 0 0 A 0 0 0 0 0 0 0 0 0 0 0 0 0 0 0 0 0 0 0 0 0 0 0 0 0 0 0 0 cfft3d
S 640 7 3 0 0 68 1 639 4907 20000014 10003000 A 0 0 0 0 0 0 0 0 0 0 0 0 0 0 0 0 0 0 0 0 0 0 0 0 0 0 0 0 f
S 641 1 3 1 0 6 1 639 4873 14 3000 A 0 0 0 0 0 0 0 0 0 0 0 0 0 0 0 0 0 0 0 0 0 0 0 0 0 0 0 0 nx
S 642 1 3 1 0 6 1 639 4876 14 3000 A 0 0 0 0 0 0 0 0 0 0 0 0 0 0 0 0 0 0 0 0 0 0 0 0 0 0 0 0 ny
S 643 1 3 1 0 6 1 639 4805 14 3000 A 0 0 0 0 0 0 0 0 0 0 0 0 0 0 0 0 0 0 0 0 0 0 0 0 0 0 0 0 nz
S 644 1 3 1 0 6 1 639 4879 14 3000 A 0 0 0 0 0 0 0 0 0 0 0 0 0 0 0 0 0 0 0 0 0 0 0 0 0 0 0 0 ldx
S 645 1 3 1 0 6 1 639 4883 14 3000 A 0 0 0 0 0 0 0 0 0 0 0 0 0 0 0 0 0 0 0 0 0 0 0 0 0 0 0 0 ldy
S 646 1 3 1 0 6 1 639 4808 14 3000 A 0 0 0 0 0 0 0 0 0 0 0 0 0 0 0 0 0 0 0 0 0 0 0 0 0 0 0 0 ldz
S 647 1 3 1 0 6 1 639 1601 14 3000 A 0 0 0 0 0 0 0 0 0 0 0 0 0 0 0 0 0 0 0 0 0 0 0 0 0 0 0 0 isign
S 648 14 5 0 0 0 1 639 4730 20000000 400000 A 0 0 0 0 0 0 0 20 8 0 0 0 0 0 0 0 0 0 0 0 0 310 0 582 0 0 0 0 cfft3d
F 648 8 640 641 642 643 644 645 646 647
S 649 6 1 0 0 6 1 639 4817 40800016 3000 A 0 0 0 0 0 0 0 0 0 0 0 0 0 0 0 0 0 0 0 0 0 0 0 0 0 0 0 0 z_b_0
S 650 6 1 0 0 6 1 639 4823 40800016 3000 A 0 0 0 0 0 0 0 0 0 0 0 0 0 0 0 0 0 0 0 0 0 0 0 0 0 0 0 0 z_b_2
S 651 6 1 0 0 6 1 639 4829 40800016 3000 A 0 0 0 0 0 0 0 0 0 0 0 0 0 0 0 0 0 0 0 0 0 0 0 0 0 0 0 0 z_b_3
S 652 6 1 0 0 6 1 639 4909 40800016 3000 A 0 0 0 0 0 0 0 0 0 0 0 0 0 0 0 0 0 0 0 0 0 0 0 0 0 0 0 0 z_e_42
S 653 23 5 0 0 0 664 582 4737 0 0 A 0 0 0 0 0 0 0 0 0 0 0 0 0 0 0 0 0 0 0 0 0 0 0 0 0 0 0 0 cfft3ds
S 654 7 3 0 0 71 1 653 4907 800214 3000 A 0 0 0 0 0 0 0 0 0 0 0 0 0 0 0 0 0 0 0 0 0 0 0 0 0 0 0 0 f
S 655 1 3 0 0 6 1 653 4873 14 3000 A 0 0 0 0 0 0 0 0 0 0 0 0 0 0 0 0 0 0 0 0 0 0 0 0 0 0 0 0 nx
S 656 1 3 0 0 6 1 653 4876 14 3000 A 0 0 0 0 0 0 0 0 0 0 0 0 0 0 0 0 0 0 0 0 0 0 0 0 0 0 0 0 ny
S 657 1 3 0 0 6 1 653 4805 14 3000 A 0 0 0 0 0 0 0 0 0 0 0 0 0 0 0 0 0 0 0 0 0 0 0 0 0 0 0 0 nz
S 658 6 3 0 0 6 1 653 4879 800014 3000 A 0 0 0 0 0 0 0 0 0 0 0 0 0 0 0 0 0 0 0 0 0 0 0 0 0 0 0 0 ldx
S 659 6 3 0 0 6 1 653 4883 800014 3000 A 0 0 0 0 0 0 0 0 0 0 0 0 0 0 0 0 0 0 0 0 0 0 0 0 0 0 0 0 ldy
S 660 6 3 0 0 6 1 653 4808 800014 3000 A 0 0 0 0 0 0 0 0 0 0 0 0 0 0 0 0 0 0 0 0 0 0 0 0 0 0 0 0 ldz
S 661 1 3 0 0 6 1 653 1601 14 3000 A 0 0 0 0 0 0 0 0 0 0 0 0 0 0 0 0 0 0 0 0 0 0 0 0 0 0 0 0 isign
S 662 7 3 0 0 74 1 653 4916 20000014 10003000 A 0 0 0 0 0 0 0 0 0 0 0 0 0 0 0 0 0 0 0 0 0 0 0 0 0 0 0 0 do_fft_x
S 663 7 3 0 0 77 1 653 4925 20000014 10003000 A 0 0 0 0 0 0 0 0 0 0 0 0 0 0 0 0 0 0 0 0 0 0 0 0 0 0 0 0 do_fft_y
S 664 14 5 0 0 0 1 653 4737 20000200 400000 A 0 0 0 0 0 0 0 29 10 0 0 0 0 0 0 0 0 0 0 0 0 411 0 582 0 0 0 0 cfft3ds
F 664 10 654 655 656 657 658 659 660 661 662 663
S 665 6 1 0 0 6 1 653 4934 40800016 3000 A 0 0 0 0 0 0 0 0 0 0 0 0 0 0 0 0 0 0 0 0 0 0 0 0 0 0 0 0 z_e_45
S 666 6 1 0 0 6 1 653 4817 40800016 3000 A 0 0 0 0 0 0 0 0 0 0 0 0 0 0 0 0 0 0 0 0 0 0 0 0 0 0 0 0 z_b_0
S 667 6 1 0 0 6 1 653 4823 40800016 3000 A 0 0 0 0 0 0 0 0 0 0 0 0 0 0 0 0 0 0 0 0 0 0 0 0 0 0 0 0 z_b_2
S 668 6 1 0 0 6 1 653 4829 40800016 3000 A 0 0 0 0 0 0 0 0 0 0 0 0 0 0 0 0 0 0 0 0 0 0 0 0 0 0 0 0 z_b_3
S 669 6 1 0 0 6 1 653 4941 40800016 3000 A 0 0 0 0 0 0 0 0 0 0 0 0 0 0 0 0 0 0 0 0 0 0 0 0 0 0 0 0 z_e_52
S 670 6 1 0 0 6 1 653 4842 40800016 3000 A 0 0 0 0 0 0 0 0 0 0 0 0 0 0 0 0 0 0 0 0 0 0 0 0 0 0 0 0 z_b_4
S 671 6 1 0 0 6 1 653 4848 40800016 3000 A 0 0 0 0 0 0 0 0 0 0 0 0 0 0 0 0 0 0 0 0 0 0 0 0 0 0 0 0 z_b_6
S 672 6 1 0 0 6 1 653 4854 40800016 3000 A 0 0 0 0 0 0 0 0 0 0 0 0 0 0 0 0 0 0 0 0 0 0 0 0 0 0 0 0 z_b_7
S 673 6 1 0 0 6 1 653 4948 40800016 3000 A 0 0 0 0 0 0 0 0 0 0 0 0 0 0 0 0 0 0 0 0 0 0 0 0 0 0 0 0 z_e_59
S 674 23 5 0 0 0 685 582 4724 0 0 A 0 0 0 0 0 0 0 0 0 0 0 0 0 0 0 0 0 0 0 0 0 0 0 0 0 0 0 0 cft_b
S 675 7 3 0 0 80 1 674 4907 20000014 10003000 A 0 0 0 0 0 0 0 0 0 0 0 0 0 0 0 0 0 0 0 0 0 0 0 0 0 0 0 0 f
S 676 1 3 0 0 6 1 674 4873 14 3000 A 0 0 0 0 0 0 0 0 0 0 0 0 0 0 0 0 0 0 0 0 0 0 0 0 0 0 0 0 nx
S 677 1 3 0 0 6 1 674 4876 14 3000 A 0 0 0 0 0 0 0 0 0 0 0 0 0 0 0 0 0 0 0 0 0 0 0 0 0 0 0 0 ny
S 678 1 3 0 0 6 1 674 4805 14 3000 A 0 0 0 0 0 0 0 0 0 0 0 0 0 0 0 0 0 0 0 0 0 0 0 0 0 0 0 0 nz
S 679 1 3 0 0 6 1 674 4879 14 3000 A 0 0 0 0 0 0 0 0 0 0 0 0 0 0 0 0 0 0 0 0 0 0 0 0 0 0 0 0 ldx
S 680 1 3 0 0 6 1 674 4883 14 3000 A 0 0 0 0 0 0 0 0 0 0 0 0 0 0 0 0 0 0 0 0 0 0 0 0 0 0 0 0 ldy
S 681 1 3 0 0 6 1 674 4808 14 3000 A 0 0 0 0 0 0 0 0 0 0 0 0 0 0 0 0 0 0 0 0 0 0 0 0 0 0 0 0 ldz
S 682 1 3 0 0 6 1 674 4955 14 3000 A 0 0 0 0 0 0 0 0 0 0 0 0 0 0 0 0 0 0 0 0 0 0 0 0 0 0 0 0 imin3
S 683 1 3 0 0 6 1 674 4961 14 3000 A 0 0 0 0 0 0 0 0 0 0 0 0 0 0 0 0 0 0 0 0 0 0 0 0 0 0 0 0 imax3
S 684 1 3 0 0 6 1 674 4967 14 3000 A 0 0 0 0 0 0 0 0 0 0 0 0 0 0 0 0 0 0 0 0 0 0 0 0 0 0 0 0 sgn
S 685 14 5 0 0 0 1 674 4724 20000000 400000 A 0 0 0 0 0 0 0 40 10 0 0 0 0 0 0 0 0 0 0 0 0 595 0 582 0 0 0 0 cft_b
F 685 10 675 676 677 678 679 680 681 682 683 684
S 686 6 1 0 0 6 1 674 4817 40800016 3000 A 0 0 0 0 0 0 0 0 0 0 0 0 0 0 0 0 0 0 0 0 0 0 0 0 0 0 0 0 z_b_0
S 687 6 1 0 0 6 1 674 4823 40800016 3000 A 0 0 0 0 0 0 0 0 0 0 0 0 0 0 0 0 0 0 0 0 0 0 0 0 0 0 0 0 z_b_2
S 688 6 1 0 0 6 1 674 4829 40800016 3000 A 0 0 0 0 0 0 0 0 0 0 0 0 0 0 0 0 0 0 0 0 0 0 0 0 0 0 0 0 z_b_3
S 689 6 1 0 0 6 1 674 4971 40800016 3000 A 0 0 0 0 0 0 0 0 0 0 0 0 0 0 0 0 0 0 0 0 0 0 0 0 0 0 0 0 z_e_60
S 690 23 5 0 0 6 692 582 4745 4 0 A 0 0 0 0 0 0 0 0 0 0 0 0 0 0 0 0 0 0 0 0 0 0 0 0 0 0 0 0 good_fft_dimension
S 691 1 3 0 0 6 1 690 4978 14 3000 A 0 0 0 0 0 0 0 0 0 0 0 0 0 0 0 0 0 0 0 0 0 0 0 0 0 0 0 0 n
S 692 14 5 0 0 6 1 690 4745 4 400000 A 0 0 0 0 0 0 0 51 1 0 0 693 0 0 0 0 0 0 0 0 0 693 0 582 0 0 0 0 good_fft_dimension
F 692 1 691
S 693 1 3 0 0 6 1 690 4745 14 1003000 A 0 0 0 0 0 0 0 0 0 0 0 0 0 0 0 0 0 0 0 0 0 0 0 0 0 0 0 0 good_fft_dimension
S 694 23 5 0 0 9 696 582 4764 0 0 A 0 0 0 0 0 0 0 0 0 0 0 0 0 0 0 0 0 0 0 0 0 0 0 0 0 0 0 0 allowed
S 695 1 3 0 0 6 1 694 4980 14 3000 A 0 0 0 0 0 0 0 0 0 0 0 0 0 0 0 0 0 0 0 0 0 0 0 0 0 0 0 0 nr
S 696 14 5 0 0 16 1 694 4764 4 400000 A 0 0 0 0 0 0 0 53 1 0 0 697 0 0 0 0 0 0 0 0 0 714 0 582 0 0 0 0 allowed
F 696 1 695
S 697 1 3 0 0 16 1 694 4764 14 1003000 A 0 0 0 0 0 0 0 0 0 0 0 0 0 0 0 0 0 0 0 0 0 0 0 0 0 0 0 0 allowed
S 698 23 5 0 0 6 701 582 4772 4 0 A 0 0 0 0 0 0 0 0 0 0 0 0 0 0 0 0 0 0 0 0 0 0 0 0 0 0 0 0 good_fft_order
S 699 1 3 1 0 6 1 698 4980 14 3000 A 0 0 0 0 0 0 0 0 0 0 0 0 0 0 0 0 0 0 0 0 0 0 0 0 0 0 0 0 nr
S 700 1 3 1 0 6 1 698 4983 80000014 3000 A 0 0 0 0 0 0 0 0 0 0 0 0 0 0 0 0 0 0 0 0 0 0 0 0 0 0 0 0 np
S 701 14 5 0 0 6 1 698 4772 4 400000 A 0 0 0 0 0 0 0 55 2 0 0 702 0 0 0 0 0 0 0 0 0 771 0 582 0 0 0 0 good_fft_order
F 701 2 699 700
S 702 1 3 0 0 6 1 698 4772 14 1003000 A 0 0 0 0 0 0 0 0 0 0 0 0 0 0 0 0 0 0 0 0 0 0 0 0 0 0 0 0 good_fft_order
A 17 2 0 0 0 6 602 0 0 0 17 0 0 0 0 0 0 0 0 0
A 19 2 0 0 0 6 604 0 0 0 19 0 0 0 0 0 0 0 0 0
A 21 1 0 0 0 6 615 0 0 0 0 0 0 0 0 0 0 0 0 0
A 22 1 0 0 0 6 613 0 0 0 0 0 0 0 0 0 0 0 0 0
A 23 1 0 0 0 6 616 0 0 0 0 0 0 0 0 0 0 0 0 0
A 24 1 0 0 0 6 614 0 0 0 0 0 0 0 0 0 0 0 0 0
A 25 1 0 0 0 6 619 0 0 0 0 0 0 0 0 0 0 0 0 0
A 26 1 0 0 0 6 617 0 0 0 0 0 0 0 0 0 0 0 0 0
A 27 1 0 0 0 6 620 0 0 0 0 0 0 0 0 0 0 0 0 0
A 28 1 0 0 0 6 618 0 0 0 0 0 0 0 0 0 0 0 0 0
A 29 1 0 0 0 6 633 0 0 0 0 0 0 0 0 0 0 0 0 0
A 30 1 0 0 0 6 631 0 0 0 0 0 0 0 0 0 0 0 0 0
A 31 1 0 0 0 6 634 0 0 0 0 0 0 0 0 0 0 0 0 0
A 32 1 0 0 0 6 632 0 0 0 0 0 0 0 0 0 0 0 0 0
A 33 1 0 0 0 6 637 0 0 0 0 0 0 0 0 0 0 0 0 0
A 34 1 0 0 0 6 635 0 0 0 0 0 0 0 0 0 0 0 0 0
A 35 1 0 0 0 6 638 0 0 0 0 0 0 0 0 0 0 0 0 0
A 36 1 0 0 0 6 636 0 0 0 0 0 0 0 0 0 0 0 0 0
A 37 1 0 0 0 6 651 0 0 0 0 0 0 0 0 0 0 0 0 0
A 38 1 0 0 0 6 649 0 0 0 0 0 0 0 0 0 0 0 0 0
A 39 1 0 0 0 6 652 0 0 0 0 0 0 0 0 0 0 0 0 0
A 40 1 0 0 0 6 650 0 0 0 0 0 0 0 0 0 0 0 0 0
A 41 1 0 0 0 6 658 0 0 0 0 0 0 0 0 0 0 0 0 0
A 42 1 0 0 0 6 659 0 0 0 0 0 0 0 0 0 0 0 0 0
A 43 4 0 0 0 6 41 0 42 0 0 0 0 3 0 0 0 0 0 0
A 44 1 0 0 0 6 660 0 0 0 0 0 0 0 0 0 0 0 0 0
A 45 4 0 0 0 6 43 0 44 0 0 0 0 3 0 0 0 0 0 0
A 46 1 0 0 0 6 665 0 0 0 0 0 0 0 0 0 0 0 0 0
A 47 1 0 0 0 6 668 0 0 0 0 0 0 0 0 0 0 0 0 0
A 48 1 0 0 0 6 666 0 0 0 0 0 0 0 0 0 0 0 0 0
A 49 1 0 0 0 6 669 0 0 0 0 0 0 0 0 0 0 0 0 0
A 50 1 0 0 0 6 667 0 0 0 0 0 0 0 0 0 0 0 0 0
A 51 1 0 0 0 6 672 0 0 0 0 0 0 0 0 0 0 0 0 0
A 52 1 0 0 0 6 670 0 0 0 0 0 0 0 0 0 0 0 0 0
A 53 1 0 0 0 6 673 0 0 0 0 0 0 0 0 0 0 0 0 0
A 54 1 0 0 0 6 671 0 0 0 0 0 0 0 0 0 0 0 0 0
A 55 1 0 0 0 6 688 0 0 0 0 0 0 0 0 0 0 0 0 0
A 56 1 0 0 0 6 686 0 0 0 0 0 0 0 0 0 0 0 0 0
A 57 1 0 0 0 6 689 0 0 0 0 0 0 0 0 0 0 0 0 0
A 58 1 0 0 0 6 687 0 0 0 0 0 0 0 0 0 0 0 0 0
Z
Z
