V26 funct
15 functionals.F90 S582 0
04/24/2012  15:51:03
use kinds private
use io_global private
use kinds private
use io_global private
enduse
D 58 18 18
D 60 18 15
D 62 21 60 1 2 13 0 0 0 0 0
 2 17 3 2 17 13
D 65 21 60 1 2 43 0 0 0 0 0
 2 38 3 2 38 43
D 68 21 60 1 2 38 0 0 0 0 0
 2 40 3 2 40 38
D 71 21 60 1 2 13 0 0 0 0 0
 2 17 3 2 17 13
D 78 18 18
D 80 18 18
D 82 18 15
D 84 21 9 2 81 82 0 0 0 0 0
 0 15 3 3 15 15
 0 15 15 3 15 15
S 582 24 0 0 0 9 1 0 4658 10015 0 A 0 0 0 0 0 0 0 0 0 0 0 0 0 0 0 0 0 0 0 0 0 11 0 0 0 0 0 0 funct
S 584 23 0 0 0 9 590 582 4674 14 0 A 0 0 0 0 0 0 0 0 0 0 0 0 0 0 0 0 0 0 0 0 0 0 0 582 0 0 0 0 stdout
S 586 23 0 0 0 9 612 582 4687 14 0 A 0 0 0 0 0 0 0 0 0 0 0 0 0 0 0 0 0 0 0 0 0 0 0 582 0 0 0 0 dp
R 590 6 4 io_global stdout
S 610 3 0 0 0 6 1 1 0 0 0 A 0 0 0 0 0 0 0 0 0 8 0 0 0 0 0 0 0 0 0 0 0 0 0 0 0 0 0 0 6
S 611 3 0 0 0 6 1 1 0 0 0 A 0 0 0 0 0 0 0 0 0 4 0 0 0 0 0 0 0 0 0 0 0 0 0 0 0 0 0 0 6
R 612 16 1 kinds dp
S 619 27 0 0 0 9 782 582 4887 0 0 A 0 0 0 0 0 0 0 0 0 0 0 0 0 0 0 0 0 0 0 0 0 0 0 582 0 0 0 0 set_dft_from_indices
S 620 27 0 0 0 9 736 582 4908 0 0 A 0 0 0 0 0 0 0 0 0 0 0 0 0 0 0 0 0 0 0 0 0 0 0 582 0 0 0 0 set_dft_from_name
S 621 27 0 0 0 9 745 582 4926 0 0 A 0 0 0 0 0 0 0 0 0 0 0 0 0 0 0 0 0 0 0 0 0 0 0 582 0 0 0 0 enforce_input_dft
S 622 27 0 0 0 9 796 582 4944 0 0 A 0 0 0 0 0 0 0 0 0 0 0 0 0 0 0 0 0 0 0 0 0 0 0 582 0 0 0 0 write_dft_name
S 623 27 0 0 0 9 788 582 4959 0 0 A 0 0 0 0 0 0 0 0 0 0 0 0 0 0 0 0 0 0 0 0 0 0 0 582 0 0 0 0 dft_name
S 624 27 0 0 0 9 770 582 4968 0 0 A 0 0 0 0 0 0 0 0 0 0 0 0 0 0 0 0 0 0 0 0 0 0 0 582 0 0 0 0 get_dft_name
S 625 27 0 0 0 9 755 582 4981 0 0 A 0 0 0 0 0 0 0 0 0 0 0 0 0 0 0 0 0 0 0 0 0 0 0 582 0 0 0 0 get_iexch
S 626 27 0 0 0 9 758 582 4991 0 0 A 0 0 0 0 0 0 0 0 0 0 0 0 0 0 0 0 0 0 0 0 0 0 0 582 0 0 0 0 get_icorr
S 627 27 0 0 0 9 761 582 5001 0 0 A 0 0 0 0 0 0 0 0 0 0 0 0 0 0 0 0 0 0 0 0 0 0 0 582 0 0 0 0 get_igcx
S 628 27 0 0 0 9 764 582 5010 0 0 A 0 0 0 0 0 0 0 0 0 0 0 0 0 0 0 0 0 0 0 0 0 0 0 582 0 0 0 0 get_igcc
S 629 27 0 0 0 9 773 582 5019 0 0 A 0 0 0 0 0 0 0 0 0 0 0 0 0 0 0 0 0 0 0 0 0 0 0 582 0 0 0 0 dft_is_gradient
S 630 27 0 0 0 9 776 582 5035 0 0 A 0 0 0 0 0 0 0 0 0 0 0 0 0 0 0 0 0 0 0 0 0 0 0 582 0 0 0 0 dft_is_meta
S 631 27 0 0 0 9 779 582 5047 0 0 A 0 0 0 0 0 0 0 0 0 0 0 0 0 0 0 0 0 0 0 0 0 0 0 582 0 0 0 0 dft_is_hybrid
S 632 27 0 0 0 9 748 582 5061 0 0 A 0 0 0 0 0 0 0 0 0 0 0 0 0 0 0 0 0 0 0 0 0 0 0 582 0 0 0 0 start_exx
S 633 27 0 0 0 9 750 582 5071 0 0 A 0 0 0 0 0 0 0 0 0 0 0 0 0 0 0 0 0 0 0 0 0 0 0 582 0 0 0 0 stop_exx
S 634 27 0 0 0 9 767 582 5080 0 0 A 0 0 0 0 0 0 0 0 0 0 0 0 0 0 0 0 0 0 0 0 0 0 0 582 0 0 0 0 get_exx_fraction
S 635 27 0 0 0 9 752 582 5097 0 0 A 0 0 0 0 0 0 0 0 0 0 0 0 0 0 0 0 0 0 0 0 0 0 0 582 0 0 0 0 exx_is_active
S 636 27 0 0 0 9 798 582 5111 0 0 A 0 0 0 0 0 0 0 0 0 0 0 0 0 0 0 0 0 0 0 0 0 0 0 582 0 0 0 0 xc
S 637 27 0 0 0 9 805 582 5114 0 0 A 0 0 0 0 0 0 0 0 0 0 0 0 0 0 0 0 0 0 0 0 0 0 0 582 0 0 0 0 xc_spin
S 638 27 0 0 0 9 815 582 5122 0 0 A 0 0 0 0 0 0 0 0 0 0 0 0 0 0 0 0 0 0 0 0 0 0 0 582 0 0 0 0 gcxc
S 639 27 0 0 0 9 825 582 5127 0 0 A 0 0 0 0 0 0 0 0 0 0 0 0 0 0 0 0 0 0 0 0 0 0 0 582 0 0 0 0 gcx_spin
S 640 27 0 0 0 9 836 582 5136 0 0 A 0 0 0 0 0 0 0 0 0 0 0 0 0 0 0 0 0 0 0 0 0 0 0 582 0 0 0 0 gcc_spin
S 641 27 0 0 0 9 845 582 5145 0 0 A 0 0 0 0 0 0 0 0 0 0 0 0 0 0 0 0 0 0 0 0 0 0 0 582 0 0 0 0 gcc_spin_more
S 642 27 0 0 0 9 858 582 5159 0 0 A 0 0 0 0 0 0 0 0 0 0 0 0 0 0 0 0 0 0 0 0 0 0 0 582 0 0 0 0 dmxc
S 643 27 0 0 0 9 862 582 5164 0 0 A 0 0 0 0 0 0 0 0 0 0 0 0 0 0 0 0 0 0 0 0 0 0 0 582 0 0 0 0 dmxc_spin
S 644 27 0 0 0 9 870 582 5174 0 0 A 0 0 0 0 0 0 0 0 0 0 0 0 0 0 0 0 0 0 0 0 0 0 0 582 0 0 0 0 dmxc_nc
S 645 6 4 0 0 58 646 582 5182 80001c 0 A 0 0 0 0 0 0 0 0 0 0 0 0 733 0 0 0 0 0 0 0 0 0 0 582 0 0 0 0 dft
S 646 6 4 0 0 60 670 582 5186 80001c 0 A 0 0 0 0 0 20 0 0 0 0 0 0 733 0 0 0 0 0 0 0 0 0 0 582 0 0 0 0 dft_shortname
S 647 6 4 0 0 6 648 582 5200 80001c 0 A 0 0 0 0 0 0 0 0 0 0 0 0 734 0 0 0 0 0 0 0 0 0 0 582 0 0 0 0 iexch
S 648 6 4 0 0 6 649 582 5206 80001c 0 A 0 0 0 0 0 4 0 0 0 0 0 0 734 0 0 0 0 0 0 0 0 0 0 582 0 0 0 0 icorr
S 649 6 4 0 0 6 650 582 5212 80001c 0 A 0 0 0 0 0 8 0 0 0 0 0 0 734 0 0 0 0 0 0 0 0 0 0 582 0 0 0 0 igcx
S 650 6 4 0 0 6 651 582 5217 80001c 0 A 0 0 0 0 0 12 0 0 0 0 0 0 734 0 0 0 0 0 0 0 0 0 0 582 0 0 0 0 igcc
S 651 6 4 0 0 16 652 582 5222 80001c 0 A 0 0 0 0 0 16 0 0 0 0 0 0 734 0 0 0 0 0 0 0 0 0 0 582 0 0 0 0 discard_input_dft
S 652 6 4 0 0 16 653 582 5240 80001c 0 A 0 0 0 0 0 20 0 0 0 0 0 0 734 0 0 0 0 0 0 0 0 0 0 582 0 0 0 0 isgradient
S 653 6 4 0 0 16 654 582 5251 80001c 0 A 0 0 0 0 0 24 0 0 0 0 0 0 734 0 0 0 0 0 0 0 0 0 0 582 0 0 0 0 ismeta
S 654 6 4 0 0 16 656 582 5258 80001c 0 A 0 0 0 0 0 28 0 0 0 0 0 0 734 0 0 0 0 0 0 0 0 0 0 582 0 0 0 0 ishybrid
S 655 6 4 0 0 9 1 582 5267 80001c 0 A 0 0 0 0 0 0 0 0 0 0 0 0 735 0 0 0 0 0 0 0 0 0 0 582 0 0 0 0 exx_fraction
S 656 6 4 0 0 16 1 582 5280 80001c 0 A 0 0 0 0 0 32 0 0 0 0 0 0 734 0 0 0 0 0 0 0 0 0 0 582 0 0 0 0 exx_started
S 657 3 0 0 0 6 0 1 0 0 0 A 0 0 0 0 0 0 0 0 0 7 0 0 0 0 0 0 0 0 0 0 0 0 0 0 0 0 0 0 6
S 659 3 0 0 0 6 1 1 0 0 0 A 0 0 0 0 0 0 0 0 0 20 0 0 0 0 0 0 0 0 0 0 0 0 0 0 0 0 0 0 6
S 661 16 1 0 0 6 1 582 5302 14 400000 A 0 0 0 0 0 0 0 0 -1 23 0 0 0 0 0 0 0 0 0 0 0 0 0 582 0 0 0 0 notset
S 662 3 0 0 0 6 0 1 0 0 0 A 0 0 0 0 0 0 0 0 -1 -1 0 0 0 0 0 0 0 0 0 0 0 0 0 0 0 0 0 0 6
S 664 16 1 0 0 6 1 582 5316 14 400000 A 0 0 0 0 0 0 0 0 7 17 0 0 0 0 0 0 0 0 0 0 0 0 0 582 0 0 0 0 nxc
S 665 16 1 0 0 6 1 582 5320 14 400000 A 0 0 0 0 0 0 0 0 10 38 0 0 0 0 0 0 0 0 0 0 0 0 0 582 0 0 0 0 ncc
S 666 16 1 0 0 6 1 582 5324 14 400000 A 0 0 0 0 0 0 0 0 9 40 0 0 0 0 0 0 0 0 0 0 0 0 0 582 0 0 0 0 ngcx
S 667 16 1 0 0 6 1 582 5329 14 400000 A 0 0 0 0 0 0 0 0 7 17 0 0 0 0 0 0 0 0 0 0 0 0 0 582 0 0 0 0 ngcc
S 668 3 0 0 0 6 0 1 0 0 0 A 0 0 0 0 0 0 0 0 0 10 0 0 0 0 0 0 0 0 0 0 0 0 0 0 0 0 0 0 6
S 669 3 0 0 0 6 0 1 0 0 0 A 0 0 0 0 0 0 0 0 0 9 0 0 0 0 0 0 0 0 0 0 0 0 0 0 0 0 0 0 6
S 670 7 4 0 4 62 671 582 5334 80007c 100 A 0 0 0 0 0 32 0 0 0 0 0 0 733 0 0 0 0 0 0 0 0 0 0 582 0 0 0 0 exc
S 671 7 4 0 4 65 672 582 5338 80007c 100 A 0 0 0 0 0 64 0 0 0 0 0 0 733 0 0 0 0 0 0 0 0 0 0 582 0 0 0 0 corr
S 672 7 4 0 4 68 673 582 5343 80007c 100 A 0 0 0 0 0 112 0 0 0 0 0 0 733 0 0 0 0 0 0 0 0 0 0 582 0 0 0 0 gradx
S 673 7 4 0 4 71 1 582 5349 80007c 100 A 0 0 0 0 0 160 0 0 0 0 0 0 733 0 0 0 0 0 0 0 0 0 0 582 0 0 0 0 gradc
S 674 3 0 0 0 6 0 1 0 0 0 A 0 0 0 0 0 0 0 0 0 11 0 0 0 0 0 0 0 0 0 0 0 0 0 0 0 0 0 0 6
S 733 11 0 0 4 9 597 582 5623 40800010 801000 A 0 0 0 0 0 192 0 0 645 673 0 0 0 0 0 0 0 0 0 0 0 0 0 0 0 0 0 0 _funct$13
S 734 11 0 0 0 9 733 582 5633 40800010 801000 A 0 0 0 0 0 36 0 0 647 656 0 0 0 0 0 0 0 0 0 0 0 0 0 0 0 0 0 0 _funct$12
S 735 11 0 0 0 9 734 582 5643 40800010 801000 A 0 0 0 0 0 8 0 0 655 655 0 0 0 0 0 0 0 0 0 0 0 0 0 0 0 0 0 0 _funct$14
S 736 23 5 0 0 0 738 582 4908 0 0 A 0 0 0 0 0 0 0 0 0 0 0 0 0 0 0 0 0 0 0 0 0 0 0 0 0 0 0 0 set_dft_from_name
S 737 1 3 0 0 28 1 736 5653 14 43000 A 0 0 0 0 0 0 0 0 0 0 0 0 0 0 0 0 0 0 0 0 0 0 0 0 0 0 0 0 dft_
S 738 14 5 0 0 0 1 736 4908 0 400000 A 0 0 0 0 0 0 0 13 1 0 0 0 0 0 0 0 0 0 0 0 0 177 0 582 0 0 0 0 set_dft_from_name
F 738 1 737
S 739 23 5 0 0 0 740 582 5658 10 0 A 0 0 0 0 0 0 0 0 0 0 0 0 0 0 0 0 0 0 0 0 0 0 0 0 0 0 0 0 set_auxiliary_flags
S 740 14 5 0 0 0 1 739 5658 10 400000 A 0 0 0 0 0 0 0 15 0 0 0 0 0 0 0 0 0 0 0 0 0 340 0 582 0 0 0 0 set_auxiliary_flags
F 740 0
S 741 23 5 0 0 0 744 582 5678 10 0 A 0 0 0 0 0 0 0 0 0 0 0 0 0 0 0 0 0 0 0 0 0 0 0 0 0 0 0 0 set_dft_value
S 742 1 3 0 0 6 1 741 5692 14 3000 A 0 0 0 0 0 0 0 0 0 0 0 0 0 0 0 0 0 0 0 0 0 0 0 0 0 0 0 0 m
S 743 1 3 0 0 6 1 741 5694 14 3000 A 0 0 0 0 0 0 0 0 0 0 0 0 0 0 0 0 0 0 0 0 0 0 0 0 0 0 0 0 i
S 744 14 5 0 0 0 1 741 5678 10 400000 A 0 0 0 0 0 0 0 16 2 0 0 0 0 0 0 0 0 0 0 0 0 362 0 582 0 0 0 0 set_dft_value
F 744 2 742 743
S 745 23 5 0 0 0 747 582 4926 0 0 A 0 0 0 0 0 0 0 0 0 0 0 0 0 0 0 0 0 0 0 0 0 0 0 0 0 0 0 0 enforce_input_dft
S 746 1 3 0 0 28 1 745 5653 14 43000 A 0 0 0 0 0 0 0 0 0 0 0 0 0 0 0 0 0 0 0 0 0 0 0 0 0 0 0 0 dft_
S 747 14 5 0 0 0 1 745 4926 0 400000 A 0 0 0 0 0 0 0 19 1 0 0 0 0 0 0 0 0 0 0 0 0 377 0 582 0 0 0 0 enforce_input_dft
F 747 1 746
S 748 23 5 0 0 0 749 582 5061 0 0 A 0 0 0 0 0 0 0 0 0 0 0 0 0 0 0 0 0 0 0 0 0 0 0 0 0 0 0 0 start_exx
S 749 14 5 0 0 0 1 748 5061 0 400000 A 0 0 0 0 0 0 0 21 0 0 0 0 0 0 0 0 0 0 0 0 0 400 0 582 0 0 0 0 start_exx
F 749 0
S 750 23 5 0 0 0 751 582 5071 0 0 A 0 0 0 0 0 0 0 0 0 0 0 0 0 0 0 0 0 0 0 0 0 0 0 0 0 0 0 0 stop_exx
S 751 14 5 0 0 0 1 750 5071 0 400000 A 0 0 0 0 0 0 0 22 0 0 0 0 0 0 0 0 0 0 0 0 0 406 0 582 0 0 0 0 stop_exx
F 751 0
S 752 23 5 0 0 9 753 582 5097 0 0 A 0 0 0 0 0 0 0 0 0 0 0 0 0 0 0 0 0 0 0 0 0 0 0 0 0 0 0 0 exx_is_active
S 753 14 5 0 0 16 1 752 5097 4 400000 A 0 0 0 0 0 0 0 23 0 0 0 754 0 0 0 0 0 0 0 0 0 412 0 582 0 0 0 0 exx_is_active
F 753 0
S 754 1 3 0 0 16 1 752 5097 14 1003000 A 0 0 0 0 0 0 0 0 0 0 0 0 0 0 0 0 0 0 0 0 0 0 0 0 0 0 0 0 exx_is_active
S 755 23 5 0 0 9 756 582 4981 0 0 A 0 0 0 0 0 0 0 0 0 0 0 0 0 0 0 0 0 0 0 0 0 0 0 0 0 0 0 0 get_iexch
S 756 14 5 0 0 6 1 755 4981 4 400000 A 0 0 0 0 0 0 0 24 0 0 0 757 0 0 0 0 0 0 0 0 0 418 0 582 0 0 0 0 get_iexch
F 756 0
S 757 1 3 0 0 6 1 755 4981 14 1003000 A 0 0 0 0 0 0 0 0 0 0 0 0 0 0 0 0 0 0 0 0 0 0 0 0 0 0 0 0 get_iexch
S 758 23 5 0 0 9 759 582 4991 0 0 A 0 0 0 0 0 0 0 0 0 0 0 0 0 0 0 0 0 0 0 0 0 0 0 0 0 0 0 0 get_icorr
S 759 14 5 0 0 6 1 758 4991 4 400000 A 0 0 0 0 0 0 0 25 0 0 0 760 0 0 0 0 0 0 0 0 0 424 0 582 0 0 0 0 get_icorr
F 759 0
S 760 1 3 0 0 6 1 758 4991 14 1003000 A 0 0 0 0 0 0 0 0 0 0 0 0 0 0 0 0 0 0 0 0 0 0 0 0 0 0 0 0 get_icorr
S 761 23 5 0 0 9 762 582 5001 0 0 A 0 0 0 0 0 0 0 0 0 0 0 0 0 0 0 0 0 0 0 0 0 0 0 0 0 0 0 0 get_igcx
S 762 14 5 0 0 6 1 761 5001 4 400000 A 0 0 0 0 0 0 0 26 0 0 0 763 0 0 0 0 0 0 0 0 0 430 0 582 0 0 0 0 get_igcx
F 762 0
S 763 1 3 0 0 6 1 761 5001 14 1003000 A 0 0 0 0 0 0 0 0 0 0 0 0 0 0 0 0 0 0 0 0 0 0 0 0 0 0 0 0 get_igcx
S 764 23 5 0 0 9 765 582 5010 0 0 A 0 0 0 0 0 0 0 0 0 0 0 0 0 0 0 0 0 0 0 0 0 0 0 0 0 0 0 0 get_igcc
S 765 14 5 0 0 6 1 764 5010 4 400000 A 0 0 0 0 0 0 0 27 0 0 0 766 0 0 0 0 0 0 0 0 0 436 0 582 0 0 0 0 get_igcc
F 765 0
S 766 1 3 0 0 6 1 764 5010 14 1003000 A 0 0 0 0 0 0 0 0 0 0 0 0 0 0 0 0 0 0 0 0 0 0 0 0 0 0 0 0 get_igcc
S 767 23 5 0 0 9 768 582 5080 0 0 A 0 0 0 0 0 0 0 0 0 0 0 0 0 0 0 0 0 0 0 0 0 0 0 0 0 0 0 0 get_exx_fraction
S 768 14 5 0 0 9 1 767 5080 4 400000 A 0 0 0 0 0 0 0 28 0 0 0 769 0 0 0 0 0 0 0 0 0 442 0 582 0 0 0 0 get_exx_fraction
F 768 0
S 769 1 3 0 0 9 1 767 5080 14 1003000 A 0 0 0 0 0 0 0 0 0 0 0 0 0 0 0 0 0 0 0 0 0 0 0 0 0 0 0 0 get_exx_fraction
S 770 23 5 0 0 9 771 582 4968 0 0 A 0 0 0 0 0 0 0 0 0 0 0 0 0 0 0 0 0 0 0 0 0 0 0 0 0 0 0 0 get_dft_name
S 771 14 5 0 0 78 1 770 4968 4 400000 A 0 0 0 0 0 0 0 29 0 0 0 772 0 0 0 0 0 0 0 0 0 448 0 582 0 0 0 0 get_dft_name
F 771 0
S 772 1 3 0 0 78 1 770 4968 14 1003000 A 0 0 0 0 0 0 0 0 0 0 0 0 0 0 0 0 0 0 0 0 0 0 0 0 0 0 0 0 get_dft_name
S 773 23 5 0 0 9 774 582 5019 0 0 A 0 0 0 0 0 0 0 0 0 0 0 0 0 0 0 0 0 0 0 0 0 0 0 0 0 0 0 0 dft_is_gradient
S 774 14 5 0 0 16 1 773 5019 4 400000 A 0 0 0 0 0 0 0 30 0 0 0 775 0 0 0 0 0 0 0 0 0 454 0 582 0 0 0 0 dft_is_gradient
F 774 0
S 775 1 3 0 0 16 1 773 5019 14 1003000 A 0 0 0 0 0 0 0 0 0 0 0 0 0 0 0 0 0 0 0 0 0 0 0 0 0 0 0 0 dft_is_gradient
S 776 23 5 0 0 9 777 582 5035 0 0 A 0 0 0 0 0 0 0 0 0 0 0 0 0 0 0 0 0 0 0 0 0 0 0 0 0 0 0 0 dft_is_meta
S 777 14 5 0 0 16 1 776 5035 4 400000 A 0 0 0 0 0 0 0 31 0 0 0 778 0 0 0 0 0 0 0 0 0 460 0 582 0 0 0 0 dft_is_meta
F 777 0
S 778 1 3 0 0 16 1 776 5035 14 1003000 A 0 0 0 0 0 0 0 0 0 0 0 0 0 0 0 0 0 0 0 0 0 0 0 0 0 0 0 0 dft_is_meta
S 779 23 5 0 0 9 780 582 5047 0 0 A 0 0 0 0 0 0 0 0 0 0 0 0 0 0 0 0 0 0 0 0 0 0 0 0 0 0 0 0 dft_is_hybrid
S 780 14 5 0 0 16 1 779 5047 4 400000 A 0 0 0 0 0 0 0 32 0 0 0 781 0 0 0 0 0 0 0 0 0 466 0 582 0 0 0 0 dft_is_hybrid
F 780 0
S 781 1 3 0 0 16 1 779 5047 14 1003000 A 0 0 0 0 0 0 0 0 0 0 0 0 0 0 0 0 0 0 0 0 0 0 0 0 0 0 0 0 dft_is_hybrid
S 782 23 5 0 0 0 787 582 4887 0 0 A 0 0 0 0 0 0 0 0 0 0 0 0 0 0 0 0 0 0 0 0 0 0 0 0 0 0 0 0 set_dft_from_indices
S 783 1 3 0 0 6 1 782 5696 14 3000 A 0 0 0 0 0 0 0 0 0 0 0 0 0 0 0 0 0 0 0 0 0 0 0 0 0 0 0 0 iexch_
S 784 1 3 0 0 6 1 782 5703 14 3000 A 0 0 0 0 0 0 0 0 0 0 0 0 0 0 0 0 0 0 0 0 0 0 0 0 0 0 0 0 icorr_
S 785 1 3 0 0 6 1 782 5710 14 3000 A 0 0 0 0 0 0 0 0 0 0 0 0 0 0 0 0 0 0 0 0 0 0 0 0 0 0 0 0 igcx_
S 786 1 3 0 0 6 1 782 5716 14 3000 A 0 0 0 0 0 0 0 0 0 0 0 0 0 0 0 0 0 0 0 0 0 0 0 0 0 0 0 0 igcc_
S 787 14 5 0 0 0 1 782 4887 0 400000 A 0 0 0 0 0 0 0 33 4 0 0 0 0 0 0 0 0 0 0 0 0 474 0 582 0 0 0 0 set_dft_from_indices
F 787 4 783 784 785 786
S 788 23 5 0 0 0 795 582 4959 0 0 A 0 0 0 0 0 0 0 0 0 0 0 0 0 0 0 0 0 0 0 0 0 0 0 0 0 0 0 0 dft_name
S 789 1 3 0 0 6 1 788 5696 14 3000 A 0 0 0 0 0 0 0 0 0 0 0 0 0 0 0 0 0 0 0 0 0 0 0 0 0 0 0 0 iexch_
S 790 1 3 0 0 6 1 788 5703 14 3000 A 0 0 0 0 0 0 0 0 0 0 0 0 0 0 0 0 0 0 0 0 0 0 0 0 0 0 0 0 icorr_
S 791 1 3 0 0 6 1 788 5710 14 3000 A 0 0 0 0 0 0 0 0 0 0 0 0 0 0 0 0 0 0 0 0 0 0 0 0 0 0 0 0 igcx_
S 792 1 3 0 0 6 1 788 5716 14 3000 A 0 0 0 0 0 0 0 0 0 0 0 0 0 0 0 0 0 0 0 0 0 0 0 0 0 0 0 0 igcc_
S 793 1 3 0 0 80 1 788 5722 14 3000 A 0 0 0 0 0 0 0 0 0 0 0 0 0 0 0 0 0 0 0 0 0 0 0 0 0 0 0 0 longname_
S 794 1 3 0 0 82 1 788 5732 14 3000 A 0 0 0 0 0 0 0 0 0 0 0 0 0 0 0 0 0 0 0 0 0 0 0 0 0 0 0 0 shortname_
S 795 14 5 0 0 0 1 788 4959 0 400000 A 0 0 0 0 0 0 0 38 6 0 0 0 0 0 0 0 0 0 0 0 0 504 0 582 0 0 0 0 dft_name
F 795 6 789 790 791 792 793 794
S 796 23 5 0 0 0 797 582 4944 0 0 A 0 0 0 0 0 0 0 0 0 0 0 0 0 0 0 0 0 0 0 0 0 0 0 0 0 0 0 0 write_dft_name
S 797 14 5 0 0 0 1 796 4944 0 400000 A 0 0 0 0 0 0 0 45 0 0 0 0 0 0 0 0 0 0 0 0 0 536 0 582 0 0 0 0 write_dft_name
F 797 0
S 798 23 5 0 0 0 804 582 5111 0 0 A 0 0 0 0 0 0 0 0 0 0 0 0 0 0 0 0 0 0 0 0 0 0 0 0 0 0 0 0 xc
S 799 1 3 0 0 9 1 798 5743 14 3000 A 0 0 0 0 0 0 0 0 0 0 0 0 0 0 0 0 0 0 0 0 0 0 0 0 0 0 0 0 rho
S 800 1 3 0 0 9 1 798 5747 14 3000 A 0 0 0 0 0 0 0 0 0 0 0 0 0 0 0 0 0 0 0 0 0 0 0 0 0 0 0 0 ex
S 801 1 3 0 0 9 1 798 5750 14 3000 A 0 0 0 0 0 0 0 0 0 0 0 0 0 0 0 0 0 0 0 0 0 0 0 0 0 0 0 0 ec
S 802 1 3 0 0 9 1 798 5753 14 3000 A 0 0 0 0 0 0 0 0 0 0 0 0 0 0 0 0 0 0 0 0 0 0 0 0 0 0 0 0 vx
S 803 1 3 0 0 9 1 798 5756 14 3000 A 0 0 0 0 0 0 0 0 0 0 0 0 0 0 0 0 0 0 0 0 0 0 0 0 0 0 0 0 vc
S 804 14 5 0 0 0 1 798 5111 0 400000 A 0 0 0 0 0 0 0 46 5 0 0 0 0 0 0 0 0 0 0 0 0 549 0 582 0 0 0 0 xc
F 804 5 799 800 801 802 803
S 805 23 5 0 0 0 814 582 5114 0 0 A 0 0 0 0 0 0 0 0 0 0 0 0 0 0 0 0 0 0 0 0 0 0 0 0 0 0 0 0 xc_spin
S 806 1 3 0 0 9 1 805 5743 14 3000 A 0 0 0 0 0 0 0 0 0 0 0 0 0 0 0 0 0 0 0 0 0 0 0 0 0 0 0 0 rho
S 807 1 3 0 0 9 1 805 5759 14 3000 A 0 0 0 0 0 0 0 0 0 0 0 0 0 0 0 0 0 0 0 0 0 0 0 0 0 0 0 0 zeta
S 808 1 3 0 0 9 1 805 5747 14 3000 A 0 0 0 0 0 0 0 0 0 0 0 0 0 0 0 0 0 0 0 0 0 0 0 0 0 0 0 0 ex
S 809 1 3 0 0 9 1 805 5750 14 3000 A 0 0 0 0 0 0 0 0 0 0 0 0 0 0 0 0 0 0 0 0 0 0 0 0 0 0 0 0 ec
S 810 1 3 0 0 9 1 805 5764 14 3000 A 0 0 0 0 0 0 0 0 0 0 0 0 0 0 0 0 0 0 0 0 0 0 0 0 0 0 0 0 vxup
S 811 1 3 0 0 9 1 805 5769 14 3000 A 0 0 0 0 0 0 0 0 0 0 0 0 0 0 0 0 0 0 0 0 0 0 0 0 0 0 0 0 vxdw
S 812 1 3 0 0 9 1 805 5774 14 3000 A 0 0 0 0 0 0 0 0 0 0 0 0 0 0 0 0 0 0 0 0 0 0 0 0 0 0 0 0 vcup
S 813 1 3 0 0 9 1 805 5779 14 3000 A 0 0 0 0 0 0 0 0 0 0 0 0 0 0 0 0 0 0 0 0 0 0 0 0 0 0 0 0 vcdw
S 814 14 5 0 0 0 1 805 5114 0 400000 A 0 0 0 0 0 0 0 52 8 0 0 0 0 0 0 0 0 0 0 0 0 649 0 582 0 0 0 0 xc_spin
F 814 8 806 807 808 809 810 811 812 813
S 815 23 5 0 0 0 824 582 5122 0 0 A 0 0 0 0 0 0 0 0 0 0 0 0 0 0 0 0 0 0 0 0 0 0 0 0 0 0 0 0 gcxc
S 816 1 3 0 0 9 1 815 5743 14 3000 A 0 0 0 0 0 0 0 0 0 0 0 0 0 0 0 0 0 0 0 0 0 0 0 0 0 0 0 0 rho
S 817 1 3 0 0 9 1 815 5784 14 3000 A 0 0 0 0 0 0 0 0 0 0 0 0 0 0 0 0 0 0 0 0 0 0 0 0 0 0 0 0 grho
S 818 1 3 0 0 9 1 815 5789 14 3000 A 0 0 0 0 0 0 0 0 0 0 0 0 0 0 0 0 0 0 0 0 0 0 0 0 0 0 0 0 sx
S 819 1 3 0 0 9 1 815 5792 14 3000 A 0 0 0 0 0 0 0 0 0 0 0 0 0 0 0 0 0 0 0 0 0 0 0 0 0 0 0 0 sc
S 820 1 3 0 0 9 1 815 5795 14 3000 A 0 0 0 0 0 0 0 0 0 0 0 0 0 0 0 0 0 0 0 0 0 0 0 0 0 0 0 0 v1x
S 821 1 3 0 0 9 1 815 5799 14 3000 A 0 0 0 0 0 0 0 0 0 0 0 0 0 0 0 0 0 0 0 0 0 0 0 0 0 0 0 0 v2x
S 822 1 3 0 0 9 1 815 5803 14 3000 A 0 0 0 0 0 0 0 0 0 0 0 0 0 0 0 0 0 0 0 0 0 0 0 0 0 0 0 0 v1c
S 823 1 3 0 0 9 1 815 5807 14 3000 A 0 0 0 0 0 0 0 0 0 0 0 0 0 0 0 0 0 0 0 0 0 0 0 0 0 0 0 0 v2c
S 824 14 5 0 0 0 1 815 5122 0 400000 A 0 0 0 0 0 0 0 61 8 0 0 0 0 0 0 0 0 0 0 0 0 738 0 582 0 0 0 0 gcxc
F 824 8 816 817 818 819 820 821 822 823
S 825 23 5 0 0 0 835 582 5127 0 0 A 0 0 0 0 0 0 0 0 0 0 0 0 0 0 0 0 0 0 0 0 0 0 0 0 0 0 0 0 gcx_spin
S 826 1 3 0 0 9 1 825 5811 14 3000 A 0 0 0 0 0 0 0 0 0 0 0 0 0 0 0 0 0 0 0 0 0 0 0 0 0 0 0 0 rhoup
S 827 1 3 0 0 9 1 825 5817 14 3000 A 0 0 0 0 0 0 0 0 0 0 0 0 0 0 0 0 0 0 0 0 0 0 0 0 0 0 0 0 rhodw
S 828 1 3 0 0 9 1 825 5823 14 3000 A 0 0 0 0 0 0 0 0 0 0 0 0 0 0 0 0 0 0 0 0 0 0 0 0 0 0 0 0 grhoup2
S 829 1 3 0 0 9 1 825 5831 14 3000 A 0 0 0 0 0 0 0 0 0 0 0 0 0 0 0 0 0 0 0 0 0 0 0 0 0 0 0 0 grhodw2
S 830 1 3 0 0 9 1 825 5789 14 3000 A 0 0 0 0 0 0 0 0 0 0 0 0 0 0 0 0 0 0 0 0 0 0 0 0 0 0 0 0 sx
S 831 1 3 0 0 9 1 825 5839 14 3000 A 0 0 0 0 0 0 0 0 0 0 0 0 0 0 0 0 0 0 0 0 0 0 0 0 0 0 0 0 v1xup
S 832 1 3 0 0 9 1 825 5845 14 3000 A 0 0 0 0 0 0 0 0 0 0 0 0 0 0 0 0 0 0 0 0 0 0 0 0 0 0 0 0 v1xdw
S 833 1 3 0 0 9 1 825 5851 14 3000 A 0 0 0 0 0 0 0 0 0 0 0 0 0 0 0 0 0 0 0 0 0 0 0 0 0 0 0 0 v2xup
S 834 1 3 0 0 9 1 825 5857 14 3000 A 0 0 0 0 0 0 0 0 0 0 0 0 0 0 0 0 0 0 0 0 0 0 0 0 0 0 0 0 v2xdw
S 835 14 5 0 0 0 1 825 5127 0 400000 A 0 0 0 0 0 0 0 70 9 0 0 0 0 0 0 0 0 0 0 0 0 830 0 582 0 0 0 0 gcx_spin
F 835 9 826 827 828 829 830 831 832 833 834
S 836 23 5 0 0 0 844 582 5136 0 0 A 0 0 0 0 0 0 0 0 0 0 0 0 0 0 0 0 0 0 0 0 0 0 0 0 0 0 0 0 gcc_spin
S 837 1 3 0 0 9 1 836 5743 14 3000 A 0 0 0 0 0 0 0 0 0 0 0 0 0 0 0 0 0 0 0 0 0 0 0 0 0 0 0 0 rho
S 838 1 3 0 0 9 1 836 5759 14 3000 A 0 0 0 0 0 0 0 0 0 0 0 0 0 0 0 0 0 0 0 0 0 0 0 0 0 0 0 0 zeta
S 839 1 3 0 0 9 1 836 5784 14 3000 A 0 0 0 0 0 0 0 0 0 0 0 0 0 0 0 0 0 0 0 0 0 0 0 0 0 0 0 0 grho
S 840 1 3 0 0 9 1 836 5792 14 3000 A 0 0 0 0 0 0 0 0 0 0 0 0 0 0 0 0 0 0 0 0 0 0 0 0 0 0 0 0 sc
S 841 1 3 0 0 9 1 836 5863 14 3000 A 0 0 0 0 0 0 0 0 0 0 0 0 0 0 0 0 0 0 0 0 0 0 0 0 0 0 0 0 v1cup
S 842 1 3 0 0 9 1 836 5869 14 3000 A 0 0 0 0 0 0 0 0 0 0 0 0 0 0 0 0 0 0 0 0 0 0 0 0 0 0 0 0 v1cdw
S 843 1 3 0 0 9 1 836 5807 14 3000 A 0 0 0 0 0 0 0 0 0 0 0 0 0 0 0 0 0 0 0 0 0 0 0 0 0 0 0 0 v2c
S 844 14 5 0 0 0 1 836 5136 0 400000 A 0 0 0 0 0 0 0 80 7 0 0 0 0 0 0 0 0 0 0 0 0 959 0 582 0 0 0 0 gcc_spin
F 844 7 837 838 839 840 841 842 843
S 845 23 5 0 0 0 857 582 5145 0 0 A 0 0 0 0 0 0 0 0 0 0 0 0 0 0 0 0 0 0 0 0 0 0 0 0 0 0 0 0 gcc_spin_more
S 846 1 3 0 0 9 1 845 5875 14 3000 A 0 0 0 0 0 0 0 0 0 0 0 0 0 0 0 0 0 0 0 0 0 0 0 0 0 0 0 0 rhoa
S 847 1 3 0 0 9 1 845 5880 14 3000 A 0 0 0 0 0 0 0 0 0 0 0 0 0 0 0 0 0 0 0 0 0 0 0 0 0 0 0 0 rhob
S 848 1 3 0 0 9 1 845 5885 14 3000 A 0 0 0 0 0 0 0 0 0 0 0 0 0 0 0 0 0 0 0 0 0 0 0 0 0 0 0 0 grhoaa
S 849 1 3 0 0 9 1 845 5892 14 3000 A 0 0 0 0 0 0 0 0 0 0 0 0 0 0 0 0 0 0 0 0 0 0 0 0 0 0 0 0 grhobb
S 850 1 3 0 0 9 1 845 5899 14 3000 A 0 0 0 0 0 0 0 0 0 0 0 0 0 0 0 0 0 0 0 0 0 0 0 0 0 0 0 0 grhoab
S 851 1 3 0 0 9 1 845 5792 14 3000 A 0 0 0 0 0 0 0 0 0 0 0 0 0 0 0 0 0 0 0 0 0 0 0 0 0 0 0 0 sc
S 852 1 3 0 0 9 1 845 5906 14 3000 A 0 0 0 0 0 0 0 0 0 0 0 0 0 0 0 0 0 0 0 0 0 0 0 0 0 0 0 0 v1ca
S 853 1 3 0 0 9 1 845 5911 14 3000 A 0 0 0 0 0 0 0 0 0 0 0 0 0 0 0 0 0 0 0 0 0 0 0 0 0 0 0 0 v1cb
S 854 1 3 0 0 9 1 845 5916 14 3000 A 0 0 0 0 0 0 0 0 0 0 0 0 0 0 0 0 0 0 0 0 0 0 0 0 0 0 0 0 v2ca
S 855 1 3 0 0 9 1 845 5921 14 3000 A 0 0 0 0 0 0 0 0 0 0 0 0 0 0 0 0 0 0 0 0 0 0 0 0 0 0 0 0 v2cb
S 856 1 3 0 0 9 1 845 5926 14 3000 A 0 0 0 0 0 0 0 0 0 0 0 0 0 0 0 0 0 0 0 0 0 0 0 0 0 0 0 0 v2cab
S 857 14 5 0 0 0 1 845 5145 0 400000 A 0 0 0 0 0 0 0 88 11 0 0 0 0 0 0 0 0 0 0 0 0 1015 0 582 0 0 0 0 gcc_spin_more
F 857 11 846 847 848 849 850 851 852 853 854 855 856
S 858 23 5 0 0 9 860 582 5159 0 0 A 0 0 0 0 0 0 0 0 0 0 0 0 0 0 0 0 0 0 0 0 0 0 0 0 0 0 0 0 dmxc
S 859 1 3 1 0 9 1 858 5743 14 3000 A 0 0 0 0 0 0 0 0 0 0 0 0 0 0 0 0 0 0 0 0 0 0 0 0 0 0 0 0 rho
S 860 14 5 0 0 9 1 858 5159 4 400000 A 0 0 0 0 0 0 0 100 1 0 0 861 0 0 0 0 0 0 0 0 0 1058 0 582 0 0 0 0 dmxc
F 860 1 859
S 861 1 3 0 0 9 1 858 5159 14 1003000 A 0 0 0 0 0 0 0 0 0 0 0 0 0 0 0 0 0 0 0 0 0 0 0 0 0 0 0 0 dmxc
S 862 23 5 0 0 0 869 582 5164 0 0 A 0 0 0 0 0 0 0 0 0 0 0 0 0 0 0 0 0 0 0 0 0 0 0 0 0 0 0 0 dmxc_spin
S 863 1 3 1 0 9 1 862 5811 14 3000 A 0 0 0 0 0 0 0 0 0 0 0 0 0 0 0 0 0 0 0 0 0 0 0 0 0 0 0 0 rhoup
S 864 1 3 1 0 9 1 862 5817 14 3000 A 0 0 0 0 0 0 0 0 0 0 0 0 0 0 0 0 0 0 0 0 0 0 0 0 0 0 0 0 rhodw
S 865 1 3 2 0 9 1 862 5932 14 3000 A 0 0 0 0 0 0 0 0 0 0 0 0 0 0 0 0 0 0 0 0 0 0 0 0 0 0 0 0 dmuxc_uu
S 866 1 3 2 0 9 1 862 5941 14 3000 A 0 0 0 0 0 0 0 0 0 0 0 0 0 0 0 0 0 0 0 0 0 0 0 0 0 0 0 0 dmuxc_ud
S 867 1 3 2 0 9 1 862 5950 14 3000 A 0 0 0 0 0 0 0 0 0 0 0 0 0 0 0 0 0 0 0 0 0 0 0 0 0 0 0 0 dmuxc_du
S 868 1 3 2 0 9 1 862 5959 14 3000 A 0 0 0 0 0 0 0 0 0 0 0 0 0 0 0 0 0 0 0 0 0 0 0 0 0 0 0 0 dmuxc_dd
S 869 14 5 0 0 0 1 862 5164 0 400000 A 0 0 0 0 0 0 0 102 6 0 0 0 0 0 0 0 0 0 0 0 0 1114 0 582 0 0 0 0 dmxc_spin
F 869 6 863 864 865 866 867 868
S 870 23 5 0 0 0 876 582 5174 0 0 A 0 0 0 0 0 0 0 0 0 0 0 0 0 0 0 0 0 0 0 0 0 0 0 0 0 0 0 0 dmxc_nc
S 871 1 3 1 0 9 1 870 5743 14 3000 A 0 0 0 0 0 0 0 0 0 0 0 0 0 0 0 0 0 0 0 0 0 0 0 0 0 0 0 0 rho
S 872 1 3 1 0 9 1 870 5968 14 3000 A 0 0 0 0 0 0 0 0 0 0 0 0 0 0 0 0 0 0 0 0 0 0 0 0 0 0 0 0 mx
S 873 1 3 1 0 9 1 870 5971 14 3000 A 0 0 0 0 0 0 0 0 0 0 0 0 0 0 0 0 0 0 0 0 0 0 0 0 0 0 0 0 my
S 874 1 3 1 0 9 1 870 5974 14 3000 A 0 0 0 0 0 0 0 0 0 0 0 0 0 0 0 0 0 0 0 0 0 0 0 0 0 0 0 0 mz
S 875 7 3 2 0 84 1 870 5977 800014 3000 A 0 0 0 0 0 0 0 0 0 0 0 0 0 0 0 0 0 0 0 0 0 0 0 0 0 0 0 0 dmuxc
S 876 14 5 0 0 0 1 870 5174 0 400000 A 0 0 0 0 0 0 0 109 5 0 0 0 0 0 0 0 0 0 0 0 0 1219 0 582 0 0 0 0 dmxc_nc
F 876 5 871 872 873 874 875
S 877 3 0 0 0 6 1 1 0 0 0 A 0 0 0 0 0 0 0 0 0 16 0 0 0 0 0 0 0 0 0 0 0 0 0 0 0 0 0 0 6
S 878 3 0 0 0 6 1 1 0 0 0 A 0 0 0 0 0 0 0 0 0 5 0 0 0 0 0 0 0 0 0 0 0 0 0 0 0 0 0 0 6
A 13 2 0 0 0 6 610 0 0 0 13 0 0 0 0 0 0 0 0 0
A 15 2 0 0 0 6 611 0 0 0 15 0 0 0 0 0 0 0 0 0
A 17 2 0 0 0 6 657 0 0 0 17 0 0 0 0 0 0 0 0 0
A 18 2 0 0 0 6 659 0 0 0 18 0 0 0 0 0 0 0 0 0
A 23 2 0 0 0 6 662 0 0 0 23 0 0 0 0 0 0 0 0 0
A 38 2 0 0 0 6 668 0 0 0 38 0 0 0 0 0 0 0 0 0
A 40 2 0 0 0 6 669 0 0 0 40 0 0 0 0 0 0 0 0 0
A 43 2 0 0 0 6 674 0 0 0 43 0 0 0 0 0 0 0 0 0
A 81 2 0 0 0 6 878 0 0 0 81 0 0 0 0 0 0 0 0 0
A 82 2 0 0 0 6 877 0 0 0 82 0 0 0 0 0 0 0 0 0
Z
Z
