V26 global_version
11 version.F90 S582 0
04/24/2012  15:51:01
enduse
D 56 18 12
D 58 18 13
S 582 24 0 0 0 9 1 0 4658 10005 0 A 0 0 0 0 0 0 0 0 0 0 0 0 19 0 0 0 0 0 0 0 0 11 0 0 0 0 0 0 global_version
S 583 3 0 0 0 6 0 1 0 0 0 A 0 0 0 0 0 0 0 0 0 6 0 0 0 0 0 0 0 0 0 0 0 0 0 0 0 0 0 0 6
S 584 6 4 0 0 56 1 582 4673 80000c 0 A 0 0 0 0 0 0 0 0 0 0 0 0 588 0 0 0 0 0 0 0 0 0 0 582 0 0 0 0 version_number
S 585 3 0 0 0 6 0 1 0 0 0 A 0 0 0 0 0 0 0 0 0 5 0 0 0 0 0 0 0 0 0 0 0 0 0 0 0 0 0 0 6
S 586 3 0 0 0 58 0 1 0 0 0 A 0 0 0 0 0 0 0 0 4688 0 0 0 0 0 0 0 0 0 0 0 0 0 0 0 0 0 0 0 18 5 34 2e 30 2e 33
S 588 11 0 0 0 9 1 582 4701 40800008 801000 A 0 0 0 0 0 6 0 0 584 584 0 0 0 0 0 0 0 0 0 0 0 0 0 0 0 0 0 0 _global_version$9
A 12 2 0 0 0 6 583 0 0 0 12 0 0 0 0 0 0 0 0 0
A 13 2 0 0 0 6 585 0 0 0 13 0 0 0 0 0 0 0 0 0
A 14 2 0 0 0 58 586 0 0 0 14 0 0 0 0 0 0 0 0 0
A 15 1 0 0 0 56 584 0 0 0 0 0 0 0 0 0 0 0 0 0
Z
Z
