V26 grid_dimensions
11 griddim.F90 S582 0
04/24/2012  15:51:15
enduse
S 582 24 0 0 0 9 1 0 4658 10005 0 A 0 0 0 0 0 0 0 0 0 0 0 0 38 0 0 0 0 0 0 0 0 12 0 0 0 0 0 0 grid_dimensions
S 583 6 4 0 0 6 584 582 4674 80000c 0 A 0 0 0 0 0 0 0 0 0 0 0 0 593 0 0 0 0 0 0 0 0 0 0 582 0 0 0 0 nr1
S 584 6 4 0 0 6 585 582 4678 80000c 0 A 0 0 0 0 0 4 0 0 0 0 0 0 593 0 0 0 0 0 0 0 0 0 0 582 0 0 0 0 nr2
S 585 6 4 0 0 6 586 582 4682 80000c 0 A 0 0 0 0 0 8 0 0 0 0 0 0 593 0 0 0 0 0 0 0 0 0 0 582 0 0 0 0 nr3
S 586 6 4 0 0 6 587 582 4686 80000c 0 A 0 0 0 0 0 12 0 0 0 0 0 0 593 0 0 0 0 0 0 0 0 0 0 582 0 0 0 0 nr1x
S 587 6 4 0 0 6 588 582 4691 80000c 0 A 0 0 0 0 0 16 0 0 0 0 0 0 593 0 0 0 0 0 0 0 0 0 0 582 0 0 0 0 nr2x
S 588 6 4 0 0 6 589 582 4696 80000c 0 A 0 0 0 0 0 20 0 0 0 0 0 0 593 0 0 0 0 0 0 0 0 0 0 582 0 0 0 0 nr3x
S 589 6 4 0 0 6 590 582 4701 80000c 0 A 0 0 0 0 0 24 0 0 0 0 0 0 593 0 0 0 0 0 0 0 0 0 0 582 0 0 0 0 nr1l
S 590 6 4 0 0 6 591 582 4706 80000c 0 A 0 0 0 0 0 28 0 0 0 0 0 0 593 0 0 0 0 0 0 0 0 0 0 582 0 0 0 0 nr2l
S 591 6 4 0 0 6 592 582 4711 80000c 0 A 0 0 0 0 0 32 0 0 0 0 0 0 593 0 0 0 0 0 0 0 0 0 0 582 0 0 0 0 nr3l
S 592 6 4 0 0 6 1 582 4716 80000c 0 A 0 0 0 0 0 36 0 0 0 0 0 0 593 0 0 0 0 0 0 0 0 0 0 582 0 0 0 0 nnrx
S 593 11 0 0 0 9 1 582 4721 40800008 801000 A 0 0 0 0 0 40 0 0 583 592 0 0 0 0 0 0 0 0 0 0 0 0 0 0 0 0 0 0 _grid_dimensions$8
A 12 1 0 0 0 6 583 0 0 0 0 0 0 0 0 0 0 0 0 0
A 13 1 0 0 0 6 584 0 0 0 0 0 0 0 0 0 0 0 0 0
A 14 1 0 0 0 6 585 0 0 0 0 0 0 0 0 0 0 0 0 0
A 15 1 0 0 0 6 586 0 0 0 0 0 0 0 0 0 0 0 0 0
A 16 1 0 0 0 6 587 0 0 0 0 0 0 0 0 0 0 0 0 0
A 17 1 0 0 0 6 588 0 0 0 0 0 0 0 0 0 0 0 0 0
A 18 1 0 0 0 6 589 0 0 0 0 0 0 0 0 0 0 0 0 0
A 19 1 0 0 0 6 590 0 0 0 0 0 0 0 0 0 0 0 0 0
A 20 1 0 0 0 6 591 0 0 0 0 0 0 0 0 0 0 0 0 0
A 21 1 0 0 0 6 592 0 0 0 0 0 0 0 0 0 0 0 0 0
Z
Z
