V26 gvecp
10 recvec.F90 S582 0
04/24/2012  15:51:15
use kinds private
use kinds private
enduse
S 582 24 0 0 0 9 1 0 4658 10005 0 A 0 0 0 0 0 0 0 0 0 0 0 0 79 0 0 0 0 0 0 0 0 61 0 0 0 0 0 0 gvecp
S 584 23 0 0 0 9 587 582 4670 4 0 A 0 0 0 0 0 0 0 0 0 0 0 0 0 0 0 0 0 0 0 0 0 0 0 582 0 0 0 0 dp
R 587 16 1 kinds dp
S 594 6 4 0 0 6 595 582 4704 80000c 0 A 0 0 0 0 0 0 0 0 0 0 0 0 600 0 0 0 0 0 0 0 0 0 0 582 0 0 0 0 ngm
S 595 6 4 0 0 6 596 582 4708 80000c 0 A 0 0 0 0 0 4 0 0 0 0 0 0 600 0 0 0 0 0 0 0 0 0 0 582 0 0 0 0 ngmt
S 596 6 4 0 0 6 597 582 4713 80000c 0 A 0 0 0 0 0 8 0 0 0 0 0 0 600 0 0 0 0 0 0 0 0 0 0 582 0 0 0 0 ngml
S 597 6 4 0 0 6 1 582 4718 80000c 0 A 0 0 0 0 0 12 0 0 0 0 0 0 600 0 0 0 0 0 0 0 0 0 0 582 0 0 0 0 ngmx
S 598 6 4 0 0 9 599 582 4723 80000c 0 A 0 0 0 0 0 0 0 0 0 0 0 0 601 0 0 0 0 0 0 0 0 0 0 582 0 0 0 0 ecutp
S 599 6 4 0 0 9 1 582 4729 80000c 0 A 0 0 0 0 0 8 0 0 0 0 0 0 601 0 0 0 0 0 0 0 0 0 0 582 0 0 0 0 gcutp
S 600 11 0 0 0 9 1 582 4735 40800008 801000 A 0 0 0 0 0 16 0 0 594 597 0 0 0 0 0 0 0 0 0 0 0 0 0 0 0 0 0 0 _gvecp$8
S 601 11 0 0 0 9 600 582 4744 40800008 801000 A 0 0 0 0 0 16 0 0 598 599 0 0 0 0 0 0 0 0 0 0 0 0 0 0 0 0 0 0 _gvecp$10
A 17 1 0 0 0 6 594 0 0 0 0 0 0 0 0 0 0 0 0 0
A 18 1 0 0 0 6 595 0 0 0 0 0 0 0 0 0 0 0 0 0
A 19 1 0 0 0 6 596 0 0 0 0 0 0 0 0 0 0 0 0 0
A 20 1 0 0 0 6 597 0 0 0 0 0 0 0 0 0 0 0 0 0
A 21 2 0 0 0 9 577 0 0 0 21 0 0 0 0 0 0 0 0 0
A 22 1 0 0 0 9 598 0 0 0 0 0 0 0 0 0 0 0 0 0
A 23 1 0 0 0 9 599 0 0 0 0 0 0 0 0 0 0 0 0 0
Z
Z
