V26 gvecw
10 recvec.F90 S582 0
04/24/2012  15:51:15
use kinds private
use kinds private
enduse
D 56 21 9 1 45 44 0 1 0 0 1
 36 40 42 36 40 38
D 59 21 6 1 0 33 0 0 0 0 0
 0 33 0 3 33 0
S 582 24 0 0 0 9 1 0 4658 10005 0 A 0 0 0 0 0 0 0 0 0 0 0 0 0 0 0 0 0 0 0 0 0 12 0 0 0 0 0 0 gvecw
S 584 23 0 0 0 9 587 582 4670 4 0 A 0 0 0 0 0 0 0 0 0 0 0 0 0 0 0 0 0 0 0 0 0 0 0 582 0 0 0 0 dp
S 585 3 0 0 0 6 1 1 0 0 0 A 0 0 0 0 0 0 0 0 0 8 0 0 0 0 0 0 0 0 0 0 0 0 0 0 0 0 0 0 6
R 587 16 1 kinds dp
S 594 6 4 0 0 6 595 582 4704 80000c 0 A 0 0 0 0 0 0 0 0 0 0 0 0 619 0 0 0 0 0 0 0 0 0 0 582 0 0 0 0 ngw
S 595 6 4 0 0 6 596 582 4708 80000c 0 A 0 0 0 0 0 4 0 0 0 0 0 0 619 0 0 0 0 0 0 0 0 0 0 582 0 0 0 0 ngwt
S 596 6 4 0 0 6 597 582 4713 80000c 0 A 0 0 0 0 0 8 0 0 0 0 0 0 619 0 0 0 0 0 0 0 0 0 0 582 0 0 0 0 ngwl
S 597 6 4 0 0 6 598 582 4718 80000c 0 A 0 0 0 0 0 12 0 0 0 0 0 0 619 0 0 0 0 0 0 0 0 0 0 582 0 0 0 0 ngwx
S 598 6 4 0 0 6 604 582 4723 80000c 0 A 0 0 0 0 0 16 0 0 0 0 0 0 619 0 0 0 0 0 0 0 0 0 0 582 0 0 0 0 ng0
S 599 6 4 0 0 9 600 582 4727 80000c 0 A 0 0 0 0 0 0 0 0 0 0 0 0 620 0 0 0 0 0 0 0 0 0 0 582 0 0 0 0 ecutw
S 600 6 4 0 0 9 601 582 4740 80000c 0 A 0 0 0 0 0 8 0 0 0 0 0 0 620 0 0 0 0 0 0 0 0 0 0 582 0 0 0 0 gcutw
S 601 6 4 0 0 9 602 582 4753 80000c 0 A 0 0 0 0 0 16 0 0 0 0 0 0 620 0 0 0 0 0 0 0 0 0 0 582 0 0 0 0 ecfix
S 602 6 4 0 0 9 603 582 4766 80000c 0 A 0 0 0 0 0 24 0 0 0 0 0 0 620 0 0 0 0 0 0 0 0 0 0 582 0 0 0 0 ecutz
S 603 6 4 0 0 9 606 582 4779 80000c 0 A 0 0 0 0 0 32 0 0 0 0 0 0 620 0 0 0 0 0 0 0 0 0 0 582 0 0 0 0 ecsig
S 604 6 4 0 0 16 1 582 4792 80000c 0 A 0 0 0 0 0 20 0 0 0 0 0 0 619 0 0 0 0 0 0 0 0 0 0 582 0 0 0 0 tecfix
S 606 6 4 0 0 9 607 582 4799 80000c 0 A 0 0 0 0 0 40 0 0 0 0 0 0 620 0 0 0 0 0 0 0 0 0 0 582 0 0 0 0 ekcut
S 607 6 4 0 0 9 1 582 4812 80000c 0 A 0 0 0 0 0 48 0 0 0 0 0 0 620 0 0 0 0 0 0 0 0 0 0 582 0 0 0 0 gkcut
S 608 7 6 0 0 56 1 582 4825 10a00004 59 A 0 0 0 0 0 0 612 0 0 0 614 0 0 0 0 0 0 0 0 611 0 0 613 582 0 0 0 0 ggp
S 609 6 4 0 0 6 1 582 4829 40800006 0 A 0 0 0 0 0 0 0 0 0 0 0 0 621 0 0 0 0 0 0 0 0 0 0 582 0 0 0 0 z_b_0
S 610 3 0 0 0 6 0 1 0 0 0 A 0 0 0 0 0 0 0 0 0 18 0 0 0 0 0 0 0 0 0 0 0 0 0 0 0 0 0 0 6
S 611 8 4 0 0 59 609 582 4835 40822064 1020 A 0 0 0 0 0 0 0 0 0 0 0 0 621 0 0 0 0 0 0 0 0 0 0 582 0 0 0 0 ggp$sd
S 612 6 4 0 0 7 613 582 4842 40802061 1020 A 0 0 0 0 0 72 0 0 0 0 0 0 621 0 0 0 0 0 0 0 0 0 0 582 0 0 0 0 ggp$p
S 613 6 4 0 0 7 611 582 4848 40802060 1020 A 0 0 0 0 0 80 0 0 0 0 0 0 621 0 0 0 0 0 0 0 0 0 0 582 0 0 0 0 ggp$o
S 614 22 1 0 0 9 1 582 4854 40000000 1000 A 0 0 0 0 0 0 0 608 0 0 0 0 611 0 0 0 0 0 0 0 0 0 0 582 0 0 0 0 ggp$arrdsc
S 615 3 0 0 0 6 0 1 0 0 0 A 0 0 0 0 0 0 0 0 0 13 0 0 0 0 0 0 0 0 0 0 0 0 0 0 0 0 0 0 6
S 616 3 0 0 0 6 0 1 0 0 0 A 0 0 0 0 0 0 0 0 0 14 0 0 0 0 0 0 0 0 0 0 0 0 0 0 0 0 0 0 6
S 617 3 0 0 0 6 0 1 0 0 0 A 0 0 0 0 0 0 0 0 0 17 0 0 0 0 0 0 0 0 0 0 0 0 0 0 0 0 0 0 6
S 618 3 0 0 0 6 0 1 0 0 0 A 0 0 0 0 0 0 0 0 0 7 0 0 0 0 0 0 0 0 0 0 0 0 0 0 0 0 0 0 6
S 619 11 0 0 0 9 1 582 4865 40800000 801000 A 0 0 0 0 0 24 0 0 594 604 0 0 0 0 0 0 0 0 0 0 0 0 0 0 0 0 0 0 _gvecw$8
S 620 11 0 0 0 9 619 582 4874 40800000 801000 A 0 0 0 0 0 56 0 0 599 607 0 0 0 0 0 0 0 0 0 0 0 0 0 0 0 0 0 0 _gvecw$10
S 621 11 0 0 0 9 620 582 4884 40800000 801000 A 0 0 0 0 0 92 0 0 612 609 0 0 0 0 0 0 0 0 0 0 0 0 0 0 0 0 0 0 _gvecw$0
S 622 23 5 0 0 0 623 582 4893 0 0 A 0 0 0 0 0 0 0 0 0 0 0 0 0 0 0 0 0 0 0 0 0 0 0 0 0 0 0 0 deallocate_gvecw
S 623 14 5 0 0 0 1 622 4893 0 400000 A 0 0 0 0 0 0 0 4 0 0 0 0 0 0 0 0 0 0 0 0 0 52 0 582 0 0 0 0 deallocate_gvecw
F 623 0
A 13 2 0 0 0 6 585 0 0 0 13 0 0 0 0 0 0 0 0 0
A 33 2 0 0 0 6 610 0 0 0 33 0 0 0 0 0 0 0 0 0
A 34 2 0 0 0 6 615 0 0 0 34 0 0 0 0 0 0 0 0 0
A 35 1 0 1 0 59 611 0 0 0 0 0 0 0 0 0 0 0 0 0
A 36 10 0 0 0 6 35 1 0 0 0 0 0 0 0 0 0 0 0 0
X 1 34
A 37 2 0 0 0 6 616 0 0 0 37 0 0 0 0 0 0 0 0 0
A 38 10 0 0 36 6 35 4 0 0 0 0 0 0 0 0 0 0 0 0
X 1 37
A 39 4 0 0 0 6 38 0 3 0 0 0 0 2 0 0 0 0 0 0
A 40 4 0 0 0 6 36 0 39 0 0 0 0 1 0 0 0 0 0 0
A 41 2 0 0 0 6 617 0 0 0 41 0 0 0 0 0 0 0 0 0
A 42 10 0 0 38 6 35 7 0 0 0 0 0 0 0 0 0 0 0 0
X 1 41
A 43 2 0 0 0 6 618 0 0 0 43 0 0 0 0 0 0 0 0 0
A 44 10 0 0 42 6 35 10 0 0 0 0 0 0 0 0 0 0 0 0
X 1 43
A 45 10 0 0 44 6 35 13 0 0 0 0 0 0 0 0 0 0 0 0
X 1 13
Z
Z
