V26 gvecs
10 recvec.F90 S582 0
04/24/2012  15:51:15
use kinds private
use kinds private
enduse
D 56 21 6 1 34 33 0 1 0 0 1
 25 29 31 25 29 27
D 59 21 6 1 0 22 0 0 0 0 0
 0 22 0 3 22 0
D 62 21 6 1 43 42 0 1 0 0 1
 37 40 41 37 40 38
D 65 21 6 1 0 22 0 0 0 0 0
 0 22 0 3 22 0
S 582 24 0 0 0 9 1 0 4658 10005 0 A 0 0 0 0 0 0 0 0 0 0 0 0 0 0 0 0 0 0 0 0 0 83 0 0 0 0 0 0 gvecs
S 584 23 0 0 0 9 587 582 4670 4 0 A 0 0 0 0 0 0 0 0 0 0 0 0 0 0 0 0 0 0 0 0 0 0 0 582 0 0 0 0 dp
S 585 3 0 0 0 6 1 1 0 0 0 A 0 0 0 0 0 0 0 0 0 8 0 0 0 0 0 0 0 0 0 0 0 0 0 0 0 0 0 0 6
R 587 16 1 kinds dp
S 594 6 4 0 0 6 595 582 4704 80000c 0 A 0 0 0 0 0 0 0 0 0 0 0 0 620 0 0 0 0 0 0 0 0 0 0 582 0 0 0 0 ngs
S 595 6 4 0 0 6 596 582 4708 80000c 0 A 0 0 0 0 0 4 0 0 0 0 0 0 620 0 0 0 0 0 0 0 0 0 0 582 0 0 0 0 ngst
S 596 6 4 0 0 6 597 582 4713 80000c 0 A 0 0 0 0 0 8 0 0 0 0 0 0 620 0 0 0 0 0 0 0 0 0 0 582 0 0 0 0 ngsl
S 597 6 4 0 0 6 618 582 4718 80000c 0 A 0 0 0 0 0 12 0 0 0 0 0 0 620 0 0 0 0 0 0 0 0 0 0 582 0 0 0 0 ngsx
S 598 7 6 0 0 56 1 582 4723 10a00004 51 A 0 0 0 0 0 0 602 0 0 0 604 0 0 0 0 0 0 0 0 601 0 0 603 582 0 0 0 0 nps
S 599 6 4 0 0 6 610 582 4727 40800006 0 A 0 0 0 0 0 0 0 0 0 0 0 0 621 0 0 0 0 0 0 0 0 0 0 582 0 0 0 0 z_b_0
S 600 3 0 0 0 6 0 1 0 0 0 A 0 0 0 0 0 0 0 0 0 18 0 0 0 0 0 0 0 0 0 0 0 0 0 0 0 0 0 0 6
S 601 8 4 0 0 59 612 582 4733 40822064 1020 A 0 0 0 0 0 0 0 0 0 0 0 0 621 0 0 0 0 0 0 0 0 0 0 582 0 0 0 0 nps$sd
S 602 6 4 0 0 7 603 582 4740 40802061 1020 A 0 0 0 0 0 72 0 0 0 0 0 0 621 0 0 0 0 0 0 0 0 0 0 582 0 0 0 0 nps$p
S 603 6 4 0 0 7 601 582 4746 40802060 1020 A 0 0 0 0 0 80 0 0 0 0 0 0 621 0 0 0 0 0 0 0 0 0 0 582 0 0 0 0 nps$o
S 604 22 1 0 0 6 1 582 4752 40000000 1000 A 0 0 0 0 0 0 0 598 0 0 0 0 601 0 0 0 0 0 0 0 0 0 0 582 0 0 0 0 nps$arrdsc
S 605 3 0 0 0 6 0 1 0 0 0 A 0 0 0 0 0 0 0 0 0 13 0 0 0 0 0 0 0 0 0 0 0 0 0 0 0 0 0 0 6
S 606 3 0 0 0 6 0 1 0 0 0 A 0 0 0 0 0 0 0 0 0 14 0 0 0 0 0 0 0 0 0 0 0 0 0 0 0 0 0 0 6
S 607 3 0 0 0 6 0 1 0 0 0 A 0 0 0 0 0 0 0 0 0 17 0 0 0 0 0 0 0 0 0 0 0 0 0 0 0 0 0 0 6
S 608 3 0 0 0 6 0 1 0 0 0 A 0 0 0 0 0 0 0 0 0 7 0 0 0 0 0 0 0 0 0 0 0 0 0 0 0 0 0 0 6
S 609 7 6 0 0 62 1 582 4763 10a00004 51 A 0 0 0 0 0 0 612 0 0 0 614 0 0 0 0 0 0 0 0 611 0 0 613 582 0 0 0 0 nms
S 610 6 4 0 0 6 1 582 4767 40800006 0 A 0 0 0 0 0 4 0 0 0 0 0 0 621 0 0 0 0 0 0 0 0 0 0 582 0 0 0 0 z_b_1
S 611 8 4 0 0 65 599 582 4773 40822064 1020 A 0 0 0 0 0 88 0 0 0 0 0 0 621 0 0 0 0 0 0 0 0 0 0 582 0 0 0 0 nms$sd
S 612 6 4 0 0 7 613 582 4780 40802061 1020 A 0 0 0 0 0 160 0 0 0 0 0 0 621 0 0 0 0 0 0 0 0 0 0 582 0 0 0 0 nms$p
S 613 6 4 0 0 7 611 582 4786 40802060 1020 A 0 0 0 0 0 168 0 0 0 0 0 0 621 0 0 0 0 0 0 0 0 0 0 582 0 0 0 0 nms$o
S 614 22 1 0 0 6 1 582 4792 40000000 1000 A 0 0 0 0 0 0 0 609 0 0 0 0 611 0 0 0 0 0 0 0 0 0 0 582 0 0 0 0 nms$arrdsc
S 615 6 4 0 0 9 616 582 4803 80000c 0 A 0 0 0 0 0 0 0 0 0 0 0 0 622 0 0 0 0 0 0 0 0 0 0 582 0 0 0 0 ecuts
S 616 6 4 0 0 9 617 582 4816 80000c 0 A 0 0 0 0 0 8 0 0 0 0 0 0 622 0 0 0 0 0 0 0 0 0 0 582 0 0 0 0 gcuts
S 617 6 4 0 0 9 1 582 4829 80000c 0 A 0 0 0 0 0 16 0 0 0 0 0 0 622 0 0 0 0 0 0 0 0 0 0 582 0 0 0 0 dual
S 618 6 4 0 0 16 1 582 4841 80000c 0 A 0 0 0 0 0 16 0 0 0 0 0 0 620 0 0 0 0 0 0 0 0 0 0 582 0 0 0 0 doublegrid
S 620 11 0 0 0 9 1 582 4852 40800000 801000 A 0 0 0 0 0 20 0 0 594 618 0 0 0 0 0 0 0 0 0 0 0 0 0 0 0 0 0 0 _gvecs$8
S 621 11 0 0 0 9 620 582 4861 40800000 801000 A 0 0 0 0 0 184 0 0 602 610 0 0 0 0 0 0 0 0 0 0 0 0 0 0 0 0 0 0 _gvecs$0
S 622 11 0 0 0 9 621 582 4870 40800000 801000 A 0 0 0 0 0 24 0 0 615 617 0 0 0 0 0 0 0 0 0 0 0 0 0 0 0 0 0 0 _gvecs$10
S 623 23 5 0 0 0 624 582 4880 0 0 A 0 0 0 0 0 0 0 0 0 0 0 0 0 0 0 0 0 0 0 0 0 0 0 0 0 0 0 0 deallocate_gvecs
S 624 14 5 0 0 0 1 623 4880 0 400000 A 0 0 0 0 0 0 0 4 0 0 0 0 0 0 0 0 0 0 0 0 0 107 0 582 0 0 0 0 deallocate_gvecs
F 624 0
A 13 2 0 0 0 6 585 0 0 0 13 0 0 0 0 0 0 0 0 0
A 22 2 0 0 0 6 600 0 0 0 22 0 0 0 0 0 0 0 0 0
A 23 2 0 0 0 6 605 0 0 0 23 0 0 0 0 0 0 0 0 0
A 24 1 0 1 0 59 601 0 0 0 0 0 0 0 0 0 0 0 0 0
A 25 10 0 0 0 6 24 1 0 0 0 0 0 0 0 0 0 0 0 0
X 1 23
A 26 2 0 0 0 6 606 0 0 0 26 0 0 0 0 0 0 0 0 0
A 27 10 0 0 25 6 24 4 0 0 0 0 0 0 0 0 0 0 0 0
X 1 26
A 28 4 0 0 0 6 27 0 3 0 0 0 0 2 0 0 0 0 0 0
A 29 4 0 0 0 6 25 0 28 0 0 0 0 1 0 0 0 0 0 0
A 30 2 0 0 0 6 607 0 0 0 30 0 0 0 0 0 0 0 0 0
A 31 10 0 0 27 6 24 7 0 0 0 0 0 0 0 0 0 0 0 0
X 1 30
A 32 2 0 0 0 6 608 0 0 0 32 0 0 0 0 0 0 0 0 0
A 33 10 0 0 31 6 24 10 0 0 0 0 0 0 0 0 0 0 0 0
X 1 32
A 34 10 0 0 33 6 24 13 0 0 0 0 0 0 0 0 0 0 0 0
X 1 13
A 36 1 0 1 0 65 611 0 0 0 0 0 0 0 0 0 0 0 0 0
A 37 10 0 0 0 6 36 1 0 0 0 0 0 0 0 0 0 0 0 0
X 1 23
A 38 10 0 0 37 6 36 4 0 0 0 0 0 0 0 0 0 0 0 0
X 1 26
A 39 4 0 0 0 6 38 0 3 0 0 0 0 2 0 0 0 0 0 0
A 40 4 0 0 0 6 37 0 39 0 0 0 0 1 0 0 0 0 0 0
A 41 10 0 0 38 6 36 7 0 0 0 0 0 0 0 0 0 0 0 0
X 1 30
A 42 10 0 0 41 6 36 10 0 0 0 0 0 0 0 0 0 0 0 0
X 1 32
A 43 10 0 0 42 6 36 13 0 0 0 0 0 0 0 0 0 0 0 0
X 1 13
Z
Z
