V26 gvecb
10 recvec.F90 S582 0
04/24/2012  15:51:15
use kinds private
use kinds private
enduse
D 56 21 9 1 34 33 0 1 0 0 1
 25 29 31 25 29 27
D 59 21 6 1 0 22 0 0 0 0 0
 0 22 0 3 22 0
D 62 21 9 2 53 52 0 1 0 0 1
 39 42 49 39 42 40
 44 48 51 44 48 46
D 65 21 6 1 0 37 0 0 0 0 0
 0 37 0 3 37 0
D 68 21 9 1 62 61 0 1 0 0 1
 56 59 60 56 59 57
D 71 21 6 1 0 22 0 0 0 0 0
 0 22 0 3 22 0
D 74 21 6 1 71 70 0 1 0 0 1
 65 68 69 65 68 66
D 77 21 6 1 0 22 0 0 0 0 0
 0 22 0 3 22 0
D 80 21 6 1 80 79 0 1 0 0 1
 74 77 78 74 77 75
D 83 21 6 1 0 22 0 0 0 0 0
 0 22 0 3 22 0
D 86 21 6 1 89 88 0 1 0 0 1
 83 86 87 83 86 84
D 89 21 6 1 0 22 0 0 0 0 0
 0 22 0 3 22 0
D 92 21 6 2 104 103 0 1 0 0 1
 93 96 101 93 96 94
 97 100 102 97 100 98
D 95 21 6 1 0 37 0 0 0 0 0
 0 37 0 3 37 0
S 582 24 0 0 0 9 1 0 4658 10005 0 A 0 0 0 0 0 0 0 0 0 0 0 0 0 0 0 0 0 0 0 0 0 117 0 0 0 0 0 0 gvecb
S 584 23 0 0 0 9 587 582 4670 4 0 A 0 0 0 0 0 0 0 0 0 0 0 0 0 0 0 0 0 0 0 0 0 0 0 582 0 0 0 0 dp
S 585 3 0 0 0 6 1 1 0 0 0 A 0 0 0 0 0 0 0 0 0 8 0 0 0 0 0 0 0 0 0 0 0 0 0 0 0 0 0 0 6
R 587 16 1 kinds dp
S 594 6 4 0 0 6 595 582 4704 80000c 0 A 0 0 0 0 0 0 0 0 0 0 0 0 653 0 0 0 0 0 0 0 0 0 0 582 0 0 0 0 ngb
S 595 6 4 0 0 6 596 582 4708 80000c 0 A 0 0 0 0 0 4 0 0 0 0 0 0 653 0 0 0 0 0 0 0 0 0 0 582 0 0 0 0 ngbt
S 596 6 4 0 0 6 597 582 4713 80000c 0 A 0 0 0 0 0 8 0 0 0 0 0 0 653 0 0 0 0 0 0 0 0 0 0 582 0 0 0 0 ngbl
S 597 6 4 0 0 6 1 582 4718 80000c 0 A 0 0 0 0 0 12 0 0 0 0 0 0 653 0 0 0 0 0 0 0 0 0 0 582 0 0 0 0 ngbx
S 598 7 6 0 0 56 1 582 4723 10a00004 51 A 0 0 0 0 0 0 602 0 0 0 604 0 0 0 0 0 0 0 0 601 0 0 603 582 0 0 0 0 gb
S 599 6 4 0 0 6 610 582 4726 40800006 0 A 0 0 0 0 0 0 0 0 0 0 0 0 654 0 0 0 0 0 0 0 0 0 0 582 0 0 0 0 z_b_0
S 600 3 0 0 0 6 0 1 0 0 0 A 0 0 0 0 0 0 0 0 0 18 0 0 0 0 0 0 0 0 0 0 0 0 0 0 0 0 0 0 6
S 601 8 4 0 0 59 614 582 4732 40822064 1020 A 0 0 0 0 0 0 0 0 0 0 0 0 654 0 0 0 0 0 0 0 0 0 0 582 0 0 0 0 gb$sd
S 602 6 4 0 0 7 603 582 4738 40802061 1020 A 0 0 0 0 0 72 0 0 0 0 0 0 654 0 0 0 0 0 0 0 0 0 0 582 0 0 0 0 gb$p
S 603 6 4 0 0 7 601 582 4743 40802060 1020 A 0 0 0 0 0 80 0 0 0 0 0 0 654 0 0 0 0 0 0 0 0 0 0 582 0 0 0 0 gb$o
S 604 22 1 0 0 9 1 582 4748 40000000 1000 A 0 0 0 0 0 0 0 598 0 0 0 0 601 0 0 0 0 0 0 0 0 0 0 582 0 0 0 0 gb$arrdsc
S 605 3 0 0 0 6 0 1 0 0 0 A 0 0 0 0 0 0 0 0 0 13 0 0 0 0 0 0 0 0 0 0 0 0 0 0 0 0 0 0 6
S 606 3 0 0 0 6 0 1 0 0 0 A 0 0 0 0 0 0 0 0 0 14 0 0 0 0 0 0 0 0 0 0 0 0 0 0 0 0 0 0 6
S 607 3 0 0 0 6 0 1 0 0 0 A 0 0 0 0 0 0 0 0 0 17 0 0 0 0 0 0 0 0 0 0 0 0 0 0 0 0 0 0 6
S 608 3 0 0 0 6 0 1 0 0 0 A 0 0 0 0 0 0 0 0 0 7 0 0 0 0 0 0 0 0 0 0 0 0 0 0 0 0 0 0 6
S 609 7 6 0 0 62 1 582 4758 10a00004 51 A 0 0 0 0 0 0 614 0 0 0 616 0 0 0 0 0 0 0 0 613 0 0 615 582 0 0 0 0 gxb
S 610 6 4 0 0 6 611 582 4762 40800006 0 A 0 0 0 0 0 4 0 0 0 0 0 0 654 0 0 0 0 0 0 0 0 0 0 582 0 0 0 0 z_b_1
S 611 6 4 0 0 6 621 582 4768 40800006 0 A 0 0 0 0 0 8 0 0 0 0 0 0 654 0 0 0 0 0 0 0 0 0 0 582 0 0 0 0 z_b_2
S 612 3 0 0 0 6 0 1 0 0 0 A 0 0 0 0 0 0 0 0 0 24 0 0 0 0 0 0 0 0 0 0 0 0 0 0 0 0 0 0 6
S 613 8 4 0 0 65 623 582 4774 40822064 1020 A 0 0 0 0 0 88 0 0 0 0 0 0 654 0 0 0 0 0 0 0 0 0 0 582 0 0 0 0 gxb$sd
S 614 6 4 0 0 7 615 582 4781 40802061 1020 A 0 0 0 0 0 184 0 0 0 0 0 0 654 0 0 0 0 0 0 0 0 0 0 582 0 0 0 0 gxb$p
S 615 6 4 0 0 7 613 582 4787 40802060 1020 A 0 0 0 0 0 192 0 0 0 0 0 0 654 0 0 0 0 0 0 0 0 0 0 582 0 0 0 0 gxb$o
S 616 22 1 0 0 9 1 582 4793 40000000 1000 A 0 0 0 0 0 0 0 609 0 0 0 0 613 0 0 0 0 0 0 0 0 0 0 582 0 0 0 0 gxb$arrdsc
S 617 3 0 0 0 6 0 1 0 0 0 A 0 0 0 0 0 0 0 0 0 19 0 0 0 0 0 0 0 0 0 0 0 0 0 0 0 0 0 0 6
S 618 3 0 0 0 6 0 1 0 0 0 A 0 0 0 0 0 0 0 0 0 20 0 0 0 0 0 0 0 0 0 0 0 0 0 0 0 0 0 0 6
S 619 3 0 0 0 6 0 1 0 0 0 A 0 0 0 0 0 0 0 0 0 23 0 0 0 0 0 0 0 0 0 0 0 0 0 0 0 0 0 0 6
S 620 7 6 0 0 68 1 582 4804 10a00004 51 A 0 0 0 0 0 0 623 0 0 0 625 0 0 0 0 0 0 0 0 622 0 0 624 582 0 0 0 0 glb
S 621 6 4 0 0 6 627 582 4808 40800006 0 A 0 0 0 0 0 12 0 0 0 0 0 0 654 0 0 0 0 0 0 0 0 0 0 582 0 0 0 0 z_b_3
S 622 8 4 0 0 71 629 582 4814 40822064 1020 A 0 0 0 0 0 200 0 0 0 0 0 0 654 0 0 0 0 0 0 0 0 0 0 582 0 0 0 0 glb$sd
S 623 6 4 0 0 7 624 582 4821 40802061 1020 A 0 0 0 0 0 272 0 0 0 0 0 0 654 0 0 0 0 0 0 0 0 0 0 582 0 0 0 0 glb$p
S 624 6 4 0 0 7 622 582 4827 40802060 1020 A 0 0 0 0 0 280 0 0 0 0 0 0 654 0 0 0 0 0 0 0 0 0 0 582 0 0 0 0 glb$o
S 625 22 1 0 0 9 1 582 4833 40000000 1000 A 0 0 0 0 0 0 0 620 0 0 0 0 622 0 0 0 0 0 0 0 0 0 0 582 0 0 0 0 glb$arrdsc
S 626 7 6 0 0 74 1 582 4844 10a00004 51 A 0 0 0 0 0 0 629 0 0 0 631 0 0 0 0 0 0 0 0 628 0 0 630 582 0 0 0 0 npb
S 627 6 4 0 0 6 633 582 4848 40800006 0 A 0 0 0 0 0 16 0 0 0 0 0 0 654 0 0 0 0 0 0 0 0 0 0 582 0 0 0 0 z_b_4
S 628 8 4 0 0 77 635 582 4854 40822064 1020 A 0 0 0 0 0 288 0 0 0 0 0 0 654 0 0 0 0 0 0 0 0 0 0 582 0 0 0 0 npb$sd
S 629 6 4 0 0 7 630 582 4861 40802061 1020 A 0 0 0 0 0 360 0 0 0 0 0 0 654 0 0 0 0 0 0 0 0 0 0 582 0 0 0 0 npb$p
S 630 6 4 0 0 7 628 582 4867 40802060 1020 A 0 0 0 0 0 368 0 0 0 0 0 0 654 0 0 0 0 0 0 0 0 0 0 582 0 0 0 0 npb$o
S 631 22 1 0 0 6 1 582 4873 40000000 1000 A 0 0 0 0 0 0 0 626 0 0 0 0 628 0 0 0 0 0 0 0 0 0 0 582 0 0 0 0 npb$arrdsc
S 632 7 6 0 0 80 1 582 4884 10a00004 51 A 0 0 0 0 0 0 635 0 0 0 637 0 0 0 0 0 0 0 0 634 0 0 636 582 0 0 0 0 nmb
S 633 6 4 0 0 6 639 582 4888 40800006 0 A 0 0 0 0 0 20 0 0 0 0 0 0 654 0 0 0 0 0 0 0 0 0 0 582 0 0 0 0 z_b_5
S 634 8 4 0 0 83 641 582 4894 40822064 1020 A 0 0 0 0 0 376 0 0 0 0 0 0 654 0 0 0 0 0 0 0 0 0 0 582 0 0 0 0 nmb$sd
S 635 6 4 0 0 7 636 582 4901 40802061 1020 A 0 0 0 0 0 448 0 0 0 0 0 0 654 0 0 0 0 0 0 0 0 0 0 582 0 0 0 0 nmb$p
S 636 6 4 0 0 7 634 582 4907 40802060 1020 A 0 0 0 0 0 456 0 0 0 0 0 0 654 0 0 0 0 0 0 0 0 0 0 582 0 0 0 0 nmb$o
S 637 22 1 0 0 6 1 582 4913 40000000 1000 A 0 0 0 0 0 0 0 632 0 0 0 0 634 0 0 0 0 0 0 0 0 0 0 582 0 0 0 0 nmb$arrdsc
S 638 7 6 0 0 86 1 582 4924 10a00004 51 A 0 0 0 0 0 0 641 0 0 0 643 0 0 0 0 0 0 0 0 640 0 0 642 582 0 0 0 0 iglb
S 639 6 4 0 0 6 645 582 4929 40800006 0 A 0 0 0 0 0 24 0 0 0 0 0 0 654 0 0 0 0 0 0 0 0 0 0 582 0 0 0 0 z_b_6
S 640 8 4 0 0 89 648 582 4935 40822064 1020 A 0 0 0 0 0 464 0 0 0 0 0 0 654 0 0 0 0 0 0 0 0 0 0 582 0 0 0 0 iglb$sd
S 641 6 4 0 0 7 642 582 4943 40802061 1020 A 0 0 0 0 0 536 0 0 0 0 0 0 654 0 0 0 0 0 0 0 0 0 0 582 0 0 0 0 iglb$p
S 642 6 4 0 0 7 640 582 4950 40802060 1020 A 0 0 0 0 0 544 0 0 0 0 0 0 654 0 0 0 0 0 0 0 0 0 0 582 0 0 0 0 iglb$o
S 643 22 1 0 0 6 1 582 4957 40000000 1000 A 0 0 0 0 0 0 0 638 0 0 0 0 640 0 0 0 0 0 0 0 0 0 0 582 0 0 0 0 iglb$arrdsc
S 644 7 6 0 0 92 1 582 4969 10a00004 51 A 0 0 0 0 0 0 648 0 0 0 650 0 0 0 0 0 0 0 0 647 0 0 649 582 0 0 0 0 mill_b
S 645 6 4 0 0 6 646 582 4976 40800006 0 A 0 0 0 0 0 28 0 0 0 0 0 0 654 0 0 0 0 0 0 0 0 0 0 582 0 0 0 0 z_b_7
S 646 6 4 0 0 6 1 582 4982 40800006 0 A 0 0 0 0 0 32 0 0 0 0 0 0 654 0 0 0 0 0 0 0 0 0 0 582 0 0 0 0 z_b_8
S 647 8 4 0 0 95 599 582 4988 40822064 1020 A 0 0 0 0 0 552 0 0 0 0 0 0 654 0 0 0 0 0 0 0 0 0 0 582 0 0 0 0 mill_b$sd
S 648 6 4 0 0 7 649 582 4998 40802061 1020 A 0 0 0 0 0 648 0 0 0 0 0 0 654 0 0 0 0 0 0 0 0 0 0 582 0 0 0 0 mill_b$p
S 649 6 4 0 0 7 647 582 5007 40802060 1020 A 0 0 0 0 0 656 0 0 0 0 0 0 654 0 0 0 0 0 0 0 0 0 0 582 0 0 0 0 mill_b$o
S 650 22 1 0 0 6 1 582 5016 40000000 1000 A 0 0 0 0 0 0 0 644 0 0 0 0 647 0 0 0 0 0 0 0 0 0 0 582 0 0 0 0 mill_b$arrdsc
S 651 6 4 0 0 9 652 582 5030 80000c 0 A 0 0 0 0 0 0 0 0 0 0 0 0 655 0 0 0 0 0 0 0 0 0 0 582 0 0 0 0 ecutb
S 652 6 4 0 0 9 1 582 5043 80000c 0 A 0 0 0 0 0 8 0 0 0 0 0 0 655 0 0 0 0 0 0 0 0 0 0 582 0 0 0 0 gcutb
S 653 11 0 0 0 9 1 582 5056 40800000 801000 A 0 0 0 0 0 16 0 0 594 597 0 0 0 0 0 0 0 0 0 0 0 0 0 0 0 0 0 0 _gvecb$8
S 654 11 0 0 0 9 653 582 5065 40800000 801000 A 0 0 0 0 0 700 0 0 602 646 0 0 0 0 0 0 0 0 0 0 0 0 0 0 0 0 0 0 _gvecb$0
S 655 11 0 0 0 9 654 582 5074 40800000 801000 A 0 0 0 0 0 16 0 0 651 652 0 0 0 0 0 0 0 0 0 0 0 0 0 0 0 0 0 0 _gvecb$10
S 656 23 5 0 0 0 659 582 5084 0 0 A 0 0 0 0 0 0 0 0 0 0 0 0 0 0 0 0 0 0 0 0 0 0 0 0 0 0 0 0 gvecb_set
S 657 1 3 1 0 9 1 656 5094 4 3000 A 0 0 0 0 0 0 0 0 0 0 0 0 0 0 0 0 0 0 0 0 0 0 0 0 0 0 0 0 ecut
S 658 1 3 1 0 9 1 656 5099 4 3000 A 0 0 0 0 0 0 0 0 0 0 0 0 0 0 0 0 0 0 0 0 0 0 0 0 0 0 0 0 tpibab
S 659 14 5 0 0 0 1 656 5084 0 400000 A 0 0 0 0 0 0 0 4 2 0 0 0 0 0 0 0 0 0 0 0 0 140 0 582 0 0 0 0 gvecb_set
F 659 2 657 658
S 660 23 5 0 0 0 661 582 5106 0 0 A 0 0 0 0 0 0 0 0 0 0 0 0 0 0 0 0 0 0 0 0 0 0 0 0 0 0 0 0 deallocate_gvecb
S 661 14 5 0 0 0 1 660 5106 0 400000 A 0 0 0 0 0 0 0 7 0 0 0 0 0 0 0 0 0 0 0 0 0 148 0 582 0 0 0 0 deallocate_gvecb
F 661 0
A 13 2 0 0 0 6 585 0 0 0 13 0 0 0 0 0 0 0 0 0
A 22 2 0 0 0 6 600 0 0 0 22 0 0 0 0 0 0 0 0 0
A 23 2 0 0 0 6 605 0 0 0 23 0 0 0 0 0 0 0 0 0
A 24 1 0 1 0 59 601 0 0 0 0 0 0 0 0 0 0 0 0 0
A 25 10 0 0 0 6 24 1 0 0 0 0 0 0 0 0 0 0 0 0
X 1 23
A 26 2 0 0 0 6 606 0 0 0 26 0 0 0 0 0 0 0 0 0
A 27 10 0 0 25 6 24 4 0 0 0 0 0 0 0 0 0 0 0 0
X 1 26
A 28 4 0 0 0 6 27 0 3 0 0 0 0 2 0 0 0 0 0 0
A 29 4 0 0 0 6 25 0 28 0 0 0 0 1 0 0 0 0 0 0
A 30 2 0 0 0 6 607 0 0 0 30 0 0 0 0 0 0 0 0 0
A 31 10 0 0 27 6 24 7 0 0 0 0 0 0 0 0 0 0 0 0
X 1 30
A 32 2 0 0 0 6 608 0 0 0 32 0 0 0 0 0 0 0 0 0
A 33 10 0 0 31 6 24 10 0 0 0 0 0 0 0 0 0 0 0 0
X 1 32
A 34 10 0 0 33 6 24 13 0 0 0 0 0 0 0 0 0 0 0 0
X 1 13
A 37 2 0 0 0 6 612 0 0 0 37 0 0 0 0 0 0 0 0 0
A 38 1 0 3 0 65 613 0 0 0 0 0 0 0 0 0 0 0 0 0
A 39 10 0 0 0 6 38 1 0 0 0 0 0 0 0 0 0 0 0 0
X 1 23
A 40 10 0 0 39 6 38 4 0 0 0 0 0 0 0 0 0 0 0 0
X 1 26
A 41 4 0 0 0 6 40 0 3 0 0 0 0 2 0 0 0 0 0 0
A 42 4 0 0 0 6 39 0 41 0 0 0 0 1 0 0 0 0 0 0
A 43 2 0 0 0 6 617 0 0 0 43 0 0 0 0 0 0 0 0 0
A 44 10 0 0 40 6 38 16 0 0 0 0 0 0 0 0 0 0 0 0
X 1 43
A 45 2 0 0 0 6 618 0 0 0 45 0 0 0 0 0 0 0 0 0
A 46 10 0 0 44 6 38 19 0 0 0 0 0 0 0 0 0 0 0 0
X 1 45
A 47 4 0 0 0 6 46 0 3 0 0 0 0 2 0 0 0 0 0 0
A 48 4 0 0 0 6 44 0 47 0 0 0 0 1 0 0 0 0 0 0
A 49 10 0 0 46 6 38 7 0 0 0 0 0 0 0 0 0 0 0 0
X 1 30
A 50 2 0 0 0 6 619 0 0 0 50 0 0 0 0 0 0 0 0 0
A 51 10 0 0 49 6 38 22 0 0 0 0 0 0 0 0 0 0 0 0
X 1 50
A 52 10 0 0 51 6 38 10 0 0 0 0 0 0 0 0 0 0 0 0
X 1 32
A 53 10 0 0 52 6 38 13 0 0 0 0 0 0 0 0 0 0 0 0
X 1 13
A 55 1 0 1 0 71 622 0 0 0 0 0 0 0 0 0 0 0 0 0
A 56 10 0 0 0 6 55 1 0 0 0 0 0 0 0 0 0 0 0 0
X 1 23
A 57 10 0 0 56 6 55 4 0 0 0 0 0 0 0 0 0 0 0 0
X 1 26
A 58 4 0 0 0 6 57 0 3 0 0 0 0 2 0 0 0 0 0 0
A 59 4 0 0 0 6 56 0 58 0 0 0 0 1 0 0 0 0 0 0
A 60 10 0 0 57 6 55 7 0 0 0 0 0 0 0 0 0 0 0 0
X 1 30
A 61 10 0 0 60 6 55 10 0 0 0 0 0 0 0 0 0 0 0 0
X 1 32
A 62 10 0 0 61 6 55 13 0 0 0 0 0 0 0 0 0 0 0 0
X 1 13
A 64 1 0 1 0 77 628 0 0 0 0 0 0 0 0 0 0 0 0 0
A 65 10 0 0 0 6 64 1 0 0 0 0 0 0 0 0 0 0 0 0
X 1 23
A 66 10 0 0 65 6 64 4 0 0 0 0 0 0 0 0 0 0 0 0
X 1 26
A 67 4 0 0 0 6 66 0 3 0 0 0 0 2 0 0 0 0 0 0
A 68 4 0 0 0 6 65 0 67 0 0 0 0 1 0 0 0 0 0 0
A 69 10 0 0 66 6 64 7 0 0 0 0 0 0 0 0 0 0 0 0
X 1 30
A 70 10 0 0 69 6 64 10 0 0 0 0 0 0 0 0 0 0 0 0
X 1 32
A 71 10 0 0 70 6 64 13 0 0 0 0 0 0 0 0 0 0 0 0
X 1 13
A 73 1 0 1 0 83 634 0 0 0 0 0 0 0 0 0 0 0 0 0
A 74 10 0 0 0 6 73 1 0 0 0 0 0 0 0 0 0 0 0 0
X 1 23
A 75 10 0 0 74 6 73 4 0 0 0 0 0 0 0 0 0 0 0 0
X 1 26
A 76 4 0 0 0 6 75 0 3 0 0 0 0 2 0 0 0 0 0 0
A 77 4 0 0 0 6 74 0 76 0 0 0 0 1 0 0 0 0 0 0
A 78 10 0 0 75 6 73 7 0 0 0 0 0 0 0 0 0 0 0 0
X 1 30
A 79 10 0 0 78 6 73 10 0 0 0 0 0 0 0 0 0 0 0 0
X 1 32
A 80 10 0 0 79 6 73 13 0 0 0 0 0 0 0 0 0 0 0 0
X 1 13
A 82 1 0 1 0 89 640 0 0 0 0 0 0 0 0 0 0 0 0 0
A 83 10 0 0 12 6 82 1 0 0 0 0 0 0 0 0 0 0 0 0
X 1 23
A 84 10 0 0 83 6 82 4 0 0 0 0 0 0 0 0 0 0 0 0
X 1 26
A 85 4 0 0 0 6 84 0 3 0 0 0 0 2 0 0 0 0 0 0
A 86 4 0 0 0 6 83 0 85 0 0 0 0 1 0 0 0 0 0 0
A 87 10 0 0 84 6 82 7 0 0 0 0 0 0 0 0 0 0 0 0
X 1 30
A 88 10 0 0 87 6 82 10 0 0 0 0 0 0 0 0 0 0 0 0
X 1 32
A 89 10 0 0 88 6 82 13 0 0 0 0 0 0 0 0 0 0 0 0
X 1 13
A 92 1 0 3 0 95 647 0 0 0 0 0 0 0 0 0 0 0 0 0
A 93 10 0 0 20 6 92 1 0 0 0 0 0 0 0 0 0 0 0 0
X 1 23
A 94 10 0 0 93 6 92 4 0 0 0 0 0 0 0 0 0 0 0 0
X 1 26
A 95 4 0 0 0 6 94 0 3 0 0 0 0 2 0 0 0 0 0 0
A 96 4 0 0 0 6 93 0 95 0 0 0 0 1 0 0 0 0 0 0
A 97 10 0 0 94 6 92 16 0 0 0 0 0 0 0 0 0 0 0 0
X 1 43
A 98 10 0 0 97 6 92 19 0 0 0 0 0 0 0 0 0 0 0 0
X 1 45
A 99 4 0 0 0 6 98 0 3 0 0 0 0 2 0 0 0 0 0 0
A 100 4 0 0 63 6 97 0 99 0 0 0 0 1 0 0 0 0 0 0
A 101 10 0 0 98 6 92 7 0 0 0 0 0 0 0 0 0 0 0 0
X 1 30
A 102 10 0 0 101 6 92 22 0 0 0 0 0 0 0 0 0 0 0 0
X 1 50
A 103 10 0 0 102 6 92 10 0 0 0 0 0 0 0 0 0 0 0 0
X 1 32
A 104 10 0 0 103 6 92 13 0 0 0 0 0 0 0 0 0 0 0 0
X 1 13
Z
Z
