V26 input_parameters
20 input_parameters.F90 S582 0
04/24/2012  15:51:03
use parameters private
use kinds private
use parameters private
use kinds private
enduse
D 56 18 34
D 60 21 56 1 3 39 0 0 0 0 0
 0 39 3 3 39 39
D 63 18 23
D 75 21 56 1 3 40 0 0 0 0 0
 0 40 3 3 40 40
D 80 21 56 1 3 23 0 0 0 0 0
 0 23 3 3 23 23
D 87 18 85
D 91 21 9 1 3 41 0 0 0 0 0
 0 41 3 3 41 41
D 94 21 9 1 3 18 0 0 0 0 0
 0 18 3 3 18 18
D 97 21 9 3 159 158 0 0 0 0 0
 0 25 3 3 25 25
 0 30 25 3 30 30
 0 18 70 3 18 18
D 100 21 9 1 3 18 0 0 0 0 0
 0 18 3 3 18 18
D 103 21 9 1 3 18 0 0 0 0 0
 0 18 3 3 18 18
D 106 21 9 1 3 23 0 0 0 0 0
 0 23 3 3 23 23
D 109 21 9 1 3 18 0 0 0 0 0
 0 18 3 3 18 18
D 112 21 9 1 3 18 0 0 0 0 0
 0 18 3 3 18 18
D 115 21 9 1 3 23 0 0 0 0 0
 0 23 3 3 23 23
D 118 21 56 1 3 41 0 0 0 0 0
 0 41 3 3 41 41
D 121 21 6 1 3 23 0 0 0 0 0
 0 23 3 3 23 23
D 124 21 9 1 3 23 0 0 0 0 0
 0 23 3 3 23 23
D 129 21 56 1 3 30 0 0 0 0 0
 0 30 3 3 30 30
D 132 21 56 1 3 13 0 0 0 0 0
 0 13 3 3 13 13
D 135 21 9 1 3 18 0 0 0 0 0
 0 18 3 3 18 18
D 138 21 9 1 3 15 0 0 0 0 0
 0 15 3 3 15 15
D 141 21 6 1 3 18 0 0 0 0 0
 0 18 3 3 18 18
D 144 21 9 1 3 18 0 0 0 0 0
 0 18 3 3 18 18
D 147 21 16 1 3 18 0 0 0 0 0
 0 18 3 3 18 18
D 150 21 9 1 3 18 0 0 0 0 0
 0 18 3 3 18 18
D 153 21 56 1 3 23 0 0 0 0 0
 0 23 3 3 23 23
D 156 21 56 1 3 15 0 0 0 0 0
 0 15 3 3 15 15
D 159 21 9 1 3 33 0 0 0 0 0
 0 33 3 3 33 33
D 162 21 56 1 3 25 0 0 0 0 0
 0 25 3 3 25 25
D 165 21 16 1 3 18 0 0 0 0 0
 0 18 3 3 18 18
D 168 21 9 1 3 18 0 0 0 0 0
 0 18 3 3 18 18
D 171 21 9 1 3 23 0 0 0 0 0
 0 23 3 3 23 23
D 174 21 63 1 3 18 0 0 0 0 0
 0 18 3 3 18 18
D 177 21 56 1 3 18 0 0 0 0 0
 0 18 3 3 18 18
D 180 21 9 1 3 18 0 0 0 0 0
 0 18 3 3 18 18
D 183 21 9 2 419 418 0 1 0 0 1
 406 409 415 406 409 407
 411 414 417 411 414 412
D 186 21 6 1 0 403 0 0 0 0 0
 0 403 0 3 403 0
D 189 21 6 1 429 428 0 1 0 0 1
 423 426 427 423 426 424
D 192 21 6 1 0 421 0 0 0 0 0
 0 421 0 3 421 0
D 195 21 6 2 444 443 0 1 0 0 1
 433 436 441 433 436 434
 437 440 442 437 440 438
D 198 21 6 1 0 403 0 0 0 0 0
 0 403 0 3 403 0
D 201 21 6 1 453 452 0 1 0 0 1
 447 450 451 447 450 448
D 204 21 6 1 0 421 0 0 0 0 0
 0 421 0 3 421 0
D 207 21 6 1 462 461 0 1 0 0 1
 456 459 460 456 459 457
D 210 21 6 1 0 421 0 0 0 0 0
 0 421 0 3 421 0
D 213 21 9 2 480 479 0 1 0 0 1
 469 472 477 469 472 470
 473 476 478 473 476 474
D 216 21 6 1 0 403 0 0 0 0 0
 0 403 0 3 403 0
D 219 21 9 2 495 494 0 1 0 0 1
 484 487 492 484 487 485
 488 491 493 488 491 489
D 222 21 6 1 0 403 0 0 0 0 0
 0 403 0 3 403 0
D 225 21 6 1 504 503 0 1 0 0 1
 498 501 502 498 501 499
D 228 21 6 1 0 421 0 0 0 0 0
 0 421 0 3 421 0
D 231 21 9 2 15 507 0 0 0 0 0
 0 23 3 3 23 23
 0 21 23 3 21 21
D 234 21 9 1 3 21 0 0 0 0 0
 0 21 3 3 21 21
D 237 21 9 2 536 535 0 1 0 0 1
 525 528 533 525 528 526
 529 532 534 529 532 530
D 240 21 6 1 0 403 0 0 0 0 0
 0 403 0 3 403 0
D 243 21 9 2 15 93 0 0 0 0 0
 0 23 3 3 23 23
 0 23 23 3 23 23
D 246 18 198
D 248 21 246 1 567 566 0 1 0 0 1
 561 564 565 561 564 562
D 251 21 6 1 0 421 0 0 0 0 0
 0 421 0 3 421 0
D 254 21 9 2 582 581 0 1 0 0 1
 571 574 579 571 574 572
 575 578 580 575 578 576
D 257 21 6 1 0 403 0 0 0 0 0
 0 403 0 3 403 0
D 260 21 9 1 591 590 0 1 0 0 1
 585 588 589 585 588 586
D 263 21 6 1 0 421 0 0 0 0 0
 0 421 0 3 421 0
D 266 21 16 1 600 599 0 1 0 0 1
 594 597 598 594 597 595
D 269 21 6 1 0 421 0 0 0 0 0
 0 421 0 3 421 0
D 272 21 246 1 611 610 0 1 0 0 1
 605 608 609 605 608 606
D 275 21 6 1 0 421 0 0 0 0 0
 0 421 0 3 421 0
D 278 21 9 2 626 625 0 1 0 0 1
 615 618 623 615 618 616
 619 622 624 619 622 620
D 281 21 6 1 0 403 0 0 0 0 0
 0 403 0 3 403 0
D 284 21 9 1 635 634 0 1 0 0 1
 629 632 633 629 632 630
D 287 21 6 1 0 421 0 0 0 0 0
 0 421 0 3 421 0
D 290 21 16 1 644 643 0 1 0 0 1
 638 641 642 638 641 639
D 293 21 6 1 0 421 0 0 0 0 0
 0 421 0 3 421 0
D 296 21 6 2 659 658 0 1 0 0 1
 648 651 656 648 651 649
 652 655 657 652 655 653
D 299 21 6 1 0 403 0 0 0 0 0
 0 403 0 3 403 0
D 302 21 6 1 3 30 0 0 0 0 0
 0 30 3 3 30 30
D 305 21 6 2 675 674 0 1 0 0 1
 664 667 672 664 667 665
 668 671 673 668 671 669
D 308 21 6 1 0 403 0 0 0 0 0
 0 403 0 3 403 0
D 311 21 6 1 3 30 0 0 0 0 0
 0 30 3 3 30 30
D 314 21 16 1 686 685 0 1 0 0 1
 680 683 684 680 683 681
D 317 21 6 1 0 421 0 0 0 0 0
 0 421 0 3 421 0
D 320 21 6 1 3 201 0 0 0 0 0
 0 201 3 3 201 201
S 582 24 0 0 0 6 1 0 4658 10005 0 A 0 0 0 0 0 0 0 0 0 0 0 0 0 0 0 0 0 0 0 0 0 13 0 0 0 0 0 0 input_parameters
S 584 23 0 0 0 9 594 582 4681 4 0 A 0 0 0 0 0 0 0 0 0 0 0 0 0 0 0 0 0 0 0 0 0 0 0 582 0 0 0 0 dp
S 586 23 0 0 0 6 613 582 4695 4 0 A 0 0 0 0 0 0 0 0 0 0 0 0 0 0 0 0 0 0 0 0 0 0 0 582 0 0 0 0 nsx
S 587 23 0 0 0 6 614 582 4699 4 0 A 0 0 0 0 0 0 0 0 0 0 0 0 0 0 0 0 0 0 0 0 0 0 0 582 0 0 0 0 npkx
S 588 23 0 0 0 6 615 582 4704 4 0 A 0 0 0 0 0 0 0 0 0 0 0 0 0 0 0 0 0 0 0 0 0 0 0 582 0 0 0 0 nspinx
S 589 23 0 0 0 6 611 582 4711 4 0 A 0 0 0 0 0 0 0 0 0 0 0 0 0 0 0 0 0 0 0 0 0 0 0 582 0 0 0 0 lqmax
S 590 23 0 0 0 6 616 582 4717 4 0 A 0 0 0 0 0 0 0 0 0 0 0 0 0 0 0 0 0 0 0 0 0 0 0 582 0 0 0 0 nhclm
S 591 23 0 0 0 6 617 582 4723 4 0 A 0 0 0 0 0 0 0 0 0 0 0 0 0 0 0 0 0 0 0 0 0 0 0 582 0 0 0 0 max_nconstr
S 592 3 0 0 0 6 1 1 0 0 0 A 0 0 0 0 0 0 0 0 0 8 0 0 0 0 0 0 0 0 0 0 0 0 0 0 0 0 0 0 6
S 593 3 0 0 0 6 1 1 0 0 0 A 0 0 0 0 0 0 0 0 0 4 0 0 0 0 0 0 0 0 0 0 0 0 0 0 0 0 0 0 6
R 594 16 1 kinds dp
S 601 3 0 0 0 6 1 1 0 0 0 A 0 0 0 0 0 0 0 0 0 10 0 0 0 0 0 0 0 0 0 0 0 0 0 0 0 0 0 0 6
S 602 3 0 0 0 6 1 1 0 0 0 A 0 0 0 0 0 0 0 0 0 40000 0 0 0 0 0 0 0 0 0 0 0 0 0 0 0 0 0 0 6
S 603 3 0 0 0 6 1 1 0 0 0 A 0 0 0 0 0 0 0 0 0 3 0 0 0 0 0 0 0 0 0 0 0 0 0 0 0 0 0 0 6
S 604 3 0 0 0 6 1 1 0 0 0 A 0 0 0 0 0 0 0 0 0 2 0 0 0 0 0 0 0 0 0 0 0 0 0 0 0 0 0 0 6
S 605 3 0 0 0 6 1 1 0 0 0 A 0 0 0 0 0 0 0 0 0 7 0 0 0 0 0 0 0 0 0 0 0 0 0 0 0 0 0 0 6
S 606 3 0 0 0 6 1 1 0 0 0 A 0 0 0 0 0 0 0 0 0 100 0 0 0 0 0 0 0 0 0 0 0 0 0 0 0 0 0 0 6
R 611 16 5 parameters lqmax
R 613 16 7 parameters nsx
R 614 16 8 parameters npkx
R 615 16 9 parameters nspinx
R 616 16 10 parameters nhclm
R 617 16 11 parameters max_nconstr
S 619 3 0 0 0 6 0 1 0 0 0 A 0 0 0 0 0 0 0 0 0 80 0 0 0 0 0 0 0 0 0 0 0 0 0 0 0 0 0 0 6
S 620 6 4 0 0 56 622 582 4794 58000cc 0 A 0 0 0 0 0 0 0 0 0 0 0 0 1586 0 0 0 0 0 0 0 0 0 0 582 0 0 0 0 title
S 622 6 4 0 0 56 623 582 4805 58000cc 0 A 0 0 0 0 0 80 0 0 0 0 0 0 1586 0 0 0 0 0 0 0 0 0 0 582 0 0 0 0 calculation
S 623 7 4 0 4 60 644 582 4817 80006c 100 A 0 0 0 0 0 160 0 0 0 0 0 0 1586 0 0 0 0 0 0 0 0 0 0 582 0 0 0 0 calculation_allowed
S 624 3 0 0 0 6 0 1 0 0 0 A 0 0 0 0 0 0 0 0 0 16 0 0 0 0 0 0 0 0 0 0 0 0 0 0 0 0 0 0 6
S 627 3 0 0 0 6 0 1 0 0 0 A 0 0 0 0 0 0 0 0 0 5 0 0 0 0 0 0 0 0 0 0 0 0 0 0 0 0 0 0 6
S 634 3 0 0 0 6 0 1 0 0 0 A 0 0 0 0 0 0 0 0 0 6 0 0 0 0 0 0 0 0 0 0 0 0 0 0 0 0 0 0 6
S 644 6 4 0 0 56 645 582 4936 58000cc 0 A 0 0 0 0 0 1440 0 0 0 0 0 0 1586 0 0 0 0 0 0 0 0 0 0 582 0 0 0 0 verbosity
S 645 7 4 0 4 75 652 582 4946 80006c 100 A 0 0 0 0 0 1520 0 0 0 0 0 0 1586 0 0 0 0 0 0 0 0 0 0 582 0 0 0 0 verbosity_allowed
S 652 6 4 0 0 56 653 582 5005 58000cc 0 A 0 0 0 0 0 1920 0 0 0 0 0 0 1586 0 0 0 0 0 0 0 0 0 0 582 0 0 0 0 restart_mode
S 653 7 4 0 4 80 670 582 5018 80006c 100 A 0 0 0 0 0 2000 0 0 0 0 0 0 1586 0 0 0 0 0 0 0 0 0 0 582 0 0 0 0 restart_mode_allowed
S 656 3 0 0 0 6 0 1 0 0 0 A 0 0 0 0 0 0 0 0 0 14 0 0 0 0 0 0 0 0 0 0 0 0 0 0 0 0 0 0 6
S 658 6 4 0 0 6 659 582 5067 58000cc 0 A 0 0 0 0 0 0 0 0 0 0 0 0 1587 0 0 0 0 0 0 0 0 0 0 582 0 0 0 0 nstep
S 659 6 4 0 0 6 660 582 5073 58000cc 0 A 0 0 0 0 0 4 0 0 0 0 0 0 1587 0 0 0 0 0 0 0 0 0 0 582 0 0 0 0 iprint
S 660 6 4 0 0 6 661 582 5080 58000cc 0 A 0 0 0 0 0 8 0 0 0 0 0 0 1587 0 0 0 0 0 0 0 0 0 0 582 0 0 0 0 isave
S 661 6 4 0 0 16 663 582 5086 58000cc 0 A 0 0 0 0 0 12 0 0 0 0 0 0 1587 0 0 0 0 0 0 0 0 0 0 582 0 0 0 0 tstress
S 663 6 4 0 0 16 665 582 5094 58000cc 0 A 0 0 0 0 0 16 0 0 0 0 0 0 1587 0 0 0 0 0 0 0 0 0 0 582 0 0 0 0 tprnfor
S 664 6 4 0 0 9 674 582 5102 58000cc 0 A 0 0 0 0 0 0 0 0 0 0 0 0 1588 0 0 0 0 0 0 0 0 0 0 582 0 0 0 0 dt
S 665 6 4 0 0 6 667 582 5112 58000cc 0 A 0 0 0 0 0 20 0 0 0 0 0 0 1587 0 0 0 0 0 0 0 0 0 0 582 0 0 0 0 ndr
S 667 6 4 0 0 6 688 582 5116 58000cc 0 A 0 0 0 0 0 24 0 0 0 0 0 0 1587 0 0 0 0 0 0 0 0 0 0 582 0 0 0 0 ndw
S 669 3 0 0 0 6 0 1 0 0 0 A 0 0 0 0 0 0 0 0 0 256 0 0 0 0 0 0 0 0 0 0 0 0 0 0 0 0 0 0 6
S 670 6 4 0 0 87 672 582 5123 58000cc 0 A 0 0 0 0 0 2240 0 0 0 0 0 0 1586 0 0 0 0 0 0 0 0 0 0 582 0 0 0 0 outdir
S 672 6 4 0 0 87 673 582 5137 58000cc 0 A 0 0 0 0 0 2496 0 0 0 0 0 0 1586 0 0 0 0 0 0 0 0 0 0 582 0 0 0 0 prefix
S 673 6 4 0 0 87 678 582 5144 58000cc 0 A 0 0 0 0 0 2752 0 0 0 0 0 0 1586 0 0 0 0 0 0 0 0 0 0 582 0 0 0 0 pseudo_dir
S 674 6 4 0 0 9 679 582 5155 58000cc 0 A 0 0 0 0 0 8 0 0 0 0 0 0 1588 0 0 0 0 0 0 0 0 0 0 582 0 0 0 0 refg
S 676 3 0 0 0 6 0 1 0 0 0 A 0 0 0 0 0 0 0 0 0 9 0 0 0 0 0 0 0 0 0 0 0 0 0 0 0 0 0 0 6
S 678 6 4 0 0 87 687 582 5178 58000cc 0 A 0 0 0 0 0 3008 0 0 0 0 0 0 1586 0 0 0 0 0 0 0 0 0 0 582 0 0 0 0 wfcdir
S 679 6 4 0 0 9 681 582 5185 58000cc 0 A 0 0 0 0 0 16 0 0 0 0 0 0 1588 0 0 0 0 0 0 0 0 0 0 582 0 0 0 0 max_seconds
S 681 6 4 0 0 9 683 582 5207 58000cc 0 A 0 0 0 0 0 24 0 0 0 0 0 0 1588 0 0 0 0 0 0 0 0 0 0 582 0 0 0 0 ekin_conv_thr
S 683 6 4 0 0 9 685 582 5231 58000cc 0 A 0 0 0 0 0 32 0 0 0 0 0 0 1588 0 0 0 0 0 0 0 0 0 0 582 0 0 0 0 etot_conv_thr
S 685 6 4 0 0 9 705 582 5255 58000cc 0 A 0 0 0 0 0 40 0 0 0 0 0 0 1588 0 0 0 0 0 0 0 0 0 0 582 0 0 0 0 forc_conv_thr
S 687 6 4 0 0 56 726 582 5279 58000cc 0 A 0 0 0 0 0 3264 0 0 0 0 0 0 1586 0 0 0 0 0 0 0 0 0 0 582 0 0 0 0 disk_io
S 688 6 4 0 0 16 690 582 5287 58000cc 0 A 0 0 0 0 0 28 0 0 0 0 0 0 1587 0 0 0 0 0 0 0 0 0 0 582 0 0 0 0 tefield
S 690 6 4 0 0 16 691 582 5295 58000cc 0 A 0 0 0 0 0 32 0 0 0 0 0 0 1587 0 0 0 0 0 0 0 0 0 0 582 0 0 0 0 tefield2
S 691 6 4 0 0 16 692 582 5304 58000cc 0 A 0 0 0 0 0 36 0 0 0 0 0 0 1587 0 0 0 0 0 0 0 0 0 0 582 0 0 0 0 dipfield
S 692 6 4 0 0 16 693 582 5313 58000cc 0 A 0 0 0 0 0 40 0 0 0 0 0 0 1587 0 0 0 0 0 0 0 0 0 0 582 0 0 0 0 lberry
S 693 6 4 0 0 6 694 582 5320 58000cc 0 A 0 0 0 0 0 44 0 0 0 0 0 0 1587 0 0 0 0 0 0 0 0 0 0 582 0 0 0 0 gdir
S 694 6 4 0 0 6 695 582 5325 58000cc 0 A 0 0 0 0 0 48 0 0 0 0 0 0 1587 0 0 0 0 0 0 0 0 0 0 582 0 0 0 0 nppstr
S 695 6 4 0 0 16 696 582 5332 58000cc 0 A 0 0 0 0 0 52 0 0 0 0 0 0 1587 0 0 0 0 0 0 0 0 0 0 582 0 0 0 0 lelfield
S 696 6 4 0 0 6 697 582 5341 58000cc 0 A 0 0 0 0 0 56 0 0 0 0 0 0 1587 0 0 0 0 0 0 0 0 0 0 582 0 0 0 0 nberrycyc
S 697 6 4 0 0 16 698 582 5351 58000cc 0 A 0 0 0 0 0 60 0 0 0 0 0 0 1587 0 0 0 0 0 0 0 0 0 0 582 0 0 0 0 wf_collect
S 698 6 4 0 0 6 699 582 5362 58000cc 0 A 0 0 0 0 0 64 0 0 0 0 0 0 1587 0 0 0 0 0 0 0 0 0 0 582 0 0 0 0 printwfc
S 699 6 4 0 0 16 700 582 5371 58000cc 0 A 0 0 0 0 0 68 0 0 0 0 0 0 1587 0 0 0 0 0 0 0 0 0 0 582 0 0 0 0 saverho
S 700 6 4 0 0 16 701 582 5379 58000cc 0 A 0 0 0 0 0 72 0 0 0 0 0 0 1587 0 0 0 0 0 0 0 0 0 0 582 0 0 0 0 tabps
S 701 6 4 0 0 16 704 582 5385 58000cc 0 A 0 0 0 0 0 76 0 0 0 0 0 0 1587 0 0 0 0 0 0 0 0 0 0 582 0 0 0 0 lkpoint_dir
S 702 12 0 0 0 9 1 582 5397 44 0 A 0 0 0 0 0 703 0 0 1 35 0 0 0 0 0 0 0 0 0 0 0 0 0 582 0 0 0 0 control
N 620 295
N 622 295
N 644 295
N 652 295
N 658 295
N 659 295
N 660 295
N 661 295
N 663 295
N 664 295
N 665 295
N 667 295
N 670 295
N 672 295
N 678 295
N 679 295
N 681 295
N 683 295
N 685 295
N 673 295
N 687 295
N 688 295
N 691 295
N 692 295
N 693 295
N 694 295
N 697 295
N 698 295
N 695 295
N 696 295
N 674 295
N 690 295
N 699 295
N 700 295
N 701 295
N -1 -1
S 703 21 4 0 0 7 777 582 5405 4000004a 1000 A 0 0 0 0 0 0 213 0 0 0 0 0 1589 0 0 0 0 0 0 0 0 0 0 582 0 0 0 0 control$nml
S 704 6 4 0 0 6 706 582 5417 58000cc 0 A 0 0 0 0 0 80 0 0 0 0 0 0 1587 0 0 0 0 0 0 0 0 0 0 582 0 0 0 0 ibrav
S 705 7 4 0 4 91 709 582 5423 58000cc 100 A 0 0 0 0 0 48 0 0 0 0 0 0 1588 0 0 0 0 0 0 0 0 0 0 582 0 0 0 0 celldm
S 706 6 4 0 0 6 707 582 5437 58000cc 0 A 0 0 0 0 0 84 0 0 0 0 0 0 1587 0 0 0 0 0 0 0 0 0 0 582 0 0 0 0 nat
S 707 6 4 0 0 6 708 582 5441 58000cc 0 A 0 0 0 0 0 88 0 0 0 0 0 0 1587 0 0 0 0 0 0 0 0 0 0 582 0 0 0 0 ntyp
S 708 6 4 0 0 6 711 582 5446 58000cc 0 A 0 0 0 0 0 92 0 0 0 0 0 0 1587 0 0 0 0 0 0 0 0 0 0 582 0 0 0 0 nbnd
S 709 6 4 0 0 9 710 582 5451 58000cc 0 A 0 0 0 0 0 96 0 0 0 0 0 0 1588 0 0 0 0 0 0 0 0 0 0 582 0 0 0 0 nelec
S 710 6 4 0 0 9 714 582 5464 58000cc 0 A 0 0 0 0 0 104 0 0 0 0 0 0 1588 0 0 0 0 0 0 0 0 0 0 582 0 0 0 0 tot_charge
S 711 6 4 0 0 6 712 582 5482 58000cc 0 A 0 0 0 0 0 96 0 0 0 0 0 0 1587 0 0 0 0 0 0 0 0 0 0 582 0 0 0 0 multiplicity
S 712 6 4 0 0 6 716 582 5495 58000cc 0 A 0 0 0 0 0 100 0 0 0 0 0 0 1587 0 0 0 0 0 0 0 0 0 0 582 0 0 0 0 tot_magnetization
S 714 6 4 0 0 9 715 582 5513 58000cc 0 A 0 0 0 0 0 112 0 0 0 0 0 0 1588 0 0 0 0 0 0 0 0 0 0 582 0 0 0 0 ecutwfc
S 715 6 4 0 0 9 729 582 5528 58000cc 0 A 0 0 0 0 0 120 0 0 0 0 0 0 1588 0 0 0 0 0 0 0 0 0 0 582 0 0 0 0 ecutrho
S 716 6 4 0 0 6 717 582 5543 58000cc 0 A 0 0 0 0 0 104 0 0 0 0 0 0 1587 0 0 0 0 0 0 0 0 0 0 582 0 0 0 0 nr1
S 717 6 4 0 0 6 718 582 5547 58000cc 0 A 0 0 0 0 0 108 0 0 0 0 0 0 1587 0 0 0 0 0 0 0 0 0 0 582 0 0 0 0 nr2
S 718 6 4 0 0 6 719 582 5551 58000cc 0 A 0 0 0 0 0 112 0 0 0 0 0 0 1587 0 0 0 0 0 0 0 0 0 0 582 0 0 0 0 nr3
S 719 6 4 0 0 6 720 582 5555 58000cc 0 A 0 0 0 0 0 116 0 0 0 0 0 0 1587 0 0 0 0 0 0 0 0 0 0 582 0 0 0 0 nr1s
S 720 6 4 0 0 6 721 582 5560 58000cc 0 A 0 0 0 0 0 120 0 0 0 0 0 0 1587 0 0 0 0 0 0 0 0 0 0 582 0 0 0 0 nr2s
S 721 6 4 0 0 6 722 582 5565 58000cc 0 A 0 0 0 0 0 124 0 0 0 0 0 0 1587 0 0 0 0 0 0 0 0 0 0 582 0 0 0 0 nr3s
S 722 6 4 0 0 6 723 582 5570 58000cc 0 A 0 0 0 0 0 128 0 0 0 0 0 0 1587 0 0 0 0 0 0 0 0 0 0 582 0 0 0 0 nr1b
S 723 6 4 0 0 6 724 582 5575 58000cc 0 A 0 0 0 0 0 132 0 0 0 0 0 0 1587 0 0 0 0 0 0 0 0 0 0 582 0 0 0 0 nr2b
S 724 6 4 0 0 6 730 582 5580 58000cc 0 A 0 0 0 0 0 136 0 0 0 0 0 0 1587 0 0 0 0 0 0 0 0 0 0 582 0 0 0 0 nr3b
S 726 6 4 0 0 56 728 582 5591 58000cc 0 A 0 0 0 0 0 3344 0 0 0 0 0 0 1586 0 0 0 0 0 0 0 0 0 0 582 0 0 0 0 occupations
S 728 6 4 0 0 56 738 582 5612 58000cc 0 A 0 0 0 0 0 3424 0 0 0 0 0 0 1586 0 0 0 0 0 0 0 0 0 0 582 0 0 0 0 smearing
S 729 6 4 0 0 9 731 582 5621 58000cc 0 A 0 0 0 0 0 128 0 0 0 0 0 0 1588 0 0 0 0 0 0 0 0 0 0 582 0 0 0 0 degauss
S 730 6 4 0 0 6 733 582 5636 58000cc 0 A 0 0 0 0 0 140 0 0 0 0 0 0 1587 0 0 0 0 0 0 0 0 0 0 582 0 0 0 0 nspin
S 731 6 4 0 0 9 732 582 5642 58000cc 0 A 0 0 0 0 0 136 0 0 0 0 0 0 1588 0 0 0 0 0 0 0 0 0 0 582 0 0 0 0 nelup
S 732 6 4 0 0 9 735 582 5655 58000cc 0 A 0 0 0 0 0 144 0 0 0 0 0 0 1588 0 0 0 0 0 0 0 0 0 0 582 0 0 0 0 neldw
S 733 6 4 0 0 16 734 582 5668 58000cc 0 A 0 0 0 0 0 144 0 0 0 0 0 0 1587 0 0 0 0 0 0 0 0 0 0 582 0 0 0 0 nosym
S 734 6 4 0 0 16 741 582 5674 58000cc 0 A 0 0 0 0 0 148 0 0 0 0 0 0 1587 0 0 0 0 0 0 0 0 0 0 582 0 0 0 0 noinv
S 735 6 4 0 0 9 736 582 5680 58000cc 0 A 0 0 0 0 0 152 0 0 0 0 0 0 1588 0 0 0 0 0 0 0 0 0 0 582 0 0 0 0 ecfixed
S 736 6 4 0 0 9 737 582 5695 58000cc 0 A 0 0 0 0 0 160 0 0 0 0 0 0 1588 0 0 0 0 0 0 0 0 0 0 582 0 0 0 0 qcutz
S 737 6 4 0 0 9 740 582 5708 58000cc 0 A 0 0 0 0 0 168 0 0 0 0 0 0 1588 0 0 0 0 0 0 0 0 0 0 582 0 0 0 0 q2sigma
S 738 6 4 0 0 56 739 582 5723 58000cc 0 A 0 0 0 0 0 3504 0 0 0 0 0 0 1586 0 0 0 0 0 0 0 0 0 0 582 0 0 0 0 input_dft
S 739 6 4 0 0 56 749 582 5733 58000cc 0 A 0 0 0 0 0 3584 0 0 0 0 0 0 1586 0 0 0 0 0 0 0 0 0 0 582 0 0 0 0 xc_type
S 740 7 4 0 4 94 742 582 5741 58000cc 100 A 0 0 0 0 0 176 0 0 0 0 0 0 1588 0 0 0 0 0 0 0 0 0 0 582 0 0 0 0 starting_magnetization
S 741 6 4 0 0 16 750 582 5771 58000cc 0 A 0 0 0 0 0 152 0 0 0 0 0 0 1587 0 0 0 0 0 0 0 0 0 0 582 0 0 0 0 lda_plus_u
S 742 7 4 0 4 97 746 582 5782 58000cc 100 A 0 0 0 0 0 256 0 0 0 0 0 0 1588 0 0 0 0 0 0 0 0 0 0 582 0 0 0 0 starting_ns_eigenvalue
S 743 3 0 0 0 6 0 1 0 0 0 A 0 0 0 0 0 0 0 0 0 140 0 0 0 0 0 0 0 0 0 0 0 0 0 0 0 0 0 0 6
S 744 3 0 0 0 6 0 1 0 0 0 A 0 0 0 0 0 0 0 0 0 22 0 0 0 0 0 0 0 0 0 0 0 0 0 0 0 0 0 0 6
S 746 7 4 0 4 100 747 582 5812 58000cc 100 A 0 0 0 0 0 1376 0 0 0 0 0 0 1588 0 0 0 0 0 0 0 0 0 0 582 0 0 0 0 hubbard_u
S 747 7 4 0 4 103 751 582 5829 58000cc 100 A 0 0 0 0 0 1456 0 0 0 0 0 0 1588 0 0 0 0 0 0 0 0 0 0 582 0 0 0 0 hubbard_alpha
S 749 6 4 0 0 56 768 582 5857 58000cc 0 A 0 0 0 0 0 3664 0 0 0 0 0 0 1586 0 0 0 0 0 0 0 0 0 0 582 0 0 0 0 u_projection_type
S 750 6 4 0 0 16 757 582 5875 58000cc 0 A 0 0 0 0 0 156 0 0 0 0 0 0 1587 0 0 0 0 0 0 0 0 0 0 582 0 0 0 0 la2f
S 751 6 4 0 0 9 752 582 5880 58000cc 0 A 0 0 0 0 0 1536 0 0 0 0 0 0 1588 0 0 0 0 0 0 0 0 0 0 582 0 0 0 0 a
S 752 6 4 0 0 9 753 582 5889 58000cc 0 A 0 0 0 0 0 1544 0 0 0 0 0 0 1588 0 0 0 0 0 0 0 0 0 0 582 0 0 0 0 c
S 753 6 4 0 0 9 754 582 5898 58000cc 0 A 0 0 0 0 0 1552 0 0 0 0 0 0 1588 0 0 0 0 0 0 0 0 0 0 582 0 0 0 0 b
S 754 6 4 0 0 9 755 582 5907 58000cc 0 A 0 0 0 0 0 1560 0 0 0 0 0 0 1588 0 0 0 0 0 0 0 0 0 0 582 0 0 0 0 cosab
S 755 6 4 0 0 9 756 582 5920 58000cc 0 A 0 0 0 0 0 1568 0 0 0 0 0 0 1588 0 0 0 0 0 0 0 0 0 0 582 0 0 0 0 cosac
S 756 6 4 0 0 9 758 582 5933 58000cc 0 A 0 0 0 0 0 1576 0 0 0 0 0 0 1588 0 0 0 0 0 0 0 0 0 0 582 0 0 0 0 cosbc
S 757 6 4 0 0 6 761 582 5946 58000cc 0 A 0 0 0 0 0 160 0 0 0 0 0 0 1587 0 0 0 0 0 0 0 0 0 0 582 0 0 0 0 edir
S 758 6 4 0 0 9 759 582 5951 58000cc 0 A 0 0 0 0 0 1584 0 0 0 0 0 0 1588 0 0 0 0 0 0 0 0 0 0 582 0 0 0 0 emaxpos
S 759 6 4 0 0 9 760 582 5966 58000cc 0 A 0 0 0 0 0 1592 0 0 0 0 0 0 1588 0 0 0 0 0 0 0 0 0 0 582 0 0 0 0 eopreg
S 760 6 4 0 0 9 763 582 5980 58000cc 0 A 0 0 0 0 0 1600 0 0 0 0 0 0 1588 0 0 0 0 0 0 0 0 0 0 582 0 0 0 0 eamp
S 761 6 4 0 0 16 762 582 5992 58000cc 0 A 0 0 0 0 0 164 0 0 0 0 0 0 1587 0 0 0 0 0 0 0 0 0 0 582 0 0 0 0 noncolin
S 762 6 4 0 0 16 767 582 6001 58000cc 0 A 0 0 0 0 0 168 0 0 0 0 0 0 1587 0 0 0 0 0 0 0 0 0 0 582 0 0 0 0 lspinorb
S 763 6 4 0 0 9 764 582 6010 58000cc 0 A 0 0 0 0 0 1608 0 0 0 0 0 0 1588 0 0 0 0 0 0 0 0 0 0 582 0 0 0 0 lambda
S 764 7 4 0 4 106 765 582 6024 58000cc 100 A 0 0 0 0 0 1616 0 0 0 0 0 0 1588 0 0 0 0 0 0 0 0 0 0 582 0 0 0 0 fixed_magnetization
S 765 7 4 0 4 109 766 582 6051 58000cc 100 A 0 0 0 0 0 1648 0 0 0 0 0 0 1588 0 0 0 0 0 0 0 0 0 0 582 0 0 0 0 angle1
S 766 7 4 0 4 112 769 582 6065 58000cc 100 A 0 0 0 0 0 1728 0 0 0 0 0 0 1588 0 0 0 0 0 0 0 0 0 0 582 0 0 0 0 angle2
S 767 6 4 0 0 6 773 582 6079 58000cc 0 A 0 0 0 0 0 172 0 0 0 0 0 0 1587 0 0 0 0 0 0 0 0 0 0 582 0 0 0 0 report
S 768 6 4 0 0 56 770 582 6086 58000cc 0 A 0 0 0 0 0 3744 0 0 0 0 0 0 1586 0 0 0 0 0 0 0 0 0 0 582 0 0 0 0 constrained_magnetization
S 769 7 4 0 4 115 771 582 6112 58000cc 100 A 0 0 0 0 0 1808 0 0 0 0 0 0 1588 0 0 0 0 0 0 0 0 0 0 582 0 0 0 0 b_field
S 770 6 4 0 0 56 781 582 6127 58000cc 0 A 0 0 0 0 0 3824 0 0 0 0 0 0 1586 0 0 0 0 0 0 0 0 0 0 582 0 0 0 0 sic
S 771 6 4 0 0 9 772 582 6131 58000cc 0 A 0 0 0 0 0 1832 0 0 0 0 0 0 1588 0 0 0 0 0 0 0 0 0 0 582 0 0 0 0 sic_epsilon
S 772 6 4 0 0 9 778 582 6150 58000cc 0 A 0 0 0 0 0 1840 0 0 0 0 0 0 1588 0 0 0 0 0 0 0 0 0 0 582 0 0 0 0 sic_alpha
S 773 6 4 0 0 16 774 582 6167 58000cc 0 A 0 0 0 0 0 176 0 0 0 0 0 0 1587 0 0 0 0 0 0 0 0 0 0 582 0 0 0 0 force_pairing
S 774 6 4 0 0 16 775 582 6181 58000cc 0 A 0 0 0 0 0 180 0 0 0 0 0 0 1587 0 0 0 0 0 0 0 0 0 0 582 0 0 0 0 assume_isolated
S 775 6 4 0 0 16 784 582 6197 58000cc 0 A 0 0 0 0 0 184 0 0 0 0 0 0 1587 0 0 0 0 0 0 0 0 0 0 582 0 0 0 0 spline_ps
S 776 12 0 0 0 9 702 582 6207 44 0 A 0 0 0 0 0 777 0 0 36 100 0 0 0 0 0 0 0 0 0 0 0 0 0 582 0 0 0 0 system
N 704 571
N 705 571
N 751 571
N 753 571
N 752 571
N 754 571
N 755 571
N 756 571
N 706 571
N 707 571
N 708 571
N 709 571
N 714 571
N 715 571
N 716 571
N 717 571
N 718 571
N 719 571
N 720 571
N 721 571
N 722 571
N 723 571
N 724 571
N 733 571
N 734 571
N 740 571
N 726 571
N 729 571
N 731 571
N 732 571
N 730 571
N 735 571
N 736 571
N 737 571
N 739 571
N 741 571
N 746 571
N 747 571
N 757 571
N 758 571
N 759 571
N 760 571
N 728 571
N 742 571
N 749 571
N 738 571
N 750 571
N 774 571
N 761 571
N 762 571
N 763 571
N 765 571
N 766 571
N 767 571
N 768 571
N 769 571
N 764 571
N 770 571
N 771 571
N 773 571
N 772 571
N 710 571
N 711 571
N 712 571
N 775 571
N -1 -1
S 777 21 4 0 0 7 866 582 6214 4000004a 1000 A 0 0 0 0 0 1704 415 0 0 0 0 0 1589 0 0 0 0 0 0 0 0 0 0 582 0 0 0 0 system$nml
S 778 6 4 0 0 9 779 582 6225 58000cc 0 A 0 0 0 0 0 1848 0 0 0 0 0 0 1588 0 0 0 0 0 0 0 0 0 0 582 0 0 0 0 emass
S 779 6 4 0 0 9 782 582 6238 58000cc 0 A 0 0 0 0 0 1856 0 0 0 0 0 0 1588 0 0 0 0 0 0 0 0 0 0 582 0 0 0 0 emass_cutoff
S 781 6 4 0 0 56 789 582 6264 58000cc 0 A 0 0 0 0 0 3904 0 0 0 0 0 0 1586 0 0 0 0 0 0 0 0 0 0 582 0 0 0 0 orthogonalization
S 782 6 4 0 0 9 795 582 6282 58000cc 0 A 0 0 0 0 0 1864 0 0 0 0 0 0 1588 0 0 0 0 0 0 0 0 0 0 582 0 0 0 0 ortho_eps
S 784 6 4 0 0 6 786 582 6301 58000cc 0 A 0 0 0 0 0 188 0 0 0 0 0 0 1587 0 0 0 0 0 0 0 0 0 0 582 0 0 0 0 ortho_max
S 785 3 0 0 0 6 0 1 0 0 0 A 0 0 0 0 0 0 0 0 0 20 0 0 0 0 0 0 0 0 0 0 0 0 0 0 0 0 0 0 6
S 786 6 4 0 0 6 787 582 6311 58000cc 0 A 0 0 0 0 0 192 0 0 0 0 0 0 1587 0 0 0 0 0 0 0 0 0 0 582 0 0 0 0 ortho_para
S 787 6 4 0 0 6 805 582 6322 58000cc 0 A 0 0 0 0 0 196 0 0 0 0 0 0 1587 0 0 0 0 0 0 0 0 0 0 582 0 0 0 0 electron_maxstep
S 788 3 0 0 0 6 0 1 0 0 0 A 0 0 0 0 0 0 0 0 0 1000 0 0 0 0 0 0 0 0 0 0 0 0 0 0 0 0 0 0 6
S 789 6 4 0 0 56 790 582 6339 58000cc 0 A 0 0 0 0 0 3984 0 0 0 0 0 0 1586 0 0 0 0 0 0 0 0 0 0 582 0 0 0 0 electron_dynamics
S 790 7 4 0 4 118 796 582 6357 80006c 100 A 0 0 0 0 0 4064 0 0 0 0 0 0 1586 0 0 0 0 0 0 0 0 0 0 582 0 0 0 0 electron_dynamics_allowed
S 795 6 4 0 0 9 799 582 6401 58000cc 0 A 0 0 0 0 0 1872 0 0 0 0 0 0 1588 0 0 0 0 0 0 0 0 0 0 582 0 0 0 0 electron_damping
S 796 6 4 0 0 56 798 582 6425 58000cc 0 A 0 0 0 0 0 4544 0 0 0 0 0 0 1586 0 0 0 0 0 0 0 0 0 0 582 0 0 0 0 electron_velocities
S 798 6 4 0 0 56 802 582 6460 58000cc 0 A 0 0 0 0 0 4624 0 0 0 0 0 0 1586 0 0 0 0 0 0 0 0 0 0 582 0 0 0 0 electron_temperature
S 799 6 4 0 0 9 800 582 6481 58000cc 0 A 0 0 0 0 0 1880 0 0 0 0 0 0 1588 0 0 0 0 0 0 0 0 0 0 582 0 0 0 0 ekincw
S 800 6 4 0 0 9 803 582 6495 58000cc 0 A 0 0 0 0 0 1888 0 0 0 0 0 0 1588 0 0 0 0 0 0 0 0 0 0 582 0 0 0 0 fnosee
S 802 6 4 0 0 56 825 582 6516 58000cc 0 A 0 0 0 0 0 4704 0 0 0 0 0 0 1586 0 0 0 0 0 0 0 0 0 0 582 0 0 0 0 startingwfc
S 803 6 4 0 0 9 804 582 6528 58000cc 0 A 0 0 0 0 0 1896 0 0 0 0 0 0 1588 0 0 0 0 0 0 0 0 0 0 582 0 0 0 0 ampre
S 804 6 4 0 0 9 807 582 6541 58000cc 0 A 0 0 0 0 0 1904 0 0 0 0 0 0 1588 0 0 0 0 0 0 0 0 0 0 582 0 0 0 0 grease
S 805 6 4 0 0 6 806 582 6555 58000cc 0 A 0 0 0 0 0 200 0 0 0 0 0 0 1587 0 0 0 0 0 0 0 0 0 0 582 0 0 0 0 empty_states_nbnd
S 806 6 4 0 0 6 808 582 6573 58000cc 0 A 0 0 0 0 0 204 0 0 0 0 0 0 1587 0 0 0 0 0 0 0 0 0 0 582 0 0 0 0 empty_states_maxstep
S 807 6 4 0 0 9 810 582 6594 58000cc 0 A 0 0 0 0 0 1912 0 0 0 0 0 0 1588 0 0 0 0 0 0 0 0 0 0 582 0 0 0 0 empty_states_ethr
S 808 6 4 0 0 6 809 582 6621 58000cc 0 A 0 0 0 0 0 208 0 0 0 0 0 0 1587 0 0 0 0 0 0 0 0 0 0 582 0 0 0 0 diis_size
S 809 6 4 0 0 6 813 582 6631 58000cc 0 A 0 0 0 0 0 212 0 0 0 0 0 0 1587 0 0 0 0 0 0 0 0 0 0 582 0 0 0 0 diis_nreset
S 810 6 4 0 0 9 811 582 6643 58000cc 0 A 0 0 0 0 0 1920 0 0 0 0 0 0 1588 0 0 0 0 0 0 0 0 0 0 582 0 0 0 0 diis_hcut
S 811 6 4 0 0 9 812 582 6660 58000cc 0 A 0 0 0 0 0 1928 0 0 0 0 0 0 1588 0 0 0 0 0 0 0 0 0 0 582 0 0 0 0 diis_wthr
S 812 6 4 0 0 9 815 582 6679 58000cc 0 A 0 0 0 0 0 1936 0 0 0 0 0 0 1588 0 0 0 0 0 0 0 0 0 0 582 0 0 0 0 diis_delt
S 813 6 4 0 0 6 814 582 6696 58000cc 0 A 0 0 0 0 0 216 0 0 0 0 0 0 1587 0 0 0 0 0 0 0 0 0 0 582 0 0 0 0 diis_maxstep
S 814 6 4 0 0 16 819 582 6709 58000cc 0 A 0 0 0 0 0 220 0 0 0 0 0 0 1587 0 0 0 0 0 0 0 0 0 0 582 0 0 0 0 diis_rot
S 815 6 4 0 0 9 816 582 6718 58000cc 0 A 0 0 0 0 0 1944 0 0 0 0 0 0 1588 0 0 0 0 0 0 0 0 0 0 582 0 0 0 0 diis_fthr
S 816 6 4 0 0 9 817 582 6737 58000cc 0 A 0 0 0 0 0 1952 0 0 0 0 0 0 1588 0 0 0 0 0 0 0 0 0 0 582 0 0 0 0 diis_temp
S 817 6 4 0 0 9 818 582 6754 58000cc 0 A 0 0 0 0 0 1960 0 0 0 0 0 0 1588 0 0 0 0 0 0 0 0 0 0 582 0 0 0 0 diis_achmix
S 818 6 4 0 0 9 820 582 6773 58000cc 0 A 0 0 0 0 0 1968 0 0 0 0 0 0 1588 0 0 0 0 0 0 0 0 0 0 582 0 0 0 0 diis_g0chmix
S 819 6 4 0 0 6 821 582 6793 58000cc 0 A 0 0 0 0 0 224 0 0 0 0 0 0 1587 0 0 0 0 0 0 0 0 0 0 582 0 0 0 0 diis_nchmix
S 820 6 4 0 0 9 822 582 6805 58000cc 0 A 0 0 0 0 0 1976 0 0 0 0 0 0 1588 0 0 0 0 0 0 0 0 0 0 582 0 0 0 0 diis_g1chmix
S 821 7 4 0 4 121 824 582 6825 58000cc 100 A 0 0 0 0 0 240 0 0 0 0 0 0 1587 0 0 0 0 0 0 0 0 0 0 582 0 0 0 0 diis_nrot
S 822 7 4 0 4 124 823 582 6835 58000cc 100 A 0 0 0 0 0 1984 0 0 0 0 0 0 1588 0 0 0 0 0 0 0 0 0 0 582 0 0 0 0 diis_rothr
S 823 6 4 0 0 9 826 582 6855 58000cc 0 A 0 0 0 0 0 2008 0 0 0 0 0 0 1588 0 0 0 0 0 0 0 0 0 0 582 0 0 0 0 diis_ethr
S 824 6 4 0 0 16 827 582 6874 58000cc 0 A 0 0 0 0 0 252 0 0 0 0 0 0 1587 0 0 0 0 0 0 0 0 0 0 582 0 0 0 0 diis_chguess
S 825 6 4 0 0 56 828 582 6887 58000cc 0 A 0 0 0 0 0 4784 0 0 0 0 0 0 1586 0 0 0 0 0 0 0 0 0 0 582 0 0 0 0 mixing_mode
S 826 6 4 0 0 9 829 582 6899 58000cc 0 A 0 0 0 0 0 2016 0 0 0 0 0 0 1588 0 0 0 0 0 0 0 0 0 0 582 0 0 0 0 mixing_beta
S 827 6 4 0 0 6 830 582 6918 58000cc 0 A 0 0 0 0 0 256 0 0 0 0 0 0 1587 0 0 0 0 0 0 0 0 0 0 582 0 0 0 0 mixing_ndim
S 828 6 4 0 0 56 838 582 6930 58000cc 0 A 0 0 0 0 0 4864 0 0 0 0 0 0 1586 0 0 0 0 0 0 0 0 0 0 582 0 0 0 0 diagonalization
S 829 6 4 0 0 9 834 582 6946 58000cc 0 A 0 0 0 0 0 2024 0 0 0 0 0 0 1588 0 0 0 0 0 0 0 0 0 0 582 0 0 0 0 diago_thr_init
S 830 6 4 0 0 6 831 582 6968 58000cc 0 A 0 0 0 0 0 260 0 0 0 0 0 0 1587 0 0 0 0 0 0 0 0 0 0 582 0 0 0 0 diago_cg_maxiter
S 831 6 4 0 0 6 832 582 6985 58000cc 0 A 0 0 0 0 0 264 0 0 0 0 0 0 1587 0 0 0 0 0 0 0 0 0 0 582 0 0 0 0 diago_david_ndim
S 832 6 4 0 0 6 833 582 7002 58000cc 0 A 0 0 0 0 0 268 0 0 0 0 0 0 1587 0 0 0 0 0 0 0 0 0 0 582 0 0 0 0 diago_diis_ndim
S 833 6 4 0 0 16 836 582 7018 58000cc 0 A 0 0 0 0 0 272 0 0 0 0 0 0 1587 0 0 0 0 0 0 0 0 0 0 582 0 0 0 0 diago_full_acc
S 834 6 4 0 0 9 843 582 7033 58000cc 0 A 0 0 0 0 0 2032 0 0 0 0 0 0 1588 0 0 0 0 0 0 0 0 0 0 582 0 0 0 0 conv_thr
S 836 6 4 0 0 6 839 582 7051 58000cc 0 A 0 0 0 0 0 276 0 0 0 0 0 0 1587 0 0 0 0 0 0 0 0 0 0 582 0 0 0 0 mixing_fixed_ns
S 838 6 4 0 0 56 846 582 7075 58000cc 0 A 0 0 0 0 0 4944 0 0 0 0 0 0 1586 0 0 0 0 0 0 0 0 0 0 582 0 0 0 0 startingpot
S 839 6 4 0 0 6 840 582 7087 58000cc 0 A 0 0 0 0 0 280 0 0 0 0 0 0 1587 0 0 0 0 0 0 0 0 0 0 582 0 0 0 0 n_inner
S 840 6 4 0 0 6 842 582 7095 58000cc 0 A 0 0 0 0 0 284 0 0 0 0 0 0 1587 0 0 0 0 0 0 0 0 0 0 582 0 0 0 0 niter_cold_restart
S 841 6 4 0 0 9 996 582 7114 58000c4 0 A 0 0 0 0 0 0 0 0 0 0 0 0 1590 0 0 0 0 0 0 0 0 0 0 582 0 0 0 0 lambda_cold
S 842 6 4 0 0 16 852 582 7126 80000c 0 A 0 0 0 0 0 288 0 0 0 0 0 0 1587 0 0 0 0 0 0 0 0 0 0 582 0 0 0 0 tgrand
S 843 6 4 0 0 9 848 582 7133 58000cc 0 A 0 0 0 0 0 2040 0 0 0 0 0 0 1588 0 0 0 0 0 0 0 0 0 0 582 0 0 0 0 fermi_energy
S 844 3 0 0 0 6 0 1 0 0 0 A 0 0 0 0 0 0 0 0 0 17 0 0 0 0 0 0 0 0 0 0 0 0 0 0 0 0 0 0 6
S 846 6 4 0 0 56 847 582 7171 58000cc 0 A 0 0 0 0 0 5024 0 0 0 0 0 0 1586 0 0 0 0 0 0 0 0 0 0 582 0 0 0 0 rotation_dynamics
S 847 6 4 0 0 56 868 582 7189 58000cc 0 A 0 0 0 0 0 5104 0 0 0 0 0 0 1586 0 0 0 0 0 0 0 0 0 0 582 0 0 0 0 occupation_dynamics
S 848 6 4 0 0 9 849 582 7209 58000cc 0 A 0 0 0 0 0 2048 0 0 0 0 0 0 1588 0 0 0 0 0 0 0 0 0 0 582 0 0 0 0 rotmass
S 849 6 4 0 0 9 850 582 7217 58000cc 0 A 0 0 0 0 0 2056 0 0 0 0 0 0 1588 0 0 0 0 0 0 0 0 0 0 582 0 0 0 0 occmass
S 850 6 4 0 0 9 851 582 7225 58000cc 0 A 0 0 0 0 0 2064 0 0 0 0 0 0 1588 0 0 0 0 0 0 0 0 0 0 582 0 0 0 0 occupation_damping
S 851 6 4 0 0 9 854 582 7244 58000cc 0 A 0 0 0 0 0 2072 0 0 0 0 0 0 1588 0 0 0 0 0 0 0 0 0 0 582 0 0 0 0 rotation_damping
S 852 6 4 0 0 16 853 582 7261 58000cc 0 A 0 0 0 0 0 292 0 0 0 0 0 0 1587 0 0 0 0 0 0 0 0 0 0 582 0 0 0 0 tcg
S 853 6 4 0 0 6 859 582 7265 58000cc 0 A 0 0 0 0 0 296 0 0 0 0 0 0 1587 0 0 0 0 0 0 0 0 0 0 582 0 0 0 0 maxiter
S 854 6 4 0 0 9 856 582 7273 58000cc 0 A 0 0 0 0 0 2080 0 0 0 0 0 0 1588 0 0 0 0 0 0 0 0 0 0 582 0 0 0 0 etresh
S 856 6 4 0 0 9 860 582 7290 58000cc 0 A 0 0 0 0 0 2088 0 0 0 0 0 0 1588 0 0 0 0 0 0 0 0 0 0 582 0 0 0 0 passop
S 858 6 4 0 0 6 900 582 7304 58000c4 0 A 0 0 0 0 0 0 0 0 0 0 0 0 1591 0 0 0 0 0 0 0 0 0 0 582 0 0 0 0 niter_cg_restart
S 859 6 4 0 0 6 861 582 7321 58000cc 0 A 0 0 0 0 0 300 0 0 0 0 0 0 1587 0 0 0 0 0 0 0 0 0 0 582 0 0 0 0 epol
S 860 6 4 0 0 9 862 582 7326 58000cc 0 A 0 0 0 0 0 2096 0 0 0 0 0 0 1588 0 0 0 0 0 0 0 0 0 0 582 0 0 0 0 efield
S 861 6 4 0 0 6 863 582 7340 58000cc 0 A 0 0 0 0 0 304 0 0 0 0 0 0 1587 0 0 0 0 0 0 0 0 0 0 582 0 0 0 0 epol2
S 862 6 4 0 0 9 876 582 7346 58000cc 0 A 0 0 0 0 0 2104 0 0 0 0 0 0 1588 0 0 0 0 0 0 0 0 0 0 582 0 0 0 0 efield2
S 863 6 4 0 0 16 864 582 7361 58000cc 0 A 0 0 0 0 0 308 0 0 0 0 0 0 1587 0 0 0 0 0 0 0 0 0 0 582 0 0 0 0 tqr
S 864 6 4 0 0 16 886 582 7365 58000cc 0 A 0 0 0 0 0 312 0 0 0 0 0 0 1587 0 0 0 0 0 0 0 0 0 0 582 0 0 0 0 occupation_constraints
S 865 12 0 0 0 9 776 582 7388 44 0 A 0 0 0 0 0 866 0 0 101 169 0 0 0 0 0 0 0 0 0 0 0 0 0 582 0 0 0 0 electrons
N 778 911
N 779 911
N 781 911
N 787 911
N 782 911
N 784 911
N 789 911
N 795 911
N 796 911
N 798 911
N 799 911
N 800 911
N 803 911
N 804 911
N 805 911
N 806 911
N 807 911
N 808 911
N 809 911
N 810 911
N 811 911
N 812 911
N 813 911
N 814 911
N 815 911
N 816 911
N 817 911
N 818 911
N 820 911
N 819 911
N 821 911
N 822 911
N 823 911
N 824 911
N 825 911
N 826 911
N 827 911
N 836 911
N 863 911
N 830 911
N 831 911
N 828 911
N 838 911
N 802 911
N 834 911
N 832 911
N 829 911
N 839 911
N 843 911
N 848 911
N 849 911
N 851 911
N 850 911
N 846 911
N 847 911
N 852 911
N 853 911
N 854 911
N 856 911
N 859 911
N 860 911
N 861 911
N 862 911
N 833 911
N 864 911
N 786 911
N 858 911
N 840 911
N 841 911
N -1 -1
S 866 21 4 0 0 7 943 582 7398 4000004a 1000 A 0 0 0 0 0 5024 421 0 0 0 0 0 1589 0 0 0 0 0 0 0 0 0 0 582 0 0 0 0 electrons$nml
S 868 6 4 0 0 56 869 582 7417 58000cc 0 A 0 0 0 0 0 5184 0 0 0 0 0 0 1586 0 0 0 0 0 0 0 0 0 0 582 0 0 0 0 phase_space
S 869 7 4 0 4 129 871 582 7429 80006c 100 A 0 0 0 0 0 5264 0 0 0 0 0 0 1586 0 0 0 0 0 0 0 0 0 0 582 0 0 0 0 phase_space_allowed
S 871 6 4 0 0 56 872 582 7464 58000cc 0 A 0 0 0 0 0 5424 0 0 0 0 0 0 1586 0 0 0 0 0 0 0 0 0 0 582 0 0 0 0 ion_dynamics
S 872 7 4 0 4 132 879 582 7477 80006c 100 A 0 0 0 0 0 5504 0 0 0 0 0 0 1586 0 0 0 0 0 0 0 0 0 0 582 0 0 0 0 ion_dynamics_allowed
S 876 7 4 0 4 135 877 582 7519 58000cc 100 A 0 0 0 0 0 2112 0 0 0 0 0 0 1588 0 0 0 0 0 0 0 0 0 0 582 0 0 0 0 ion_radius
S 877 6 4 0 0 9 882 582 7537 58000cc 0 A 0 0 0 0 0 2192 0 0 0 0 0 0 1588 0 0 0 0 0 0 0 0 0 0 582 0 0 0 0 ion_damping
S 879 6 4 0 0 56 880 582 7556 58000cc 0 A 0 0 0 0 0 6144 0 0 0 0 0 0 1586 0 0 0 0 0 0 0 0 0 0 582 0 0 0 0 ion_positions
S 880 6 4 0 0 56 881 582 7570 58000cc 0 A 0 0 0 0 0 6224 0 0 0 0 0 0 1586 0 0 0 0 0 0 0 0 0 0 582 0 0 0 0 ion_velocities
S 881 6 4 0 0 56 898 582 7585 58000cc 0 A 0 0 0 0 0 6304 0 0 0 0 0 0 1586 0 0 0 0 0 0 0 0 0 0 582 0 0 0 0 ion_temperature
S 882 6 4 0 0 9 884 582 7601 58000cc 0 A 0 0 0 0 0 2200 0 0 0 0 0 0 1588 0 0 0 0 0 0 0 0 0 0 582 0 0 0 0 tempw
S 884 7 4 0 4 138 890 582 7616 58000cc 100 A 0 0 0 0 0 2208 0 0 0 0 0 0 1588 0 0 0 0 0 0 0 0 0 0 582 0 0 0 0 fnosep
S 886 6 4 0 0 6 887 582 7631 58000cc 0 A 0 0 0 0 0 316 0 0 0 0 0 0 1587 0 0 0 0 0 0 0 0 0 0 582 0 0 0 0 nhpcl
S 887 6 4 0 0 6 888 582 7637 58000cc 0 A 0 0 0 0 0 320 0 0 0 0 0 0 1587 0 0 0 0 0 0 0 0 0 0 582 0 0 0 0 nhptyp
S 888 7 4 0 4 141 889 582 7644 58000cc 100 A 0 0 0 0 0 336 0 0 0 0 0 0 1587 0 0 0 0 0 0 0 0 0 0 582 0 0 0 0 nhgrp
S 889 6 4 0 0 6 892 582 7650 58000cc 0 A 0 0 0 0 0 376 0 0 0 0 0 0 1587 0 0 0 0 0 0 0 0 0 0 582 0 0 0 0 ndega
S 890 6 4 0 0 9 891 582 7656 58000cc 0 A 0 0 0 0 0 2240 0 0 0 0 0 0 1588 0 0 0 0 0 0 0 0 0 0 582 0 0 0 0 tolp
S 891 7 4 0 4 144 893 582 7669 58000cc 100 A 0 0 0 0 0 2256 0 0 0 0 0 0 1588 0 0 0 0 0 0 0 0 0 0 582 0 0 0 0 fnhscl
S 892 7 4 0 4 147 895 582 7683 58000cc 100 A 0 0 0 0 0 384 0 0 0 0 0 0 1587 0 0 0 0 0 0 0 0 0 0 582 0 0 0 0 tranp
S 893 7 4 0 4 150 894 582 7689 58000cc 100 A 0 0 0 0 0 2336 0 0 0 0 0 0 1588 0 0 0 0 0 0 0 0 0 0 582 0 0 0 0 amprp
S 894 6 4 0 0 9 897 582 7702 58000cc 0 A 0 0 0 0 0 2416 0 0 0 0 0 0 1588 0 0 0 0 0 0 0 0 0 0 582 0 0 0 0 greasp
S 895 6 4 0 0 6 896 582 7716 58000cc 0 A 0 0 0 0 0 424 0 0 0 0 0 0 1587 0 0 0 0 0 0 0 0 0 0 582 0 0 0 0 ion_nstepe
S 896 6 4 0 0 6 901 582 7727 58000cc 0 A 0 0 0 0 0 428 0 0 0 0 0 0 1587 0 0 0 0 0 0 0 0 0 0 582 0 0 0 0 ion_maxstep
S 897 6 4 0 0 9 902 582 7739 58000cc 0 A 0 0 0 0 0 2424 0 0 0 0 0 0 1588 0 0 0 0 0 0 0 0 0 0 582 0 0 0 0 upscale
S 898 6 4 0 0 56 899 582 7754 58000cc 0 A 0 0 0 0 0 6384 0 0 0 0 0 0 1586 0 0 0 0 0 0 0 0 0 0 582 0 0 0 0 pot_extrapolation
S 899 6 4 0 0 56 909 582 7772 58000cc 0 A 0 0 0 0 0 6464 0 0 0 0 0 0 1586 0 0 0 0 0 0 0 0 0 0 582 0 0 0 0 wfc_extrapolation
S 900 6 4 0 0 16 993 582 7790 58000c4 0 A 0 0 0 0 0 4 0 0 0 0 0 0 1591 0 0 0 0 0 0 0 0 0 0 582 0 0 0 0 refold_pos
S 901 6 4 0 0 16 903 582 7801 58000cc 0 A 0 0 0 0 0 432 0 0 0 0 0 0 1587 0 0 0 0 0 0 0 0 0 0 582 0 0 0 0 remove_rigid_rot
S 902 6 4 0 0 9 921 582 7818 58000cc 0 A 0 0 0 0 0 2432 0 0 0 0 0 0 1588 0 0 0 0 0 0 0 0 0 0 582 0 0 0 0 delta_t
S 903 6 4 0 0 6 904 582 7833 58000cc 0 A 0 0 0 0 0 436 0 0 0 0 0 0 1587 0 0 0 0 0 0 0 0 0 0 582 0 0 0 0 nraise
S 904 6 4 0 0 16 905 582 7840 80000c 0 A 0 0 0 0 0 440 0 0 0 0 0 0 1587 0 0 0 0 0 0 0 0 0 0 582 0 0 0 0 full_phs_path_flag
S 905 6 4 0 0 16 906 582 7859 80000c 0 A 0 0 0 0 0 444 0 0 0 0 0 0 1587 0 0 0 0 0 0 0 0 0 0 582 0 0 0 0 cg_phs_path_flag
S 906 6 4 0 0 6 907 582 7876 80000c 0 A 0 0 0 0 0 448 0 0 0 0 0 0 1587 0 0 0 0 0 0 0 0 0 0 582 0 0 0 0 input_images
S 907 6 4 0 0 6 913 582 7889 58000cc 0 A 0 0 0 0 0 452 0 0 0 0 0 0 1587 0 0 0 0 0 0 0 0 0 0 582 0 0 0 0 num_of_images
S 909 6 4 0 0 56 910 582 7909 58000cc 0 A 0 0 0 0 0 6544 0 0 0 0 0 0 1586 0 0 0 0 0 0 0 0 0 0 582 0 0 0 0 ci_scheme
S 910 7 4 0 4 153 918 582 7919 80006c 100 A 0 0 0 0 0 6624 0 0 0 0 0 0 1586 0 0 0 0 0 0 0 0 0 0 582 0 0 0 0 ci_scheme_allowed
S 913 6 4 0 0 16 914 582 7949 58000cc 0 A 0 0 0 0 0 456 0 0 0 0 0 0 1587 0 0 0 0 0 0 0 0 0 0 582 0 0 0 0 first_last_opt
S 914 6 4 0 0 16 915 582 7964 58000cc 0 A 0 0 0 0 0 460 0 0 0 0 0 0 1587 0 0 0 0 0 0 0 0 0 0 582 0 0 0 0 use_masses
S 915 6 4 0 0 16 916 582 7975 58000cc 0 A 0 0 0 0 0 464 0 0 0 0 0 0 1587 0 0 0 0 0 0 0 0 0 0 582 0 0 0 0 use_freezing
S 916 6 4 0 0 16 927 582 7988 58000cc 0 A 0 0 0 0 0 468 0 0 0 0 0 0 1587 0 0 0 0 0 0 0 0 0 0 582 0 0 0 0 fixed_tan
S 918 6 4 0 0 56 919 582 8008 58000cc 0 A 0 0 0 0 0 6864 0 0 0 0 0 0 1586 0 0 0 0 0 0 0 0 0 0 582 0 0 0 0 opt_scheme
S 919 7 4 0 4 156 944 582 8019 80006c 100 A 0 0 0 0 0 6944 0 0 0 0 0 0 1586 0 0 0 0 0 0 0 0 0 0 582 0 0 0 0 opt_scheme_allowed
S 921 6 4 0 0 9 922 582 8046 58000cc 0 A 0 0 0 0 0 2440 0 0 0 0 0 0 1588 0 0 0 0 0 0 0 0 0 0 582 0 0 0 0 temp_req
S 922 6 4 0 0 9 923 582 8062 58000cc 0 A 0 0 0 0 0 2448 0 0 0 0 0 0 1588 0 0 0 0 0 0 0 0 0 0 582 0 0 0 0 ds
S 923 6 4 0 0 9 925 582 8072 58000cc 0 A 0 0 0 0 0 2456 0 0 0 0 0 0 1588 0 0 0 0 0 0 0 0 0 0 582 0 0 0 0 k_max
S 925 6 4 0 0 9 926 582 8085 58000cc 0 A 0 0 0 0 0 2464 0 0 0 0 0 0 1588 0 0 0 0 0 0 0 0 0 0 582 0 0 0 0 k_min
S 926 6 4 0 0 9 928 582 8098 58000cc 0 A 0 0 0 0 0 2472 0 0 0 0 0 0 1588 0 0 0 0 0 0 0 0 0 0 582 0 0 0 0 path_thr
S 927 6 4 0 0 6 935 582 8115 58000cc 0 A 0 0 0 0 0 472 0 0 0 0 0 0 1587 0 0 0 0 0 0 0 0 0 0 582 0 0 0 0 bfgs_ndim
S 928 6 4 0 0 9 930 582 8125 58000cc 0 A 0 0 0 0 0 2480 0 0 0 0 0 0 1588 0 0 0 0 0 0 0 0 0 0 582 0 0 0 0 trust_radius_max
S 930 6 4 0 0 9 931 582 8149 58000cc 0 A 0 0 0 0 0 2488 0 0 0 0 0 0 1588 0 0 0 0 0 0 0 0 0 0 582 0 0 0 0 trust_radius_min
S 931 6 4 0 0 9 932 582 8175 58000cc 0 A 0 0 0 0 0 2496 0 0 0 0 0 0 1588 0 0 0 0 0 0 0 0 0 0 582 0 0 0 0 trust_radius_ini
S 932 6 4 0 0 9 933 582 8199 58000cc 0 A 0 0 0 0 0 2504 0 0 0 0 0 0 1588 0 0 0 0 0 0 0 0 0 0 582 0 0 0 0 w_1
S 933 6 4 0 0 9 934 582 8213 58000cc 0 A 0 0 0 0 0 2512 0 0 0 0 0 0 1588 0 0 0 0 0 0 0 0 0 0 582 0 0 0 0 w_2
S 934 6 4 0 0 9 938 582 8224 58000cc 0 A 0 0 0 0 0 2520 0 0 0 0 0 0 1588 0 0 0 0 0 0 0 0 0 0 582 0 0 0 0 sic_rloc
S 935 6 4 0 0 6 936 582 8240 58000cc 0 A 0 0 0 0 0 476 0 0 0 0 0 0 1587 0 0 0 0 0 0 0 0 0 0 582 0 0 0 0 fe_nstep
S 936 6 4 0 0 6 937 582 8249 58000cc 0 A 0 0 0 0 0 480 0 0 0 0 0 0 1587 0 0 0 0 0 0 0 0 0 0 582 0 0 0 0 sw_nstep
S 937 6 4 0 0 6 961 582 8258 58000cc 0 A 0 0 0 0 0 484 0 0 0 0 0 0 1587 0 0 0 0 0 0 0 0 0 0 582 0 0 0 0 eq_nstep
S 938 6 4 0 0 9 940 582 8267 58000cc 0 A 0 0 0 0 0 2528 0 0 0 0 0 0 1588 0 0 0 0 0 0 0 0 0 0 582 0 0 0 0 g_amplitude
S 940 7 4 0 4 159 952 582 8288 58000cc 100 A 0 0 0 0 0 2544 0 0 0 0 0 0 1588 0 0 0 0 0 0 0 0 0 0 582 0 0 0 0 fe_step
S 942 12 0 0 0 6 865 582 8303 44 0 A 0 0 0 0 0 943 0 0 170 220 0 0 0 0 0 0 0 0 0 0 0 0 0 582 0 0 0 0 ions
N 868 1159
N 871 1159
N 876 1159
N 877 1159
N 879 1159
N 880 1159
N 881 1159
N 882 1159
N 884 1159
N 888 1159
N 891 1159
N 886 1159
N 887 1159
N 889 1159
N 892 1159
N 893 1159
N 894 1159
N 890 1159
N 895 1159
N 896 1159
N 900 1159
N 897 1159
N 902 1159
N 898 1159
N 899 1159
N 903 1159
N 901 1159
N 907 1159
N 909 1159
N 918 1159
N 914 1159
N 913 1159
N 922 1159
N 923 1159
N 925 1159
N 921 1159
N 926 1159
N 916 1159
N 915 1159
N 928 1159
N 930 1159
N 931 1159
N 932 1159
N 933 1159
N 927 1159
N 934 1159
N 940 1159
N 935 1159
N 936 1159
N 937 1159
N 938 1159
N -1 -1
S 943 21 4 0 0 7 965 582 8308 4000004a 1000 A 0 0 0 0 0 8392 323 0 0 0 0 0 1589 0 0 0 0 0 0 0 0 0 0 582 0 0 0 0 ions$nml
S 944 6 4 0 0 56 945 582 8317 58000cc 0 A 0 0 0 0 0 7264 0 0 0 0 0 0 1586 0 0 0 0 0 0 0 0 0 0 582 0 0 0 0 cell_parameters
S 945 6 4 0 0 56 946 582 8333 58000cc 0 A 0 0 0 0 0 7344 0 0 0 0 0 0 1586 0 0 0 0 0 0 0 0 0 0 582 0 0 0 0 cell_dynamics
S 946 7 4 0 4 162 951 582 8347 80006c 100 A 0 0 0 0 0 7424 0 0 0 0 0 0 1586 0 0 0 0 0 0 0 0 0 0 582 0 0 0 0 cell_dynamics_allowed
S 951 6 4 0 0 56 954 582 8389 58000cc 0 A 0 0 0 0 0 7984 0 0 0 0 0 0 1586 0 0 0 0 0 0 0 0 0 0 582 0 0 0 0 cell_velocities
S 952 6 4 0 0 9 953 582 8405 58000cc 0 A 0 0 0 0 0 3344 0 0 0 0 0 0 1588 0 0 0 0 0 0 0 0 0 0 582 0 0 0 0 press
S 953 6 4 0 0 9 955 582 8418 58000cc 0 A 0 0 0 0 0 3352 0 0 0 0 0 0 1588 0 0 0 0 0 0 0 0 0 0 582 0 0 0 0 wmass
S 954 6 4 0 0 56 959 582 8431 58000cc 0 A 0 0 0 0 0 8064 0 0 0 0 0 0 1586 0 0 0 0 0 0 0 0 0 0 582 0 0 0 0 cell_temperature
S 955 6 4 0 0 9 956 582 8448 58000cc 0 A 0 0 0 0 0 3360 0 0 0 0 0 0 1588 0 0 0 0 0 0 0 0 0 0 582 0 0 0 0 temph
S 956 6 4 0 0 9 957 582 8461 58000cc 0 A 0 0 0 0 0 3368 0 0 0 0 0 0 1588 0 0 0 0 0 0 0 0 0 0 582 0 0 0 0 fnoseh
S 957 6 4 0 0 9 960 582 8475 58000cc 0 A 0 0 0 0 0 3376 0 0 0 0 0 0 1588 0 0 0 0 0 0 0 0 0 0 582 0 0 0 0 greash
S 959 6 4 0 0 56 1019 582 8493 58000cc 0 A 0 0 0 0 0 8144 0 0 0 0 0 0 1586 0 0 0 0 0 0 0 0 0 0 582 0 0 0 0 cell_dofree
S 960 6 4 0 0 9 962 582 8505 58000cc 0 A 0 0 0 0 0 3384 0 0 0 0 0 0 1588 0 0 0 0 0 0 0 0 0 0 582 0 0 0 0 cell_factor
S 961 6 4 0 0 6 966 582 8524 58000cc 0 A 0 0 0 0 0 488 0 0 0 0 0 0 1587 0 0 0 0 0 0 0 0 0 0 582 0 0 0 0 cell_nstepe
S 962 6 4 0 0 9 963 582 8536 58000cc 0 A 0 0 0 0 0 3392 0 0 0 0 0 0 1588 0 0 0 0 0 0 0 0 0 0 582 0 0 0 0 cell_damping
S 963 6 4 0 0 9 974 582 8556 58000cc 0 A 0 0 0 0 0 3400 0 0 0 0 0 0 1588 0 0 0 0 0 0 0 0 0 0 582 0 0 0 0 press_conv_thr
S 964 12 0 0 0 9 942 582 8578 44 0 A 0 0 0 0 0 965 0 0 221 234 0 0 0 0 0 0 0 0 0 0 0 0 0 582 0 0 0 0 cell
N 944 1259
N 945 1259
N 951 1259
N 952 1259
N 953 1259
N 954 1259
N 955 1259
N 956 1259
N 959 1259
N 957 1259
N 960 1259
N 961 1259
N 962 1259
N 963 1259
N -1 -1
S 965 21 4 0 0 7 988 582 8583 4000004a 1000 A 0 0 0 0 0 10976 87 0 0 0 0 0 1589 0 0 0 0 0 0 0 0 0 0 582 0 0 0 0 cell$nml
S 966 6 4 0 0 16 967 582 8592 58000cc 0 A 0 0 0 0 0 492 0 0 0 0 0 0 1587 0 0 0 0 0 0 0 0 0 0 582 0 0 0 0 abivol
S 967 6 4 0 0 16 968 582 8599 58000cc 0 A 0 0 0 0 0 496 0 0 0 0 0 0 1587 0 0 0 0 0 0 0 0 0 0 582 0 0 0 0 abisur
S 968 6 4 0 0 16 969 582 8606 58000cc 0 A 0 0 0 0 0 500 0 0 0 0 0 0 1587 0 0 0 0 0 0 0 0 0 0 582 0 0 0 0 pvar
S 969 6 4 0 0 16 970 582 8611 58000cc 0 A 0 0 0 0 0 504 0 0 0 0 0 0 1587 0 0 0 0 0 0 0 0 0 0 582 0 0 0 0 fill_vac
S 970 6 4 0 0 16 971 582 8620 58000cc 0 A 0 0 0 0 0 508 0 0 0 0 0 0 1587 0 0 0 0 0 0 0 0 0 0 582 0 0 0 0 scale_at
S 971 6 4 0 0 16 972 582 8629 58000cc 0 A 0 0 0 0 0 512 0 0 0 0 0 0 1587 0 0 0 0 0 0 0 0 0 0 582 0 0 0 0 t_gauss
S 972 6 4 0 0 16 973 582 8637 58000cc 0 A 0 0 0 0 0 516 0 0 0 0 0 0 1587 0 0 0 0 0 0 0 0 0 0 582 0 0 0 0 jellium
S 973 7 4 0 4 165 985 582 8645 58000cc 100 A 0 0 0 0 0 528 0 0 0 0 0 0 1587 0 0 0 0 0 0 0 0 0 0 582 0 0 0 0 cntr
S 974 6 4 0 0 9 975 582 8650 58000cc 0 A 0 0 0 0 0 3408 0 0 0 0 0 0 1588 0 0 0 0 0 0 0 0 0 0 582 0 0 0 0 p_ext
S 975 6 4 0 0 9 976 582 8663 58000cc 0 A 0 0 0 0 0 3416 0 0 0 0 0 0 1588 0 0 0 0 0 0 0 0 0 0 582 0 0 0 0 p_in
S 976 6 4 0 0 9 977 582 8675 58000cc 0 A 0 0 0 0 0 3424 0 0 0 0 0 0 1588 0 0 0 0 0 0 0 0 0 0 582 0 0 0 0 p_fin
S 977 6 4 0 0 9 978 582 8688 58000cc 0 A 0 0 0 0 0 3432 0 0 0 0 0 0 1588 0 0 0 0 0 0 0 0 0 0 582 0 0 0 0 rho_thr
S 978 7 4 0 4 168 979 582 8703 58000cc 100 A 0 0 0 0 0 3440 0 0 0 0 0 0 1588 0 0 0 0 0 0 0 0 0 0 582 0 0 0 0 step_rad
S 979 6 4 0 0 9 980 582 8719 58000cc 0 A 0 0 0 0 0 3520 0 0 0 0 0 0 1588 0 0 0 0 0 0 0 0 0 0 582 0 0 0 0 surf_t
S 980 6 4 0 0 9 981 582 8733 58000cc 0 A 0 0 0 0 0 3528 0 0 0 0 0 0 1588 0 0 0 0 0 0 0 0 0 0 582 0 0 0 0 dthr
S 981 6 4 0 0 9 982 582 8745 58000cc 0 A 0 0 0 0 0 3536 0 0 0 0 0 0 1588 0 0 0 0 0 0 0 0 0 0 582 0 0 0 0 r_j
S 982 6 4 0 0 9 983 582 8756 58000cc 0 A 0 0 0 0 0 3544 0 0 0 0 0 0 1588 0 0 0 0 0 0 0 0 0 0 582 0 0 0 0 h_j
S 983 6 4 0 0 9 984 582 8767 58000cc 0 A 0 0 0 0 0 3552 0 0 0 0 0 0 1588 0 0 0 0 0 0 0 0 0 0 582 0 0 0 0 delta_eps
S 984 6 4 0 0 9 990 582 8784 58000cc 0 A 0 0 0 0 0 3560 0 0 0 0 0 0 1588 0 0 0 0 0 0 0 0 0 0 582 0 0 0 0 delta_sigma
S 985 6 4 0 0 6 986 582 8803 58000cc 0 A 0 0 0 0 0 568 0 0 0 0 0 0 1587 0 0 0 0 0 0 0 0 0 0 582 0 0 0 0 n_cntr
S 986 6 4 0 0 6 989 582 8810 58000cc 0 A 0 0 0 0 0 572 0 0 0 0 0 0 1587 0 0 0 0 0 0 0 0 0 0 582 0 0 0 0 axis
S 987 12 0 0 0 9 964 582 8815 44 0 A 0 0 0 0 0 988 0 0 235 255 0 0 0 0 0 0 0 0 0 0 0 0 0 582 0 0 0 0 press_ai
N 966 1292
N 974 1292
N 968 1292
N 975 1292
N 976 1292
N 977 1292
N 978 1292
N 983 1292
N 984 1292
N 985 1292
N 969 1292
N 970 1292
N 971 1292
N 967 1292
N 979 1292
N 980 1292
N 973 1292
N 986 1292
N 972 1292
N 981 1292
N 982 1292
N -1 -1
S 988 21 4 0 0 7 992 582 8824 4000004a 1000 A 0 0 0 0 0 11672 133 0 0 0 0 0 1589 0 0 0 0 0 0 0 0 0 0 582 0 0 0 0 press_ai$nml
S 989 6 4 0 0 6 1023 582 8837 58000cc 0 A 0 0 0 0 0 576 0 0 0 0 0 0 1587 0 0 0 0 0 0 0 0 0 0 582 0 0 0 0 modenum
S 990 7 4 0 4 171 1022 582 8845 58000cc 100 A 0 0 0 0 0 3568 0 0 0 0 0 0 1588 0 0 0 0 0 0 0 0 0 0 582 0 0 0 0 xqq
S 991 12 0 0 0 9 987 582 8856 44 0 A 0 0 0 0 0 992 0 0 256 257 0 0 0 0 0 0 0 0 0 0 0 0 0 582 0 0 0 0 phonon
N 989 1308
N 990 1308
N -1 -1
S 992 21 4 0 0 7 1017 582 8863 4000004a 1000 A 0 0 0 0 0 12736 17 0 0 0 0 0 1589 0 0 0 0 0 0 0 0 0 0 582 0 0 0 0 phonon$nml
S 993 6 4 0 0 16 994 582 8874 58000c4 0 A 0 0 0 0 0 8 0 0 0 0 0 0 1591 0 0 0 0 0 0 0 0 0 0 582 0 0 0 0 wf_efield
S 994 6 4 0 0 16 995 582 8884 58000c4 0 A 0 0 0 0 0 12 0 0 0 0 0 0 1591 0 0 0 0 0 0 0 0 0 0 582 0 0 0 0 wf_switch
S 995 6 4 0 0 6 1002 582 8894 58000c4 0 A 0 0 0 0 0 16 0 0 0 0 0 0 1591 0 0 0 0 0 0 0 0 0 0 582 0 0 0 0 sw_len
S 996 6 4 0 0 9 997 582 8901 58000c4 0 A 0 0 0 0 0 8 0 0 0 0 0 0 1590 0 0 0 0 0 0 0 0 0 0 582 0 0 0 0 efx0
S 997 6 4 0 0 9 998 582 8906 58000c4 0 A 0 0 0 0 0 16 0 0 0 0 0 0 1590 0 0 0 0 0 0 0 0 0 0 582 0 0 0 0 efy0
S 998 6 4 0 0 9 999 582 8911 58000c4 0 A 0 0 0 0 0 24 0 0 0 0 0 0 1590 0 0 0 0 0 0 0 0 0 0 582 0 0 0 0 efz0
S 999 6 4 0 0 9 1000 582 8916 58000c4 0 A 0 0 0 0 0 32 0 0 0 0 0 0 1590 0 0 0 0 0 0 0 0 0 0 582 0 0 0 0 efx1
S 1000 6 4 0 0 9 1001 582 8921 58000c4 0 A 0 0 0 0 0 40 0 0 0 0 0 0 1590 0 0 0 0 0 0 0 0 0 0 582 0 0 0 0 efy1
S 1001 6 4 0 0 9 1003 582 8926 58000c4 0 A 0 0 0 0 0 48 0 0 0 0 0 0 1590 0 0 0 0 0 0 0 0 0 0 582 0 0 0 0 efz1
S 1002 6 4 0 0 16 1007 582 8931 58000c4 0 A 0 0 0 0 0 20 0 0 0 0 0 0 1591 0 0 0 0 0 0 0 0 0 0 582 0 0 0 0 wfsd
S 1003 6 4 0 0 9 1004 582 8936 58000c4 0 A 0 0 0 0 0 56 0 0 0 0 0 0 1590 0 0 0 0 0 0 0 0 0 0 582 0 0 0 0 wfdt
S 1004 6 4 0 0 9 1005 582 8941 58000c4 0 A 0 0 0 0 0 64 0 0 0 0 0 0 1590 0 0 0 0 0 0 0 0 0 0 582 0 0 0 0 maxwfdt
S 1005 6 4 0 0 9 1006 582 8949 58000c4 0 A 0 0 0 0 0 72 0 0 0 0 0 0 1590 0 0 0 0 0 0 0 0 0 0 582 0 0 0 0 wf_q
S 1006 6 4 0 0 9 1010 582 8954 58000c4 0 A 0 0 0 0 0 80 0 0 0 0 0 0 1590 0 0 0 0 0 0 0 0 0 0 582 0 0 0 0 wf_friction
S 1007 6 4 0 0 6 1008 582 8966 58000c4 0 A 0 0 0 0 0 24 0 0 0 0 0 0 1591 0 0 0 0 0 0 0 0 0 0 582 0 0 0 0 nit
S 1008 6 4 0 0 6 1009 582 8970 58000c4 0 A 0 0 0 0 0 28 0 0 0 0 0 0 1591 0 0 0 0 0 0 0 0 0 0 582 0 0 0 0 nsd
S 1009 6 4 0 0 6 1011 582 8974 58000c4 0 A 0 0 0 0 0 32 0 0 0 0 0 0 1591 0 0 0 0 0 0 0 0 0 0 582 0 0 0 0 nsteps
S 1010 6 4 0 0 9 1 582 8981 58000c4 0 A 0 0 0 0 0 88 0 0 0 0 0 0 1590 0 0 0 0 0 0 0 0 0 0 582 0 0 0 0 tolw
S 1011 6 4 0 0 16 1012 582 8986 58000c4 0 A 0 0 0 0 0 36 0 0 0 0 0 0 1591 0 0 0 0 0 0 0 0 0 0 582 0 0 0 0 adapt
S 1012 6 4 0 0 6 1013 582 8992 58000c4 0 A 0 0 0 0 0 40 0 0 0 0 0 0 1591 0 0 0 0 0 0 0 0 0 0 582 0 0 0 0 calwf
S 1013 6 4 0 0 6 1014 582 8998 58000c4 0 A 0 0 0 0 0 44 0 0 0 0 0 0 1591 0 0 0 0 0 0 0 0 0 0 582 0 0 0 0 nwf
S 1014 6 4 0 0 6 1015 582 9002 58000c4 0 A 0 0 0 0 0 48 0 0 0 0 0 0 1591 0 0 0 0 0 0 0 0 0 0 582 0 0 0 0 wffort
S 1015 6 4 0 0 16 1025 582 9009 58000c4 0 A 0 0 0 0 0 52 0 0 0 0 0 0 1591 0 0 0 0 0 0 0 0 0 0 582 0 0 0 0 writev
S 1016 12 0 0 0 9 991 582 9016 44 0 A 0 0 0 0 0 1017 0 0 258 280 0 0 0 0 0 0 0 0 0 0 0 0 0 582 0 0 0 0 wannier
N 993 1343
N 994 1343
N 995 1343
N 996 1343
N 997 1343
N 998 1343
N 999 1343
N 1000 1343
N 1001 1343
N 1002 1343
N 1003 1343
N 1004 1343
N 1005 1343
N 1006 1343
N 1007 1343
N 1008 1343
N 1009 1343
N 1010 1343
N 1011 1343
N 1012 1343
N 1013 1343
N 1014 1343
N 1015 1343
N -1 -1
S 1017 21 4 0 0 7 1 582 9024 4000004a 1000 A 0 0 0 0 0 12872 141 0 0 0 0 0 1589 0 0 0 0 0 0 0 0 0 0 582 0 0 0 0 wannier$nml
S 1019 7 4 0 4 174 1021 582 9039 80000c 100 A 0 0 0 0 0 8224 0 0 0 0 0 0 1586 0 0 0 0 0 0 0 0 0 0 582 0 0 0 0 atom_label
S 1021 7 4 0 4 177 1063 582 9053 80000c 100 A 0 0 0 0 0 8256 0 0 0 0 0 0 1586 0 0 0 0 0 0 0 0 0 0 582 0 0 0 0 atom_pfile
S 1022 7 4 0 4 180 1086 582 9064 80000c 100 A 0 0 0 0 0 3600 0 0 0 0 0 0 1588 0 0 0 0 0 0 0 0 0 0 582 0 0 0 0 atom_mass
S 1023 6 4 0 0 16 1061 582 9081 80000c 0 A 0 0 0 0 0 580 0 0 0 0 0 0 1587 0 0 0 0 0 0 0 0 0 0 582 0 0 0 0 taspc
S 1024 7 6 0 0 183 1 582 9087 10a00004 51 A 0 0 0 0 0 0 1029 0 0 0 1031 0 0 0 0 0 0 0 0 1028 0 0 1030 582 0 0 0 0 rd_pos
S 1025 6 4 0 0 6 1026 582 9094 40800006 0 A 0 0 0 0 0 56 0 0 0 0 0 0 1591 0 0 0 0 0 0 0 0 0 0 582 0 0 0 0 z_b_0
S 1026 6 4 0 0 6 1036 582 9100 40800006 0 A 0 0 0 0 0 60 0 0 0 0 0 0 1591 0 0 0 0 0 0 0 0 0 0 582 0 0 0 0 z_b_1
S 1027 3 0 0 0 6 0 1 0 0 0 A 0 0 0 0 0 0 0 0 0 24 0 0 0 0 0 0 0 0 0 0 0 0 0 0 0 0 0 0 6
S 1028 8 4 0 0 186 1039 582 9106 40822064 1020 A 0 0 0 0 0 0 0 0 0 0 0 0 1591 0 0 0 0 0 0 0 0 0 0 582 0 0 0 0 rd_pos$sd
S 1029 6 4 0 0 7 1030 582 9116 40802061 1020 A 0 0 0 0 0 96 0 0 0 0 0 0 1591 0 0 0 0 0 0 0 0 0 0 582 0 0 0 0 rd_pos$p
S 1030 6 4 0 0 7 1028 582 9125 40802060 1020 A 0 0 0 0 0 104 0 0 0 0 0 0 1591 0 0 0 0 0 0 0 0 0 0 582 0 0 0 0 rd_pos$o
S 1031 22 1 0 0 9 1 582 9134 40000000 1000 A 0 0 0 0 0 0 0 1024 0 0 0 0 1028 0 0 0 0 0 0 0 0 0 0 582 0 0 0 0 rd_pos$arrdsc
S 1032 3 0 0 0 6 0 1 0 0 0 A 0 0 0 0 0 0 0 0 0 13 0 0 0 0 0 0 0 0 0 0 0 0 0 0 0 0 0 0 6
S 1033 3 0 0 0 6 0 1 0 0 0 A 0 0 0 0 0 0 0 0 0 19 0 0 0 0 0 0 0 0 0 0 0 0 0 0 0 0 0 0 6
S 1034 3 0 0 0 6 0 1 0 0 0 A 0 0 0 0 0 0 0 0 0 23 0 0 0 0 0 0 0 0 0 0 0 0 0 0 0 0 0 0 6
S 1035 7 6 0 0 189 1 582 9148 10a00004 51 A 0 0 0 0 0 0 1039 0 0 0 1041 0 0 0 0 0 0 0 0 1038 0 0 1040 582 0 0 0 0 sp_pos
S 1036 6 4 0 0 6 1043 582 9155 40800006 0 A 0 0 0 0 0 64 0 0 0 0 0 0 1591 0 0 0 0 0 0 0 0 0 0 582 0 0 0 0 z_b_2
S 1037 3 0 0 0 6 0 1 0 0 0 A 0 0 0 0 0 0 0 0 0 18 0 0 0 0 0 0 0 0 0 0 0 0 0 0 0 0 0 0 6
S 1038 8 4 0 0 192 1046 582 9161 40822064 1020 A 0 0 0 0 0 112 0 0 0 0 0 0 1591 0 0 0 0 0 0 0 0 0 0 582 0 0 0 0 sp_pos$sd
S 1039 6 4 0 0 7 1040 582 9171 40802061 1020 A 0 0 0 0 0 184 0 0 0 0 0 0 1591 0 0 0 0 0 0 0 0 0 0 582 0 0 0 0 sp_pos$p
S 1040 6 4 0 0 7 1038 582 9180 40802060 1020 A 0 0 0 0 0 192 0 0 0 0 0 0 1591 0 0 0 0 0 0 0 0 0 0 582 0 0 0 0 sp_pos$o
S 1041 22 1 0 0 9 1 582 9189 40000000 1000 A 0 0 0 0 0 0 0 1035 0 0 0 0 1038 0 0 0 0 0 0 0 0 0 0 582 0 0 0 0 sp_pos$arrdsc
S 1042 7 6 0 0 195 1 582 9203 10a00004 51 A 0 0 0 0 0 0 1046 0 0 0 1048 0 0 0 0 0 0 0 0 1045 0 0 1047 582 0 0 0 0 if_pos
S 1043 6 4 0 0 6 1044 582 9210 40800006 0 A 0 0 0 0 0 68 0 0 0 0 0 0 1591 0 0 0 0 0 0 0 0 0 0 582 0 0 0 0 z_b_3
S 1044 6 4 0 0 6 1050 582 9216 40800006 0 A 0 0 0 0 0 72 0 0 0 0 0 0 1591 0 0 0 0 0 0 0 0 0 0 582 0 0 0 0 z_b_4
S 1045 8 4 0 0 198 1052 582 9222 40822064 1020 A 0 0 0 0 0 200 0 0 0 0 0 0 1591 0 0 0 0 0 0 0 0 0 0 582 0 0 0 0 if_pos$sd
S 1046 6 4 0 0 7 1047 582 9232 40802061 1020 A 0 0 0 0 0 296 0 0 0 0 0 0 1591 0 0 0 0 0 0 0 0 0 0 582 0 0 0 0 if_pos$p
S 1047 6 4 0 0 7 1045 582 9241 40802060 1020 A 0 0 0 0 0 304 0 0 0 0 0 0 1591 0 0 0 0 0 0 0 0 0 0 582 0 0 0 0 if_pos$o
S 1048 22 1 0 0 6 1 582 9250 40000000 1000 A 0 0 0 0 0 0 0 1042 0 0 0 0 1045 0 0 0 0 0 0 0 0 0 0 582 0 0 0 0 if_pos$arrdsc
S 1049 7 6 0 0 201 1 582 9264 10a00004 51 A 0 0 0 0 0 0 1052 0 0 0 1054 0 0 0 0 0 0 0 0 1051 0 0 1053 582 0 0 0 0 id_loc
S 1050 6 4 0 0 6 1056 582 9271 40800006 0 A 0 0 0 0 0 76 0 0 0 0 0 0 1591 0 0 0 0 0 0 0 0 0 0 582 0 0 0 0 z_b_5
S 1051 8 4 0 0 204 1058 582 9277 40822064 1020 A 0 0 0 0 0 312 0 0 0 0 0 0 1591 0 0 0 0 0 0 0 0 0 0 582 0 0 0 0 id_loc$sd
S 1052 6 4 0 0 7 1053 582 9287 40802061 1020 A 0 0 0 0 0 384 0 0 0 0 0 0 1591 0 0 0 0 0 0 0 0 0 0 582 0 0 0 0 id_loc$p
S 1053 6 4 0 0 7 1051 582 9296 40802060 1020 A 0 0 0 0 0 392 0 0 0 0 0 0 1591 0 0 0 0 0 0 0 0 0 0 582 0 0 0 0 id_loc$o
S 1054 22 1 0 0 6 1 582 9305 40000000 1000 A 0 0 0 0 0 0 0 1049 0 0 0 0 1051 0 0 0 0 0 0 0 0 0 0 582 0 0 0 0 id_loc$arrdsc
S 1055 7 6 0 0 207 1 582 9319 10a00004 51 A 0 0 0 0 0 0 1058 0 0 0 1060 0 0 0 0 0 0 0 0 1057 0 0 1059 582 0 0 0 0 na_inp
S 1056 6 4 0 0 6 1065 582 9326 40800006 0 A 0 0 0 0 0 80 0 0 0 0 0 0 1591 0 0 0 0 0 0 0 0 0 0 582 0 0 0 0 z_b_6
S 1057 8 4 0 0 210 1068 582 9332 40822064 1020 A 0 0 0 0 0 400 0 0 0 0 0 0 1591 0 0 0 0 0 0 0 0 0 0 582 0 0 0 0 na_inp$sd
S 1058 6 4 0 0 7 1059 582 9342 40802061 1020 A 0 0 0 0 0 472 0 0 0 0 0 0 1591 0 0 0 0 0 0 0 0 0 0 582 0 0 0 0 na_inp$p
S 1059 6 4 0 0 7 1057 582 9351 40802060 1020 A 0 0 0 0 0 480 0 0 0 0 0 0 1591 0 0 0 0 0 0 0 0 0 0 582 0 0 0 0 na_inp$o
S 1060 22 1 0 0 6 1 582 9360 40000000 1000 A 0 0 0 0 0 0 0 1055 0 0 0 0 1057 0 0 0 0 0 0 0 0 0 0 582 0 0 0 0 na_inp$arrdsc
S 1061 6 4 0 0 16 1084 582 9374 80000c 0 A 0 0 0 0 0 584 0 0 0 0 0 0 1587 0 0 0 0 0 0 0 0 0 0 582 0 0 0 0 tapos
S 1063 6 4 0 0 56 1097 582 9388 80000c 0 A 0 0 0 0 0 9056 0 0 0 0 0 0 1586 0 0 0 0 0 0 0 0 0 0 582 0 0 0 0 atomic_positions
S 1064 7 6 0 0 213 1 582 9405 10a00004 51 A 0 0 0 0 0 0 1068 0 0 0 1070 0 0 0 0 0 0 0 0 1067 0 0 1069 582 0 0 0 0 pos
S 1065 6 4 0 0 6 1066 582 9409 40800006 0 A 0 0 0 0 0 84 0 0 0 0 0 0 1591 0 0 0 0 0 0 0 0 0 0 582 0 0 0 0 z_b_7
S 1066 6 4 0 0 6 1072 582 9415 40800006 0 A 0 0 0 0 0 88 0 0 0 0 0 0 1591 0 0 0 0 0 0 0 0 0 0 582 0 0 0 0 z_b_8
S 1067 8 4 0 0 216 1075 582 9421 40822064 1020 A 0 0 0 0 0 488 0 0 0 0 0 0 1591 0 0 0 0 0 0 0 0 0 0 582 0 0 0 0 pos$sd
S 1068 6 4 0 0 7 1069 582 9428 40802061 1020 A 0 0 0 0 0 584 0 0 0 0 0 0 1591 0 0 0 0 0 0 0 0 0 0 582 0 0 0 0 pos$p
S 1069 6 4 0 0 7 1067 582 9434 40802060 1020 A 0 0 0 0 0 592 0 0 0 0 0 0 1591 0 0 0 0 0 0 0 0 0 0 582 0 0 0 0 pos$o
S 1070 22 1 0 0 9 1 582 9440 40000000 1000 A 0 0 0 0 0 0 0 1064 0 0 0 0 1067 0 0 0 0 0 0 0 0 0 0 582 0 0 0 0 pos$arrdsc
S 1071 7 6 0 0 219 1 582 9451 10a00004 51 A 0 0 0 0 0 0 1075 0 0 0 1077 0 0 0 0 0 0 0 0 1074 0 0 1076 582 0 0 0 0 rd_vel
S 1072 6 4 0 0 6 1073 582 9458 40800006 0 A 0 0 0 0 0 92 0 0 0 0 0 0 1591 0 0 0 0 0 0 0 0 0 0 582 0 0 0 0 z_b_9
S 1073 6 4 0 0 6 1079 582 9464 40800006 0 A 0 0 0 0 0 96 0 0 0 0 0 0 1591 0 0 0 0 0 0 0 0 0 0 582 0 0 0 0 z_b_10
S 1074 8 4 0 0 222 1081 582 9471 40822064 1020 A 0 0 0 0 0 600 0 0 0 0 0 0 1591 0 0 0 0 0 0 0 0 0 0 582 0 0 0 0 rd_vel$sd
S 1075 6 4 0 0 7 1076 582 9481 40802061 1020 A 0 0 0 0 0 696 0 0 0 0 0 0 1591 0 0 0 0 0 0 0 0 0 0 582 0 0 0 0 rd_vel$p
S 1076 6 4 0 0 7 1074 582 9490 40802060 1020 A 0 0 0 0 0 704 0 0 0 0 0 0 1591 0 0 0 0 0 0 0 0 0 0 582 0 0 0 0 rd_vel$o
S 1077 22 1 0 0 9 1 582 9499 40000000 1000 A 0 0 0 0 0 0 0 1071 0 0 0 0 1074 0 0 0 0 0 0 0 0 0 0 582 0 0 0 0 rd_vel$arrdsc
S 1078 7 6 0 0 225 1 582 9513 10a00004 51 A 0 0 0 0 0 0 1081 0 0 0 1083 0 0 0 0 0 0 0 0 1080 0 0 1082 582 0 0 0 0 sp_vel
S 1079 6 4 0 0 6 1102 582 9520 40800006 0 A 0 0 0 0 0 100 0 0 0 0 0 0 1591 0 0 0 0 0 0 0 0 0 0 582 0 0 0 0 z_b_11
S 1080 8 4 0 0 228 1105 582 9527 40822064 1020 A 0 0 0 0 0 712 0 0 0 0 0 0 1591 0 0 0 0 0 0 0 0 0 0 582 0 0 0 0 sp_vel$sd
S 1081 6 4 0 0 7 1082 582 9537 40802061 1020 A 0 0 0 0 0 784 0 0 0 0 0 0 1591 0 0 0 0 0 0 0 0 0 0 582 0 0 0 0 sp_vel$p
S 1082 6 4 0 0 7 1080 582 9546 40802060 1020 A 0 0 0 0 0 792 0 0 0 0 0 0 1591 0 0 0 0 0 0 0 0 0 0 582 0 0 0 0 sp_vel$o
S 1083 22 1 0 0 9 1 582 9555 40000000 1000 A 0 0 0 0 0 0 0 1078 0 0 0 0 1080 0 0 0 0 0 0 0 0 0 0 582 0 0 0 0 sp_vel$arrdsc
S 1084 6 4 0 0 16 1085 582 9569 80000c 0 A 0 0 0 0 0 588 0 0 0 0 0 0 1587 0 0 0 0 0 0 0 0 0 0 582 0 0 0 0 tavel
S 1085 6 4 0 0 16 1089 582 9575 80000c 0 A 0 0 0 0 0 592 0 0 0 0 0 0 1587 0 0 0 0 0 0 0 0 0 0 582 0 0 0 0 tk_inp
S 1086 7 4 0 4 231 1088 582 9582 80000c 100 A 0 0 0 0 0 3680 0 0 0 0 0 0 1588 0 0 0 0 0 0 0 0 0 0 582 0 0 0 0 xk
S 1087 3 0 0 0 6 0 1 0 0 0 A 0 0 0 0 0 0 0 0 0 120000 0 0 0 0 0 0 0 0 0 0 0 0 0 0 0 0 0 0 6
S 1088 7 4 0 4 234 1112 582 9592 80000c 100 A 0 0 0 0 0 963744 0 0 0 0 0 0 1588 0 0 0 0 0 0 0 0 0 0 582 0 0 0 0 wk
S 1089 6 4 0 0 6 1090 582 9602 80000c 0 A 0 0 0 0 0 596 0 0 0 0 0 0 1587 0 0 0 0 0 0 0 0 0 0 582 0 0 0 0 nkstot
S 1090 6 4 0 0 6 1091 582 9609 80000c 0 A 0 0 0 0 0 600 0 0 0 0 0 0 1587 0 0 0 0 0 0 0 0 0 0 582 0 0 0 0 nk1
S 1091 6 4 0 0 6 1092 582 9613 80000c 0 A 0 0 0 0 0 604 0 0 0 0 0 0 1587 0 0 0 0 0 0 0 0 0 0 582 0 0 0 0 nk2
S 1092 6 4 0 0 6 1093 582 9617 80000c 0 A 0 0 0 0 0 608 0 0 0 0 0 0 1587 0 0 0 0 0 0 0 0 0 0 582 0 0 0 0 nk3
S 1093 6 4 0 0 6 1094 582 9621 80000c 0 A 0 0 0 0 0 612 0 0 0 0 0 0 1587 0 0 0 0 0 0 0 0 0 0 582 0 0 0 0 k1
S 1094 6 4 0 0 6 1095 582 9624 80000c 0 A 0 0 0 0 0 616 0 0 0 0 0 0 1587 0 0 0 0 0 0 0 0 0 0 582 0 0 0 0 k2
S 1095 6 4 0 0 6 1098 582 9627 80000c 0 A 0 0 0 0 0 620 0 0 0 0 0 0 1587 0 0 0 0 0 0 0 0 0 0 582 0 0 0 0 k3
S 1097 6 4 0 0 56 1115 582 9636 80000c 0 A 0 0 0 0 0 9136 0 0 0 0 0 0 1586 0 0 0 0 0 0 0 0 0 0 582 0 0 0 0 k_points
S 1098 6 4 0 0 16 1099 582 9645 80000c 0 A 0 0 0 0 0 624 0 0 0 0 0 0 1587 0 0 0 0 0 0 0 0 0 0 582 0 0 0 0 tnewnfi_card
S 1099 6 4 0 0 6 1100 582 9658 80000c 0 A 0 0 0 0 0 628 0 0 0 0 0 0 1587 0 0 0 0 0 0 0 0 0 0 582 0 0 0 0 newnfi_card
S 1100 6 4 0 0 16 1108 582 9670 80000c 0 A 0 0 0 0 0 632 0 0 0 0 0 0 1587 0 0 0 0 0 0 0 0 0 0 582 0 0 0 0 t2dpegrid_inp
S 1101 7 6 0 0 237 1 582 9684 10a00004 51 A 0 0 0 0 0 0 1105 0 0 0 1107 0 0 0 0 0 0 0 0 1104 0 0 1106 582 0 0 0 0 f_inp
S 1102 6 4 0 0 6 1103 582 9690 40800006 0 A 0 0 0 0 0 104 0 0 0 0 0 0 1591 0 0 0 0 0 0 0 0 0 0 582 0 0 0 0 z_b_12
S 1103 6 4 0 0 6 1131 582 9697 40800006 0 A 0 0 0 0 0 108 0 0 0 0 0 0 1591 0 0 0 0 0 0 0 0 0 0 582 0 0 0 0 z_b_13
S 1104 8 4 0 0 240 1133 582 9704 40822064 1020 A 0 0 0 0 0 800 0 0 0 0 0 0 1591 0 0 0 0 0 0 0 0 0 0 582 0 0 0 0 f_inp$sd
S 1105 6 4 0 0 7 1106 582 9713 40802061 1020 A 0 0 0 0 0 896 0 0 0 0 0 0 1591 0 0 0 0 0 0 0 0 0 0 582 0 0 0 0 f_inp$p
S 1106 6 4 0 0 7 1104 582 9721 40802060 1020 A 0 0 0 0 0 904 0 0 0 0 0 0 1591 0 0 0 0 0 0 0 0 0 0 582 0 0 0 0 f_inp$o
S 1107 22 1 0 0 9 1 582 9729 40000000 1000 A 0 0 0 0 0 0 0 1101 0 0 0 0 1104 0 0 0 0 0 0 0 0 0 0 582 0 0 0 0 f_inp$arrdsc
S 1108 6 4 0 0 16 1109 582 9742 80000c 0 A 0 0 0 0 0 636 0 0 0 0 0 0 1587 0 0 0 0 0 0 0 0 0 0 582 0 0 0 0 tf_inp
S 1109 6 4 0 0 16 1110 582 9749 80000c 0 A 0 0 0 0 0 640 0 0 0 0 0 0 1587 0 0 0 0 0 0 0 0 0 0 582 0 0 0 0 tvhmean_inp
S 1110 6 4 0 0 6 1111 582 9761 80000c 0 A 0 0 0 0 0 644 0 0 0 0 0 0 1587 0 0 0 0 0 0 0 0 0 0 582 0 0 0 0 vhnr_inp
S 1111 6 4 0 0 6 1116 582 9770 80000c 0 A 0 0 0 0 0 648 0 0 0 0 0 0 1587 0 0 0 0 0 0 0 0 0 0 582 0 0 0 0 vhiunit_inp
S 1112 6 4 0 0 9 1113 582 9782 80000c 0 A 0 0 0 0 0 1283872 0 0 0 0 0 0 1588 0 0 0 0 0 0 0 0 0 0 582 0 0 0 0 vhrmin_inp
S 1113 6 4 0 0 9 1119 582 9800 80000c 0 A 0 0 0 0 0 1283880 0 0 0 0 0 0 1588 0 0 0 0 0 0 0 0 0 0 582 0 0 0 0 vhrmax_inp
S 1115 6 4 0 0 20 1121 582 9820 80000c 0 A 0 0 0 0 0 9216 0 0 0 0 0 0 1586 0 0 0 0 0 0 0 0 0 0 582 0 0 0 0 vhasse_inp
S 1116 6 4 0 0 16 1117 582 9831 80000c 0 A 0 0 0 0 0 652 0 0 0 0 0 0 1587 0 0 0 0 0 0 0 0 0 0 582 0 0 0 0 tdipole_card
S 1117 6 4 0 0 6 1118 582 9844 80000c 0 A 0 0 0 0 0 656 0 0 0 0 0 0 1587 0 0 0 0 0 0 0 0 0 0 582 0 0 0 0 iesr_inp
S 1118 6 4 0 0 16 1124 582 9853 80000c 0 A 0 0 0 0 0 660 0 0 0 0 0 0 1587 0 0 0 0 0 0 0 0 0 0 582 0 0 0 0 tneighbo
S 1119 6 4 0 0 9 1120 582 9862 80000c 0 A 0 0 0 0 0 1283888 0 0 0 0 0 0 1588 0 0 0 0 0 0 0 0 0 0 582 0 0 0 0 neighbo_radius
S 1120 7 4 0 4 243 1129 582 9884 80000c 100 A 0 0 0 0 0 1283904 0 0 0 0 0 0 1588 0 0 0 0 0 0 0 0 0 0 582 0 0 0 0 rd_ht
S 1121 6 4 0 0 56 1123 582 9897 80000c 0 A 0 0 0 0 0 9217 0 0 0 0 0 0 1586 0 0 0 0 0 0 0 0 0 0 582 0 0 0 0 cell_symmetry
S 1123 6 4 0 0 56 1 582 9916 80000c 0 A 0 0 0 0 0 9297 0 0 0 0 0 0 1586 0 0 0 0 0 0 0 0 0 0 582 0 0 0 0 cell_units
S 1124 6 4 0 0 16 1125 582 9927 80000c 0 A 0 0 0 0 0 664 0 0 0 0 0 0 1587 0 0 0 0 0 0 0 0 0 0 582 0 0 0 0 trd_ht
S 1125 6 4 0 0 16 1126 582 9934 80000c 0 A 0 0 0 0 0 668 0 0 0 0 0 0 1587 0 0 0 0 0 0 0 0 0 0 582 0 0 0 0 tturbo_inp
S 1126 6 4 0 0 6 1127 582 9945 80000c 0 A 0 0 0 0 0 672 0 0 0 0 0 0 1587 0 0 0 0 0 0 0 0 0 0 582 0 0 0 0 nturbo_inp
S 1127 6 4 0 0 6 1128 582 9956 80000c 0 A 0 0 0 0 0 676 0 0 0 0 0 0 1587 0 0 0 0 0 0 0 0 0 0 582 0 0 0 0 nc_fields
S 1128 6 4 0 0 6 1155 582 9966 80000c 0 A 0 0 0 0 0 680 0 0 0 0 0 0 1587 0 0 0 0 0 0 0 0 0 0 582 0 0 0 0 nconstr_inp
S 1129 6 4 0 0 9 1156 582 9978 80000c 0 A 0 0 0 0 0 1283976 0 0 0 0 0 0 1588 0 0 0 0 0 0 0 0 0 0 582 0 0 0 0 constr_tol_inp
S 1130 7 6 0 0 248 1 582 10002 10a00004 51 A 0 0 0 0 0 0 1133 0 0 0 1135 0 0 0 0 0 0 0 0 1132 0 0 1134 582 0 0 0 0 constr_type_inp
S 1131 6 4 0 0 6 1137 582 10018 40800006 0 A 0 0 0 0 0 112 0 0 0 0 0 0 1591 0 0 0 0 0 0 0 0 0 0 582 0 0 0 0 z_b_14
S 1132 8 4 0 0 251 1140 582 10025 40822064 1020 A 0 0 0 0 0 912 0 0 0 0 0 0 1591 0 0 0 0 0 0 0 0 0 0 582 0 0 0 0 constr_type_inp$sd
S 1133 6 4 0 0 7 1134 582 10044 40802061 1020 A 0 0 0 0 0 984 0 0 0 0 0 0 1591 0 0 0 0 0 0 0 0 0 0 582 0 0 0 0 constr_type_inp$p
S 1134 6 4 0 0 7 1132 582 10062 40802060 1020 A 0 0 0 0 0 992 0 0 0 0 0 0 1591 0 0 0 0 0 0 0 0 0 0 582 0 0 0 0 constr_type_inp$o
S 1135 22 1 0 0 9 1 582 10080 40000000 1000 A 0 0 0 0 0 0 0 1130 0 0 0 0 1132 0 0 0 0 0 0 0 0 0 0 582 0 0 0 0 constr_type_inp$arrdsc
S 1136 7 6 0 0 254 1 582 10103 10a00004 51 A 0 0 0 0 0 0 1140 0 0 0 1142 0 0 0 0 0 0 0 0 1139 0 0 1141 582 0 0 0 0 constr_inp
S 1137 6 4 0 0 6 1138 582 10114 40800006 0 A 0 0 0 0 0 116 0 0 0 0 0 0 1591 0 0 0 0 0 0 0 0 0 0 582 0 0 0 0 z_b_15
S 1138 6 4 0 0 6 1144 582 10121 40800006 0 A 0 0 0 0 0 120 0 0 0 0 0 0 1591 0 0 0 0 0 0 0 0 0 0 582 0 0 0 0 z_b_16
S 1139 8 4 0 0 257 1146 582 10128 40822064 1020 A 0 0 0 0 0 1000 0 0 0 0 0 0 1591 0 0 0 0 0 0 0 0 0 0 582 0 0 0 0 constr_inp$sd
S 1140 6 4 0 0 7 1141 582 10142 40802061 1020 A 0 0 0 0 0 1096 0 0 0 0 0 0 1591 0 0 0 0 0 0 0 0 0 0 582 0 0 0 0 constr_inp$p
S 1141 6 4 0 0 7 1139 582 10155 40802060 1020 A 0 0 0 0 0 1104 0 0 0 0 0 0 1591 0 0 0 0 0 0 0 0 0 0 582 0 0 0 0 constr_inp$o
S 1142 22 1 0 0 9 1 582 10168 40000000 1000 A 0 0 0 0 0 0 0 1136 0 0 0 0 1139 0 0 0 0 0 0 0 0 0 0 582 0 0 0 0 constr_inp$arrdsc
S 1143 7 6 0 0 260 1 582 10186 10a00004 51 A 0 0 0 0 0 0 1146 0 0 0 1148 0 0 0 0 0 0 0 0 1145 0 0 1147 582 0 0 0 0 constr_target
S 1144 6 4 0 0 6 1150 582 10200 40800006 0 A 0 0 0 0 0 124 0 0 0 0 0 0 1591 0 0 0 0 0 0 0 0 0 0 582 0 0 0 0 z_b_17
S 1145 8 4 0 0 263 1152 582 10207 40822064 1020 A 0 0 0 0 0 1112 0 0 0 0 0 0 1591 0 0 0 0 0 0 0 0 0 0 582 0 0 0 0 constr_target$sd
S 1146 6 4 0 0 7 1147 582 10224 40802061 1020 A 0 0 0 0 0 1184 0 0 0 0 0 0 1591 0 0 0 0 0 0 0 0 0 0 582 0 0 0 0 constr_target$p
S 1147 6 4 0 0 7 1145 582 10240 40802060 1020 A 0 0 0 0 0 1192 0 0 0 0 0 0 1591 0 0 0 0 0 0 0 0 0 0 582 0 0 0 0 constr_target$o
S 1148 22 1 0 0 9 1 582 10256 40000000 1000 A 0 0 0 0 0 0 0 1143 0 0 0 0 1145 0 0 0 0 0 0 0 0 0 0 582 0 0 0 0 constr_target$arrdsc
S 1149 7 6 0 0 266 1 582 10277 10a00004 51 A 0 0 0 0 0 0 1152 0 0 0 1154 0 0 0 0 0 0 0 0 1151 0 0 1153 582 0 0 0 0 constr_target_set
S 1150 6 4 0 0 6 1158 582 10295 40800006 0 A 0 0 0 0 0 128 0 0 0 0 0 0 1591 0 0 0 0 0 0 0 0 0 0 582 0 0 0 0 z_b_18
S 1151 8 4 0 0 269 1160 582 10302 40822064 1020 A 0 0 0 0 0 1200 0 0 0 0 0 0 1591 0 0 0 0 0 0 0 0 0 0 582 0 0 0 0 constr_target_set$sd
S 1152 6 4 0 0 7 1153 582 10323 40802061 1020 A 0 0 0 0 0 1272 0 0 0 0 0 0 1591 0 0 0 0 0 0 0 0 0 0 582 0 0 0 0 constr_target_set$p
S 1153 6 4 0 0 7 1151 582 10343 40802060 1020 A 0 0 0 0 0 1280 0 0 0 0 0 0 1591 0 0 0 0 0 0 0 0 0 0 582 0 0 0 0 constr_target_set$o
S 1154 22 1 0 0 9 1 582 10363 40000000 1000 A 0 0 0 0 0 0 0 1149 0 0 0 0 1151 0 0 0 0 0 0 0 0 0 0 582 0 0 0 0 constr_target_set$arrdsc
S 1155 6 4 0 0 6 1189 582 10388 80000c 0 A 0 0 0 0 0 684 0 0 0 0 0 0 1587 0 0 0 0 0 0 0 0 0 0 582 0 0 0 0 ncolvar_inp
S 1156 6 4 0 0 9 1 582 10400 80000c 0 A 0 0 0 0 0 1283984 0 0 0 0 0 0 1588 0 0 0 0 0 0 0 0 0 0 582 0 0 0 0 colvar_tol_inp
S 1157 7 6 0 0 272 1 582 10424 10a00004 51 A 0 0 0 0 0 0 1160 0 0 0 1162 0 0 0 0 0 0 0 0 1159 0 0 1161 582 0 0 0 0 colvar_type_inp
S 1158 6 4 0 0 6 1164 582 10440 40800006 0 A 0 0 0 0 0 132 0 0 0 0 0 0 1591 0 0 0 0 0 0 0 0 0 0 582 0 0 0 0 z_b_19
S 1159 8 4 0 0 275 1167 582 10447 40822064 1020 A 0 0 0 0 0 1288 0 0 0 0 0 0 1591 0 0 0 0 0 0 0 0 0 0 582 0 0 0 0 colvar_type_inp$sd
S 1160 6 4 0 0 7 1161 582 10466 40802061 1020 A 0 0 0 0 0 1360 0 0 0 0 0 0 1591 0 0 0 0 0 0 0 0 0 0 582 0 0 0 0 colvar_type_inp$p
S 1161 6 4 0 0 7 1159 582 10484 40802060 1020 A 0 0 0 0 0 1368 0 0 0 0 0 0 1591 0 0 0 0 0 0 0 0 0 0 582 0 0 0 0 colvar_type_inp$o
S 1162 22 1 0 0 9 1 582 10502 40000000 1000 A 0 0 0 0 0 0 0 1157 0 0 0 0 1159 0 0 0 0 0 0 0 0 0 0 582 0 0 0 0 colvar_type_inp$arrdsc
S 1163 7 6 0 0 278 1 582 10525 10a00004 51 A 0 0 0 0 0 0 1167 0 0 0 1169 0 0 0 0 0 0 0 0 1166 0 0 1168 582 0 0 0 0 colvar_inp
S 1164 6 4 0 0 6 1165 582 10536 40800006 0 A 0 0 0 0 0 136 0 0 0 0 0 0 1591 0 0 0 0 0 0 0 0 0 0 582 0 0 0 0 z_b_20
S 1165 6 4 0 0 6 1171 582 10543 40800006 0 A 0 0 0 0 0 140 0 0 0 0 0 0 1591 0 0 0 0 0 0 0 0 0 0 582 0 0 0 0 z_b_21
S 1166 8 4 0 0 281 1173 582 10550 40822064 1020 A 0 0 0 0 0 1376 0 0 0 0 0 0 1591 0 0 0 0 0 0 0 0 0 0 582 0 0 0 0 colvar_inp$sd
S 1167 6 4 0 0 7 1168 582 10564 40802061 1020 A 0 0 0 0 0 1472 0 0 0 0 0 0 1591 0 0 0 0 0 0 0 0 0 0 582 0 0 0 0 colvar_inp$p
S 1168 6 4 0 0 7 1166 582 10577 40802060 1020 A 0 0 0 0 0 1480 0 0 0 0 0 0 1591 0 0 0 0 0 0 0 0 0 0 582 0 0 0 0 colvar_inp$o
S 1169 22 1 0 0 9 1 582 10590 40000000 1000 A 0 0 0 0 0 0 0 1163 0 0 0 0 1166 0 0 0 0 0 0 0 0 0 0 582 0 0 0 0 colvar_inp$arrdsc
S 1170 7 6 0 0 284 1 582 10608 10a00004 51 A 0 0 0 0 0 0 1173 0 0 0 1175 0 0 0 0 0 0 0 0 1172 0 0 1174 582 0 0 0 0 colvar_target
S 1171 6 4 0 0 6 1177 582 10622 40800006 0 A 0 0 0 0 0 144 0 0 0 0 0 0 1591 0 0 0 0 0 0 0 0 0 0 582 0 0 0 0 z_b_22
S 1172 8 4 0 0 287 1179 582 10629 40822064 1020 A 0 0 0 0 0 1488 0 0 0 0 0 0 1591 0 0 0 0 0 0 0 0 0 0 582 0 0 0 0 colvar_target$sd
S 1173 6 4 0 0 7 1174 582 10646 40802061 1020 A 0 0 0 0 0 1560 0 0 0 0 0 0 1591 0 0 0 0 0 0 0 0 0 0 582 0 0 0 0 colvar_target$p
S 1174 6 4 0 0 7 1172 582 10662 40802060 1020 A 0 0 0 0 0 1568 0 0 0 0 0 0 1591 0 0 0 0 0 0 0 0 0 0 582 0 0 0 0 colvar_target$o
S 1175 22 1 0 0 9 1 582 10678 40000000 1000 A 0 0 0 0 0 0 0 1170 0 0 0 0 1172 0 0 0 0 0 0 0 0 0 0 582 0 0 0 0 colvar_target$arrdsc
S 1176 7 6 0 0 290 1 582 10699 10a00004 51 A 0 0 0 0 0 0 1179 0 0 0 1181 0 0 0 0 0 0 0 0 1178 0 0 1180 582 0 0 0 0 colvar_target_set
S 1177 6 4 0 0 6 1183 582 10717 40800006 0 A 0 0 0 0 0 148 0 0 0 0 0 0 1591 0 0 0 0 0 0 0 0 0 0 582 0 0 0 0 z_b_23
S 1178 8 4 0 0 293 1186 582 10724 40822064 1020 A 0 0 0 0 0 1576 0 0 0 0 0 0 1591 0 0 0 0 0 0 0 0 0 0 582 0 0 0 0 colvar_target_set$sd
S 1179 6 4 0 0 7 1180 582 10745 40802061 1020 A 0 0 0 0 0 1648 0 0 0 0 0 0 1591 0 0 0 0 0 0 0 0 0 0 582 0 0 0 0 colvar_target_set$p
S 1180 6 4 0 0 7 1178 582 10765 40802060 1020 A 0 0 0 0 0 1656 0 0 0 0 0 0 1591 0 0 0 0 0 0 0 0 0 0 582 0 0 0 0 colvar_target_set$o
S 1181 22 1 0 0 9 1 582 10785 40000000 1000 A 0 0 0 0 0 0 0 1176 0 0 0 0 1178 0 0 0 0 0 0 0 0 0 0 582 0 0 0 0 colvar_target_set$arrdsc
S 1182 7 6 0 0 296 1 582 10810 10a00004 51 A 0 0 0 0 0 0 1186 0 0 0 1188 0 0 0 0 0 0 0 0 1185 0 0 1187 582 0 0 0 0 iprnks
S 1183 6 4 0 0 6 1184 582 10817 40800006 0 A 0 0 0 0 0 152 0 0 0 0 0 0 1591 0 0 0 0 0 0 0 0 0 0 582 0 0 0 0 z_b_24
S 1184 6 4 0 0 6 1191 582 10824 40800006 0 A 0 0 0 0 0 156 0 0 0 0 0 0 1591 0 0 0 0 0 0 0 0 0 0 582 0 0 0 0 z_b_25
S 1185 8 4 0 0 299 1194 582 10831 40822064 1020 A 0 0 0 0 0 1664 0 0 0 0 0 0 1591 0 0 0 0 0 0 0 0 0 0 582 0 0 0 0 iprnks$sd
S 1186 6 4 0 0 7 1187 582 10841 40802061 1020 A 0 0 0 0 0 1760 0 0 0 0 0 0 1591 0 0 0 0 0 0 0 0 0 0 582 0 0 0 0 iprnks$p
S 1187 6 4 0 0 7 1185 582 10850 40802060 1020 A 0 0 0 0 0 1768 0 0 0 0 0 0 1591 0 0 0 0 0 0 0 0 0 0 582 0 0 0 0 iprnks$o
S 1188 22 1 0 0 6 1 582 10859 40000000 1000 A 0 0 0 0 0 0 0 1182 0 0 0 0 1185 0 0 0 0 0 0 0 0 0 0 582 0 0 0 0 iprnks$arrdsc
S 1189 7 4 0 4 302 1197 582 10873 80000c 100 A 0 0 0 0 0 688 0 0 0 0 0 0 1587 0 0 0 0 0 0 0 0 0 0 582 0 0 0 0 nprnks
S 1190 7 6 0 0 305 1 582 10880 10a00004 51 A 0 0 0 0 0 0 1194 0 0 0 1196 0 0 0 0 0 0 0 0 1193 0 0 1195 582 0 0 0 0 iprnks_empty
S 1191 6 4 0 0 6 1192 582 10893 40800006 0 A 0 0 0 0 0 160 0 0 0 0 0 0 1591 0 0 0 0 0 0 0 0 0 0 582 0 0 0 0 z_b_26
S 1192 6 4 0 0 6 1200 582 10900 40800006 0 A 0 0 0 0 0 164 0 0 0 0 0 0 1591 0 0 0 0 0 0 0 0 0 0 582 0 0 0 0 z_b_27
S 1193 8 4 0 0 308 1202 582 10907 40822064 1020 A 0 0 0 0 0 1776 0 0 0 0 0 0 1591 0 0 0 0 0 0 0 0 0 0 582 0 0 0 0 iprnks_empty$sd
S 1194 6 4 0 0 7 1195 582 10923 40802061 1020 A 0 0 0 0 0 1872 0 0 0 0 0 0 1591 0 0 0 0 0 0 0 0 0 0 582 0 0 0 0 iprnks_empty$p
S 1195 6 4 0 0 7 1193 582 10938 40802060 1020 A 0 0 0 0 0 1880 0 0 0 0 0 0 1591 0 0 0 0 0 0 0 0 0 0 582 0 0 0 0 iprnks_empty$o
S 1196 22 1 0 0 6 1 582 10953 40000000 1000 A 0 0 0 0 0 0 0 1190 0 0 0 0 1193 0 0 0 0 0 0 0 0 0 0 582 0 0 0 0 iprnks_empty$arrdsc
S 1197 7 4 0 4 311 1198 582 10973 80000c 100 A 0 0 0 0 0 704 0 0 0 0 0 0 1587 0 0 0 0 0 0 0 0 0 0 582 0 0 0 0 nprnks_empty
S 1198 6 4 0 0 16 1 582 10986 80000c 0 A 0 0 0 0 0 712 0 0 0 0 0 0 1587 0 0 0 0 0 0 0 0 0 0 582 0 0 0 0 tchi2_inp
S 1199 7 6 0 0 314 1 582 10996 10a00004 51 A 0 0 0 0 0 0 1202 0 0 0 1204 0 0 0 0 0 0 0 0 1201 0 0 1203 582 0 0 0 0 climbing
S 1200 6 4 0 0 6 1206 582 11005 40800006 0 A 0 0 0 0 0 168 0 0 0 0 0 0 1591 0 0 0 0 0 0 0 0 0 0 582 0 0 0 0 z_b_28
S 1201 8 4 0 0 317 858 582 11012 40822064 1020 A 0 0 0 0 0 1888 0 0 0 0 0 0 1591 0 0 0 0 0 0 0 0 0 0 582 0 0 0 0 climbing$sd
S 1202 6 4 0 0 7 1203 582 11024 40802061 1020 A 0 0 0 0 0 1960 0 0 0 0 0 0 1591 0 0 0 0 0 0 0 0 0 0 582 0 0 0 0 climbing$p
S 1203 6 4 0 0 7 1201 582 11035 40802060 1020 A 0 0 0 0 0 1968 0 0 0 0 0 0 1591 0 0 0 0 0 0 0 0 0 0 582 0 0 0 0 climbing$o
S 1204 22 1 0 0 9 1 582 11046 40000000 1000 A 0 0 0 0 0 0 0 1199 0 0 0 0 1201 0 0 0 0 0 0 0 0 0 0 582 0 0 0 0 climbing$arrdsc
S 1205 16 1 0 0 6 1 582 11062 4 400000 A 0 0 0 0 0 0 0 0 1000 201 0 0 0 0 0 0 0 0 0 0 0 0 0 582 0 0 0 0 nwf_max
S 1206 7 4 0 4 320 1 582 11070 800004 100 A 0 0 0 0 0 176 0 0 0 0 0 0 1591 0 0 0 0 0 0 0 0 0 0 582 0 0 0 0 wannier_index
S 1586 11 0 0 4 9 1 582 19118 40800000 801000 A 0 0 0 0 0 9377 0 0 620 1123 0 0 0 0 0 0 0 0 0 0 0 0 0 0 0 0 0 0 _input_parameters$9
S 1587 11 0 0 4 9 1586 582 19138 40800000 801000 A 0 0 0 0 0 716 0 0 658 1198 0 0 0 0 0 0 0 0 0 0 0 0 0 0 0 0 0 0 _input_parameters$8
S 1588 11 0 0 4 9 1587 582 19158 40800000 801000 A 0 0 0 0 0 1283992 0 0 664 1156 0 0 0 0 0 0 0 0 0 0 0 0 0 0 0 0 0 0 _input_parameters$10
S 1589 11 0 0 0 9 1588 582 19179 40800000 801000 A 0 0 0 0 0 14000 0 0 703 1017 0 0 0 0 0 0 0 0 0 0 0 0 0 0 0 0 0 0 _input_parameters$0
S 1590 11 0 0 0 9 1589 582 19199 40800000 801000 A 0 0 0 0 0 96 0 0 841 1010 0 0 0 0 0 0 0 0 0 0 0 0 0 0 0 0 0 0 _input_parameters$2
S 1591 11 0 0 4 9 1590 582 19219 40800000 801000 A 0 0 0 0 0 6152 0 0 1029 1206 0 0 0 0 0 0 0 0 0 0 0 0 0 0 0 0 0 0 _input_parameters$01
S 1592 23 5 0 0 0 1595 582 19240 0 0 A 0 0 0 0 0 0 0 0 0 0 0 0 0 0 0 0 0 0 0 0 0 0 0 0 0 0 0 0 allocate_input_ions
S 1593 1 3 1 0 6 1 1592 5441 4 3000 A 0 0 0 0 0 0 0 0 0 0 0 0 0 0 0 0 0 0 0 0 0 0 0 0 0 0 0 0 ntyp
S 1594 1 3 1 0 6 1 1592 5437 4 3000 A 0 0 0 0 0 0 0 0 0 0 0 0 0 0 0 0 0 0 0 0 0 0 0 0 0 0 0 0 nat
S 1595 14 5 0 0 0 1 1592 19240 0 400000 A 0 0 0 0 0 0 0 4 2 0 0 0 0 0 0 0 0 0 0 0 0 1531 0 582 0 0 0 0 allocate_input_ions
F 1595 2 1593 1594
S 1596 23 5 0 0 0 1597 582 19260 0 0 A 0 0 0 0 0 0 0 0 0 0 0 0 0 0 0 0 0 0 0 0 0 0 0 0 0 0 0 0 allocate_input_constr
S 1597 14 5 0 0 0 1 1596 19260 0 400000 A 0 0 0 0 0 0 0 7 0 0 0 0 0 0 0 0 0 0 0 0 0 1563 0 582 0 0 0 0 allocate_input_constr
F 1597 0
S 1598 23 5 0 0 0 1599 582 19282 0 0 A 0 0 0 0 0 0 0 0 0 0 0 0 0 0 0 0 0 0 0 0 0 0 0 0 0 0 0 0 allocate_input_colvar
S 1599 14 5 0 0 0 1 1598 19282 0 400000 A 0 0 0 0 0 0 0 8 0 0 0 0 0 0 0 0 0 0 0 0 0 1585 0 582 0 0 0 0 allocate_input_colvar
F 1599 0
S 1600 23 5 0 0 0 1603 582 19304 0 0 A 0 0 0 0 0 0 0 0 0 0 0 0 0 0 0 0 0 0 0 0 0 0 0 0 0 0 0 0 allocate_input_iprnks
S 1601 1 3 1 0 6 1 1600 19326 4 3000 A 0 0 0 0 0 0 0 0 0 0 0 0 0 0 0 0 0 0 0 0 0 0 0 0 0 0 0 0 nksx
S 1602 1 3 1 0 6 1 1600 5636 4 3000 A 0 0 0 0 0 0 0 0 0 0 0 0 0 0 0 0 0 0 0 0 0 0 0 0 0 0 0 0 nspin
S 1603 14 5 0 0 0 1 1600 19304 0 400000 A 0 0 0 0 0 0 0 9 2 0 0 0 0 0 0 0 0 0 0 0 0 1607 0 582 0 0 0 0 allocate_input_iprnks
F 1603 2 1601 1602
S 1604 23 5 0 0 0 1607 582 19331 0 0 A 0 0 0 0 0 0 0 0 0 0 0 0 0 0 0 0 0 0 0 0 0 0 0 0 0 0 0 0 allocate_input_iprnks_empty
S 1605 1 3 1 0 6 1 1604 19326 4 3000 A 0 0 0 0 0 0 0 0 0 0 0 0 0 0 0 0 0 0 0 0 0 0 0 0 0 0 0 0 nksx
S 1606 1 3 1 0 6 1 1604 5636 4 3000 A 0 0 0 0 0 0 0 0 0 0 0 0 0 0 0 0 0 0 0 0 0 0 0 0 0 0 0 0 nspin
S 1607 14 5 0 0 0 1 1604 19331 0 400000 A 0 0 0 0 0 0 0 12 2 0 0 0 0 0 0 0 0 0 0 0 0 1621 0 582 0 0 0 0 allocate_input_iprnks_empty
F 1607 2 1605 1606
S 1608 23 5 0 0 0 1609 582 19359 0 0 A 0 0 0 0 0 0 0 0 0 0 0 0 0 0 0 0 0 0 0 0 0 0 0 0 0 0 0 0 deallocate_input_parameters
S 1609 14 5 0 0 0 1 1608 19359 0 400000 A 0 0 0 0 0 0 0 15 0 0 0 0 0 0 0 0 0 0 0 0 0 1635 0 582 0 0 0 0 deallocate_input_parameters
F 1609 0
A 13 2 0 0 0 6 592 0 0 0 13 0 0 0 0 0 0 0 0 0
A 15 2 0 0 0 6 593 0 0 0 15 0 0 0 0 0 0 0 0 0
A 18 2 0 0 0 6 601 0 0 0 18 0 0 0 0 0 0 0 0 0
A 21 2 0 0 0 6 602 0 0 0 21 0 0 0 0 0 0 0 0 0
A 23 2 0 0 0 6 603 0 0 0 23 0 0 0 0 0 0 0 0 0
A 25 2 0 0 0 6 605 0 0 0 25 0 0 0 0 0 0 0 0 0
A 30 2 0 0 0 6 604 0 0 0 30 0 0 0 0 0 0 0 0 0
A 33 2 0 0 0 6 606 0 0 0 33 0 0 0 0 0 0 0 0 0
A 34 2 0 0 0 6 619 0 0 0 34 0 0 0 0 0 0 0 0 0
A 39 2 0 0 0 6 624 0 0 0 39 0 0 0 0 0 0 0 0 0
A 40 2 0 0 0 6 627 0 0 0 40 0 0 0 0 0 0 0 0 0
A 41 2 0 0 0 6 634 0 0 0 41 0 0 0 0 0 0 0 0 0
A 70 2 0 0 0 6 656 0 0 0 70 0 0 0 0 0 0 0 0 0
A 85 2 0 0 0 6 669 0 0 0 85 0 0 0 0 0 0 0 0 0
A 93 2 0 0 0 6 676 0 0 0 93 0 0 0 0 0 0 0 0 0
A 158 2 0 0 0 6 743 0 0 0 158 0 0 0 0 0 0 0 0 0
A 159 2 0 0 0 6 744 0 0 0 159 0 0 0 0 0 0 0 0 0
A 198 2 0 0 0 6 785 0 0 0 198 0 0 0 0 0 0 0 0 0
A 201 2 0 0 0 6 788 0 0 0 201 0 0 0 0 0 0 0 0 0
A 257 2 0 0 0 6 844 0 0 0 257 0 0 0 0 0 0 0 0 0
A 403 2 0 0 0 6 1027 0 0 0 403 0 0 0 0 0 0 0 0 0
A 404 2 0 0 0 6 1032 0 0 0 404 0 0 0 0 0 0 0 0 0
A 405 1 0 25 328 186 1028 0 0 0 0 0 0 0 0 0 0 0 0 0
A 406 10 0 0 212 6 405 1 0 0 0 0 0 0 0 0 0 0 0 0
X 1 404
A 407 10 0 0 406 6 405 4 0 0 0 0 0 0 0 0 0 0 0 0
X 1 70
A 408 4 0 0 0 6 407 0 3 0 0 0 0 2 0 0 0 0 0 0
A 409 4 0 0 0 6 406 0 408 0 0 0 0 1 0 0 0 0 0 0
A 410 2 0 0 0 6 1033 0 0 0 410 0 0 0 0 0 0 0 0 0
A 411 10 0 0 407 6 405 7 0 0 0 0 0 0 0 0 0 0 0 0
X 1 410
A 412 10 0 0 411 6 405 10 0 0 0 0 0 0 0 0 0 0 0 0
X 1 198
A 413 4 0 0 355 6 412 0 3 0 0 0 0 2 0 0 0 0 0 0
A 414 4 0 0 250 6 411 0 413 0 0 0 0 1 0 0 0 0 0 0
A 415 10 0 0 412 6 405 13 0 0 0 0 0 0 0 0 0 0 0 0
X 1 257
A 416 2 0 0 0 6 1034 0 0 0 416 0 0 0 0 0 0 0 0 0
A 417 10 0 0 415 6 405 16 0 0 0 0 0 0 0 0 0 0 0 0
X 1 416
A 418 10 0 0 417 6 405 19 0 0 0 0 0 0 0 0 0 0 0 0
X 1 25
A 419 10 0 0 418 6 405 22 0 0 0 0 0 0 0 0 0 0 0 0
X 1 13
A 421 2 0 0 63 6 1037 0 0 0 421 0 0 0 0 0 0 0 0 0
A 422 1 0 27 0 192 1038 0 0 0 0 0 0 0 0 0 0 0 0 0
A 423 10 0 0 337 6 422 1 0 0 0 0 0 0 0 0 0 0 0 0
X 1 404
A 424 10 0 0 423 6 422 4 0 0 0 0 0 0 0 0 0 0 0 0
X 1 70
A 425 4 0 0 0 6 424 0 3 0 0 0 0 2 0 0 0 0 0 0
A 426 4 0 0 312 6 423 0 425 0 0 0 0 1 0 0 0 0 0 0
A 427 10 0 0 424 6 422 13 0 0 0 0 0 0 0 0 0 0 0 0
X 1 257
A 428 10 0 0 427 6 422 19 0 0 0 0 0 0 0 0 0 0 0 0
X 1 25
A 429 10 0 0 428 6 422 22 0 0 0 0 0 0 0 0 0 0 0 0
X 1 13
A 432 1 0 25 184 198 1045 0 0 0 0 0 0 0 0 0 0 0 0 0
A 433 10 0 0 347 6 432 1 0 0 0 0 0 0 0 0 0 0 0 0
X 1 404
A 434 10 0 0 433 6 432 4 0 0 0 0 0 0 0 0 0 0 0 0
X 1 70
A 435 4 0 0 402 6 434 0 3 0 0 0 0 2 0 0 0 0 0 0
A 436 4 0 0 365 6 433 0 435 0 0 0 0 1 0 0 0 0 0 0
A 437 10 0 0 434 6 432 7 0 0 0 0 0 0 0 0 0 0 0 0
X 1 410
A 438 10 0 0 437 6 432 10 0 0 0 0 0 0 0 0 0 0 0 0
X 1 198
A 439 4 0 0 405 6 438 0 3 0 0 0 0 2 0 0 0 0 0 0
A 440 4 0 0 385 6 437 0 439 0 0 0 0 1 0 0 0 0 0 0
A 441 10 0 0 438 6 432 13 0 0 0 0 0 0 0 0 0 0 0 0
X 1 257
A 442 10 0 0 441 6 432 16 0 0 0 0 0 0 0 0 0 0 0 0
X 1 416
A 443 10 0 0 442 6 432 19 0 0 0 0 0 0 0 0 0 0 0 0
X 1 25
A 444 10 0 0 443 6 432 22 0 0 0 0 0 0 0 0 0 0 0 0
X 1 13
A 446 1 0 27 297 204 1051 0 0 0 0 0 0 0 0 0 0 0 0 0
A 447 10 0 0 0 6 446 1 0 0 0 0 0 0 0 0 0 0 0 0
X 1 404
A 448 10 0 0 447 6 446 4 0 0 0 0 0 0 0 0 0 0 0 0
X 1 70
A 449 4 0 0 0 6 448 0 3 0 0 0 0 2 0 0 0 0 0 0
A 450 4 0 0 0 6 447 0 449 0 0 0 0 1 0 0 0 0 0 0
A 451 10 0 0 448 6 446 13 0 0 0 0 0 0 0 0 0 0 0 0
X 1 257
A 452 10 0 0 451 6 446 19 0 0 0 0 0 0 0 0 0 0 0 0
X 1 25
A 453 10 0 0 452 6 446 22 0 0 0 0 0 0 0 0 0 0 0 0
X 1 13
A 455 1 0 27 0 210 1057 0 0 0 0 0 0 0 0 0 0 0 0 0
A 456 10 0 0 368 6 455 1 0 0 0 0 0 0 0 0 0 0 0 0
X 1 404
A 457 10 0 0 456 6 455 4 0 0 0 0 0 0 0 0 0 0 0 0
X 1 70
A 458 4 0 0 0 6 457 0 3 0 0 0 0 2 0 0 0 0 0 0
A 459 4 0 0 0 6 456 0 458 0 0 0 0 1 0 0 0 0 0 0
A 460 10 0 0 457 6 455 13 0 0 0 0 0 0 0 0 0 0 0 0
X 1 257
A 461 10 0 0 460 6 455 19 0 0 0 0 0 0 0 0 0 0 0 0
X 1 25
A 462 10 0 0 461 6 455 22 0 0 0 0 0 0 0 0 0 0 0 0
X 1 13
A 468 1 0 25 258 216 1067 0 0 0 0 0 0 0 0 0 0 0 0 0
A 469 10 0 0 0 6 468 1 0 0 0 0 0 0 0 0 0 0 0 0
X 1 404
A 470 10 0 0 469 6 468 4 0 0 0 0 0 0 0 0 0 0 0 0
X 1 70
A 471 4 0 0 0 6 470 0 3 0 0 0 0 2 0 0 0 0 0 0
A 472 4 0 0 0 6 469 0 471 0 0 0 0 1 0 0 0 0 0 0
A 473 10 0 0 470 6 468 7 0 0 0 0 0 0 0 0 0 0 0 0
X 1 410
A 474 10 0 0 473 6 468 10 0 0 0 0 0 0 0 0 0 0 0 0
X 1 198
A 475 4 0 0 467 6 474 0 3 0 0 0 0 2 0 0 0 0 0 0
A 476 4 0 0 92 6 473 0 475 0 0 0 0 1 0 0 0 0 0 0
A 477 10 0 0 474 6 468 13 0 0 0 0 0 0 0 0 0 0 0 0
X 1 257
A 478 10 0 0 477 6 468 16 0 0 0 0 0 0 0 0 0 0 0 0
X 1 416
A 479 10 0 0 478 6 468 19 0 0 0 0 0 0 0 0 0 0 0 0
X 1 25
A 480 10 0 0 479 6 468 22 0 0 0 0 0 0 0 0 0 0 0 0
X 1 13
A 483 1 0 25 0 222 1074 0 0 0 0 0 0 0 0 0 0 0 0 0
A 484 10 0 0 0 6 483 1 0 0 0 0 0 0 0 0 0 0 0 0
X 1 404
A 485 10 0 0 484 6 483 4 0 0 0 0 0 0 0 0 0 0 0 0
X 1 70
A 486 4 0 0 397 6 485 0 3 0 0 0 0 2 0 0 0 0 0 0
A 487 4 0 0 293 6 484 0 486 0 0 0 0 1 0 0 0 0 0 0
A 488 10 0 0 485 6 483 7 0 0 0 0 0 0 0 0 0 0 0 0
X 1 410
A 489 10 0 0 488 6 483 10 0 0 0 0 0 0 0 0 0 0 0 0
X 1 198
A 490 4 0 0 107 6 489 0 3 0 0 0 0 2 0 0 0 0 0 0
A 491 4 0 0 0 6 488 0 490 0 0 0 0 1 0 0 0 0 0 0
A 492 10 0 0 489 6 483 13 0 0 0 0 0 0 0 0 0 0 0 0
X 1 257
A 493 10 0 0 492 6 483 16 0 0 0 0 0 0 0 0 0 0 0 0
X 1 416
A 494 10 0 0 493 6 483 19 0 0 0 0 0 0 0 0 0 0 0 0
X 1 25
A 495 10 0 0 494 6 483 22 0 0 0 0 0 0 0 0 0 0 0 0
X 1 13
A 497 1 0 27 403 228 1080 0 0 0 0 0 0 0 0 0 0 0 0 0
A 498 10 0 0 0 6 497 1 0 0 0 0 0 0 0 0 0 0 0 0
X 1 404
A 499 10 0 0 498 6 497 4 0 0 0 0 0 0 0 0 0 0 0 0
X 1 70
A 500 4 0 0 117 6 499 0 3 0 0 0 0 2 0 0 0 0 0 0
A 501 4 0 0 481 6 498 0 500 0 0 0 0 1 0 0 0 0 0 0
A 502 10 0 0 499 6 497 13 0 0 0 0 0 0 0 0 0 0 0 0
X 1 257
A 503 10 0 0 502 6 497 19 0 0 0 0 0 0 0 0 0 0 0 0
X 1 25
A 504 10 0 0 503 6 497 22 0 0 0 0 0 0 0 0 0 0 0 0
X 1 13
A 507 2 0 0 113 6 1087 0 0 0 507 0 0 0 0 0 0 0 0 0
A 524 1 0 25 348 240 1104 0 0 0 0 0 0 0 0 0 0 0 0 0
A 525 10 0 0 0 6 524 1 0 0 0 0 0 0 0 0 0 0 0 0
X 1 404
A 526 10 0 0 525 6 524 4 0 0 0 0 0 0 0 0 0 0 0 0
X 1 70
A 527 4 0 0 0 6 526 0 3 0 0 0 0 2 0 0 0 0 0 0
A 528 4 0 0 453 6 525 0 527 0 0 0 0 1 0 0 0 0 0 0
A 529 10 0 0 526 6 524 7 0 0 0 0 0 0 0 0 0 0 0 0
X 1 410
A 530 10 0 0 529 6 524 10 0 0 0 0 0 0 0 0 0 0 0 0
X 1 198
A 531 4 0 0 22 6 530 0 3 0 0 0 0 2 0 0 0 0 0 0
A 532 4 0 0 506 6 529 0 531 0 0 0 0 1 0 0 0 0 0 0
A 533 10 0 0 530 6 524 13 0 0 0 0 0 0 0 0 0 0 0 0
X 1 257
A 534 10 0 0 533 6 524 16 0 0 0 0 0 0 0 0 0 0 0 0
X 1 416
A 535 10 0 0 534 6 524 19 0 0 0 0 0 0 0 0 0 0 0 0
X 1 25
A 536 10 0 0 535 6 524 22 0 0 0 0 0 0 0 0 0 0 0 0
X 1 13
A 560 1 0 27 496 251 1132 0 0 0 0 0 0 0 0 0 0 0 0 0
A 561 10 0 0 466 6 560 1 0 0 0 0 0 0 0 0 0 0 0 0
X 1 404
A 562 10 0 0 561 6 560 4 0 0 0 0 0 0 0 0 0 0 0 0
X 1 70
A 563 4 0 0 508 6 562 0 3 0 0 0 0 2 0 0 0 0 0 0
A 564 4 0 0 421 6 561 0 563 0 0 0 0 1 0 0 0 0 0 0
A 565 10 0 0 562 6 560 13 0 0 0 0 0 0 0 0 0 0 0 0
X 1 257
A 566 10 0 0 565 6 560 19 0 0 0 0 0 0 0 0 0 0 0 0
X 1 25
A 567 10 0 0 566 6 560 22 0 0 0 0 0 0 0 0 0 0 0 0
X 1 13
A 570 1 0 25 0 257 1139 0 0 0 0 0 0 0 0 0 0 0 0 0
A 571 10 0 0 395 6 570 1 0 0 0 0 0 0 0 0 0 0 0 0
X 1 404
A 572 10 0 0 571 6 570 4 0 0 0 0 0 0 0 0 0 0 0 0
X 1 70
A 573 4 0 0 472 6 572 0 3 0 0 0 0 2 0 0 0 0 0 0
A 574 4 0 0 135 6 571 0 573 0 0 0 0 1 0 0 0 0 0 0
A 575 10 0 0 572 6 570 7 0 0 0 0 0 0 0 0 0 0 0 0
X 1 410
A 576 10 0 0 575 6 570 10 0 0 0 0 0 0 0 0 0 0 0 0
X 1 198
A 577 4 0 0 0 6 576 0 3 0 0 0 0 2 0 0 0 0 0 0
A 578 4 0 0 0 6 575 0 577 0 0 0 0 1 0 0 0 0 0 0
A 579 10 0 0 576 6 570 13 0 0 0 0 0 0 0 0 0 0 0 0
X 1 257
A 580 10 0 0 579 6 570 16 0 0 0 0 0 0 0 0 0 0 0 0
X 1 416
A 581 10 0 0 580 6 570 19 0 0 0 0 0 0 0 0 0 0 0 0
X 1 25
A 582 10 0 0 581 6 570 22 0 0 0 0 0 0 0 0 0 0 0 0
X 1 13
A 584 1 0 27 335 263 1145 0 0 0 0 0 0 0 0 0 0 0 0 0
A 585 10 0 0 510 6 584 1 0 0 0 0 0 0 0 0 0 0 0 0
X 1 404
A 586 10 0 0 585 6 584 4 0 0 0 0 0 0 0 0 0 0 0 0
X 1 70
A 587 4 0 0 0 6 586 0 3 0 0 0 0 2 0 0 0 0 0 0
A 588 4 0 0 299 6 585 0 587 0 0 0 0 1 0 0 0 0 0 0
A 589 10 0 0 586 6 584 13 0 0 0 0 0 0 0 0 0 0 0 0
X 1 257
A 590 10 0 0 589 6 584 19 0 0 0 0 0 0 0 0 0 0 0 0
X 1 25
A 591 10 0 0 590 6 584 22 0 0 0 0 0 0 0 0 0 0 0 0
X 1 13
A 593 1 0 27 341 269 1151 0 0 0 0 0 0 0 0 0 0 0 0 0
A 594 10 0 0 14 6 593 1 0 0 0 0 0 0 0 0 0 0 0 0
X 1 404
A 595 10 0 0 594 6 593 4 0 0 0 0 0 0 0 0 0 0 0 0
X 1 70
A 596 4 0 0 0 6 595 0 3 0 0 0 0 2 0 0 0 0 0 0
A 597 4 0 0 12 6 594 0 596 0 0 0 0 1 0 0 0 0 0 0
A 598 10 0 0 595 6 593 13 0 0 0 0 0 0 0 0 0 0 0 0
X 1 257
A 599 10 0 0 598 6 593 19 0 0 0 0 0 0 0 0 0 0 0 0
X 1 25
A 600 10 0 0 599 6 593 22 0 0 0 0 0 0 0 0 0 0 0 0
X 1 13
A 604 1 0 27 241 275 1159 0 0 0 0 0 0 0 0 0 0 0 0 0
A 605 10 0 0 527 6 604 1 0 0 0 0 0 0 0 0 0 0 0 0
X 1 404
A 606 10 0 0 605 6 604 4 0 0 0 0 0 0 0 0 0 0 0 0
X 1 70
A 607 4 0 0 46 6 606 0 3 0 0 0 0 2 0 0 0 0 0 0
A 608 4 0 0 0 6 605 0 607 0 0 0 0 1 0 0 0 0 0 0
A 609 10 0 0 606 6 604 13 0 0 0 0 0 0 0 0 0 0 0 0
X 1 257
A 610 10 0 0 609 6 604 19 0 0 0 0 0 0 0 0 0 0 0 0
X 1 25
A 611 10 0 0 610 6 604 22 0 0 0 0 0 0 0 0 0 0 0 0
X 1 13
A 614 1 0 25 249 281 1166 0 0 0 0 0 0 0 0 0 0 0 0 0
A 615 10 0 0 548 6 614 1 0 0 0 0 0 0 0 0 0 0 0 0
X 1 404
A 616 10 0 0 615 6 614 4 0 0 0 0 0 0 0 0 0 0 0 0
X 1 70
A 617 4 0 0 507 6 616 0 3 0 0 0 0 2 0 0 0 0 0 0
A 618 4 0 0 369 6 615 0 617 0 0 0 0 1 0 0 0 0 0 0
A 619 10 0 0 616 6 614 7 0 0 0 0 0 0 0 0 0 0 0 0
X 1 410
A 620 10 0 0 619 6 614 10 0 0 0 0 0 0 0 0 0 0 0 0
X 1 198
A 621 4 0 0 59 6 620 0 3 0 0 0 0 2 0 0 0 0 0 0
A 622 4 0 0 389 6 619 0 621 0 0 0 0 1 0 0 0 0 0 0
A 623 10 0 0 620 6 614 13 0 0 0 0 0 0 0 0 0 0 0 0
X 1 257
A 624 10 0 0 623 6 614 16 0 0 0 0 0 0 0 0 0 0 0 0
X 1 416
A 625 10 0 0 624 6 614 19 0 0 0 0 0 0 0 0 0 0 0 0
X 1 25
A 626 10 0 0 625 6 614 22 0 0 0 0 0 0 0 0 0 0 0 0
X 1 13
A 628 1 0 27 254 287 1172 0 0 0 0 0 0 0 0 0 0 0 0 0
A 629 10 0 0 396 6 628 1 0 0 0 0 0 0 0 0 0 0 0 0
X 1 404
A 630 10 0 0 629 6 628 4 0 0 0 0 0 0 0 0 0 0 0 0
X 1 70
A 631 4 0 0 126 6 630 0 3 0 0 0 0 2 0 0 0 0 0 0
A 632 4 0 0 0 6 629 0 631 0 0 0 0 1 0 0 0 0 0 0
A 633 10 0 0 630 6 628 13 0 0 0 0 0 0 0 0 0 0 0 0
X 1 257
A 634 10 0 0 633 6 628 19 0 0 0 0 0 0 0 0 0 0 0 0
X 1 25
A 635 10 0 0 634 6 628 22 0 0 0 0 0 0 0 0 0 0 0 0
X 1 13
A 637 1 0 27 97 293 1178 0 0 0 0 0 0 0 0 0 0 0 0 0
A 638 10 0 0 0 6 637 1 0 0 0 0 0 0 0 0 0 0 0 0
X 1 404
A 639 10 0 0 638 6 637 4 0 0 0 0 0 0 0 0 0 0 0 0
X 1 70
A 640 4 0 0 574 6 639 0 3 0 0 0 0 2 0 0 0 0 0 0
A 641 4 0 0 414 6 638 0 640 0 0 0 0 1 0 0 0 0 0 0
A 642 10 0 0 639 6 637 13 0 0 0 0 0 0 0 0 0 0 0 0
X 1 257
A 643 10 0 0 642 6 637 19 0 0 0 0 0 0 0 0 0 0 0 0
X 1 25
A 644 10 0 0 643 6 637 22 0 0 0 0 0 0 0 0 0 0 0 0
X 1 13
A 647 1 0 25 607 299 1185 0 0 0 0 0 0 0 0 0 0 0 0 0
A 648 10 0 0 177 6 647 1 0 0 0 0 0 0 0 0 0 0 0 0
X 1 404
A 649 10 0 0 648 6 647 4 0 0 0 0 0 0 0 0 0 0 0 0
X 1 70
A 650 4 0 0 145 6 649 0 3 0 0 0 0 2 0 0 0 0 0 0
A 651 4 0 0 422 6 648 0 650 0 0 0 0 1 0 0 0 0 0 0
A 652 10 0 0 649 6 647 7 0 0 0 0 0 0 0 0 0 0 0 0
X 1 410
A 653 10 0 0 652 6 647 10 0 0 0 0 0 0 0 0 0 0 0 0
X 1 198
A 654 4 0 0 0 6 653 0 3 0 0 0 0 2 0 0 0 0 0 0
A 655 4 0 0 306 6 652 0 654 0 0 0 0 1 0 0 0 0 0 0
A 656 10 0 0 653 6 647 13 0 0 0 0 0 0 0 0 0 0 0 0
X 1 257
A 657 10 0 0 656 6 647 16 0 0 0 0 0 0 0 0 0 0 0 0
X 1 416
A 658 10 0 0 657 6 647 19 0 0 0 0 0 0 0 0 0 0 0 0
X 1 25
A 659 10 0 0 658 6 647 22 0 0 0 0 0 0 0 0 0 0 0 0
X 1 13
A 663 1 0 25 0 308 1193 0 0 0 0 0 0 0 0 0 0 0 0 0
A 664 10 0 0 83 6 663 1 0 0 0 0 0 0 0 0 0 0 0 0
X 1 404
A 665 10 0 0 664 6 663 4 0 0 0 0 0 0 0 0 0 0 0 0
X 1 70
A 666 4 0 0 0 6 665 0 3 0 0 0 0 2 0 0 0 0 0 0
A 667 4 0 0 618 6 664 0 666 0 0 0 0 1 0 0 0 0 0 0
A 668 10 0 0 665 6 663 7 0 0 0 0 0 0 0 0 0 0 0 0
X 1 410
A 669 10 0 0 668 6 663 10 0 0 0 0 0 0 0 0 0 0 0 0
X 1 198
A 670 4 0 0 0 6 669 0 3 0 0 0 0 2 0 0 0 0 0 0
A 671 4 0 0 622 6 668 0 670 0 0 0 0 1 0 0 0 0 0 0
A 672 10 0 0 669 6 663 13 0 0 0 0 0 0 0 0 0 0 0 0
X 1 257
A 673 10 0 0 672 6 663 16 0 0 0 0 0 0 0 0 0 0 0 0
X 1 416
A 674 10 0 0 673 6 663 19 0 0 0 0 0 0 0 0 0 0 0 0
X 1 25
A 675 10 0 0 674 6 663 22 0 0 0 0 0 0 0 0 0 0 0 0
X 1 13
A 679 1 0 27 514 317 1201 0 0 0 0 0 0 0 0 0 0 0 0 0
A 680 10 0 0 646 6 679 1 0 0 0 0 0 0 0 0 0 0 0 0
X 1 404
A 681 10 0 0 680 6 679 4 0 0 0 0 0 0 0 0 0 0 0 0
X 1 70
A 682 4 0 0 61 6 681 0 3 0 0 0 0 2 0 0 0 0 0 0
A 683 4 0 0 458 6 680 0 682 0 0 0 0 1 0 0 0 0 0 0
A 684 10 0 0 681 6 679 13 0 0 0 0 0 0 0 0 0 0 0 0
X 1 257
A 685 10 0 0 684 6 679 19 0 0 0 0 0 0 0 0 0 0 0 0
X 1 25
A 686 10 0 0 685 6 679 22 0 0 0 0 0 0 0 0 0 0 0 0
X 1 13
Z
Z
