V26 io_files
12 io_files.F90 S582 0
04/24/2012  15:51:03
use parameters private
use parameters private
enduse
D 56 18 25
D 58 18 30
D 60 18 33
D 62 18 38
D 66 21 58 1 3 13 0 0 0 0 0
 0 13 3 3 13 13
D 69 18 52
D 71 18 61
D 73 18 64
D 75 18 27
D 77 18 20
D 79 18 75
D 81 18 78
D 83 18 87
D 87 18 102
D 89 18 107
D 91 18 30
S 582 24 0 0 0 6 1 0 4658 10005 0 A 0 0 0 0 0 0 0 0 0 0 0 0 0 0 0 0 0 0 0 0 0 11 0 0 0 0 0 0 io_files
S 584 23 0 0 0 6 592 582 4678 4 0 A 0 0 0 0 0 0 0 0 0 0 0 0 0 0 0 0 0 0 0 0 0 0 0 582 0 0 0 0 ntypx
S 585 3 0 0 0 6 1 1 0 0 0 A 0 0 0 0 0 0 0 0 0 10 0 0 0 0 0 0 0 0 0 0 0 0 0 0 0 0 0 0 6
S 588 3 0 0 0 6 1 1 0 0 0 A 0 0 0 0 0 0 0 0 0 2 0 0 0 0 0 0 0 0 0 0 0 0 0 0 0 0 0 0 6
S 589 3 0 0 0 6 1 1 0 0 0 A 0 0 0 0 0 0 0 0 0 7 0 0 0 0 0 0 0 0 0 0 0 0 0 0 0 0 0 0 6
S 590 3 0 0 0 6 1 1 0 0 0 A 0 0 0 0 0 0 0 0 0 4 0 0 0 0 0 0 0 0 0 0 0 0 0 0 0 0 0 0 6
R 592 16 1 parameters ntypx
S 604 3 0 0 0 6 1 1 0 0 0 A 0 0 0 0 0 0 0 0 0 256 0 0 0 0 0 0 0 0 0 0 0 0 0 0 0 0 0 0 6
S 605 6 4 0 0 58 608 582 4747 80000c 0 A 0 0 0 0 0 0 0 0 0 0 0 0 757 0 0 0 0 0 0 0 0 0 0 582 0 0 0 0 tmp_dir
S 606 3 0 0 0 6 0 1 0 0 0 A 0 0 0 0 0 0 0 0 0 9 0 0 0 0 0 0 0 0 0 0 0 0 0 0 0 0 0 0 6
S 608 6 4 0 0 58 610 582 4765 80000c 0 A 0 0 0 0 0 256 0 0 0 0 0 0 757 0 0 0 0 0 0 0 0 0 0 582 0 0 0 0 wfc_dir
S 610 6 4 0 0 58 613 582 4776 80000c 0 A 0 0 0 0 0 512 0 0 0 0 0 0 757 0 0 0 0 0 0 0 0 0 0 582 0 0 0 0 prefix
S 611 3 0 0 0 6 0 1 0 0 0 A 0 0 0 0 0 0 0 0 0 6 0 0 0 0 0 0 0 0 0 0 0 0 0 0 0 0 0 0 6
S 613 6 4 0 0 62 614 582 4790 80000c 0 A 0 0 0 0 0 768 0 0 0 0 0 0 757 0 0 0 0 0 0 0 0 0 0 582 0 0 0 0 nd_nmbr
S 614 6 4 0 0 58 616 582 4798 80000c 0 A 0 0 0 0 0 774 0 0 0 0 0 0 757 0 0 0 0 0 0 0 0 0 0 582 0 0 0 0 pseudo_dir
S 616 7 4 0 4 66 617 582 4813 80000c 100 A 0 0 0 0 0 1040 0 0 0 0 0 0 757 0 0 0 0 0 0 0 0 0 0 582 0 0 0 0 psfile
S 617 6 4 0 0 58 618 582 4820 80000c 0 A 0 0 0 0 0 3600 0 0 0 0 0 0 757 0 0 0 0 0 0 0 0 0 0 582 0 0 0 0 scradir
S 618 6 4 0 0 58 620 582 4828 80000c 0 A 0 0 0 0 0 3856 0 0 0 0 0 0 757 0 0 0 0 0 0 0 0 0 0 582 0 0 0 0 outdir
S 620 6 4 0 0 58 623 582 4837 80000c 0 A 0 0 0 0 0 4112 0 0 0 0 0 0 757 0 0 0 0 0 0 0 0 0 0 582 0 0 0 0 qexml_version
S 621 6 4 0 0 16 684 582 4851 80000c 0 A 0 0 0 0 0 0 0 0 0 0 0 0 758 0 0 0 0 0 0 0 0 0 0 582 0 0 0 0 qexml_version_init
S 623 6 4 0 0 58 624 582 4870 80000c 0 A 0 0 0 0 0 4368 0 0 0 0 0 0 757 0 0 0 0 0 0 0 0 0 0 582 0 0 0 0 input_drho
S 624 6 4 0 0 58 626 582 4881 80000c 0 A 0 0 0 0 0 4624 0 0 0 0 0 0 757 0 0 0 0 0 0 0 0 0 0 582 0 0 0 0 output_drho
S 625 3 0 0 0 6 0 1 0 0 0 A 0 0 0 0 0 0 0 0 0 19 0 0 0 0 0 0 0 0 0 0 0 0 0 0 0 0 0 0 6
S 626 6 4 0 0 69 627 582 4893 80000c 0 A 0 0 0 0 0 4880 0 0 0 0 0 0 757 0 0 0 0 0 0 0 0 0 0 582 0 0 0 0 band_file
S 627 6 4 0 0 69 628 582 4903 80000c 0 A 0 0 0 0 0 4899 0 0 0 0 0 0 757 0 0 0 0 0 0 0 0 0 0 582 0 0 0 0 tran_file
S 628 6 4 0 0 58 629 582 4913 80000c 0 A 0 0 0 0 0 4918 0 0 0 0 0 0 757 0 0 0 0 0 0 0 0 0 0 582 0 0 0 0 prefixt
S 629 6 4 0 0 58 630 582 4921 80000c 0 A 0 0 0 0 0 5174 0 0 0 0 0 0 757 0 0 0 0 0 0 0 0 0 0 582 0 0 0 0 prefixl
S 630 6 4 0 0 58 631 582 4929 80000c 0 A 0 0 0 0 0 5430 0 0 0 0 0 0 757 0 0 0 0 0 0 0 0 0 0 582 0 0 0 0 prefixs
S 631 6 4 0 0 58 632 582 4937 80000c 0 A 0 0 0 0 0 5686 0 0 0 0 0 0 757 0 0 0 0 0 0 0 0 0 0 582 0 0 0 0 prefixr
S 632 6 4 0 0 58 633 582 4945 80000c 0 A 0 0 0 0 0 5942 0 0 0 0 0 0 757 0 0 0 0 0 0 0 0 0 0 582 0 0 0 0 save_file
S 633 6 4 0 0 58 669 582 4955 80000c 0 A 0 0 0 0 0 6198 0 0 0 0 0 0 757 0 0 0 0 0 0 0 0 0 0 582 0 0 0 0 fil_loc
S 634 3 0 0 0 6 0 1 0 0 0 A 0 0 0 0 0 0 0 0 0 14 0 0 0 0 0 0 0 0 0 0 0 0 0 0 0 0 0 0 6
S 635 3 0 0 0 71 0 1 0 0 0 A 0 0 0 0 0 0 0 0 4963 0 0 0 0 0 0 0 0 0 0 0 0 0 0 0 0 0 0 0 18 14 43 48 41 52 47 45 5f 44 45 4e 53 49 54 59
S 636 16 0 0 0 71 1 582 4978 4 400000 A 0 0 0 0 0 0 0 0 635 62 0 0 0 0 0 0 0 0 0 0 0 0 0 582 0 0 0 0 rho_name
S 637 3 0 0 0 6 0 1 0 0 0 A 0 0 0 0 0 0 0 0 0 17 0 0 0 0 0 0 0 0 0 0 0 0 0 0 0 0 0 0 6
S 638 3 0 0 0 73 0 1 0 0 0 A 0 0 0 0 0 0 0 0 4987 0 0 0 0 0 0 0 0 0 0 0 0 0 0 0 0 0 0 0 18 17 43 48 41 52 47 45 5f 44 45 4e 53 49 54 59 2e 55 50
S 639 16 0 0 0 73 1 582 5005 4 400000 A 0 0 0 0 0 0 0 0 638 65 0 0 0 0 0 0 0 0 0 0 0 0 0 582 0 0 0 0 rho_name_up
S 640 3 0 0 0 69 0 1 0 0 0 A 0 0 0 0 0 0 0 0 5017 0 0 0 0 0 0 0 0 0 0 0 0 0 0 0 0 0 0 0 18 19 43 48 41 52 47 45 5f 44 45 4e 53 49 54 59 2e 44 4f 57 4e
S 641 16 0 0 0 69 1 582 5037 4 400000 A 0 0 0 0 0 0 0 0 640 67 0 0 0 0 0 0 0 0 0 0 0 0 0 582 0 0 0 0 rho_name_down
S 642 3 0 0 0 71 0 1 0 0 0 A 0 0 0 0 0 0 0 0 5051 0 0 0 0 0 0 0 0 0 0 0 0 0 0 0 0 0 0 0 18 14 43 48 41 52 47 45 5f 41 56 45 52 41 47 45
S 643 16 0 0 0 71 1 582 5066 4 400000 A 0 0 0 0 0 0 0 0 642 69 0 0 0 0 0 0 0 0 0 0 0 0 0 582 0 0 0 0 rho_name_avg
S 644 3 0 0 0 75 0 1 0 0 0 A 0 0 0 0 0 0 0 0 5079 0 0 0 0 0 0 0 0 0 0 0 0 0 0 0 0 0 0 0 18 4 43 48 49 32
S 645 16 0 0 0 75 1 582 5084 4 400000 A 0 0 0 0 0 0 0 0 644 71 0 0 0 0 0 0 0 0 0 0 0 0 0 582 0 0 0 0 chifile
S 646 3 0 0 0 77 0 1 0 0 0 A 0 0 0 0 0 0 0 0 5092 0 0 0 0 0 0 0 0 0 0 0 0 0 0 0 0 0 0 0 18 7 45 50 53 49 4c 4f 4e
S 647 16 0 0 0 77 1 582 5100 4 400000 A 0 0 0 0 0 0 0 0 646 73 0 0 0 0 0 0 0 0 0 0 0 0 0 582 0 0 0 0 dielecfile
S 648 3 0 0 0 6 0 1 0 0 0 A 0 0 0 0 0 0 0 0 0 15 0 0 0 0 0 0 0 0 0 0 0 0 0 0 0 0 0 0 6
S 649 3 0 0 0 79 0 1 0 0 0 A 0 0 0 0 0 0 0 0 5111 0 0 0 0 0 0 0 0 0 0 0 0 0 0 0 0 0 0 0 18 15 45 4d 50 54 59 5f 53 54 41 54 45 53 2e 57 46
S 650 16 0 0 0 79 1 582 5127 4 400000 A 0 0 0 0 0 0 0 0 649 76 0 0 0 0 0 0 0 0 0 0 0 0 0 582 0 0 0 0 empty_file
S 651 3 0 0 0 6 0 1 0 0 0 A 0 0 0 0 0 0 0 0 0 5 0 0 0 0 0 0 0 0 0 0 0 0 0 0 0 0 0 0 6
S 652 3 0 0 0 81 0 1 0 0 0 A 0 0 0 0 0 0 0 0 5138 0 0 0 0 0 0 0 0 0 0 0 0 0 0 0 0 0 0 0 18 5 43 52 41 53 48
S 653 16 0 0 0 81 1 582 5144 4 400000 A 0 0 0 0 0 0 0 0 652 79 0 0 0 0 0 0 0 0 0 0 0 0 0 582 0 0 0 0 crash_file
S 654 3 0 0 0 77 0 1 0 0 0 A 0 0 0 0 0 0 0 0 5155 0 0 0 0 0 0 0 0 0 0 0 0 0 0 0 0 0 0 0 18 7 2e 63 70 73 74 6f 70
S 655 16 0 0 0 77 1 582 5163 4 400000 A 0 0 0 0 0 0 0 0 654 81 0 0 0 0 0 0 0 0 0 0 0 0 0 582 0 0 0 0 stop_file
S 656 3 0 0 0 56 0 1 0 0 0 A 0 0 0 0 0 0 0 0 5173 0 0 0 0 0 0 0 0 0 0 0 0 0 0 0 0 0 0 0 18 2 4b 53
S 657 16 0 0 0 56 1 582 5176 4 400000 A 0 0 0 0 0 0 0 0 656 83 0 0 0 0 0 0 0 0 0 0 0 0 0 582 0 0 0 0 ks_file
S 658 3 0 0 0 62 0 1 0 0 0 A 0 0 0 0 0 0 0 0 5184 0 0 0 0 0 0 0 0 0 0 0 0 0 0 0 0 0 0 0 18 6 4b 53 5f 45 4d 50
S 659 16 0 0 0 62 1 582 5191 4 400000 A 0 0 0 0 0 0 0 0 658 85 0 0 0 0 0 0 0 0 0 0 0 0 0 582 0 0 0 0 ks_emp_file
S 660 3 0 0 0 6 0 1 0 0 0 A 0 0 0 0 0 0 0 0 0 16 0 0 0 0 0 0 0 0 0 0 0 0 0 0 0 0 0 0 6
S 661 3 0 0 0 83 0 1 0 0 0 A 0 0 0 0 0 0 0 0 5203 0 0 0 0 0 0 0 0 0 0 0 0 0 0 0 0 0 0 0 18 16 53 54 52 55 43 54 55 52 45 5f 46 41 43 54 4f 52
S 662 16 0 0 0 83 1 582 5220 4 400000 A 0 0 0 0 0 0 0 0 661 88 0 0 0 0 0 0 0 0 0 0 0 0 0 582 0 0 0 0 sfac_file
S 669 6 4 0 0 58 670 582 5278 80000c 0 A 0 0 0 0 0 6454 0 0 0 0 0 0 757 0 0 0 0 0 0 0 0 0 0 582 0 0 0 0 dat_file
S 670 6 4 0 0 58 671 582 5287 80000c 0 A 0 0 0 0 0 6710 0 0 0 0 0 0 757 0 0 0 0 0 0 0 0 0 0 582 0 0 0 0 int_file
S 671 6 4 0 0 58 672 582 5296 80000c 0 A 0 0 0 0 0 6966 0 0 0 0 0 0 757 0 0 0 0 0 0 0 0 0 0 582 0 0 0 0 path_file
S 672 6 4 0 0 58 673 582 5306 80000c 0 A 0 0 0 0 0 7222 0 0 0 0 0 0 757 0 0 0 0 0 0 0 0 0 0 582 0 0 0 0 xyz_file
S 673 6 4 0 0 58 674 582 5315 80000c 0 A 0 0 0 0 0 7478 0 0 0 0 0 0 757 0 0 0 0 0 0 0 0 0 0 582 0 0 0 0 axsf_file
S 674 6 4 0 0 58 677 582 5325 80000c 0 A 0 0 0 0 0 7734 0 0 0 0 0 0 757 0 0 0 0 0 0 0 0 0 0 582 0 0 0 0 broy_file
S 676 3 0 0 0 6 0 1 0 0 0 A 0 0 0 0 0 0 0 0 0 261 0 0 0 0 0 0 0 0 0 0 0 0 0 0 0 0 0 0 6
S 677 6 4 0 0 87 1 582 5343 80000c 0 A 0 0 0 0 0 7990 0 0 0 0 0 0 757 0 0 0 0 0 0 0 0 0 0 582 0 0 0 0 exit_file
S 678 3 0 0 0 60 0 1 0 0 0 A 0 0 0 0 0 0 0 0 5353 0 0 0 0 0 0 0 0 0 0 0 0 0 0 0 0 0 0 0 18 9 64 61 74 61 2d 66 69 6c 65
S 679 16 1 0 0 60 1 582 5363 4 400000 A 0 0 0 0 0 0 0 0 678 105 0 0 0 0 0 0 0 0 0 0 0 0 0 582 0 0 0 0 xmlpun_base
S 681 3 0 0 0 6 0 1 0 0 0 A 0 0 0 0 0 0 0 0 0 13 0 0 0 0 0 0 0 0 0 0 0 0 0 0 0 0 0 0 6
S 682 16 0 0 0 89 1 582 5380 4 400000 A 0 0 0 0 0 0 0 0 683 109 0 0 0 0 0 0 0 0 0 0 0 0 0 582 0 0 0 0 xmlpun
S 683 3 0 0 0 89 0 1 0 0 0 A 0 0 0 0 0 0 0 0 5387 0 0 0 0 0 0 0 0 0 0 0 0 0 0 0 0 0 0 0 18 13 64 61 74 61 2d 66 69 6c 65 2e 78 6d 6c
S 684 6 4 0 0 6 685 582 5401 80000c 0 A 0 0 0 0 0 4 0 0 0 0 0 0 758 0 0 0 0 0 0 0 0 0 0 582 0 0 0 0 rhounit
S 685 6 4 0 0 6 686 582 5409 80000c 0 A 0 0 0 0 0 8 0 0 0 0 0 0 758 0 0 0 0 0 0 0 0 0 0 582 0 0 0 0 emptyunit
S 686 6 4 0 0 6 687 582 5419 80000c 0 A 0 0 0 0 0 12 0 0 0 0 0 0 758 0 0 0 0 0 0 0 0 0 0 582 0 0 0 0 crashunit
S 687 6 4 0 0 6 688 582 5429 80000c 0 A 0 0 0 0 0 16 0 0 0 0 0 0 758 0 0 0 0 0 0 0 0 0 0 582 0 0 0 0 stopunit
S 688 6 4 0 0 6 690 582 5438 80000c 0 A 0 0 0 0 0 20 0 0 0 0 0 0 758 0 0 0 0 0 0 0 0 0 0 582 0 0 0 0 ksunit
S 690 6 4 0 0 6 692 582 5445 80000c 0 A 0 0 0 0 0 24 0 0 0 0 0 0 758 0 0 0 0 0 0 0 0 0 0 582 0 0 0 0 sfacunit
S 692 6 4 0 0 6 693 582 5454 80000c 0 A 0 0 0 0 0 28 0 0 0 0 0 0 758 0 0 0 0 0 0 0 0 0 0 582 0 0 0 0 pseudounit
S 693 6 4 0 0 6 694 582 5465 80000c 0 A 0 0 0 0 0 32 0 0 0 0 0 0 758 0 0 0 0 0 0 0 0 0 0 582 0 0 0 0 chiunit
S 694 6 4 0 0 6 695 582 5473 80000c 0 A 0 0 0 0 0 36 0 0 0 0 0 0 758 0 0 0 0 0 0 0 0 0 0 582 0 0 0 0 dielecunit
S 695 6 4 0 0 6 696 582 5484 80000c 0 A 0 0 0 0 0 40 0 0 0 0 0 0 758 0 0 0 0 0 0 0 0 0 0 582 0 0 0 0 opt_unit
S 696 6 4 0 0 6 697 582 5493 80000c 0 A 0 0 0 0 0 44 0 0 0 0 0 0 758 0 0 0 0 0 0 0 0 0 0 582 0 0 0 0 iunres
S 697 6 4 0 0 6 698 582 5500 80000c 0 A 0 0 0 0 0 48 0 0 0 0 0 0 758 0 0 0 0 0 0 0 0 0 0 582 0 0 0 0 iunpun
S 698 6 4 0 0 6 699 582 5507 80000c 0 A 0 0 0 0 0 52 0 0 0 0 0 0 758 0 0 0 0 0 0 0 0 0 0 582 0 0 0 0 iunwfc
S 699 6 4 0 0 6 701 582 5514 80000c 0 A 0 0 0 0 0 56 0 0 0 0 0 0 758 0 0 0 0 0 0 0 0 0 0 582 0 0 0 0 iunoldwfc
S 701 6 4 0 0 6 703 582 5524 80000c 0 A 0 0 0 0 0 60 0 0 0 0 0 0 758 0 0 0 0 0 0 0 0 0 0 582 0 0 0 0 iunoldwfc2
S 703 6 4 0 0 6 704 582 5535 80000c 0 A 0 0 0 0 0 64 0 0 0 0 0 0 758 0 0 0 0 0 0 0 0 0 0 582 0 0 0 0 iunat
S 704 6 4 0 0 6 705 582 5541 80000c 0 A 0 0 0 0 0 68 0 0 0 0 0 0 758 0 0 0 0 0 0 0 0 0 0 582 0 0 0 0 iunsat
S 705 6 4 0 0 6 706 582 5548 80000c 0 A 0 0 0 0 0 72 0 0 0 0 0 0 758 0 0 0 0 0 0 0 0 0 0 582 0 0 0 0 iunocc
S 706 6 4 0 0 6 707 582 5555 80000c 0 A 0 0 0 0 0 76 0 0 0 0 0 0 758 0 0 0 0 0 0 0 0 0 0 582 0 0 0 0 iunigk
S 707 6 4 0 0 6 708 582 5562 80000c 0 A 0 0 0 0 0 80 0 0 0 0 0 0 758 0 0 0 0 0 0 0 0 0 0 582 0 0 0 0 iunpaw
S 708 6 4 0 0 6 710 582 5569 80000c 0 A 0 0 0 0 0 84 0 0 0 0 0 0 758 0 0 0 0 0 0 0 0 0 0 582 0 0 0 0 iunexit
S 710 6 4 0 0 6 712 582 5577 80000c 0 A 0 0 0 0 0 88 0 0 0 0 0 0 758 0 0 0 0 0 0 0 0 0 0 582 0 0 0 0 iunupdate
S 712 6 4 0 0 6 714 582 5587 80000c 0 A 0 0 0 0 0 92 0 0 0 0 0 0 758 0 0 0 0 0 0 0 0 0 0 582 0 0 0 0 iunnewimage
S 714 6 4 0 0 6 716 582 5599 80000c 0 A 0 0 0 0 0 96 0 0 0 0 0 0 758 0 0 0 0 0 0 0 0 0 0 582 0 0 0 0 iunlock
S 716 6 4 0 0 6 718 582 5607 80000c 0 A 0 0 0 0 0 100 0 0 0 0 0 0 758 0 0 0 0 0 0 0 0 0 0 582 0 0 0 0 iunbfgs
S 718 6 4 0 0 6 720 582 5615 80000c 0 A 0 0 0 0 0 104 0 0 0 0 0 0 758 0 0 0 0 0 0 0 0 0 0 582 0 0 0 0 iunatsicwfc
S 720 6 4 0 0 6 721 582 5627 80000c 0 A 0 0 0 0 0 108 0 0 0 0 0 0 758 0 0 0 0 0 0 0 0 0 0 582 0 0 0 0 nwordwfc
S 721 6 4 0 0 6 722 582 5636 80000c 0 A 0 0 0 0 0 112 0 0 0 0 0 0 758 0 0 0 0 0 0 0 0 0 0 582 0 0 0 0 nwordatwfc
S 722 6 4 0 0 6 723 582 5647 80000c 0 A 0 0 0 0 0 116 0 0 0 0 0 0 758 0 0 0 0 0 0 0 0 0 0 582 0 0 0 0 nwordwann
S 723 6 4 0 0 6 724 582 5657 80000c 0 A 0 0 0 0 0 120 0 0 0 0 0 0 758 0 0 0 0 0 0 0 0 0 0 582 0 0 0 0 iunpath
S 724 6 4 0 0 6 726 582 5665 80000c 0 A 0 0 0 0 0 124 0 0 0 0 0 0 758 0 0 0 0 0 0 0 0 0 0 582 0 0 0 0 iunrestart
S 726 6 4 0 0 6 728 582 5676 80000c 0 A 0 0 0 0 0 128 0 0 0 0 0 0 758 0 0 0 0 0 0 0 0 0 0 582 0 0 0 0 iundat
S 728 6 4 0 0 6 730 582 5683 80000c 0 A 0 0 0 0 0 132 0 0 0 0 0 0 758 0 0 0 0 0 0 0 0 0 0 582 0 0 0 0 iunint
S 730 6 4 0 0 6 732 582 5690 80000c 0 A 0 0 0 0 0 136 0 0 0 0 0 0 758 0 0 0 0 0 0 0 0 0 0 582 0 0 0 0 iunxyz
S 732 6 4 0 0 6 734 582 5697 80000c 0 A 0 0 0 0 0 140 0 0 0 0 0 0 758 0 0 0 0 0 0 0 0 0 0 582 0 0 0 0 iunaxsf
S 734 6 4 0 0 6 735 582 5705 80000c 0 A 0 0 0 0 0 144 0 0 0 0 0 0 758 0 0 0 0 0 0 0 0 0 0 582 0 0 0 0 iunbroy
S 735 6 4 0 0 6 737 582 5713 80000c 0 A 0 0 0 0 0 148 0 0 0 0 0 0 758 0 0 0 0 0 0 0 0 0 0 582 0 0 0 0 iunmeta
S 737 6 4 0 0 6 738 582 5721 80000c 0 A 0 0 0 0 0 152 0 0 0 0 0 0 758 0 0 0 0 0 0 0 0 0 0 582 0 0 0 0 smwout
S 738 6 4 0 0 6 739 582 5728 80000c 0 A 0 0 0 0 0 156 0 0 0 0 0 0 758 0 0 0 0 0 0 0 0 0 0 582 0 0 0 0 vib_out
S 739 6 4 0 0 6 740 582 5736 80000c 0 A 0 0 0 0 0 160 0 0 0 0 0 0 758 0 0 0 0 0 0 0 0 0 0 582 0 0 0 0 vib_mass
S 740 6 4 0 0 6 741 582 5745 80000c 0 A 0 0 0 0 0 164 0 0 0 0 0 0 758 0 0 0 0 0 0 0 0 0 0 582 0 0 0 0 iunefield
S 741 6 4 0 0 6 743 582 5755 80000c 0 A 0 0 0 0 0 168 0 0 0 0 0 0 758 0 0 0 0 0 0 0 0 0 0 582 0 0 0 0 iunefieldm
S 743 6 4 0 0 6 1 582 5766 80000c 0 A 0 0 0 0 0 172 0 0 0 0 0 0 758 0 0 0 0 0 0 0 0 0 0 582 0 0 0 0 iunefieldp
S 757 11 0 0 4 9 1 582 8629 40800000 801000 A 0 0 0 0 0 8251 0 0 605 677 0 0 0 0 0 0 0 0 0 0 0 0 0 0 0 0 0 0 _io_files$9
S 758 11 0 0 0 9 757 582 8641 40800000 801000 A 0 0 0 0 0 176 0 0 621 743 0 0 0 0 0 0 0 0 0 0 0 0 0 0 0 0 0 0 _io_files$8
S 759 23 5 0 0 9 761 582 8653 0 0 A 0 0 0 0 0 0 0 0 0 0 0 0 0 0 0 0 0 0 0 0 0 0 0 0 0 0 0 0 trimcheck
S 760 1 3 1 0 28 1 759 8663 4 43000 A 0 0 0 0 0 0 0 0 0 0 0 0 0 0 0 0 0 0 0 0 0 0 0 0 0 0 0 0 directory
S 761 14 5 0 0 91 1 759 8653 4 400000 A 0 0 0 0 0 0 0 2 1 0 0 762 0 0 0 0 0 0 0 0 0 142 0 582 0 0 0 0 trimcheck
F 761 1 760
S 762 1 3 0 0 91 1 759 8653 4 1003000 A 0 0 0 0 0 0 0 0 0 0 0 0 0 0 0 0 0 0 0 0 0 0 0 0 0 0 0 0 trimcheck
S 763 23 5 0 0 9 764 582 8673 0 0 A 0 0 0 0 0 0 0 0 0 0 0 0 0 0 0 0 0 0 0 0 0 0 0 0 0 0 0 0 find_free_unit
S 764 14 5 0 0 6 1 763 8673 4 400000 A 0 0 0 0 0 0 0 4 0 0 0 765 0 0 0 0 0 0 0 0 0 172 0 582 0 0 0 0 find_free_unit
F 764 0
S 765 1 3 0 0 6 1 763 8673 4 1003000 A 0 0 0 0 0 0 0 0 0 0 0 0 0 0 0 0 0 0 0 0 0 0 0 0 0 0 0 0 find_free_unit
S 766 23 5 0 0 0 769 582 8688 0 0 A 0 0 0 0 0 0 0 0 0 0 0 0 0 0 0 0 0 0 0 0 0 0 0 0 0 0 0 0 delete_if_present
S 767 1 3 1 0 28 1 766 8706 4 43000 A 0 0 0 0 0 0 0 0 0 0 0 0 0 0 0 0 0 0 0 0 0 0 0 0 0 0 0 0 filename
S 768 1 3 1 0 16 1 766 8715 80000004 3000 A 0 0 0 0 0 0 0 0 0 0 0 0 0 0 0 0 0 0 0 0 0 0 0 0 0 0 0 0 in_warning
S 769 14 5 0 0 0 1 766 8688 0 400000 A 0 0 0 0 0 0 0 5 2 0 0 0 0 0 0 0 0 0 0 0 0 203 0 582 0 0 0 0 delete_if_present
F 769 2 767 768
A 13 2 0 0 0 6 585 0 0 0 13 0 0 0 0 0 0 0 0 0
A 20 2 0 0 0 6 589 0 0 0 20 0 0 0 0 0 0 0 0 0
A 25 2 0 0 0 6 588 0 0 0 25 0 0 0 0 0 0 0 0 0
A 27 2 0 0 0 6 590 0 0 0 27 0 0 0 0 0 0 0 0 0
A 30 2 0 0 0 6 604 0 0 0 30 0 0 0 0 0 0 0 0 0
A 33 2 0 0 0 6 606 0 0 0 33 0 0 0 0 0 0 0 0 0
A 38 2 0 0 0 6 611 0 0 0 38 0 0 0 0 0 0 0 0 0
A 52 2 0 0 0 6 625 0 0 0 52 0 0 0 0 0 0 0 0 0
A 61 2 0 0 0 6 634 0 0 0 61 0 0 0 0 0 0 0 0 0
A 62 2 0 0 0 71 635 0 0 0 62 0 0 0 0 0 0 0 0 0
A 64 2 0 0 0 6 637 0 0 0 64 0 0 0 0 0 0 0 0 0
A 65 2 0 0 0 73 638 0 0 0 65 0 0 0 0 0 0 0 0 0
A 67 2 0 0 13 69 640 0 0 0 67 0 0 0 0 0 0 0 0 0
A 69 2 0 0 18 71 642 0 0 0 69 0 0 0 0 0 0 0 0 0
A 71 2 0 0 20 75 644 0 0 0 71 0 0 0 0 0 0 0 0 0
A 73 2 0 0 29 77 646 0 0 0 73 0 0 0 0 0 0 0 0 0
A 75 2 0 0 0 6 648 0 0 0 75 0 0 0 0 0 0 0 0 0
A 76 2 0 0 0 79 649 0 0 0 76 0 0 0 0 0 0 0 0 0
A 78 2 0 0 0 6 651 0 0 0 78 0 0 0 0 0 0 0 0 0
A 79 2 0 0 0 81 652 0 0 0 79 0 0 0 0 0 0 0 0 0
A 81 2 0 0 0 77 654 0 0 0 81 0 0 0 0 0 0 0 0 0
A 83 2 0 0 0 56 656 0 0 0 83 0 0 0 0 0 0 0 0 0
A 85 2 0 0 0 62 658 0 0 0 85 0 0 0 0 0 0 0 0 0
A 87 2 0 0 0 6 660 0 0 0 87 0 0 0 0 0 0 0 0 0
A 88 2 0 0 0 83 661 0 0 0 88 0 0 0 0 0 0 0 0 0
A 102 2 0 0 0 6 676 0 0 0 102 0 0 0 0 0 0 0 0 0
A 105 2 0 0 0 60 678 0 0 0 105 0 0 0 0 0 0 0 0 0
A 107 2 0 0 0 6 681 0 0 0 107 0 0 0 0 0 0 0 0 0
A 109 2 0 0 0 89 683 0 0 0 109 0 0 0 0 0 0 0 0 0
Z
Z
