V26 io_global
13 io_global.F90 S582 0
04/24/2012  15:51:01
enduse
S 582 24 0 0 0 6 1 0 4658 10015 0 A 0 0 0 0 0 0 0 0 0 0 0 0 0 0 0 0 0 0 0 0 0 11 0 0 0 0 0 0 io_global
S 583 27 0 0 0 6 596 582 4668 0 0 A 0 0 0 0 0 0 0 0 0 0 0 0 0 0 0 0 0 0 0 0 0 0 0 582 0 0 0 0 io_global_start
S 584 27 0 0 0 6 600 582 4684 0 0 A 0 0 0 0 0 0 0 0 0 0 0 0 0 0 0 0 0 0 0 0 0 0 0 582 0 0 0 0 io_global_getionode
S 585 27 0 0 0 6 604 582 4704 0 0 A 0 0 0 0 0 0 0 0 0 0 0 0 0 0 0 0 0 0 0 0 0 0 0 582 0 0 0 0 io_global_getmeta
S 586 6 4 0 0 6 587 582 4722 80000c 0 A 0 0 0 0 0 0 0 0 0 0 0 0 594 0 0 0 0 0 0 0 0 0 0 582 0 0 0 0 stdout
S 587 6 4 0 0 16 588 582 4729 80000c 0 A 0 0 0 0 0 4 0 0 0 0 0 0 594 0 0 0 0 0 0 0 0 0 0 582 0 0 0 0 ionode
S 588 6 4 0 0 6 589 582 4736 80000c 0 A 0 0 0 0 0 8 0 0 0 0 0 0 594 0 0 0 0 0 0 0 0 0 0 582 0 0 0 0 ionode_id
S 589 6 4 0 0 16 590 582 4746 80000c 0 A 0 0 0 0 0 12 0 0 0 0 0 0 594 0 0 0 0 0 0 0 0 0 0 582 0 0 0 0 meta_ionode
S 590 6 4 0 0 6 1 582 4758 80000c 0 A 0 0 0 0 0 16 0 0 0 0 0 0 594 0 0 0 0 0 0 0 0 0 0 582 0 0 0 0 meta_ionode_id
S 593 6 4 0 0 16 1 582 4773 80001c 0 A 0 0 0 0 0 0 0 0 0 0 0 0 595 0 0 0 0 0 0 0 0 0 0 582 0 0 0 0 first
S 594 11 0 0 0 9 1 582 4779 40800000 801000 A 0 0 0 0 0 20 0 0 586 590 0 0 0 0 0 0 0 0 0 0 0 0 0 0 0 0 0 0 _io_global$8
S 595 11 0 0 0 9 594 582 4792 40800010 801000 A 0 0 0 0 0 4 0 0 593 593 0 0 0 0 0 0 0 0 0 0 0 0 0 0 0 0 0 0 _io_global$12
S 596 23 5 0 0 0 599 582 4668 0 0 A 0 0 0 0 0 0 0 0 0 0 0 0 0 0 0 0 0 0 0 0 0 0 0 0 0 0 0 0 io_global_start
S 597 1 3 1 0 6 1 596 4806 14 3000 A 0 0 0 0 0 0 0 0 0 0 0 0 0 0 0 0 0 0 0 0 0 0 0 0 0 0 0 0 mpime
S 598 1 3 1 0 6 1 596 4812 14 3000 A 0 0 0 0 0 0 0 0 0 0 0 0 0 0 0 0 0 0 0 0 0 0 0 0 0 0 0 0 ionode_set
S 599 14 5 0 0 0 1 596 4668 0 400000 A 0 0 0 0 0 0 0 2 2 0 0 0 0 0 0 0 0 0 0 0 0 32 0 582 0 0 0 0 io_global_start
F 599 2 597 598
S 600 23 5 0 0 0 603 582 4684 0 0 A 0 0 0 0 0 0 0 0 0 0 0 0 0 0 0 0 0 0 0 0 0 0 0 0 0 0 0 0 io_global_getionode
S 601 1 3 2 0 16 1 600 4823 14 3000 A 0 0 0 0 0 0 0 0 0 0 0 0 0 0 0 0 0 0 0 0 0 0 0 0 0 0 0 0 ionode_out
S 602 1 3 2 0 6 1 600 4834 14 3000 A 0 0 0 0 0 0 0 0 0 0 0 0 0 0 0 0 0 0 0 0 0 0 0 0 0 0 0 0 ionode_id_out
S 603 14 5 0 0 0 1 600 4684 0 400000 A 0 0 0 0 0 0 0 5 2 0 0 0 0 0 0 0 0 0 0 0 0 63 0 582 0 0 0 0 io_global_getionode
F 603 2 601 602
S 604 23 5 0 0 0 607 582 4704 0 0 A 0 0 0 0 0 0 0 0 0 0 0 0 0 0 0 0 0 0 0 0 0 0 0 0 0 0 0 0 io_global_getmeta
S 605 1 3 2 0 16 1 604 4823 14 3000 A 0 0 0 0 0 0 0 0 0 0 0 0 0 0 0 0 0 0 0 0 0 0 0 0 0 0 0 0 ionode_out
S 606 1 3 2 0 6 1 604 4834 14 3000 A 0 0 0 0 0 0 0 0 0 0 0 0 0 0 0 0 0 0 0 0 0 0 0 0 0 0 0 0 ionode_id_out
S 607 14 5 0 0 0 1 604 4704 0 400000 A 0 0 0 0 0 0 0 8 2 0 0 0 0 0 0 0 0 0 0 0 0 84 0 582 0 0 0 0 io_global_getmeta
F 607 2 605 606
Z
Z
