V26 ions_nose
13 ions_nose.F90 S582 0
04/24/2012  15:51:33
use parameters private
use kinds private
use parameters private
use kinds private
enduse
D 56 21 6 1 51 50 0 1 0 0 1
 43 47 49 43 47 45
D 59 21 6 1 0 40 0 0 0 0 0
 0 40 0 3 40 0
D 62 21 6 1 60 59 0 1 0 0 1
 54 57 58 54 57 55
D 65 21 6 1 0 40 0 0 0 0 0
 0 40 0 3 40 0
D 68 21 9 1 69 68 0 1 0 0 1
 63 66 67 63 66 64
D 71 21 6 1 0 40 0 0 0 0 0
 0 40 0 3 40 0
D 74 21 9 1 78 77 0 1 0 0 1
 72 75 76 72 75 73
D 77 21 6 1 0 40 0 0 0 0 0
 0 40 0 3 40 0
D 80 21 9 1 87 86 0 1 0 0 1
 81 84 85 81 84 82
D 83 21 6 1 0 40 0 0 0 0 0
 0 40 0 3 40 0
D 86 21 9 1 96 95 0 1 0 0 1
 90 93 94 90 93 91
D 89 21 6 1 0 40 0 0 0 0 0
 0 40 0 3 40 0
D 92 21 9 1 105 104 0 1 0 0 1
 99 102 103 99 102 100
D 95 21 6 1 0 40 0 0 0 0 0
 0 40 0 3 40 0
D 98 21 9 1 114 113 0 1 0 0 1
 108 111 112 108 111 109
D 101 21 6 1 0 40 0 0 0 0 0
 0 40 0 3 40 0
D 104 21 9 1 123 122 0 1 0 0 1
 117 120 121 117 120 118
D 107 21 6 1 0 40 0 0 0 0 0
 0 40 0 3 40 0
D 110 21 9 1 132 131 0 1 0 0 1
 126 129 130 126 129 127
D 113 21 6 1 0 40 0 0 0 0 0
 0 40 0 3 40 0
D 116 21 9 1 141 140 0 1 0 0 1
 135 138 139 135 138 136
D 119 21 6 1 0 40 0 0 0 0 0
 0 40 0 3 40 0
D 122 21 9 1 3 15 0 0 0 0 0
 0 15 3 3 15 15
D 125 21 9 1 147 150 1 1 0 0 1
 3 148 3 3 148 149
D 128 21 9 1 151 154 1 1 0 0 1
 3 152 3 3 152 153
D 131 21 6 1 155 158 1 1 0 0 1
 3 156 3 3 156 157
D 134 21 6 1 159 162 1 1 0 0 1
 3 160 3 3 160 161
D 137 21 6 1 163 166 1 1 0 0 1
 3 164 3 3 164 165
D 140 21 9 2 167 172 0 0 1 0 0
 0 168 3 3 169 169
 0 170 169 3 171 171
D 143 21 9 2 167 172 0 0 1 0 0
 0 168 3 3 169 169
 0 170 169 3 171 171
D 146 21 9 2 167 172 0 0 1 0 0
 0 168 3 3 169 169
 0 170 169 3 171 171
D 149 21 9 2 173 178 0 0 1 0 0
 0 174 3 3 175 175
 0 176 175 3 177 177
D 152 21 9 2 173 178 0 0 1 0 0
 0 174 3 3 175 175
 0 176 175 3 177 177
D 155 21 9 2 173 178 0 0 1 0 0
 0 174 3 3 175 175
 0 176 175 3 177 177
D 158 21 9 2 173 178 0 0 1 0 0
 0 174 3 3 175 175
 0 176 175 3 177 177
D 161 21 9 1 179 182 1 1 0 0 1
 3 180 3 3 180 181
D 164 21 9 1 183 186 1 1 0 0 1
 3 184 3 3 184 185
D 167 21 9 2 173 178 0 0 1 0 0
 0 174 3 3 175 175
 0 176 175 3 177 177
D 170 21 9 1 187 190 1 1 0 0 1
 3 188 3 3 188 189
D 173 21 9 2 191 196 0 0 1 0 0
 0 192 3 3 193 193
 0 194 193 3 195 195
D 176 21 9 2 191 196 0 0 1 0 0
 0 192 3 3 193 193
 0 194 193 3 195 195
D 179 21 9 2 191 196 0 0 1 0 0
 0 192 3 3 193 193
 0 194 193 3 195 195
D 182 21 9 1 197 200 1 1 0 0 1
 3 198 3 3 198 199
D 185 21 9 1 201 204 1 1 0 0 1
 3 202 3 3 202 203
D 188 21 9 1 205 208 1 1 0 0 1
 3 206 3 3 206 207
S 582 24 0 0 0 6 1 0 4658 10005 0 A 0 0 0 0 0 0 0 0 0 0 0 0 0 0 0 0 0 0 0 0 0 11 0 0 0 0 0 0 ions_nose
S 584 23 0 0 0 9 589 582 4674 4 0 A 0 0 0 0 0 0 0 0 0 0 0 0 0 0 0 0 0 0 0 0 0 0 0 582 0 0 0 0 dp
S 586 23 0 0 0 6 611 582 4688 4 0 A 0 0 0 0 0 0 0 0 0 0 0 0 0 0 0 0 0 0 0 0 0 0 0 582 0 0 0 0 nhclm
S 587 3 0 0 0 6 1 1 0 0 0 A 0 0 0 0 0 0 0 0 0 8 0 0 0 0 0 0 0 0 0 0 0 0 0 0 0 0 0 0 6
S 588 3 0 0 0 6 1 1 0 0 0 A 0 0 0 0 0 0 0 0 0 4 0 0 0 0 0 0 0 0 0 0 0 0 0 0 0 0 0 0 6
R 589 16 1 kinds dp
S 600 3 0 0 0 6 1 1 0 0 0 A 0 0 0 0 0 0 0 0 0 7 0 0 0 0 0 0 0 0 0 0 0 0 0 0 0 0 0 0 6
R 611 16 10 parameters nhclm
S 613 6 4 0 0 6 615 582 4785 80000c 0 A 0 0 0 0 0 0 0 0 0 0 0 0 693 0 0 0 0 0 0 0 0 0 0 582 0 0 0 0 nhpcl
S 614 6 4 0 0 6 620 582 4791 4 0 A 0 0 0 0 0 0 0 0 0 0 0 0 694 0 0 0 0 0 0 0 0 0 0 582 0 0 0 0 ndega
S 615 6 4 0 0 6 616 582 4797 80000c 0 A 0 0 0 0 0 4 0 0 0 0 0 0 693 0 0 0 0 0 0 0 0 0 0 582 0 0 0 0 nhpdim
S 616 6 4 0 0 6 617 582 4804 80000c 0 A 0 0 0 0 0 8 0 0 0 0 0 0 693 0 0 0 0 0 0 0 0 0 0 582 0 0 0 0 nhptyp
S 617 6 4 0 0 6 618 582 4811 80000c 0 A 0 0 0 0 0 12 0 0 0 0 0 0 693 0 0 0 0 0 0 0 0 0 0 582 0 0 0 0 nhpbeg
S 618 6 4 0 0 6 1 582 4818 80000c 0 A 0 0 0 0 0 16 0 0 0 0 0 0 693 0 0 0 0 0 0 0 0 0 0 582 0 0 0 0 nhpend
S 619 7 6 0 0 56 1 582 4825 10a00004 51 A 0 0 0 0 0 0 623 0 0 0 625 0 0 0 0 0 0 0 0 622 0 0 624 582 0 0 0 0 atm2nhp
S 620 6 4 0 0 6 630 582 4833 40800006 0 A 0 0 0 0 0 4 0 0 0 0 0 0 694 0 0 0 0 0 0 0 0 0 0 582 0 0 0 0 z_b_0
S 621 3 0 0 0 6 0 1 0 0 0 A 0 0 0 0 0 0 0 0 0 18 0 0 0 0 0 0 0 0 0 0 0 0 0 0 0 0 0 0 6
S 622 8 4 0 0 59 632 582 4839 40822004 1020 A 0 0 0 0 0 0 0 0 0 0 0 0 694 0 0 0 0 0 0 0 0 0 0 582 0 0 0 0 atm2nhp$sd
S 623 6 4 0 0 7 624 582 4850 40802001 1020 A 0 0 0 0 0 0 0 0 0 0 0 0 694 0 0 0 0 0 0 0 0 0 0 582 0 0 0 0 atm2nhp$p
S 624 6 4 0 0 7 622 582 4860 40802000 1020 A 0 0 0 0 0 0 0 0 0 0 0 0 694 0 0 0 0 0 0 0 0 0 0 582 0 0 0 0 atm2nhp$o
S 625 22 1 0 0 9 1 582 4870 40000000 1000 A 0 0 0 0 0 0 0 619 0 0 0 0 622 0 0 0 0 0 0 0 0 0 0 582 0 0 0 0 atm2nhp$arrdsc
S 626 3 0 0 0 6 0 1 0 0 0 A 0 0 0 0 0 0 0 0 0 13 0 0 0 0 0 0 0 0 0 0 0 0 0 0 0 0 0 0 6
S 627 3 0 0 0 6 0 1 0 0 0 A 0 0 0 0 0 0 0 0 0 14 0 0 0 0 0 0 0 0 0 0 0 0 0 0 0 0 0 0 6
S 628 3 0 0 0 6 0 1 0 0 0 A 0 0 0 0 0 0 0 0 0 17 0 0 0 0 0 0 0 0 0 0 0 0 0 0 0 0 0 0 6
S 629 7 6 0 0 62 1 582 4885 10a00004 51 A 0 0 0 0 0 0 632 0 0 0 634 0 0 0 0 0 0 0 0 631 0 0 633 582 0 0 0 0 anum2nhp
S 630 6 4 0 0 6 636 582 4894 40800006 0 A 0 0 0 0 0 8 0 0 0 0 0 0 694 0 0 0 0 0 0 0 0 0 0 582 0 0 0 0 z_b_1
S 631 8 4 0 0 65 638 582 4900 40822004 1020 A 0 0 0 0 0 0 0 0 0 0 0 0 694 0 0 0 0 0 0 0 0 0 0 582 0 0 0 0 anum2nhp$sd
S 632 6 4 0 0 7 633 582 4912 40802001 1020 A 0 0 0 0 0 0 0 0 0 0 0 0 694 0 0 0 0 0 0 0 0 0 0 582 0 0 0 0 anum2nhp$p
S 633 6 4 0 0 7 631 582 4923 40802000 1020 A 0 0 0 0 0 0 0 0 0 0 0 0 694 0 0 0 0 0 0 0 0 0 0 582 0 0 0 0 anum2nhp$o
S 634 22 1 0 0 9 1 582 4934 40000000 1000 A 0 0 0 0 0 0 0 629 0 0 0 0 631 0 0 0 0 0 0 0 0 0 0 582 0 0 0 0 anum2nhp$arrdsc
S 635 7 6 0 0 68 1 582 4950 10a00004 51 A 0 0 0 0 0 0 638 0 0 0 640 0 0 0 0 0 0 0 0 637 0 0 639 582 0 0 0 0 vnhp
S 636 6 4 0 0 6 642 582 4955 40800006 0 A 0 0 0 0 0 12 0 0 0 0 0 0 694 0 0 0 0 0 0 0 0 0 0 582 0 0 0 0 z_b_2
S 637 8 4 0 0 71 644 582 4961 40822004 1020 A 0 0 0 0 0 0 0 0 0 0 0 0 694 0 0 0 0 0 0 0 0 0 0 582 0 0 0 0 vnhp$sd
S 638 6 4 0 0 7 639 582 4969 40802001 1020 A 0 0 0 0 0 0 0 0 0 0 0 0 694 0 0 0 0 0 0 0 0 0 0 582 0 0 0 0 vnhp$p
S 639 6 4 0 0 7 637 582 4976 40802000 1020 A 0 0 0 0 0 0 0 0 0 0 0 0 694 0 0 0 0 0 0 0 0 0 0 582 0 0 0 0 vnhp$o
S 640 22 1 0 0 9 1 582 4983 40000000 1000 A 0 0 0 0 0 0 0 635 0 0 0 0 637 0 0 0 0 0 0 0 0 0 0 582 0 0 0 0 vnhp$arrdsc
S 641 7 6 0 0 74 1 582 4995 10a00004 51 A 0 0 0 0 0 0 644 0 0 0 646 0 0 0 0 0 0 0 0 643 0 0 645 582 0 0 0 0 xnhp0
S 642 6 4 0 0 6 648 582 5001 40800006 0 A 0 0 0 0 0 16 0 0 0 0 0 0 694 0 0 0 0 0 0 0 0 0 0 582 0 0 0 0 z_b_3
S 643 8 4 0 0 77 650 582 5007 40822004 1020 A 0 0 0 0 0 0 0 0 0 0 0 0 694 0 0 0 0 0 0 0 0 0 0 582 0 0 0 0 xnhp0$sd
S 644 6 4 0 0 7 645 582 5016 40802001 1020 A 0 0 0 0 0 0 0 0 0 0 0 0 694 0 0 0 0 0 0 0 0 0 0 582 0 0 0 0 xnhp0$p
S 645 6 4 0 0 7 643 582 5024 40802000 1020 A 0 0 0 0 0 0 0 0 0 0 0 0 694 0 0 0 0 0 0 0 0 0 0 582 0 0 0 0 xnhp0$o
S 646 22 1 0 0 9 1 582 5032 40000000 1000 A 0 0 0 0 0 0 0 641 0 0 0 0 643 0 0 0 0 0 0 0 0 0 0 582 0 0 0 0 xnhp0$arrdsc
S 647 7 6 0 0 80 1 582 5045 10a00004 51 A 0 0 0 0 0 0 650 0 0 0 652 0 0 0 0 0 0 0 0 649 0 0 651 582 0 0 0 0 xnhpm
S 648 6 4 0 0 6 654 582 5051 40800006 0 A 0 0 0 0 0 20 0 0 0 0 0 0 694 0 0 0 0 0 0 0 0 0 0 582 0 0 0 0 z_b_4
S 649 8 4 0 0 83 656 582 5057 40822004 1020 A 0 0 0 0 0 0 0 0 0 0 0 0 694 0 0 0 0 0 0 0 0 0 0 582 0 0 0 0 xnhpm$sd
S 650 6 4 0 0 7 651 582 5066 40802001 1020 A 0 0 0 0 0 0 0 0 0 0 0 0 694 0 0 0 0 0 0 0 0 0 0 582 0 0 0 0 xnhpm$p
S 651 6 4 0 0 7 649 582 5074 40802000 1020 A 0 0 0 0 0 0 0 0 0 0 0 0 694 0 0 0 0 0 0 0 0 0 0 582 0 0 0 0 xnhpm$o
S 652 22 1 0 0 9 1 582 5082 40000000 1000 A 0 0 0 0 0 0 0 647 0 0 0 0 649 0 0 0 0 0 0 0 0 0 0 582 0 0 0 0 xnhpm$arrdsc
S 653 7 6 0 0 86 1 582 5095 10a00004 51 A 0 0 0 0 0 0 656 0 0 0 658 0 0 0 0 0 0 0 0 655 0 0 657 582 0 0 0 0 xnhpp
S 654 6 4 0 0 6 660 582 5101 40800006 0 A 0 0 0 0 0 24 0 0 0 0 0 0 694 0 0 0 0 0 0 0 0 0 0 582 0 0 0 0 z_b_5
S 655 8 4 0 0 89 662 582 5107 40822004 1020 A 0 0 0 0 0 0 0 0 0 0 0 0 694 0 0 0 0 0 0 0 0 0 0 582 0 0 0 0 xnhpp$sd
S 656 6 4 0 0 7 657 582 5116 40802001 1020 A 0 0 0 0 0 0 0 0 0 0 0 0 694 0 0 0 0 0 0 0 0 0 0 582 0 0 0 0 xnhpp$p
S 657 6 4 0 0 7 655 582 5124 40802000 1020 A 0 0 0 0 0 0 0 0 0 0 0 0 694 0 0 0 0 0 0 0 0 0 0 582 0 0 0 0 xnhpp$o
S 658 22 1 0 0 9 1 582 5132 40000000 1000 A 0 0 0 0 0 0 0 653 0 0 0 0 655 0 0 0 0 0 0 0 0 0 0 582 0 0 0 0 xnhpp$arrdsc
S 659 7 6 0 0 92 1 582 5145 10a00004 51 A 0 0 0 0 0 0 662 0 0 0 664 0 0 0 0 0 0 0 0 661 0 0 663 582 0 0 0 0 ekin2nhp
S 660 6 4 0 0 6 666 582 5154 40800006 0 A 0 0 0 0 0 28 0 0 0 0 0 0 694 0 0 0 0 0 0 0 0 0 0 582 0 0 0 0 z_b_6
S 661 8 4 0 0 95 668 582 5160 40822004 1020 A 0 0 0 0 0 0 0 0 0 0 0 0 694 0 0 0 0 0 0 0 0 0 0 582 0 0 0 0 ekin2nhp$sd
S 662 6 4 0 0 7 663 582 5172 40802001 1020 A 0 0 0 0 0 0 0 0 0 0 0 0 694 0 0 0 0 0 0 0 0 0 0 582 0 0 0 0 ekin2nhp$p
S 663 6 4 0 0 7 661 582 5183 40802000 1020 A 0 0 0 0 0 0 0 0 0 0 0 0 694 0 0 0 0 0 0 0 0 0 0 582 0 0 0 0 ekin2nhp$o
S 664 22 1 0 0 9 1 582 5194 40000000 1000 A 0 0 0 0 0 0 0 659 0 0 0 0 661 0 0 0 0 0 0 0 0 0 0 582 0 0 0 0 ekin2nhp$arrdsc
S 665 7 6 0 0 98 1 582 5210 10a00004 51 A 0 0 0 0 0 0 668 0 0 0 670 0 0 0 0 0 0 0 0 667 0 0 669 582 0 0 0 0 gkbt2nhp
S 666 6 4 0 0 6 672 582 5219 40800006 0 A 0 0 0 0 0 32 0 0 0 0 0 0 694 0 0 0 0 0 0 0 0 0 0 582 0 0 0 0 z_b_7
S 667 8 4 0 0 101 674 582 5225 40822004 1020 A 0 0 0 0 0 0 0 0 0 0 0 0 694 0 0 0 0 0 0 0 0 0 0 582 0 0 0 0 gkbt2nhp$sd
S 668 6 4 0 0 7 669 582 5237 40802001 1020 A 0 0 0 0 0 0 0 0 0 0 0 0 694 0 0 0 0 0 0 0 0 0 0 582 0 0 0 0 gkbt2nhp$p
S 669 6 4 0 0 7 667 582 5248 40802000 1020 A 0 0 0 0 0 0 0 0 0 0 0 0 694 0 0 0 0 0 0 0 0 0 0 582 0 0 0 0 gkbt2nhp$o
S 670 22 1 0 0 9 1 582 5259 40000000 1000 A 0 0 0 0 0 0 0 665 0 0 0 0 667 0 0 0 0 0 0 0 0 0 0 582 0 0 0 0 gkbt2nhp$arrdsc
S 671 7 6 0 0 104 1 582 5275 10a00004 51 A 0 0 0 0 0 0 674 0 0 0 676 0 0 0 0 0 0 0 0 673 0 0 675 582 0 0 0 0 scal2nhp
S 672 6 4 0 0 6 678 582 5284 40800006 0 A 0 0 0 0 0 36 0 0 0 0 0 0 694 0 0 0 0 0 0 0 0 0 0 582 0 0 0 0 z_b_8
S 673 8 4 0 0 107 680 582 5290 40822004 1020 A 0 0 0 0 0 0 0 0 0 0 0 0 694 0 0 0 0 0 0 0 0 0 0 582 0 0 0 0 scal2nhp$sd
S 674 6 4 0 0 7 675 582 5302 40802001 1020 A 0 0 0 0 0 0 0 0 0 0 0 0 694 0 0 0 0 0 0 0 0 0 0 582 0 0 0 0 scal2nhp$p
S 675 6 4 0 0 7 673 582 5313 40802000 1020 A 0 0 0 0 0 0 0 0 0 0 0 0 694 0 0 0 0 0 0 0 0 0 0 582 0 0 0 0 scal2nhp$o
S 676 22 1 0 0 9 1 582 5324 40000000 1000 A 0 0 0 0 0 0 0 671 0 0 0 0 673 0 0 0 0 0 0 0 0 0 0 582 0 0 0 0 scal2nhp$arrdsc
S 677 7 6 0 0 110 1 582 5340 10a00004 51 A 0 0 0 0 0 0 680 0 0 0 682 0 0 0 0 0 0 0 0 679 0 0 681 582 0 0 0 0 qnp
S 678 6 4 0 0 6 684 582 5344 40800006 0 A 0 0 0 0 0 40 0 0 0 0 0 0 694 0 0 0 0 0 0 0 0 0 0 582 0 0 0 0 z_b_9
S 679 8 4 0 0 113 686 582 5350 40822004 1020 A 0 0 0 0 0 0 0 0 0 0 0 0 694 0 0 0 0 0 0 0 0 0 0 582 0 0 0 0 qnp$sd
S 680 6 4 0 0 7 681 582 5357 40802001 1020 A 0 0 0 0 0 0 0 0 0 0 0 0 694 0 0 0 0 0 0 0 0 0 0 582 0 0 0 0 qnp$p
S 681 6 4 0 0 7 679 582 5363 40802000 1020 A 0 0 0 0 0 0 0 0 0 0 0 0 694 0 0 0 0 0 0 0 0 0 0 582 0 0 0 0 qnp$o
S 682 22 1 0 0 9 1 582 5369 40000000 1000 A 0 0 0 0 0 0 0 677 0 0 0 0 679 0 0 0 0 0 0 0 0 0 0 582 0 0 0 0 qnp$arrdsc
S 683 7 6 0 0 116 1 582 5380 10a00004 51 A 0 0 0 0 0 0 686 0 0 0 688 0 0 0 0 0 0 0 0 685 0 0 687 582 0 0 0 0 qnp_
S 684 6 4 0 0 6 1 582 5385 40800006 0 A 0 0 0 0 0 44 0 0 0 0 0 0 694 0 0 0 0 0 0 0 0 0 0 582 0 0 0 0 z_b_10
S 685 8 4 0 0 119 614 582 5392 40822004 1020 A 0 0 0 0 0 0 0 0 0 0 0 0 694 0 0 0 0 0 0 0 0 0 0 582 0 0 0 0 qnp_$sd
S 686 6 4 0 0 7 687 582 5400 40802001 1020 A 0 0 0 0 0 0 0 0 0 0 0 0 694 0 0 0 0 0 0 0 0 0 0 582 0 0 0 0 qnp_$p
S 687 6 4 0 0 7 685 582 5407 40802000 1020 A 0 0 0 0 0 0 0 0 0 0 0 0 694 0 0 0 0 0 0 0 0 0 0 582 0 0 0 0 qnp_$o
S 688 22 1 0 0 9 1 582 5414 40000000 1000 A 0 0 0 0 0 0 0 683 0 0 0 0 685 0 0 0 0 0 0 0 0 0 0 582 0 0 0 0 qnp_$arrdsc
S 689 6 4 0 0 9 690 582 5426 80000c 0 A 0 0 0 0 0 0 0 0 0 0 0 0 695 0 0 0 0 0 0 0 0 0 0 582 0 0 0 0 gkbt
S 690 6 4 0 0 9 691 582 5438 80000c 0 A 0 0 0 0 0 8 0 0 0 0 0 0 695 0 0 0 0 0 0 0 0 0 0 582 0 0 0 0 kbt
S 691 6 4 0 0 9 692 582 5449 80000c 0 A 0 0 0 0 0 16 0 0 0 0 0 0 695 0 0 0 0 0 0 0 0 0 0 582 0 0 0 0 tempw
S 692 7 4 0 4 122 1 582 5462 80000c 100 A 0 0 0 0 0 32 0 0 0 0 0 0 695 0 0 0 0 0 0 0 0 0 0 582 0 0 0 0 fnosep
S 693 11 0 0 0 9 1 582 5476 40800000 801000 A 0 0 0 0 0 20 0 0 613 618 0 0 0 0 0 0 0 0 0 0 0 0 0 0 0 0 0 0 _ions_nose$8
S 694 11 0 0 0 9 693 582 5489 40800000 801000 A 0 0 0 0 0 1016 0 0 623 684 0 0 0 0 0 0 0 0 0 0 0 0 0 0 0 0 0 0 _ions_nose$0
S 695 11 0 0 4 9 694 582 5502 40800000 801000 A 0 0 0 0 0 64 0 0 689 692 0 0 0 0 0 0 0 0 0 0 0 0 0 0 0 0 0 0 _ions_nose$10
S 696 23 5 0 0 0 704 582 5516 0 0 A 0 0 0 0 0 0 0 0 0 0 0 0 0 0 0 0 0 0 0 0 0 0 0 0 0 0 0 0 ions_nose_init
S 697 1 3 1 0 9 1 696 5531 4 3000 A 0 0 0 0 0 0 0 0 0 0 0 0 0 0 0 0 0 0 0 0 0 0 0 0 0 0 0 0 tempw_
S 698 7 3 1 0 125 1 696 5538 20000004 10003000 A 0 0 0 0 0 0 0 0 0 0 0 0 0 0 0 0 0 0 0 0 0 0 0 0 0 0 0 0 fnosep_
S 699 1 3 1 0 6 1 696 5546 4 3000 A 0 0 0 0 0 0 0 0 0 0 0 0 0 0 0 0 0 0 0 0 0 0 0 0 0 0 0 0 nhpcl_
S 700 1 3 1 0 6 1 696 5553 4 3000 A 0 0 0 0 0 0 0 0 0 0 0 0 0 0 0 0 0 0 0 0 0 0 0 0 0 0 0 0 nhptyp_
S 701 1 3 1 0 6 1 696 5561 4 3000 A 0 0 0 0 0 0 0 0 0 0 0 0 0 0 0 0 0 0 0 0 0 0 0 0 0 0 0 0 ndega_
S 702 7 3 1 0 131 1 696 5568 20000004 10003000 A 0 0 0 0 0 0 0 0 0 0 0 0 0 0 0 0 0 0 0 0 0 0 0 0 0 0 0 0 nhgrp_
S 703 7 3 1 0 128 1 696 5575 20000004 10003000 A 0 0 0 0 0 0 0 0 0 0 0 0 0 0 0 0 0 0 0 0 0 0 0 0 0 0 0 0 fnhscl_
S 704 14 5 0 0 0 1 696 5516 20000000 400000 A 0 0 0 0 0 0 0 4 7 0 0 0 0 0 0 0 0 0 0 0 0 59 0 582 0 0 0 0 ions_nose_init
F 704 7 697 698 699 700 701 702 703
S 705 6 1 0 0 6 1 696 5583 40800006 3000 A 0 0 0 0 0 0 0 0 0 0 0 0 0 0 0 0 0 0 0 0 0 0 0 0 0 0 0 0 z_b_0_1
S 706 6 1 0 0 6 1 696 5591 40800006 3000 A 0 0 0 0 0 0 0 0 0 0 0 0 0 0 0 0 0 0 0 0 0 0 0 0 0 0 0 0 z_b_2_1
S 707 6 1 0 0 6 1 696 5599 40800006 3000 A 0 0 0 0 0 0 0 0 0 0 0 0 0 0 0 0 0 0 0 0 0 0 0 0 0 0 0 0 z_b_3_1
S 708 6 1 0 0 6 1 696 5607 40800006 3000 A 0 0 0 0 0 0 0 0 0 0 0 0 0 0 0 0 0 0 0 0 0 0 0 0 0 0 0 0 z_e_759
S 709 6 1 0 0 6 1 696 5615 40800006 3000 A 0 0 0 0 0 0 0 0 0 0 0 0 0 0 0 0 0 0 0 0 0 0 0 0 0 0 0 0 z_b_4_1
S 710 6 1 0 0 6 1 696 5623 40800006 3000 A 0 0 0 0 0 0 0 0 0 0 0 0 0 0 0 0 0 0 0 0 0 0 0 0 0 0 0 0 z_b_6_1
S 711 6 1 0 0 6 1 696 5631 40800006 3000 A 0 0 0 0 0 0 0 0 0 0 0 0 0 0 0 0 0 0 0 0 0 0 0 0 0 0 0 0 z_b_7_1
S 712 6 1 0 0 6 1 696 5639 40800006 3000 A 0 0 0 0 0 0 0 0 0 0 0 0 0 0 0 0 0 0 0 0 0 0 0 0 0 0 0 0 z_e_766
S 713 6 1 0 0 6 1 696 5647 40800006 3000 A 0 0 0 0 0 0 0 0 0 0 0 0 0 0 0 0 0 0 0 0 0 0 0 0 0 0 0 0 z_b_8_1
S 714 6 1 0 0 6 1 696 5655 40800006 3000 A 0 0 0 0 0 0 0 0 0 0 0 0 0 0 0 0 0 0 0 0 0 0 0 0 0 0 0 0 z_b_10_1
S 715 6 1 0 0 6 1 696 5664 40800006 3000 A 0 0 0 0 0 0 0 0 0 0 0 0 0 0 0 0 0 0 0 0 0 0 0 0 0 0 0 0 z_b_11_1
S 716 6 1 0 0 6 1 696 5673 40800006 3000 A 0 0 0 0 0 0 0 0 0 0 0 0 0 0 0 0 0 0 0 0 0 0 0 0 0 0 0 0 z_e_773
S 717 23 5 0 0 0 722 582 5681 0 0 A 0 0 0 0 0 0 0 0 0 0 0 0 0 0 0 0 0 0 0 0 0 0 0 0 0 0 0 0 set_atmnhp
S 718 7 3 1 0 134 1 717 5692 20000004 10003000 A 0 0 0 0 0 0 0 0 0 0 0 0 0 0 0 0 0 0 0 0 0 0 0 0 0 0 0 0 nhgrp
S 719 7 3 2 0 137 1 717 4825 20000004 10003000 A 0 0 0 0 0 0 0 0 0 0 0 0 0 0 0 0 0 0 0 0 0 0 0 0 0 0 0 0 atm2nhp
S 720 1 3 2 0 6 1 717 4797 4 3000 A 0 0 0 0 0 0 0 0 0 0 0 0 0 0 0 0 0 0 0 0 0 0 0 0 0 0 0 0 nhpdim
S 721 1 3 2 0 6 1 717 4811 4 3000 A 0 0 0 0 0 0 0 0 0 0 0 0 0 0 0 0 0 0 0 0 0 0 0 0 0 0 0 0 nhpbeg
S 722 14 5 0 0 0 1 717 5681 20000000 400000 A 0 0 0 0 0 0 0 12 4 0 0 0 0 0 0 0 0 0 0 0 0 205 0 582 0 0 0 0 set_atmnhp
F 722 4 718 719 720 721
S 723 6 1 0 0 6 1 717 5583 40800006 3000 A 0 0 0 0 0 0 0 0 0 0 0 0 0 0 0 0 0 0 0 0 0 0 0 0 0 0 0 0 z_b_0_1
S 724 6 1 0 0 6 1 717 5591 40800006 3000 A 0 0 0 0 0 0 0 0 0 0 0 0 0 0 0 0 0 0 0 0 0 0 0 0 0 0 0 0 z_b_2_1
S 725 6 1 0 0 6 1 717 5599 40800006 3000 A 0 0 0 0 0 0 0 0 0 0 0 0 0 0 0 0 0 0 0 0 0 0 0 0 0 0 0 0 z_b_3_1
S 726 6 1 0 0 6 1 717 5698 40800006 3000 A 0 0 0 0 0 0 0 0 0 0 0 0 0 0 0 0 0 0 0 0 0 0 0 0 0 0 0 0 z_e_678
S 727 6 1 0 0 6 1 717 5615 40800006 3000 A 0 0 0 0 0 0 0 0 0 0 0 0 0 0 0 0 0 0 0 0 0 0 0 0 0 0 0 0 z_b_4_1
S 728 6 1 0 0 6 1 717 5623 40800006 3000 A 0 0 0 0 0 0 0 0 0 0 0 0 0 0 0 0 0 0 0 0 0 0 0 0 0 0 0 0 z_b_6_1
S 729 6 1 0 0 6 1 717 5631 40800006 3000 A 0 0 0 0 0 0 0 0 0 0 0 0 0 0 0 0 0 0 0 0 0 0 0 0 0 0 0 0 z_b_7_1
S 730 6 1 0 0 6 1 717 5706 40800006 3000 A 0 0 0 0 0 0 0 0 0 0 0 0 0 0 0 0 0 0 0 0 0 0 0 0 0 0 0 0 z_e_685
S 731 23 5 0 0 0 732 582 5714 0 0 A 0 0 0 0 0 0 0 0 0 0 0 0 0 0 0 0 0 0 0 0 0 0 0 0 0 0 0 0 ions_nose_allocate
S 732 14 5 0 0 0 1 731 5714 0 400000 A 0 0 0 0 0 0 0 17 0 0 0 0 0 0 0 0 0 0 0 0 0 256 0 582 0 0 0 0 ions_nose_allocate
F 732 0
S 733 23 5 0 0 0 734 582 5733 0 0 A 0 0 0 0 0 0 0 0 0 0 0 0 0 0 0 0 0 0 0 0 0 0 0 0 0 0 0 0 ions_nose_deallocate
S 734 14 5 0 0 0 1 733 5733 0 400000 A 0 0 0 0 0 0 0 18 0 0 0 0 0 0 0 0 0 0 0 0 0 282 0 582 0 0 0 0 ions_nose_deallocate
F 734 0
S 735 23 5 0 0 0 736 582 5754 0 0 A 0 0 0 0 0 0 0 0 0 0 0 0 0 0 0 0 0 0 0 0 0 0 0 0 0 0 0 0 ions_nose_info
S 736 14 5 0 0 0 1 735 5754 0 400000 A 0 0 0 0 0 0 0 19 0 0 0 0 0 0 0 0 0 0 0 0 0 303 0 582 0 0 0 0 ions_nose_info
F 736 0
S 737 23 5 0 0 0 744 582 5769 0 0 A 0 0 0 0 0 0 0 0 0 0 0 0 0 0 0 0 0 0 0 0 0 0 0 0 0 0 0 0 ions_nosevel
S 738 1 3 1 0 9 1 737 5782 4 3000 A 0 0 0 0 0 0 0 0 0 0 0 0 0 0 0 0 0 0 0 0 0 0 0 0 0 0 0 0 delt
S 739 7 3 3 0 140 1 737 4950 800204 3000 A 0 0 0 0 0 0 0 0 0 0 0 0 0 0 0 0 0 0 0 0 0 0 0 0 0 0 0 0 vnhp
S 740 7 3 1 0 143 1 737 4995 800204 3000 A 0 0 0 0 0 0 0 0 0 0 0 0 0 0 0 0 0 0 0 0 0 0 0 0 0 0 0 0 xnhp0
S 741 7 3 1 0 146 1 737 5045 800204 3000 A 0 0 0 0 0 0 0 0 0 0 0 0 0 0 0 0 0 0 0 0 0 0 0 0 0 0 0 0 xnhpm
S 742 6 3 1 0 6 1 737 4785 800004 3000 A 0 0 0 0 0 0 0 0 0 0 0 0 0 0 0 0 0 0 0 0 0 0 0 0 0 0 0 0 nhpcl
S 743 6 3 1 0 6 1 737 4797 800004 3000 A 0 0 0 0 0 0 0 0 0 0 0 0 0 0 0 0 0 0 0 0 0 0 0 0 0 0 0 0 nhpdim
S 744 14 5 0 0 0 1 737 5769 200 400000 A 0 0 0 0 0 0 0 20 6 0 0 0 0 0 0 0 0 0 0 0 0 363 0 582 0 0 0 0 ions_nosevel
F 744 6 739 740 741 738 742 743
S 745 6 1 0 0 6 1 737 5787 40800006 3000 A 0 0 0 0 0 0 0 0 0 0 0 0 0 0 0 0 0 0 0 0 0 0 0 0 0 0 0 0 z_e_167
S 746 6 1 0 0 6 1 737 5795 40800006 3000 A 0 0 0 0 0 0 0 0 0 0 0 0 0 0 0 0 0 0 0 0 0 0 0 0 0 0 0 0 z_e_168
S 747 6 1 0 0 6 1 737 5803 40800006 3000 A 0 0 0 0 0 0 0 0 0 0 0 0 0 0 0 0 0 0 0 0 0 0 0 0 0 0 0 0 z_e_171
S 748 6 1 0 0 6 1 737 5811 40800006 3000 A 0 0 0 0 0 0 0 0 0 0 0 0 0 0 0 0 0 0 0 0 0 0 0 0 0 0 0 0 z_e_173
S 749 23 5 0 0 0 763 582 5819 0 0 A 0 0 0 0 0 0 0 0 0 0 0 0 0 0 0 0 0 0 0 0 0 0 0 0 0 0 0 0 ions_noseupd
S 750 1 3 1 0 9 1 749 5782 4 3000 A 0 0 0 0 0 0 0 0 0 0 0 0 0 0 0 0 0 0 0 0 0 0 0 0 0 0 0 0 delt
S 751 7 3 2 0 149 1 749 5095 800204 3000 A 0 0 0 0 0 0 0 0 0 0 0 0 0 0 0 0 0 0 0 0 0 0 0 0 0 0 0 0 xnhpp
S 752 7 3 1 0 152 1 749 4995 800204 3000 A 0 0 0 0 0 0 0 0 0 0 0 0 0 0 0 0 0 0 0 0 0 0 0 0 0 0 0 0 xnhp0
S 753 7 3 1 0 155 1 749 5045 800204 3000 A 0 0 0 0 0 0 0 0 0 0 0 0 0 0 0 0 0 0 0 0 0 0 0 0 0 0 0 0 xnhpm
S 754 7 3 1 0 158 1 749 5340 800204 3000 A 0 0 0 0 0 0 0 0 0 0 0 0 0 0 0 0 0 0 0 0 0 0 0 0 0 0 0 0 qnp
S 755 7 3 3 0 164 1 749 5145 20000004 10003000 A 0 0 0 0 0 0 0 0 0 0 0 0 0 0 0 0 0 0 0 0 0 0 0 0 0 0 0 0 ekin2nhp
S 756 7 3 1 0 161 1 749 5210 20000004 10003000 A 0 0 0 0 0 0 0 0 0 0 0 0 0 0 0 0 0 0 0 0 0 0 0 0 0 0 0 0 gkbt2nhp
S 757 7 3 3 0 167 1 749 4950 800204 3000 A 0 0 0 0 0 0 0 0 0 0 0 0 0 0 0 0 0 0 0 0 0 0 0 0 0 0 0 0 vnhp
S 758 1 3 1 0 9 1 749 5438 4 3000 A 0 0 0 0 0 0 0 0 0 0 0 0 0 0 0 0 0 0 0 0 0 0 0 0 0 0 0 0 kbt
S 759 6 3 1 0 6 1 749 4785 800004 3000 A 0 0 0 0 0 0 0 0 0 0 0 0 0 0 0 0 0 0 0 0 0 0 0 0 0 0 0 0 nhpcl
S 760 6 3 1 0 6 1 749 4797 800004 3000 A 0 0 0 0 0 0 0 0 0 0 0 0 0 0 0 0 0 0 0 0 0 0 0 0 0 0 0 0 nhpdim
S 761 1 3 1 0 6 1 749 4811 4 3000 A 0 0 0 0 0 0 0 0 0 0 0 0 0 0 0 0 0 0 0 0 0 0 0 0 0 0 0 0 nhpbeg
S 762 1 3 1 0 6 1 749 4818 4 3000 A 0 0 0 0 0 0 0 0 0 0 0 0 0 0 0 0 0 0 0 0 0 0 0 0 0 0 0 0 nhpend
S 763 14 5 0 0 0 1 749 5819 20000200 400000 A 0 0 0 0 0 0 0 27 13 0 0 0 0 0 0 0 0 0 0 0 0 383 0 582 0 0 0 0 ions_noseupd
F 763 13 751 752 753 750 754 755 756 757 758 759 760 761 762
S 764 6 1 0 0 6 1 749 5811 40800006 3000 A 0 0 0 0 0 0 0 0 0 0 0 0 0 0 0 0 0 0 0 0 0 0 0 0 0 0 0 0 z_e_173
S 765 6 1 0 0 6 1 749 5832 40800006 3000 A 0 0 0 0 0 0 0 0 0 0 0 0 0 0 0 0 0 0 0 0 0 0 0 0 0 0 0 0 z_e_174
S 766 6 1 0 0 6 1 749 5840 40800006 3000 A 0 0 0 0 0 0 0 0 0 0 0 0 0 0 0 0 0 0 0 0 0 0 0 0 0 0 0 0 z_e_177
S 767 6 1 0 0 6 1 749 5848 40800006 3000 A 0 0 0 0 0 0 0 0 0 0 0 0 0 0 0 0 0 0 0 0 0 0 0 0 0 0 0 0 z_e_179
S 768 6 1 0 0 6 1 749 5583 40800006 3000 A 0 0 0 0 0 0 0 0 0 0 0 0 0 0 0 0 0 0 0 0 0 0 0 0 0 0 0 0 z_b_0_1
S 769 6 1 0 0 6 1 749 5591 40800006 3000 A 0 0 0 0 0 0 0 0 0 0 0 0 0 0 0 0 0 0 0 0 0 0 0 0 0 0 0 0 z_b_2_1
S 770 6 1 0 0 6 1 749 5599 40800006 3000 A 0 0 0 0 0 0 0 0 0 0 0 0 0 0 0 0 0 0 0 0 0 0 0 0 0 0 0 0 z_b_3_1
S 771 6 1 0 0 6 1 749 5856 40800006 3000 A 0 0 0 0 0 0 0 0 0 0 0 0 0 0 0 0 0 0 0 0 0 0 0 0 0 0 0 0 z_e_186
S 772 6 1 0 0 6 1 749 5615 40800006 3000 A 0 0 0 0 0 0 0 0 0 0 0 0 0 0 0 0 0 0 0 0 0 0 0 0 0 0 0 0 z_b_4_1
S 773 6 1 0 0 6 1 749 5623 40800006 3000 A 0 0 0 0 0 0 0 0 0 0 0 0 0 0 0 0 0 0 0 0 0 0 0 0 0 0 0 0 z_b_6_1
S 774 6 1 0 0 6 1 749 5631 40800006 3000 A 0 0 0 0 0 0 0 0 0 0 0 0 0 0 0 0 0 0 0 0 0 0 0 0 0 0 0 0 z_b_7_1
S 775 6 1 0 0 6 1 749 5864 40800006 3000 A 0 0 0 0 0 0 0 0 0 0 0 0 0 0 0 0 0 0 0 0 0 0 0 0 0 0 0 0 z_e_193
S 776 23 5 0 0 9 784 582 5872 4 0 A 0 0 0 0 0 0 0 0 0 0 0 0 0 0 0 0 0 0 0 0 0 0 0 0 0 0 0 0 ions_nose_nrg
S 777 7 3 0 0 179 1 776 4995 800204 3000 A 0 0 0 0 0 0 0 0 0 0 0 0 0 0 0 0 0 0 0 0 0 0 0 0 0 0 0 0 xnhp0
S 778 7 3 0 0 176 1 776 4950 800204 3000 A 0 0 0 0 0 0 0 0 0 0 0 0 0 0 0 0 0 0 0 0 0 0 0 0 0 0 0 0 vnhp
S 779 7 3 0 0 173 1 776 5340 800204 3000 A 0 0 0 0 0 0 0 0 0 0 0 0 0 0 0 0 0 0 0 0 0 0 0 0 0 0 0 0 qnp
S 780 7 3 0 0 170 1 776 5210 20000004 10003000 A 0 0 0 0 0 0 0 0 0 0 0 0 0 0 0 0 0 0 0 0 0 0 0 0 0 0 0 0 gkbt2nhp
S 781 1 3 0 0 9 1 776 5438 4 3000 A 0 0 0 0 0 0 0 0 0 0 0 0 0 0 0 0 0 0 0 0 0 0 0 0 0 0 0 0 kbt
S 782 6 3 0 0 6 1 776 4785 800004 3000 A 0 0 0 0 0 0 0 0 0 0 0 0 0 0 0 0 0 0 0 0 0 0 0 0 0 0 0 0 nhpcl
S 783 6 3 0 0 6 1 776 4797 800004 3000 A 0 0 0 0 0 0 0 0 0 0 0 0 0 0 0 0 0 0 0 0 0 0 0 0 0 0 0 0 nhpdim
S 784 14 5 0 0 9 1 776 5872 20000204 400000 A 0 0 0 0 0 0 0 41 7 0 0 785 0 0 0 0 0 0 0 0 0 442 0 582 0 0 0 0 ions_nose_nrg
F 784 7 777 778 779 780 781 782 783
S 785 1 3 0 0 9 1 776 5872 4 1003000 A 0 0 0 0 0 0 0 0 0 0 0 0 0 0 0 0 0 0 0 0 0 0 0 0 0 0 0 0 ions_nose_nrg
S 786 6 1 0 0 6 1 776 5583 40800006 3000 A 0 0 0 0 0 0 0 0 0 0 0 0 0 0 0 0 0 0 0 0 0 0 0 0 0 0 0 0 z_b_0_1
S 787 6 1 0 0 6 1 776 5591 40800006 3000 A 0 0 0 0 0 0 0 0 0 0 0 0 0 0 0 0 0 0 0 0 0 0 0 0 0 0 0 0 z_b_2_1
S 788 6 1 0 0 6 1 776 5599 40800006 3000 A 0 0 0 0 0 0 0 0 0 0 0 0 0 0 0 0 0 0 0 0 0 0 0 0 0 0 0 0 z_b_3_1
S 789 6 1 0 0 6 1 776 5886 40800006 3000 A 0 0 0 0 0 0 0 0 0 0 0 0 0 0 0 0 0 0 0 0 0 0 0 0 0 0 0 0 z_e_192
S 790 6 1 0 0 6 1 776 5894 40800006 3000 A 0 0 0 0 0 0 0 0 0 0 0 0 0 0 0 0 0 0 0 0 0 0 0 0 0 0 0 0 z_e_194
S 791 6 1 0 0 6 1 776 5902 40800006 3000 A 0 0 0 0 0 0 0 0 0 0 0 0 0 0 0 0 0 0 0 0 0 0 0 0 0 0 0 0 z_e_195
S 792 6 1 0 0 6 1 776 5910 40800006 3000 A 0 0 0 0 0 0 0 0 0 0 0 0 0 0 0 0 0 0 0 0 0 0 0 0 0 0 0 0 z_e_198
S 793 6 1 0 0 6 1 776 5918 40800006 3000 A 0 0 0 0 0 0 0 0 0 0 0 0 0 0 0 0 0 0 0 0 0 0 0 0 0 0 0 0 z_e_200
S 794 23 5 0 0 0 798 582 5926 0 0 A 0 0 0 0 0 0 0 0 0 0 0 0 0 0 0 0 0 0 0 0 0 0 0 0 0 0 0 0 ions_nose_shiftvar
S 795 7 3 1 0 188 1 794 5095 20000004 10003000 A 0 0 0 0 0 0 0 0 0 0 0 0 0 0 0 0 0 0 0 0 0 0 0 0 0 0 0 0 xnhpp
S 796 7 3 3 0 185 1 794 4995 20000004 10003000 A 0 0 0 0 0 0 0 0 0 0 0 0 0 0 0 0 0 0 0 0 0 0 0 0 0 0 0 0 xnhp0
S 797 7 3 3 0 182 1 794 5045 20000004 10003000 A 0 0 0 0 0 0 0 0 0 0 0 0 0 0 0 0 0 0 0 0 0 0 0 0 0 0 0 0 xnhpm
S 798 14 5 0 0 0 1 794 5926 20000000 400000 A 0 0 0 0 0 0 0 49 3 0 0 0 0 0 0 0 0 0 0 0 0 464 0 582 0 0 0 0 ions_nose_shiftvar
F 798 3 795 796 797
S 799 6 1 0 0 6 1 794 5583 40800006 3000 A 0 0 0 0 0 0 0 0 0 0 0 0 0 0 0 0 0 0 0 0 0 0 0 0 0 0 0 0 z_b_0_1
S 800 6 1 0 0 6 1 794 5591 40800006 3000 A 0 0 0 0 0 0 0 0 0 0 0 0 0 0 0 0 0 0 0 0 0 0 0 0 0 0 0 0 z_b_2_1
S 801 6 1 0 0 6 1 794 5599 40800006 3000 A 0 0 0 0 0 0 0 0 0 0 0 0 0 0 0 0 0 0 0 0 0 0 0 0 0 0 0 0 z_b_3_1
S 802 6 1 0 0 6 1 794 5945 40800006 3000 A 0 0 0 0 0 0 0 0 0 0 0 0 0 0 0 0 0 0 0 0 0 0 0 0 0 0 0 0 z_e_202
S 803 6 1 0 0 6 1 794 5615 40800006 3000 A 0 0 0 0 0 0 0 0 0 0 0 0 0 0 0 0 0 0 0 0 0 0 0 0 0 0 0 0 z_b_4_1
S 804 6 1 0 0 6 1 794 5623 40800006 3000 A 0 0 0 0 0 0 0 0 0 0 0 0 0 0 0 0 0 0 0 0 0 0 0 0 0 0 0 0 z_b_6_1
S 805 6 1 0 0 6 1 794 5631 40800006 3000 A 0 0 0 0 0 0 0 0 0 0 0 0 0 0 0 0 0 0 0 0 0 0 0 0 0 0 0 0 z_b_7_1
S 806 6 1 0 0 6 1 794 5953 40800006 3000 A 0 0 0 0 0 0 0 0 0 0 0 0 0 0 0 0 0 0 0 0 0 0 0 0 0 0 0 0 z_e_209
S 807 6 1 0 0 6 1 794 5647 40800006 3000 A 0 0 0 0 0 0 0 0 0 0 0 0 0 0 0 0 0 0 0 0 0 0 0 0 0 0 0 0 z_b_8_1
S 808 6 1 0 0 6 1 794 5655 40800006 3000 A 0 0 0 0 0 0 0 0 0 0 0 0 0 0 0 0 0 0 0 0 0 0 0 0 0 0 0 0 z_b_10_1
S 809 6 1 0 0 6 1 794 5961 40800006 3000 A 0 0 0 0 0 0 0 0 0 0 0 0 0 0 0 0 0 0 0 0 0 0 0 0 0 0 0 0 z_b_11
S 810 6 1 0 0 6 1 794 5968 40800006 3000 A 0 0 0 0 0 0 0 0 0 0 0 0 0 0 0 0 0 0 0 0 0 0 0 0 0 0 0 0 z_e_216
A 13 2 0 0 0 6 587 0 0 0 13 0 0 0 0 0 0 0 0 0
A 15 2 0 0 0 6 588 0 0 0 15 0 0 0 0 0 0 0 0 0
A 25 2 0 0 0 6 600 0 0 0 25 0 0 0 0 0 0 0 0 0
A 40 2 0 0 0 6 621 0 0 0 40 0 0 0 0 0 0 0 0 0
A 41 2 0 0 0 6 626 0 0 0 41 0 0 0 0 0 0 0 0 0
A 42 1 0 1 0 59 622 0 0 0 0 0 0 0 0 0 0 0 0 0
A 43 10 0 0 0 6 42 1 0 0 0 0 0 0 0 0 0 0 0 0
X 1 41
A 44 2 0 0 0 6 627 0 0 0 44 0 0 0 0 0 0 0 0 0
A 45 10 0 0 43 6 42 4 0 0 0 0 0 0 0 0 0 0 0 0
X 1 44
A 46 4 0 0 0 6 45 0 3 0 0 0 0 2 0 0 0 0 0 0
A 47 4 0 0 0 6 43 0 46 0 0 0 0 1 0 0 0 0 0 0
A 48 2 0 0 0 6 628 0 0 0 48 0 0 0 0 0 0 0 0 0
A 49 10 0 0 45 6 42 7 0 0 0 0 0 0 0 0 0 0 0 0
X 1 48
A 50 10 0 0 49 6 42 10 0 0 0 0 0 0 0 0 0 0 0 0
X 1 25
A 51 10 0 0 50 6 42 13 0 0 0 0 0 0 0 0 0 0 0 0
X 1 13
A 53 1 0 1 0 65 631 0 0 0 0 0 0 0 0 0 0 0 0 0
A 54 10 0 0 0 6 53 1 0 0 0 0 0 0 0 0 0 0 0 0
X 1 41
A 55 10 0 0 54 6 53 4 0 0 0 0 0 0 0 0 0 0 0 0
X 1 44
A 56 4 0 0 0 6 55 0 3 0 0 0 0 2 0 0 0 0 0 0
A 57 4 0 0 0 6 54 0 56 0 0 0 0 1 0 0 0 0 0 0
A 58 10 0 0 55 6 53 7 0 0 0 0 0 0 0 0 0 0 0 0
X 1 48
A 59 10 0 0 58 6 53 10 0 0 0 0 0 0 0 0 0 0 0 0
X 1 25
A 60 10 0 0 59 6 53 13 0 0 0 0 0 0 0 0 0 0 0 0
X 1 13
A 62 1 0 1 0 71 637 0 0 0 0 0 0 0 0 0 0 0 0 0
A 63 10 0 0 0 6 62 1 0 0 0 0 0 0 0 0 0 0 0 0
X 1 41
A 64 10 0 0 63 6 62 4 0 0 0 0 0 0 0 0 0 0 0 0
X 1 44
A 65 4 0 0 0 6 64 0 3 0 0 0 0 2 0 0 0 0 0 0
A 66 4 0 0 0 6 63 0 65 0 0 0 0 1 0 0 0 0 0 0
A 67 10 0 0 64 6 62 7 0 0 0 0 0 0 0 0 0 0 0 0
X 1 48
A 68 10 0 0 67 6 62 10 0 0 0 0 0 0 0 0 0 0 0 0
X 1 25
A 69 10 0 0 68 6 62 13 0 0 0 0 0 0 0 0 0 0 0 0
X 1 13
A 71 1 0 1 0 77 643 0 0 0 0 0 0 0 0 0 0 0 0 0
A 72 10 0 0 53 6 71 1 0 0 0 0 0 0 0 0 0 0 0 0
X 1 41
A 73 10 0 0 72 6 71 4 0 0 0 0 0 0 0 0 0 0 0 0
X 1 44
A 74 4 0 0 0 6 73 0 3 0 0 0 0 2 0 0 0 0 0 0
A 75 4 0 0 0 6 72 0 74 0 0 0 0 1 0 0 0 0 0 0
A 76 10 0 0 73 6 71 7 0 0 0 0 0 0 0 0 0 0 0 0
X 1 48
A 77 10 0 0 76 6 71 10 0 0 0 0 0 0 0 0 0 0 0 0
X 1 25
A 78 10 0 0 77 6 71 13 0 0 0 0 0 0 0 0 0 0 0 0
X 1 13
A 80 1 0 1 0 83 649 0 0 0 0 0 0 0 0 0 0 0 0 0
A 81 10 0 0 0 6 80 1 0 0 0 0 0 0 0 0 0 0 0 0
X 1 41
A 82 10 0 0 81 6 80 4 0 0 0 0 0 0 0 0 0 0 0 0
X 1 44
A 83 4 0 0 3 6 82 0 3 0 0 0 0 2 0 0 0 0 0 0
A 84 4 0 0 0 6 81 0 83 0 0 0 0 1 0 0 0 0 0 0
A 85 10 0 0 82 6 80 7 0 0 0 0 0 0 0 0 0 0 0 0
X 1 48
A 86 10 0 0 85 6 80 10 0 0 0 0 0 0 0 0 0 0 0 0
X 1 25
A 87 10 0 0 86 6 80 13 0 0 0 0 0 0 0 0 0 0 0 0
X 1 13
A 89 1 0 1 0 89 655 0 0 0 0 0 0 0 0 0 0 0 0 0
A 90 10 0 0 0 6 89 1 0 0 0 0 0 0 0 0 0 0 0 0
X 1 41
A 91 10 0 0 90 6 89 4 0 0 0 0 0 0 0 0 0 0 0 0
X 1 44
A 92 4 0 0 0 6 91 0 3 0 0 0 0 2 0 0 0 0 0 0
A 93 4 0 0 0 6 90 0 92 0 0 0 0 1 0 0 0 0 0 0
A 94 10 0 0 91 6 89 7 0 0 0 0 0 0 0 0 0 0 0 0
X 1 48
A 95 10 0 0 94 6 89 10 0 0 0 0 0 0 0 0 0 0 0 0
X 1 25
A 96 10 0 0 95 6 89 13 0 0 0 0 0 0 0 0 0 0 0 0
X 1 13
A 98 1 0 1 0 95 661 0 0 0 0 0 0 0 0 0 0 0 0 0
A 99 10 0 0 19 6 98 1 0 0 0 0 0 0 0 0 0 0 0 0
X 1 41
A 100 10 0 0 99 6 98 4 0 0 0 0 0 0 0 0 0 0 0 0
X 1 44
A 101 4 0 0 0 6 100 0 3 0 0 0 0 2 0 0 0 0 0 0
A 102 4 0 0 0 6 99 0 101 0 0 0 0 1 0 0 0 0 0 0
A 103 10 0 0 100 6 98 7 0 0 0 0 0 0 0 0 0 0 0 0
X 1 48
A 104 10 0 0 103 6 98 10 0 0 0 0 0 0 0 0 0 0 0 0
X 1 25
A 105 10 0 0 104 6 98 13 0 0 0 0 0 0 0 0 0 0 0 0
X 1 13
A 107 1 0 1 0 101 667 0 0 0 0 0 0 0 0 0 0 0 0 0
A 108 10 0 0 32 6 107 1 0 0 0 0 0 0 0 0 0 0 0 0
X 1 41
A 109 10 0 0 108 6 107 4 0 0 0 0 0 0 0 0 0 0 0 0
X 1 44
A 110 4 0 0 23 6 109 0 3 0 0 0 0 2 0 0 0 0 0 0
A 111 4 0 0 0 6 108 0 110 0 0 0 0 1 0 0 0 0 0 0
A 112 10 0 0 109 6 107 7 0 0 0 0 0 0 0 0 0 0 0 0
X 1 48
A 113 10 0 0 112 6 107 10 0 0 0 0 0 0 0 0 0 0 0 0
X 1 25
A 114 10 0 0 113 6 107 13 0 0 0 0 0 0 0 0 0 0 0 0
X 1 13
A 116 1 0 1 0 107 673 0 0 0 0 0 0 0 0 0 0 0 0 0
A 117 10 0 0 0 6 116 1 0 0 0 0 0 0 0 0 0 0 0 0
X 1 41
A 118 10 0 0 117 6 116 4 0 0 0 0 0 0 0 0 0 0 0 0
X 1 44
A 119 4 0 0 0 6 118 0 3 0 0 0 0 2 0 0 0 0 0 0
A 120 4 0 0 0 6 117 0 119 0 0 0 0 1 0 0 0 0 0 0
A 121 10 0 0 118 6 116 7 0 0 0 0 0 0 0 0 0 0 0 0
X 1 48
A 122 10 0 0 121 6 116 10 0 0 0 0 0 0 0 0 0 0 0 0
X 1 25
A 123 10 0 0 122 6 116 13 0 0 0 0 0 0 0 0 0 0 0 0
X 1 13
A 125 1 0 1 0 113 679 0 0 0 0 0 0 0 0 0 0 0 0 0
A 126 10 0 0 52 6 125 1 0 0 0 0 0 0 0 0 0 0 0 0
X 1 41
A 127 10 0 0 126 6 125 4 0 0 0 0 0 0 0 0 0 0 0 0
X 1 44
A 128 4 0 0 0 6 127 0 3 0 0 0 0 2 0 0 0 0 0 0
A 129 4 0 0 0 6 126 0 128 0 0 0 0 1 0 0 0 0 0 0
A 130 10 0 0 127 6 125 7 0 0 0 0 0 0 0 0 0 0 0 0
X 1 48
A 131 10 0 0 130 6 125 10 0 0 0 0 0 0 0 0 0 0 0 0
X 1 25
A 132 10 0 0 131 6 125 13 0 0 0 0 0 0 0 0 0 0 0 0
X 1 13
A 134 1 0 1 0 119 685 0 0 0 0 0 0 0 0 0 0 0 0 0
A 135 10 0 0 0 6 134 1 0 0 0 0 0 0 0 0 0 0 0 0
X 1 41
A 136 10 0 0 135 6 134 4 0 0 0 0 0 0 0 0 0 0 0 0
X 1 44
A 137 4 0 0 120 6 136 0 3 0 0 0 0 2 0 0 0 0 0 0
A 138 4 0 0 107 6 135 0 137 0 0 0 0 1 0 0 0 0 0 0
A 139 10 0 0 136 6 134 7 0 0 0 0 0 0 0 0 0 0 0 0
X 1 48
A 140 10 0 0 139 6 134 10 0 0 0 0 0 0 0 0 0 0 0 0
X 1 25
A 141 10 0 0 140 6 134 13 0 0 0 0 0 0 0 0 0 0 0 0
X 1 13
A 147 1 0 0 0 6 707 0 0 0 0 0 0 0 0 0 0 0 0 0
A 148 1 0 0 0 6 705 0 0 0 0 0 0 0 0 0 0 0 0 0
A 149 1 0 0 18 6 708 0 0 0 0 0 0 0 0 0 0 0 0 0
A 150 1 0 0 0 6 706 0 0 0 0 0 0 0 0 0 0 0 0 0
A 151 1 0 0 30 6 711 0 0 0 0 0 0 0 0 0 0 0 0 0
A 152 1 0 0 21 6 709 0 0 0 0 0 0 0 0 0 0 0 0 0
A 153 1 0 0 25 6 712 0 0 0 0 0 0 0 0 0 0 0 0 0
A 154 1 0 0 110 6 710 0 0 0 0 0 0 0 0 0 0 0 0 0
A 155 1 0 0 0 6 715 0 0 0 0 0 0 0 0 0 0 0 0 0
A 156 1 0 0 33 6 713 0 0 0 0 0 0 0 0 0 0 0 0 0
A 157 1 0 0 0 6 716 0 0 0 0 0 0 0 0 0 0 0 0 0
A 158 1 0 0 0 6 714 0 0 0 0 0 0 0 0 0 0 0 0 0
A 159 1 0 0 0 6 725 0 0 0 0 0 0 0 0 0 0 0 0 0
A 160 1 0 0 0 6 723 0 0 0 0 0 0 0 0 0 0 0 0 0
A 161 1 0 0 0 6 726 0 0 0 0 0 0 0 0 0 0 0 0 0
A 162 1 0 0 0 6 724 0 0 0 0 0 0 0 0 0 0 0 0 0
A 163 1 0 0 0 6 729 0 0 0 0 0 0 0 0 0 0 0 0 0
A 164 1 0 0 0 6 727 0 0 0 0 0 0 0 0 0 0 0 0 0
A 165 1 0 0 0 6 730 0 0 0 0 0 0 0 0 0 0 0 0 0
A 166 1 0 0 128 6 728 0 0 0 0 0 0 0 0 0 0 0 0 0
A 167 1 0 0 0 6 748 0 0 0 0 0 0 0 0 0 0 0 0 0
A 168 1 0 0 134 6 742 0 0 0 0 0 0 0 0 0 0 0 0 0
A 169 1 0 0 0 6 745 0 0 0 0 0 0 0 0 0 0 0 0 0
A 170 1 0 0 0 6 743 0 0 0 0 0 0 0 0 0 0 0 0 0
A 171 1 0 0 0 6 746 0 0 0 0 0 0 0 0 0 0 0 0 0
A 172 1 0 0 0 6 747 0 0 0 0 0 0 0 0 0 0 0 0 0
A 173 1 0 0 0 6 767 0 0 0 0 0 0 0 0 0 0 0 0 0
A 174 1 0 0 0 6 759 0 0 0 0 0 0 0 0 0 0 0 0 0
A 175 1 0 0 0 6 764 0 0 0 0 0 0 0 0 0 0 0 0 0
A 176 1 0 0 0 6 760 0 0 0 0 0 0 0 0 0 0 0 0 0
A 177 1 0 0 0 6 765 0 0 0 0 0 0 0 0 0 0 0 0 0
A 178 1 0 0 0 6 766 0 0 0 0 0 0 0 0 0 0 0 0 0
A 179 1 0 0 0 6 770 0 0 0 0 0 0 0 0 0 0 0 0 0
A 180 1 0 0 0 6 768 0 0 0 0 0 0 0 0 0 0 0 0 0
A 181 1 0 0 0 6 771 0 0 0 0 0 0 0 0 0 0 0 0 0
A 182 1 0 0 0 6 769 0 0 0 0 0 0 0 0 0 0 0 0 0
A 183 1 0 0 0 6 774 0 0 0 0 0 0 0 0 0 0 0 0 0
A 184 1 0 0 0 6 772 0 0 0 0 0 0 0 0 0 0 0 0 0
A 185 1 0 0 0 6 775 0 0 0 0 0 0 0 0 0 0 0 0 0
A 186 1 0 0 0 6 773 0 0 0 0 0 0 0 0 0 0 0 0 0
A 187 1 0 0 0 6 788 0 0 0 0 0 0 0 0 0 0 0 0 0
A 188 1 0 0 0 6 786 0 0 0 0 0 0 0 0 0 0 0 0 0
A 189 1 0 0 0 6 789 0 0 0 0 0 0 0 0 0 0 0 0 0
A 190 1 0 0 0 6 787 0 0 0 0 0 0 0 0 0 0 0 0 0
A 191 1 0 0 0 6 793 0 0 0 0 0 0 0 0 0 0 0 0 0
A 192 1 0 0 0 6 782 0 0 0 0 0 0 0 0 0 0 0 0 0
A 193 1 0 0 0 6 790 0 0 0 0 0 0 0 0 0 0 0 0 0
A 194 1 0 0 0 6 783 0 0 0 0 0 0 0 0 0 0 0 0 0
A 195 1 0 0 0 6 791 0 0 0 0 0 0 0 0 0 0 0 0 0
A 196 1 0 0 0 6 792 0 0 0 0 0 0 0 0 0 0 0 0 0
A 197 1 0 0 0 6 801 0 0 0 0 0 0 0 0 0 0 0 0 0
A 198 1 0 0 0 6 799 0 0 0 0 0 0 0 0 0 0 0 0 0
A 199 1 0 0 0 6 802 0 0 0 0 0 0 0 0 0 0 0 0 0
A 200 1 0 0 0 6 800 0 0 0 0 0 0 0 0 0 0 0 0 0
A 201 1 0 0 0 6 805 0 0 0 0 0 0 0 0 0 0 0 0 0
A 202 1 0 0 0 6 803 0 0 0 0 0 0 0 0 0 0 0 0 0
A 203 1 0 0 0 6 806 0 0 0 0 0 0 0 0 0 0 0 0 0
A 204 1 0 0 0 6 804 0 0 0 0 0 0 0 0 0 0 0 0 0
A 205 1 0 0 0 6 809 0 0 0 0 0 0 0 0 0 0 0 0 0
A 206 1 0 0 0 6 807 0 0 0 0 0 0 0 0 0 0 0 0 0
A 207 1 0 0 0 6 810 0 0 0 0 0 0 0 0 0 0 0 0 0
A 208 1 0 0 0 6 808 0 0 0 0 0 0 0 0 0 0 0 0 0
Z
Z
