V26 kinds
8 kind.F90 S582 0
04/24/2012  15:51:01
enduse
S 582 24 0 0 0 6 1 0 4658 10015 0 A 0 0 0 0 0 0 0 0 0 0 0 0 0 0 0 0 0 0 0 0 0 11 0 0 0 0 0 0 kinds
S 583 16 0 0 0 6 1 582 4664 4 400000 A 0 0 0 0 0 0 0 0 8 16 0 0 0 0 0 0 0 0 0 0 0 0 0 582 0 0 0 0 dp
S 586 3 0 0 0 6 0 1 0 0 0 A 0 0 0 0 0 0 0 0 0 8 0 0 0 0 0 0 0 0 0 0 0 0 0 0 0 0 0 0 6
S 587 16 0 0 0 6 1 582 4667 4 400000 A 0 0 0 0 0 0 0 0 4 21 0 0 0 0 0 0 0 0 0 0 0 0 0 582 0 0 0 0 sgl
S 590 3 0 0 0 6 0 1 0 0 0 A 0 0 0 0 0 0 0 0 0 4 0 0 0 0 0 0 0 0 0 0 0 0 0 0 0 0 0 0 6
S 591 16 0 0 0 6 1 582 4671 4 400000 A 0 0 0 0 0 0 0 0 4 21 0 0 0 0 0 0 0 0 0 0 0 0 0 582 0 0 0 0 i4b
S 593 27 0 0 0 9 594 582 4675 0 0 A 0 0 0 0 0 0 0 0 0 0 0 0 0 0 0 0 0 0 0 0 0 0 0 582 0 0 0 0 print_kind_info
S 594 23 5 0 0 0 596 582 4675 0 0 A 0 0 0 0 0 0 0 0 0 0 0 0 0 0 0 0 0 0 0 0 0 0 0 0 0 0 0 0 print_kind_info
S 595 1 3 1 0 6 1 594 4691 14 3000 A 0 0 0 0 0 0 0 0 0 0 0 0 0 0 0 0 0 0 0 0 0 0 0 0 0 0 0 0 stdout
S 596 14 5 0 0 0 1 594 4675 0 400000 A 0 0 0 0 0 0 0 2 1 0 0 0 0 0 0 0 0 0 0 0 0 31 0 582 0 0 0 0 print_kind_info
F 596 1 595
A 16 2 0 0 0 6 586 0 0 0 16 0 0 0 0 0 0 0 0 0
A 21 2 0 0 0 6 590 0 0 0 21 0 0 0 0 0 0 0 0 0
Z
Z
