V26 metadyn_base
16 metadyn_base.F90 S582 0
04/24/2012  15:51:52
use kinds private
use kinds private
enduse
D 56 21 9 2 17 23 1 1 0 0 1
 3 18 3 3 18 19
 3 20 21 3 20 22
S 582 24 0 0 0 6 1 0 4658 10005 0 A 0 0 0 0 0 0 0 0 0 0 0 0 0 0 0 0 0 0 0 0 0 11 0 0 0 0 0 0 metadyn_base
S 584 23 0 0 0 9 587 582 4677 4 0 A 0 0 0 0 0 0 0 0 0 0 0 0 0 0 0 0 0 0 0 0 0 0 0 582 0 0 0 0 dp
R 587 16 1 kinds dp
S 594 23 5 0 0 0 597 582 4711 0 0 A 0 0 0 0 0 0 0 0 0 0 0 0 0 0 0 0 0 0 0 0 0 0 0 0 0 0 0 0 metadyn_init
S 595 1 3 1 0 28 1 594 4724 4 43000 A 0 0 0 0 0 0 0 0 0 0 0 0 0 0 0 0 0 0 0 0 0 0 0 0 0 0 0 0 progname
S 596 7 3 3 0 56 1 594 4733 20000004 10003000 A 0 0 0 0 0 0 0 0 0 0 0 0 0 0 0 0 0 0 0 0 0 0 0 0 0 0 0 0 tau
S 597 14 5 0 0 0 1 594 4711 20000000 400000 A 0 0 0 0 0 0 0 4 2 0 0 0 0 0 0 0 0 0 0 0 0 30 0 582 0 0 0 0 metadyn_init
F 597 2 595 596
S 598 6 1 0 0 6 1 594 4737 40800006 3000 A 0 0 0 0 0 0 0 0 0 0 0 0 0 0 0 0 0 0 0 0 0 0 0 0 0 0 0 0 z_b_0_1
S 599 6 1 0 0 6 1 594 4745 40800006 3000 A 0 0 0 0 0 0 0 0 0 0 0 0 0 0 0 0 0 0 0 0 0 0 0 0 0 0 0 0 z_b_2_1
S 600 6 1 0 0 6 1 594 4753 40800006 3000 A 0 0 0 0 0 0 0 0 0 0 0 0 0 0 0 0 0 0 0 0 0 0 0 0 0 0 0 0 z_b_3_1
S 601 6 1 0 0 6 1 594 4761 40800006 3000 A 0 0 0 0 0 0 0 0 0 0 0 0 0 0 0 0 0 0 0 0 0 0 0 0 0 0 0 0 z_b_5_1
S 602 6 1 0 0 6 1 594 4769 40800006 3000 A 0 0 0 0 0 0 0 0 0 0 0 0 0 0 0 0 0 0 0 0 0 0 0 0 0 0 0 0 z_b_6_1
S 603 6 1 0 0 6 1 594 4777 40800006 3000 A 0 0 0 0 0 0 0 0 0 0 0 0 0 0 0 0 0 0 0 0 0 0 0 0 0 0 0 0 z_e_1692
S 604 6 1 0 0 6 1 594 4786 40800006 3000 A 0 0 0 0 0 0 0 0 0 0 0 0 0 0 0 0 0 0 0 0 0 0 0 0 0 0 0 0 z_e_1695
S 605 23 5 0 0 0 607 582 4795 0 0 A 0 0 0 0 0 0 0 0 0 0 0 0 0 0 0 0 0 0 0 0 0 0 0 0 0 0 0 0 add_gaussians
S 606 1 3 1 0 6 1 605 4809 4 3000 A 0 0 0 0 0 0 0 0 0 0 0 0 0 0 0 0 0 0 0 0 0 0 0 0 0 0 0 0 iter
S 607 14 5 0 0 0 1 605 4795 0 400000 A 0 0 0 0 0 0 0 7 1 0 0 0 0 0 0 0 0 0 0 0 0 169 0 582 0 0 0 0 add_gaussians
F 607 1 606
S 608 23 5 0 0 0 609 582 4814 0 0 A 0 0 0 0 0 0 0 0 0 0 0 0 0 0 0 0 0 0 0 0 0 0 0 0 0 0 0 0 add_domain_potential
S 609 14 5 0 0 0 1 608 4814 0 400000 A 0 0 0 0 0 0 0 9 0 0 0 0 0 0 0 0 0 0 0 0 0 209 0 582 0 0 0 0 add_domain_potential
F 609 0
S 610 23 5 0 0 0 612 582 4835 0 0 A 0 0 0 0 0 0 0 0 0 0 0 0 0 0 0 0 0 0 0 0 0 0 0 0 0 0 0 0 evolve_collective_vars
S 611 1 3 1 0 9 1 610 4858 4 3000 A 0 0 0 0 0 0 0 0 0 0 0 0 0 0 0 0 0 0 0 0 0 0 0 0 0 0 0 0 norm_fe_grad
S 612 14 5 0 0 0 1 610 4835 0 400000 A 0 0 0 0 0 0 0 10 1 0 0 0 0 0 0 0 0 0 0 0 0 266 0 582 0 0 0 0 evolve_collective_vars
F 612 1 611
S 613 23 5 0 0 0 614 582 4871 0 0 A 0 0 0 0 0 0 0 0 0 0 0 0 0 0 0 0 0 0 0 0 0 0 0 0 0 0 0 0 impose_domain_constraints
S 614 14 5 0 0 0 1 613 4871 0 400000 A 0 0 0 0 0 0 0 12 0 0 0 0 0 0 0 0 0 0 0 0 0 312 0 582 0 0 0 0 impose_domain_constraints
F 614 0
S 615 23 5 0 0 0 616 582 4897 0 0 A 0 0 0 0 0 0 0 0 0 0 0 0 0 0 0 0 0 0 0 0 0 0 0 0 0 0 0 0 set_target
S 616 14 5 0 0 0 1 615 4897 0 400000 A 0 0 0 0 0 0 0 13 0 0 0 0 0 0 0 0 0 0 0 0 0 374 0 582 0 0 0 0 set_target
F 616 0
S 617 23 5 0 0 0 621 582 4908 0 0 A 0 0 0 0 0 0 0 0 0 0 0 0 0 0 0 0 0 0 0 0 0 0 0 0 0 0 0 0 mean_force
S 618 1 3 1 0 6 1 617 4919 4 3000 A 0 0 0 0 0 0 0 0 0 0 0 0 0 0 0 0 0 0 0 0 0 0 0 0 0 0 0 0 step
S 619 1 3 1 0 9 1 617 4924 4 3000 A 0 0 0 0 0 0 0 0 0 0 0 0 0 0 0 0 0 0 0 0 0 0 0 0 0 0 0 0 etot
S 620 1 3 1 0 9 1 617 4929 4 3000 A 0 0 0 0 0 0 0 0 0 0 0 0 0 0 0 0 0 0 0 0 0 0 0 0 0 0 0 0 energy_units
S 621 14 5 0 0 0 1 617 4908 0 400000 A 0 0 0 0 0 0 0 14 3 0 0 0 0 0 0 0 0 0 0 0 0 389 0 582 0 0 0 0 mean_force
F 621 3 618 619 620
A 17 1 0 0 0 6 602 0 0 0 0 0 0 0 0 0 0 0 0 0
A 18 1 0 0 0 6 598 0 0 0 0 0 0 0 0 0 0 0 0 0
A 19 1 0 0 0 6 603 0 0 0 0 0 0 0 0 0 0 0 0 0
A 20 1 0 0 0 6 600 0 0 0 0 0 0 0 0 0 0 0 0 0
A 21 1 0 0 0 6 599 0 0 0 0 0 0 0 0 0 0 0 0 0
A 22 1 0 0 0 6 604 0 0 0 0 0 0 0 0 0 0 0 0 0
A 23 1 0 0 0 6 601 0 0 0 0 0 0 0 0 0 0 0 0 0
Z
Z
