V26 metadyn_io
14 metadyn_io.F90 S582 0
04/24/2012  15:51:51
use xml_io_base private
use kinds private
use xml_io_base private
use kinds private
enduse
D 1175 18 61
D 1177 21 9 2 1597 1603 1 1 0 0 1
 3 1598 3 3 1598 1599
 3 1600 1601 3 1600 1602
D 1180 21 9 2 1604 1610 1 1 0 0 1
 3 1605 3 3 1605 1606
 3 1607 1608 3 1607 1609
D 1183 21 9 2 1611 1617 1 1 0 0 1
 3 1612 3 3 1612 1613
 3 1614 1615 3 1614 1616
S 582 24 0 0 0 6 1 0 4658 10015 0 A 0 0 0 0 0 0 0 0 0 0 0 0 0 0 0 0 0 0 0 0 0 11 0 0 0 0 0 0 metadyn_io
S 584 23 0 0 0 9 590 582 4675 14 0 A 0 0 0 0 0 0 0 0 0 0 0 0 0 0 0 0 0 0 0 0 0 0 0 582 0 0 0 0 dp
S 587 23 0 0 0 9 4495 582 4702 14 0 A 0 0 0 0 0 0 0 0 0 0 0 0 0 0 0 0 0 0 0 0 0 0 0 582 0 0 0 0 create_directory
R 590 16 1 kinds dp
S 609 3 0 0 0 6 1 1 0 0 0 A 0 0 0 0 0 0 0 0 0 65278 0 0 0 0 0 0 0 0 0 0 0 0 0 0 0 0 0 0 6
R 4495 14 49 xml_io_base create_directory
S 4934 6 4 0 0 1175 1 582 6591 14 0 A 0 0 0 0 0 0 0 0 0 0 0 0 4938 0 0 0 0 0 0 0 0 0 0 582 0 0 0 0 attr
S 4935 27 0 0 0 9 4939 582 24520 0 0 A 0 0 0 0 0 0 0 0 0 0 0 0 0 0 0 0 0 0 0 0 0 0 0 582 0 0 0 0 write_metadyn_restart
S 4936 27 0 0 0 9 4953 582 24542 0 0 A 0 0 0 0 0 0 0 0 0 0 0 0 0 0 0 0 0 0 0 0 0 0 0 582 0 0 0 0 read_metadyn_restart
S 4937 27 0 0 0 9 4965 582 24563 0 0 A 0 0 0 0 0 0 0 0 0 0 0 0 0 0 0 0 0 0 0 0 0 0 0 582 0 0 0 0 write_axsf_file
S 4938 11 0 0 0 9 4492 582 24579 40800010 801000 A 0 0 0 0 0 65278 0 0 4934 4934 0 0 0 0 0 0 0 0 0 0 0 0 0 0 0 0 0 0 _metadyn_io$5
S 4939 23 5 0 0 0 4945 582 24520 0 0 A 0 0 0 0 0 0 0 0 0 0 0 0 0 0 0 0 0 0 0 0 0 0 0 0 0 0 0 0 write_metadyn_restart
S 4940 1 3 1 0 28 1 4939 23194 14 43000 A 0 0 0 0 0 0 0 0 0 0 0 0 0 0 0 0 0 0 0 0 0 0 0 0 0 0 0 0 dirname
S 4941 1 3 1 0 6 1 4939 23259 14 3000 A 0 0 0 0 0 0 0 0 0 0 0 0 0 0 0 0 0 0 0 0 0 0 0 0 0 0 0 0 iter
S 4942 7 3 1 0 1177 1 4939 23491 20000014 10003000 A 0 0 0 0 0 0 0 0 0 0 0 0 0 0 0 0 0 0 0 0 0 0 0 0 0 0 0 0 tau
S 4943 1 3 1 0 9 1 4939 24593 14 3000 A 0 0 0 0 0 0 0 0 0 0 0 0 0 0 0 0 0 0 0 0 0 0 0 0 0 0 0 0 energy
S 4944 1 3 1 0 9 1 4939 23502 14 3000 A 0 0 0 0 0 0 0 0 0 0 0 0 0 0 0 0 0 0 0 0 0 0 0 0 0 0 0 0 pos_unit
S 4945 14 5 0 0 0 1 4939 24520 20000000 400000 A 0 0 0 0 0 0 0 2228 5 0 0 0 0 0 0 0 0 0 0 0 0 37 0 582 0 0 0 0 write_metadyn_restart
F 4945 5 4940 4941 4942 4943 4944
S 4946 6 1 0 0 6 1 4939 6857 40800016 3000 A 0 0 0 0 0 0 0 0 0 0 0 0 0 0 0 0 0 0 0 0 0 0 0 0 0 0 0 0 z_b_0_1
S 4947 6 1 0 0 6 1 4939 24600 40800016 3000 A 0 0 0 0 0 0 0 0 0 0 0 0 0 0 0 0 0 0 0 0 0 0 0 0 0 0 0 0 z_b_2_1
S 4948 6 1 0 0 6 1 4939 24608 40800016 3000 A 0 0 0 0 0 0 0 0 0 0 0 0 0 0 0 0 0 0 0 0 0 0 0 0 0 0 0 0 z_b_3_1
S 4949 6 1 0 0 6 1 4939 24616 40800016 3000 A 0 0 0 0 0 0 0 0 0 0 0 0 0 0 0 0 0 0 0 0 0 0 0 0 0 0 0 0 z_b_5_1
S 4950 6 1 0 0 6 1 4939 24624 40800016 3000 A 0 0 0 0 0 0 0 0 0 0 0 0 0 0 0 0 0 0 0 0 0 0 0 0 0 0 0 0 z_b_6_1
S 4951 6 1 0 0 6 1 4939 24632 40800016 3000 A 0 0 0 0 0 0 0 0 0 0 0 0 0 0 0 0 0 0 0 0 0 0 0 0 0 0 0 0 z_e_1877
S 4952 6 1 0 0 6 1 4939 24641 40800016 3000 A 0 0 0 0 0 0 0 0 0 0 0 0 0 0 0 0 0 0 0 0 0 0 0 0 0 0 0 0 z_e_1880
S 4953 23 5 0 0 0 4957 582 24542 0 0 A 0 0 0 0 0 0 0 0 0 0 0 0 0 0 0 0 0 0 0 0 0 0 0 0 0 0 0 0 read_metadyn_restart
S 4954 1 3 1 0 28 1 4953 23194 14 43000 A 0 0 0 0 0 0 0 0 0 0 0 0 0 0 0 0 0 0 0 0 0 0 0 0 0 0 0 0 dirname
S 4955 7 3 2 0 1180 1 4953 23491 20000014 10003000 A 0 0 0 0 0 0 0 0 0 0 0 0 0 0 0 0 0 0 0 0 0 0 0 0 0 0 0 0 tau
S 4956 1 3 1 0 9 1 4953 23502 14 3000 A 0 0 0 0 0 0 0 0 0 0 0 0 0 0 0 0 0 0 0 0 0 0 0 0 0 0 0 0 pos_unit
S 4957 14 5 0 0 0 1 4953 24542 20000000 400000 A 0 0 0 0 0 0 0 2234 3 0 0 0 0 0 0 0 0 0 0 0 0 161 0 582 0 0 0 0 read_metadyn_restart
F 4957 3 4954 4955 4956
S 4958 6 1 0 0 6 1 4953 6857 40800016 3000 A 0 0 0 0 0 0 0 0 0 0 0 0 0 0 0 0 0 0 0 0 0 0 0 0 0 0 0 0 z_b_0_1
S 4959 6 1 0 0 6 1 4953 24600 40800016 3000 A 0 0 0 0 0 0 0 0 0 0 0 0 0 0 0 0 0 0 0 0 0 0 0 0 0 0 0 0 z_b_2_1
S 4960 6 1 0 0 6 1 4953 24608 40800016 3000 A 0 0 0 0 0 0 0 0 0 0 0 0 0 0 0 0 0 0 0 0 0 0 0 0 0 0 0 0 z_b_3_1
S 4961 6 1 0 0 6 1 4953 24616 40800016 3000 A 0 0 0 0 0 0 0 0 0 0 0 0 0 0 0 0 0 0 0 0 0 0 0 0 0 0 0 0 z_b_5_1
S 4962 6 1 0 0 6 1 4953 24624 40800016 3000 A 0 0 0 0 0 0 0 0 0 0 0 0 0 0 0 0 0 0 0 0 0 0 0 0 0 0 0 0 z_b_6_1
S 4963 6 1 0 0 6 1 4953 24650 40800016 3000 A 0 0 0 0 0 0 0 0 0 0 0 0 0 0 0 0 0 0 0 0 0 0 0 0 0 0 0 0 z_e_1884
S 4964 6 1 0 0 6 1 4953 24659 40800016 3000 A 0 0 0 0 0 0 0 0 0 0 0 0 0 0 0 0 0 0 0 0 0 0 0 0 0 0 0 0 z_e_1887
S 4965 23 5 0 0 0 4969 582 24563 0 0 A 0 0 0 0 0 0 0 0 0 0 0 0 0 0 0 0 0 0 0 0 0 0 0 0 0 0 0 0 write_axsf_file
S 4966 1 3 1 0 6 1 4965 24668 14 3000 A 0 0 0 0 0 0 0 0 0 0 0 0 0 0 0 0 0 0 0 0 0 0 0 0 0 0 0 0 image
S 4967 7 3 1 0 1183 1 4965 23491 20000014 10003000 A 0 0 0 0 0 0 0 0 0 0 0 0 0 0 0 0 0 0 0 0 0 0 0 0 0 0 0 0 tau
S 4968 1 3 1 0 9 1 4965 24674 14 3000 A 0 0 0 0 0 0 0 0 0 0 0 0 0 0 0 0 0 0 0 0 0 0 0 0 0 0 0 0 tau_units
S 4969 14 5 0 0 0 1 4965 24563 20000000 400000 A 0 0 0 0 0 0 0 2238 3 0 0 0 0 0 0 0 0 0 0 0 0 287 0 582 0 0 0 0 write_axsf_file
F 4969 3 4966 4967 4968
S 4970 6 1 0 0 6 1 4965 6857 40800016 3000 A 0 0 0 0 0 0 0 0 0 0 0 0 0 0 0 0 0 0 0 0 0 0 0 0 0 0 0 0 z_b_0_1
S 4971 6 1 0 0 6 1 4965 24600 40800016 3000 A 0 0 0 0 0 0 0 0 0 0 0 0 0 0 0 0 0 0 0 0 0 0 0 0 0 0 0 0 z_b_2_1
S 4972 6 1 0 0 6 1 4965 24608 40800016 3000 A 0 0 0 0 0 0 0 0 0 0 0 0 0 0 0 0 0 0 0 0 0 0 0 0 0 0 0 0 z_b_3_1
S 4973 6 1 0 0 6 1 4965 24616 40800016 3000 A 0 0 0 0 0 0 0 0 0 0 0 0 0 0 0 0 0 0 0 0 0 0 0 0 0 0 0 0 z_b_5_1
S 4974 6 1 0 0 6 1 4965 24624 40800016 3000 A 0 0 0 0 0 0 0 0 0 0 0 0 0 0 0 0 0 0 0 0 0 0 0 0 0 0 0 0 z_b_6_1
S 4975 6 1 0 0 6 1 4965 24684 40800016 3000 A 0 0 0 0 0 0 0 0 0 0 0 0 0 0 0 0 0 0 0 0 0 0 0 0 0 0 0 0 z_e_2429
S 4976 6 1 0 0 6 1 4965 24693 40800016 3000 A 0 0 0 0 0 0 0 0 0 0 0 0 0 0 0 0 0 0 0 0 0 0 0 0 0 0 0 0 z_e_2432
A 61 2 0 0 0 6 609 0 0 0 61 0 0 0 0 0 0 0 0 0
A 1597 1 0 0 1157 6 4950 0 0 0 0 0 0 0 0 0 0 0 0 0
A 1598 1 0 0 1400 6 4946 0 0 0 0 0 0 0 0 0 0 0 0 0
A 1599 1 0 0 1410 6 4951 0 0 0 0 0 0 0 0 0 0 0 0 0
A 1600 1 0 0 1404 6 4948 0 0 0 0 0 0 0 0 0 0 0 0 0
A 1601 1 0 0 1402 6 4947 0 0 0 0 0 0 0 0 0 0 0 0 0
A 1602 1 0 0 1156 6 4952 0 0 0 0 0 0 0 0 0 0 0 0 0
A 1603 1 0 0 1155 6 4949 0 0 0 0 0 0 0 0 0 0 0 0 0
A 1604 1 0 0 1159 6 4962 0 0 0 0 0 0 0 0 0 0 0 0 0
A 1605 1 0 0 267 6 4958 0 0 0 0 0 0 0 0 0 0 0 0 0
A 1606 1 0 0 1162 6 4963 0 0 0 0 0 0 0 0 0 0 0 0 0
A 1607 1 0 0 269 6 4960 0 0 0 0 0 0 0 0 0 0 0 0 0
A 1608 1 0 0 1416 6 4959 0 0 0 0 0 0 0 0 0 0 0 0 0
A 1609 1 0 0 1161 6 4964 0 0 0 0 0 0 0 0 0 0 0 0 0
A 1610 1 0 0 0 6 4961 0 0 0 0 0 0 0 0 0 0 0 0 0
A 1611 1 0 0 1167 6 4974 0 0 0 0 0 0 0 0 0 0 0 0 0
A 1612 1 0 0 1169 6 4970 0 0 0 0 0 0 0 0 0 0 0 0 0
A 1613 1 0 0 1170 6 4975 0 0 0 0 0 0 0 0 0 0 0 0 0
A 1614 1 0 0 1171 6 4972 0 0 0 0 0 0 0 0 0 0 0 0 0
A 1615 1 0 0 1168 6 4971 0 0 0 0 0 0 0 0 0 0 0 0 0
A 1616 1 0 0 276 6 4976 0 0 0 0 0 0 0 0 0 0 0 0 0
A 1617 1 0 0 1165 6 4973 0 0 0 0 0 0 0 0 0 0 0 0 0
Z
Z
