V26 metadyn_vars
16 metadyn_vars.F90 S582 0
04/24/2012  15:51:04
use kinds private
use kinds private
enduse
D 56 21 9 1 30 29 0 1 0 0 1
 21 25 27 21 25 23
D 59 21 6 1 0 18 0 0 0 0 0
 0 18 0 3 18 0
D 62 21 9 1 39 38 0 1 0 0 1
 33 36 37 33 36 34
D 65 21 6 1 0 18 0 0 0 0 0
 0 18 0 3 18 0
D 68 21 9 1 48 47 0 1 0 0 1
 42 45 46 42 45 43
D 71 21 6 1 0 18 0 0 0 0 0
 0 18 0 3 18 0
D 74 21 9 1 57 56 0 1 0 0 1
 51 54 55 51 54 52
D 77 21 6 1 0 18 0 0 0 0 0
 0 18 0 3 18 0
D 80 21 9 1 66 65 0 1 0 0 1
 60 63 64 60 63 61
D 83 21 6 1 0 18 0 0 0 0 0
 0 18 0 3 18 0
D 86 21 9 1 75 74 0 1 0 0 1
 69 72 73 69 72 70
D 89 21 6 1 0 18 0 0 0 0 0
 0 18 0 3 18 0
D 92 21 9 2 94 93 0 1 0 0 1
 80 83 90 80 83 81
 85 89 92 85 89 87
D 95 21 6 1 0 78 0 0 0 0 0
 0 78 0 3 78 0
D 98 18 95
S 582 24 0 0 0 6 1 0 4658 10005 0 A 0 0 0 0 0 0 0 0 0 0 0 0 0 0 0 0 0 0 0 0 0 11 0 0 0 0 0 0 metadyn_vars
S 584 23 0 0 0 9 587 582 4677 4 0 A 0 0 0 0 0 0 0 0 0 0 0 0 0 0 0 0 0 0 0 0 0 0 0 582 0 0 0 0 dp
S 585 3 0 0 0 6 1 1 0 0 0 A 0 0 0 0 0 0 0 0 0 8 0 0 0 0 0 0 0 0 0 0 0 0 0 0 0 0 0 0 6
R 587 16 1 kinds dp
S 594 6 4 0 0 6 595 582 4711 4 0 A 0 0 0 0 0 0 0 0 0 0 0 0 657 0 0 0 0 0 0 0 0 0 0 582 0 0 0 0 ncolvar
S 595 6 4 0 0 6 596 582 4719 4 0 A 0 0 0 0 0 4 0 0 0 0 0 0 657 0 0 0 0 0 0 0 0 0 0 582 0 0 0 0 fe_nstep
S 596 6 4 0 0 6 597 582 4728 4 0 A 0 0 0 0 0 8 0 0 0 0 0 0 657 0 0 0 0 0 0 0 0 0 0 582 0 0 0 0 sw_nstep
S 597 6 4 0 0 6 599 582 4737 4 0 A 0 0 0 0 0 12 0 0 0 0 0 0 657 0 0 0 0 0 0 0 0 0 0 582 0 0 0 0 eq_nstep
S 598 7 6 0 0 56 1 582 4746 10a00004 51 A 0 0 0 0 0 0 602 0 0 0 604 0 0 0 0 0 0 0 0 601 0 0 603 582 0 0 0 0 dfe_acc
S 599 6 4 0 0 6 610 582 4754 40800006 0 A 0 0 0 0 0 16 0 0 0 0 0 0 657 0 0 0 0 0 0 0 0 0 0 582 0 0 0 0 z_b_0
S 600 3 0 0 0 6 0 1 0 0 0 A 0 0 0 0 0 0 0 0 0 18 0 0 0 0 0 0 0 0 0 0 0 0 0 0 0 0 0 0 6
S 601 8 4 0 0 59 612 582 4760 40822064 1020 A 0 0 0 0 0 0 0 0 0 0 0 0 657 0 0 0 0 0 0 0 0 0 0 582 0 0 0 0 dfe_acc$sd
S 602 6 4 0 0 7 603 582 4771 40802061 1020 A 0 0 0 0 0 72 0 0 0 0 0 0 657 0 0 0 0 0 0 0 0 0 0 582 0 0 0 0 dfe_acc$p
S 603 6 4 0 0 7 601 582 4781 40802060 1020 A 0 0 0 0 0 80 0 0 0 0 0 0 657 0 0 0 0 0 0 0 0 0 0 582 0 0 0 0 dfe_acc$o
S 604 22 1 0 0 9 1 582 4791 40000000 1000 A 0 0 0 0 0 0 0 598 0 0 0 0 601 0 0 0 0 0 0 0 0 0 0 582 0 0 0 0 dfe_acc$arrdsc
S 605 3 0 0 0 6 0 1 0 0 0 A 0 0 0 0 0 0 0 0 0 13 0 0 0 0 0 0 0 0 0 0 0 0 0 0 0 0 0 0 6
S 606 3 0 0 0 6 0 1 0 0 0 A 0 0 0 0 0 0 0 0 0 14 0 0 0 0 0 0 0 0 0 0 0 0 0 0 0 0 0 0 6
S 607 3 0 0 0 6 0 1 0 0 0 A 0 0 0 0 0 0 0 0 0 17 0 0 0 0 0 0 0 0 0 0 0 0 0 0 0 0 0 0 6
S 608 3 0 0 0 6 0 1 0 0 0 A 0 0 0 0 0 0 0 0 0 7 0 0 0 0 0 0 0 0 0 0 0 0 0 0 0 0 0 0 6
S 609 7 6 0 0 62 1 582 4806 10a00004 51 A 0 0 0 0 0 0 612 0 0 0 614 0 0 0 0 0 0 0 0 611 0 0 613 582 0 0 0 0 fe_grad
S 610 6 4 0 0 6 616 582 4814 40800006 0 A 0 0 0 0 0 20 0 0 0 0 0 0 657 0 0 0 0 0 0 0 0 0 0 582 0 0 0 0 z_b_1
S 611 8 4 0 0 65 618 582 4820 40822064 1020 A 0 0 0 0 0 88 0 0 0 0 0 0 657 0 0 0 0 0 0 0 0 0 0 582 0 0 0 0 fe_grad$sd
S 612 6 4 0 0 7 613 582 4831 40802061 1020 A 0 0 0 0 0 160 0 0 0 0 0 0 657 0 0 0 0 0 0 0 0 0 0 582 0 0 0 0 fe_grad$p
S 613 6 4 0 0 7 611 582 4841 40802060 1020 A 0 0 0 0 0 168 0 0 0 0 0 0 657 0 0 0 0 0 0 0 0 0 0 582 0 0 0 0 fe_grad$o
S 614 22 1 0 0 9 1 582 4851 40000000 1000 A 0 0 0 0 0 0 0 609 0 0 0 0 611 0 0 0 0 0 0 0 0 0 0 582 0 0 0 0 fe_grad$arrdsc
S 615 7 6 0 0 68 1 582 4866 10a00004 51 A 0 0 0 0 0 0 618 0 0 0 620 0 0 0 0 0 0 0 0 617 0 0 619 582 0 0 0 0 new_target
S 616 6 4 0 0 6 622 582 4877 40800006 0 A 0 0 0 0 0 24 0 0 0 0 0 0 657 0 0 0 0 0 0 0 0 0 0 582 0 0 0 0 z_b_2
S 617 8 4 0 0 71 624 582 4883 40822064 1020 A 0 0 0 0 0 176 0 0 0 0 0 0 657 0 0 0 0 0 0 0 0 0 0 582 0 0 0 0 new_target$sd
S 618 6 4 0 0 7 619 582 4897 40802061 1020 A 0 0 0 0 0 248 0 0 0 0 0 0 657 0 0 0 0 0 0 0 0 0 0 582 0 0 0 0 new_target$p
S 619 6 4 0 0 7 617 582 4910 40802060 1020 A 0 0 0 0 0 256 0 0 0 0 0 0 657 0 0 0 0 0 0 0 0 0 0 582 0 0 0 0 new_target$o
S 620 22 1 0 0 6 1 582 4923 40000000 1000 A 0 0 0 0 0 0 0 615 0 0 0 0 617 0 0 0 0 0 0 0 0 0 0 582 0 0 0 0 new_target$arrdsc
S 621 7 6 0 0 74 1 582 4941 10a00004 51 A 0 0 0 0 0 0 624 0 0 0 626 0 0 0 0 0 0 0 0 623 0 0 625 582 0 0 0 0 to_target
S 622 6 4 0 0 6 627 582 4951 40800006 0 A 0 0 0 0 0 28 0 0 0 0 0 0 657 0 0 0 0 0 0 0 0 0 0 582 0 0 0 0 z_b_3
S 623 8 4 0 0 77 632 582 4957 40822064 1020 A 0 0 0 0 0 264 0 0 0 0 0 0 657 0 0 0 0 0 0 0 0 0 0 582 0 0 0 0 to_target$sd
S 624 6 4 0 0 7 625 582 4970 40802061 1020 A 0 0 0 0 0 336 0 0 0 0 0 0 657 0 0 0 0 0 0 0 0 0 0 582 0 0 0 0 to_target$p
S 625 6 4 0 0 7 623 582 4982 40802060 1020 A 0 0 0 0 0 344 0 0 0 0 0 0 657 0 0 0 0 0 0 0 0 0 0 582 0 0 0 0 to_target$o
S 626 22 1 0 0 9 1 582 4994 40000000 1000 A 0 0 0 0 0 0 0 621 0 0 0 0 623 0 0 0 0 0 0 0 0 0 0 582 0 0 0 0 to_target$arrdsc
S 627 6 4 0 0 16 628 582 5011 4 0 A 0 0 0 0 0 32 0 0 0 0 0 0 657 0 0 0 0 0 0 0 0 0 0 582 0 0 0 0 to_new_target
S 628 6 4 0 0 6 630 582 5025 4 0 A 0 0 0 0 0 36 0 0 0 0 0 0 657 0 0 0 0 0 0 0 0 0 0 582 0 0 0 0 max_metadyn_iter
S 629 7 6 0 0 80 1 582 5042 10a00004 51 A 0 0 0 0 0 0 632 0 0 0 634 0 0 0 0 0 0 0 0 631 0 0 633 582 0 0 0 0 fe_step
S 630 6 4 0 0 6 636 582 5050 40800006 0 A 0 0 0 0 0 40 0 0 0 0 0 0 657 0 0 0 0 0 0 0 0 0 0 582 0 0 0 0 z_b_4
S 631 8 4 0 0 83 638 582 5056 40822064 1020 A 0 0 0 0 0 352 0 0 0 0 0 0 657 0 0 0 0 0 0 0 0 0 0 582 0 0 0 0 fe_step$sd
S 632 6 4 0 0 7 633 582 5067 40802061 1020 A 0 0 0 0 0 424 0 0 0 0 0 0 657 0 0 0 0 0 0 0 0 0 0 582 0 0 0 0 fe_step$p
S 633 6 4 0 0 7 631 582 5077 40802060 1020 A 0 0 0 0 0 432 0 0 0 0 0 0 657 0 0 0 0 0 0 0 0 0 0 582 0 0 0 0 fe_step$o
S 634 22 1 0 0 9 1 582 5087 40000000 1000 A 0 0 0 0 0 0 0 629 0 0 0 0 631 0 0 0 0 0 0 0 0 0 0 582 0 0 0 0 fe_step$arrdsc
S 635 7 6 0 0 86 1 582 5102 10a00004 51 A 0 0 0 0 0 0 638 0 0 0 640 0 0 0 0 0 0 0 0 637 0 0 639 582 0 0 0 0 gaussian_pos
S 636 6 4 0 0 6 642 582 5115 40800006 0 A 0 0 0 0 0 44 0 0 0 0 0 0 657 0 0 0 0 0 0 0 0 0 0 582 0 0 0 0 z_b_5
S 637 8 4 0 0 89 646 582 5121 40822064 1020 A 0 0 0 0 0 440 0 0 0 0 0 0 657 0 0 0 0 0 0 0 0 0 0 582 0 0 0 0 gaussian_pos$sd
S 638 6 4 0 0 7 639 582 5137 40802061 1020 A 0 0 0 0 0 512 0 0 0 0 0 0 657 0 0 0 0 0 0 0 0 0 0 582 0 0 0 0 gaussian_pos$p
S 639 6 4 0 0 7 637 582 5152 40802060 1020 A 0 0 0 0 0 520 0 0 0 0 0 0 657 0 0 0 0 0 0 0 0 0 0 582 0 0 0 0 gaussian_pos$o
S 640 22 1 0 0 9 1 582 5167 40000000 1000 A 0 0 0 0 0 0 0 635 0 0 0 0 637 0 0 0 0 0 0 0 0 0 0 582 0 0 0 0 gaussian_pos$arrdsc
S 641 7 6 0 0 92 1 582 5187 10a00004 51 A 0 0 0 0 0 0 646 0 0 0 648 0 0 0 0 0 0 0 0 645 0 0 647 582 0 0 0 0 metadyn_history
S 642 6 4 0 0 6 643 582 5203 40800006 0 A 0 0 0 0 0 48 0 0 0 0 0 0 657 0 0 0 0 0 0 0 0 0 0 582 0 0 0 0 z_b_6
S 643 6 4 0 0 6 654 582 5209 40800006 0 A 0 0 0 0 0 52 0 0 0 0 0 0 657 0 0 0 0 0 0 0 0 0 0 582 0 0 0 0 z_b_7
S 644 3 0 0 0 6 0 1 0 0 0 A 0 0 0 0 0 0 0 0 0 24 0 0 0 0 0 0 0 0 0 0 0 0 0 0 0 0 0 0 6
S 645 8 4 0 0 95 594 582 5215 40822064 1020 A 0 0 0 0 0 528 0 0 0 0 0 0 657 0 0 0 0 0 0 0 0 0 0 582 0 0 0 0 metadyn_history$sd
S 646 6 4 0 0 7 647 582 5234 40802061 1020 A 0 0 0 0 0 624 0 0 0 0 0 0 657 0 0 0 0 0 0 0 0 0 0 582 0 0 0 0 metadyn_history$p
S 647 6 4 0 0 7 645 582 5252 40802060 1020 A 0 0 0 0 0 632 0 0 0 0 0 0 657 0 0 0 0 0 0 0 0 0 0 582 0 0 0 0 metadyn_history$o
S 648 22 1 0 0 6 1 582 5270 40000000 1000 A 0 0 0 0 0 0 0 641 0 0 0 0 645 0 0 0 0 0 0 0 0 0 0 582 0 0 0 0 metadyn_history$arrdsc
S 649 3 0 0 0 6 0 1 0 0 0 A 0 0 0 0 0 0 0 0 0 19 0 0 0 0 0 0 0 0 0 0 0 0 0 0 0 0 0 0 6
S 650 3 0 0 0 6 0 1 0 0 0 A 0 0 0 0 0 0 0 0 0 20 0 0 0 0 0 0 0 0 0 0 0 0 0 0 0 0 0 0 6
S 651 3 0 0 0 6 0 1 0 0 0 A 0 0 0 0 0 0 0 0 0 23 0 0 0 0 0 0 0 0 0 0 0 0 0 0 0 0 0 0 6
S 652 6 4 0 0 9 653 582 5293 4 0 A 0 0 0 0 0 0 0 0 0 0 0 0 658 0 0 0 0 0 0 0 0 0 0 582 0 0 0 0 g_amplitude
S 653 6 4 0 0 9 1 582 5305 4 0 A 0 0 0 0 0 8 0 0 0 0 0 0 658 0 0 0 0 0 0 0 0 0 0 582 0 0 0 0 etot_av
S 654 6 4 0 0 6 1 582 5313 4 0 A 0 0 0 0 0 56 0 0 0 0 0 0 657 0 0 0 0 0 0 0 0 0 0 582 0 0 0 0 first_metadyn_iter
S 655 3 0 0 0 6 0 1 0 0 0 A 0 0 0 0 0 0 0 0 0 80 0 0 0 0 0 0 0 0 0 0 0 0 0 0 0 0 0 0 6
S 656 6 4 0 0 98 1 582 5332 4 0 A 0 0 0 0 0 0 0 0 0 0 0 0 659 0 0 0 0 0 0 0 0 0 0 582 0 0 0 0 metadyn_fmt
S 657 11 0 0 0 9 1 582 5344 40800000 801000 A 0 0 0 0 0 700 0 0 602 654 0 0 0 0 0 0 0 0 0 0 0 0 0 0 0 0 0 0 _metadyn_vars$0
S 658 11 0 0 0 9 657 582 5360 40800000 801000 A 0 0 0 0 0 16 0 0 652 653 0 0 0 0 0 0 0 0 0 0 0 0 0 0 0 0 0 0 _metadyn_vars$2
S 659 11 0 0 0 9 658 582 5376 40800000 801000 A 0 0 0 0 0 80 0 0 656 656 0 0 0 0 0 0 0 0 0 0 0 0 0 0 0 0 0 0 _metadyn_vars$1
S 660 23 5 0 0 0 661 582 5392 0 0 A 0 0 0 0 0 0 0 0 0 0 0 0 0 0 0 0 0 0 0 0 0 0 0 0 0 0 0 0 init_metadyn_vars
S 661 14 5 0 0 0 1 660 5392 0 400000 A 0 0 0 0 0 0 0 4 0 0 0 0 0 0 0 0 0 0 0 0 0 55 0 582 0 0 0 0 init_metadyn_vars
F 661 0
S 662 23 5 0 0 0 663 582 5410 0 0 A 0 0 0 0 0 0 0 0 0 0 0 0 0 0 0 0 0 0 0 0 0 0 0 0 0 0 0 0 deallocate_metadyn_vars
S 663 14 5 0 0 0 1 662 5410 0 400000 A 0 0 0 0 0 0 0 5 0 0 0 0 0 0 0 0 0 0 0 0 0 95 0 582 0 0 0 0 deallocate_metadyn_vars
F 663 0
A 13 2 0 0 0 6 585 0 0 0 13 0 0 0 0 0 0 0 0 0
A 18 2 0 0 0 6 600 0 0 0 18 0 0 0 0 0 0 0 0 0
A 19 2 0 0 0 6 605 0 0 0 19 0 0 0 0 0 0 0 0 0
A 20 1 0 1 0 59 601 0 0 0 0 0 0 0 0 0 0 0 0 0
A 21 10 0 0 0 6 20 1 0 0 0 0 0 0 0 0 0 0 0 0
X 1 19
A 22 2 0 0 0 6 606 0 0 0 22 0 0 0 0 0 0 0 0 0
A 23 10 0 0 21 6 20 4 0 0 0 0 0 0 0 0 0 0 0 0
X 1 22
A 24 4 0 0 0 6 23 0 3 0 0 0 0 2 0 0 0 0 0 0
A 25 4 0 0 0 6 21 0 24 0 0 0 0 1 0 0 0 0 0 0
A 26 2 0 0 0 6 607 0 0 0 26 0 0 0 0 0 0 0 0 0
A 27 10 0 0 23 6 20 7 0 0 0 0 0 0 0 0 0 0 0 0
X 1 26
A 28 2 0 0 0 6 608 0 0 0 28 0 0 0 0 0 0 0 0 0
A 29 10 0 0 27 6 20 10 0 0 0 0 0 0 0 0 0 0 0 0
X 1 28
A 30 10 0 0 29 6 20 13 0 0 0 0 0 0 0 0 0 0 0 0
X 1 13
A 32 1 0 1 0 65 611 0 0 0 0 0 0 0 0 0 0 0 0 0
A 33 10 0 0 0 6 32 1 0 0 0 0 0 0 0 0 0 0 0 0
X 1 19
A 34 10 0 0 33 6 32 4 0 0 0 0 0 0 0 0 0 0 0 0
X 1 22
A 35 4 0 0 0 6 34 0 3 0 0 0 0 2 0 0 0 0 0 0
A 36 4 0 0 0 6 33 0 35 0 0 0 0 1 0 0 0 0 0 0
A 37 10 0 0 34 6 32 7 0 0 0 0 0 0 0 0 0 0 0 0
X 1 26
A 38 10 0 0 37 6 32 10 0 0 0 0 0 0 0 0 0 0 0 0
X 1 28
A 39 10 0 0 38 6 32 13 0 0 0 0 0 0 0 0 0 0 0 0
X 1 13
A 41 1 0 1 0 71 617 0 0 0 0 0 0 0 0 0 0 0 0 0
A 42 10 0 0 0 6 41 1 0 0 0 0 0 0 0 0 0 0 0 0
X 1 19
A 43 10 0 0 42 6 41 4 0 0 0 0 0 0 0 0 0 0 0 0
X 1 22
A 44 4 0 0 0 6 43 0 3 0 0 0 0 2 0 0 0 0 0 0
A 45 4 0 0 0 6 42 0 44 0 0 0 0 1 0 0 0 0 0 0
A 46 10 0 0 43 6 41 7 0 0 0 0 0 0 0 0 0 0 0 0
X 1 26
A 47 10 0 0 46 6 41 10 0 0 0 0 0 0 0 0 0 0 0 0
X 1 28
A 48 10 0 0 47 6 41 13 0 0 0 0 0 0 0 0 0 0 0 0
X 1 13
A 50 1 0 1 0 77 623 0 0 0 0 0 0 0 0 0 0 0 0 0
A 51 10 0 0 0 6 50 1 0 0 0 0 0 0 0 0 0 0 0 0
X 1 19
A 52 10 0 0 51 6 50 4 0 0 0 0 0 0 0 0 0 0 0 0
X 1 22
A 53 4 0 0 0 6 52 0 3 0 0 0 0 2 0 0 0 0 0 0
A 54 4 0 0 0 6 51 0 53 0 0 0 0 1 0 0 0 0 0 0
A 55 10 0 0 52 6 50 7 0 0 0 0 0 0 0 0 0 0 0 0
X 1 26
A 56 10 0 0 55 6 50 10 0 0 0 0 0 0 0 0 0 0 0 0
X 1 28
A 57 10 0 0 56 6 50 13 0 0 0 0 0 0 0 0 0 0 0 0
X 1 13
A 59 1 0 1 0 83 631 0 0 0 0 0 0 0 0 0 0 0 0 0
A 60 10 0 0 0 6 59 1 0 0 0 0 0 0 0 0 0 0 0 0
X 1 19
A 61 10 0 0 60 6 59 4 0 0 0 0 0 0 0 0 0 0 0 0
X 1 22
A 62 4 0 0 0 6 61 0 3 0 0 0 0 2 0 0 0 0 0 0
A 63 4 0 0 0 6 60 0 62 0 0 0 0 1 0 0 0 0 0 0
A 64 10 0 0 61 6 59 7 0 0 0 0 0 0 0 0 0 0 0 0
X 1 26
A 65 10 0 0 64 6 59 10 0 0 0 0 0 0 0 0 0 0 0 0
X 1 28
A 66 10 0 0 65 6 59 13 0 0 0 0 0 0 0 0 0 0 0 0
X 1 13
A 68 1 0 1 0 89 637 0 0 0 0 0 0 0 0 0 0 0 0 0
A 69 10 0 0 0 6 68 1 0 0 0 0 0 0 0 0 0 0 0 0
X 1 19
A 70 10 0 0 69 6 68 4 0 0 0 0 0 0 0 0 0 0 0 0
X 1 22
A 71 4 0 0 0 6 70 0 3 0 0 0 0 2 0 0 0 0 0 0
A 72 4 0 0 0 6 69 0 71 0 0 0 0 1 0 0 0 0 0 0
A 73 10 0 0 70 6 68 7 0 0 0 0 0 0 0 0 0 0 0 0
X 1 26
A 74 10 0 0 73 6 68 10 0 0 0 0 0 0 0 0 0 0 0 0
X 1 28
A 75 10 0 0 74 6 68 13 0 0 0 0 0 0 0 0 0 0 0 0
X 1 13
A 78 2 0 0 0 6 644 0 0 0 78 0 0 0 0 0 0 0 0 0
A 79 1 0 3 0 95 645 0 0 0 0 0 0 0 0 0 0 0 0 0
A 80 10 0 0 0 6 79 1 0 0 0 0 0 0 0 0 0 0 0 0
X 1 19
A 81 10 0 0 80 6 79 4 0 0 0 0 0 0 0 0 0 0 0 0
X 1 22
A 82 4 0 0 10 6 81 0 3 0 0 0 0 2 0 0 0 0 0 0
A 83 4 0 0 0 6 80 0 82 0 0 0 0 1 0 0 0 0 0 0
A 84 2 0 0 0 6 649 0 0 0 84 0 0 0 0 0 0 0 0 0
A 85 10 0 0 81 6 79 16 0 0 0 0 0 0 0 0 0 0 0 0
X 1 84
A 86 2 0 0 0 6 650 0 0 0 86 0 0 0 0 0 0 0 0 0
A 87 10 0 0 85 6 79 19 0 0 0 0 0 0 0 0 0 0 0 0
X 1 86
A 88 4 0 0 0 6 87 0 3 0 0 0 0 2 0 0 0 0 0 0
A 89 4 0 0 0 6 85 0 88 0 0 0 0 1 0 0 0 0 0 0
A 90 10 0 0 87 6 79 7 0 0 0 0 0 0 0 0 0 0 0 0
X 1 26
A 91 2 0 0 0 6 651 0 0 0 91 0 0 0 0 0 0 0 0 0
A 92 10 0 0 90 6 79 22 0 0 0 0 0 0 0 0 0 0 0 0
X 1 91
A 93 10 0 0 92 6 79 10 0 0 0 0 0 0 0 0 0 0 0 0
X 1 28
A 94 10 0 0 93 6 79 13 0 0 0 0 0 0 0 0 0 0 0 0
X 1 13
A 95 2 0 0 0 6 655 0 0 0 95 0 0 0 0 0 0 0 0 0
Z
Z
