V26 mp_global
13 mp_global.F90 S582 0
04/24/2012  15:51:13
use kinds public 0 indirect
use parallel_include public 0 direct
enduse
D 71 21 6 1 3 31 0 0 0 0 0
 0 31 3 3 31 31
D 74 21 6 1 3 31 0 0 0 0 0
 0 31 3 3 31 31
D 77 21 6 1 458 457 0 1 0 0 1
 452 455 456 452 455 453
D 80 21 6 1 0 72 0 0 0 0 0
 0 72 0 3 72 0
D 83 21 6 1 467 466 0 1 0 0 1
 461 464 465 461 464 462
D 86 21 6 1 0 72 0 0 0 0 0
 0 72 0 3 72 0
S 582 24 0 0 0 6 1 0 4658 10005 0 A 0 0 0 0 0 0 0 0 0 0 0 0 0 0 0 0 0 0 0 0 0 11 0 0 0 0 0 0 mp_global
S 585 3 0 0 0 6 1 1 0 0 0 A 0 0 0 0 0 0 0 0 0 8 0 0 0 0 0 0 0 0 0 0 0 0 0 0 0 0 0 0 6
S 597 3 0 0 0 6 1 1 0 0 0 A 0 0 0 0 0 0 0 0 0 2 0 0 0 0 0 0 0 0 0 0 0 0 0 0 0 0 0 0 6
S 604 3 0 0 0 6 1 1 0 0 0 A 0 0 0 0 0 0 0 0 0 17 0 0 0 0 0 0 0 0 0 0 0 0 0 0 0 0 0 0 6
S 614 3 0 0 0 6 1 1 0 0 0 A 0 0 0 0 0 0 0 0 0 14 0 0 0 0 0 0 0 0 0 0 0 0 0 0 0 0 0 0 6
S 620 3 0 0 0 6 1 1 0 0 0 A 0 0 0 0 0 0 0 0 0 18 0 0 0 0 0 0 0 0 0 0 0 0 0 0 0 0 0 0 6
S 632 3 0 0 0 6 1 1 0 0 0 A 0 0 0 0 0 0 0 0 0 13 0 0 0 0 0 0 0 0 0 0 0 0 0 0 0 0 0 0 6
S 636 3 0 0 0 6 1 1 0 0 0 A 0 0 0 0 0 0 0 0 0 7 0 0 0 0 0 0 0 0 0 0 0 0 0 0 0 0 0 0 6
S 1035 6 4 0 0 6 1036 582 8856 80000c 0 A 0 0 0 0 0 0 0 0 0 0 0 0 1077 0 0 0 0 0 0 0 0 0 0 582 0 0 0 0 mpime
S 1036 6 4 0 0 6 1037 582 8862 80000c 0 A 0 0 0 0 0 4 0 0 0 0 0 0 1077 0 0 0 0 0 0 0 0 0 0 582 0 0 0 0 root
S 1037 6 4 0 0 6 1038 582 8867 80000c 0 A 0 0 0 0 0 8 0 0 0 0 0 0 1077 0 0 0 0 0 0 0 0 0 0 582 0 0 0 0 nproc
S 1038 6 4 0 0 6 1039 582 8873 80000c 0 A 0 0 0 0 0 12 0 0 0 0 0 0 1077 0 0 0 0 0 0 0 0 0 0 582 0 0 0 0 nproc_file
S 1039 6 4 0 0 6 1040 582 8884 80000c 0 A 0 0 0 0 0 16 0 0 0 0 0 0 1077 0 0 0 0 0 0 0 0 0 0 582 0 0 0 0 world_comm
S 1040 6 4 0 0 6 1041 582 8895 80000c 0 A 0 0 0 0 0 20 0 0 0 0 0 0 1077 0 0 0 0 0 0 0 0 0 0 582 0 0 0 0 kunit
S 1041 6 4 0 0 6 1042 582 8901 80000c 0 A 0 0 0 0 0 24 0 0 0 0 0 0 1077 0 0 0 0 0 0 0 0 0 0 582 0 0 0 0 me_pool
S 1042 6 4 0 0 6 1043 582 8909 80000c 0 A 0 0 0 0 0 28 0 0 0 0 0 0 1077 0 0 0 0 0 0 0 0 0 0 582 0 0 0 0 me_image
S 1043 6 4 0 0 6 1044 582 8918 80000c 0 A 0 0 0 0 0 32 0 0 0 0 0 0 1077 0 0 0 0 0 0 0 0 0 0 582 0 0 0 0 root_pool
S 1044 6 4 0 0 6 1045 582 8928 80000c 0 A 0 0 0 0 0 36 0 0 0 0 0 0 1077 0 0 0 0 0 0 0 0 0 0 582 0 0 0 0 root_image
S 1045 6 4 0 0 6 1046 582 8939 80000c 0 A 0 0 0 0 0 40 0 0 0 0 0 0 1077 0 0 0 0 0 0 0 0 0 0 582 0 0 0 0 my_pool_id
S 1046 6 4 0 0 6 1047 582 8950 80000c 0 A 0 0 0 0 0 44 0 0 0 0 0 0 1077 0 0 0 0 0 0 0 0 0 0 582 0 0 0 0 my_image_id
S 1047 7 4 0 4 71 1048 582 8962 80000c 100 A 0 0 0 0 0 48 0 0 0 0 0 0 1077 0 0 0 0 0 0 0 0 0 0 582 0 0 0 0 me_ortho
S 1048 6 4 0 0 6 1049 582 8971 80000c 0 A 0 0 0 0 0 56 0 0 0 0 0 0 1077 0 0 0 0 0 0 0 0 0 0 582 0 0 0 0 npool
S 1049 6 4 0 0 6 1050 582 8977 80000c 0 A 0 0 0 0 0 60 0 0 0 0 0 0 1077 0 0 0 0 0 0 0 0 0 0 582 0 0 0 0 nimage
S 1050 6 4 0 0 6 1051 582 8984 80000c 0 A 0 0 0 0 0 64 0 0 0 0 0 0 1077 0 0 0 0 0 0 0 0 0 0 582 0 0 0 0 nogrp
S 1051 6 4 0 0 6 1052 582 8990 80000c 0 A 0 0 0 0 0 68 0 0 0 0 0 0 1077 0 0 0 0 0 0 0 0 0 0 582 0 0 0 0 npgrp
S 1052 6 4 0 0 6 1053 582 8996 80000c 0 A 0 0 0 0 0 72 0 0 0 0 0 0 1077 0 0 0 0 0 0 0 0 0 0 582 0 0 0 0 nproc_pool
S 1053 6 4 0 0 6 1054 582 9007 80000c 0 A 0 0 0 0 0 76 0 0 0 0 0 0 1077 0 0 0 0 0 0 0 0 0 0 582 0 0 0 0 nproc_pool_file
S 1054 6 4 0 0 6 1055 582 9023 80000c 0 A 0 0 0 0 0 80 0 0 0 0 0 0 1077 0 0 0 0 0 0 0 0 0 0 582 0 0 0 0 nproc_image
S 1055 7 4 0 4 74 1056 582 9035 80000c 100 A 0 0 0 0 0 96 0 0 0 0 0 0 1077 0 0 0 0 0 0 0 0 0 0 582 0 0 0 0 np_ortho
S 1056 6 4 0 0 6 1069 582 9044 80000c 0 A 0 0 0 0 0 104 0 0 0 0 0 0 1077 0 0 0 0 0 0 0 0 0 0 582 0 0 0 0 leg_ortho
S 1057 7 6 0 0 77 1 582 9054 10a00004 51 A 0 0 0 0 0 0 1060 0 0 0 1062 0 0 0 0 0 0 0 0 1059 0 0 1061 582 0 0 0 0 nolist
S 1058 6 4 0 0 6 1064 582 9061 40800006 0 A 0 0 0 0 0 0 0 0 0 0 0 0 1078 0 0 0 0 0 0 0 0 0 0 582 0 0 0 0 z_b_0
S 1059 8 4 0 0 80 1066 582 9067 40822064 1020 A 0 0 0 0 0 0 0 0 0 0 0 0 1078 0 0 0 0 0 0 0 0 0 0 582 0 0 0 0 nolist$sd
S 1060 6 4 0 0 7 1061 582 9077 40802061 1020 A 0 0 0 0 0 72 0 0 0 0 0 0 1078 0 0 0 0 0 0 0 0 0 0 582 0 0 0 0 nolist$p
S 1061 6 4 0 0 7 1059 582 9086 40802060 1020 A 0 0 0 0 0 80 0 0 0 0 0 0 1078 0 0 0 0 0 0 0 0 0 0 582 0 0 0 0 nolist$o
S 1062 22 1 0 0 6 1 582 9095 40000000 1000 A 0 0 0 0 0 0 0 1057 0 0 0 0 1059 0 0 0 0 0 0 0 0 0 0 582 0 0 0 0 nolist$arrdsc
S 1063 7 6 0 0 83 1 582 9109 10a00004 51 A 0 0 0 0 0 0 1066 0 0 0 1068 0 0 0 0 0 0 0 0 1065 0 0 1067 582 0 0 0 0 nplist
S 1064 6 4 0 0 6 1 582 9116 40800006 0 A 0 0 0 0 0 4 0 0 0 0 0 0 1078 0 0 0 0 0 0 0 0 0 0 582 0 0 0 0 z_b_1
S 1065 8 4 0 0 86 1058 582 9122 40822064 1020 A 0 0 0 0 0 88 0 0 0 0 0 0 1078 0 0 0 0 0 0 0 0 0 0 582 0 0 0 0 nplist$sd
S 1066 6 4 0 0 7 1067 582 9132 40802061 1020 A 0 0 0 0 0 160 0 0 0 0 0 0 1078 0 0 0 0 0 0 0 0 0 0 582 0 0 0 0 nplist$p
S 1067 6 4 0 0 7 1065 582 9141 40802060 1020 A 0 0 0 0 0 168 0 0 0 0 0 0 1078 0 0 0 0 0 0 0 0 0 0 582 0 0 0 0 nplist$o
S 1068 22 1 0 0 6 1 582 9150 40000000 1000 A 0 0 0 0 0 0 0 1063 0 0 0 0 1065 0 0 0 0 0 0 0 0 0 0 582 0 0 0 0 nplist$arrdsc
S 1069 6 4 0 0 6 1070 582 9164 80000c 0 A 0 0 0 0 0 108 0 0 0 0 0 0 1077 0 0 0 0 0 0 0 0 0 0 582 0 0 0 0 inter_pool_comm
S 1070 6 4 0 0 6 1071 582 9180 80000c 0 A 0 0 0 0 0 112 0 0 0 0 0 0 1077 0 0 0 0 0 0 0 0 0 0 582 0 0 0 0 intra_pool_comm
S 1071 6 4 0 0 6 1072 582 9196 80000c 0 A 0 0 0 0 0 116 0 0 0 0 0 0 1077 0 0 0 0 0 0 0 0 0 0 582 0 0 0 0 inter_image_comm
S 1072 6 4 0 0 6 1073 582 9213 80000c 0 A 0 0 0 0 0 120 0 0 0 0 0 0 1077 0 0 0 0 0 0 0 0 0 0 582 0 0 0 0 intra_image_comm
S 1073 6 4 0 0 6 1074 582 9230 80000c 0 A 0 0 0 0 0 124 0 0 0 0 0 0 1077 0 0 0 0 0 0 0 0 0 0 582 0 0 0 0 pgrp_comm
S 1074 6 4 0 0 6 1075 582 9240 80000c 0 A 0 0 0 0 0 128 0 0 0 0 0 0 1077 0 0 0 0 0 0 0 0 0 0 582 0 0 0 0 ogrp_comm
S 1075 6 4 0 0 6 1076 582 9250 80000c 0 A 0 0 0 0 0 132 0 0 0 0 0 0 1077 0 0 0 0 0 0 0 0 0 0 582 0 0 0 0 ortho_comm
S 1076 6 4 0 0 6 1 582 9261 80000c 0 A 0 0 0 0 0 136 0 0 0 0 0 0 1077 0 0 0 0 0 0 0 0 0 0 582 0 0 0 0 ortho_comm_id
S 1077 11 0 0 4 9 1034 582 9275 40800000 801000 A 0 0 0 0 0 140 0 0 1035 1076 0 0 0 0 0 0 0 0 0 0 0 0 0 0 0 0 0 0 _mp_global$8
S 1078 11 0 0 0 9 1077 582 9288 40800000 801000 A 0 0 0 0 0 184 0 0 1060 1064 0 0 0 0 0 0 0 0 0 0 0 0 0 0 0 0 0 0 _mp_global$0
S 1079 23 5 0 0 0 1084 582 9301 0 0 A 0 0 0 0 0 0 0 0 0 0 0 0 0 0 0 0 0 0 0 0 0 0 0 0 0 0 0 0 mp_global_start
S 1080 1 3 1 0 6 1 1079 9317 4 3000 A 0 0 0 0 0 0 0 0 0 0 0 0 0 0 0 0 0 0 0 0 0 0 0 0 0 0 0 0 root_i
S 1081 1 3 1 0 6 1 1079 9324 4 3000 A 0 0 0 0 0 0 0 0 0 0 0 0 0 0 0 0 0 0 0 0 0 0 0 0 0 0 0 0 mpime_i
S 1082 1 3 1 0 6 1 1079 9332 4 3000 A 0 0 0 0 0 0 0 0 0 0 0 0 0 0 0 0 0 0 0 0 0 0 0 0 0 0 0 0 group_i
S 1083 1 3 1 0 6 1 1079 9340 4 3000 A 0 0 0 0 0 0 0 0 0 0 0 0 0 0 0 0 0 0 0 0 0 0 0 0 0 0 0 0 nproc_i
S 1084 14 5 0 0 0 1 1079 9301 0 400000 A 0 0 0 0 0 0 0 4 4 0 0 0 0 0 0 0 0 0 0 0 0 70 0 582 0 0 0 0 mp_global_start
F 1084 4 1080 1081 1082 1083
S 1085 23 5 0 0 0 1090 582 9348 0 0 A 0 0 0 0 0 0 0 0 0 0 0 0 0 0 0 0 0 0 0 0 0 0 0 0 0 0 0 0 mp_global_group_start
S 1086 1 3 1 0 6 1 1085 9370 4 3000 A 0 0 0 0 0 0 0 0 0 0 0 0 0 0 0 0 0 0 0 0 0 0 0 0 0 0 0 0 mep
S 1087 1 3 1 0 6 1 1085 9374 4 3000 A 0 0 0 0 0 0 0 0 0 0 0 0 0 0 0 0 0 0 0 0 0 0 0 0 0 0 0 0 myp
S 1088 1 3 1 0 6 1 1085 9378 4 3000 A 0 0 0 0 0 0 0 0 0 0 0 0 0 0 0 0 0 0 0 0 0 0 0 0 0 0 0 0 nprocp
S 1089 1 3 1 0 6 1 1085 9385 4 3000 A 0 0 0 0 0 0 0 0 0 0 0 0 0 0 0 0 0 0 0 0 0 0 0 0 0 0 0 0 num_of_pools
S 1090 14 5 0 0 0 1 1085 9348 0 400000 A 0 0 0 0 0 0 0 9 4 0 0 0 0 0 0 0 0 0 0 0 0 104 0 582 0 0 0 0 mp_global_group_start
F 1090 4 1086 1087 1088 1089
S 1091 23 5 0 0 0 1095 582 9398 0 0 A 0 0 0 0 0 0 0 0 0 0 0 0 0 0 0 0 0 0 0 0 0 0 0 0 0 0 0 0 init_pool
S 1092 1 3 1 0 6 1 1091 9408 80000004 3000 A 0 0 0 0 0 0 0 0 0 0 0 0 0 0 0 0 0 0 0 0 0 0 0 0 0 0 0 0 nimage_
S 1093 1 3 1 0 6 1 1091 9416 80000004 3000 A 0 0 0 0 0 0 0 0 0 0 0 0 0 0 0 0 0 0 0 0 0 0 0 0 0 0 0 0 ntask_groups_
S 1094 1 3 1 0 6 1 1091 9430 80000004 3000 A 0 0 0 0 0 0 0 0 0 0 0 0 0 0 0 0 0 0 0 0 0 0 0 0 0 0 0 0 nproc_ortho_
S 1095 14 5 0 0 0 1 1091 9398 0 400000 A 0 0 0 0 0 0 0 14 3 0 0 0 0 0 0 0 0 0 0 0 0 122 0 582 0 0 0 0 init_pool
F 1095 3 1092 1093 1094
S 1096 23 5 0 0 0 1097 582 9443 0 0 A 0 0 0 0 0 0 0 0 0 0 0 0 0 0 0 0 0 0 0 0 0 0 0 0 0 0 0 0 init_task_groups
S 1097 14 5 0 0 0 1 1096 9443 0 400000 A 0 0 0 0 0 0 0 18 0 0 0 0 0 0 0 0 0 0 0 0 0 236 0 582 0 0 0 0 init_task_groups
F 1097 0
S 1098 23 5 0 0 0 1101 582 9460 0 0 A 0 0 0 0 0 0 0 0 0 0 0 0 0 0 0 0 0 0 0 0 0 0 0 0 0 0 0 0 init_ortho_group
S 1099 1 3 1 0 6 1 1098 9477 4 3000 A 0 0 0 0 0 0 0 0 0 0 0 0 0 0 0 0 0 0 0 0 0 0 0 0 0 0 0 0 nproc_try
S 1100 1 3 1 0 6 1 1098 9487 4 3000 A 0 0 0 0 0 0 0 0 0 0 0 0 0 0 0 0 0 0 0 0 0 0 0 0 0 0 0 0 comm_all
S 1101 14 5 0 0 0 1 1098 9460 0 400000 A 0 0 0 0 0 0 0 19 2 0 0 0 0 0 0 0 0 0 0 0 0 316 0 582 0 0 0 0 init_ortho_group
F 1101 2 1099 1100
A 13 2 0 0 0 6 585 0 0 0 13 0 0 0 0 0 0 0 0 0
A 31 2 0 0 0 6 597 0 0 0 31 0 0 0 0 0 0 0 0 0
A 39 2 0 0 0 6 604 0 0 0 39 0 0 0 0 0 0 0 0 0
A 60 2 0 0 0 6 614 0 0 0 60 0 0 0 0 0 0 0 0 0
A 72 2 0 0 0 6 620 0 0 0 72 0 0 0 0 0 0 0 0 0
A 100 2 0 0 0 6 632 0 0 0 100 0 0 0 0 0 0 0 0 0
A 108 2 0 0 0 6 636 0 0 0 108 0 0 0 0 0 0 0 0 0
A 451 1 0 3 231 80 1059 0 0 0 0 0 0 0 0 0 0 0 0 0
A 452 10 0 0 350 6 451 1 0 0 0 0 0 0 0 0 0 0 0 0
X 1 100
A 453 10 0 0 452 6 451 4 0 0 0 0 0 0 0 0 0 0 0 0
X 1 60
A 454 4 0 0 438 6 453 0 3 0 0 0 0 2 0 0 0 0 0 0
A 455 4 0 0 263 6 452 0 454 0 0 0 0 1 0 0 0 0 0 0
A 456 10 0 0 453 6 451 7 0 0 0 0 0 0 0 0 0 0 0 0
X 1 39
A 457 10 0 0 456 6 451 10 0 0 0 0 0 0 0 0 0 0 0 0
X 1 108
A 458 10 0 0 457 6 451 13 0 0 0 0 0 0 0 0 0 0 0 0
X 1 13
A 460 1 0 3 242 86 1065 0 0 0 0 0 0 0 0 0 0 0 0 0
A 461 10 0 0 363 6 460 1 0 0 0 0 0 0 0 0 0 0 0 0
X 1 100
A 462 10 0 0 461 6 460 4 0 0 0 0 0 0 0 0 0 0 0 0
X 1 60
A 463 4 0 0 447 6 462 0 3 0 0 0 0 2 0 0 0 0 0 0
A 464 4 0 0 0 6 461 0 463 0 0 0 0 1 0 0 0 0 0 0
A 465 10 0 0 462 6 460 7 0 0 0 0 0 0 0 0 0 0 0 0
X 1 39
A 466 10 0 0 465 6 460 10 0 0 0 0 0 0 0 0 0 0 0 0
X 1 108
A 467 10 0 0 466 6 460 13 0 0 0 0 0 0 0 0 0 0 0 0
X 1 13
Z
Z
