V26 mp_wave
11 mp_wave.F90 S582 0
04/24/2012  15:51:03
enduse
D 56 21 12 1 12 15 1 1 0 0 1
 3 13 3 3 13 14
D 59 21 12 1 16 19 1 1 0 0 1
 3 17 3 3 17 18
D 62 21 6 1 20 23 1 1 0 0 1
 3 21 3 3 21 22
D 65 21 12 1 24 27 1 1 0 0 1
 3 25 3 3 25 26
D 68 21 12 1 28 31 1 1 0 0 1
 3 29 3 3 29 30
D 71 21 6 1 32 35 1 1 0 0 1
 3 33 3 3 33 34
D 74 21 9 1 36 39 1 1 0 0 1
 3 37 3 3 37 38
D 77 21 9 1 40 43 1 1 0 0 1
 3 41 3 3 41 42
D 80 21 6 1 44 47 1 1 0 0 1
 3 45 3 3 45 46
D 83 21 9 1 48 51 1 1 0 0 1
 3 49 3 3 49 50
D 86 21 9 1 52 55 1 1 0 0 1
 3 53 3 3 53 54
D 89 21 6 1 56 59 1 1 0 0 1
 3 57 3 3 57 58
D 92 21 6 1 60 63 1 1 0 0 1
 3 61 3 3 61 62
D 95 21 6 1 64 67 1 1 0 0 1
 3 65 3 3 65 66
D 98 21 6 1 68 71 1 1 0 0 1
 3 69 3 3 69 70
D 101 21 6 1 72 75 1 1 0 0 1
 3 73 3 3 73 74
D 104 21 6 1 76 79 1 1 0 0 1
 3 77 3 3 77 78
D 107 21 6 1 80 83 1 1 0 0 1
 3 81 3 3 81 82
D 110 21 6 1 84 87 1 1 0 0 1
 3 85 3 3 85 86
D 113 21 12 1 88 91 1 1 0 0 1
 3 89 3 3 89 90
D 116 21 12 1 92 95 1 1 0 0 1
 3 93 3 3 93 94
S 582 24 0 0 0 6 1 0 4658 10005 0 A 0 0 0 0 0 0 0 0 0 0 0 0 0 0 0 0 0 0 0 0 0 32 0 0 0 0 0 0 mp_wave
S 583 23 5 0 0 0 592 582 4666 0 0 A 0 0 0 0 0 0 0 0 0 0 0 0 0 0 0 0 0 0 0 0 0 0 0 0 0 0 0 0 mergewf
S 584 7 3 1 0 56 1 583 4674 20000004 10003000 A 0 0 0 0 0 0 0 0 0 0 0 0 0 0 0 0 0 0 0 0 0 0 0 0 0 0 0 0 pw
S 585 7 3 2 0 59 1 583 4677 20000004 10003000 A 0 0 0 0 0 0 0 0 0 0 0 0 0 0 0 0 0 0 0 0 0 0 0 0 0 0 0 0 pwt
S 586 1 3 1 0 6 1 583 4681 4 3000 A 0 0 0 0 0 0 0 0 0 0 0 0 0 0 0 0 0 0 0 0 0 0 0 0 0 0 0 0 ngwl
S 587 7 3 1 0 62 1 583 4686 20000004 10003000 A 0 0 0 0 0 0 0 0 0 0 0 0 0 0 0 0 0 0 0 0 0 0 0 0 0 0 0 0 ig_l2g
S 588 1 3 1 0 6 1 583 4693 4 3000 A 0 0 0 0 0 0 0 0 0 0 0 0 0 0 0 0 0 0 0 0 0 0 0 0 0 0 0 0 mpime
S 589 1 3 1 0 6 1 583 4699 4 3000 A 0 0 0 0 0 0 0 0 0 0 0 0 0 0 0 0 0 0 0 0 0 0 0 0 0 0 0 0 nproc
S 590 1 3 1 0 6 1 583 4705 4 3000 A 0 0 0 0 0 0 0 0 0 0 0 0 0 0 0 0 0 0 0 0 0 0 0 0 0 0 0 0 root
S 591 1 3 1 0 6 1 583 4710 4 3000 A 0 0 0 0 0 0 0 0 0 0 0 0 0 0 0 0 0 0 0 0 0 0 0 0 0 0 0 0 comm
S 592 14 5 0 0 0 1 583 4666 20000000 400000 A 0 0 0 0 0 0 0 2 8 0 0 0 0 0 0 0 0 0 0 0 0 39 0 582 0 0 0 0 mergewf
F 592 8 584 585 586 587 588 589 590 591
S 593 6 1 0 0 6 1 583 4715 40800006 3000 A 0 0 0 0 0 0 0 0 0 0 0 0 0 0 0 0 0 0 0 0 0 0 0 0 0 0 0 0 z_b_0
S 594 6 1 0 0 6 1 583 4721 40800006 3000 A 0 0 0 0 0 0 0 0 0 0 0 0 0 0 0 0 0 0 0 0 0 0 0 0 0 0 0 0 z_b_2
S 595 6 1 0 0 6 1 583 4727 40800006 3000 A 0 0 0 0 0 0 0 0 0 0 0 0 0 0 0 0 0 0 0 0 0 0 0 0 0 0 0 0 z_b_3
S 596 6 1 0 0 6 1 583 4733 40800006 3000 A 0 0 0 0 0 0 0 0 0 0 0 0 0 0 0 0 0 0 0 0 0 0 0 0 0 0 0 0 z_e_433
S 597 6 1 0 0 6 1 583 4741 40800006 3000 A 0 0 0 0 0 0 0 0 0 0 0 0 0 0 0 0 0 0 0 0 0 0 0 0 0 0 0 0 z_b_4
S 598 6 1 0 0 6 1 583 4747 40800006 3000 A 0 0 0 0 0 0 0 0 0 0 0 0 0 0 0 0 0 0 0 0 0 0 0 0 0 0 0 0 z_b_6
S 599 6 1 0 0 6 1 583 4753 40800006 3000 A 0 0 0 0 0 0 0 0 0 0 0 0 0 0 0 0 0 0 0 0 0 0 0 0 0 0 0 0 z_b_7
S 600 6 1 0 0 6 1 583 4759 40800006 3000 A 0 0 0 0 0 0 0 0 0 0 0 0 0 0 0 0 0 0 0 0 0 0 0 0 0 0 0 0 z_e_440
S 601 6 1 0 0 6 1 583 4767 40800006 3000 A 0 0 0 0 0 0 0 0 0 0 0 0 0 0 0 0 0 0 0 0 0 0 0 0 0 0 0 0 z_b_8
S 602 6 1 0 0 6 1 583 4773 40800006 3000 A 0 0 0 0 0 0 0 0 0 0 0 0 0 0 0 0 0 0 0 0 0 0 0 0 0 0 0 0 z_b_10
S 603 6 1 0 0 6 1 583 4780 40800006 3000 A 0 0 0 0 0 0 0 0 0 0 0 0 0 0 0 0 0 0 0 0 0 0 0 0 0 0 0 0 z_b_11
S 604 6 1 0 0 6 1 583 4787 40800006 3000 A 0 0 0 0 0 0 0 0 0 0 0 0 0 0 0 0 0 0 0 0 0 0 0 0 0 0 0 0 z_e_447
S 605 23 5 0 0 0 614 582 4795 0 0 A 0 0 0 0 0 0 0 0 0 0 0 0 0 0 0 0 0 0 0 0 0 0 0 0 0 0 0 0 splitwf
S 606 7 3 2 0 65 1 605 4674 20000004 10003000 A 0 0 0 0 0 0 0 0 0 0 0 0 0 0 0 0 0 0 0 0 0 0 0 0 0 0 0 0 pw
S 607 7 3 1 0 68 1 605 4677 20000004 10003000 A 0 0 0 0 0 0 0 0 0 0 0 0 0 0 0 0 0 0 0 0 0 0 0 0 0 0 0 0 pwt
S 608 1 3 1 0 6 1 605 4681 4 3000 A 0 0 0 0 0 0 0 0 0 0 0 0 0 0 0 0 0 0 0 0 0 0 0 0 0 0 0 0 ngwl
S 609 7 3 1 0 71 1 605 4686 20000004 10003000 A 0 0 0 0 0 0 0 0 0 0 0 0 0 0 0 0 0 0 0 0 0 0 0 0 0 0 0 0 ig_l2g
S 610 1 3 1 0 6 1 605 4693 4 3000 A 0 0 0 0 0 0 0 0 0 0 0 0 0 0 0 0 0 0 0 0 0 0 0 0 0 0 0 0 mpime
S 611 1 3 1 0 6 1 605 4699 4 3000 A 0 0 0 0 0 0 0 0 0 0 0 0 0 0 0 0 0 0 0 0 0 0 0 0 0 0 0 0 nproc
S 612 1 3 1 0 6 1 605 4705 4 3000 A 0 0 0 0 0 0 0 0 0 0 0 0 0 0 0 0 0 0 0 0 0 0 0 0 0 0 0 0 root
S 613 1 3 1 0 6 1 605 4710 4 3000 A 0 0 0 0 0 0 0 0 0 0 0 0 0 0 0 0 0 0 0 0 0 0 0 0 0 0 0 0 comm
S 614 14 5 0 0 0 1 605 4795 20000000 400000 A 0 0 0 0 0 0 0 11 8 0 0 0 0 0 0 0 0 0 0 0 0 131 0 582 0 0 0 0 splitwf
F 614 8 606 607 608 609 610 611 612 613
S 615 6 1 0 0 6 1 605 4715 40800006 3000 A 0 0 0 0 0 0 0 0 0 0 0 0 0 0 0 0 0 0 0 0 0 0 0 0 0 0 0 0 z_b_0
S 616 6 1 0 0 6 1 605 4721 40800006 3000 A 0 0 0 0 0 0 0 0 0 0 0 0 0 0 0 0 0 0 0 0 0 0 0 0 0 0 0 0 z_b_2
S 617 6 1 0 0 6 1 605 4727 40800006 3000 A 0 0 0 0 0 0 0 0 0 0 0 0 0 0 0 0 0 0 0 0 0 0 0 0 0 0 0 0 z_b_3
S 618 6 1 0 0 6 1 605 4803 40800006 3000 A 0 0 0 0 0 0 0 0 0 0 0 0 0 0 0 0 0 0 0 0 0 0 0 0 0 0 0 0 z_e_445
S 619 6 1 0 0 6 1 605 4741 40800006 3000 A 0 0 0 0 0 0 0 0 0 0 0 0 0 0 0 0 0 0 0 0 0 0 0 0 0 0 0 0 z_b_4
S 620 6 1 0 0 6 1 605 4747 40800006 3000 A 0 0 0 0 0 0 0 0 0 0 0 0 0 0 0 0 0 0 0 0 0 0 0 0 0 0 0 0 z_b_6
S 621 6 1 0 0 6 1 605 4753 40800006 3000 A 0 0 0 0 0 0 0 0 0 0 0 0 0 0 0 0 0 0 0 0 0 0 0 0 0 0 0 0 z_b_7
S 622 6 1 0 0 6 1 605 4811 40800006 3000 A 0 0 0 0 0 0 0 0 0 0 0 0 0 0 0 0 0 0 0 0 0 0 0 0 0 0 0 0 z_e_452
S 623 6 1 0 0 6 1 605 4767 40800006 3000 A 0 0 0 0 0 0 0 0 0 0 0 0 0 0 0 0 0 0 0 0 0 0 0 0 0 0 0 0 z_b_8
S 624 6 1 0 0 6 1 605 4773 40800006 3000 A 0 0 0 0 0 0 0 0 0 0 0 0 0 0 0 0 0 0 0 0 0 0 0 0 0 0 0 0 z_b_10
S 625 6 1 0 0 6 1 605 4780 40800006 3000 A 0 0 0 0 0 0 0 0 0 0 0 0 0 0 0 0 0 0 0 0 0 0 0 0 0 0 0 0 z_b_11
S 626 6 1 0 0 6 1 605 4819 40800006 3000 A 0 0 0 0 0 0 0 0 0 0 0 0 0 0 0 0 0 0 0 0 0 0 0 0 0 0 0 0 z_e_459
S 627 23 5 0 0 0 635 582 4827 0 0 A 0 0 0 0 0 0 0 0 0 0 0 0 0 0 0 0 0 0 0 0 0 0 0 0 0 0 0 0 mergerho
S 628 7 3 1 0 74 1 627 4836 20000004 10003000 A 0 0 0 0 0 0 0 0 0 0 0 0 0 0 0 0 0 0 0 0 0 0 0 0 0 0 0 0 rho
S 629 7 3 2 0 77 1 627 4840 20000004 10003000 A 0 0 0 0 0 0 0 0 0 0 0 0 0 0 0 0 0 0 0 0 0 0 0 0 0 0 0 0 rhot
S 630 1 3 1 0 6 1 627 4845 4 3000 A 0 0 0 0 0 0 0 0 0 0 0 0 0 0 0 0 0 0 0 0 0 0 0 0 0 0 0 0 ngl
S 631 7 3 1 0 80 1 627 4686 20000004 10003000 A 0 0 0 0 0 0 0 0 0 0 0 0 0 0 0 0 0 0 0 0 0 0 0 0 0 0 0 0 ig_l2g
S 632 1 3 1 0 6 1 627 4693 4 3000 A 0 0 0 0 0 0 0 0 0 0 0 0 0 0 0 0 0 0 0 0 0 0 0 0 0 0 0 0 mpime
S 633 1 3 1 0 6 1 627 4699 4 3000 A 0 0 0 0 0 0 0 0 0 0 0 0 0 0 0 0 0 0 0 0 0 0 0 0 0 0 0 0 nproc
S 634 1 3 1 0 6 1 627 4705 4 3000 A 0 0 0 0 0 0 0 0 0 0 0 0 0 0 0 0 0 0 0 0 0 0 0 0 0 0 0 0 root
S 635 14 5 0 0 0 1 627 4827 20000000 400000 A 0 0 0 0 0 0 0 20 7 0 0 0 0 0 0 0 0 0 0 0 0 215 0 582 0 0 0 0 mergerho
F 635 7 628 629 630 631 632 633 634
S 636 6 1 0 0 6 1 627 4715 40800006 3000 A 0 0 0 0 0 0 0 0 0 0 0 0 0 0 0 0 0 0 0 0 0 0 0 0 0 0 0 0 z_b_0
S 637 6 1 0 0 6 1 627 4721 40800006 3000 A 0 0 0 0 0 0 0 0 0 0 0 0 0 0 0 0 0 0 0 0 0 0 0 0 0 0 0 0 z_b_2
S 638 6 1 0 0 6 1 627 4727 40800006 3000 A 0 0 0 0 0 0 0 0 0 0 0 0 0 0 0 0 0 0 0 0 0 0 0 0 0 0 0 0 z_b_3
S 639 6 1 0 0 6 1 627 4849 40800006 3000 A 0 0 0 0 0 0 0 0 0 0 0 0 0 0 0 0 0 0 0 0 0 0 0 0 0 0 0 0 z_e_457
S 640 6 1 0 0 6 1 627 4741 40800006 3000 A 0 0 0 0 0 0 0 0 0 0 0 0 0 0 0 0 0 0 0 0 0 0 0 0 0 0 0 0 z_b_4
S 641 6 1 0 0 6 1 627 4747 40800006 3000 A 0 0 0 0 0 0 0 0 0 0 0 0 0 0 0 0 0 0 0 0 0 0 0 0 0 0 0 0 z_b_6
S 642 6 1 0 0 6 1 627 4753 40800006 3000 A 0 0 0 0 0 0 0 0 0 0 0 0 0 0 0 0 0 0 0 0 0 0 0 0 0 0 0 0 z_b_7
S 643 6 1 0 0 6 1 627 4857 40800006 3000 A 0 0 0 0 0 0 0 0 0 0 0 0 0 0 0 0 0 0 0 0 0 0 0 0 0 0 0 0 z_e_464
S 644 6 1 0 0 6 1 627 4767 40800006 3000 A 0 0 0 0 0 0 0 0 0 0 0 0 0 0 0 0 0 0 0 0 0 0 0 0 0 0 0 0 z_b_8
S 645 6 1 0 0 6 1 627 4773 40800006 3000 A 0 0 0 0 0 0 0 0 0 0 0 0 0 0 0 0 0 0 0 0 0 0 0 0 0 0 0 0 z_b_10
S 646 6 1 0 0 6 1 627 4780 40800006 3000 A 0 0 0 0 0 0 0 0 0 0 0 0 0 0 0 0 0 0 0 0 0 0 0 0 0 0 0 0 z_b_11
S 647 6 1 0 0 6 1 627 4865 40800006 3000 A 0 0 0 0 0 0 0 0 0 0 0 0 0 0 0 0 0 0 0 0 0 0 0 0 0 0 0 0 z_e_471
S 648 23 5 0 0 0 656 582 4873 0 0 A 0 0 0 0 0 0 0 0 0 0 0 0 0 0 0 0 0 0 0 0 0 0 0 0 0 0 0 0 splitrho
S 649 7 3 2 0 83 1 648 4836 20000004 10003000 A 0 0 0 0 0 0 0 0 0 0 0 0 0 0 0 0 0 0 0 0 0 0 0 0 0 0 0 0 rho
S 650 7 3 1 0 86 1 648 4840 20000004 10003000 A 0 0 0 0 0 0 0 0 0 0 0 0 0 0 0 0 0 0 0 0 0 0 0 0 0 0 0 0 rhot
S 651 1 3 1 0 6 1 648 4845 4 3000 A 0 0 0 0 0 0 0 0 0 0 0 0 0 0 0 0 0 0 0 0 0 0 0 0 0 0 0 0 ngl
S 652 7 3 1 0 89 1 648 4686 20000004 10003000 A 0 0 0 0 0 0 0 0 0 0 0 0 0 0 0 0 0 0 0 0 0 0 0 0 0 0 0 0 ig_l2g
S 653 1 3 1 0 6 1 648 4693 4 3000 A 0 0 0 0 0 0 0 0 0 0 0 0 0 0 0 0 0 0 0 0 0 0 0 0 0 0 0 0 mpime
S 654 1 3 1 0 6 1 648 4699 4 3000 A 0 0 0 0 0 0 0 0 0 0 0 0 0 0 0 0 0 0 0 0 0 0 0 0 0 0 0 0 nproc
S 655 1 3 1 0 6 1 648 4705 4 3000 A 0 0 0 0 0 0 0 0 0 0 0 0 0 0 0 0 0 0 0 0 0 0 0 0 0 0 0 0 root
S 656 14 5 0 0 0 1 648 4873 20000000 400000 A 0 0 0 0 0 0 0 28 7 0 0 0 0 0 0 0 0 0 0 0 0 289 0 582 0 0 0 0 splitrho
F 656 7 649 650 651 652 653 654 655
S 657 6 1 0 0 6 1 648 4715 40800006 3000 A 0 0 0 0 0 0 0 0 0 0 0 0 0 0 0 0 0 0 0 0 0 0 0 0 0 0 0 0 z_b_0
S 658 6 1 0 0 6 1 648 4721 40800006 3000 A 0 0 0 0 0 0 0 0 0 0 0 0 0 0 0 0 0 0 0 0 0 0 0 0 0 0 0 0 z_b_2
S 659 6 1 0 0 6 1 648 4727 40800006 3000 A 0 0 0 0 0 0 0 0 0 0 0 0 0 0 0 0 0 0 0 0 0 0 0 0 0 0 0 0 z_b_3
S 660 6 1 0 0 6 1 648 4882 40800006 3000 A 0 0 0 0 0 0 0 0 0 0 0 0 0 0 0 0 0 0 0 0 0 0 0 0 0 0 0 0 z_e_469
S 661 6 1 0 0 6 1 648 4741 40800006 3000 A 0 0 0 0 0 0 0 0 0 0 0 0 0 0 0 0 0 0 0 0 0 0 0 0 0 0 0 0 z_b_4
S 662 6 1 0 0 6 1 648 4747 40800006 3000 A 0 0 0 0 0 0 0 0 0 0 0 0 0 0 0 0 0 0 0 0 0 0 0 0 0 0 0 0 z_b_6
S 663 6 1 0 0 6 1 648 4753 40800006 3000 A 0 0 0 0 0 0 0 0 0 0 0 0 0 0 0 0 0 0 0 0 0 0 0 0 0 0 0 0 z_b_7
S 664 6 1 0 0 6 1 648 4890 40800006 3000 A 0 0 0 0 0 0 0 0 0 0 0 0 0 0 0 0 0 0 0 0 0 0 0 0 0 0 0 0 z_e_476
S 665 6 1 0 0 6 1 648 4767 40800006 3000 A 0 0 0 0 0 0 0 0 0 0 0 0 0 0 0 0 0 0 0 0 0 0 0 0 0 0 0 0 z_b_8
S 666 6 1 0 0 6 1 648 4773 40800006 3000 A 0 0 0 0 0 0 0 0 0 0 0 0 0 0 0 0 0 0 0 0 0 0 0 0 0 0 0 0 z_b_10
S 667 6 1 0 0 6 1 648 4780 40800006 3000 A 0 0 0 0 0 0 0 0 0 0 0 0 0 0 0 0 0 0 0 0 0 0 0 0 0 0 0 0 z_b_11
S 668 6 1 0 0 6 1 648 4898 40800006 3000 A 0 0 0 0 0 0 0 0 0 0 0 0 0 0 0 0 0 0 0 0 0 0 0 0 0 0 0 0 z_e_483
S 669 23 5 0 0 0 677 582 4906 0 0 A 0 0 0 0 0 0 0 0 0 0 0 0 0 0 0 0 0 0 0 0 0 0 0 0 0 0 0 0 mergeig
S 670 7 3 1 0 92 1 669 4914 20000004 10003000 A 0 0 0 0 0 0 0 0 0 0 0 0 0 0 0 0 0 0 0 0 0 0 0 0 0 0 0 0 igl
S 671 7 3 2 0 95 1 669 4918 20000004 10003000 A 0 0 0 0 0 0 0 0 0 0 0 0 0 0 0 0 0 0 0 0 0 0 0 0 0 0 0 0 igtot
S 672 1 3 1 0 6 1 669 4845 4 3000 A 0 0 0 0 0 0 0 0 0 0 0 0 0 0 0 0 0 0 0 0 0 0 0 0 0 0 0 0 ngl
S 673 1 3 1 0 6 1 669 4693 4 3000 A 0 0 0 0 0 0 0 0 0 0 0 0 0 0 0 0 0 0 0 0 0 0 0 0 0 0 0 0 mpime
S 674 1 3 1 0 6 1 669 4699 4 3000 A 0 0 0 0 0 0 0 0 0 0 0 0 0 0 0 0 0 0 0 0 0 0 0 0 0 0 0 0 nproc
S 675 1 3 1 0 6 1 669 4705 4 3000 A 0 0 0 0 0 0 0 0 0 0 0 0 0 0 0 0 0 0 0 0 0 0 0 0 0 0 0 0 root
S 676 1 3 1 0 6 1 669 4710 4 3000 A 0 0 0 0 0 0 0 0 0 0 0 0 0 0 0 0 0 0 0 0 0 0 0 0 0 0 0 0 comm
S 677 14 5 0 0 0 1 669 4906 20000000 400000 A 0 0 0 0 0 0 0 36 7 0 0 0 0 0 0 0 0 0 0 0 0 357 0 582 0 0 0 0 mergeig
F 677 7 670 671 672 673 674 675 676
S 678 6 1 0 0 6 1 669 4715 40800006 3000 A 0 0 0 0 0 0 0 0 0 0 0 0 0 0 0 0 0 0 0 0 0 0 0 0 0 0 0 0 z_b_0
S 679 6 1 0 0 6 1 669 4721 40800006 3000 A 0 0 0 0 0 0 0 0 0 0 0 0 0 0 0 0 0 0 0 0 0 0 0 0 0 0 0 0 z_b_2
S 680 6 1 0 0 6 1 669 4727 40800006 3000 A 0 0 0 0 0 0 0 0 0 0 0 0 0 0 0 0 0 0 0 0 0 0 0 0 0 0 0 0 z_b_3
S 681 6 1 0 0 6 1 669 4924 40800006 3000 A 0 0 0 0 0 0 0 0 0 0 0 0 0 0 0 0 0 0 0 0 0 0 0 0 0 0 0 0 z_e_481
S 682 6 1 0 0 6 1 669 4741 40800006 3000 A 0 0 0 0 0 0 0 0 0 0 0 0 0 0 0 0 0 0 0 0 0 0 0 0 0 0 0 0 z_b_4
S 683 6 1 0 0 6 1 669 4747 40800006 3000 A 0 0 0 0 0 0 0 0 0 0 0 0 0 0 0 0 0 0 0 0 0 0 0 0 0 0 0 0 z_b_6
S 684 6 1 0 0 6 1 669 4753 40800006 3000 A 0 0 0 0 0 0 0 0 0 0 0 0 0 0 0 0 0 0 0 0 0 0 0 0 0 0 0 0 z_b_7
S 685 6 1 0 0 6 1 669 4932 40800006 3000 A 0 0 0 0 0 0 0 0 0 0 0 0 0 0 0 0 0 0 0 0 0 0 0 0 0 0 0 0 z_e_488
S 686 23 5 0 0 0 694 582 4940 0 0 A 0 0 0 0 0 0 0 0 0 0 0 0 0 0 0 0 0 0 0 0 0 0 0 0 0 0 0 0 splitig
S 687 7 3 2 0 98 1 686 4914 20000004 10003000 A 0 0 0 0 0 0 0 0 0 0 0 0 0 0 0 0 0 0 0 0 0 0 0 0 0 0 0 0 igl
S 688 7 3 1 0 101 1 686 4918 20000004 10003000 A 0 0 0 0 0 0 0 0 0 0 0 0 0 0 0 0 0 0 0 0 0 0 0 0 0 0 0 0 igtot
S 689 1 3 1 0 6 1 686 4845 4 3000 A 0 0 0 0 0 0 0 0 0 0 0 0 0 0 0 0 0 0 0 0 0 0 0 0 0 0 0 0 ngl
S 690 1 3 1 0 6 1 686 4693 4 3000 A 0 0 0 0 0 0 0 0 0 0 0 0 0 0 0 0 0 0 0 0 0 0 0 0 0 0 0 0 mpime
S 691 1 3 1 0 6 1 686 4699 4 3000 A 0 0 0 0 0 0 0 0 0 0 0 0 0 0 0 0 0 0 0 0 0 0 0 0 0 0 0 0 nproc
S 692 1 3 1 0 6 1 686 4705 4 3000 A 0 0 0 0 0 0 0 0 0 0 0 0 0 0 0 0 0 0 0 0 0 0 0 0 0 0 0 0 root
S 693 1 3 1 0 6 1 686 4710 4 3000 A 0 0 0 0 0 0 0 0 0 0 0 0 0 0 0 0 0 0 0 0 0 0 0 0 0 0 0 0 comm
S 694 14 5 0 0 0 1 686 4940 20000000 400000 A 0 0 0 0 0 0 0 44 7 0 0 0 0 0 0 0 0 0 0 0 0 438 0 582 0 0 0 0 splitig
F 694 7 687 688 689 690 691 692 693
S 695 6 1 0 0 6 1 686 4715 40800006 3000 A 0 0 0 0 0 0 0 0 0 0 0 0 0 0 0 0 0 0 0 0 0 0 0 0 0 0 0 0 z_b_0
S 696 6 1 0 0 6 1 686 4721 40800006 3000 A 0 0 0 0 0 0 0 0 0 0 0 0 0 0 0 0 0 0 0 0 0 0 0 0 0 0 0 0 z_b_2
S 697 6 1 0 0 6 1 686 4727 40800006 3000 A 0 0 0 0 0 0 0 0 0 0 0 0 0 0 0 0 0 0 0 0 0 0 0 0 0 0 0 0 z_b_3
S 698 6 1 0 0 6 1 686 4948 40800006 3000 A 0 0 0 0 0 0 0 0 0 0 0 0 0 0 0 0 0 0 0 0 0 0 0 0 0 0 0 0 z_e_489
S 699 6 1 0 0 6 1 686 4741 40800006 3000 A 0 0 0 0 0 0 0 0 0 0 0 0 0 0 0 0 0 0 0 0 0 0 0 0 0 0 0 0 z_b_4
S 700 6 1 0 0 6 1 686 4747 40800006 3000 A 0 0 0 0 0 0 0 0 0 0 0 0 0 0 0 0 0 0 0 0 0 0 0 0 0 0 0 0 z_b_6
S 701 6 1 0 0 6 1 686 4753 40800006 3000 A 0 0 0 0 0 0 0 0 0 0 0 0 0 0 0 0 0 0 0 0 0 0 0 0 0 0 0 0 z_b_7
S 702 6 1 0 0 6 1 686 4956 40800006 3000 A 0 0 0 0 0 0 0 0 0 0 0 0 0 0 0 0 0 0 0 0 0 0 0 0 0 0 0 0 z_e_496
S 703 23 5 0 0 0 716 582 4964 0 0 A 0 0 0 0 0 0 0 0 0 0 0 0 0 0 0 0 0 0 0 0 0 0 0 0 0 0 0 0 pwscatter
S 704 7 3 0 0 113 1 703 4974 20000004 10003000 A 0 0 0 0 0 0 0 0 0 0 0 0 0 0 0 0 0 0 0 0 0 0 0 0 0 0 0 0 c
S 705 7 3 0 0 116 1 703 4976 20000004 10003000 A 0 0 0 0 0 0 0 0 0 0 0 0 0 0 0 0 0 0 0 0 0 0 0 0 0 0 0 0 ctmp
S 706 1 3 0 0 6 1 703 4981 4 3000 A 0 0 0 0 0 0 0 0 0 0 0 0 0 0 0 0 0 0 0 0 0 0 0 0 0 0 0 0 ngw
S 707 7 3 0 0 104 1 703 4985 20000004 10003000 A 0 0 0 0 0 0 0 0 0 0 0 0 0 0 0 0 0 0 0 0 0 0 0 0 0 0 0 0 indi_l
S 708 7 3 0 0 107 1 703 4992 20000004 10003000 A 0 0 0 0 0 0 0 0 0 0 0 0 0 0 0 0 0 0 0 0 0 0 0 0 0 0 0 0 sour_indi
S 709 7 3 0 0 110 1 703 5002 20000004 10003000 A 0 0 0 0 0 0 0 0 0 0 0 0 0 0 0 0 0 0 0 0 0 0 0 0 0 0 0 0 dest_indi
S 710 1 3 0 0 6 1 703 5012 4 3000 A 0 0 0 0 0 0 0 0 0 0 0 0 0 0 0 0 0 0 0 0 0 0 0 0 0 0 0 0 n_indi_rcv
S 711 1 3 0 0 6 1 703 5023 4 3000 A 0 0 0 0 0 0 0 0 0 0 0 0 0 0 0 0 0 0 0 0 0 0 0 0 0 0 0 0 n_indi_snd
S 712 1 3 0 0 6 1 703 5034 4 3000 A 0 0 0 0 0 0 0 0 0 0 0 0 0 0 0 0 0 0 0 0 0 0 0 0 0 0 0 0 icntix
S 713 1 3 1 0 6 1 703 4693 4 3000 A 0 0 0 0 0 0 0 0 0 0 0 0 0 0 0 0 0 0 0 0 0 0 0 0 0 0 0 0 mpime
S 714 1 3 1 0 6 1 703 4699 4 3000 A 0 0 0 0 0 0 0 0 0 0 0 0 0 0 0 0 0 0 0 0 0 0 0 0 0 0 0 0 nproc
S 715 1 3 1 0 6 1 703 5041 4 3000 A 0 0 0 0 0 0 0 0 0 0 0 0 0 0 0 0 0 0 0 0 0 0 0 0 0 0 0 0 group
S 716 14 5 0 0 0 1 703 4964 20000000 400000 A 0 0 0 0 0 0 0 52 12 0 0 0 0 0 0 0 0 0 0 0 0 516 0 582 0 0 0 0 pwscatter
F 716 12 704 705 706 707 708 709 710 711 712 713 714 715
S 717 6 1 0 0 6 1 703 4715 40800006 3000 A 0 0 0 0 0 0 0 0 0 0 0 0 0 0 0 0 0 0 0 0 0 0 0 0 0 0 0 0 z_b_0
S 718 6 1 0 0 6 1 703 4721 40800006 3000 A 0 0 0 0 0 0 0 0 0 0 0 0 0 0 0 0 0 0 0 0 0 0 0 0 0 0 0 0 z_b_2
S 719 6 1 0 0 6 1 703 4727 40800006 3000 A 0 0 0 0 0 0 0 0 0 0 0 0 0 0 0 0 0 0 0 0 0 0 0 0 0 0 0 0 z_b_3
S 720 6 1 0 0 6 1 703 5047 40800006 3000 A 0 0 0 0 0 0 0 0 0 0 0 0 0 0 0 0 0 0 0 0 0 0 0 0 0 0 0 0 z_e_497
S 721 6 1 0 0 6 1 703 4741 40800006 3000 A 0 0 0 0 0 0 0 0 0 0 0 0 0 0 0 0 0 0 0 0 0 0 0 0 0 0 0 0 z_b_4
S 722 6 1 0 0 6 1 703 4747 40800006 3000 A 0 0 0 0 0 0 0 0 0 0 0 0 0 0 0 0 0 0 0 0 0 0 0 0 0 0 0 0 z_b_6
S 723 6 1 0 0 6 1 703 4753 40800006 3000 A 0 0 0 0 0 0 0 0 0 0 0 0 0 0 0 0 0 0 0 0 0 0 0 0 0 0 0 0 z_b_7
S 724 6 1 0 0 6 1 703 5055 40800006 3000 A 0 0 0 0 0 0 0 0 0 0 0 0 0 0 0 0 0 0 0 0 0 0 0 0 0 0 0 0 z_e_504
S 725 6 1 0 0 6 1 703 4767 40800006 3000 A 0 0 0 0 0 0 0 0 0 0 0 0 0 0 0 0 0 0 0 0 0 0 0 0 0 0 0 0 z_b_8
S 726 6 1 0 0 6 1 703 4773 40800006 3000 A 0 0 0 0 0 0 0 0 0 0 0 0 0 0 0 0 0 0 0 0 0 0 0 0 0 0 0 0 z_b_10
S 727 6 1 0 0 6 1 703 4780 40800006 3000 A 0 0 0 0 0 0 0 0 0 0 0 0 0 0 0 0 0 0 0 0 0 0 0 0 0 0 0 0 z_b_11
S 728 6 1 0 0 6 1 703 5063 40800006 3000 A 0 0 0 0 0 0 0 0 0 0 0 0 0 0 0 0 0 0 0 0 0 0 0 0 0 0 0 0 z_e_511
S 729 6 1 0 0 6 1 703 5071 40800006 3000 A 0 0 0 0 0 0 0 0 0 0 0 0 0 0 0 0 0 0 0 0 0 0 0 0 0 0 0 0 z_b_12
S 730 6 1 0 0 6 1 703 5078 40800006 3000 A 0 0 0 0 0 0 0 0 0 0 0 0 0 0 0 0 0 0 0 0 0 0 0 0 0 0 0 0 z_b_14
S 731 6 1 0 0 6 1 703 5085 40800006 3000 A 0 0 0 0 0 0 0 0 0 0 0 0 0 0 0 0 0 0 0 0 0 0 0 0 0 0 0 0 z_b_15
S 732 6 1 0 0 6 1 703 5092 40800006 3000 A 0 0 0 0 0 0 0 0 0 0 0 0 0 0 0 0 0 0 0 0 0 0 0 0 0 0 0 0 z_e_518
S 733 6 1 0 0 6 1 703 5100 40800006 3000 A 0 0 0 0 0 0 0 0 0 0 0 0 0 0 0 0 0 0 0 0 0 0 0 0 0 0 0 0 z_b_16
S 734 6 1 0 0 6 1 703 5107 40800006 3000 A 0 0 0 0 0 0 0 0 0 0 0 0 0 0 0 0 0 0 0 0 0 0 0 0 0 0 0 0 z_b_18
S 735 6 1 0 0 6 1 703 5114 40800006 3000 A 0 0 0 0 0 0 0 0 0 0 0 0 0 0 0 0 0 0 0 0 0 0 0 0 0 0 0 0 z_b_19
S 736 6 1 0 0 6 1 703 5121 40800006 3000 A 0 0 0 0 0 0 0 0 0 0 0 0 0 0 0 0 0 0 0 0 0 0 0 0 0 0 0 0 z_e_525
A 12 1 0 0 0 6 595 0 0 0 0 0 0 0 0 0 0 0 0 0
A 13 1 0 0 0 6 593 0 0 0 0 0 0 0 0 0 0 0 0 0
A 14 1 0 0 0 6 596 0 0 0 0 0 0 0 0 0 0 0 0 0
A 15 1 0 0 0 6 594 0 0 0 0 0 0 0 0 0 0 0 0 0
A 16 1 0 0 0 6 599 0 0 0 0 0 0 0 0 0 0 0 0 0
A 17 1 0 0 0 6 597 0 0 0 0 0 0 0 0 0 0 0 0 0
A 18 1 0 0 0 6 600 0 0 0 0 0 0 0 0 0 0 0 0 0
A 19 1 0 0 0 6 598 0 0 0 0 0 0 0 0 0 0 0 0 0
A 20 1 0 0 0 6 603 0 0 0 0 0 0 0 0 0 0 0 0 0
A 21 1 0 0 0 6 601 0 0 0 0 0 0 0 0 0 0 0 0 0
A 22 1 0 0 0 6 604 0 0 0 0 0 0 0 0 0 0 0 0 0
A 23 1 0 0 0 6 602 0 0 0 0 0 0 0 0 0 0 0 0 0
A 24 1 0 0 0 6 617 0 0 0 0 0 0 0 0 0 0 0 0 0
A 25 1 0 0 0 6 615 0 0 0 0 0 0 0 0 0 0 0 0 0
A 26 1 0 0 0 6 618 0 0 0 0 0 0 0 0 0 0 0 0 0
A 27 1 0 0 0 6 616 0 0 0 0 0 0 0 0 0 0 0 0 0
A 28 1 0 0 0 6 621 0 0 0 0 0 0 0 0 0 0 0 0 0
A 29 1 0 0 0 6 619 0 0 0 0 0 0 0 0 0 0 0 0 0
A 30 1 0 0 0 6 622 0 0 0 0 0 0 0 0 0 0 0 0 0
A 31 1 0 0 0 6 620 0 0 0 0 0 0 0 0 0 0 0 0 0
A 32 1 0 0 0 6 625 0 0 0 0 0 0 0 0 0 0 0 0 0
A 33 1 0 0 0 6 623 0 0 0 0 0 0 0 0 0 0 0 0 0
A 34 1 0 0 0 6 626 0 0 0 0 0 0 0 0 0 0 0 0 0
A 35 1 0 0 0 6 624 0 0 0 0 0 0 0 0 0 0 0 0 0
A 36 1 0 0 0 6 638 0 0 0 0 0 0 0 0 0 0 0 0 0
A 37 1 0 0 0 6 636 0 0 0 0 0 0 0 0 0 0 0 0 0
A 38 1 0 0 0 6 639 0 0 0 0 0 0 0 0 0 0 0 0 0
A 39 1 0 0 0 6 637 0 0 0 0 0 0 0 0 0 0 0 0 0
A 40 1 0 0 0 6 642 0 0 0 0 0 0 0 0 0 0 0 0 0
A 41 1 0 0 0 6 640 0 0 0 0 0 0 0 0 0 0 0 0 0
A 42 1 0 0 0 6 643 0 0 0 0 0 0 0 0 0 0 0 0 0
A 43 1 0 0 0 6 641 0 0 0 0 0 0 0 0 0 0 0 0 0
A 44 1 0 0 0 6 646 0 0 0 0 0 0 0 0 0 0 0 0 0
A 45 1 0 0 0 6 644 0 0 0 0 0 0 0 0 0 0 0 0 0
A 46 1 0 0 0 6 647 0 0 0 0 0 0 0 0 0 0 0 0 0
A 47 1 0 0 0 6 645 0 0 0 0 0 0 0 0 0 0 0 0 0
A 48 1 0 0 0 6 659 0 0 0 0 0 0 0 0 0 0 0 0 0
A 49 1 0 0 0 6 657 0 0 0 0 0 0 0 0 0 0 0 0 0
A 50 1 0 0 0 6 660 0 0 0 0 0 0 0 0 0 0 0 0 0
A 51 1 0 0 0 6 658 0 0 0 0 0 0 0 0 0 0 0 0 0
A 52 1 0 0 0 6 663 0 0 0 0 0 0 0 0 0 0 0 0 0
A 53 1 0 0 0 6 661 0 0 0 0 0 0 0 0 0 0 0 0 0
A 54 1 0 0 0 6 664 0 0 0 0 0 0 0 0 0 0 0 0 0
A 55 1 0 0 0 6 662 0 0 0 0 0 0 0 0 0 0 0 0 0
A 56 1 0 0 0 6 667 0 0 0 0 0 0 0 0 0 0 0 0 0
A 57 1 0 0 0 6 665 0 0 0 0 0 0 0 0 0 0 0 0 0
A 58 1 0 0 0 6 668 0 0 0 0 0 0 0 0 0 0 0 0 0
A 59 1 0 0 0 6 666 0 0 0 0 0 0 0 0 0 0 0 0 0
A 60 1 0 0 0 6 680 0 0 0 0 0 0 0 0 0 0 0 0 0
A 61 1 0 0 0 6 678 0 0 0 0 0 0 0 0 0 0 0 0 0
A 62 1 0 0 2 6 681 0 0 0 0 0 0 0 0 0 0 0 0 0
A 63 1 0 0 0 6 679 0 0 0 0 0 0 0 0 0 0 0 0 0
A 64 1 0 0 11 6 684 0 0 0 0 0 0 0 0 0 0 0 0 0
A 65 1 0 0 10 6 682 0 0 0 0 0 0 0 0 0 0 0 0 0
A 66 1 0 0 0 6 685 0 0 0 0 0 0 0 0 0 0 0 0 0
A 67 1 0 0 3 6 683 0 0 0 0 0 0 0 0 0 0 0 0 0
A 68 1 0 0 0 6 697 0 0 0 0 0 0 0 0 0 0 0 0 0
A 69 1 0 0 0 6 695 0 0 0 0 0 0 0 0 0 0 0 0 0
A 70 1 0 0 0 6 698 0 0 0 0 0 0 0 0 0 0 0 0 0
A 71 1 0 0 0 6 696 0 0 0 0 0 0 0 0 0 0 0 0 0
A 72 1 0 0 0 6 701 0 0 0 0 0 0 0 0 0 0 0 0 0
A 73 1 0 0 0 6 699 0 0 0 0 0 0 0 0 0 0 0 0 0
A 74 1 0 0 0 6 702 0 0 0 0 0 0 0 0 0 0 0 0 0
A 75 1 0 0 0 6 700 0 0 0 0 0 0 0 0 0 0 0 0 0
A 76 1 0 0 0 6 719 0 0 0 0 0 0 0 0 0 0 0 0 0
A 77 1 0 0 0 6 717 0 0 0 0 0 0 0 0 0 0 0 0 0
A 78 1 0 0 0 6 720 0 0 0 0 0 0 0 0 0 0 0 0 0
A 79 1 0 0 0 6 718 0 0 0 0 0 0 0 0 0 0 0 0 0
A 80 1 0 0 0 6 723 0 0 0 0 0 0 0 0 0 0 0 0 0
A 81 1 0 0 0 6 721 0 0 0 0 0 0 0 0 0 0 0 0 0
A 82 1 0 0 0 6 724 0 0 0 0 0 0 0 0 0 0 0 0 0
A 83 1 0 0 0 6 722 0 0 0 0 0 0 0 0 0 0 0 0 0
A 84 1 0 0 0 6 727 0 0 0 0 0 0 0 0 0 0 0 0 0
A 85 1 0 0 0 6 725 0 0 0 0 0 0 0 0 0 0 0 0 0
A 86 1 0 0 0 6 728 0 0 0 0 0 0 0 0 0 0 0 0 0
A 87 1 0 0 0 6 726 0 0 0 0 0 0 0 0 0 0 0 0 0
A 88 1 0 0 0 6 731 0 0 0 0 0 0 0 0 0 0 0 0 0
A 89 1 0 0 0 6 729 0 0 0 0 0 0 0 0 0 0 0 0 0
A 90 1 0 0 0 6 732 0 0 0 0 0 0 0 0 0 0 0 0 0
A 91 1 0 0 0 6 730 0 0 0 0 0 0 0 0 0 0 0 0 0
A 92 1 0 0 0 6 735 0 0 0 0 0 0 0 0 0 0 0 0 0
A 93 1 0 0 0 6 733 0 0 0 0 0 0 0 0 0 0 0 0 0
A 94 1 0 0 0 6 736 0 0 0 0 0 0 0 0 0 0 0 0 0
A 95 1 0 0 0 6 734 0 0 0 0 0 0 0 0 0 0 0 0 0
Z
Z
