V26 mytime
10 clocks.F90 S582 0
04/24/2012  15:51:15
use kinds private
use kinds private
enduse
D 56 21 9 1 3 17 0 0 0 0 0
 0 17 3 3 17 17
D 59 21 9 1 3 17 0 0 0 0 0
 0 17 3 3 17 17
D 62 18 22
D 64 21 62 1 3 17 0 0 0 0 0
 0 17 3 3 17 17
D 67 21 6 1 3 17 0 0 0 0 0
 0 17 3 3 17 17
S 582 24 0 0 0 6 1 0 4658 10005 0 A 0 0 0 0 0 0 0 0 0 0 0 0 32 0 0 0 0 0 0 0 0 11 0 0 0 0 0 0 mytime
S 584 23 0 0 0 9 587 582 4671 4 0 A 0 0 0 0 0 0 0 0 0 0 0 0 0 0 0 0 0 0 0 0 0 0 0 582 0 0 0 0 dp
R 587 16 1 kinds dp
S 594 16 1 0 0 6 596 582 4705 800004 400000 A 0 0 0 0 0 0 0 0 100 17 0 0 0 0 0 0 0 0 0 0 0 0 0 582 0 0 0 0 maxclock
S 595 3 0 0 0 6 0 1 0 0 0 A 0 0 0 0 0 0 0 0 0 100 0 0 0 0 0 0 0 0 0 0 0 0 0 0 0 0 0 0 6
S 596 16 0 0 0 9 0 582 4714 800004 400000 A 0 0 0 0 0 0 0 0 597 20 0 0 0 0 0 0 0 0 0 0 0 0 0 582 0 0 0 0 notrunning
S 597 3 0 0 0 9 0 1 0 0 0 A 0 0 0 0 0 0 0 0 -1074790400 0 0 0 0 0 0 0 0 0 0 0 0 0 0 0 0 0 0 0 9
S 598 7 4 0 4 56 599 582 4725 800004 100 A 0 0 0 0 0 0 0 0 0 0 0 0 608 0 0 0 0 0 0 0 0 0 0 582 0 0 0 0 cputime
S 599 7 4 0 4 59 600 582 4733 800004 100 A 0 0 0 0 0 800 0 0 0 0 0 0 608 0 0 0 0 0 0 0 0 0 0 582 0 0 0 0 t0cpu
S 600 6 4 0 0 9 601 582 4739 4 0 A 0 0 0 0 0 1600 0 0 0 0 0 0 608 0 0 0 0 0 0 0 0 0 0 582 0 0 0 0 walltime
S 601 6 4 0 0 9 1 582 4748 4 0 A 0 0 0 0 0 1608 0 0 0 0 0 0 608 0 0 0 0 0 0 0 0 0 0 582 0 0 0 0 t0wall
S 602 3 0 0 0 6 0 1 0 0 0 A 0 0 0 0 0 0 0 0 0 12 0 0 0 0 0 0 0 0 0 0 0 0 0 0 0 0 0 0 6
S 603 7 4 0 4 64 1 582 4755 800004 100 A 0 0 0 0 0 0 0 0 0 0 0 0 609 0 0 0 0 0 0 0 0 0 0 582 0 0 0 0 clock_label
S 604 7 4 0 4 67 606 582 4767 800004 100 A 0 0 0 0 0 0 0 0 0 0 0 0 610 0 0 0 0 0 0 0 0 0 0 582 0 0 0 0 called
S 605 6 4 0 0 6 607 582 4774 80000c 0 A 0 0 0 0 0 0 0 0 0 0 0 0 611 0 0 0 0 0 0 0 0 0 0 582 0 0 0 0 nclock
S 606 6 4 0 0 16 1 582 4781 4 0 A 0 0 0 0 0 400 0 0 0 0 0 0 610 0 0 0 0 0 0 0 0 0 0 582 0 0 0 0 no
S 607 6 4 0 0 6 1 582 4784 80000c 0 A 0 0 0 0 0 4 0 0 0 0 0 0 611 0 0 0 0 0 0 0 0 0 0 582 0 0 0 0 trace_depth
S 608 11 0 0 4 9 1 582 4796 40800000 801000 A 0 0 0 0 0 1616 0 0 598 601 0 0 0 0 0 0 0 0 0 0 0 0 0 0 0 0 0 0 _mytime$2
S 609 11 0 0 4 9 608 582 4806 40800000 801000 A 0 0 0 0 0 1200 0 0 603 603 0 0 0 0 0 0 0 0 0 0 0 0 0 0 0 0 0 0 _mytime$1
S 610 11 0 0 4 9 609 582 4816 40800000 801000 A 0 0 0 0 0 404 0 0 604 606 0 0 0 0 0 0 0 0 0 0 0 0 0 0 0 0 0 0 _mytime$0
S 611 11 0 0 0 9 610 582 4826 40800008 801000 A 0 0 0 0 0 8 0 0 605 607 0 0 0 0 0 0 0 0 0 0 0 0 0 0 0 0 0 0 _mytime$8
A 17 2 0 0 0 6 595 0 0 0 17 0 0 0 0 0 0 0 0 0
A 20 2 0 0 0 9 597 0 0 0 20 0 0 0 0 0 0 0 0 0
A 22 2 0 0 0 6 602 0 0 0 22 0 0 0 0 0 0 0 0 0
A 23 1 0 0 0 6 605 0 0 0 0 0 0 0 0 0 0 0 0 0
A 24 1 0 0 0 6 607 0 0 0 0 0 0 0 0 0 0 0 0 0
Z
Z
