V26 parallel_types
18 parallel_types.F90 S582 0
04/24/2012  15:51:02
enduse
D 56 24 594 36 593 3
D 62 24 612 124 611 3
D 68 21 6 1 0 3 0 0 0 0 0
 0 3 0 3 3 0
D 71 21 6 1 0 3 0 0 0 0 0
 0 3 0 3 3 0
S 582 24 0 0 0 9 1 0 4658 15 0 A 0 0 0 0 0 0 0 0 0 0 0 0 111 0 0 0 0 0 0 0 0 11 0 0 0 0 0 0 parallel_types
S 585 3 0 0 0 6 1 1 0 0 0 A 0 0 0 0 0 0 0 0 0 4 0 0 0 0 0 0 0 0 0 0 0 0 0 0 0 0 0 0 6
S 593 25 0 0 0 56 1 582 4713 10000004 800010 A 0 0 0 0 0 0 0 0 0 0 0 0 0 0 0 0 0 0 0 637 0 0 0 582 0 0 0 0 processors_grid
S 594 5 0 0 0 6 595 582 4729 800004 0 A 0 0 0 0 0 0 0 0 56 0 0 0 0 0 0 0 0 0 0 0 1 594 0 582 0 0 0 0 context
S 595 5 0 0 0 6 596 582 4737 800004 0 A 0 0 0 0 0 4 0 0 56 0 0 0 0 0 0 0 0 0 0 0 594 595 0 582 0 0 0 0 nproc
S 596 5 0 0 0 6 597 582 4743 800004 0 A 0 0 0 0 0 8 0 0 56 0 0 0 0 0 0 0 0 0 0 0 595 596 0 582 0 0 0 0 my_pe
S 597 5 0 0 0 6 598 582 4749 800004 0 A 0 0 0 0 0 12 0 0 56 0 0 0 0 0 0 0 0 0 0 0 596 597 0 582 0 0 0 0 npx
S 598 5 0 0 0 6 599 582 4753 800004 0 A 0 0 0 0 0 16 0 0 56 0 0 0 0 0 0 0 0 0 0 0 597 598 0 582 0 0 0 0 npy
S 599 5 0 0 0 6 600 582 4757 800004 0 A 0 0 0 0 0 20 0 0 56 0 0 0 0 0 0 0 0 0 0 0 598 599 0 582 0 0 0 0 npz
S 600 5 0 0 0 6 601 582 4761 800004 0 A 0 0 0 0 0 24 0 0 56 0 0 0 0 0 0 0 0 0 0 0 599 600 0 582 0 0 0 0 mex
S 601 5 0 0 0 6 602 582 4765 800004 0 A 0 0 0 0 0 28 0 0 56 0 0 0 0 0 0 0 0 0 0 0 600 601 0 582 0 0 0 0 mey
S 602 5 0 0 0 6 1 582 4769 800004 0 A 0 0 0 0 0 32 0 0 56 0 0 0 0 0 0 0 0 0 0 0 601 602 0 582 0 0 0 0 mez
S 603 16 0 0 0 6 604 582 4773 800004 400000 A 0 0 0 0 0 0 0 0 1 3 0 0 0 0 0 0 0 0 0 0 0 0 0 582 0 0 0 0 block_cyclic_dist
S 604 16 0 0 0 6 606 582 4791 800004 400000 A 0 0 0 0 0 0 0 0 2 18 0 0 0 0 0 0 0 0 0 0 0 0 0 582 0 0 0 0 block_partition_dist
S 605 3 0 0 0 6 0 1 0 0 0 A 0 0 0 0 0 0 0 0 0 2 0 0 0 0 0 0 0 0 0 0 0 0 0 0 0 0 0 0 6
S 606 16 0 0 0 6 608 582 4812 800004 400000 A 0 0 0 0 0 0 0 0 3 20 0 0 0 0 0 0 0 0 0 0 0 0 0 582 0 0 0 0 free_pattern_dist
S 607 3 0 0 0 6 0 1 0 0 0 A 0 0 0 0 0 0 0 0 0 3 0 0 0 0 0 0 0 0 0 0 0 0 0 0 0 0 0 0 6
S 608 16 0 0 0 6 609 582 4830 800004 400000 A 0 0 0 0 0 0 0 0 4 15 0 0 0 0 0 0 0 0 0 0 0 0 0 582 0 0 0 0 replicated_data_dist
S 609 16 0 0 0 6 0 582 4851 800004 400000 A 0 0 0 0 0 0 0 0 5 23 0 0 0 0 0 0 0 0 0 0 0 0 0 582 0 0 0 0 cyclic_dist
S 610 3 0 0 0 6 0 1 0 0 0 A 0 0 0 0 0 0 0 0 0 5 0 0 0 0 0 0 0 0 0 0 0 0 0 0 0 0 0 0 6
S 611 25 0 0 0 62 1 582 4863 10000014 800010 A 0 0 0 0 0 0 0 0 0 0 0 0 0 0 0 0 0 0 0 636 0 0 0 582 0 0 0 0 descriptor
S 612 5 0 0 0 6 613 582 4874 800004 0 A 0 0 0 0 0 0 0 0 62 0 0 0 0 0 0 0 0 0 0 0 1 612 0 582 0 0 0 0 matrix_type
S 613 5 0 0 0 56 614 582 4886 800004 0 A 0 0 0 0 0 4 0 0 62 0 0 0 0 0 0 0 0 0 0 0 612 613 0 582 0 0 0 0 grid
S 614 5 0 0 0 6 615 582 4891 800004 0 A 0 0 0 0 0 40 0 0 62 0 0 0 0 0 0 0 0 0 0 0 613 614 0 582 0 0 0 0 nx
S 615 5 0 0 0 6 616 582 4894 800004 0 A 0 0 0 0 0 44 0 0 62 0 0 0 0 0 0 0 0 0 0 0 614 615 0 582 0 0 0 0 ny
S 616 5 0 0 0 6 617 582 4897 800004 0 A 0 0 0 0 0 48 0 0 62 0 0 0 0 0 0 0 0 0 0 0 615 616 0 582 0 0 0 0 nz
S 617 5 0 0 0 6 618 582 4900 800004 0 A 0 0 0 0 0 52 0 0 62 0 0 0 0 0 0 0 0 0 0 0 616 617 0 582 0 0 0 0 nxblk
S 618 5 0 0 0 6 619 582 4906 800004 0 A 0 0 0 0 0 56 0 0 62 0 0 0 0 0 0 0 0 0 0 0 617 618 0 582 0 0 0 0 nyblk
S 619 5 0 0 0 6 620 582 4912 800004 0 A 0 0 0 0 0 60 0 0 62 0 0 0 0 0 0 0 0 0 0 0 618 619 0 582 0 0 0 0 nzblk
S 620 5 0 0 0 6 621 582 4918 800004 0 A 0 0 0 0 0 64 0 0 62 0 0 0 0 0 0 0 0 0 0 0 619 620 0 582 0 0 0 0 nxl
S 621 5 0 0 0 6 622 582 4922 800004 0 A 0 0 0 0 0 68 0 0 62 0 0 0 0 0 0 0 0 0 0 0 620 621 0 582 0 0 0 0 nyl
S 622 5 0 0 0 6 623 582 4926 800004 0 A 0 0 0 0 0 72 0 0 62 0 0 0 0 0 0 0 0 0 0 0 621 622 0 582 0 0 0 0 nzl
S 623 5 0 0 0 6 624 582 4930 800004 0 A 0 0 0 0 0 76 0 0 62 0 0 0 0 0 0 0 0 0 0 0 622 623 0 582 0 0 0 0 ixl
S 624 5 0 0 0 6 625 582 4934 800004 0 A 0 0 0 0 0 80 0 0 62 0 0 0 0 0 0 0 0 0 0 0 623 624 0 582 0 0 0 0 iyl
S 625 5 0 0 0 6 626 582 4938 800004 0 A 0 0 0 0 0 84 0 0 62 0 0 0 0 0 0 0 0 0 0 0 624 625 0 582 0 0 0 0 izl
S 626 5 0 0 0 6 627 582 4942 800004 0 A 0 0 0 0 0 88 0 0 62 0 0 0 0 0 0 0 0 0 0 0 625 626 0 582 0 0 0 0 ipexs
S 627 5 0 0 0 6 628 582 4948 800004 0 A 0 0 0 0 0 92 0 0 62 0 0 0 0 0 0 0 0 0 0 0 626 627 0 582 0 0 0 0 ipeys
S 628 5 0 0 0 6 629 582 4954 800004 0 A 0 0 0 0 0 96 0 0 62 0 0 0 0 0 0 0 0 0 0 0 627 628 0 582 0 0 0 0 ipezs
S 629 5 0 0 0 6 630 582 4960 800004 0 A 0 0 0 0 0 100 0 0 62 0 0 0 0 0 0 0 0 0 0 0 628 629 0 582 0 0 0 0 ldx
S 630 5 0 0 0 6 631 582 4964 800004 0 A 0 0 0 0 0 104 0 0 62 0 0 0 0 0 0 0 0 0 0 0 629 630 0 582 0 0 0 0 ldy
S 631 5 0 0 0 6 632 582 4968 800004 0 A 0 0 0 0 0 108 0 0 62 0 0 0 0 0 0 0 0 0 0 0 630 631 0 582 0 0 0 0 ldz
S 632 5 0 0 0 6 633 582 4972 800004 0 A 0 0 0 0 0 112 0 0 62 0 0 0 0 0 0 0 0 0 0 0 631 632 0 582 0 0 0 0 xdist
S 633 5 0 0 0 6 634 582 4978 800004 0 A 0 0 0 0 0 116 0 0 62 0 0 0 0 0 0 0 0 0 0 0 632 633 0 582 0 0 0 0 ydist
S 634 5 0 0 0 6 1 582 4984 800004 0 A 0 0 0 0 0 120 0 0 62 0 0 0 0 0 0 0 0 0 0 0 633 634 0 582 0 0 0 0 zdist
S 636 8 5 0 0 68 1 582 4997 40822004 1220 A 0 0 0 0 0 0 0 62 0 0 0 0 0 0 0 0 0 0 0 0 0 0 0 582 0 0 0 0 parallel_types$descriptor$td
S 637 8 5 0 0 71 1 582 5026 40822004 1220 A 0 0 0 0 0 0 0 56 0 0 0 0 0 0 0 0 0 0 0 0 0 0 0 582 0 0 0 0 parallel_types$processors_grid$td
A 15 2 0 0 0 6 585 0 0 0 15 0 0 0 0 0 0 0 0 0
A 18 2 0 0 0 6 605 0 0 0 18 0 0 0 0 0 0 0 0 0
A 20 2 0 0 0 6 607 0 0 0 20 0 0 0 0 0 0 0 0 0
A 23 2 0 0 0 6 610 0 0 0 23 0 0 0 0 0 0 0 0 0
Z
Z
