V26 parallel_include
20 parallel_include.F90 S582 0
04/24/2012  15:51:02
use kinds public 0 direct
enduse
D 58 21 6 1 3 21 0 0 0 0 0
 0 21 3 3 21 21
D 61 21 6 2 17 21 0 0 0 0 0
 0 21 3 3 21 21
 0 3 21 3 3 3
D 64 21 6 1 3 3 0 0 0 0 0
 0 3 3 3 3 3
D 67 21 20 2 24 3 0 0 0 0 0
 0 3 3 3 3 3
 0 3 3 3 3 3
D 70 21 20 1 3 3 0 0 0 0 0
 0 3 3 3 3 3
S 582 24 0 0 0 9 1 0 4658 10005 0 A 0 0 0 0 0 0 0 0 0 0 0 0 28 0 0 0 0 0 0 0 0 13 0 0 0 0 0 0 parallel_include
S 584 3 0 0 0 6 1 1 0 0 0 A 0 0 0 0 0 0 0 0 0 8 0 0 0 0 0 0 0 0 0 0 0 0 0 0 0 0 0 0 6
S 585 3 0 0 0 6 1 1 0 0 0 A 0 0 0 0 0 0 0 0 0 4 0 0 0 0 0 0 0 0 0 0 0 0 0 0 0 0 0 0 6
S 593 6 4 0 0 16 1 582 4715 80000c 0 A 0 0 0 0 0 0 0 0 0 0 0 0 1042 0 0 0 0 0 0 0 0 0 0 582 0 0 0 0 tparallel
S 594 3 0 0 0 6 0 1 0 0 0 A 0 0 0 0 0 0 0 0 0 6 0 0 0 0 0 0 0 0 0 0 0 0 0 0 0 0 0 0 6
S 596 16 0 0 0 6 597 582 4732 4 400000 A 0 0 0 0 0 0 0 0 3 18 0 0 0 0 0 0 0 0 0 0 0 0 0 582 0 0 0 0 mpi_source
S 597 16 0 0 0 6 598 582 4743 4 400000 A 0 0 0 0 0 0 0 0 4 15 0 0 0 0 0 0 0 0 0 0 0 0 0 582 0 0 0 0 mpi_tag
S 598 16 0 0 0 6 601 582 4751 800004 400000 A 0 0 0 0 0 0 0 0 5 21 0 0 0 0 0 0 0 0 0 0 0 0 0 582 0 0 0 0 mpi_error
S 599 3 0 0 0 6 0 1 0 0 0 A 0 0 0 0 0 0 0 0 0 3 0 0 0 0 0 0 0 0 0 0 0 0 0 0 0 0 0 0 6
S 600 3 0 0 0 6 0 1 0 0 0 A 0 0 0 0 0 0 0 0 0 5 0 0 0 0 0 0 0 0 0 0 0 0 0 0 0 0 0 0 6
S 601 16 1 0 0 6 608 582 4761 800004 400000 A 0 0 0 0 0 0 0 0 5 21 0 0 0 0 0 0 0 0 0 0 0 0 0 582 0 0 0 0 mpi_status_size
S 602 7 4 0 0 58 1 582 4777 800044 0 A 0 0 0 0 0 8 0 0 0 0 0 0 1037 0 0 0 0 0 0 0 0 0 0 582 0 0 0 0 mpi_status_ignore
S 603 7 4 0 0 61 604 582 4795 800044 0 A 0 0 0 0 0 0 0 0 0 0 0 0 1038 0 0 0 0 0 0 0 0 0 0 582 0 0 0 0 mpi_statuses_ignore
S 604 7 4 0 0 64 1 582 4815 800044 0 A 0 0 0 0 0 20 0 0 0 0 0 0 1038 0 0 0 0 0 0 0 0 0 0 582 0 0 0 0 mpi_errcodes_ignore
S 605 7 4 0 0 67 607 582 4835 800044 0 A 0 0 0 0 0 0 0 0 0 0 0 0 1039 0 0 0 0 0 0 0 0 0 0 582 0 0 0 0 mpi_argvs_null
S 606 3 0 0 0 6 0 1 0 0 0 A 0 0 0 0 0 0 0 0 0 2 0 0 0 0 0 0 0 0 0 0 0 0 0 0 0 0 0 0 6
S 607 7 4 0 0 70 1 582 4850 800044 0 A 0 0 0 0 0 1 0 0 0 0 0 0 1039 0 0 0 0 0 0 0 0 0 0 582 0 0 0 0 mpi_argv_null
S 608 16 0 0 0 6 609 582 4864 800004 400000 A 0 0 0 0 0 0 0 0 0 2 0 0 0 0 0 0 0 0 0 0 0 0 0 582 0 0 0 0 mpi_success
S 609 16 0 0 0 6 611 582 4876 800004 400000 A 0 0 0 0 0 0 0 0 15 26 0 0 0 0 0 0 0 0 0 0 0 0 0 582 0 0 0 0 mpi_err_other
S 610 3 0 0 0 6 0 1 0 0 0 A 0 0 0 0 0 0 0 0 0 15 0 0 0 0 0 0 0 0 0 0 0 0 0 0 0 0 0 0 6
S 611 16 0 0 0 6 613 582 4890 800004 400000 A 0 0 0 0 0 0 0 0 45 28 0 0 0 0 0 0 0 0 0 0 0 0 0 582 0 0 0 0 mpi_err_win
S 612 3 0 0 0 6 0 1 0 0 0 A 0 0 0 0 0 0 0 0 0 45 0 0 0 0 0 0 0 0 0 0 0 0 0 0 0 0 0 0 6
S 613 16 0 0 0 6 615 582 4902 800004 400000 A 0 0 0 0 0 0 0 0 27 30 0 0 0 0 0 0 0 0 0 0 0 0 0 582 0 0 0 0 mpi_err_file
S 614 3 0 0 0 6 0 1 0 0 0 A 0 0 0 0 0 0 0 0 0 27 0 0 0 0 0 0 0 0 0 0 0 0 0 0 0 0 0 0 6
S 615 16 0 0 0 6 616 582 4915 800004 400000 A 0 0 0 0 0 0 0 0 2 24 0 0 0 0 0 0 0 0 0 0 0 0 0 582 0 0 0 0 mpi_err_count
S 616 16 0 0 0 6 618 582 4929 800004 400000 A 0 0 0 0 0 0 0 0 42 33 0 0 0 0 0 0 0 0 0 0 0 0 0 582 0 0 0 0 mpi_err_spawn
S 617 3 0 0 0 6 0 1 0 0 0 A 0 0 0 0 0 0 0 0 0 42 0 0 0 0 0 0 0 0 0 0 0 0 0 0 0 0 0 0 6
S 618 16 0 0 0 6 620 582 4943 800004 400000 A 0 0 0 0 0 0 0 0 46 35 0 0 0 0 0 0 0 0 0 0 0 0 0 582 0 0 0 0 mpi_err_base
S 619 3 0 0 0 6 0 1 0 0 0 A 0 0 0 0 0 0 0 0 0 46 0 0 0 0 0 0 0 0 0 0 0 0 0 0 0 0 0 0 6
S 620 16 0 0 0 6 622 582 4956 800004 400000 A 0 0 0 0 0 0 0 0 49 37 0 0 0 0 0 0 0 0 0 0 0 0 0 582 0 0 0 0 mpi_err_rma_conflict
S 621 3 0 0 0 6 0 1 0 0 0 A 0 0 0 0 0 0 0 0 0 49 0 0 0 0 0 0 0 0 0 0 0 0 0 0 0 0 0 0 6
S 622 16 0 0 0 6 624 582 4977 800004 400000 A 0 0 0 0 0 0 0 0 17 39 0 0 0 0 0 0 0 0 0 0 0 0 0 582 0 0 0 0 mpi_err_in_status
S 623 3 0 0 0 6 0 1 0 0 0 A 0 0 0 0 0 0 0 0 0 17 0 0 0 0 0 0 0 0 0 0 0 0 0 0 0 0 0 0 6
S 624 16 0 0 0 6 626 582 4995 800004 400000 A 0 0 0 0 0 0 0 0 29 41 0 0 0 0 0 0 0 0 0 0 0 0 0 582 0 0 0 0 mpi_err_info_key
S 625 3 0 0 0 6 0 1 0 0 0 A 0 0 0 0 0 0 0 0 0 29 0 0 0 0 0 0 0 0 0 0 0 0 0 0 0 0 0 0 6
S 626 16 0 0 0 6 628 582 5012 800004 400000 A 0 0 0 0 0 0 0 0 47 43 0 0 0 0 0 0 0 0 0 0 0 0 0 582 0 0 0 0 mpi_err_locktype
S 627 3 0 0 0 6 0 1 0 0 0 A 0 0 0 0 0 0 0 0 0 47 0 0 0 0 0 0 0 0 0 0 0 0 0 0 0 0 0 0 6
S 628 16 0 0 0 6 630 582 5029 800004 400000 A 0 0 0 0 0 0 0 0 9 45 0 0 0 0 0 0 0 0 0 0 0 0 0 582 0 0 0 0 mpi_err_op
S 629 3 0 0 0 6 0 1 0 0 0 A 0 0 0 0 0 0 0 0 0 9 0 0 0 0 0 0 0 0 0 0 0 0 0 0 0 0 0 0 6
S 630 16 0 0 0 6 632 582 5040 800004 400000 A 0 0 0 0 0 0 0 0 12 47 0 0 0 0 0 0 0 0 0 0 0 0 0 582 0 0 0 0 mpi_err_arg
S 631 3 0 0 0 6 0 1 0 0 0 A 0 0 0 0 0 0 0 0 0 12 0 0 0 0 0 0 0 0 0 0 0 0 0 0 0 0 0 0 6
S 632 16 0 0 0 6 634 582 5052 800004 400000 A 0 0 0 0 0 0 0 0 40 49 0 0 0 0 0 0 0 0 0 0 0 0 0 582 0 0 0 0 mpi_err_read_only
S 633 3 0 0 0 6 0 1 0 0 0 A 0 0 0 0 0 0 0 0 0 40 0 0 0 0 0 0 0 0 0 0 0 0 0 0 0 0 0 0 6
S 634 16 0 0 0 6 636 582 5070 800004 400000 A 0 0 0 0 0 0 0 0 51 51 0 0 0 0 0 0 0 0 0 0 0 0 0 582 0 0 0 0 mpi_err_size
S 635 3 0 0 0 6 0 1 0 0 0 A 0 0 0 0 0 0 0 0 0 51 0 0 0 0 0 0 0 0 0 0 0 0 0 0 0 0 0 0 6
S 636 16 0 0 0 6 637 582 5083 800004 400000 A 0 0 0 0 0 0 0 0 1 3 0 0 0 0 0 0 0 0 0 0 0 0 0 582 0 0 0 0 mpi_err_buffer
S 637 16 0 0 0 6 639 582 5098 800004 400000 A 0 0 0 0 0 0 0 0 24 54 0 0 0 0 0 0 0 0 0 0 0 0 0 582 0 0 0 0 mpi_err_dup_datarep
S 638 3 0 0 0 6 0 1 0 0 0 A 0 0 0 0 0 0 0 0 0 24 0 0 0 0 0 0 0 0 0 0 0 0 0 0 0 0 0 0 6
S 639 16 0 0 0 6 641 582 5118 800004 400000 A 0 0 0 0 0 0 0 0 43 56 0 0 0 0 0 0 0 0 0 0 0 0 0 582 0 0 0 0 mpi_err_unsupported_datarep
S 640 3 0 0 0 6 0 1 0 0 0 A 0 0 0 0 0 0 0 0 0 43 0 0 0 0 0 0 0 0 0 0 0 0 0 0 0 0 0 0 6
S 641 16 0 0 0 6 643 582 5146 800004 400000 A 0 0 0 0 0 0 0 0 1073741823 58 0 0 0 0 0 0 0 0 0 0 0 0 0 582 0 0 0 0 mpi_err_lastcode
S 642 3 0 0 0 6 0 1 0 0 0 A 0 0 0 0 0 0 0 0 0 1073741823 0 0 0 0 0 0 0 0 0 0 0 0 0 0 0 0 0 0 6
S 643 16 0 0 0 6 645 582 5163 800004 400000 A 0 0 0 0 0 0 0 0 14 60 0 0 0 0 0 0 0 0 0 0 0 0 0 582 0 0 0 0 mpi_err_truncate
S 644 3 0 0 0 6 0 1 0 0 0 A 0 0 0 0 0 0 0 0 0 14 0 0 0 0 0 0 0 0 0 0 0 0 0 0 0 0 0 0 6
S 645 16 0 0 0 6 647 582 5180 800004 400000 A 0 0 0 0 0 0 0 0 52 62 0 0 0 0 0 0 0 0 0 0 0 0 0 582 0 0 0 0 mpi_err_disp
S 646 3 0 0 0 6 0 1 0 0 0 A 0 0 0 0 0 0 0 0 0 52 0 0 0 0 0 0 0 0 0 0 0 0 0 0 0 0 0 0 6
S 647 16 0 0 0 6 649 582 5193 800004 400000 A 0 0 0 0 0 0 0 0 38 64 0 0 0 0 0 0 0 0 0 0 0 0 0 582 0 0 0 0 mpi_err_port
S 648 3 0 0 0 6 0 1 0 0 0 A 0 0 0 0 0 0 0 0 0 38 0 0 0 0 0 0 0 0 0 0 0 0 0 0 0 0 0 0 6
S 649 16 0 0 0 6 651 582 5206 800004 400000 A 0 0 0 0 0 0 0 0 31 66 0 0 0 0 0 0 0 0 0 0 0 0 0 582 0 0 0 0 mpi_err_info_nokey
S 650 3 0 0 0 6 0 1 0 0 0 A 0 0 0 0 0 0 0 0 0 31 0 0 0 0 0 0 0 0 0 0 0 0 0 0 0 0 0 0 6
S 651 16 0 0 0 6 653 582 5225 800004 400000 A 0 0 0 0 0 0 0 0 53 68 0 0 0 0 0 0 0 0 0 0 0 0 0 582 0 0 0 0 mpi_err_assert
S 652 3 0 0 0 6 0 1 0 0 0 A 0 0 0 0 0 0 0 0 0 53 0 0 0 0 0 0 0 0 0 0 0 0 0 0 0 0 0 0 6
S 653 16 0 0 0 6 655 582 5240 800004 400000 A 0 0 0 0 0 0 0 0 25 70 0 0 0 0 0 0 0 0 0 0 0 0 0 582 0 0 0 0 mpi_err_file_exists
S 654 3 0 0 0 6 0 1 0 0 0 A 0 0 0 0 0 0 0 0 0 25 0 0 0 0 0 0 0 0 0 0 0 0 0 0 0 0 0 0 6
S 655 16 0 0 0 6 657 582 5260 800004 400000 A 0 0 0 0 0 0 0 0 18 72 0 0 0 0 0 0 0 0 0 0 0 0 0 582 0 0 0 0 mpi_err_pending
S 656 3 0 0 0 6 0 1 0 0 0 A 0 0 0 0 0 0 0 0 0 18 0 0 0 0 0 0 0 0 0 0 0 0 0 0 0 0 0 0 6
S 657 16 0 0 0 6 658 582 5276 800004 400000 A 0 0 0 0 0 0 0 0 5 21 0 0 0 0 0 0 0 0 0 0 0 0 0 582 0 0 0 0 mpi_err_comm
S 658 16 0 0 0 6 660 582 5289 800004 400000 A 0 0 0 0 0 0 0 0 48 75 0 0 0 0 0 0 0 0 0 0 0 0 0 582 0 0 0 0 mpi_err_keyval
S 659 3 0 0 0 6 0 1 0 0 0 A 0 0 0 0 0 0 0 0 0 48 0 0 0 0 0 0 0 0 0 0 0 0 0 0 0 0 0 0 6
S 660 16 0 0 0 6 662 582 5304 800004 400000 A 0 0 0 0 0 0 0 0 33 77 0 0 0 0 0 0 0 0 0 0 0 0 0 582 0 0 0 0 mpi_err_name
S 661 3 0 0 0 6 0 1 0 0 0 A 0 0 0 0 0 0 0 0 0 33 0 0 0 0 0 0 0 0 0 0 0 0 0 0 0 0 0 0 6
S 662 16 0 0 0 6 664 582 5317 800004 400000 A 0 0 0 0 0 0 0 0 19 79 0 0 0 0 0 0 0 0 0 0 0 0 0 582 0 0 0 0 mpi_err_request
S 663 3 0 0 0 6 0 1 0 0 0 A 0 0 0 0 0 0 0 0 0 19 0 0 0 0 0 0 0 0 0 0 0 0 0 0 0 0 0 0 6
S 664 16 0 0 0 6 665 582 5333 800004 400000 A 0 0 0 0 0 0 0 0 8 13 0 0 0 0 0 0 0 0 0 0 0 0 0 582 0 0 0 0 mpi_err_group
S 665 16 0 0 0 6 667 582 5347 800004 400000 A 0 0 0 0 0 0 0 0 10 82 0 0 0 0 0 0 0 0 0 0 0 0 0 582 0 0 0 0 mpi_err_topology
S 666 3 0 0 0 6 0 1 0 0 0 A 0 0 0 0 0 0 0 0 0 10 0 0 0 0 0 0 0 0 0 0 0 0 0 0 0 0 0 0 6
S 667 16 0 0 0 6 668 582 5364 800004 400000 A 0 0 0 0 0 0 0 0 3 18 0 0 0 0 0 0 0 0 0 0 0 0 0 582 0 0 0 0 mpi_err_type
S 668 16 0 0 0 6 669 582 5377 800004 400000 A 0 0 0 0 0 0 0 0 4 15 0 0 0 0 0 0 0 0 0 0 0 0 0 582 0 0 0 0 mpi_err_tag
S 669 16 0 0 0 6 671 582 5389 800004 400000 A 0 0 0 0 0 0 0 0 30 86 0 0 0 0 0 0 0 0 0 0 0 0 0 582 0 0 0 0 mpi_err_info_value
S 670 3 0 0 0 6 0 1 0 0 0 A 0 0 0 0 0 0 0 0 0 30 0 0 0 0 0 0 0 0 0 0 0 0 0 0 0 0 0 0 6
S 671 16 0 0 0 6 673 582 5408 800004 400000 A 0 0 0 0 0 0 0 0 35 88 0 0 0 0 0 0 0 0 0 0 0 0 0 582 0 0 0 0 mpi_err_not_same
S 672 3 0 0 0 6 0 1 0 0 0 A 0 0 0 0 0 0 0 0 0 35 0 0 0 0 0 0 0 0 0 0 0 0 0 0 0 0 0 0 6
S 673 16 0 0 0 6 675 582 5425 800004 400000 A 0 0 0 0 0 0 0 0 50 90 0 0 0 0 0 0 0 0 0 0 0 0 0 582 0 0 0 0 mpi_err_rma_sync
S 674 3 0 0 0 6 0 1 0 0 0 A 0 0 0 0 0 0 0 0 0 50 0 0 0 0 0 0 0 0 0 0 0 0 0 0 0 0 0 0 6
S 675 16 0 0 0 6 677 582 5442 800004 400000 A 0 0 0 0 0 0 0 0 28 92 0 0 0 0 0 0 0 0 0 0 0 0 0 582 0 0 0 0 mpi_err_info
S 676 3 0 0 0 6 0 1 0 0 0 A 0 0 0 0 0 0 0 0 0 28 0 0 0 0 0 0 0 0 0 0 0 0 0 0 0 0 0 0 6
S 677 16 0 0 0 6 679 582 5455 800004 400000 A 0 0 0 0 0 0 0 0 34 94 0 0 0 0 0 0 0 0 0 0 0 0 0 582 0 0 0 0 mpi_err_no_mem
S 678 3 0 0 0 6 0 1 0 0 0 A 0 0 0 0 0 0 0 0 0 34 0 0 0 0 0 0 0 0 0 0 0 0 0 0 0 0 0 0 6
S 679 16 0 0 0 6 681 582 5470 800004 400000 A 0 0 0 0 0 0 0 0 22 96 0 0 0 0 0 0 0 0 0 0 0 0 0 582 0 0 0 0 mpi_err_bad_file
S 680 3 0 0 0 6 0 1 0 0 0 A 0 0 0 0 0 0 0 0 0 22 0 0 0 0 0 0 0 0 0 0 0 0 0 0 0 0 0 0 6
S 681 16 0 0 0 6 683 582 5487 800004 400000 A 0 0 0 0 0 0 0 0 26 98 0 0 0 0 0 0 0 0 0 0 0 0 0 582 0 0 0 0 mpi_err_file_in_use
S 682 3 0 0 0 6 0 1 0 0 0 A 0 0 0 0 0 0 0 0 0 26 0 0 0 0 0 0 0 0 0 0 0 0 0 0 0 0 0 0 6
S 683 16 0 0 0 6 685 582 5507 800004 400000 A 0 0 0 0 0 0 0 0 13 100 0 0 0 0 0 0 0 0 0 0 0 0 0 582 0 0 0 0 mpi_err_unknown
S 684 3 0 0 0 6 0 1 0 0 0 A 0 0 0 0 0 0 0 0 0 13 0 0 0 0 0 0 0 0 0 0 0 0 0 0 0 0 0 0 6
S 685 16 0 0 0 6 687 582 5523 800004 400000 A 0 0 0 0 0 0 0 0 44 102 0 0 0 0 0 0 0 0 0 0 0 0 0 582 0 0 0 0 mpi_err_unsupported_operation
S 686 3 0 0 0 6 0 1 0 0 0 A 0 0 0 0 0 0 0 0 0 44 0 0 0 0 0 0 0 0 0 0 0 0 0 0 0 0 0 0 6
S 687 16 0 0 0 6 689 582 5553 800004 400000 A 0 0 0 0 0 0 0 0 39 104 0 0 0 0 0 0 0 0 0 0 0 0 0 582 0 0 0 0 mpi_err_quota
S 688 3 0 0 0 6 0 1 0 0 0 A 0 0 0 0 0 0 0 0 0 39 0 0 0 0 0 0 0 0 0 0 0 0 0 0 0 0 0 0 6
S 689 16 0 0 0 6 691 582 5567 800004 400000 A 0 0 0 0 0 0 0 0 21 106 0 0 0 0 0 0 0 0 0 0 0 0 0 582 0 0 0 0 mpi_err_amode
S 690 3 0 0 0 6 0 1 0 0 0 A 0 0 0 0 0 0 0 0 0 21 0 0 0 0 0 0 0 0 0 0 0 0 0 0 0 0 0 0 6
S 691 16 0 0 0 6 693 582 5581 800004 400000 A 0 0 0 0 0 0 0 0 7 108 0 0 0 0 0 0 0 0 0 0 0 0 0 582 0 0 0 0 mpi_err_root
S 692 3 0 0 0 6 0 1 0 0 0 A 0 0 0 0 0 0 0 0 0 7 0 0 0 0 0 0 0 0 0 0 0 0 0 0 0 0 0 0 6
S 693 16 0 0 0 6 694 582 5594 800004 400000 A 0 0 0 0 0 0 0 0 6 17 0 0 0 0 0 0 0 0 0 0 0 0 0 582 0 0 0 0 mpi_err_rank
S 694 16 0 0 0 6 696 582 5607 800004 400000 A 0 0 0 0 0 0 0 0 11 111 0 0 0 0 0 0 0 0 0 0 0 0 0 582 0 0 0 0 mpi_err_dims
S 695 3 0 0 0 6 0 1 0 0 0 A 0 0 0 0 0 0 0 0 0 11 0 0 0 0 0 0 0 0 0 0 0 0 0 0 0 0 0 0 6
S 696 16 0 0 0 6 698 582 5620 800004 400000 A 0 0 0 0 0 0 0 0 37 113 0 0 0 0 0 0 0 0 0 0 0 0 0 582 0 0 0 0 mpi_err_no_such_file
S 697 3 0 0 0 6 0 1 0 0 0 A 0 0 0 0 0 0 0 0 0 37 0 0 0 0 0 0 0 0 0 0 0 0 0 0 0 0 0 0 6
S 698 16 0 0 0 6 700 582 5641 800004 400000 A 0 0 0 0 0 0 0 0 41 115 0 0 0 0 0 0 0 0 0 0 0 0 0 582 0 0 0 0 mpi_err_service
S 699 3 0 0 0 6 0 1 0 0 0 A 0 0 0 0 0 0 0 0 0 41 0 0 0 0 0 0 0 0 0 0 0 0 0 0 0 0 0 0 6
S 700 16 0 0 0 6 702 582 5657 800004 400000 A 0 0 0 0 0 0 0 0 16 117 0 0 0 0 0 0 0 0 0 0 0 0 0 582 0 0 0 0 mpi_err_intern
S 701 3 0 0 0 6 0 1 0 0 0 A 0 0 0 0 0 0 0 0 0 16 0 0 0 0 0 0 0 0 0 0 0 0 0 0 0 0 0 0 6
S 702 16 0 0 0 6 704 582 5672 800004 400000 A 0 0 0 0 0 0 0 0 32 119 0 0 0 0 0 0 0 0 0 0 0 0 0 582 0 0 0 0 mpi_err_io
S 703 3 0 0 0 6 0 1 0 0 0 A 0 0 0 0 0 0 0 0 0 32 0 0 0 0 0 0 0 0 0 0 0 0 0 0 0 0 0 0 6
S 704 16 0 0 0 6 706 582 5683 800004 400000 A 0 0 0 0 0 0 0 0 20 121 0 0 0 0 0 0 0 0 0 0 0 0 0 582 0 0 0 0 mpi_err_access
S 705 3 0 0 0 6 0 1 0 0 0 A 0 0 0 0 0 0 0 0 0 20 0 0 0 0 0 0 0 0 0 0 0 0 0 0 0 0 0 0 6
S 706 16 0 0 0 6 708 582 5698 800004 400000 A 0 0 0 0 0 0 0 0 36 123 0 0 0 0 0 0 0 0 0 0 0 0 0 582 0 0 0 0 mpi_err_no_space
S 707 3 0 0 0 6 0 1 0 0 0 A 0 0 0 0 0 0 0 0 0 36 0 0 0 0 0 0 0 0 0 0 0 0 0 0 0 0 0 0 6
S 708 16 0 0 0 6 710 582 5715 800004 400000 A 0 0 0 0 0 0 0 0 23 125 0 0 0 0 0 0 0 0 0 0 0 0 0 582 0 0 0 0 mpi_err_conversion
S 709 3 0 0 0 6 0 1 0 0 0 A 0 0 0 0 0 0 0 0 0 23 0 0 0 0 0 0 0 0 0 0 0 0 0 0 0 0 0 0 6
S 710 16 0 0 0 6 712 582 5734 800004 400000 A 0 0 0 0 0 0 0 0 1409286144 127 0 0 0 0 0 0 0 0 0 0 0 0 0 582 0 0 0 0 mpi_errors_are_fatal
S 711 3 0 0 0 6 0 1 0 0 0 A 0 0 0 0 0 0 0 0 0 1409286144 0 0 0 0 0 0 0 0 0 0 0 0 0 0 0 0 0 0 6
S 712 16 0 0 0 6 714 582 5755 800004 400000 A 0 0 0 0 0 0 0 0 1409286145 129 0 0 0 0 0 0 0 0 0 0 0 0 0 582 0 0 0 0 mpi_errors_return
S 713 3 0 0 0 6 0 1 0 0 0 A 0 0 0 0 0 0 0 0 0 1409286145 0 0 0 0 0 0 0 0 0 0 0 0 0 0 0 0 0 0 6
S 714 16 0 0 0 6 715 582 5773 800004 400000 A 0 0 0 0 0 0 0 0 0 2 0 0 0 0 0 0 0 0 0 0 0 0 0 582 0 0 0 0 mpi_ident
S 715 16 0 0 0 6 716 582 5783 800004 400000 A 0 0 0 0 0 0 0 0 1 3 0 0 0 0 0 0 0 0 0 0 0 0 0 582 0 0 0 0 mpi_congruent
S 716 16 0 0 0 6 717 582 5797 800004 400000 A 0 0 0 0 0 0 0 0 2 24 0 0 0 0 0 0 0 0 0 0 0 0 0 582 0 0 0 0 mpi_similar
S 717 16 0 0 0 6 718 582 5809 800004 400000 A 0 0 0 0 0 0 0 0 3 18 0 0 0 0 0 0 0 0 0 0 0 0 0 582 0 0 0 0 mpi_unequal
S 718 16 0 0 0 6 720 582 5821 800004 400000 A 0 0 0 0 0 0 0 0 1476395009 135 0 0 0 0 0 0 0 0 0 0 0 0 0 582 0 0 0 0 mpi_max
S 719 3 0 0 0 6 0 1 0 0 0 A 0 0 0 0 0 0 0 0 0 1476395009 0 0 0 0 0 0 0 0 0 0 0 0 0 0 0 0 0 0 6
S 720 16 0 0 0 6 722 582 5829 800004 400000 A 0 0 0 0 0 0 0 0 1476395010 137 0 0 0 0 0 0 0 0 0 0 0 0 0 582 0 0 0 0 mpi_min
S 721 3 0 0 0 6 0 1 0 0 0 A 0 0 0 0 0 0 0 0 0 1476395010 0 0 0 0 0 0 0 0 0 0 0 0 0 0 0 0 0 0 6
S 722 16 0 0 0 6 724 582 5837 800004 400000 A 0 0 0 0 0 0 0 0 1476395011 139 0 0 0 0 0 0 0 0 0 0 0 0 0 582 0 0 0 0 mpi_sum
S 723 3 0 0 0 6 0 1 0 0 0 A 0 0 0 0 0 0 0 0 0 1476395011 0 0 0 0 0 0 0 0 0 0 0 0 0 0 0 0 0 0 6
S 724 16 0 0 0 6 726 582 5845 800004 400000 A 0 0 0 0 0 0 0 0 1476395012 141 0 0 0 0 0 0 0 0 0 0 0 0 0 582 0 0 0 0 mpi_prod
S 725 3 0 0 0 6 0 1 0 0 0 A 0 0 0 0 0 0 0 0 0 1476395012 0 0 0 0 0 0 0 0 0 0 0 0 0 0 0 0 0 0 6
S 726 16 0 0 0 6 728 582 5854 800004 400000 A 0 0 0 0 0 0 0 0 1476395013 143 0 0 0 0 0 0 0 0 0 0 0 0 0 582 0 0 0 0 mpi_land
S 727 3 0 0 0 6 0 1 0 0 0 A 0 0 0 0 0 0 0 0 0 1476395013 0 0 0 0 0 0 0 0 0 0 0 0 0 0 0 0 0 0 6
S 728 16 0 0 0 6 730 582 5863 800004 400000 A 0 0 0 0 0 0 0 0 1476395014 145 0 0 0 0 0 0 0 0 0 0 0 0 0 582 0 0 0 0 mpi_band
S 729 3 0 0 0 6 0 1 0 0 0 A 0 0 0 0 0 0 0 0 0 1476395014 0 0 0 0 0 0 0 0 0 0 0 0 0 0 0 0 0 0 6
S 730 16 0 0 0 6 732 582 5872 800004 400000 A 0 0 0 0 0 0 0 0 1476395015 147 0 0 0 0 0 0 0 0 0 0 0 0 0 582 0 0 0 0 mpi_lor
S 731 3 0 0 0 6 0 1 0 0 0 A 0 0 0 0 0 0 0 0 0 1476395015 0 0 0 0 0 0 0 0 0 0 0 0 0 0 0 0 0 0 6
S 732 16 0 0 0 6 734 582 5880 800004 400000 A 0 0 0 0 0 0 0 0 1476395016 149 0 0 0 0 0 0 0 0 0 0 0 0 0 582 0 0 0 0 mpi_bor
S 733 3 0 0 0 6 0 1 0 0 0 A 0 0 0 0 0 0 0 0 0 1476395016 0 0 0 0 0 0 0 0 0 0 0 0 0 0 0 0 0 0 6
S 734 16 0 0 0 6 736 582 5888 800004 400000 A 0 0 0 0 0 0 0 0 1476395017 151 0 0 0 0 0 0 0 0 0 0 0 0 0 582 0 0 0 0 mpi_lxor
S 735 3 0 0 0 6 0 1 0 0 0 A 0 0 0 0 0 0 0 0 0 1476395017 0 0 0 0 0 0 0 0 0 0 0 0 0 0 0 0 0 0 6
S 736 16 0 0 0 6 738 582 5897 800004 400000 A 0 0 0 0 0 0 0 0 1476395018 153 0 0 0 0 0 0 0 0 0 0 0 0 0 582 0 0 0 0 mpi_bxor
S 737 3 0 0 0 6 0 1 0 0 0 A 0 0 0 0 0 0 0 0 0 1476395018 0 0 0 0 0 0 0 0 0 0 0 0 0 0 0 0 0 0 6
S 738 16 0 0 0 6 740 582 5906 800004 400000 A 0 0 0 0 0 0 0 0 1476395019 155 0 0 0 0 0 0 0 0 0 0 0 0 0 582 0 0 0 0 mpi_minloc
S 739 3 0 0 0 6 0 1 0 0 0 A 0 0 0 0 0 0 0 0 0 1476395019 0 0 0 0 0 0 0 0 0 0 0 0 0 0 0 0 0 0 6
S 740 16 0 0 0 6 742 582 5917 800004 400000 A 0 0 0 0 0 0 0 0 1476395020 157 0 0 0 0 0 0 0 0 0 0 0 0 0 582 0 0 0 0 mpi_maxloc
S 741 3 0 0 0 6 0 1 0 0 0 A 0 0 0 0 0 0 0 0 0 1476395020 0 0 0 0 0 0 0 0 0 0 0 0 0 0 0 0 0 0 6
S 742 16 0 0 0 6 744 582 5928 800004 400000 A 0 0 0 0 0 0 0 0 1476395021 159 0 0 0 0 0 0 0 0 0 0 0 0 0 582 0 0 0 0 mpi_replace
S 743 3 0 0 0 6 0 1 0 0 0 A 0 0 0 0 0 0 0 0 0 1476395021 0 0 0 0 0 0 0 0 0 0 0 0 0 0 0 0 0 0 6
S 744 16 0 0 0 6 746 582 5940 800004 400000 A 0 0 0 0 0 0 0 0 1140850688 161 0 0 0 0 0 0 0 0 0 0 0 0 0 582 0 0 0 0 mpi_comm_world
S 745 3 0 0 0 6 0 1 0 0 0 A 0 0 0 0 0 0 0 0 0 1140850688 0 0 0 0 0 0 0 0 0 0 0 0 0 0 0 0 0 0 6
S 746 16 0 0 0 6 748 582 5955 800004 400000 A 0 0 0 0 0 0 0 0 1140850689 163 0 0 0 0 0 0 0 0 0 0 0 0 0 582 0 0 0 0 mpi_comm_self
S 747 3 0 0 0 6 0 1 0 0 0 A 0 0 0 0 0 0 0 0 0 1140850689 0 0 0 0 0 0 0 0 0 0 0 0 0 0 0 0 0 0 6
S 748 16 0 0 0 6 750 582 5969 800004 400000 A 0 0 0 0 0 0 0 0 1207959552 165 0 0 0 0 0 0 0 0 0 0 0 0 0 582 0 0 0 0 mpi_group_empty
S 749 3 0 0 0 6 0 1 0 0 0 A 0 0 0 0 0 0 0 0 0 1207959552 0 0 0 0 0 0 0 0 0 0 0 0 0 0 0 0 0 0 6
S 750 16 0 0 0 6 752 582 5985 800004 400000 A 0 0 0 0 0 0 0 0 67108864 167 0 0 0 0 0 0 0 0 0 0 0 0 0 582 0 0 0 0 mpi_comm_null
S 751 3 0 0 0 6 0 1 0 0 0 A 0 0 0 0 0 0 0 0 0 67108864 0 0 0 0 0 0 0 0 0 0 0 0 0 0 0 0 0 0 6
S 752 16 0 0 0 6 754 582 5999 800004 400000 A 0 0 0 0 0 0 0 0 536870912 169 0 0 0 0 0 0 0 0 0 0 0 0 0 582 0 0 0 0 mpi_win_null
S 753 3 0 0 0 6 0 1 0 0 0 A 0 0 0 0 0 0 0 0 0 536870912 0 0 0 0 0 0 0 0 0 0 0 0 0 0 0 0 0 0 6
S 754 16 0 0 0 6 755 582 6012 800004 400000 A 0 0 0 0 0 0 0 0 0 2 0 0 0 0 0 0 0 0 0 0 0 0 0 582 0 0 0 0 mpi_file_null
S 755 16 0 0 0 6 757 582 6026 800004 400000 A 0 0 0 0 0 0 0 0 134217728 172 0 0 0 0 0 0 0 0 0 0 0 0 0 582 0 0 0 0 mpi_group_null
S 756 3 0 0 0 6 0 1 0 0 0 A 0 0 0 0 0 0 0 0 0 134217728 0 0 0 0 0 0 0 0 0 0 0 0 0 0 0 0 0 0 6
S 757 16 0 0 0 6 759 582 6041 800004 400000 A 0 0 0 0 0 0 0 0 402653184 174 0 0 0 0 0 0 0 0 0 0 0 0 0 582 0 0 0 0 mpi_op_null
S 758 3 0 0 0 6 0 1 0 0 0 A 0 0 0 0 0 0 0 0 0 402653184 0 0 0 0 0 0 0 0 0 0 0 0 0 0 0 0 0 0 6
S 759 16 1 0 0 6 761 582 6053 800004 400000 A 0 0 0 0 0 0 0 0 201326592 176 0 0 0 0 0 0 0 0 0 0 0 0 0 582 0 0 0 0 mpi_datatype_null
S 760 3 0 0 0 6 0 1 0 0 0 A 0 0 0 0 0 0 0 0 0 201326592 0 0 0 0 0 0 0 0 0 0 0 0 0 0 0 0 0 0 6
S 761 16 0 0 0 6 763 582 6071 800004 400000 A 0 0 0 0 0 0 0 0 738197504 178 0 0 0 0 0 0 0 0 0 0 0 0 0 582 0 0 0 0 mpi_request_null
S 762 3 0 0 0 6 0 1 0 0 0 A 0 0 0 0 0 0 0 0 0 738197504 0 0 0 0 0 0 0 0 0 0 0 0 0 0 0 0 0 0 6
S 763 16 0 0 0 6 765 582 6088 800004 400000 A 0 0 0 0 0 0 0 0 335544320 180 0 0 0 0 0 0 0 0 0 0 0 0 0 582 0 0 0 0 mpi_errhandler_null
S 764 3 0 0 0 6 0 1 0 0 0 A 0 0 0 0 0 0 0 0 0 335544320 0 0 0 0 0 0 0 0 0 0 0 0 0 0 0 0 0 0 6
S 765 16 0 0 0 6 767 582 6108 800004 400000 A 0 0 0 0 0 0 0 0 469762048 182 0 0 0 0 0 0 0 0 0 0 0 0 0 582 0 0 0 0 mpi_info_null
S 766 3 0 0 0 6 0 1 0 0 0 A 0 0 0 0 0 0 0 0 0 469762048 0 0 0 0 0 0 0 0 0 0 0 0 0 0 0 0 0 0 6
S 767 16 0 0 0 6 769 582 6122 800004 400000 A 0 0 0 0 0 0 0 0 1681915906 184 0 0 0 0 0 0 0 0 0 0 0 0 0 582 0 0 0 0 mpi_tag_ub
S 768 3 0 0 0 6 0 1 0 0 0 A 0 0 0 0 0 0 0 0 0 1681915906 0 0 0 0 0 0 0 0 0 0 0 0 0 0 0 0 0 0 6
S 769 16 0 0 0 6 771 582 6133 800004 400000 A 0 0 0 0 0 0 0 0 1681915908 186 0 0 0 0 0 0 0 0 0 0 0 0 0 582 0 0 0 0 mpi_host
S 770 3 0 0 0 6 0 1 0 0 0 A 0 0 0 0 0 0 0 0 0 1681915908 0 0 0 0 0 0 0 0 0 0 0 0 0 0 0 0 0 0 6
S 771 16 0 0 0 6 773 582 6142 800004 400000 A 0 0 0 0 0 0 0 0 1681915910 188 0 0 0 0 0 0 0 0 0 0 0 0 0 582 0 0 0 0 mpi_io
S 772 3 0 0 0 6 0 1 0 0 0 A 0 0 0 0 0 0 0 0 0 1681915910 0 0 0 0 0 0 0 0 0 0 0 0 0 0 0 0 0 0 6
S 773 16 0 0 0 6 775 582 6149 800004 400000 A 0 0 0 0 0 0 0 0 1681915912 190 0 0 0 0 0 0 0 0 0 0 0 0 0 582 0 0 0 0 mpi_wtime_is_global
S 774 3 0 0 0 6 0 1 0 0 0 A 0 0 0 0 0 0 0 0 0 1681915912 0 0 0 0 0 0 0 0 0 0 0 0 0 0 0 0 0 0 6
S 775 16 0 0 0 6 777 582 6169 800004 400000 A 0 0 0 0 0 0 0 0 1681915914 192 0 0 0 0 0 0 0 0 0 0 0 0 0 582 0 0 0 0 mpi_universe_size
S 776 3 0 0 0 6 0 1 0 0 0 A 0 0 0 0 0 0 0 0 0 1681915914 0 0 0 0 0 0 0 0 0 0 0 0 0 0 0 0 0 0 6
S 777 16 0 0 0 6 779 582 6187 800004 400000 A 0 0 0 0 0 0 0 0 1681915916 194 0 0 0 0 0 0 0 0 0 0 0 0 0 582 0 0 0 0 mpi_lastusedcode
S 778 3 0 0 0 6 0 1 0 0 0 A 0 0 0 0 0 0 0 0 0 1681915916 0 0 0 0 0 0 0 0 0 0 0 0 0 0 0 0 0 0 6
S 779 16 0 0 0 6 781 582 6204 800004 400000 A 0 0 0 0 0 0 0 0 1681915918 196 0 0 0 0 0 0 0 0 0 0 0 0 0 582 0 0 0 0 mpi_appnum
S 780 3 0 0 0 6 0 1 0 0 0 A 0 0 0 0 0 0 0 0 0 1681915918 0 0 0 0 0 0 0 0 0 0 0 0 0 0 0 0 0 0 6
S 781 16 0 0 0 6 783 582 6215 800004 400000 A 0 0 0 0 0 0 0 0 1711276034 198 0 0 0 0 0 0 0 0 0 0 0 0 0 582 0 0 0 0 mpi_win_base
S 782 3 0 0 0 6 0 1 0 0 0 A 0 0 0 0 0 0 0 0 0 1711276034 0 0 0 0 0 0 0 0 0 0 0 0 0 0 0 0 0 0 6
S 783 16 0 0 0 6 785 582 6228 800004 400000 A 0 0 0 0 0 0 0 0 1711276036 200 0 0 0 0 0 0 0 0 0 0 0 0 0 582 0 0 0 0 mpi_win_size
S 784 3 0 0 0 6 0 1 0 0 0 A 0 0 0 0 0 0 0 0 0 1711276036 0 0 0 0 0 0 0 0 0 0 0 0 0 0 0 0 0 0 6
S 785 16 0 0 0 6 787 582 6241 800004 400000 A 0 0 0 0 0 0 0 0 1711276038 202 0 0 0 0 0 0 0 0 0 0 0 0 0 582 0 0 0 0 mpi_win_disp_unit
S 786 3 0 0 0 6 0 1 0 0 0 A 0 0 0 0 0 0 0 0 0 1711276038 0 0 0 0 0 0 0 0 0 0 0 0 0 0 0 0 0 0 6
S 787 16 0 0 0 6 789 582 6259 800004 400000 A 0 0 0 0 0 0 0 0 1023 204 0 0 0 0 0 0 0 0 0 0 0 0 0 582 0 0 0 0 mpi_max_error_string
S 788 3 0 0 0 6 0 1 0 0 0 A 0 0 0 0 0 0 0 0 0 1023 0 0 0 0 0 0 0 0 0 0 0 0 0 0 0 0 0 0 6
S 789 16 0 0 0 6 791 582 6280 800004 400000 A 0 0 0 0 0 0 0 0 255 206 0 0 0 0 0 0 0 0 0 0 0 0 0 582 0 0 0 0 mpi_max_port_name
S 790 3 0 0 0 6 0 1 0 0 0 A 0 0 0 0 0 0 0 0 0 255 0 0 0 0 0 0 0 0 0 0 0 0 0 0 0 0 0 0 6
S 791 16 0 0 0 6 793 582 6298 800004 400000 A 0 0 0 0 0 0 0 0 127 208 0 0 0 0 0 0 0 0 0 0 0 0 0 582 0 0 0 0 mpi_max_object_name
S 792 3 0 0 0 6 0 1 0 0 0 A 0 0 0 0 0 0 0 0 0 127 0 0 0 0 0 0 0 0 0 0 0 0 0 0 0 0 0 0 6
S 793 16 0 0 0 6 795 582 6318 800004 400000 A 0 0 0 0 0 0 0 0 254 210 0 0 0 0 0 0 0 0 0 0 0 0 0 582 0 0 0 0 mpi_max_info_key
S 794 3 0 0 0 6 0 1 0 0 0 A 0 0 0 0 0 0 0 0 0 254 0 0 0 0 0 0 0 0 0 0 0 0 0 0 0 0 0 0 6
S 795 16 0 0 0 6 796 582 6335 800004 400000 A 0 0 0 0 0 0 0 0 1023 204 0 0 0 0 0 0 0 0 0 0 0 0 0 582 0 0 0 0 mpi_max_info_val
S 796 16 0 0 0 6 798 582 6352 800004 400000 A 0 0 0 0 0 0 0 0 127 208 0 0 0 0 0 0 0 0 0 0 0 0 0 582 0 0 0 0 mpi_max_processor_name
S 797 3 0 0 0 6 0 1 0 0 0 A 0 0 0 0 0 0 0 0 0 128 0 0 0 0 0 0 0 0 0 0 0 0 0 0 0 0 0 0 6
S 798 16 0 0 0 6 799 582 6375 800004 400000 A 0 0 0 0 0 0 0 0 127 208 0 0 0 0 0 0 0 0 0 0 0 0 0 582 0 0 0 0 mpi_max_datarep_string
S 799 16 0 0 0 6 802 582 6398 800004 400000 A 0 0 0 0 0 0 0 0 -32766 217 0 0 0 0 0 0 0 0 0 0 0 0 0 582 0 0 0 0 mpi_undefined
S 801 3 0 0 0 6 0 1 0 0 0 A 0 0 0 0 0 0 0 0 -1 -32766 0 0 0 0 0 0 0 0 0 0 0 0 0 0 0 0 0 0 6
S 802 16 0 0 0 6 804 582 6412 800004 400000 A 0 0 0 0 0 0 0 0 603979776 219 0 0 0 0 0 0 0 0 0 0 0 0 0 582 0 0 0 0 mpi_keyval_invalid
S 803 3 0 0 0 6 0 1 0 0 0 A 0 0 0 0 0 0 0 0 0 603979776 0 0 0 0 0 0 0 0 0 0 0 0 0 0 0 0 0 0 6
S 804 16 0 0 0 6 806 582 6431 800004 400000 A 0 0 0 0 0 0 0 0 88 221 0 0 0 0 0 0 0 0 0 0 0 0 0 582 0 0 0 0 mpi_bsend_overhead
S 805 3 0 0 0 6 0 1 0 0 0 A 0 0 0 0 0 0 0 0 0 88 0 0 0 0 0 0 0 0 0 0 0 0 0 0 0 0 0 0 6
S 806 16 0 0 0 6 808 582 6450 800004 400000 A 0 0 0 0 0 0 0 0 -1 223 0 0 0 0 0 0 0 0 0 0 0 0 0 582 0 0 0 0 mpi_proc_null
S 807 3 0 0 0 6 0 1 0 0 0 A 0 0 0 0 0 0 0 0 -1 -1 0 0 0 0 0 0 0 0 0 0 0 0 0 0 0 0 0 0 6
S 808 16 0 0 0 6 810 582 6464 800004 400000 A 0 0 0 0 0 0 0 0 -2 225 0 0 0 0 0 0 0 0 0 0 0 0 0 582 0 0 0 0 mpi_any_source
S 809 3 0 0 0 6 0 1 0 0 0 A 0 0 0 0 0 0 0 0 -1 -2 0 0 0 0 0 0 0 0 0 0 0 0 0 0 0 0 0 0 6
S 810 16 0 0 0 6 811 582 6479 800004 400000 A 0 0 0 0 0 0 0 0 -1 223 0 0 0 0 0 0 0 0 0 0 0 0 0 582 0 0 0 0 mpi_any_tag
S 811 16 0 0 0 6 813 582 6491 800004 400000 A 0 0 0 0 0 0 0 0 -3 228 0 0 0 0 0 0 0 0 0 0 0 0 0 582 0 0 0 0 mpi_root
S 812 3 0 0 0 6 0 1 0 0 0 A 0 0 0 0 0 0 0 0 -1 -3 0 0 0 0 0 0 0 0 0 0 0 0 0 0 0 0 0 0 6
S 813 16 0 0 0 6 814 582 6500 800004 400000 A 0 0 0 0 0 0 0 0 1 3 0 0 0 0 0 0 0 0 0 0 0 0 0 582 0 0 0 0 mpi_graph
S 814 16 0 0 0 6 815 582 6510 800004 400000 A 0 0 0 0 0 0 0 0 2 24 0 0 0 0 0 0 0 0 0 0 0 0 0 582 0 0 0 0 mpi_cart
S 815 16 0 0 0 6 816 582 6519 800004 400000 A 0 0 0 0 0 0 0 0 2 24 0 0 0 0 0 0 0 0 0 0 0 0 0 582 0 0 0 0 mpi_version
S 816 16 0 0 0 6 817 582 6531 800004 400000 A 0 0 0 0 0 0 0 0 2 24 0 0 0 0 0 0 0 0 0 0 0 0 0 582 0 0 0 0 mpi_subversion
S 817 16 0 0 0 6 819 582 6546 800004 400000 A 0 0 0 0 0 0 0 0 234 234 0 0 0 0 0 0 0 0 0 0 0 0 0 582 0 0 0 0 mpi_lock_exclusive
S 818 3 0 0 0 6 0 1 0 0 0 A 0 0 0 0 0 0 0 0 0 234 0 0 0 0 0 0 0 0 0 0 0 0 0 0 0 0 0 0 6
S 819 16 0 0 0 6 821 582 6565 800004 400000 A 0 0 0 0 0 0 0 0 235 236 0 0 0 0 0 0 0 0 0 0 0 0 0 582 0 0 0 0 mpi_lock_shared
S 820 3 0 0 0 6 0 1 0 0 0 A 0 0 0 0 0 0 0 0 0 235 0 0 0 0 0 0 0 0 0 0 0 0 0 0 0 0 0 0 6
S 821 16 0 0 0 6 823 582 6581 800004 400000 A 0 0 0 0 0 0 0 0 1275070494 238 0 0 0 0 0 0 0 0 0 0 0 0 0 582 0 0 0 0 mpi_complex
S 822 3 0 0 0 6 0 1 0 0 0 A 0 0 0 0 0 0 0 0 0 1275070494 0 0 0 0 0 0 0 0 0 0 0 0 0 0 0 0 0 0 6
S 823 16 0 0 0 6 825 582 6593 800004 400000 A 0 0 0 0 0 0 0 0 1275072546 240 0 0 0 0 0 0 0 0 0 0 0 0 0 582 0 0 0 0 mpi_double_complex
S 824 3 0 0 0 6 0 1 0 0 0 A 0 0 0 0 0 0 0 0 0 1275072546 0 0 0 0 0 0 0 0 0 0 0 0 0 0 0 0 0 0 6
S 825 16 0 0 0 6 827 582 6612 800004 400000 A 0 0 0 0 0 0 0 0 1275069469 242 0 0 0 0 0 0 0 0 0 0 0 0 0 582 0 0 0 0 mpi_logical
S 826 3 0 0 0 6 0 1 0 0 0 A 0 0 0 0 0 0 0 0 0 1275069469 0 0 0 0 0 0 0 0 0 0 0 0 0 0 0 0 0 0 6
S 827 16 0 0 0 6 829 582 6624 800004 400000 A 0 0 0 0 0 0 0 0 1275069468 244 0 0 0 0 0 0 0 0 0 0 0 0 0 582 0 0 0 0 mpi_real
S 828 3 0 0 0 6 0 1 0 0 0 A 0 0 0 0 0 0 0 0 0 1275069468 0 0 0 0 0 0 0 0 0 0 0 0 0 0 0 0 0 0 6
S 829 16 0 0 0 6 831 582 6633 800004 400000 A 0 0 0 0 0 0 0 0 1275070495 246 0 0 0 0 0 0 0 0 0 0 0 0 0 582 0 0 0 0 mpi_double_precision
S 830 3 0 0 0 6 0 1 0 0 0 A 0 0 0 0 0 0 0 0 0 1275070495 0 0 0 0 0 0 0 0 0 0 0 0 0 0 0 0 0 0 6
S 831 16 0 0 0 6 833 582 6654 800004 400000 A 0 0 0 0 0 0 0 0 1275069467 248 0 0 0 0 0 0 0 0 0 0 0 0 0 582 0 0 0 0 mpi_integer
S 832 3 0 0 0 6 0 1 0 0 0 A 0 0 0 0 0 0 0 0 0 1275069467 0 0 0 0 0 0 0 0 0 0 0 0 0 0 0 0 0 0 6
S 833 16 0 0 0 6 835 582 6666 800004 400000 A 0 0 0 0 0 0 0 0 1275070496 250 0 0 0 0 0 0 0 0 0 0 0 0 0 582 0 0 0 0 mpi_2integer
S 834 3 0 0 0 6 0 1 0 0 0 A 0 0 0 0 0 0 0 0 0 1275070496 0 0 0 0 0 0 0 0 0 0 0 0 0 0 0 0 0 0 6
S 835 16 0 0 0 6 837 582 6679 800004 400000 A 0 0 0 0 0 0 0 0 1275072548 252 0 0 0 0 0 0 0 0 0 0 0 0 0 582 0 0 0 0 mpi_2complex
S 836 3 0 0 0 6 0 1 0 0 0 A 0 0 0 0 0 0 0 0 0 1275072548 0 0 0 0 0 0 0 0 0 0 0 0 0 0 0 0 0 0 6
S 837 16 0 0 0 6 839 582 6692 800004 400000 A 0 0 0 0 0 0 0 0 1275072547 254 0 0 0 0 0 0 0 0 0 0 0 0 0 582 0 0 0 0 mpi_2double_precision
S 838 3 0 0 0 6 0 1 0 0 0 A 0 0 0 0 0 0 0 0 0 1275072547 0 0 0 0 0 0 0 0 0 0 0 0 0 0 0 0 0 0 6
S 839 16 0 0 0 6 841 582 6714 800004 400000 A 0 0 0 0 0 0 0 0 1275070497 256 0 0 0 0 0 0 0 0 0 0 0 0 0 582 0 0 0 0 mpi_2real
S 840 3 0 0 0 6 0 1 0 0 0 A 0 0 0 0 0 0 0 0 0 1275070497 0 0 0 0 0 0 0 0 0 0 0 0 0 0 0 0 0 0 6
S 841 16 0 0 0 6 843 582 6724 800004 400000 A 0 0 0 0 0 0 0 0 1275076645 258 0 0 0 0 0 0 0 0 0 0 0 0 0 582 0 0 0 0 mpi_2double_complex
S 842 3 0 0 0 6 0 1 0 0 0 A 0 0 0 0 0 0 0 0 0 1275076645 0 0 0 0 0 0 0 0 0 0 0 0 0 0 0 0 0 0 6
S 843 16 0 0 0 6 845 582 6744 800004 400000 A 0 0 0 0 0 0 0 0 1275068698 260 0 0 0 0 0 0 0 0 0 0 0 0 0 582 0 0 0 0 mpi_character
S 844 3 0 0 0 6 0 1 0 0 0 A 0 0 0 0 0 0 0 0 0 1275068698 0 0 0 0 0 0 0 0 0 0 0 0 0 0 0 0 0 0 6
S 845 16 0 0 0 6 847 582 6758 800004 400000 A 0 0 0 0 0 0 0 0 1275068685 262 0 0 0 0 0 0 0 0 0 0 0 0 0 582 0 0 0 0 mpi_byte
S 846 3 0 0 0 6 0 1 0 0 0 A 0 0 0 0 0 0 0 0 0 1275068685 0 0 0 0 0 0 0 0 0 0 0 0 0 0 0 0 0 0 6
S 847 16 0 0 0 6 849 582 6767 800004 400000 A 0 0 0 0 0 0 0 0 1275068433 264 0 0 0 0 0 0 0 0 0 0 0 0 0 582 0 0 0 0 mpi_ub
S 848 3 0 0 0 6 0 1 0 0 0 A 0 0 0 0 0 0 0 0 0 1275068433 0 0 0 0 0 0 0 0 0 0 0 0 0 0 0 0 0 0 6
S 849 16 0 0 0 6 851 582 6774 800004 400000 A 0 0 0 0 0 0 0 0 1275068432 266 0 0 0 0 0 0 0 0 0 0 0 0 0 582 0 0 0 0 mpi_lb
S 850 3 0 0 0 6 0 1 0 0 0 A 0 0 0 0 0 0 0 0 0 1275068432 0 0 0 0 0 0 0 0 0 0 0 0 0 0 0 0 0 0 6
S 851 16 0 0 0 6 853 582 6781 800004 400000 A 0 0 0 0 0 0 0 0 1275068687 268 0 0 0 0 0 0 0 0 0 0 0 0 0 582 0 0 0 0 mpi_packed
S 852 3 0 0 0 6 0 1 0 0 0 A 0 0 0 0 0 0 0 0 0 1275068687 0 0 0 0 0 0 0 0 0 0 0 0 0 0 0 0 0 0 6
S 853 16 0 0 0 6 855 582 6792 800004 400000 A 0 0 0 0 0 0 0 0 1275068717 270 0 0 0 0 0 0 0 0 0 0 0 0 0 582 0 0 0 0 mpi_integer1
S 854 3 0 0 0 6 0 1 0 0 0 A 0 0 0 0 0 0 0 0 0 1275068717 0 0 0 0 0 0 0 0 0 0 0 0 0 0 0 0 0 0 6
S 855 16 0 0 0 6 857 582 6805 800004 400000 A 0 0 0 0 0 0 0 0 1275068975 272 0 0 0 0 0 0 0 0 0 0 0 0 0 582 0 0 0 0 mpi_integer2
S 856 3 0 0 0 6 0 1 0 0 0 A 0 0 0 0 0 0 0 0 0 1275068975 0 0 0 0 0 0 0 0 0 0 0 0 0 0 0 0 0 0 6
S 857 16 0 0 0 6 859 582 6818 800004 400000 A 0 0 0 0 0 0 0 0 1275069488 274 0 0 0 0 0 0 0 0 0 0 0 0 0 582 0 0 0 0 mpi_integer4
S 858 3 0 0 0 6 0 1 0 0 0 A 0 0 0 0 0 0 0 0 0 1275069488 0 0 0 0 0 0 0 0 0 0 0 0 0 0 0 0 0 0 6
S 859 16 0 0 0 6 861 582 6831 800004 400000 A 0 0 0 0 0 0 0 0 1275070513 276 0 0 0 0 0 0 0 0 0 0 0 0 0 582 0 0 0 0 mpi_integer8
S 860 3 0 0 0 6 0 1 0 0 0 A 0 0 0 0 0 0 0 0 0 1275070513 0 0 0 0 0 0 0 0 0 0 0 0 0 0 0 0 0 0 6
S 861 16 0 0 0 6 862 582 6844 800004 400000 A 0 0 0 0 0 0 0 0 201326592 176 0 0 0 0 0 0 0 0 0 0 0 0 0 582 0 0 0 0 mpi_integer16
S 862 16 0 0 0 6 864 582 6858 800004 400000 A 0 0 0 0 0 0 0 0 1275069479 279 0 0 0 0 0 0 0 0 0 0 0 0 0 582 0 0 0 0 mpi_real4
S 863 3 0 0 0 6 0 1 0 0 0 A 0 0 0 0 0 0 0 0 0 1275069479 0 0 0 0 0 0 0 0 0 0 0 0 0 0 0 0 0 0 6
S 864 16 0 0 0 6 866 582 6868 800004 400000 A 0 0 0 0 0 0 0 0 1275070505 281 0 0 0 0 0 0 0 0 0 0 0 0 0 582 0 0 0 0 mpi_real8
S 865 3 0 0 0 6 0 1 0 0 0 A 0 0 0 0 0 0 0 0 0 1275070505 0 0 0 0 0 0 0 0 0 0 0 0 0 0 0 0 0 0 6
S 866 16 0 0 0 6 867 582 6878 800004 400000 A 0 0 0 0 0 0 0 0 201326592 176 0 0 0 0 0 0 0 0 0 0 0 0 0 582 0 0 0 0 mpi_real16
S 867 16 0 0 0 6 869 582 6889 800004 400000 A 0 0 0 0 0 0 0 0 1275070504 284 0 0 0 0 0 0 0 0 0 0 0 0 0 582 0 0 0 0 mpi_complex8
S 868 3 0 0 0 6 0 1 0 0 0 A 0 0 0 0 0 0 0 0 0 1275070504 0 0 0 0 0 0 0 0 0 0 0 0 0 0 0 0 0 0 6
S 869 16 0 0 0 6 871 582 6902 800004 400000 A 0 0 0 0 0 0 0 0 1275072554 286 0 0 0 0 0 0 0 0 0 0 0 0 0 582 0 0 0 0 mpi_complex16
S 870 3 0 0 0 6 0 1 0 0 0 A 0 0 0 0 0 0 0 0 0 1275072554 0 0 0 0 0 0 0 0 0 0 0 0 0 0 0 0 0 0 6
S 871 16 0 0 0 6 872 582 6916 800004 400000 A 0 0 0 0 0 0 0 0 201326592 176 0 0 0 0 0 0 0 0 0 0 0 0 0 582 0 0 0 0 mpi_complex32
S 872 16 0 0 0 6 873 582 6930 800004 400000 A 0 0 0 0 0 0 0 0 8 13 0 0 0 0 0 0 0 0 0 0 0 0 0 582 0 0 0 0 mpi_address_kind
S 873 16 0 0 0 6 874 582 6947 800004 400000 A 0 0 0 0 0 0 0 0 8 13 0 0 0 0 0 0 0 0 0 0 0 0 0 582 0 0 0 0 mpi_offset_kind
S 874 16 0 0 0 6 876 582 6963 800004 400000 A 0 0 0 0 0 0 0 0 1275068673 291 0 0 0 0 0 0 0 0 0 0 0 0 0 582 0 0 0 0 mpi_char
S 875 3 0 0 0 6 0 1 0 0 0 A 0 0 0 0 0 0 0 0 0 1275068673 0 0 0 0 0 0 0 0 0 0 0 0 0 0 0 0 0 0 6
S 876 16 0 0 0 6 878 582 6972 800004 400000 A 0 0 0 0 0 0 0 0 1275068696 293 0 0 0 0 0 0 0 0 0 0 0 0 0 582 0 0 0 0 mpi_signed_char
S 877 3 0 0 0 6 0 1 0 0 0 A 0 0 0 0 0 0 0 0 0 1275068696 0 0 0 0 0 0 0 0 0 0 0 0 0 0 0 0 0 0 6
S 878 16 0 0 0 6 880 582 6988 800004 400000 A 0 0 0 0 0 0 0 0 1275068674 295 0 0 0 0 0 0 0 0 0 0 0 0 0 582 0 0 0 0 mpi_unsigned_char
S 879 3 0 0 0 6 0 1 0 0 0 A 0 0 0 0 0 0 0 0 0 1275068674 0 0 0 0 0 0 0 0 0 0 0 0 0 0 0 0 0 0 6
S 880 16 0 0 0 6 882 582 7006 800004 400000 A 0 0 0 0 0 0 0 0 1275069454 297 0 0 0 0 0 0 0 0 0 0 0 0 0 582 0 0 0 0 mpi_wchar
S 881 3 0 0 0 6 0 1 0 0 0 A 0 0 0 0 0 0 0 0 0 1275069454 0 0 0 0 0 0 0 0 0 0 0 0 0 0 0 0 0 0 6
S 882 16 0 0 0 6 884 582 7016 800004 400000 A 0 0 0 0 0 0 0 0 1275068931 299 0 0 0 0 0 0 0 0 0 0 0 0 0 582 0 0 0 0 mpi_short
S 883 3 0 0 0 6 0 1 0 0 0 A 0 0 0 0 0 0 0 0 0 1275068931 0 0 0 0 0 0 0 0 0 0 0 0 0 0 0 0 0 0 6
S 884 16 0 0 0 6 886 582 7026 800004 400000 A 0 0 0 0 0 0 0 0 1275068932 301 0 0 0 0 0 0 0 0 0 0 0 0 0 582 0 0 0 0 mpi_unsigned_short
S 885 3 0 0 0 6 0 1 0 0 0 A 0 0 0 0 0 0 0 0 0 1275068932 0 0 0 0 0 0 0 0 0 0 0 0 0 0 0 0 0 0 6
S 886 16 0 0 0 6 888 582 7045 800004 400000 A 0 0 0 0 0 0 0 0 1275069445 303 0 0 0 0 0 0 0 0 0 0 0 0 0 582 0 0 0 0 mpi_int
S 887 3 0 0 0 6 0 1 0 0 0 A 0 0 0 0 0 0 0 0 0 1275069445 0 0 0 0 0 0 0 0 0 0 0 0 0 0 0 0 0 0 6
S 888 16 0 0 0 6 890 582 7053 800004 400000 A 0 0 0 0 0 0 0 0 1275069446 305 0 0 0 0 0 0 0 0 0 0 0 0 0 582 0 0 0 0 mpi_unsigned
S 889 3 0 0 0 6 0 1 0 0 0 A 0 0 0 0 0 0 0 0 0 1275069446 0 0 0 0 0 0 0 0 0 0 0 0 0 0 0 0 0 0 6
S 890 16 0 0 0 6 892 582 7066 800004 400000 A 0 0 0 0 0 0 0 0 1275070471 307 0 0 0 0 0 0 0 0 0 0 0 0 0 582 0 0 0 0 mpi_long
S 891 3 0 0 0 6 0 1 0 0 0 A 0 0 0 0 0 0 0 0 0 1275070471 0 0 0 0 0 0 0 0 0 0 0 0 0 0 0 0 0 0 6
S 892 16 0 0 0 6 894 582 7075 800004 400000 A 0 0 0 0 0 0 0 0 1275070472 309 0 0 0 0 0 0 0 0 0 0 0 0 0 582 0 0 0 0 mpi_unsigned_long
S 893 3 0 0 0 6 0 1 0 0 0 A 0 0 0 0 0 0 0 0 0 1275070472 0 0 0 0 0 0 0 0 0 0 0 0 0 0 0 0 0 0 6
S 894 16 0 0 0 6 896 582 7093 800004 400000 A 0 0 0 0 0 0 0 0 1275069450 311 0 0 0 0 0 0 0 0 0 0 0 0 0 582 0 0 0 0 mpi_float
S 895 3 0 0 0 6 0 1 0 0 0 A 0 0 0 0 0 0 0 0 0 1275069450 0 0 0 0 0 0 0 0 0 0 0 0 0 0 0 0 0 0 6
S 896 16 0 0 0 6 898 582 7103 800004 400000 A 0 0 0 0 0 0 0 0 1275070475 313 0 0 0 0 0 0 0 0 0 0 0 0 0 582 0 0 0 0 mpi_double
S 897 3 0 0 0 6 0 1 0 0 0 A 0 0 0 0 0 0 0 0 0 1275070475 0 0 0 0 0 0 0 0 0 0 0 0 0 0 0 0 0 0 6
S 898 16 0 0 0 6 899 582 7114 800004 400000 A 0 0 0 0 0 0 0 0 201326592 176 0 0 0 0 0 0 0 0 0 0 0 0 0 582 0 0 0 0 mpi_long_double
S 899 16 0 0 0 6 901 582 7130 800004 400000 A 0 0 0 0 0 0 0 0 1275070473 316 0 0 0 0 0 0 0 0 0 0 0 0 0 582 0 0 0 0 mpi_long_long_int
S 900 3 0 0 0 6 0 1 0 0 0 A 0 0 0 0 0 0 0 0 0 1275070473 0 0 0 0 0 0 0 0 0 0 0 0 0 0 0 0 0 0 6
S 901 16 0 0 0 6 903 582 7148 800004 400000 A 0 0 0 0 0 0 0 0 1275070489 318 0 0 0 0 0 0 0 0 0 0 0 0 0 582 0 0 0 0 mpi_unsigned_long_long
S 902 3 0 0 0 6 0 1 0 0 0 A 0 0 0 0 0 0 0 0 0 1275070489 0 0 0 0 0 0 0 0 0 0 0 0 0 0 0 0 0 0 6
S 903 16 0 0 0 6 904 582 7171 800004 400000 A 0 0 0 0 0 0 0 0 1275070473 316 0 0 0 0 0 0 0 0 0 0 0 0 0 582 0 0 0 0 mpi_long_long
S 904 16 0 0 0 6 907 582 7185 800004 400000 A 0 0 0 0 0 0 0 0 -1946157056 322 0 0 0 0 0 0 0 0 0 0 0 0 0 582 0 0 0 0 mpi_float_int
S 906 3 0 0 0 6 0 1 0 0 0 A 0 0 0 0 0 0 0 0 -1 -1946157056 0 0 0 0 0 0 0 0 0 0 0 0 0 0 0 0 0 0 6
S 907 16 0 0 0 6 910 582 7199 800004 400000 A 0 0 0 0 0 0 0 0 -1946157055 325 0 0 0 0 0 0 0 0 0 0 0 0 0 582 0 0 0 0 mpi_double_int
S 909 3 0 0 0 6 0 1 0 0 0 A 0 0 0 0 0 0 0 0 -1 -1946157055 0 0 0 0 0 0 0 0 0 0 0 0 0 0 0 0 0 0 6
S 910 16 0 0 0 6 913 582 7214 800004 400000 A 0 0 0 0 0 0 0 0 -1946157054 328 0 0 0 0 0 0 0 0 0 0 0 0 0 582 0 0 0 0 mpi_long_int
S 912 3 0 0 0 6 0 1 0 0 0 A 0 0 0 0 0 0 0 0 -1 -1946157054 0 0 0 0 0 0 0 0 0 0 0 0 0 0 0 0 0 0 6
S 913 16 0 0 0 6 916 582 7227 800004 400000 A 0 0 0 0 0 0 0 0 -1946157053 331 0 0 0 0 0 0 0 0 0 0 0 0 0 582 0 0 0 0 mpi_short_int
S 915 3 0 0 0 6 0 1 0 0 0 A 0 0 0 0 0 0 0 0 -1 -1946157053 0 0 0 0 0 0 0 0 0 0 0 0 0 0 0 0 0 0 6
S 916 16 0 0 0 6 918 582 7241 800004 400000 A 0 0 0 0 0 0 0 0 1275070486 333 0 0 0 0 0 0 0 0 0 0 0 0 0 582 0 0 0 0 mpi_2int
S 917 3 0 0 0 6 0 1 0 0 0 A 0 0 0 0 0 0 0 0 0 1275070486 0 0 0 0 0 0 0 0 0 0 0 0 0 0 0 0 0 0 6
S 918 16 0 0 0 6 919 582 7250 800004 400000 A 0 0 0 0 0 0 0 0 201326592 176 0 0 0 0 0 0 0 0 0 0 0 0 0 582 0 0 0 0 mpi_long_double_int
S 919 16 0 0 0 6 921 582 7270 800004 400000 A 0 0 0 0 0 0 0 0 1275068727 336 0 0 0 0 0 0 0 0 0 0 0 0 0 582 0 0 0 0 mpi_int8_t
S 920 3 0 0 0 6 0 1 0 0 0 A 0 0 0 0 0 0 0 0 0 1275068727 0 0 0 0 0 0 0 0 0 0 0 0 0 0 0 0 0 0 6
S 921 16 0 0 0 6 923 582 7281 800004 400000 A 0 0 0 0 0 0 0 0 1275068984 338 0 0 0 0 0 0 0 0 0 0 0 0 0 582 0 0 0 0 mpi_int16_t
S 922 3 0 0 0 6 0 1 0 0 0 A 0 0 0 0 0 0 0 0 0 1275068984 0 0 0 0 0 0 0 0 0 0 0 0 0 0 0 0 0 0 6
S 923 16 0 0 0 6 925 582 7293 800004 400000 A 0 0 0 0 0 0 0 0 1275069497 340 0 0 0 0 0 0 0 0 0 0 0 0 0 582 0 0 0 0 mpi_int32_t
S 924 3 0 0 0 6 0 1 0 0 0 A 0 0 0 0 0 0 0 0 0 1275069497 0 0 0 0 0 0 0 0 0 0 0 0 0 0 0 0 0 0 6
S 925 16 0 0 0 6 927 582 7305 800004 400000 A 0 0 0 0 0 0 0 0 1275070522 342 0 0 0 0 0 0 0 0 0 0 0 0 0 582 0 0 0 0 mpi_int64_t
S 926 3 0 0 0 6 0 1 0 0 0 A 0 0 0 0 0 0 0 0 0 1275070522 0 0 0 0 0 0 0 0 0 0 0 0 0 0 0 0 0 0 6
S 927 16 0 0 0 6 929 582 7317 800004 400000 A 0 0 0 0 0 0 0 0 1275068731 344 0 0 0 0 0 0 0 0 0 0 0 0 0 582 0 0 0 0 mpi_uint8_t
S 928 3 0 0 0 6 0 1 0 0 0 A 0 0 0 0 0 0 0 0 0 1275068731 0 0 0 0 0 0 0 0 0 0 0 0 0 0 0 0 0 0 6
S 929 16 0 0 0 6 931 582 7329 800004 400000 A 0 0 0 0 0 0 0 0 1275068988 346 0 0 0 0 0 0 0 0 0 0 0 0 0 582 0 0 0 0 mpi_uint16_t
S 930 3 0 0 0 6 0 1 0 0 0 A 0 0 0 0 0 0 0 0 0 1275068988 0 0 0 0 0 0 0 0 0 0 0 0 0 0 0 0 0 0 6
S 931 16 0 0 0 6 933 582 7342 800004 400000 A 0 0 0 0 0 0 0 0 1275069501 348 0 0 0 0 0 0 0 0 0 0 0 0 0 582 0 0 0 0 mpi_uint32_t
S 932 3 0 0 0 6 0 1 0 0 0 A 0 0 0 0 0 0 0 0 0 1275069501 0 0 0 0 0 0 0 0 0 0 0 0 0 0 0 0 0 0 6
S 933 16 0 0 0 6 935 582 7355 800004 400000 A 0 0 0 0 0 0 0 0 1275070526 350 0 0 0 0 0 0 0 0 0 0 0 0 0 582 0 0 0 0 mpi_uint64_t
S 934 3 0 0 0 6 0 1 0 0 0 A 0 0 0 0 0 0 0 0 0 1275070526 0 0 0 0 0 0 0 0 0 0 0 0 0 0 0 0 0 0 6
S 935 16 0 0 0 6 937 582 7368 800004 400000 A 0 0 0 0 0 0 0 0 1275068735 352 0 0 0 0 0 0 0 0 0 0 0 0 0 582 0 0 0 0 mpi_c_bool
S 936 3 0 0 0 6 0 1 0 0 0 A 0 0 0 0 0 0 0 0 0 1275068735 0 0 0 0 0 0 0 0 0 0 0 0 0 0 0 0 0 0 6
S 937 16 0 0 0 6 939 582 7379 800004 400000 A 0 0 0 0 0 0 0 0 1275070528 354 0 0 0 0 0 0 0 0 0 0 0 0 0 582 0 0 0 0 mpi_c_float_complex
S 938 3 0 0 0 6 0 1 0 0 0 A 0 0 0 0 0 0 0 0 0 1275070528 0 0 0 0 0 0 0 0 0 0 0 0 0 0 0 0 0 0 6
S 939 16 0 0 0 6 940 582 7399 800004 400000 A 0 0 0 0 0 0 0 0 1275070528 354 0 0 0 0 0 0 0 0 0 0 0 0 0 582 0 0 0 0 mpi_c_complex
S 940 16 0 0 0 6 942 582 7413 800004 400000 A 0 0 0 0 0 0 0 0 1275072577 357 0 0 0 0 0 0 0 0 0 0 0 0 0 582 0 0 0 0 mpi_c_double_complex
S 941 3 0 0 0 6 0 1 0 0 0 A 0 0 0 0 0 0 0 0 0 1275072577 0 0 0 0 0 0 0 0 0 0 0 0 0 0 0 0 0 0 6
S 942 16 0 0 0 6 944 582 7434 800004 400000 A 0 0 0 0 0 0 0 0 1275076674 359 0 0 0 0 0 0 0 0 0 0 0 0 0 582 0 0 0 0 mpi_c_long_double_complex
S 943 3 0 0 0 6 0 1 0 0 0 A 0 0 0 0 0 0 0 0 0 1275076674 0 0 0 0 0 0 0 0 0 0 0 0 0 0 0 0 0 0 6
S 944 16 0 0 0 6 946 582 7460 800004 400000 A 0 0 0 0 0 0 0 0 1275070531 361 0 0 0 0 0 0 0 0 0 0 0 0 0 582 0 0 0 0 mpi_aint
S 945 3 0 0 0 6 0 1 0 0 0 A 0 0 0 0 0 0 0 0 0 1275070531 0 0 0 0 0 0 0 0 0 0 0 0 0 0 0 0 0 0 6
S 946 16 0 0 0 6 948 582 7469 800004 400000 A 0 0 0 0 0 0 0 0 1275070532 363 0 0 0 0 0 0 0 0 0 0 0 0 0 582 0 0 0 0 mpi_offset
S 947 3 0 0 0 6 0 1 0 0 0 A 0 0 0 0 0 0 0 0 0 1275070532 0 0 0 0 0 0 0 0 0 0 0 0 0 0 0 0 0 0 6
S 948 16 0 0 0 6 949 582 7480 800004 400000 A 0 0 0 0 0 0 0 0 1 3 0 0 0 0 0 0 0 0 0 0 0 0 0 582 0 0 0 0 mpi_combiner_named
S 949 16 0 0 0 6 950 582 7499 800004 400000 A 0 0 0 0 0 0 0 0 2 24 0 0 0 0 0 0 0 0 0 0 0 0 0 582 0 0 0 0 mpi_combiner_dup
S 950 16 0 0 0 6 951 582 7516 800004 400000 A 0 0 0 0 0 0 0 0 3 18 0 0 0 0 0 0 0 0 0 0 0 0 0 582 0 0 0 0 mpi_combiner_contiguous
S 951 16 0 0 0 6 952 582 7540 800004 400000 A 0 0 0 0 0 0 0 0 4 15 0 0 0 0 0 0 0 0 0 0 0 0 0 582 0 0 0 0 mpi_combiner_vector
S 952 16 0 0 0 6 953 582 7560 800004 400000 A 0 0 0 0 0 0 0 0 5 21 0 0 0 0 0 0 0 0 0 0 0 0 0 582 0 0 0 0 mpi_combiner_hvector_integer
S 953 16 0 0 0 6 954 582 7589 800004 400000 A 0 0 0 0 0 0 0 0 6 17 0 0 0 0 0 0 0 0 0 0 0 0 0 582 0 0 0 0 mpi_combiner_hvector
S 954 16 0 0 0 6 955 582 7610 800004 400000 A 0 0 0 0 0 0 0 0 7 108 0 0 0 0 0 0 0 0 0 0 0 0 0 582 0 0 0 0 mpi_combiner_indexed
S 955 16 0 0 0 6 956 582 7631 800004 400000 A 0 0 0 0 0 0 0 0 8 13 0 0 0 0 0 0 0 0 0 0 0 0 0 582 0 0 0 0 mpi_combiner_hindexed_integer
S 956 16 0 0 0 6 957 582 7661 800004 400000 A 0 0 0 0 0 0 0 0 9 45 0 0 0 0 0 0 0 0 0 0 0 0 0 582 0 0 0 0 mpi_combiner_hindexed
S 957 16 0 0 0 6 958 582 7683 800004 400000 A 0 0 0 0 0 0 0 0 10 82 0 0 0 0 0 0 0 0 0 0 0 0 0 582 0 0 0 0 mpi_combiner_indexed_block
S 958 16 0 0 0 6 959 582 7710 800004 400000 A 0 0 0 0 0 0 0 0 11 111 0 0 0 0 0 0 0 0 0 0 0 0 0 582 0 0 0 0 mpi_combiner_struct_integer
S 959 16 0 0 0 6 960 582 7738 800004 400000 A 0 0 0 0 0 0 0 0 12 47 0 0 0 0 0 0 0 0 0 0 0 0 0 582 0 0 0 0 mpi_combiner_struct
S 960 16 0 0 0 6 961 582 7758 800004 400000 A 0 0 0 0 0 0 0 0 13 100 0 0 0 0 0 0 0 0 0 0 0 0 0 582 0 0 0 0 mpi_combiner_subarray
S 961 16 0 0 0 6 962 582 7780 800004 400000 A 0 0 0 0 0 0 0 0 14 60 0 0 0 0 0 0 0 0 0 0 0 0 0 582 0 0 0 0 mpi_combiner_darray
S 962 16 0 0 0 6 963 582 7800 800004 400000 A 0 0 0 0 0 0 0 0 15 26 0 0 0 0 0 0 0 0 0 0 0 0 0 582 0 0 0 0 mpi_combiner_f90_real
S 963 16 0 0 0 6 964 582 7822 800004 400000 A 0 0 0 0 0 0 0 0 16 117 0 0 0 0 0 0 0 0 0 0 0 0 0 582 0 0 0 0 mpi_combiner_f90_complex
S 964 16 0 0 0 6 965 582 7847 800004 400000 A 0 0 0 0 0 0 0 0 17 39 0 0 0 0 0 0 0 0 0 0 0 0 0 582 0 0 0 0 mpi_combiner_f90_integer
S 965 16 0 0 0 6 966 582 7872 800004 400000 A 0 0 0 0 0 0 0 0 18 72 0 0 0 0 0 0 0 0 0 0 0 0 0 582 0 0 0 0 mpi_combiner_resized
S 966 16 0 0 0 6 967 582 7893 800004 400000 A 0 0 0 0 0 0 0 0 1 3 0 0 0 0 0 0 0 0 0 0 0 0 0 582 0 0 0 0 mpi_typeclass_real
S 967 16 0 0 0 6 968 582 7912 800004 400000 A 0 0 0 0 0 0 0 0 2 24 0 0 0 0 0 0 0 0 0 0 0 0 0 582 0 0 0 0 mpi_typeclass_integer
S 968 16 0 0 0 6 969 582 7934 800004 400000 A 0 0 0 0 0 0 0 0 3 18 0 0 0 0 0 0 0 0 0 0 0 0 0 582 0 0 0 0 mpi_typeclass_complex
S 969 16 0 0 0 6 971 582 7956 800004 400000 A 0 0 0 0 0 0 0 0 1024 386 0 0 0 0 0 0 0 0 0 0 0 0 0 582 0 0 0 0 mpi_mode_nocheck
S 970 3 0 0 0 6 0 1 0 0 0 A 0 0 0 0 0 0 0 0 0 1024 0 0 0 0 0 0 0 0 0 0 0 0 0 0 0 0 0 0 6
S 971 16 0 0 0 6 973 582 7973 800004 400000 A 0 0 0 0 0 0 0 0 2048 388 0 0 0 0 0 0 0 0 0 0 0 0 0 582 0 0 0 0 mpi_mode_nostore
S 972 3 0 0 0 6 0 1 0 0 0 A 0 0 0 0 0 0 0 0 0 2048 0 0 0 0 0 0 0 0 0 0 0 0 0 0 0 0 0 0 6
S 973 16 0 0 0 6 975 582 7990 800004 400000 A 0 0 0 0 0 0 0 0 4096 390 0 0 0 0 0 0 0 0 0 0 0 0 0 582 0 0 0 0 mpi_mode_noput
S 974 3 0 0 0 6 0 1 0 0 0 A 0 0 0 0 0 0 0 0 0 4096 0 0 0 0 0 0 0 0 0 0 0 0 0 0 0 0 0 0 6
S 975 16 0 0 0 6 977 582 8005 800004 400000 A 0 0 0 0 0 0 0 0 8192 392 0 0 0 0 0 0 0 0 0 0 0 0 0 582 0 0 0 0 mpi_mode_noprecede
S 976 3 0 0 0 6 0 1 0 0 0 A 0 0 0 0 0 0 0 0 0 8192 0 0 0 0 0 0 0 0 0 0 0 0 0 0 0 0 0 0 6
S 977 16 0 0 0 6 979 582 8024 800004 400000 A 0 0 0 0 0 0 0 0 16384 394 0 0 0 0 0 0 0 0 0 0 0 0 0 582 0 0 0 0 mpi_mode_nosucceed
S 978 3 0 0 0 6 0 1 0 0 0 A 0 0 0 0 0 0 0 0 0 16384 0 0 0 0 0 0 0 0 0 0 0 0 0 0 0 0 0 0 6
S 979 16 0 0 0 6 980 582 8043 800004 400000 A 0 0 0 0 0 0 0 0 0 2 0 0 0 0 0 0 0 0 0 0 0 0 0 582 0 0 0 0 mpi_thread_single
S 980 16 0 0 0 6 981 582 8061 800004 400000 A 0 0 0 0 0 0 0 0 1 3 0 0 0 0 0 0 0 0 0 0 0 0 0 582 0 0 0 0 mpi_thread_funneled
S 981 16 0 0 0 6 982 582 8081 800004 400000 A 0 0 0 0 0 0 0 0 2 24 0 0 0 0 0 0 0 0 0 0 0 0 0 582 0 0 0 0 mpi_thread_serialized
S 982 16 0 0 0 6 983 582 8103 800004 400000 A 0 0 0 0 0 0 0 0 3 18 0 0 0 0 0 0 0 0 0 0 0 0 0 582 0 0 0 0 mpi_thread_multiple
S 983 16 0 0 0 6 984 582 8123 800004 400000 A 0 0 0 0 0 0 0 0 2 24 0 0 0 0 0 0 0 0 0 0 0 0 0 582 0 0 0 0 mpi_mode_rdonly
S 984 16 0 0 0 6 985 582 8139 800004 400000 A 0 0 0 0 0 0 0 0 8 13 0 0 0 0 0 0 0 0 0 0 0 0 0 582 0 0 0 0 mpi_mode_rdwr
S 985 16 0 0 0 6 986 582 8153 800004 400000 A 0 0 0 0 0 0 0 0 4 15 0 0 0 0 0 0 0 0 0 0 0 0 0 582 0 0 0 0 mpi_mode_wronly
S 986 16 0 0 0 6 987 582 8169 800004 400000 A 0 0 0 0 0 0 0 0 16 117 0 0 0 0 0 0 0 0 0 0 0 0 0 582 0 0 0 0 mpi_mode_delete_on_close
S 987 16 0 0 0 6 988 582 8194 800004 400000 A 0 0 0 0 0 0 0 0 32 119 0 0 0 0 0 0 0 0 0 0 0 0 0 582 0 0 0 0 mpi_mode_unique_open
S 988 16 0 0 0 6 989 582 8215 800004 400000 A 0 0 0 0 0 0 0 0 1 3 0 0 0 0 0 0 0 0 0 0 0 0 0 582 0 0 0 0 mpi_mode_create
S 989 16 0 0 0 6 991 582 8231 800004 400000 A 0 0 0 0 0 0 0 0 64 406 0 0 0 0 0 0 0 0 0 0 0 0 0 582 0 0 0 0 mpi_mode_excl
S 990 3 0 0 0 6 0 1 0 0 0 A 0 0 0 0 0 0 0 0 0 64 0 0 0 0 0 0 0 0 0 0 0 0 0 0 0 0 0 0 6
S 991 16 0 0 0 6 992 582 8245 800004 400000 A 0 0 0 0 0 0 0 0 128 213 0 0 0 0 0 0 0 0 0 0 0 0 0 582 0 0 0 0 mpi_mode_append
S 992 16 0 0 0 6 994 582 8261 800004 400000 A 0 0 0 0 0 0 0 0 256 409 0 0 0 0 0 0 0 0 0 0 0 0 0 582 0 0 0 0 mpi_mode_sequential
S 993 3 0 0 0 6 0 1 0 0 0 A 0 0 0 0 0 0 0 0 0 256 0 0 0 0 0 0 0 0 0 0 0 0 0 0 0 0 0 0 6
S 994 16 0 0 0 6 996 582 8281 800004 400000 A 0 0 0 0 0 0 0 0 600 411 0 0 0 0 0 0 0 0 0 0 0 0 0 582 0 0 0 0 mpi_seek_set
S 995 3 0 0 0 6 0 1 0 0 0 A 0 0 0 0 0 0 0 0 0 600 0 0 0 0 0 0 0 0 0 0 0 0 0 0 0 0 0 0 6
S 996 16 0 0 0 6 998 582 8294 800004 400000 A 0 0 0 0 0 0 0 0 602 413 0 0 0 0 0 0 0 0 0 0 0 0 0 582 0 0 0 0 mpi_seek_cur
S 997 3 0 0 0 6 0 1 0 0 0 A 0 0 0 0 0 0 0 0 0 602 0 0 0 0 0 0 0 0 0 0 0 0 0 0 0 0 0 0 6
S 998 16 0 0 0 6 1000 582 8307 800004 400000 A 0 0 0 0 0 0 0 0 604 415 0 0 0 0 0 0 0 0 0 0 0 0 0 582 0 0 0 0 mpi_seek_end
S 999 3 0 0 0 6 0 1 0 0 0 A 0 0 0 0 0 0 0 0 0 604 0 0 0 0 0 0 0 0 0 0 0 0 0 0 0 0 0 0 6
S 1000 16 0 0 0 6 1002 582 8320 800004 400000 A 0 0 0 0 0 0 0 0 56 417 0 0 0 0 0 0 0 0 0 0 0 0 0 582 0 0 0 0 mpi_order_c
S 1001 3 0 0 0 6 0 1 0 0 0 A 0 0 0 0 0 0 0 0 0 56 0 0 0 0 0 0 0 0 0 0 0 0 0 0 0 0 0 0 6
S 1002 16 0 0 0 6 1004 582 8332 800004 400000 A 0 0 0 0 0 0 0 0 57 419 0 0 0 0 0 0 0 0 0 0 0 0 0 582 0 0 0 0 mpi_order_fortran
S 1003 3 0 0 0 6 0 1 0 0 0 A 0 0 0 0 0 0 0 0 0 57 0 0 0 0 0 0 0 0 0 0 0 0 0 0 0 0 0 0 6
S 1004 16 0 0 0 6 1006 582 8350 800004 400000 A 0 0 0 0 0 0 0 0 121 421 0 0 0 0 0 0 0 0 0 0 0 0 0 582 0 0 0 0 mpi_distribute_block
S 1005 3 0 0 0 6 0 1 0 0 0 A 0 0 0 0 0 0 0 0 0 121 0 0 0 0 0 0 0 0 0 0 0 0 0 0 0 0 0 0 6
S 1006 16 0 0 0 6 1008 582 8371 800004 400000 A 0 0 0 0 0 0 0 0 122 423 0 0 0 0 0 0 0 0 0 0 0 0 0 582 0 0 0 0 mpi_distribute_cyclic
S 1007 3 0 0 0 6 0 1 0 0 0 A 0 0 0 0 0 0 0 0 0 122 0 0 0 0 0 0 0 0 0 0 0 0 0 0 0 0 0 0 6
S 1008 16 0 0 0 6 1010 582 8393 800004 400000 A 0 0 0 0 0 0 0 0 123 425 0 0 0 0 0 0 0 0 0 0 0 0 0 582 0 0 0 0 mpi_distribute_none
S 1009 3 0 0 0 6 0 1 0 0 0 A 0 0 0 0 0 0 0 0 0 123 0 0 0 0 0 0 0 0 0 0 0 0 0 0 0 0 0 0 6
S 1010 16 0 0 0 6 1013 582 8413 800004 400000 A 0 0 0 0 0 0 0 0 -49767 428 0 0 0 0 0 0 0 0 0 0 0 0 0 582 0 0 0 0 mpi_distribute_dflt_darg
S 1012 3 0 0 0 6 0 1 0 0 0 A 0 0 0 0 0 0 0 0 -1 -49767 0 0 0 0 0 0 0 0 0 0 0 0 0 0 0 0 0 0 6
S 1013 16 0 0 0 7 0 582 8438 800004 400000 A 0 0 0 0 0 0 0 0 1016 432 0 0 0 0 0 0 0 0 0 0 0 0 0 582 0 0 0 0 mpi_displacement_current
S 1016 3 0 0 0 7 0 1 0 0 0 A 0 0 0 0 0 0 0 0 -1 -54278278 0 0 0 0 0 0 0 0 0 0 0 0 0 0 0 0 0 0 7
S 1017 6 4 0 0 6 1018 582 8463 800044 0 A 0 0 0 0 0 0 0 0 0 0 0 0 1037 0 0 0 0 0 0 0 0 0 0 582 0 0 0 0 mpi_bottom
S 1018 6 4 0 0 6 602 582 8474 800044 0 A 0 0 0 0 0 4 0 0 0 0 0 0 1037 0 0 0 0 0 0 0 0 0 0 582 0 0 0 0 mpi_in_place
S 1019 6 4 0 0 6 1 582 8487 800044 0 A 0 0 0 0 0 0 0 0 0 0 0 0 1040 0 0 0 0 0 0 0 0 0 0 582 0 0 0 0 mpi_unweighted
S 1020 14 0 0 0 6 1 582 8502 10000 0 A 0 0 0 0 0 0 0 0 0 0 0 0 0 0 0 0 0 0 0 0 0 0 0 582 0 0 0 0 mpi_dup_fn
S 1021 14 0 0 0 6 1 582 8513 10000 0 A 0 0 0 0 0 0 0 0 0 0 0 0 0 0 0 0 0 0 0 0 0 0 0 582 0 0 0 0 mpi_null_delete_fn
S 1022 14 0 0 0 6 1 582 8532 10000 0 A 0 0 0 0 0 0 0 0 0 0 0 0 0 0 0 0 0 0 0 0 0 0 0 582 0 0 0 0 mpi_null_copy_fn
S 1023 14 0 0 0 9 1 582 8549 10004 0 A 0 0 0 0 0 0 0 0 0 0 0 0 0 0 0 0 0 0 0 0 0 0 0 582 0 0 0 0 mpi_wtime
S 1024 14 0 0 0 9 1 582 8559 10004 0 A 0 0 0 0 0 0 0 0 0 0 0 0 0 0 0 0 0 0 0 0 0 0 0 582 0 0 0 0 mpi_wtick
S 1025 14 0 0 0 9 1 582 8569 10004 0 A 0 0 0 0 0 0 0 0 0 0 0 0 0 0 0 0 0 0 0 0 0 0 0 582 0 0 0 0 pmpi_wtime
S 1026 14 0 0 0 9 1 582 8580 10004 0 A 0 0 0 0 0 0 0 0 0 0 0 0 0 0 0 0 0 0 0 0 0 0 0 582 0 0 0 0 pmpi_wtick
S 1027 14 0 0 0 6 1 582 8591 10000 0 A 0 0 0 0 0 0 0 0 0 0 0 0 0 0 0 0 0 0 0 0 0 0 0 582 0 0 0 0 mpi_comm_dup_fn
S 1028 14 0 0 0 6 1 582 8607 10000 0 A 0 0 0 0 0 0 0 0 0 0 0 0 0 0 0 0 0 0 0 0 0 0 0 582 0 0 0 0 mpi_comm_null_delete_fn
S 1029 14 0 0 0 6 1 582 8631 10000 0 A 0 0 0 0 0 0 0 0 0 0 0 0 0 0 0 0 0 0 0 0 0 0 0 582 0 0 0 0 mpi_comm_null_copy_fn
S 1030 14 0 0 0 6 1 582 8653 10000 0 A 0 0 0 0 0 0 0 0 0 0 0 0 0 0 0 0 0 0 0 0 0 0 0 582 0 0 0 0 mpi_win_dup_fn
S 1031 14 0 0 0 6 1 582 8668 10000 0 A 0 0 0 0 0 0 0 0 0 0 0 0 0 0 0 0 0 0 0 0 0 0 0 582 0 0 0 0 mpi_win_null_delete_fn
S 1032 14 0 0 0 6 1 582 8691 10000 0 A 0 0 0 0 0 0 0 0 0 0 0 0 0 0 0 0 0 0 0 0 0 0 0 582 0 0 0 0 mpi_win_null_copy_fn
S 1033 14 0 0 0 6 1 582 8712 10000 0 A 0 0 0 0 0 0 0 0 0 0 0 0 0 0 0 0 0 0 0 0 0 0 0 582 0 0 0 0 mpi_type_dup_fn
S 1034 14 0 0 0 6 1 582 8728 10000 0 A 0 0 0 0 0 0 0 0 0 0 0 0 0 0 0 0 0 0 0 0 0 0 0 582 0 0 0 0 mpi_type_null_delete_fn
S 1035 14 0 0 0 6 1 582 8752 10000 0 A 0 0 0 0 0 0 0 0 0 0 0 0 0 0 0 0 0 0 0 0 0 0 0 582 0 0 0 0 mpi_type_null_copy_fn
S 1036 14 0 0 0 6 1 582 8774 10000 0 A 0 0 0 0 0 0 0 0 0 0 0 0 0 0 0 0 0 0 0 0 0 0 0 582 0 0 0 0 mpi_conversion_fn_null
S 1037 11 0 0 0 6 1 582 8797 800020 800000 A 0 0 0 0 0 28 0 0 1017 602 0 0 0 0 0 0 0 0 0 0 0 0 0 582 0 0 0 0 mpipriv1
S 1038 11 0 0 0 6 1037 582 8806 800020 800000 A 0 0 0 0 0 24 0 0 603 604 0 0 0 0 0 0 0 0 0 0 0 0 0 582 0 0 0 0 mpipriv2
S 1039 11 0 0 0 6 1038 582 8815 800020 800000 A 0 0 0 0 0 2 0 0 605 607 0 0 0 0 0 0 0 0 0 0 0 0 0 582 0 0 0 0 mpiprivc
S 1040 11 0 0 0 6 1039 582 8824 800020 800000 A 0 0 0 0 0 4 0 0 1019 1019 0 0 0 0 0 0 0 0 0 0 0 0 0 582 0 0 0 0 mpipriv3
S 1041 3 0 0 0 16 0 1 0 0 0 A 0 0 0 0 0 0 0 0 -1 -1 0 0 0 0 0 0 0 0 0 0 0 0 0 0 0 0 0 0 16
S 1042 11 0 0 0 9 1040 582 8833 40800008 801000 A 0 0 0 0 0 4 0 0 593 593 0 0 0 0 0 0 0 0 0 0 0 0 0 0 0 0 0 0 _parallel_include$8
A 13 2 0 0 0 6 584 0 0 0 13 0 0 0 0 0 0 0 0 0
A 15 2 0 0 0 6 585 0 0 0 15 0 0 0 0 0 0 0 0 0
A 17 2 0 0 0 6 594 0 0 0 17 0 0 0 0 0 0 0 0 0
A 18 2 0 0 0 6 599 0 0 0 18 0 0 0 0 0 0 0 0 0
A 21 2 0 0 0 6 600 0 0 0 21 0 0 0 0 0 0 0 0 0
A 24 2 0 0 0 6 606 0 0 0 24 0 0 0 0 0 0 0 0 0
A 26 2 0 0 0 6 610 0 0 0 26 0 0 0 0 0 0 0 0 0
A 28 2 0 0 0 6 612 0 0 0 28 0 0 0 0 0 0 0 0 0
A 30 2 0 0 0 6 614 0 0 0 30 0 0 0 0 0 0 0 0 0
A 33 2 0 0 0 6 617 0 0 0 33 0 0 0 0 0 0 0 0 0
A 35 2 0 0 0 6 619 0 0 0 35 0 0 0 0 0 0 0 0 0
A 37 2 0 0 0 6 621 0 0 0 37 0 0 0 0 0 0 0 0 0
A 39 2 0 0 0 6 623 0 0 0 39 0 0 0 0 0 0 0 0 0
A 41 2 0 0 0 6 625 0 0 0 41 0 0 0 0 0 0 0 0 0
A 43 2 0 0 0 6 627 0 0 0 43 0 0 0 0 0 0 0 0 0
A 45 2 0 0 0 6 629 0 0 0 45 0 0 0 0 0 0 0 0 0
A 47 2 0 0 0 6 631 0 0 0 47 0 0 0 0 0 0 0 0 0
A 49 2 0 0 0 6 633 0 0 0 49 0 0 0 0 0 0 0 0 0
A 51 2 0 0 0 6 635 0 0 0 51 0 0 0 0 0 0 0 0 0
A 54 2 0 0 0 6 638 0 0 0 54 0 0 0 0 0 0 0 0 0
A 56 2 0 0 0 6 640 0 0 0 56 0 0 0 0 0 0 0 0 0
A 58 2 0 0 0 6 642 0 0 0 58 0 0 0 0 0 0 0 0 0
A 60 2 0 0 0 6 644 0 0 0 60 0 0 0 0 0 0 0 0 0
A 62 2 0 0 0 6 646 0 0 0 62 0 0 0 0 0 0 0 0 0
A 64 2 0 0 0 6 648 0 0 0 64 0 0 0 0 0 0 0 0 0
A 66 2 0 0 0 6 650 0 0 0 66 0 0 0 0 0 0 0 0 0
A 68 2 0 0 0 6 652 0 0 0 68 0 0 0 0 0 0 0 0 0
A 70 2 0 0 0 6 654 0 0 0 70 0 0 0 0 0 0 0 0 0
A 72 2 0 0 0 6 656 0 0 0 72 0 0 0 0 0 0 0 0 0
A 75 2 0 0 0 6 659 0 0 0 75 0 0 0 0 0 0 0 0 0
A 77 2 0 0 0 6 661 0 0 0 77 0 0 0 0 0 0 0 0 0
A 79 2 0 0 0 6 663 0 0 0 79 0 0 0 0 0 0 0 0 0
A 82 2 0 0 0 6 666 0 0 0 82 0 0 0 0 0 0 0 0 0
A 86 2 0 0 0 6 670 0 0 0 86 0 0 0 0 0 0 0 0 0
A 88 2 0 0 0 6 672 0 0 0 88 0 0 0 0 0 0 0 0 0
A 90 2 0 0 0 6 674 0 0 0 90 0 0 0 0 0 0 0 0 0
A 92 2 0 0 0 6 676 0 0 0 92 0 0 0 0 0 0 0 0 0
A 94 2 0 0 0 6 678 0 0 0 94 0 0 0 0 0 0 0 0 0
A 96 2 0 0 0 6 680 0 0 0 96 0 0 0 0 0 0 0 0 0
A 98 2 0 0 0 6 682 0 0 0 98 0 0 0 0 0 0 0 0 0
A 100 2 0 0 0 6 684 0 0 0 100 0 0 0 0 0 0 0 0 0
A 102 2 0 0 0 6 686 0 0 0 102 0 0 0 0 0 0 0 0 0
A 104 2 0 0 0 6 688 0 0 0 104 0 0 0 0 0 0 0 0 0
A 106 2 0 0 0 6 690 0 0 0 106 0 0 0 0 0 0 0 0 0
A 108 2 0 0 0 6 692 0 0 0 108 0 0 0 0 0 0 0 0 0
A 111 2 0 0 0 6 695 0 0 0 111 0 0 0 0 0 0 0 0 0
A 113 2 0 0 0 6 697 0 0 0 113 0 0 0 0 0 0 0 0 0
A 115 2 0 0 0 6 699 0 0 0 115 0 0 0 0 0 0 0 0 0
A 117 2 0 0 0 6 701 0 0 0 117 0 0 0 0 0 0 0 0 0
A 119 2 0 0 0 6 703 0 0 0 119 0 0 0 0 0 0 0 0 0
A 121 2 0 0 0 6 705 0 0 0 121 0 0 0 0 0 0 0 0 0
A 123 2 0 0 0 6 707 0 0 0 123 0 0 0 0 0 0 0 0 0
A 125 2 0 0 0 6 709 0 0 0 125 0 0 0 0 0 0 0 0 0
A 127 2 0 0 0 6 711 0 0 0 127 0 0 0 0 0 0 0 0 0
A 129 2 0 0 0 6 713 0 0 0 129 0 0 0 0 0 0 0 0 0
A 135 2 0 0 0 6 719 0 0 0 135 0 0 0 0 0 0 0 0 0
A 137 2 0 0 0 6 721 0 0 0 137 0 0 0 0 0 0 0 0 0
A 139 2 0 0 0 6 723 0 0 0 139 0 0 0 0 0 0 0 0 0
A 141 2 0 0 0 6 725 0 0 0 141 0 0 0 0 0 0 0 0 0
A 143 2 0 0 0 6 727 0 0 0 143 0 0 0 0 0 0 0 0 0
A 145 2 0 0 0 6 729 0 0 0 145 0 0 0 0 0 0 0 0 0
A 147 2 0 0 0 6 731 0 0 0 147 0 0 0 0 0 0 0 0 0
A 149 2 0 0 0 6 733 0 0 0 149 0 0 0 0 0 0 0 0 0
A 151 2 0 0 9 6 735 0 0 0 151 0 0 0 0 0 0 0 0 0
A 153 2 0 0 0 6 737 0 0 0 153 0 0 0 0 0 0 0 0 0
A 155 2 0 0 0 6 739 0 0 0 155 0 0 0 0 0 0 0 0 0
A 157 2 0 0 0 6 741 0 0 0 157 0 0 0 0 0 0 0 0 0
A 159 2 0 0 0 6 743 0 0 0 159 0 0 0 0 0 0 0 0 0
A 161 2 0 0 0 6 745 0 0 0 161 0 0 0 0 0 0 0 0 0
A 163 2 0 0 0 6 747 0 0 0 163 0 0 0 0 0 0 0 0 0
A 165 2 0 0 0 6 749 0 0 0 165 0 0 0 0 0 0 0 0 0
A 167 2 0 0 0 6 751 0 0 0 167 0 0 0 0 0 0 0 0 0
A 169 2 0 0 0 6 753 0 0 0 169 0 0 0 0 0 0 0 0 0
A 172 2 0 0 0 6 756 0 0 0 172 0 0 0 0 0 0 0 0 0
A 174 2 0 0 0 6 758 0 0 0 174 0 0 0 0 0 0 0 0 0
A 176 2 0 0 0 6 760 0 0 0 176 0 0 0 0 0 0 0 0 0
A 178 2 0 0 0 6 762 0 0 0 178 0 0 0 0 0 0 0 0 0
A 180 2 0 0 0 6 764 0 0 0 180 0 0 0 0 0 0 0 0 0
A 182 2 0 0 0 6 766 0 0 0 182 0 0 0 0 0 0 0 0 0
A 184 2 0 0 0 6 768 0 0 0 184 0 0 0 0 0 0 0 0 0
A 186 2 0 0 0 6 770 0 0 0 186 0 0 0 0 0 0 0 0 0
A 188 2 0 0 0 6 772 0 0 0 188 0 0 0 0 0 0 0 0 0
A 190 2 0 0 0 6 774 0 0 0 190 0 0 0 0 0 0 0 0 0
A 192 2 0 0 0 6 776 0 0 0 192 0 0 0 0 0 0 0 0 0
A 194 2 0 0 0 6 778 0 0 0 194 0 0 0 0 0 0 0 0 0
A 196 2 0 0 0 6 780 0 0 0 196 0 0 0 0 0 0 0 0 0
A 198 2 0 0 0 6 782 0 0 0 198 0 0 0 0 0 0 0 0 0
A 200 2 0 0 0 6 784 0 0 0 200 0 0 0 0 0 0 0 0 0
A 202 2 0 0 0 6 786 0 0 0 202 0 0 0 0 0 0 0 0 0
A 204 2 0 0 0 6 788 0 0 0 204 0 0 0 0 0 0 0 0 0
A 206 2 0 0 0 6 790 0 0 0 206 0 0 0 0 0 0 0 0 0
A 208 2 0 0 0 6 792 0 0 0 208 0 0 0 0 0 0 0 0 0
A 210 2 0 0 0 6 794 0 0 0 210 0 0 0 0 0 0 0 0 0
A 213 2 0 0 0 6 797 0 0 0 213 0 0 0 0 0 0 0 0 0
A 217 2 0 0 0 6 801 0 0 0 217 0 0 0 0 0 0 0 0 0
A 219 2 0 0 0 6 803 0 0 0 219 0 0 0 0 0 0 0 0 0
A 221 2 0 0 0 6 805 0 0 0 221 0 0 0 0 0 0 0 0 0
A 223 2 0 0 0 6 807 0 0 0 223 0 0 0 0 0 0 0 0 0
A 225 2 0 0 0 6 809 0 0 0 225 0 0 0 0 0 0 0 0 0
A 228 2 0 0 0 6 812 0 0 0 228 0 0 0 0 0 0 0 0 0
A 234 2 0 0 0 6 818 0 0 0 234 0 0 0 0 0 0 0 0 0
A 236 2 0 0 0 6 820 0 0 0 236 0 0 0 0 0 0 0 0 0
A 238 2 0 0 0 6 822 0 0 0 238 0 0 0 0 0 0 0 0 0
A 240 2 0 0 0 6 824 0 0 0 240 0 0 0 0 0 0 0 0 0
A 242 2 0 0 0 6 826 0 0 0 242 0 0 0 0 0 0 0 0 0
A 244 2 0 0 0 6 828 0 0 0 244 0 0 0 0 0 0 0 0 0
A 246 2 0 0 0 6 830 0 0 0 246 0 0 0 0 0 0 0 0 0
A 248 2 0 0 0 6 832 0 0 0 248 0 0 0 0 0 0 0 0 0
A 250 2 0 0 0 6 834 0 0 0 250 0 0 0 0 0 0 0 0 0
A 252 2 0 0 0 6 836 0 0 0 252 0 0 0 0 0 0 0 0 0
A 254 2 0 0 0 6 838 0 0 0 254 0 0 0 0 0 0 0 0 0
A 256 2 0 0 0 6 840 0 0 0 256 0 0 0 0 0 0 0 0 0
A 258 2 0 0 0 6 842 0 0 0 258 0 0 0 0 0 0 0 0 0
A 260 2 0 0 0 6 844 0 0 0 260 0 0 0 0 0 0 0 0 0
A 262 2 0 0 0 6 846 0 0 0 262 0 0 0 0 0 0 0 0 0
A 264 2 0 0 0 6 848 0 0 0 264 0 0 0 0 0 0 0 0 0
A 266 2 0 0 0 6 850 0 0 0 266 0 0 0 0 0 0 0 0 0
A 268 2 0 0 0 6 852 0 0 0 268 0 0 0 0 0 0 0 0 0
A 270 2 0 0 0 6 854 0 0 0 270 0 0 0 0 0 0 0 0 0
A 272 2 0 0 0 6 856 0 0 0 272 0 0 0 0 0 0 0 0 0
A 274 2 0 0 0 6 858 0 0 0 274 0 0 0 0 0 0 0 0 0
A 276 2 0 0 0 6 860 0 0 0 276 0 0 0 0 0 0 0 0 0
A 279 2 0 0 0 6 863 0 0 0 279 0 0 0 0 0 0 0 0 0
A 281 2 0 0 0 6 865 0 0 0 281 0 0 0 0 0 0 0 0 0
A 284 2 0 0 0 6 868 0 0 0 284 0 0 0 0 0 0 0 0 0
A 286 2 0 0 0 6 870 0 0 0 286 0 0 0 0 0 0 0 0 0
A 291 2 0 0 0 6 875 0 0 0 291 0 0 0 0 0 0 0 0 0
A 293 2 0 0 0 6 877 0 0 0 293 0 0 0 0 0 0 0 0 0
A 295 2 0 0 0 6 879 0 0 0 295 0 0 0 0 0 0 0 0 0
A 297 2 0 0 0 6 881 0 0 0 297 0 0 0 0 0 0 0 0 0
A 299 2 0 0 0 6 883 0 0 0 299 0 0 0 0 0 0 0 0 0
A 301 2 0 0 0 6 885 0 0 0 301 0 0 0 0 0 0 0 0 0
A 303 2 0 0 0 6 887 0 0 0 303 0 0 0 0 0 0 0 0 0
A 305 2 0 0 0 6 889 0 0 0 305 0 0 0 0 0 0 0 0 0
A 307 2 0 0 0 6 891 0 0 0 307 0 0 0 0 0 0 0 0 0
A 309 2 0 0 0 6 893 0 0 0 309 0 0 0 0 0 0 0 0 0
A 311 2 0 0 0 6 895 0 0 0 311 0 0 0 0 0 0 0 0 0
A 313 2 0 0 0 6 897 0 0 0 313 0 0 0 0 0 0 0 0 0
A 316 2 0 0 0 6 900 0 0 0 316 0 0 0 0 0 0 0 0 0
A 318 2 0 0 0 6 902 0 0 0 318 0 0 0 0 0 0 0 0 0
A 322 2 0 0 0 6 906 0 0 0 322 0 0 0 0 0 0 0 0 0
A 325 2 0 0 0 6 909 0 0 0 325 0 0 0 0 0 0 0 0 0
A 328 2 0 0 0 6 912 0 0 0 328 0 0 0 0 0 0 0 0 0
A 331 2 0 0 0 6 915 0 0 0 331 0 0 0 0 0 0 0 0 0
A 333 2 0 0 0 6 917 0 0 0 333 0 0 0 0 0 0 0 0 0
A 336 2 0 0 0 6 920 0 0 0 336 0 0 0 0 0 0 0 0 0
A 338 2 0 0 0 6 922 0 0 0 338 0 0 0 0 0 0 0 0 0
A 340 2 0 0 0 6 924 0 0 0 340 0 0 0 0 0 0 0 0 0
A 342 2 0 0 0 6 926 0 0 0 342 0 0 0 0 0 0 0 0 0
A 344 2 0 0 0 6 928 0 0 0 344 0 0 0 0 0 0 0 0 0
A 346 2 0 0 0 6 930 0 0 0 346 0 0 0 0 0 0 0 0 0
A 348 2 0 0 0 6 932 0 0 0 348 0 0 0 0 0 0 0 0 0
A 350 2 0 0 0 6 934 0 0 0 350 0 0 0 0 0 0 0 0 0
A 352 2 0 0 0 6 936 0 0 0 352 0 0 0 0 0 0 0 0 0
A 354 2 0 0 0 6 938 0 0 0 354 0 0 0 0 0 0 0 0 0
A 357 2 0 0 0 6 941 0 0 0 357 0 0 0 0 0 0 0 0 0
A 359 2 0 0 0 6 943 0 0 0 359 0 0 0 0 0 0 0 0 0
A 361 2 0 0 0 6 945 0 0 0 361 0 0 0 0 0 0 0 0 0
A 363 2 0 0 0 6 947 0 0 0 363 0 0 0 0 0 0 0 0 0
A 386 2 0 0 0 6 970 0 0 0 386 0 0 0 0 0 0 0 0 0
A 388 2 0 0 0 6 972 0 0 0 388 0 0 0 0 0 0 0 0 0
A 390 2 0 0 0 6 974 0 0 0 390 0 0 0 0 0 0 0 0 0
A 392 2 0 0 0 6 976 0 0 0 392 0 0 0 0 0 0 0 0 0
A 394 2 0 0 14 6 978 0 0 0 394 0 0 0 0 0 0 0 0 0
A 406 2 0 0 0 6 990 0 0 0 406 0 0 0 0 0 0 0 0 0
A 409 2 0 0 0 6 993 0 0 0 409 0 0 0 0 0 0 0 0 0
A 411 2 0 0 0 6 995 0 0 0 411 0 0 0 0 0 0 0 0 0
A 413 2 0 0 0 6 997 0 0 0 413 0 0 0 0 0 0 0 0 0
A 415 2 0 0 25 6 999 0 0 0 415 0 0 0 0 0 0 0 0 0
A 417 2 0 0 0 6 1001 0 0 0 417 0 0 0 0 0 0 0 0 0
A 419 2 0 0 0 6 1003 0 0 0 419 0 0 0 0 0 0 0 0 0
A 421 2 0 0 0 6 1005 0 0 0 421 0 0 0 0 0 0 0 0 0
A 423 2 0 0 34 6 1007 0 0 0 423 0 0 0 0 0 0 0 0 0
A 425 2 0 0 36 6 1009 0 0 0 425 0 0 0 0 0 0 0 0 0
A 428 2 0 0 0 6 1012 0 0 0 428 0 0 0 0 0 0 0 0 0
A 432 2 0 0 0 7 1016 0 0 0 432 0 0 0 0 0 0 0 0 0
A 434 1 0 0 401 16 593 0 0 0 0 0 0 0 0 0 0 0 0 0
A 435 2 0 0 66 16 1041 0 0 0 435 0 0 0 0 0 0 0 0 0
Z
Z
