V26 parallel_toolkit
12 ptoolkit.F90 S582 0
04/24/2012  15:51:03
use io_global private
use kinds private
use io_global private
use kinds private
enduse
D 71 21 9 2 428 0 0 0 1 1 0
 0 429 3 3 430 430
 0 0 430 3 0 431
D 74 21 9 2 432 0 0 0 1 1 0
 0 433 3 3 434 434
 0 0 434 3 0 435
D 77 21 6 1 3 118 0 0 0 0 0
 0 118 3 3 118 118
D 80 21 12 2 436 0 0 0 1 1 0
 0 437 3 3 438 438
 0 0 438 3 0 439
D 83 21 12 2 440 0 0 0 1 1 0
 0 441 3 3 442 442
 0 0 442 3 0 443
D 86 21 6 1 3 118 0 0 0 0 0
 0 118 3 3 118 118
D 89 21 9 2 444 0 0 0 1 1 0
 0 445 3 3 446 446
 0 0 446 3 0 447
D 92 21 9 2 448 0 0 0 1 1 0
 0 449 3 3 450 450
 0 0 450 3 0 451
D 95 21 6 1 3 118 0 0 0 0 0
 0 118 3 3 118 118
D 98 21 12 2 452 0 0 0 1 1 0
 0 453 3 3 454 454
 0 0 454 3 0 455
D 101 21 12 2 456 0 0 0 1 1 0
 0 457 3 3 458 458
 0 0 458 3 0 459
D 104 21 6 1 3 118 0 0 0 0 0
 0 118 3 3 118 118
D 107 21 9 2 460 0 0 0 1 1 0
 0 461 3 3 462 462
 0 0 462 3 0 463
D 110 21 6 1 3 118 0 0 0 0 0
 0 118 3 3 118 118
D 113 21 9 2 464 0 0 0 1 1 0
 0 465 3 3 466 466
 0 0 466 3 0 467
D 116 21 6 1 3 118 0 0 0 0 0
 0 118 3 3 118 118
D 119 21 12 2 468 471 0 0 1 0 0
 0 469 3 3 470 470
 0 469 470 3 470 470
D 122 21 6 1 3 118 0 0 0 0 0
 0 118 3 3 118 118
D 125 21 9 2 472 475 0 0 1 0 0
 0 473 3 3 474 474
 0 473 474 3 474 474
D 128 21 6 1 3 118 0 0 0 0 0
 0 118 3 3 118 118
D 131 21 9 2 476 479 0 0 1 0 0
 0 477 3 3 478 478
 0 477 478 3 478 478
D 134 21 6 1 3 118 0 0 0 0 0
 0 118 3 3 118 118
D 137 21 12 2 480 483 0 0 1 0 0
 0 481 3 3 482 482
 0 481 482 3 482 482
D 140 21 6 1 3 118 0 0 0 0 0
 0 118 3 3 118 118
D 143 21 12 2 484 487 0 0 1 0 0
 0 485 3 3 486 486
 0 485 486 3 486 486
D 146 21 6 1 3 118 0 0 0 0 0
 0 118 3 3 118 118
D 149 21 9 2 488 0 0 0 1 1 0
 0 489 3 3 490 490
 0 0 490 3 0 491
D 152 21 9 2 492 0 0 0 1 1 0
 0 493 3 3 494 494
 0 0 494 3 0 495
D 155 21 9 2 496 0 0 0 1 1 0
 0 497 3 3 498 498
 0 0 498 3 0 499
D 158 21 12 2 500 0 0 0 1 1 0
 0 501 3 3 502 502
 0 0 502 3 0 503
D 161 21 12 2 504 0 0 0 1 1 0
 0 505 3 3 506 506
 0 0 506 3 0 507
D 164 21 12 2 508 0 0 0 1 1 0
 0 509 3 3 510 510
 0 0 510 3 0 511
S 582 24 0 0 0 9 1 0 4658 10015 0 A 0 0 0 0 0 0 0 0 0 0 0 0 0 0 0 0 0 0 0 0 0 27 0 0 0 0 0 0 parallel_toolkit
S 584 23 0 0 0 9 590 582 4681 14 0 A 0 0 0 0 0 0 0 0 0 0 0 0 0 0 0 0 0 0 0 0 0 0 0 582 0 0 0 0 dp
S 586 23 0 0 0 9 600 582 4694 14 0 A 0 0 0 0 0 0 0 0 0 0 0 0 0 0 0 0 0 0 0 0 0 0 0 582 0 0 0 0 stdout
R 590 16 1 kinds dp
R 600 6 4 io_global stdout
S 666 3 0 0 0 6 1 1 0 0 0 A 0 0 0 0 0 0 0 0 0 16 0 0 0 0 0 0 0 0 0 0 0 0 0 0 0 0 0 0 6
S 1061 27 0 0 0 9 1188 582 9046 0 0 A 0 0 0 0 0 0 0 0 0 0 0 0 0 0 0 0 0 0 0 0 0 0 0 582 0 0 0 0 rep_matmul_drv
S 1062 27 0 0 0 9 1213 582 9061 0 0 A 0 0 0 0 0 0 0 0 0 0 0 0 0 0 0 0 0 0 0 0 0 0 0 582 0 0 0 0 zrep_matmul_drv
S 1063 27 0 0 0 9 1071 582 9077 0 0 A 0 0 0 0 0 0 0 0 0 0 0 0 0 0 0 0 0 0 0 0 0 0 0 582 0 0 0 0 dsqmdst
S 1064 27 0 0 0 9 1099 582 9085 0 0 A 0 0 0 0 0 0 0 0 0 0 0 0 0 0 0 0 0 0 0 0 0 0 0 582 0 0 0 0 dsqmcll
S 1065 27 0 0 0 9 1156 582 9093 0 0 A 0 0 0 0 0 0 0 0 0 0 0 0 0 0 0 0 0 0 0 0 0 0 0 582 0 0 0 0 dsqmred
S 1066 27 0 0 0 9 1138 582 9101 0 0 A 0 0 0 0 0 0 0 0 0 0 0 0 0 0 0 0 0 0 0 0 0 0 0 582 0 0 0 0 dsqmsym
S 1067 27 0 0 0 9 1085 582 9109 0 0 A 0 0 0 0 0 0 0 0 0 0 0 0 0 0 0 0 0 0 0 0 0 0 0 582 0 0 0 0 zsqmdst
S 1068 27 0 0 0 9 1114 582 9117 0 0 A 0 0 0 0 0 0 0 0 0 0 0 0 0 0 0 0 0 0 0 0 0 0 0 582 0 0 0 0 zsqmcll
S 1069 27 0 0 0 9 1172 582 9125 0 0 A 0 0 0 0 0 0 0 0 0 0 0 0 0 0 0 0 0 0 0 0 0 0 0 582 0 0 0 0 zsqmred
S 1070 27 0 0 0 9 1147 582 9133 0 0 A 0 0 0 0 0 0 0 0 0 0 0 0 0 0 0 0 0 0 0 0 0 0 0 582 0 0 0 0 zsqmher
S 1071 23 5 0 0 0 1078 582 9077 0 0 A 0 0 0 0 0 0 0 0 0 0 0 0 0 0 0 0 0 0 0 0 0 0 0 0 0 0 0 0 dsqmdst
S 1072 1 3 1 0 6 1 1071 9141 14 3000 A 0 0 0 0 0 0 0 0 0 0 0 0 0 0 0 0 0 0 0 0 0 0 0 0 0 0 0 0 n
S 1073 7 3 0 0 71 1 1071 9143 800314 3000 A 0 0 0 0 0 0 0 0 0 0 0 0 0 0 0 0 0 0 0 0 0 0 0 0 0 0 0 0 ar
S 1074 6 3 1 0 6 1 1071 9146 800014 3000 A 0 0 0 0 0 0 0 0 0 0 0 0 0 0 0 0 0 0 0 0 0 0 0 0 0 0 0 0 ldar
S 1075 7 3 0 0 74 1 1071 9151 800314 3000 A 0 0 0 0 0 0 0 0 0 0 0 0 0 0 0 0 0 0 0 0 0 0 0 0 0 0 0 0 a
S 1076 6 3 1 0 6 1 1071 9153 800014 3000 A 0 0 0 0 0 0 0 0 0 0 0 0 0 0 0 0 0 0 0 0 0 0 0 0 0 0 0 0 lda
S 1077 7 3 1 0 77 1 1071 9157 800014 3000 A 0 0 0 0 0 0 0 0 0 0 0 0 0 0 0 0 0 0 0 0 0 0 0 0 0 0 0 0 desc
S 1078 14 5 0 0 0 1 1071 9077 300 400000 A 0 0 0 0 0 0 0 13 6 0 0 0 0 0 0 0 0 0 0 0 0 47 0 582 0 0 0 0 dsqmdst
F 1078 6 1072 1073 1074 1075 1076 1077
S 1079 6 1 0 0 6 1 1071 9162 40800016 3000 A 0 0 0 0 0 0 0 0 0 0 0 0 0 0 0 0 0 0 0 0 0 0 0 0 0 0 0 0 z_e_449
S 1080 6 1 0 0 6 1 1071 9170 40800016 3000 A 0 0 0 0 0 0 0 0 0 0 0 0 0 0 0 0 0 0 0 0 0 0 0 0 0 0 0 0 z_b_0
S 1081 6 1 0 0 6 1 1071 9176 40800016 3000 A 0 0 0 0 0 0 0 0 0 0 0 0 0 0 0 0 0 0 0 0 0 0 0 0 0 0 0 0 z_e_452
S 1082 6 1 0 0 6 1 1071 9184 40800016 3000 A 0 0 0 0 0 0 0 0 0 0 0 0 0 0 0 0 0 0 0 0 0 0 0 0 0 0 0 0 z_e_454
S 1083 6 1 0 0 6 1 1071 9192 40800016 3000 A 0 0 0 0 0 0 0 0 0 0 0 0 0 0 0 0 0 0 0 0 0 0 0 0 0 0 0 0 z_b_1
S 1084 6 1 0 0 6 1 1071 9198 40800016 3000 A 0 0 0 0 0 0 0 0 0 0 0 0 0 0 0 0 0 0 0 0 0 0 0 0 0 0 0 0 z_e_457
S 1085 23 5 0 0 0 1092 582 9109 0 0 A 0 0 0 0 0 0 0 0 0 0 0 0 0 0 0 0 0 0 0 0 0 0 0 0 0 0 0 0 zsqmdst
S 1086 1 3 1 0 6 1 1085 9141 14 3000 A 0 0 0 0 0 0 0 0 0 0 0 0 0 0 0 0 0 0 0 0 0 0 0 0 0 0 0 0 n
S 1087 7 3 0 0 80 1 1085 9143 800314 3000 A 0 0 0 0 0 0 0 0 0 0 0 0 0 0 0 0 0 0 0 0 0 0 0 0 0 0 0 0 ar
S 1088 6 3 1 0 6 1 1085 9146 800014 3000 A 0 0 0 0 0 0 0 0 0 0 0 0 0 0 0 0 0 0 0 0 0 0 0 0 0 0 0 0 ldar
S 1089 7 3 0 0 83 1 1085 9151 800314 3000 A 0 0 0 0 0 0 0 0 0 0 0 0 0 0 0 0 0 0 0 0 0 0 0 0 0 0 0 0 a
S 1090 6 3 1 0 6 1 1085 9153 800014 3000 A 0 0 0 0 0 0 0 0 0 0 0 0 0 0 0 0 0 0 0 0 0 0 0 0 0 0 0 0 lda
S 1091 7 3 1 0 86 1 1085 9157 800014 3000 A 0 0 0 0 0 0 0 0 0 0 0 0 0 0 0 0 0 0 0 0 0 0 0 0 0 0 0 0 desc
S 1092 14 5 0 0 0 1 1085 9109 300 400000 A 0 0 0 0 0 0 0 20 6 0 0 0 0 0 0 0 0 0 0 0 0 103 0 582 0 0 0 0 zsqmdst
F 1092 6 1086 1087 1088 1089 1090 1091
S 1093 6 1 0 0 6 1 1085 9198 40800016 3000 A 0 0 0 0 0 0 0 0 0 0 0 0 0 0 0 0 0 0 0 0 0 0 0 0 0 0 0 0 z_e_457
S 1094 6 1 0 0 6 1 1085 9170 40800016 3000 A 0 0 0 0 0 0 0 0 0 0 0 0 0 0 0 0 0 0 0 0 0 0 0 0 0 0 0 0 z_b_0
S 1095 6 1 0 0 6 1 1085 9206 40800016 3000 A 0 0 0 0 0 0 0 0 0 0 0 0 0 0 0 0 0 0 0 0 0 0 0 0 0 0 0 0 z_e_460
S 1096 6 1 0 0 6 1 1085 9214 40800016 3000 A 0 0 0 0 0 0 0 0 0 0 0 0 0 0 0 0 0 0 0 0 0 0 0 0 0 0 0 0 z_e_462
S 1097 6 1 0 0 6 1 1085 9192 40800016 3000 A 0 0 0 0 0 0 0 0 0 0 0 0 0 0 0 0 0 0 0 0 0 0 0 0 0 0 0 0 z_b_1
S 1098 6 1 0 0 6 1 1085 9222 40800016 3000 A 0 0 0 0 0 0 0 0 0 0 0 0 0 0 0 0 0 0 0 0 0 0 0 0 0 0 0 0 z_e_465
S 1099 23 5 0 0 0 1107 582 9085 0 0 A 0 0 0 0 0 0 0 0 0 0 0 0 0 0 0 0 0 0 0 0 0 0 0 0 0 0 0 0 dsqmcll
S 1100 1 3 1 0 6 1 1099 9141 14 3000 A 0 0 0 0 0 0 0 0 0 0 0 0 0 0 0 0 0 0 0 0 0 0 0 0 0 0 0 0 n
S 1101 7 3 0 0 92 1 1099 9151 800314 3000 A 0 0 0 0 0 0 0 0 0 0 0 0 0 0 0 0 0 0 0 0 0 0 0 0 0 0 0 0 a
S 1102 6 3 1 0 6 1 1099 9153 800014 3000 A 0 0 0 0 0 0 0 0 0 0 0 0 0 0 0 0 0 0 0 0 0 0 0 0 0 0 0 0 lda
S 1103 7 3 0 0 89 1 1099 9143 800314 3000 A 0 0 0 0 0 0 0 0 0 0 0 0 0 0 0 0 0 0 0 0 0 0 0 0 0 0 0 0 ar
S 1104 6 3 1 0 6 1 1099 9146 800014 3000 A 0 0 0 0 0 0 0 0 0 0 0 0 0 0 0 0 0 0 0 0 0 0 0 0 0 0 0 0 ldar
S 1105 7 3 1 0 95 1 1099 9157 800014 3000 A 0 0 0 0 0 0 0 0 0 0 0 0 0 0 0 0 0 0 0 0 0 0 0 0 0 0 0 0 desc
S 1106 1 3 1 0 6 1 1099 9230 14 3000 A 0 0 0 0 0 0 0 0 0 0 0 0 0 0 0 0 0 0 0 0 0 0 0 0 0 0 0 0 comm
S 1107 14 5 0 0 0 1 1099 9085 300 400000 A 0 0 0 0 0 0 0 27 7 0 0 0 0 0 0 0 0 0 0 0 0 160 0 582 0 0 0 0 dsqmcll
F 1107 7 1100 1101 1102 1103 1104 1105 1106
S 1108 6 1 0 0 6 1 1099 9222 40800016 3000 A 0 0 0 0 0 0 0 0 0 0 0 0 0 0 0 0 0 0 0 0 0 0 0 0 0 0 0 0 z_e_465
S 1109 6 1 0 0 6 1 1099 9170 40800016 3000 A 0 0 0 0 0 0 0 0 0 0 0 0 0 0 0 0 0 0 0 0 0 0 0 0 0 0 0 0 z_b_0
S 1110 6 1 0 0 6 1 1099 9235 40800016 3000 A 0 0 0 0 0 0 0 0 0 0 0 0 0 0 0 0 0 0 0 0 0 0 0 0 0 0 0 0 z_e_468
S 1111 6 1 0 0 6 1 1099 9243 40800016 3000 A 0 0 0 0 0 0 0 0 0 0 0 0 0 0 0 0 0 0 0 0 0 0 0 0 0 0 0 0 z_e_470
S 1112 6 1 0 0 6 1 1099 9192 40800016 3000 A 0 0 0 0 0 0 0 0 0 0 0 0 0 0 0 0 0 0 0 0 0 0 0 0 0 0 0 0 z_b_1
S 1113 6 1 0 0 6 1 1099 9251 40800016 3000 A 0 0 0 0 0 0 0 0 0 0 0 0 0 0 0 0 0 0 0 0 0 0 0 0 0 0 0 0 z_e_473
S 1114 23 5 0 0 0 1122 582 9117 0 0 A 0 0 0 0 0 0 0 0 0 0 0 0 0 0 0 0 0 0 0 0 0 0 0 0 0 0 0 0 zsqmcll
S 1115 1 3 1 0 6 1 1114 9141 14 3000 A 0 0 0 0 0 0 0 0 0 0 0 0 0 0 0 0 0 0 0 0 0 0 0 0 0 0 0 0 n
S 1116 7 3 0 0 101 1 1114 9151 800314 3000 A 0 0 0 0 0 0 0 0 0 0 0 0 0 0 0 0 0 0 0 0 0 0 0 0 0 0 0 0 a
S 1117 6 3 1 0 6 1 1114 9153 800014 3000 A 0 0 0 0 0 0 0 0 0 0 0 0 0 0 0 0 0 0 0 0 0 0 0 0 0 0 0 0 lda
S 1118 7 3 0 0 98 1 1114 9143 800314 3000 A 0 0 0 0 0 0 0 0 0 0 0 0 0 0 0 0 0 0 0 0 0 0 0 0 0 0 0 0 ar
S 1119 6 3 1 0 6 1 1114 9146 800014 3000 A 0 0 0 0 0 0 0 0 0 0 0 0 0 0 0 0 0 0 0 0 0 0 0 0 0 0 0 0 ldar
S 1120 7 3 1 0 104 1 1114 9157 800014 3000 A 0 0 0 0 0 0 0 0 0 0 0 0 0 0 0 0 0 0 0 0 0 0 0 0 0 0 0 0 desc
S 1121 1 3 1 0 6 1 1114 9230 14 3000 A 0 0 0 0 0 0 0 0 0 0 0 0 0 0 0 0 0 0 0 0 0 0 0 0 0 0 0 0 comm
S 1122 14 5 0 0 0 1 1114 9117 300 400000 A 0 0 0 0 0 0 0 35 7 0 0 0 0 0 0 0 0 0 0 0 0 242 0 582 0 0 0 0 zsqmcll
F 1122 7 1115 1116 1117 1118 1119 1120 1121
S 1123 6 1 0 0 6 1 1114 9251 40800016 3000 A 0 0 0 0 0 0 0 0 0 0 0 0 0 0 0 0 0 0 0 0 0 0 0 0 0 0 0 0 z_e_473
S 1124 6 1 0 0 6 1 1114 9170 40800016 3000 A 0 0 0 0 0 0 0 0 0 0 0 0 0 0 0 0 0 0 0 0 0 0 0 0 0 0 0 0 z_b_0
S 1125 6 1 0 0 6 1 1114 9259 40800016 3000 A 0 0 0 0 0 0 0 0 0 0 0 0 0 0 0 0 0 0 0 0 0 0 0 0 0 0 0 0 z_e_476
S 1126 6 1 0 0 6 1 1114 9267 40800016 3000 A 0 0 0 0 0 0 0 0 0 0 0 0 0 0 0 0 0 0 0 0 0 0 0 0 0 0 0 0 z_e_478
S 1127 6 1 0 0 6 1 1114 9192 40800016 3000 A 0 0 0 0 0 0 0 0 0 0 0 0 0 0 0 0 0 0 0 0 0 0 0 0 0 0 0 0 z_b_1
S 1128 6 1 0 0 6 1 1114 9275 40800016 3000 A 0 0 0 0 0 0 0 0 0 0 0 0 0 0 0 0 0 0 0 0 0 0 0 0 0 0 0 0 z_e_481
S 1129 23 5 0 0 0 1134 582 9283 10 0 A 0 0 0 0 0 0 0 0 0 0 0 0 0 0 0 0 0 0 0 0 0 0 0 0 0 0 0 0 dsqmwpb
S 1130 1 3 1 0 6 1 1129 9141 14 3000 A 0 0 0 0 0 0 0 0 0 0 0 0 0 0 0 0 0 0 0 0 0 0 0 0 0 0 0 0 n
S 1131 7 3 0 0 107 1 1129 9151 800314 3000 A 0 0 0 0 0 0 0 0 0 0 0 0 0 0 0 0 0 0 0 0 0 0 0 0 0 0 0 0 a
S 1132 6 3 1 0 6 1 1129 9153 800014 3000 A 0 0 0 0 0 0 0 0 0 0 0 0 0 0 0 0 0 0 0 0 0 0 0 0 0 0 0 0 lda
S 1133 7 3 1 0 110 1 1129 9157 800014 3000 A 0 0 0 0 0 0 0 0 0 0 0 0 0 0 0 0 0 0 0 0 0 0 0 0 0 0 0 0 desc
S 1134 14 5 0 0 0 1 1129 9283 310 400000 A 0 0 0 0 0 0 0 43 4 0 0 0 0 0 0 0 0 0 0 0 0 332 0 582 0 0 0 0 dsqmwpb
F 1134 4 1130 1131 1132 1133
S 1135 6 1 0 0 6 1 1129 9275 40800016 3000 A 0 0 0 0 0 0 0 0 0 0 0 0 0 0 0 0 0 0 0 0 0 0 0 0 0 0 0 0 z_e_481
S 1136 6 1 0 0 6 1 1129 9170 40800016 3000 A 0 0 0 0 0 0 0 0 0 0 0 0 0 0 0 0 0 0 0 0 0 0 0 0 0 0 0 0 z_b_0
S 1137 6 1 0 0 6 1 1129 9291 40800016 3000 A 0 0 0 0 0 0 0 0 0 0 0 0 0 0 0 0 0 0 0 0 0 0 0 0 0 0 0 0 z_e_484
S 1138 23 5 0 0 0 1143 582 9101 0 0 A 0 0 0 0 0 0 0 0 0 0 0 0 0 0 0 0 0 0 0 0 0 0 0 0 0 0 0 0 dsqmsym
S 1139 1 3 1 0 6 1 1138 9141 14 3000 A 0 0 0 0 0 0 0 0 0 0 0 0 0 0 0 0 0 0 0 0 0 0 0 0 0 0 0 0 n
S 1140 7 3 0 0 113 1 1138 9151 800314 3000 A 0 0 0 0 0 0 0 0 0 0 0 0 0 0 0 0 0 0 0 0 0 0 0 0 0 0 0 0 a
S 1141 6 3 1 0 6 1 1138 9153 800014 3000 A 0 0 0 0 0 0 0 0 0 0 0 0 0 0 0 0 0 0 0 0 0 0 0 0 0 0 0 0 lda
S 1142 7 3 1 0 116 1 1138 9157 800014 3000 A 0 0 0 0 0 0 0 0 0 0 0 0 0 0 0 0 0 0 0 0 0 0 0 0 0 0 0 0 desc
S 1143 14 5 0 0 0 1 1138 9101 300 400000 A 0 0 0 0 0 0 0 48 4 0 0 0 0 0 0 0 0 0 0 0 0 364 0 582 0 0 0 0 dsqmsym
F 1143 4 1139 1140 1141 1142
S 1144 6 1 0 0 6 1 1138 9299 40800016 3000 A 0 0 0 0 0 0 0 0 0 0 0 0 0 0 0 0 0 0 0 0 0 0 0 0 0 0 0 0 z_e_485
S 1145 6 1 0 0 6 1 1138 9170 40800016 3000 A 0 0 0 0 0 0 0 0 0 0 0 0 0 0 0 0 0 0 0 0 0 0 0 0 0 0 0 0 z_b_0
S 1146 6 1 0 0 6 1 1138 9307 40800016 3000 A 0 0 0 0 0 0 0 0 0 0 0 0 0 0 0 0 0 0 0 0 0 0 0 0 0 0 0 0 z_e_488
S 1147 23 5 0 0 0 1152 582 9133 0 0 A 0 0 0 0 0 0 0 0 0 0 0 0 0 0 0 0 0 0 0 0 0 0 0 0 0 0 0 0 zsqmher
S 1148 1 3 1 0 6 1 1147 9141 14 3000 A 0 0 0 0 0 0 0 0 0 0 0 0 0 0 0 0 0 0 0 0 0 0 0 0 0 0 0 0 n
S 1149 7 3 0 0 119 1 1147 9151 800214 3000 A 0 0 0 0 0 0 0 0 0 0 0 0 0 0 0 0 0 0 0 0 0 0 0 0 0 0 0 0 a
S 1150 6 3 1 0 6 1 1147 9153 800014 3000 A 0 0 0 0 0 0 0 0 0 0 0 0 0 0 0 0 0 0 0 0 0 0 0 0 0 0 0 0 lda
S 1151 7 3 1 0 122 1 1147 9157 800014 3000 A 0 0 0 0 0 0 0 0 0 0 0 0 0 0 0 0 0 0 0 0 0 0 0 0 0 0 0 0 desc
S 1152 14 5 0 0 0 1 1147 9133 200 400000 A 0 0 0 0 0 0 0 53 4 0 0 0 0 0 0 0 0 0 0 0 0 457 0 582 0 0 0 0 zsqmher
F 1152 4 1148 1149 1150 1151
S 1153 6 1 0 0 6 1 1147 9315 40800016 3000 A 0 0 0 0 0 0 0 0 0 0 0 0 0 0 0 0 0 0 0 0 0 0 0 0 0 0 0 0 z_e_489
S 1154 6 1 0 0 6 1 1147 9323 40800016 3000 A 0 0 0 0 0 0 0 0 0 0 0 0 0 0 0 0 0 0 0 0 0 0 0 0 0 0 0 0 z_e_491
S 1155 6 1 0 0 6 1 1147 9331 40800016 3000 A 0 0 0 0 0 0 0 0 0 0 0 0 0 0 0 0 0 0 0 0 0 0 0 0 0 0 0 0 z_e_493
S 1156 23 5 0 0 0 1165 582 9093 0 0 A 0 0 0 0 0 0 0 0 0 0 0 0 0 0 0 0 0 0 0 0 0 0 0 0 0 0 0 0 dsqmred
S 1157 1 3 1 0 6 1 1156 9339 14 3000 A 0 0 0 0 0 0 0 0 0 0 0 0 0 0 0 0 0 0 0 0 0 0 0 0 0 0 0 0 na
S 1158 7 3 0 0 125 1 1156 9151 800214 3000 A 0 0 0 0 0 0 0 0 0 0 0 0 0 0 0 0 0 0 0 0 0 0 0 0 0 0 0 0 a
S 1159 6 3 1 0 6 1 1156 9153 800014 3000 A 0 0 0 0 0 0 0 0 0 0 0 0 0 0 0 0 0 0 0 0 0 0 0 0 0 0 0 0 lda
S 1160 7 3 1 0 128 1 1156 9342 800014 3000 A 0 0 0 0 0 0 0 0 0 0 0 0 0 0 0 0 0 0 0 0 0 0 0 0 0 0 0 0 desca
S 1161 1 3 1 0 6 1 1156 9348 14 3000 A 0 0 0 0 0 0 0 0 0 0 0 0 0 0 0 0 0 0 0 0 0 0 0 0 0 0 0 0 nb
S 1162 7 3 0 0 131 1 1156 9351 800214 3000 A 0 0 0 0 0 0 0 0 0 0 0 0 0 0 0 0 0 0 0 0 0 0 0 0 0 0 0 0 b
S 1163 6 3 1 0 6 1 1156 9353 800014 3000 A 0 0 0 0 0 0 0 0 0 0 0 0 0 0 0 0 0 0 0 0 0 0 0 0 0 0 0 0 ldb
S 1164 7 3 1 0 134 1 1156 9357 800014 3000 A 0 0 0 0 0 0 0 0 0 0 0 0 0 0 0 0 0 0 0 0 0 0 0 0 0 0 0 0 descb
S 1165 14 5 0 0 0 1 1156 9093 200 400000 A 0 0 0 0 0 0 0 58 8 0 0 0 0 0 0 0 0 0 0 0 0 559 0 582 0 0 0 0 dsqmred
F 1165 8 1157 1158 1159 1160 1161 1162 1163 1164
S 1166 6 1 0 0 6 1 1156 9331 40800016 3000 A 0 0 0 0 0 0 0 0 0 0 0 0 0 0 0 0 0 0 0 0 0 0 0 0 0 0 0 0 z_e_493
S 1167 6 1 0 0 6 1 1156 9363 40800016 3000 A 0 0 0 0 0 0 0 0 0 0 0 0 0 0 0 0 0 0 0 0 0 0 0 0 0 0 0 0 z_e_495
S 1168 6 1 0 0 6 1 1156 9371 40800016 3000 A 0 0 0 0 0 0 0 0 0 0 0 0 0 0 0 0 0 0 0 0 0 0 0 0 0 0 0 0 z_e_497
S 1169 6 1 0 0 6 1 1156 9379 40800016 3000 A 0 0 0 0 0 0 0 0 0 0 0 0 0 0 0 0 0 0 0 0 0 0 0 0 0 0 0 0 z_e_499
S 1170 6 1 0 0 6 1 1156 9387 40800016 3000 A 0 0 0 0 0 0 0 0 0 0 0 0 0 0 0 0 0 0 0 0 0 0 0 0 0 0 0 0 z_e_501
S 1171 6 1 0 0 6 1 1156 9395 40800016 3000 A 0 0 0 0 0 0 0 0 0 0 0 0 0 0 0 0 0 0 0 0 0 0 0 0 0 0 0 0 z_e_503
S 1172 23 5 0 0 0 1181 582 9125 0 0 A 0 0 0 0 0 0 0 0 0 0 0 0 0 0 0 0 0 0 0 0 0 0 0 0 0 0 0 0 zsqmred
S 1173 1 3 1 0 6 1 1172 9339 14 3000 A 0 0 0 0 0 0 0 0 0 0 0 0 0 0 0 0 0 0 0 0 0 0 0 0 0 0 0 0 na
S 1174 7 3 0 0 137 1 1172 9151 800214 3000 A 0 0 0 0 0 0 0 0 0 0 0 0 0 0 0 0 0 0 0 0 0 0 0 0 0 0 0 0 a
S 1175 6 3 1 0 6 1 1172 9153 800014 3000 A 0 0 0 0 0 0 0 0 0 0 0 0 0 0 0 0 0 0 0 0 0 0 0 0 0 0 0 0 lda
S 1176 7 3 1 0 140 1 1172 9342 800014 3000 A 0 0 0 0 0 0 0 0 0 0 0 0 0 0 0 0 0 0 0 0 0 0 0 0 0 0 0 0 desca
S 1177 1 3 1 0 6 1 1172 9348 14 3000 A 0 0 0 0 0 0 0 0 0 0 0 0 0 0 0 0 0 0 0 0 0 0 0 0 0 0 0 0 nb
S 1178 7 3 0 0 143 1 1172 9351 800214 3000 A 0 0 0 0 0 0 0 0 0 0 0 0 0 0 0 0 0 0 0 0 0 0 0 0 0 0 0 0 b
S 1179 6 3 1 0 6 1 1172 9353 800014 3000 A 0 0 0 0 0 0 0 0 0 0 0 0 0 0 0 0 0 0 0 0 0 0 0 0 0 0 0 0 ldb
S 1180 7 3 1 0 146 1 1172 9357 800014 3000 A 0 0 0 0 0 0 0 0 0 0 0 0 0 0 0 0 0 0 0 0 0 0 0 0 0 0 0 0 descb
S 1181 14 5 0 0 0 1 1172 9125 200 400000 A 0 0 0 0 0 0 0 67 8 0 0 0 0 0 0 0 0 0 0 0 0 907 0 582 0 0 0 0 zsqmred
F 1181 8 1173 1174 1175 1176 1177 1178 1179 1180
S 1182 6 1 0 0 6 1 1172 9387 40800016 3000 A 0 0 0 0 0 0 0 0 0 0 0 0 0 0 0 0 0 0 0 0 0 0 0 0 0 0 0 0 z_e_501
S 1183 6 1 0 0 6 1 1172 9395 40800016 3000 A 0 0 0 0 0 0 0 0 0 0 0 0 0 0 0 0 0 0 0 0 0 0 0 0 0 0 0 0 z_e_503
S 1184 6 1 0 0 6 1 1172 9403 40800016 3000 A 0 0 0 0 0 0 0 0 0 0 0 0 0 0 0 0 0 0 0 0 0 0 0 0 0 0 0 0 z_e_505
S 1185 6 1 0 0 6 1 1172 9411 40800016 3000 A 0 0 0 0 0 0 0 0 0 0 0 0 0 0 0 0 0 0 0 0 0 0 0 0 0 0 0 0 z_e_507
S 1186 6 1 0 0 6 1 1172 9419 40800016 3000 A 0 0 0 0 0 0 0 0 0 0 0 0 0 0 0 0 0 0 0 0 0 0 0 0 0 0 0 0 z_e_509
S 1187 6 1 0 0 6 1 1172 9427 40800016 3000 A 0 0 0 0 0 0 0 0 0 0 0 0 0 0 0 0 0 0 0 0 0 0 0 0 0 0 0 0 z_e_511
S 1188 23 5 0 0 0 1203 582 9046 0 0 A 0 0 0 0 0 0 0 0 0 0 0 0 0 0 0 0 0 0 0 0 0 0 0 0 0 0 0 0 rep_matmul_drv
S 1189 1 3 1 0 20 1 1188 9435 14 3000 A 0 0 0 0 0 0 0 0 0 0 0 0 0 0 0 0 0 0 0 0 0 0 0 0 0 0 0 0 transa
S 1190 1 3 1 0 20 1 1188 9442 14 3000 A 0 0 0 0 0 0 0 0 0 0 0 0 0 0 0 0 0 0 0 0 0 0 0 0 0 0 0 0 transb
S 1191 1 3 1 0 6 1 1188 9449 14 3000 A 0 0 0 0 0 0 0 0 0 0 0 0 0 0 0 0 0 0 0 0 0 0 0 0 0 0 0 0 m
S 1192 1 3 1 0 6 1 1188 9141 14 3000 A 0 0 0 0 0 0 0 0 0 0 0 0 0 0 0 0 0 0 0 0 0 0 0 0 0 0 0 0 n
S 1193 1 3 1 0 6 1 1188 9451 14 3000 A 0 0 0 0 0 0 0 0 0 0 0 0 0 0 0 0 0 0 0 0 0 0 0 0 0 0 0 0 k
S 1194 1 3 1 0 9 1 1188 9453 14 3000 A 0 0 0 0 0 0 0 0 0 0 0 0 0 0 0 0 0 0 0 0 0 0 0 0 0 0 0 0 alpha
S 1195 7 3 0 0 149 1 1188 9151 800314 3000 A 0 0 0 0 0 0 0 0 0 0 0 0 0 0 0 0 0 0 0 0 0 0 0 0 0 0 0 0 a
S 1196 6 3 1 0 6 1 1188 9153 800014 3000 A 0 0 0 0 0 0 0 0 0 0 0 0 0 0 0 0 0 0 0 0 0 0 0 0 0 0 0 0 lda
S 1197 7 3 0 0 152 1 1188 9351 800314 3000 A 0 0 0 0 0 0 0 0 0 0 0 0 0 0 0 0 0 0 0 0 0 0 0 0 0 0 0 0 b
S 1198 6 3 1 0 6 1 1188 9353 800014 3000 A 0 0 0 0 0 0 0 0 0 0 0 0 0 0 0 0 0 0 0 0 0 0 0 0 0 0 0 0 ldb
S 1199 1 3 1 0 9 1 1188 9459 14 3000 A 0 0 0 0 0 0 0 0 0 0 0 0 0 0 0 0 0 0 0 0 0 0 0 0 0 0 0 0 beta
S 1200 7 3 0 0 155 1 1188 9464 800314 3000 A 0 0 0 0 0 0 0 0 0 0 0 0 0 0 0 0 0 0 0 0 0 0 0 0 0 0 0 0 c
S 1201 6 3 1 0 6 1 1188 9466 800014 3000 A 0 0 0 0 0 0 0 0 0 0 0 0 0 0 0 0 0 0 0 0 0 0 0 0 0 0 0 0 ldc
S 1202 1 3 1 0 6 1 1188 9230 14 3000 A 0 0 0 0 0 0 0 0 0 0 0 0 0 0 0 0 0 0 0 0 0 0 0 0 0 0 0 0 comm
S 1203 14 5 0 0 0 1 1188 9046 300 400000 A 0 0 0 0 0 0 0 76 14 0 0 0 0 0 0 0 0 0 0 0 0 1238 0 582 0 0 0 0 rep_matmul_drv
F 1203 14 1189 1190 1191 1192 1193 1194 1195 1196 1197 1198 1199 1200 1201 1202
S 1204 6 1 0 0 6 1 1188 9307 40800016 3000 A 0 0 0 0 0 0 0 0 0 0 0 0 0 0 0 0 0 0 0 0 0 0 0 0 0 0 0 0 z_e_488
S 1205 6 1 0 0 6 1 1188 9170 40800016 3000 A 0 0 0 0 0 0 0 0 0 0 0 0 0 0 0 0 0 0 0 0 0 0 0 0 0 0 0 0 z_b_0
S 1206 6 1 0 0 6 1 1188 9323 40800016 3000 A 0 0 0 0 0 0 0 0 0 0 0 0 0 0 0 0 0 0 0 0 0 0 0 0 0 0 0 0 z_e_491
S 1207 6 1 0 0 6 1 1188 9331 40800016 3000 A 0 0 0 0 0 0 0 0 0 0 0 0 0 0 0 0 0 0 0 0 0 0 0 0 0 0 0 0 z_e_493
S 1208 6 1 0 0 6 1 1188 9192 40800016 3000 A 0 0 0 0 0 0 0 0 0 0 0 0 0 0 0 0 0 0 0 0 0 0 0 0 0 0 0 0 z_b_1
S 1209 6 1 0 0 6 1 1188 9470 40800016 3000 A 0 0 0 0 0 0 0 0 0 0 0 0 0 0 0 0 0 0 0 0 0 0 0 0 0 0 0 0 z_e_496
S 1210 6 1 0 0 6 1 1188 9478 40800016 3000 A 0 0 0 0 0 0 0 0 0 0 0 0 0 0 0 0 0 0 0 0 0 0 0 0 0 0 0 0 z_e_498
S 1211 6 1 0 0 6 1 1188 9486 40800016 3000 A 0 0 0 0 0 0 0 0 0 0 0 0 0 0 0 0 0 0 0 0 0 0 0 0 0 0 0 0 z_b_2
S 1212 6 1 0 0 6 1 1188 9387 40800016 3000 A 0 0 0 0 0 0 0 0 0 0 0 0 0 0 0 0 0 0 0 0 0 0 0 0 0 0 0 0 z_e_501
S 1213 23 5 0 0 0 1228 582 9061 0 0 A 0 0 0 0 0 0 0 0 0 0 0 0 0 0 0 0 0 0 0 0 0 0 0 0 0 0 0 0 zrep_matmul_drv
S 1214 1 3 1 0 20 1 1213 9435 14 3000 A 0 0 0 0 0 0 0 0 0 0 0 0 0 0 0 0 0 0 0 0 0 0 0 0 0 0 0 0 transa
S 1215 1 3 1 0 20 1 1213 9442 14 3000 A 0 0 0 0 0 0 0 0 0 0 0 0 0 0 0 0 0 0 0 0 0 0 0 0 0 0 0 0 transb
S 1216 1 3 1 0 6 1 1213 9449 14 3000 A 0 0 0 0 0 0 0 0 0 0 0 0 0 0 0 0 0 0 0 0 0 0 0 0 0 0 0 0 m
S 1217 1 3 1 0 6 1 1213 9141 14 3000 A 0 0 0 0 0 0 0 0 0 0 0 0 0 0 0 0 0 0 0 0 0 0 0 0 0 0 0 0 n
S 1218 1 3 1 0 6 1 1213 9451 14 3000 A 0 0 0 0 0 0 0 0 0 0 0 0 0 0 0 0 0 0 0 0 0 0 0 0 0 0 0 0 k
S 1219 1 3 1 0 12 1 1213 9453 14 3000 A 0 0 0 0 0 0 0 0 0 0 0 0 0 0 0 0 0 0 0 0 0 0 0 0 0 0 0 0 alpha
S 1220 7 3 0 0 158 1 1213 9151 800314 3000 A 0 0 0 0 0 0 0 0 0 0 0 0 0 0 0 0 0 0 0 0 0 0 0 0 0 0 0 0 a
S 1221 6 3 1 0 6 1 1213 9153 800014 3000 A 0 0 0 0 0 0 0 0 0 0 0 0 0 0 0 0 0 0 0 0 0 0 0 0 0 0 0 0 lda
S 1222 7 3 0 0 161 1 1213 9351 800314 3000 A 0 0 0 0 0 0 0 0 0 0 0 0 0 0 0 0 0 0 0 0 0 0 0 0 0 0 0 0 b
S 1223 6 3 1 0 6 1 1213 9353 800014 3000 A 0 0 0 0 0 0 0 0 0 0 0 0 0 0 0 0 0 0 0 0 0 0 0 0 0 0 0 0 ldb
S 1224 1 3 1 0 12 1 1213 9459 14 3000 A 0 0 0 0 0 0 0 0 0 0 0 0 0 0 0 0 0 0 0 0 0 0 0 0 0 0 0 0 beta
S 1225 7 3 0 0 164 1 1213 9464 800314 3000 A 0 0 0 0 0 0 0 0 0 0 0 0 0 0 0 0 0 0 0 0 0 0 0 0 0 0 0 0 c
S 1226 6 3 1 0 6 1 1213 9466 800014 3000 A 0 0 0 0 0 0 0 0 0 0 0 0 0 0 0 0 0 0 0 0 0 0 0 0 0 0 0 0 ldc
S 1227 1 3 1 0 6 1 1213 9230 14 3000 A 0 0 0 0 0 0 0 0 0 0 0 0 0 0 0 0 0 0 0 0 0 0 0 0 0 0 0 0 comm
S 1228 14 5 0 0 0 1 1213 9061 300 400000 A 0 0 0 0 0 0 0 91 14 0 0 0 0 0 0 0 0 0 0 0 0 1394 0 582 0 0 0 0 zrep_matmul_drv
F 1228 14 1214 1215 1216 1217 1218 1219 1220 1221 1222 1223 1224 1225 1226 1227
S 1229 6 1 0 0 6 1 1213 9492 40800016 3000 A 0 0 0 0 0 0 0 0 0 0 0 0 0 0 0 0 0 0 0 0 0 0 0 0 0 0 0 0 z_e_500
S 1230 6 1 0 0 6 1 1213 9170 40800016 3000 A 0 0 0 0 0 0 0 0 0 0 0 0 0 0 0 0 0 0 0 0 0 0 0 0 0 0 0 0 z_b_0
S 1231 6 1 0 0 6 1 1213 9395 40800016 3000 A 0 0 0 0 0 0 0 0 0 0 0 0 0 0 0 0 0 0 0 0 0 0 0 0 0 0 0 0 z_e_503
S 1232 6 1 0 0 6 1 1213 9403 40800016 3000 A 0 0 0 0 0 0 0 0 0 0 0 0 0 0 0 0 0 0 0 0 0 0 0 0 0 0 0 0 z_e_505
S 1233 6 1 0 0 6 1 1213 9192 40800016 3000 A 0 0 0 0 0 0 0 0 0 0 0 0 0 0 0 0 0 0 0 0 0 0 0 0 0 0 0 0 z_b_1
S 1234 6 1 0 0 6 1 1213 9500 40800016 3000 A 0 0 0 0 0 0 0 0 0 0 0 0 0 0 0 0 0 0 0 0 0 0 0 0 0 0 0 0 z_e_508
S 1235 6 1 0 0 6 1 1213 9508 40800016 3000 A 0 0 0 0 0 0 0 0 0 0 0 0 0 0 0 0 0 0 0 0 0 0 0 0 0 0 0 0 z_e_510
S 1236 6 1 0 0 6 1 1213 9486 40800016 3000 A 0 0 0 0 0 0 0 0 0 0 0 0 0 0 0 0 0 0 0 0 0 0 0 0 0 0 0 0 z_b_2
S 1237 6 1 0 0 6 1 1213 9516 40800016 3000 A 0 0 0 0 0 0 0 0 0 0 0 0 0 0 0 0 0 0 0 0 0 0 0 0 0 0 0 0 z_e_513
A 118 2 0 0 0 6 666 0 0 0 118 0 0 0 0 0 0 0 0 0
A 428 1 0 0 0 6 1081 0 0 0 0 0 0 0 0 0 0 0 0 0
A 429 1 0 0 0 6 1074 0 0 0 0 0 0 0 0 0 0 0 0 0
A 430 1 0 0 0 6 1079 0 0 0 0 0 0 0 0 0 0 0 0 0
A 431 1 0 0 0 6 1080 0 0 0 0 0 0 0 0 0 0 0 0 0
A 432 1 0 0 0 6 1084 0 0 0 0 0 0 0 0 0 0 0 0 0
A 433 1 0 0 0 6 1076 0 0 0 0 0 0 0 0 0 0 0 0 0
A 434 1 0 0 0 6 1082 0 0 0 0 0 0 0 0 0 0 0 0 0
A 435 1 0 0 0 6 1083 0 0 0 0 0 0 0 0 0 0 0 0 0
A 436 1 0 0 16 6 1095 0 0 0 0 0 0 0 0 0 0 0 0 0
A 437 1 0 0 0 6 1088 0 0 0 0 0 0 0 0 0 0 0 0 0
A 438 1 0 0 12 6 1093 0 0 0 0 0 0 0 0 0 0 0 0 0
A 439 1 0 0 14 6 1094 0 0 0 0 0 0 0 0 0 0 0 0 0
A 440 1 0 0 0 6 1098 0 0 0 0 0 0 0 0 0 0 0 0 0
A 441 1 0 0 0 6 1090 0 0 0 0 0 0 0 0 0 0 0 0 0
A 442 1 0 0 0 6 1096 0 0 0 0 0 0 0 0 0 0 0 0 0
A 443 1 0 0 0 6 1097 0 0 0 0 0 0 0 0 0 0 0 0 0
A 444 1 0 0 0 6 1110 0 0 0 0 0 0 0 0 0 0 0 0 0
A 445 1 0 0 0 6 1104 0 0 0 0 0 0 0 0 0 0 0 0 0
A 446 1 0 0 0 6 1108 0 0 0 0 0 0 0 0 0 0 0 0 0
A 447 1 0 0 0 6 1109 0 0 0 0 0 0 0 0 0 0 0 0 0
A 448 1 0 0 0 6 1113 0 0 0 0 0 0 0 0 0 0 0 0 0
A 449 1 0 0 0 6 1102 0 0 0 0 0 0 0 0 0 0 0 0 0
A 450 1 0 0 0 6 1111 0 0 0 0 0 0 0 0 0 0 0 0 0
A 451 1 0 0 0 6 1112 0 0 0 0 0 0 0 0 0 0 0 0 0
A 452 1 0 0 0 6 1125 0 0 0 0 0 0 0 0 0 0 0 0 0
A 453 1 0 0 0 6 1119 0 0 0 0 0 0 0 0 0 0 0 0 0
A 454 1 0 0 0 6 1123 0 0 0 0 0 0 0 0 0 0 0 0 0
A 455 1 0 0 0 6 1124 0 0 0 0 0 0 0 0 0 0 0 0 0
A 456 1 0 0 0 6 1128 0 0 0 0 0 0 0 0 0 0 0 0 0
A 457 1 0 0 0 6 1117 0 0 0 0 0 0 0 0 0 0 0 0 0
A 458 1 0 0 0 6 1126 0 0 0 0 0 0 0 0 0 0 0 0 0
A 459 1 0 0 0 6 1127 0 0 0 0 0 0 0 0 0 0 0 0 0
A 460 1 0 0 0 6 1137 0 0 0 0 0 0 0 0 0 0 0 0 0
A 461 1 0 0 0 6 1132 0 0 0 0 0 0 0 0 0 0 0 0 0
A 462 1 0 0 0 6 1135 0 0 0 0 0 0 0 0 0 0 0 0 0
A 463 1 0 0 0 6 1136 0 0 0 0 0 0 0 0 0 0 0 0 0
A 464 1 0 0 0 6 1146 0 0 0 0 0 0 0 0 0 0 0 0 0
A 465 1 0 0 0 6 1141 0 0 0 0 0 0 0 0 0 0 0 0 0
A 466 1 0 0 0 6 1144 0 0 0 0 0 0 0 0 0 0 0 0 0
A 467 1 0 0 0 6 1145 0 0 0 0 0 0 0 0 0 0 0 0 0
A 468 1 0 0 0 6 1155 0 0 0 0 0 0 0 0 0 0 0 0 0
A 469 1 0 0 0 6 1150 0 0 0 0 0 0 0 0 0 0 0 0 0
A 470 1 0 0 0 6 1153 0 0 0 0 0 0 0 0 0 0 0 0 0
A 471 1 0 0 0 6 1154 0 0 0 0 0 0 0 0 0 0 0 0 0
A 472 1 0 0 0 6 1168 0 0 0 0 0 0 0 0 0 0 0 0 0
A 473 1 0 0 0 6 1159 0 0 0 0 0 0 0 0 0 0 0 0 0
A 474 1 0 0 0 6 1166 0 0 0 0 0 0 0 0 0 0 0 0 0
A 475 1 0 0 0 6 1167 0 0 0 0 0 0 0 0 0 0 0 0 0
A 476 1 0 0 0 6 1171 0 0 0 0 0 0 0 0 0 0 0 0 0
A 477 1 0 0 0 6 1163 0 0 0 0 0 0 0 0 0 0 0 0 0
A 478 1 0 0 0 6 1169 0 0 0 0 0 0 0 0 0 0 0 0 0
A 479 1 0 0 0 6 1170 0 0 0 0 0 0 0 0 0 0 0 0 0
A 480 1 0 0 2 6 1184 0 0 0 0 0 0 0 0 0 0 0 0 0
A 481 1 0 0 0 6 1175 0 0 0 0 0 0 0 0 0 0 0 0 0
A 482 1 0 0 0 6 1182 0 0 0 0 0 0 0 0 0 0 0 0 0
A 483 1 0 0 0 6 1183 0 0 0 0 0 0 0 0 0 0 0 0 0
A 484 1 0 0 11 6 1187 0 0 0 0 0 0 0 0 0 0 0 0 0
A 485 1 0 0 0 6 1179 0 0 0 0 0 0 0 0 0 0 0 0 0
A 486 1 0 0 10 6 1185 0 0 0 0 0 0 0 0 0 0 0 0 0
A 487 1 0 0 426 6 1186 0 0 0 0 0 0 0 0 0 0 0 0 0
A 488 1 0 0 0 6 1206 0 0 0 0 0 0 0 0 0 0 0 0 0
A 489 1 0 0 0 6 1196 0 0 0 0 0 0 0 0 0 0 0 0 0
A 490 1 0 0 15 6 1204 0 0 0 0 0 0 0 0 0 0 0 0 0
A 491 1 0 0 0 6 1205 0 0 0 0 0 0 0 0 0 0 0 0 0
A 492 1 0 0 0 6 1209 0 0 0 0 0 0 0 0 0 0 0 0 0
A 493 1 0 0 0 6 1198 0 0 0 0 0 0 0 0 0 0 0 0 0
A 494 1 0 0 0 6 1207 0 0 0 0 0 0 0 0 0 0 0 0 0
A 495 1 0 0 0 6 1208 0 0 0 0 0 0 0 0 0 0 0 0 0
A 496 1 0 0 0 6 1212 0 0 0 0 0 0 0 0 0 0 0 0 0
A 497 1 0 0 0 6 1201 0 0 0 0 0 0 0 0 0 0 0 0 0
A 498 1 0 0 0 6 1210 0 0 0 0 0 0 0 0 0 0 0 0 0
A 499 1 0 0 0 6 1211 0 0 0 0 0 0 0 0 0 0 0 0 0
A 500 1 0 0 0 6 1231 0 0 0 0 0 0 0 0 0 0 0 0 0
A 501 1 0 0 0 6 1221 0 0 0 0 0 0 0 0 0 0 0 0 0
A 502 1 0 0 0 6 1229 0 0 0 0 0 0 0 0 0 0 0 0 0
A 503 1 0 0 0 6 1230 0 0 0 0 0 0 0 0 0 0 0 0 0
A 504 1 0 0 0 6 1234 0 0 0 0 0 0 0 0 0 0 0 0 0
A 505 1 0 0 0 6 1223 0 0 0 0 0 0 0 0 0 0 0 0 0
A 506 1 0 0 0 6 1232 0 0 0 0 0 0 0 0 0 0 0 0 0
A 507 1 0 0 0 6 1233 0 0 0 0 0 0 0 0 0 0 0 0 0
A 508 1 0 0 21 6 1237 0 0 0 0 0 0 0 0 0 0 0 0 0
A 509 1 0 0 0 6 1226 0 0 0 0 0 0 0 0 0 0 0 0 0
A 510 1 0 0 110 6 1235 0 0 0 0 0 0 0 0 0 0 0 0 0
A 511 1 0 0 18 6 1236 0 0 0 0 0 0 0 0 0 0 0 0 0
Z
Z
