V26 parameters
14 parameters.F90 S582 0
04/24/2012  15:51:01
enduse
S 582 24 0 0 0 9 1 0 4658 5 0 A 0 0 0 0 0 0 0 0 0 0 0 0 43 0 0 0 0 0 0 0 0 11 0 0 0 0 0 0 parameters
S 583 16 1 0 0 6 585 582 4669 4 400000 A 0 0 0 0 0 0 0 0 10 12 0 0 0 0 0 0 0 0 0 0 0 0 0 582 0 0 0 0 ntypx
S 584 3 0 0 0 6 0 1 0 0 0 A 0 0 0 0 0 0 0 0 0 10 0 0 0 0 0 0 0 0 0 0 0 0 0 0 0 0 0 0 6
S 585 16 0 0 0 6 586 582 4675 4 400000 A 0 0 0 0 0 0 0 0 10 12 0 0 0 0 0 0 0 0 0 0 0 0 0 582 0 0 0 0 npsx
S 586 16 1 0 0 6 588 582 4680 4 400000 A 0 0 0 0 0 0 0 0 40000 15 0 0 0 0 0 0 0 0 0 0 0 0 0 582 0 0 0 0 npk
S 587 3 0 0 0 6 0 1 0 0 0 A 0 0 0 0 0 0 0 0 0 40000 0 0 0 0 0 0 0 0 0 0 0 0 0 0 0 0 0 0 6
S 588 16 1 0 0 6 590 582 4684 800004 400000 A 0 0 0 0 0 0 0 0 3 17 0 0 0 0 0 0 0 0 0 0 0 0 0 582 0 0 0 0 lmaxx
S 589 3 0 0 0 6 0 1 0 0 0 A 0 0 0 0 0 0 0 0 0 3 0 0 0 0 0 0 0 0 0 0 0 0 0 0 0 0 0 0 6
S 590 16 0 0 0 6 594 582 4690 800004 400000 A 0 0 0 0 0 0 0 0 7 21 0 0 0 0 0 0 0 0 0 0 0 0 0 582 0 0 0 0 lqmax
S 591 3 0 0 0 6 0 1 0 0 0 A 0 0 0 0 0 0 0 0 0 2 0 0 0 0 0 0 0 0 0 0 0 0 0 0 0 0 0 0 6
S 593 3 0 0 0 6 0 1 0 0 0 A 0 0 0 0 0 0 0 0 0 7 0 0 0 0 0 0 0 0 0 0 0 0 0 0 0 0 0 0 6
S 594 16 0 0 0 6 595 582 4696 800004 400000 A 0 0 0 0 0 0 0 0 10 12 0 0 0 0 0 0 0 0 0 0 0 0 0 582 0 0 0 0 nacx
S 595 16 0 0 0 6 596 582 4701 800004 400000 A 0 0 0 0 0 0 0 0 10 12 0 0 0 0 0 0 0 0 0 0 0 0 0 582 0 0 0 0 nsx
S 596 16 0 0 0 6 597 582 4705 800004 400000 A 0 0 0 0 0 0 0 0 40000 15 0 0 0 0 0 0 0 0 0 0 0 0 0 582 0 0 0 0 npkx
S 597 16 0 0 0 6 598 582 4710 800004 400000 A 0 0 0 0 0 0 0 0 2 19 0 0 0 0 0 0 0 0 0 0 0 0 0 582 0 0 0 0 nspinx
S 598 16 0 0 0 6 600 582 4717 800004 400000 A 0 0 0 0 0 0 0 0 4 27 0 0 0 0 0 0 0 0 0 0 0 0 0 582 0 0 0 0 nhclm
S 599 3 0 0 0 6 0 1 0 0 0 A 0 0 0 0 0 0 0 0 0 4 0 0 0 0 0 0 0 0 0 0 0 0 0 0 0 0 0 0 6
S 600 16 0 0 0 6 0 582 4723 800004 400000 A 0 0 0 0 0 0 0 0 100 29 0 0 0 0 0 0 0 0 0 0 0 0 0 582 0 0 0 0 max_nconstr
S 601 3 0 0 0 6 0 1 0 0 0 A 0 0 0 0 0 0 0 0 0 100 0 0 0 0 0 0 0 0 0 0 0 0 0 0 0 0 0 0 6
A 12 2 0 0 0 6 584 0 0 0 12 0 0 0 0 0 0 0 0 0
A 15 2 0 0 0 6 587 0 0 0 15 0 0 0 0 0 0 0 0 0
A 17 2 0 0 0 6 589 0 0 0 17 0 0 0 0 0 0 0 0 0
A 19 2 0 0 0 6 591 0 0 0 19 0 0 0 0 0 0 0 0 0
A 21 2 0 0 0 6 593 0 0 0 21 0 0 0 0 0 0 0 0 0
A 27 2 0 0 0 6 599 0 0 0 27 0 0 0 0 0 0 0 0 0
A 29 2 0 0 0 6 601 0 0 0 29 0 0 0 0 0 0 0 0 0
Z
Z
