V26 parser
10 parser.F90 S582 0
04/24/2012  15:51:15
use io_global private
use io_global private
enduse
D 56 18 19
S 582 24 0 0 0 9 1 0 4658 10015 0 A 0 0 0 0 0 0 0 0 0 0 0 0 0 0 0 0 0 0 0 0 0 48 0 0 0 0 0 0 parser
S 584 23 0 0 0 9 589 582 4675 14 0 A 0 0 0 0 0 0 0 0 0 0 0 0 0 0 0 0 0 0 0 0 0 0 0 582 0 0 0 0 stdout
R 589 6 4 io_global stdout
S 618 6 4 0 0 6 1 582 4888 80000c 0 A 0 0 0 0 0 0 0 0 0 0 0 0 624 0 0 0 0 0 0 0 0 0 0 582 0 0 0 0 parse_unit
S 619 6 4 0 0 9 620 582 4899 0 1000 A 0 0 0 0 0 0 0 0 0 0 0 0 625 0 0 0 0 0 0 0 0 0 0 582 0 0 0 0 field_count
S 620 6 4 0 0 9 621 582 4911 0 1000 A 0 0 0 0 0 8 0 0 0 0 0 0 625 0 0 0 0 0 0 0 0 0 0 582 0 0 0 0 read_line
S 621 6 4 0 0 9 622 582 4921 0 1000 A 0 0 0 0 0 16 0 0 0 0 0 0 625 0 0 0 0 0 0 0 0 0 0 582 0 0 0 0 version_parse
S 622 6 4 0 0 9 1 582 4935 0 1000 A 0 0 0 0 0 24 0 0 0 0 0 0 625 0 0 0 0 0 0 0 0 0 0 582 0 0 0 0 version_compare
S 624 11 0 0 0 9 596 582 4951 40800000 801000 A 0 0 0 0 0 4 0 0 618 618 0 0 0 0 0 0 0 0 0 0 0 0 0 0 0 0 0 0 _parser$8
S 625 11 0 0 0 9 624 582 4961 40800000 801000 A 0 0 0 0 0 32 0 0 619 622 0 0 0 0 0 0 0 0 0 0 0 0 0 0 0 0 0 0 _parser$2
S 626 23 5 0 0 0 630 582 4899 1000 0 A 0 0 0 0 0 0 0 0 0 0 0 0 0 0 0 0 0 0 0 0 0 0 0 0 0 0 0 0 field_count
S 627 1 3 2 0 6 1 626 4971 14 3000 A 0 0 0 0 0 0 0 0 0 0 0 0 0 0 0 0 0 0 0 0 0 0 0 0 0 0 0 0 num
S 628 1 3 1 0 28 1 626 4975 14 43000 A 0 0 0 0 0 0 0 0 0 0 0 0 0 0 0 0 0 0 0 0 0 0 0 0 0 0 0 0 line
S 629 1 3 1 0 20 1 626 4980 80000014 3000 A 0 0 0 0 0 0 0 0 0 0 0 0 0 0 0 0 0 0 0 0 0 0 0 0 0 0 0 0 car
S 630 14 5 0 0 0 1 626 4899 1000 400000 A 0 0 0 0 0 0 0 13 3 0 0 0 0 0 0 0 0 0 0 0 0 65 0 582 0 0 0 0 field_count
F 630 3 627 628 629
S 631 23 5 0 0 0 636 582 4911 0 0 A 0 0 0 0 0 0 0 0 0 0 0 0 0 0 0 0 0 0 0 0 0 0 0 0 0 0 0 0 read_line
S 632 1 3 2 0 28 1 631 4975 14 43000 A 0 0 0 0 0 0 0 0 0 0 0 0 0 0 0 0 0 0 0 0 0 0 0 0 0 0 0 0 line
S 633 1 3 1 0 6 1 631 4984 80000014 3000 A 0 0 0 0 0 0 0 0 0 0 0 0 0 0 0 0 0 0 0 0 0 0 0 0 0 0 0 0 nfield
S 634 1 3 1 0 28 1 631 4991 80000014 43000 A 0 0 0 0 0 0 0 0 0 0 0 0 0 0 0 0 0 0 0 0 0 0 0 0 0 0 0 0 field
S 635 1 3 2 0 16 1 631 4997 80000014 3000 A 0 0 0 0 0 0 0 0 0 0 0 0 0 0 0 0 0 0 0 0 0 0 0 0 0 0 0 0 end_of_file
S 636 14 5 0 0 0 1 631 4911 0 400000 A 0 0 0 0 0 0 0 17 4 0 0 0 0 0 0 0 0 0 0 0 0 134 0 582 0 0 0 0 read_line
F 636 4 632 633 634 635
S 637 23 5 0 0 0 641 582 5009 10 0 A 0 0 0 0 0 0 0 0 0 0 0 0 0 0 0 0 0 0 0 0 0 0 0 0 0 0 0 0 field_compare
S 638 1 3 1 0 28 1 637 5023 14 43000 A 0 0 0 0 0 0 0 0 0 0 0 0 0 0 0 0 0 0 0 0 0 0 0 0 0 0 0 0 str
S 639 1 3 1 0 6 1 637 5027 14 3000 A 0 0 0 0 0 0 0 0 0 0 0 0 0 0 0 0 0 0 0 0 0 0 0 0 0 0 0 0 nf
S 640 1 3 1 0 28 1 637 5030 14 43000 A 0 0 0 0 0 0 0 0 0 0 0 0 0 0 0 0 0 0 0 0 0 0 0 0 0 0 0 0 var
S 641 14 5 0 0 0 1 637 5009 10 400000 A 0 0 0 0 0 0 0 22 3 0 0 0 0 0 0 0 0 0 0 0 0 180 0 582 0 0 0 0 field_compare
F 641 3 638 639 640
S 642 23 5 0 0 0 646 582 5034 10 0 A 0 0 0 0 0 0 0 0 0 0 0 0 0 0 0 0 0 0 0 0 0 0 0 0 0 0 0 0 con_cam
S 643 1 3 0 0 6 1 642 4971 14 3000 A 0 0 0 0 0 0 0 0 0 0 0 0 0 0 0 0 0 0 0 0 0 0 0 0 0 0 0 0 num
S 644 1 3 0 0 28 1 642 4975 14 43000 A 0 0 0 0 0 0 0 0 0 0 0 0 0 0 0 0 0 0 0 0 0 0 0 0 0 0 0 0 line
S 645 1 3 0 0 20 1 642 4980 80000014 3000 A 0 0 0 0 0 0 0 0 0 0 0 0 0 0 0 0 0 0 0 0 0 0 0 0 0 0 0 0 car
S 646 14 5 0 0 0 1 642 5034 10 400000 A 0 0 0 0 0 0 0 26 3 0 0 0 0 0 0 0 0 0 0 0 0 202 0 582 0 0 0 0 con_cam
F 646 3 643 644 645
S 647 23 5 0 0 0 653 582 4921 0 0 A 0 0 0 0 0 0 0 0 0 0 0 0 0 0 0 0 0 0 0 0 0 0 0 0 0 0 0 0 version_parse
S 648 1 3 1 0 28 1 647 5023 14 43000 A 0 0 0 0 0 0 0 0 0 0 0 0 0 0 0 0 0 0 0 0 0 0 0 0 0 0 0 0 str
S 649 1 3 2 0 6 1 647 5042 14 3000 A 0 0 0 0 0 0 0 0 0 0 0 0 0 0 0 0 0 0 0 0 0 0 0 0 0 0 0 0 major
S 650 1 3 2 0 6 1 647 5048 14 3000 A 0 0 0 0 0 0 0 0 0 0 0 0 0 0 0 0 0 0 0 0 0 0 0 0 0 0 0 0 minor
S 651 1 3 2 0 6 1 647 5054 14 3000 A 0 0 0 0 0 0 0 0 0 0 0 0 0 0 0 0 0 0 0 0 0 0 0 0 0 0 0 0 patch
S 652 1 3 2 0 6 1 647 5060 14 3000 A 0 0 0 0 0 0 0 0 0 0 0 0 0 0 0 0 0 0 0 0 0 0 0 0 0 0 0 0 ierr
S 653 14 5 0 0 0 1 647 4921 0 400000 A 0 0 0 0 0 0 0 30 5 0 0 0 0 0 0 0 0 0 0 0 0 238 0 582 0 0 0 0 version_parse
F 653 5 648 649 650 651 652
S 654 23 5 0 0 9 657 582 4935 0 0 A 0 0 0 0 0 0 0 0 0 0 0 0 0 0 0 0 0 0 0 0 0 0 0 0 0 0 0 0 version_compare
S 655 1 3 0 0 28 1 654 5065 14 43000 A 0 0 0 0 0 0 0 0 0 0 0 0 0 0 0 0 0 0 0 0 0 0 0 0 0 0 0 0 str1
S 656 1 3 0 0 28 1 654 5070 14 43000 A 0 0 0 0 0 0 0 0 0 0 0 0 0 0 0 0 0 0 0 0 0 0 0 0 0 0 0 0 str2
S 657 14 5 0 0 56 1 654 4935 4 400000 A 0 0 0 0 0 0 0 36 2 0 0 658 0 0 0 0 0 0 0 0 0 300 0 582 0 0 0 0 version_compare
F 657 2 655 656
S 658 1 3 0 0 56 1 654 4935 14 1003000 A 0 0 0 0 0 0 0 0 0 0 0 0 0 0 0 0 0 0 0 0 0 0 0 0 0 0 0 0 version_compare
S 659 3 0 0 0 6 1 1 0 0 0 A 0 0 0 0 0 0 0 0 0 10 0 0 0 0 0 0 0 0 0 0 0 0 0 0 0 0 0 0 6
A 19 2 0 0 0 6 659 0 0 0 19 0 0 0 0 0 0 0 0 0
Z
Z
