V26 path_io_routines
20 path_io_routines.F90 S582 0
04/24/2012  15:51:37
use mp private
use io_global private
use constants private
use kinds private
use mp private
use io_global private
use constants private
use kinds private
enduse
S 582 24 0 0 0 9 1 0 4658 10015 0 A 0 0 0 0 0 0 0 0 0 0 0 0 0 0 0 0 0 0 0 0 0 27 0 0 0 0 0 0 path_io_routines
S 584 23 0 0 0 9 598 582 4681 14 0 A 0 0 0 0 0 0 0 0 0 0 0 0 0 0 0 0 0 0 0 0 0 0 0 582 0 0 0 0 dp
S 586 23 0 0 0 9 648 582 4694 14 0 A 0 0 0 0 0 0 0 0 0 0 0 0 0 0 0 0 0 0 0 0 0 0 0 582 0 0 0 0 pi
S 587 23 0 0 0 9 666 582 4697 14 0 A 0 0 0 0 0 0 0 0 0 0 0 0 0 0 0 0 0 0 0 0 0 0 0 582 0 0 0 0 autoev
S 588 23 0 0 0 9 693 582 4704 14 0 A 0 0 0 0 0 0 0 0 0 0 0 0 0 0 0 0 0 0 0 0 0 0 0 582 0 0 0 0 bohr_radius_angs
S 589 23 0 0 0 9 676 582 4721 14 0 A 0 0 0 0 0 0 0 0 0 0 0 0 0 0 0 0 0 0 0 0 0 0 0 582 0 0 0 0 ev_to_kelvin
S 591 23 0 0 0 6 704 582 4744 14 0 A 0 0 0 0 0 0 0 0 0 0 0 0 0 0 0 0 0 0 0 0 0 0 0 582 0 0 0 0 meta_ionode
S 592 23 0 0 0 6 705 582 4756 14 0 A 0 0 0 0 0 0 0 0 0 0 0 0 0 0 0 0 0 0 0 0 0 0 0 582 0 0 0 0 meta_ionode_id
S 594 19 0 0 0 6 1 582 4774 14 0 A 0 0 0 0 0 0 0 0 0 0 0 0 0 0 0 0 145 20 0 0 0 0 0 582 0 0 0 0 mp_bcast
O 594 20 1487 1472 1425 1407 1519 1510 1392 1351 1339 1460 1380 1505 1451 1371 1330 1536 1531 1446 1366 1325
R 598 16 1 kinds dp
R 648 16 2 constants pi
R 666 16 20 constants autoev
R 676 16 30 constants ev_to_kelvin
R 693 16 47 constants bohr_radius_angs
R 704 6 7 io_global meta_ionode
R 705 6 8 io_global meta_ionode_id
R 1325 14 162 mp mp_bcast_i1
R 1330 14 167 mp mp_bcast_iv
R 1339 14 176 mp mp_bcast_im
R 1351 14 188 mp mp_bcast_it
R 1366 14 203 mp mp_bcast_r1
R 1371 14 208 mp mp_bcast_rv
R 1380 14 217 mp mp_bcast_rm
R 1392 14 229 mp mp_bcast_rt
R 1407 14 244 mp mp_bcast_r4d
R 1425 14 262 mp mp_bcast_r5d
R 1446 14 283 mp mp_bcast_c1
R 1451 14 288 mp mp_bcast_cv
R 1460 14 297 mp mp_bcast_cm
R 1472 14 309 mp mp_bcast_ct
R 1487 14 324 mp mp_bcast_c4d
R 1505 14 342 mp mp_bcast_l
R 1510 14 347 mp mp_bcast_lv
R 1519 14 356 mp mp_bcast_lm
R 1531 14 368 mp mp_bcast_z
R 1536 14 373 mp mp_bcast_zv
S 2140 27 0 0 0 6 2150 582 12096 0 0 A 0 0 0 0 0 0 0 0 0 0 0 0 0 0 0 0 0 0 0 0 0 0 0 582 0 0 0 0 io_path_start
S 2141 27 0 0 0 6 2152 582 12110 0 0 A 0 0 0 0 0 0 0 0 0 0 0 0 0 0 0 0 0 0 0 0 0 0 0 582 0 0 0 0 io_path_stop
S 2142 27 0 0 0 9 2154 582 12123 0 0 A 0 0 0 0 0 0 0 0 0 0 0 0 0 0 0 0 0 0 0 0 0 0 0 582 0 0 0 0 path_summary
S 2143 27 0 0 0 9 2156 582 12136 0 0 A 0 0 0 0 0 0 0 0 0 0 0 0 0 0 0 0 0 0 0 0 0 0 0 582 0 0 0 0 read_restart
S 2144 27 0 0 0 9 2158 582 12149 0 0 A 0 0 0 0 0 0 0 0 0 0 0 0 0 0 0 0 0 0 0 0 0 0 0 582 0 0 0 0 write_restart
S 2145 27 0 0 0 9 2160 582 12163 0 0 A 0 0 0 0 0 0 0 0 0 0 0 0 0 0 0 0 0 0 0 0 0 0 0 582 0 0 0 0 write_dat_files
S 2146 27 0 0 0 9 2162 582 12179 0 0 A 0 0 0 0 0 0 0 0 0 0 0 0 0 0 0 0 0 0 0 0 0 0 0 582 0 0 0 0 write_output
S 2147 27 0 0 0 6 2164 582 12192 0 0 A 0 0 0 0 0 0 0 0 0 0 0 0 0 0 0 0 0 0 0 0 0 0 0 582 0 0 0 0 new_image_init
S 2148 27 0 0 0 9 2168 582 12207 0 0 A 0 0 0 0 0 0 0 0 0 0 0 0 0 0 0 0 0 0 0 0 0 0 0 582 0 0 0 0 get_new_image
S 2149 27 0 0 0 9 2172 582 12221 0 0 A 0 0 0 0 0 0 0 0 0 0 0 0 0 0 0 0 0 0 0 0 0 0 0 582 0 0 0 0 stop_other_images
S 2150 23 5 0 0 0 2151 582 12096 0 0 A 0 0 0 0 0 0 0 0 0 0 0 0 0 0 0 0 0 0 0 0 0 0 0 0 0 0 0 0 io_path_start
S 2151 14 5 0 0 0 1 2150 12096 0 400000 A 0 0 0 0 0 0 0 324 0 0 0 0 0 0 0 0 0 0 0 0 0 55 0 582 0 0 0 0 io_path_start
F 2151 0
S 2152 23 5 0 0 0 2153 582 12110 0 0 A 0 0 0 0 0 0 0 0 0 0 0 0 0 0 0 0 0 0 0 0 0 0 0 0 0 0 0 0 io_path_stop
S 2153 14 5 0 0 0 1 2152 12110 0 400000 A 0 0 0 0 0 0 0 325 0 0 0 0 0 0 0 0 0 0 0 0 0 92 0 582 0 0 0 0 io_path_stop
F 2153 0
S 2154 23 5 0 0 0 2155 582 12123 0 0 A 0 0 0 0 0 0 0 0 0 0 0 0 0 0 0 0 0 0 0 0 0 0 0 0 0 0 0 0 path_summary
S 2155 14 5 0 0 0 1 2154 12123 0 400000 A 0 0 0 0 0 0 0 326 0 0 0 0 0 0 0 0 0 0 0 0 0 114 0 582 0 0 0 0 path_summary
F 2155 0
S 2156 23 5 0 0 0 2157 582 12136 0 0 A 0 0 0 0 0 0 0 0 0 0 0 0 0 0 0 0 0 0 0 0 0 0 0 0 0 0 0 0 read_restart
S 2157 14 5 0 0 0 1 2156 12136 0 400000 A 0 0 0 0 0 0 0 327 0 0 0 0 0 0 0 0 0 0 0 0 0 219 0 582 0 0 0 0 read_restart
F 2157 0
S 2158 23 5 0 0 0 2159 582 12149 0 0 A 0 0 0 0 0 0 0 0 0 0 0 0 0 0 0 0 0 0 0 0 0 0 0 0 0 0 0 0 write_restart
S 2159 14 5 0 0 0 1 2158 12149 0 400000 A 0 0 0 0 0 0 0 328 0 0 0 0 0 0 0 0 0 0 0 0 0 475 0 582 0 0 0 0 write_restart
F 2159 0
S 2160 23 5 0 0 0 2161 582 12163 0 0 A 0 0 0 0 0 0 0 0 0 0 0 0 0 0 0 0 0 0 0 0 0 0 0 0 0 0 0 0 write_dat_files
S 2161 14 5 0 0 0 1 2160 12163 0 400000 A 0 0 0 0 0 0 0 329 0 0 0 0 0 0 0 0 0 0 0 0 0 666 0 582 0 0 0 0 write_dat_files
F 2161 0
S 2162 23 5 0 0 0 2163 582 12179 0 0 A 0 0 0 0 0 0 0 0 0 0 0 0 0 0 0 0 0 0 0 0 0 0 0 0 0 0 0 0 write_output
S 2163 14 5 0 0 0 1 2162 12179 0 400000 A 0 0 0 0 0 0 0 330 0 0 0 0 0 0 0 0 0 0 0 0 0 837 0 582 0 0 0 0 write_output
F 2163 0
S 2164 23 5 0 0 0 2167 582 12192 0 0 A 0 0 0 0 0 0 0 0 0 0 0 0 0 0 0 0 0 0 0 0 0 0 0 0 0 0 0 0 new_image_init
S 2165 1 3 1 0 6 1 2164 12239 14 3000 A 0 0 0 0 0 0 0 0 0 0 0 0 0 0 0 0 0 0 0 0 0 0 0 0 0 0 0 0 fii
S 2166 1 3 1 0 28 1 2164 12243 14 43000 A 0 0 0 0 0 0 0 0 0 0 0 0 0 0 0 0 0 0 0 0 0 0 0 0 0 0 0 0 outdir
S 2167 14 5 0 0 0 1 2164 12192 0 400000 A 0 0 0 0 0 0 0 331 2 0 0 0 0 0 0 0 0 0 0 0 0 894 0 582 0 0 0 0 new_image_init
F 2167 2 2165 2166
S 2168 23 5 0 0 0 2171 582 12207 0 0 A 0 0 0 0 0 0 0 0 0 0 0 0 0 0 0 0 0 0 0 0 0 0 0 0 0 0 0 0 get_new_image
S 2169 1 3 3 0 6 1 2168 12250 14 3000 A 0 0 0 0 0 0 0 0 0 0 0 0 0 0 0 0 0 0 0 0 0 0 0 0 0 0 0 0 image
S 2170 1 3 1 0 28 1 2168 12243 14 43000 A 0 0 0 0 0 0 0 0 0 0 0 0 0 0 0 0 0 0 0 0 0 0 0 0 0 0 0 0 outdir
S 2171 14 5 0 0 0 1 2168 12207 0 400000 A 0 0 0 0 0 0 0 334 2 0 0 0 0 0 0 0 0 0 0 0 0 924 0 582 0 0 0 0 get_new_image
F 2171 2 2169 2170
S 2172 23 5 0 0 0 2173 582 12221 0 0 A 0 0 0 0 0 0 0 0 0 0 0 0 0 0 0 0 0 0 0 0 0 0 0 0 0 0 0 0 stop_other_images
S 2173 14 5 0 0 0 1 2172 12221 0 400000 A 0 0 0 0 0 0 0 337 0 0 0 0 0 0 0 0 0 0 0 0 0 1004 0 582 0 0 0 0 stop_other_images
F 2173 0
Z
Z
