V26 path_formats
16 path_formats.F90 S582 0
04/24/2012  15:51:01
enduse
D 56 18 12
D 58 18 15
D 60 18 18
D 62 18 21
D 64 18 24
D 66 18 31
D 68 18 36
D 74 18 43
D 78 18 48
D 80 18 51
D 82 18 54
D 84 18 57
D 86 18 60
S 582 24 0 0 0 9 1 0 4658 5 0 A 0 0 0 0 0 0 0 0 0 0 0 0 54 0 0 0 0 0 0 0 0 11 0 0 0 0 0 0 path_formats
S 583 16 0 0 0 56 586 582 4671 800004 440000 A 0 0 0 0 0 0 0 0 585 13 0 0 0 0 0 0 0 0 0 0 0 0 0 582 0 0 0 0 lattice_vectors
S 584 3 0 0 0 6 0 1 0 0 0 A 0 0 0 0 0 0 0 0 0 44 0 0 0 0 0 0 0 0 0 0 0 0 0 0 0 0 0 0 6
S 585 3 0 0 0 56 0 1 0 0 0 A 0 0 0 0 0 0 0 0 4687 0 0 0 0 0 0 0 0 0 0 0 0 0 0 0 0 0 0 0 18 44 28 33 28 32 58 2c 46 31 34 2e 31 30 29 2c 2f 2c 33 28 32 58 2c 46 31 34 2e 31 30 29 2c 2f 2c 33 28 32 58 2c 46 31 34 2e 31 30 29 29
S 586 16 0 0 0 58 589 582 4732 4 440000 A 0 0 0 0 0 0 0 0 588 16 0 0 0 0 0 0 0 0 0 0 0 0 0 582 0 0 0 0 restart_first
S 587 3 0 0 0 6 0 1 0 0 0 A 0 0 0 0 0 0 0 0 0 36 0 0 0 0 0 0 0 0 0 0 0 0 0 0 0 0 0 0 6
S 588 3 0 0 0 58 0 1 0 0 0 A 0 0 0 0 0 0 0 0 4746 0 0 0 0 0 0 0 0 0 0 0 0 0 0 0 0 0 0 0 18 36 28 33 28 32 58 2c 46 31 38 2e 31 32 29 2c 33 28 32 58 2c 46 31 38 2e 31 32 29 2c 33 28 32 58 2c 49 31 29 29
S 589 16 0 0 0 60 592 582 4783 800004 440000 A 0 0 0 0 0 0 0 0 591 19 0 0 0 0 0 0 0 0 0 0 0 0 0 582 0 0 0 0 restart_others
S 590 3 0 0 0 6 0 1 0 0 0 A 0 0 0 0 0 0 0 0 0 27 0 0 0 0 0 0 0 0 0 0 0 0 0 0 0 0 0 0 6
S 591 3 0 0 0 60 0 1 0 0 0 A 0 0 0 0 0 0 0 0 4798 0 0 0 0 0 0 0 0 0 0 0 0 0 0 0 0 0 0 0 18 27 28 33 28 32 58 2c 46 31 38 2e 31 32 29 2c 33 28 32 58 2c 46 31 38 2e 31 32 29 29
S 592 16 0 0 0 62 595 582 4826 4 440000 A 0 0 0 0 0 0 0 0 594 22 0 0 0 0 0 0 0 0 0 0 0 0 0 582 0 0 0 0 quick_min
S 593 3 0 0 0 6 0 1 0 0 0 A 0 0 0 0 0 0 0 0 0 14 0 0 0 0 0 0 0 0 0 0 0 0 0 0 0 0 0 0 6
S 594 3 0 0 0 62 0 1 0 0 0 A 0 0 0 0 0 0 0 0 4836 0 0 0 0 0 0 0 0 0 0 0 0 0 0 0 0 0 0 0 18 14 28 39 28 32 58 2c 46 31 38 2e 31 32 29 29
S 595 16 0 0 0 64 598 582 4851 800004 440000 A 0 0 0 0 0 0 0 0 597 25 0 0 0 0 0 0 0 0 0 0 0 0 0 582 0 0 0 0 energy
S 596 3 0 0 0 6 0 1 0 0 0 A 0 0 0 0 0 0 0 0 0 11 0 0 0 0 0 0 0 0 0 0 0 0 0 0 0 0 0 0 6
S 597 3 0 0 0 64 0 1 0 0 0 A 0 0 0 0 0 0 0 0 4858 0 0 0 0 0 0 0 0 0 0 0 0 0 0 0 0 0 0 0 18 11 28 32 58 2c 46 31 38 2e 31 30 29
S 598 16 0 0 0 62 600 582 4870 4 440000 A 0 0 0 0 0 0 0 0 599 27 0 0 0 0 0 0 0 0 0 0 0 0 0 582 0 0 0 0 dat_fmt
S 599 3 0 0 0 62 0 1 0 0 0 A 0 0 0 0 0 0 0 0 4878 0 0 0 0 0 0 0 0 0 0 0 0 0 0 0 0 0 0 0 18 14 28 33 28 32 58 2c 46 31 36 2e 31 30 29 29
S 600 16 0 0 0 62 602 582 4893 4 440000 A 0 0 0 0 0 0 0 0 601 29 0 0 0 0 0 0 0 0 0 0 0 0 0 582 0 0 0 0 int_fmt
S 601 3 0 0 0 62 0 1 0 0 0 A 0 0 0 0 0 0 0 0 4901 0 0 0 0 0 0 0 0 0 0 0 0 0 0 0 0 0 0 0 18 14 28 32 28 32 58 2c 46 31 36 2e 31 30 29 29
S 602 16 0 0 0 66 605 582 4916 4 440000 A 0 0 0 0 0 0 0 0 604 32 0 0 0 0 0 0 0 0 0 0 0 0 0 582 0 0 0 0 xyz_fmt
S 603 3 0 0 0 6 0 1 0 0 0 A 0 0 0 0 0 0 0 0 0 17 0 0 0 0 0 0 0 0 0 0 0 0 0 0 0 0 0 0 6
S 604 3 0 0 0 66 0 1 0 0 0 A 0 0 0 0 0 0 0 0 4924 0 0 0 0 0 0 0 0 0 0 0 0 0 0 0 0 0 0 0 18 17 28 41 32 2c 33 28 32 58 2c 46 31 34 2e 31 30 29 29
S 605 16 0 0 0 66 607 582 4942 800004 440000 A 0 0 0 0 0 0 0 0 606 34 0 0 0 0 0 0 0 0 0 0 0 0 0 582 0 0 0 0 axsf_fmt
S 606 3 0 0 0 66 0 1 0 0 0 A 0 0 0 0 0 0 0 0 4951 0 0 0 0 0 0 0 0 0 0 0 0 0 0 0 0 0 0 0 18 17 28 41 32 2c 36 28 32 58 2c 46 31 34 2e 31 30 29 29
S 607 16 0 0 0 68 610 582 4969 4 440000 A 0 0 0 0 0 0 0 0 609 37 0 0 0 0 0 0 0 0 0 0 0 0 0 582 0 0 0 0 scf_iter_fmt
S 608 3 0 0 0 6 0 1 0 0 0 A 0 0 0 0 0 0 0 0 0 48 0 0 0 0 0 0 0 0 0 0 0 0 0 0 0 0 0 0 6
S 609 3 0 0 0 68 0 1 0 0 0 A 0 0 0 0 0 0 0 0 4982 0 0 0 0 0 0 0 0 0 0 0 0 0 0 0 0 0 0 0 18 48 28 2f 2c 35 58 2c 33 30 28 27 2d 27 29 2c 28 31 58 2c 27 69 74 65 72 61 74 69 6f 6e 20 27 2c 49 33 2c 31 58 29 2c 33 30 28 27 2d 27 29 2c 2f 29
S 610 16 0 0 0 74 617 582 5031 4 440000 A 0 0 0 0 0 0 0 0 616 44 0 0 0 0 0 0 0 0 0 0 0 0 0 582 0 0 0 0 scf_fmt
S 615 3 0 0 0 6 0 1 0 0 0 A 0 0 0 0 0 0 0 0 0 57 0 0 0 0 0 0 0 0 0 0 0 0 0 0 0 0 0 0 6
S 616 3 0 0 0 74 0 1 0 0 0 A 0 0 0 0 0 0 0 0 5098 0 0 0 0 0 0 0 0 0 0 0 0 0 0 0 0 0 0 0 18 57 28 35 58 2c 27 74 63 70 75 20 3d 20 27 2c 46 38 2e 31 2c 27 20 20 20 20 73 65 6c 66 2d 63 6f 6e 73 69 73 74 65 6e 63 79 20 66 6f 72 20 69 6d 61 67 65 20 27 2c 20 49 33 29
S 617 16 0 0 0 78 622 582 5156 800004 440000 A 0 0 0 0 0 0 0 0 621 49 0 0 0 0 0 0 0 0 0 0 0 0 0 582 0 0 0 0 scf_fmt_para
S 620 3 0 0 0 6 0 1 0 0 0 A 0 0 0 0 0 0 0 0 0 72 0 0 0 0 0 0 0 0 0 0 0 0 0 0 0 0 0 0 6
S 621 3 0 0 0 78 0 1 0 0 0 A 0 0 0 0 0 0 0 0 5204 0 0 0 0 0 0 0 0 0 0 0 0 0 0 0 0 0 0 0 18 72 28 35 58 2c 27 63 70 75 20 3d 20 27 2c 49 32 2c 27 20 20 20 74 63 70 75 20 3d 20 27 2c 46 38 2e 31 2c 27 20 20 20 20 73 65 6c 66 2d 63 6f 6e 73 69 73 74 65 6e 63 79 20 66 6f 72 20 69 6d 61 67 65 20 27 2c 20 49 33 29
S 622 16 0 0 0 80 625 582 5277 800004 440000 A 0 0 0 0 0 0 0 0 624 52 0 0 0 0 0 0 0 0 0 0 0 0 0 582 0 0 0 0 run_info
S 623 3 0 0 0 6 0 1 0 0 0 A 0 0 0 0 0 0 0 0 0 61 0 0 0 0 0 0 0 0 0 0 0 0 0 0 0 0 0 0 6
S 624 3 0 0 0 80 0 1 0 0 0 A 0 0 0 0 0 0 0 0 5286 0 0 0 0 0 0 0 0 0 0 0 0 0 0 0 0 0 0 0 18 61 28 35 58 2c 27 69 6d 61 67 65 27 2c 38 58 2c 27 65 6e 65 72 67 79 20 28 65 56 29 27 2c 38 58 2c 27 65 72 72 6f 72 20 28 65 56 2f 41 29 27 2c 38 58 2c 27 66 72 6f 7a 65 6e 27 2c 2f 29
S 625 16 0 0 0 82 628 582 5348 800004 440000 A 0 0 0 0 0 0 0 0 627 55 0 0 0 0 0 0 0 0 0 0 0 0 0 582 0 0 0 0 run_output
S 626 3 0 0 0 6 0 1 0 0 0 A 0 0 0 0 0 0 0 0 0 33 0 0 0 0 0 0 0 0 0 0 0 0 0 0 0 0 0 0 6
S 627 3 0 0 0 82 0 1 0 0 0 A 0 0 0 0 0 0 0 0 5359 0 0 0 0 0 0 0 0 0 0 0 0 0 0 0 0 0 0 0 18 33 28 35 58 2c 49 35 2c 34 58 2c 46 31 35 2e 37 2c 31 30 58 2c 46 31 30 2e 36 2c 31 32 58 2c 4c 31 29
S 628 16 0 0 0 84 631 582 5393 800004 440000 A 0 0 0 0 0 0 0 0 630 58 0 0 0 0 0 0 0 0 0 0 0 0 0 582 0 0 0 0 summary_fmt
S 629 3 0 0 0 6 0 1 0 0 0 A 0 0 0 0 0 0 0 0 0 21 0 0 0 0 0 0 0 0 0 0 0 0 0 0 0 0 0 0 6
S 630 3 0 0 0 84 0 1 0 0 0 A 0 0 0 0 0 0 0 0 5405 0 0 0 0 0 0 0 0 0 0 0 0 0 0 0 0 0 0 0 18 21 28 35 58 2c 41 2c 54 33 35 2c 27 20 3d 20 27 2c 31 58 2c 41 29
S 631 16 0 0 0 86 0 582 5427 800004 440000 A 0 0 0 0 0 0 0 0 633 61 0 0 0 0 0 0 0 0 0 0 0 0 0 582 0 0 0 0 final_fmt
S 632 3 0 0 0 6 0 1 0 0 0 A 0 0 0 0 0 0 0 0 0 16 0 0 0 0 0 0 0 0 0 0 0 0 0 0 0 0 0 0 6
S 633 3 0 0 0 86 0 1 0 0 0 A 0 0 0 0 0 0 0 0 5437 0 0 0 0 0 0 0 0 0 0 0 0 0 0 0 0 0 0 0 18 16 28 2f 2c 35 58 2c 37 35 28 27 2d 27 29 2c 2f 29
A 12 2 0 0 0 6 584 0 0 0 12 0 0 0 0 0 0 0 0 0
A 13 2 0 0 0 56 585 0 0 0 13 0 0 0 0 0 0 0 0 0
A 15 2 0 0 0 6 587 0 0 0 15 0 0 0 0 0 0 0 0 0
A 16 2 0 0 0 58 588 0 0 0 16 0 0 0 0 0 0 0 0 0
A 18 2 0 0 0 6 590 0 0 0 18 0 0 0 0 0 0 0 0 0
A 19 2 0 0 0 60 591 0 0 0 19 0 0 0 0 0 0 0 0 0
A 21 2 0 0 0 6 593 0 0 0 21 0 0 0 0 0 0 0 0 0
A 22 2 0 0 0 62 594 0 0 0 22 0 0 0 0 0 0 0 0 0
A 24 2 0 0 0 6 596 0 0 0 24 0 0 0 0 0 0 0 0 0
A 25 2 0 0 0 64 597 0 0 0 25 0 0 0 0 0 0 0 0 0
A 27 2 0 0 0 62 599 0 0 0 27 0 0 0 0 0 0 0 0 0
A 29 2 0 0 0 62 601 0 0 0 29 0 0 0 0 0 0 0 0 0
A 31 2 0 0 0 6 603 0 0 0 31 0 0 0 0 0 0 0 0 0
A 32 2 0 0 0 66 604 0 0 0 32 0 0 0 0 0 0 0 0 0
A 34 2 0 0 0 66 606 0 0 0 34 0 0 0 0 0 0 0 0 0
A 36 2 0 0 0 6 608 0 0 0 36 0 0 0 0 0 0 0 0 0
A 37 2 0 0 0 68 609 0 0 0 37 0 0 0 0 0 0 0 0 0
A 43 2 0 0 0 6 615 0 0 0 43 0 0 0 0 0 0 0 0 0
A 44 2 0 0 0 74 616 0 0 0 44 0 0 0 0 0 0 0 0 0
A 48 2 0 0 0 6 620 0 0 0 48 0 0 0 0 0 0 0 0 0
A 49 2 0 0 0 78 621 0 0 0 49 0 0 0 0 0 0 0 0 0
A 51 2 0 0 0 6 623 0 0 0 51 0 0 0 0 0 0 0 0 0
A 52 2 0 0 0 80 624 0 0 0 52 0 0 0 0 0 0 0 0 0
A 54 2 0 0 0 6 626 0 0 0 54 0 0 0 0 0 0 0 0 0
A 55 2 0 0 0 82 627 0 0 0 55 0 0 0 0 0 0 0 0 0
A 57 2 0 0 0 6 629 0 0 0 57 0 0 0 0 0 0 0 0 0
A 58 2 0 0 0 84 630 0 0 0 58 0 0 0 0 0 0 0 0 0
A 60 2 0 0 0 6 632 0 0 0 60 0 0 0 0 0 0 0 0 0
A 61 2 0 0 0 86 633 0 0 0 61 0 0 0 0 0 0 0 0 0
Z
Z
