V26 path_base
13 path_base.F90 S582 0
04/24/2012  15:52:00
use path_variables private
use mp private
use io_global private
use io_files private
use constants private
use kinds private
use path_variables private
use mp private
use io_global private
use io_files private
use constants private
use kinds private
enduse
D 447 21 9 1 3 1199 0 0 1 0 0
 0 1198 3 3 1199 1199
D 450 21 9 2 1200 1204 0 0 1 0 0
 0 1198 3 3 1201 1201
 0 1202 1201 3 1203 1203
S 582 24 0 0 0 9 1 0 4658 10015 0 A 0 0 0 0 0 0 0 0 0 0 0 0 0 0 0 0 0 0 0 0 0 27 0 0 0 0 0 0 path_base
S 584 23 0 0 0 9 601 582 4674 14 0 A 0 0 0 0 0 0 0 0 0 0 0 0 0 0 0 0 0 0 0 0 0 0 0 582 0 0 0 0 dp
S 586 23 0 0 0 9 689 582 4687 14 0 A 0 0 0 0 0 0 0 0 0 0 0 0 0 0 0 0 0 0 0 0 0 0 0 582 0 0 0 0 eps32
S 587 23 0 0 0 9 651 582 4693 14 0 A 0 0 0 0 0 0 0 0 0 0 0 0 0 0 0 0 0 0 0 0 0 0 0 582 0 0 0 0 pi
S 588 23 0 0 0 9 669 582 4696 14 0 A 0 0 0 0 0 0 0 0 0 0 0 0 0 0 0 0 0 0 0 0 0 0 0 582 0 0 0 0 autoev
S 589 23 0 0 0 9 696 582 4703 14 0 A 0 0 0 0 0 0 0 0 0 0 0 0 0 0 0 0 0 0 0 0 0 0 0 582 0 0 0 0 bohr_radius_angs
S 590 23 0 0 0 9 679 582 4720 14 0 A 0 0 0 0 0 0 0 0 0 0 0 0 0 0 0 0 0 0 0 0 0 0 0 582 0 0 0 0 ev_to_kelvin
S 592 23 0 0 0 6 815 582 4742 14 0 A 0 0 0 0 0 0 0 0 0 0 0 0 0 0 0 0 0 0 0 0 0 0 0 582 0 0 0 0 iunpath
S 594 23 0 0 0 6 848 582 4760 14 0 A 0 0 0 0 0 0 0 0 0 0 0 0 0 0 0 0 0 0 0 0 0 0 0 582 0 0 0 0 meta_ionode
S 595 23 0 0 0 6 849 582 4772 14 0 A 0 0 0 0 0 0 0 0 0 0 0 0 0 0 0 0 0 0 0 0 0 0 0 582 0 0 0 0 meta_ionode_id
S 597 19 0 0 0 6 1 582 4790 14 0 A 0 0 0 0 0 0 0 0 0 0 0 0 0 0 0 0 147 20 0 0 0 0 0 582 0 0 0 0 mp_bcast
O 597 20 1617 1602 1555 1537 1649 1640 1522 1481 1469 1590 1510 1635 1581 1501 1460 1666 1661 1576 1496 1455
R 601 16 1 kinds dp
R 651 16 2 constants pi
R 669 16 20 constants autoev
R 679 16 30 constants ev_to_kelvin
R 689 16 40 constants eps32
R 696 16 47 constants bohr_radius_angs
R 815 6 72 io_files iunpath
R 848 6 7 io_global meta_ionode
R 849 6 8 io_global meta_ionode_id
R 1455 14 162 mp mp_bcast_i1
R 1460 14 167 mp mp_bcast_iv
R 1469 14 176 mp mp_bcast_im
R 1481 14 188 mp mp_bcast_it
R 1496 14 203 mp mp_bcast_r1
R 1501 14 208 mp mp_bcast_rv
R 1510 14 217 mp mp_bcast_rm
R 1522 14 229 mp mp_bcast_rt
R 1537 14 244 mp mp_bcast_r4d
R 1555 14 262 mp mp_bcast_r5d
R 1576 14 283 mp mp_bcast_c1
R 1581 14 288 mp mp_bcast_cv
R 1590 14 297 mp mp_bcast_cm
R 1602 14 309 mp mp_bcast_ct
R 1617 14 324 mp mp_bcast_c4d
R 1635 14 342 mp mp_bcast_l
R 1640 14 347 mp mp_bcast_lv
R 1649 14 356 mp mp_bcast_lm
R 1661 14 368 mp mp_bcast_z
R 1666 14 373 mp mp_bcast_zv
S 2270 6 4 0 0 6 1 582 13215 0 1000 A 0 0 0 0 0 0 0 0 0 0 0 0 2272 0 0 0 0 0 0 0 0 0 0 582 0 0 0 0 initialize_path
S 2271 6 4 0 0 9 1 582 13231 0 1000 A 0 0 0 0 0 0 0 0 0 0 0 0 2273 0 0 0 0 0 0 0 0 0 0 582 0 0 0 0 search_mep
S 2272 11 0 0 0 9 1393 582 13242 40800000 801000 A 0 0 0 0 0 4 0 0 2270 2270 0 0 0 0 0 0 0 0 0 0 0 0 0 0 0 0 0 0 _path_base$0
S 2273 11 0 0 0 9 2272 582 13255 40800000 801000 A 0 0 0 0 0 8 0 0 2271 2271 0 0 0 0 0 0 0 0 0 0 0 0 0 0 0 0 0 0 _path_base$2
S 2274 23 5 0 0 0 2275 582 13215 0 0 A 0 0 0 0 0 0 0 0 0 0 0 0 0 0 0 0 0 0 0 0 0 0 0 0 0 0 0 0 initialize_path
S 2275 14 5 0 0 0 1 2274 13215 0 400000 A 0 0 0 0 0 0 0 330 0 0 0 0 0 0 0 0 0 0 0 0 0 75 0 582 0 0 0 0 initialize_path
F 2275 0
S 2276 23 5 0 0 0 2277 582 13268 10 0 A 0 0 0 0 0 0 0 0 0 0 0 0 0 0 0 0 0 0 0 0 0 0 0 0 0 0 0 0 initial_guess
S 2277 14 5 0 0 0 1 2276 13268 10 400000 A 0 0 0 0 0 0 0 331 0 0 0 0 0 0 0 0 0 0 0 0 0 291 0 582 0 0 0 0 initial_guess
F 2277 0
R 2286 6 8 path_variables dim1
R 2287 6 9 path_variables num_of_images
S 2400 23 5 0 0 9 2403 582 14302 10 0 A 0 0 0 0 0 0 0 0 0 0 0 0 0 0 0 0 0 0 0 0 0 0 0 0 0 0 0 0 real_space_tangent
S 2401 1 3 1 0 6 1 2400 14321 14 3000 A 0 0 0 0 0 0 0 0 0 0 0 0 0 0 0 0 0 0 0 0 0 0 0 0 0 0 0 0 i
S 2402 7 3 0 0 447 1 2400 14323 800214 1003000 A 0 0 0 0 0 0 0 0 0 0 0 0 0 0 0 0 0 0 0 0 0 0 0 0 0 0 0 0 rtan
S 2403 14 5 0 0 447 1 2400 14302 214 1400000 A 0 0 0 0 0 0 0 334 1 0 0 2402 0 0 0 0 0 0 0 0 0 387 0 582 0 0 0 0 real_space_tangent
F 2403 1 2401
S 2404 6 1 0 0 6 1 2400 14328 40800016 3000 A 0 0 0 0 0 0 0 0 0 0 0 0 0 0 0 0 0 0 0 0 0 0 0 0 0 0 0 0 z_e_1198
S 2405 23 5 0 0 0 2406 582 14337 10 0 A 0 0 0 0 0 0 0 0 0 0 0 0 0 0 0 0 0 0 0 0 0 0 0 0 0 0 0 0 elastic_constants
S 2406 14 5 0 0 0 1 2405 14337 10 400000 A 0 0 0 0 0 0 0 336 0 0 0 0 0 0 0 0 0 0 0 0 0 463 0 582 0 0 0 0 elastic_constants
F 2406 0
S 2407 23 5 0 0 0 2408 582 14355 10 0 A 0 0 0 0 0 0 0 0 0 0 0 0 0 0 0 0 0 0 0 0 0 0 0 0 0 0 0 0 neb_gradient
S 2408 14 5 0 0 0 1 2407 14355 10 400000 A 0 0 0 0 0 0 0 337 0 0 0 0 0 0 0 0 0 0 0 0 0 503 0 582 0 0 0 0 neb_gradient
F 2408 0
S 2409 23 5 0 0 0 2410 582 14368 10 0 A 0 0 0 0 0 0 0 0 0 0 0 0 0 0 0 0 0 0 0 0 0 0 0 0 0 0 0 0 smd_gradient
S 2410 14 5 0 0 0 1 2409 14368 10 400000 A 0 0 0 0 0 0 0 338 0 0 0 0 0 0 0 0 0 0 0 0 0 560 0 582 0 0 0 0 smd_gradient
F 2410 0
S 2411 23 5 0 0 6 2413 582 14381 10 0 A 0 0 0 0 0 0 0 0 0 0 0 0 0 0 0 0 0 0 0 0 0 0 0 0 0 0 0 0 new_tangent
S 2412 7 3 0 0 450 1 2411 14393 800214 1003000 A 0 0 0 0 0 0 0 0 0 0 0 0 0 0 0 0 0 0 0 0 0 0 0 0 0 0 0 0 ntan
S 2413 14 5 0 0 450 1 2411 14381 214 1400000 A 0 0 0 0 0 0 0 339 0 0 0 2412 0 0 0 0 0 0 0 0 0 631 0 582 0 0 0 0 new_tangent
F 2413 0
S 2414 6 1 0 0 6 1 2411 14328 40800016 3000 A 0 0 0 0 0 0 0 0 0 0 0 0 0 0 0 0 0 0 0 0 0 0 0 0 0 0 0 0 z_e_1198
S 2415 6 1 0 0 6 1 2411 14398 40800016 3000 A 0 0 0 0 0 0 0 0 0 0 0 0 0 0 0 0 0 0 0 0 0 0 0 0 0 0 0 0 z_e_1200
S 2416 6 1 0 0 6 1 2411 14407 40800016 3000 A 0 0 0 0 0 0 0 0 0 0 0 0 0 0 0 0 0 0 0 0 0 0 0 0 0 0 0 0 z_e_1203
S 2417 6 1 0 0 6 1 2411 14416 40800016 3000 A 0 0 0 0 0 0 0 0 0 0 0 0 0 0 0 0 0 0 0 0 0 0 0 0 0 0 0 0 z_e_1205
S 2418 23 5 0 0 0 2420 582 14425 10 0 A 0 0 0 0 0 0 0 0 0 0 0 0 0 0 0 0 0 0 0 0 0 0 0 0 0 0 0 0 compute_error
S 2419 1 3 2 0 9 1 2418 14439 80000014 3000 A 0 0 0 0 0 0 0 0 0 0 0 0 0 0 0 0 0 0 0 0 0 0 0 0 0 0 0 0 err_out
S 2420 14 5 0 0 0 1 2418 14425 10 400000 A 0 0 0 0 0 0 0 340 1 0 0 0 0 0 0 0 0 0 0 0 0 660 0 582 0 0 0 0 compute_error
F 2420 1 2419
S 2421 23 5 0 0 0 2423 582 14447 10 0 A 0 0 0 0 0 0 0 0 0 0 0 0 0 0 0 0 0 0 0 0 0 0 0 0 0 0 0 0 born_oppenheimer_pes
S 2422 1 3 2 0 16 1 2421 14468 14 3000 A 0 0 0 0 0 0 0 0 0 0 0 0 0 0 0 0 0 0 0 0 0 0 0 0 0 0 0 0 stat
S 2423 14 5 0 0 0 1 2421 14447 10 400000 A 0 0 0 0 0 0 0 342 1 0 0 0 0 0 0 0 0 0 0 0 0 775 0 582 0 0 0 0 born_oppenheimer_pes
F 2423 1 2422
S 2424 23 5 0 0 0 2426 582 14473 10 0 A 0 0 0 0 0 0 0 0 0 0 0 0 0 0 0 0 0 0 0 0 0 0 0 0 0 0 0 0 born_oppenheimer_fes
S 2425 1 3 2 0 16 1 2424 14468 14 3000 A 0 0 0 0 0 0 0 0 0 0 0 0 0 0 0 0 0 0 0 0 0 0 0 0 0 0 0 0 stat
S 2426 14 5 0 0 0 1 2424 14473 10 400000 A 0 0 0 0 0 0 0 344 1 0 0 0 0 0 0 0 0 0 0 0 0 816 0 582 0 0 0 0 born_oppenheimer_fes
F 2426 1 2425
S 2427 23 5 0 0 0 2428 582 14494 10 0 A 0 0 0 0 0 0 0 0 0 0 0 0 0 0 0 0 0 0 0 0 0 0 0 0 0 0 0 0 fe_profile
S 2428 14 5 0 0 0 1 2427 14494 10 400000 A 0 0 0 0 0 0 0 346 0 0 0 0 0 0 0 0 0 0 0 0 0 850 0 582 0 0 0 0 fe_profile
F 2428 0
S 2429 23 5 0 0 0 2430 582 14505 10 0 A 0 0 0 0 0 0 0 0 0 0 0 0 0 0 0 0 0 0 0 0 0 0 0 0 0 0 0 0 check_domain
S 2430 14 5 0 0 0 1 2429 14505 10 400000 A 0 0 0 0 0 0 0 347 0 0 0 0 0 0 0 0 0 0 0 0 0 880 0 582 0 0 0 0 check_domain
F 2430 0
S 2431 23 5 0 0 0 2432 582 13231 0 0 A 0 0 0 0 0 0 0 0 0 0 0 0 0 0 0 0 0 0 0 0 0 0 0 0 0 0 0 0 search_mep
S 2432 14 5 0 0 0 1 2431 13231 0 400000 A 0 0 0 0 0 0 0 348 0 0 0 0 0 0 0 0 0 0 0 0 0 918 0 582 0 0 0 0 search_mep
F 2432 0
S 2433 23 5 0 0 0 2434 582 14518 10 0 A 0 0 0 0 0 0 0 0 0 0 0 0 0 0 0 0 0 0 0 0 0 0 0 0 0 0 0 0 search_mep_init
S 2434 14 5 0 0 0 1 2433 14518 10 400000 A 0 0 0 0 0 0 0 349 0 0 0 0 0 0 0 0 0 0 0 0 0 1059 0 582 0 0 0 0 search_mep_init
F 2434 0
S 2435 23 5 0 0 9 2437 582 14534 10 0 A 0 0 0 0 0 0 0 0 0 0 0 0 0 0 0 0 0 0 0 0 0 0 0 0 0 0 0 0 check_exit
S 2436 1 3 1 0 9 1 2435 13461 14 3000 A 0 0 0 0 0 0 0 0 0 0 0 0 0 0 0 0 0 0 0 0 0 0 0 0 0 0 0 0 err_max
S 2437 14 5 0 0 16 1 2435 14534 14 400000 A 0 0 0 0 0 0 0 350 1 0 0 2438 0 0 0 0 0 0 0 0 0 1081 0 582 0 0 0 0 check_exit
F 2437 1 2436
S 2438 1 3 0 0 16 1 2435 14534 14 1003000 A 0 0 0 0 0 0 0 0 0 0 0 0 0 0 0 0 0 0 0 0 0 0 0 0 0 0 0 0 check_exit
S 2439 23 5 0 0 0 2440 582 14545 10 0 A 0 0 0 0 0 0 0 0 0 0 0 0 0 0 0 0 0 0 0 0 0 0 0 0 0 0 0 0 optimisation_step
S 2440 14 5 0 0 0 1 2439 14545 10 400000 A 0 0 0 0 0 0 0 352 0 0 0 0 0 0 0 0 0 0 0 0 0 1165 0 582 0 0 0 0 optimisation_step
F 2440 0
A 1198 1 0 0 0 6 2286 0 0 0 0 0 0 0 0 0 0 0 0 0
A 1199 1 0 0 1127 6 2404 0 0 0 0 0 0 0 0 0 0 0 0 0
A 1200 1 0 0 834 6 2417 0 0 0 0 0 0 0 0 0 0 0 0 0
A 1201 1 0 0 825 6 2414 0 0 0 0 0 0 0 0 0 0 0 0 0
A 1202 1 0 0 0 6 2287 0 0 0 0 0 0 0 0 0 0 0 0 0
A 1203 1 0 0 828 6 2415 0 0 0 0 0 0 0 0 0 0 0 0 0
A 1204 1 0 0 1135 6 2416 0 0 0 0 0 0 0 0 0 0 0 0 0
Z
Z
