V26 path_variables
18 path_variables.F90 S582 0
04/24/2012  15:51:02
use kinds private
use kinds private
enduse
D 56 21 9 1 35 34 0 1 0 0 1
 26 30 32 26 30 28
D 59 21 6 1 0 23 0 0 0 0 0
 0 23 0 3 23 0
D 62 21 9 1 44 43 0 1 0 0 1
 38 41 42 38 41 39
D 65 21 6 1 0 23 0 0 0 0 0
 0 23 0 3 23 0
D 68 21 9 2 63 62 0 1 0 0 1
 49 52 59 49 52 50
 54 58 61 54 58 56
D 71 21 6 1 0 47 0 0 0 0 0
 0 47 0 3 47 0
D 74 21 9 2 78 77 0 1 0 0 1
 67 70 75 67 70 68
 71 74 76 71 74 72
D 77 21 6 1 0 47 0 0 0 0 0
 0 47 0 3 47 0
D 80 21 9 2 93 92 0 1 0 0 1
 82 85 90 82 85 83
 86 89 91 86 89 87
D 83 21 6 1 0 47 0 0 0 0 0
 0 47 0 3 47 0
D 86 21 16 1 102 101 0 1 0 0 1
 96 99 100 96 99 97
D 89 21 6 1 0 23 0 0 0 0 0
 0 23 0 3 23 0
D 92 21 16 1 111 110 0 1 0 0 1
 105 108 109 105 108 106
D 95 21 6 1 0 23 0 0 0 0 0
 0 23 0 3 23 0
D 98 18 55
D 100 21 9 1 120 119 0 1 0 0 1
 114 117 118 114 117 115
D 103 21 6 1 0 23 0 0 0 0 0
 0 23 0 3 23 0
D 106 21 9 1 129 128 0 1 0 0 1
 123 126 127 123 126 124
D 109 21 6 1 0 23 0 0 0 0 0
 0 23 0 3 23 0
D 112 21 9 1 138 137 0 1 0 0 1
 132 135 136 132 135 133
D 115 21 6 1 0 23 0 0 0 0 0
 0 23 0 3 23 0
D 118 21 9 2 153 152 0 1 0 0 1
 142 145 150 142 145 143
 146 149 151 146 149 147
D 121 21 6 1 0 47 0 0 0 0 0
 0 47 0 3 47 0
D 124 21 9 2 168 167 0 1 0 0 1
 157 160 165 157 160 158
 161 164 166 161 164 162
D 127 21 6 1 0 47 0 0 0 0 0
 0 47 0 3 47 0
D 130 21 9 2 183 182 0 1 0 0 1
 172 175 180 172 175 173
 176 179 181 176 179 177
D 133 21 6 1 0 47 0 0 0 0 0
 0 47 0 3 47 0
S 582 24 0 0 0 9 1 0 4658 10005 0 A 0 0 0 0 0 0 0 0 0 0 0 0 0 0 0 0 0 0 0 0 0 11 0 0 0 0 0 0 path_variables
S 584 23 0 0 0 9 587 582 4679 4 0 A 0 0 0 0 0 0 0 0 0 0 0 0 0 0 0 0 0 0 0 0 0 0 0 582 0 0 0 0 dp
S 585 3 0 0 0 6 1 1 0 0 0 A 0 0 0 0 0 0 0 0 0 8 0 0 0 0 0 0 0 0 0 0 0 0 0 0 0 0 0 0 6
R 587 16 1 kinds dp
S 594 6 4 0 0 16 595 582 4713 4 0 A 0 0 0 0 0 0 0 0 0 0 0 0 716 0 0 0 0 0 0 0 0 0 0 582 0 0 0 0 conv_path
S 595 6 4 0 0 16 596 582 4723 4 0 A 0 0 0 0 0 4 0 0 0 0 0 0 716 0 0 0 0 0 0 0 0 0 0 582 0 0 0 0 first_last_opt
S 596 6 4 0 0 16 597 582 4738 4 0 A 0 0 0 0 0 8 0 0 0 0 0 0 716 0 0 0 0 0 0 0 0 0 0 582 0 0 0 0 use_masses
S 597 6 4 0 0 16 598 582 4749 4 0 A 0 0 0 0 0 12 0 0 0 0 0 0 716 0 0 0 0 0 0 0 0 0 0 582 0 0 0 0 fixed_tan
S 598 6 4 0 0 16 599 582 4759 4 0 A 0 0 0 0 0 16 0 0 0 0 0 0 716 0 0 0 0 0 0 0 0 0 0 582 0 0 0 0 use_freezing
S 599 6 4 0 0 16 600 582 4772 4 0 A 0 0 0 0 0 20 0 0 0 0 0 0 716 0 0 0 0 0 0 0 0 0 0 582 0 0 0 0 tune_load_balance
S 600 6 4 0 0 6 601 582 4790 4 0 A 0 0 0 0 0 24 0 0 0 0 0 0 716 0 0 0 0 0 0 0 0 0 0 582 0 0 0 0 dim1
S 601 6 4 0 0 6 602 582 4795 4 0 A 0 0 0 0 0 28 0 0 0 0 0 0 716 0 0 0 0 0 0 0 0 0 0 582 0 0 0 0 num_of_images
S 602 6 4 0 0 6 603 582 4809 4 0 A 0 0 0 0 0 32 0 0 0 0 0 0 716 0 0 0 0 0 0 0 0 0 0 582 0 0 0 0 deg_of_freedom
S 603 6 4 0 0 6 615 582 4824 4 0 A 0 0 0 0 0 36 0 0 0 0 0 0 716 0 0 0 0 0 0 0 0 0 0 582 0 0 0 0 pending_image
S 604 6 4 0 0 9 605 582 4838 4 0 A 0 0 0 0 0 0 0 0 0 0 0 0 717 0 0 0 0 0 0 0 0 0 0 582 0 0 0 0 ds
S 605 6 4 0 0 9 606 582 4841 4 0 A 0 0 0 0 0 8 0 0 0 0 0 0 717 0 0 0 0 0 0 0 0 0 0 582 0 0 0 0 path_thr
S 606 6 4 0 0 9 607 582 4850 4 0 A 0 0 0 0 0 16 0 0 0 0 0 0 717 0 0 0 0 0 0 0 0 0 0 582 0 0 0 0 temp_req
S 607 6 4 0 0 9 608 582 4859 4 0 A 0 0 0 0 0 24 0 0 0 0 0 0 717 0 0 0 0 0 0 0 0 0 0 582 0 0 0 0 activation_energy
S 608 6 4 0 0 9 609 582 4877 4 0 A 0 0 0 0 0 32 0 0 0 0 0 0 717 0 0 0 0 0 0 0 0 0 0 582 0 0 0 0 err_max
S 609 6 4 0 0 9 673 582 4885 4 0 A 0 0 0 0 0 40 0 0 0 0 0 0 717 0 0 0 0 0 0 0 0 0 0 582 0 0 0 0 path_length
S 610 6 4 0 0 16 612 582 4897 80000c 0 A 0 0 0 0 0 0 0 0 0 0 0 0 718 0 0 0 0 0 0 0 0 0 0 582 0 0 0 0 lsteep_des
S 612 6 4 0 0 16 613 582 4908 80000c 0 A 0 0 0 0 0 4 0 0 0 0 0 0 718 0 0 0 0 0 0 0 0 0 0 582 0 0 0 0 lquick_min
S 613 6 4 0 0 16 614 582 4919 80000c 0 A 0 0 0 0 0 8 0 0 0 0 0 0 718 0 0 0 0 0 0 0 0 0 0 582 0 0 0 0 lbroyden
S 614 6 4 0 0 16 1 582 4928 80000c 0 A 0 0 0 0 0 12 0 0 0 0 0 0 718 0 0 0 0 0 0 0 0 0 0 582 0 0 0 0 llangevin
S 615 6 4 0 0 6 616 582 4938 4 0 A 0 0 0 0 0 40 0 0 0 0 0 0 716 0 0 0 0 0 0 0 0 0 0 582 0 0 0 0 istep_path
S 616 6 4 0 0 6 618 582 4949 4 0 A 0 0 0 0 0 44 0 0 0 0 0 0 716 0 0 0 0 0 0 0 0 0 0 582 0 0 0 0 nstep_path
S 617 7 6 0 0 56 1 582 4960 10a00004 51 A 0 0 0 0 0 0 621 0 0 0 623 0 0 0 0 0 0 0 0 620 0 0 622 582 0 0 0 0 pes
S 618 6 4 0 0 6 629 582 4964 40800006 0 A 0 0 0 0 0 48 0 0 0 0 0 0 716 0 0 0 0 0 0 0 0 0 0 582 0 0 0 0 z_b_0
S 619 3 0 0 0 6 0 1 0 0 0 A 0 0 0 0 0 0 0 0 0 18 0 0 0 0 0 0 0 0 0 0 0 0 0 0 0 0 0 0 6
S 620 8 4 0 0 59 631 582 4970 40822064 1020 A 0 0 0 0 0 0 0 0 0 0 0 0 716 0 0 0 0 0 0 0 0 0 0 582 0 0 0 0 pes$sd
S 621 6 4 0 0 7 622 582 4977 40802061 1020 A 0 0 0 0 0 72 0 0 0 0 0 0 716 0 0 0 0 0 0 0 0 0 0 582 0 0 0 0 pes$p
S 622 6 4 0 0 7 620 582 4983 40802060 1020 A 0 0 0 0 0 80 0 0 0 0 0 0 716 0 0 0 0 0 0 0 0 0 0 582 0 0 0 0 pes$o
S 623 22 1 0 0 9 1 582 4989 40000000 1000 A 0 0 0 0 0 0 0 617 0 0 0 0 620 0 0 0 0 0 0 0 0 0 0 582 0 0 0 0 pes$arrdsc
S 624 3 0 0 0 6 0 1 0 0 0 A 0 0 0 0 0 0 0 0 0 13 0 0 0 0 0 0 0 0 0 0 0 0 0 0 0 0 0 0 6
S 625 3 0 0 0 6 0 1 0 0 0 A 0 0 0 0 0 0 0 0 0 14 0 0 0 0 0 0 0 0 0 0 0 0 0 0 0 0 0 0 6
S 626 3 0 0 0 6 0 1 0 0 0 A 0 0 0 0 0 0 0 0 0 17 0 0 0 0 0 0 0 0 0 0 0 0 0 0 0 0 0 0 6
S 627 3 0 0 0 6 0 1 0 0 0 A 0 0 0 0 0 0 0 0 0 7 0 0 0 0 0 0 0 0 0 0 0 0 0 0 0 0 0 0 6
S 628 7 6 0 0 62 1 582 5000 10a00004 51 A 0 0 0 0 0 0 631 0 0 0 633 0 0 0 0 0 0 0 0 630 0 0 632 582 0 0 0 0 error
S 629 6 4 0 0 6 635 582 5006 40800006 0 A 0 0 0 0 0 52 0 0 0 0 0 0 716 0 0 0 0 0 0 0 0 0 0 582 0 0 0 0 z_b_1
S 630 8 4 0 0 65 639 582 5012 40822064 1020 A 0 0 0 0 0 88 0 0 0 0 0 0 716 0 0 0 0 0 0 0 0 0 0 582 0 0 0 0 error$sd
S 631 6 4 0 0 7 632 582 5021 40802061 1020 A 0 0 0 0 0 160 0 0 0 0 0 0 716 0 0 0 0 0 0 0 0 0 0 582 0 0 0 0 error$p
S 632 6 4 0 0 7 630 582 5029 40802060 1020 A 0 0 0 0 0 168 0 0 0 0 0 0 716 0 0 0 0 0 0 0 0 0 0 582 0 0 0 0 error$o
S 633 22 1 0 0 9 1 582 5037 40000000 1000 A 0 0 0 0 0 0 0 628 0 0 0 0 630 0 0 0 0 0 0 0 0 0 0 582 0 0 0 0 error$arrdsc
S 634 7 6 0 0 68 1 582 5050 10a00004 51 A 0 0 0 0 0 0 639 0 0 0 641 0 0 0 0 0 0 0 0 638 0 0 640 582 0 0 0 0 pos
S 635 6 4 0 0 6 636 582 5054 40800006 0 A 0 0 0 0 0 56 0 0 0 0 0 0 716 0 0 0 0 0 0 0 0 0 0 582 0 0 0 0 z_b_2
S 636 6 4 0 0 6 646 582 5060 40800006 0 A 0 0 0 0 0 60 0 0 0 0 0 0 716 0 0 0 0 0 0 0 0 0 0 582 0 0 0 0 z_b_3
S 637 3 0 0 0 6 0 1 0 0 0 A 0 0 0 0 0 0 0 0 0 24 0 0 0 0 0 0 0 0 0 0 0 0 0 0 0 0 0 0 6
S 638 8 4 0 0 71 649 582 5066 40822064 1020 A 0 0 0 0 0 176 0 0 0 0 0 0 716 0 0 0 0 0 0 0 0 0 0 582 0 0 0 0 pos$sd
S 639 6 4 0 0 7 640 582 5073 40802061 1020 A 0 0 0 0 0 272 0 0 0 0 0 0 716 0 0 0 0 0 0 0 0 0 0 582 0 0 0 0 pos$p
S 640 6 4 0 0 7 638 582 5079 40802060 1020 A 0 0 0 0 0 280 0 0 0 0 0 0 716 0 0 0 0 0 0 0 0 0 0 582 0 0 0 0 pos$o
S 641 22 1 0 0 9 1 582 5085 40000000 1000 A 0 0 0 0 0 0 0 634 0 0 0 0 638 0 0 0 0 0 0 0 0 0 0 582 0 0 0 0 pos$arrdsc
S 642 3 0 0 0 6 0 1 0 0 0 A 0 0 0 0 0 0 0 0 0 19 0 0 0 0 0 0 0 0 0 0 0 0 0 0 0 0 0 0 6
S 643 3 0 0 0 6 0 1 0 0 0 A 0 0 0 0 0 0 0 0 0 20 0 0 0 0 0 0 0 0 0 0 0 0 0 0 0 0 0 0 6
S 644 3 0 0 0 6 0 1 0 0 0 A 0 0 0 0 0 0 0 0 0 23 0 0 0 0 0 0 0 0 0 0 0 0 0 0 0 0 0 0 6
S 645 7 6 0 0 74 1 582 5096 10a00004 51 A 0 0 0 0 0 0 649 0 0 0 651 0 0 0 0 0 0 0 0 648 0 0 650 582 0 0 0 0 grad_pes
S 646 6 4 0 0 6 647 582 5105 40800006 0 A 0 0 0 0 0 64 0 0 0 0 0 0 716 0 0 0 0 0 0 0 0 0 0 582 0 0 0 0 z_b_4
S 647 6 4 0 0 6 653 582 5111 40800006 0 A 0 0 0 0 0 68 0 0 0 0 0 0 716 0 0 0 0 0 0 0 0 0 0 582 0 0 0 0 z_b_5
S 648 8 4 0 0 77 656 582 5117 40822064 1020 A 0 0 0 0 0 288 0 0 0 0 0 0 716 0 0 0 0 0 0 0 0 0 0 582 0 0 0 0 grad_pes$sd
S 649 6 4 0 0 7 650 582 5129 40802061 1020 A 0 0 0 0 0 384 0 0 0 0 0 0 716 0 0 0 0 0 0 0 0 0 0 582 0 0 0 0 grad_pes$p
S 650 6 4 0 0 7 648 582 5140 40802060 1020 A 0 0 0 0 0 392 0 0 0 0 0 0 716 0 0 0 0 0 0 0 0 0 0 582 0 0 0 0 grad_pes$o
S 651 22 1 0 0 9 1 582 5151 40000000 1000 A 0 0 0 0 0 0 0 645 0 0 0 0 648 0 0 0 0 0 0 0 0 0 0 582 0 0 0 0 grad_pes$arrdsc
S 652 7 6 0 0 80 1 582 5167 10a00004 51 A 0 0 0 0 0 0 656 0 0 0 658 0 0 0 0 0 0 0 0 655 0 0 657 582 0 0 0 0 tangent
S 653 6 4 0 0 6 654 582 5175 40800006 0 A 0 0 0 0 0 72 0 0 0 0 0 0 716 0 0 0 0 0 0 0 0 0 0 582 0 0 0 0 z_b_6
S 654 6 4 0 0 6 660 582 5181 40800006 0 A 0 0 0 0 0 76 0 0 0 0 0 0 716 0 0 0 0 0 0 0 0 0 0 582 0 0 0 0 z_b_7
S 655 8 4 0 0 83 662 582 5187 40822064 1020 A 0 0 0 0 0 400 0 0 0 0 0 0 716 0 0 0 0 0 0 0 0 0 0 582 0 0 0 0 tangent$sd
S 656 6 4 0 0 7 657 582 5198 40802061 1020 A 0 0 0 0 0 496 0 0 0 0 0 0 716 0 0 0 0 0 0 0 0 0 0 582 0 0 0 0 tangent$p
S 657 6 4 0 0 7 655 582 5208 40802060 1020 A 0 0 0 0 0 504 0 0 0 0 0 0 716 0 0 0 0 0 0 0 0 0 0 582 0 0 0 0 tangent$o
S 658 22 1 0 0 9 1 582 5218 40000000 1000 A 0 0 0 0 0 0 0 652 0 0 0 0 655 0 0 0 0 0 0 0 0 0 0 582 0 0 0 0 tangent$arrdsc
S 659 7 6 0 0 86 1 582 5233 10a00004 51 A 0 0 0 0 0 0 662 0 0 0 664 0 0 0 0 0 0 0 0 661 0 0 663 582 0 0 0 0 frozen
S 660 6 4 0 0 6 666 582 5240 40800006 0 A 0 0 0 0 0 80 0 0 0 0 0 0 716 0 0 0 0 0 0 0 0 0 0 582 0 0 0 0 z_b_8
S 661 8 4 0 0 89 668 582 5246 40822064 1020 A 0 0 0 0 0 512 0 0 0 0 0 0 716 0 0 0 0 0 0 0 0 0 0 582 0 0 0 0 frozen$sd
S 662 6 4 0 0 7 663 582 5256 40802061 1020 A 0 0 0 0 0 584 0 0 0 0 0 0 716 0 0 0 0 0 0 0 0 0 0 582 0 0 0 0 frozen$p
S 663 6 4 0 0 7 661 582 5265 40802060 1020 A 0 0 0 0 0 592 0 0 0 0 0 0 716 0 0 0 0 0 0 0 0 0 0 582 0 0 0 0 frozen$o
S 664 22 1 0 0 9 1 582 5274 40000000 1000 A 0 0 0 0 0 0 0 659 0 0 0 0 661 0 0 0 0 0 0 0 0 0 0 582 0 0 0 0 frozen$arrdsc
S 665 7 6 0 0 92 1 582 5288 10a00004 51 A 0 0 0 0 0 0 668 0 0 0 670 0 0 0 0 0 0 0 0 667 0 0 669 582 0 0 0 0 climbing
S 666 6 4 0 0 6 672 582 5297 40800006 0 A 0 0 0 0 0 84 0 0 0 0 0 0 716 0 0 0 0 0 0 0 0 0 0 582 0 0 0 0 z_b_9
S 667 8 4 0 0 95 680 582 5303 40822064 1020 A 0 0 0 0 0 600 0 0 0 0 0 0 716 0 0 0 0 0 0 0 0 0 0 582 0 0 0 0 climbing$sd
S 668 6 4 0 0 7 669 582 5315 40802061 1020 A 0 0 0 0 0 672 0 0 0 0 0 0 716 0 0 0 0 0 0 0 0 0 0 582 0 0 0 0 climbing$p
S 669 6 4 0 0 7 667 582 5326 40802060 1020 A 0 0 0 0 0 680 0 0 0 0 0 0 716 0 0 0 0 0 0 0 0 0 0 582 0 0 0 0 climbing$o
S 670 22 1 0 0 9 1 582 5337 40000000 1000 A 0 0 0 0 0 0 0 665 0 0 0 0 667 0 0 0 0 0 0 0 0 0 0 582 0 0 0 0 climbing$arrdsc
S 671 6 4 0 0 98 1 582 5353 4 0 A 0 0 0 0 0 0 0 0 0 0 0 0 719 0 0 0 0 0 0 0 0 0 0 582 0 0 0 0 ci_scheme
S 672 6 4 0 0 6 678 582 5363 4 0 A 0 0 0 0 0 88 0 0 0 0 0 0 716 0 0 0 0 0 0 0 0 0 0 582 0 0 0 0 emax_index
S 673 6 4 0 0 9 674 582 5374 4 0 A 0 0 0 0 0 48 0 0 0 0 0 0 717 0 0 0 0 0 0 0 0 0 0 582 0 0 0 0 k_max
S 674 6 4 0 0 9 675 582 5380 4 0 A 0 0 0 0 0 56 0 0 0 0 0 0 717 0 0 0 0 0 0 0 0 0 0 582 0 0 0 0 k_min
S 675 6 4 0 0 9 676 582 5386 4 0 A 0 0 0 0 0 64 0 0 0 0 0 0 717 0 0 0 0 0 0 0 0 0 0 582 0 0 0 0 emax
S 676 6 4 0 0 9 1 582 5391 4 0 A 0 0 0 0 0 72 0 0 0 0 0 0 717 0 0 0 0 0 0 0 0 0 0 582 0 0 0 0 emin
S 677 7 6 0 0 100 1 582 5396 10a00004 51 A 0 0 0 0 0 0 680 0 0 0 682 0 0 0 0 0 0 0 0 679 0 0 681 582 0 0 0 0 elastic_grad
S 678 6 4 0 0 6 684 582 5409 40800006 0 A 0 0 0 0 0 92 0 0 0 0 0 0 716 0 0 0 0 0 0 0 0 0 0 582 0 0 0 0 z_b_10
S 679 8 4 0 0 103 686 582 5416 40822064 1020 A 0 0 0 0 0 688 0 0 0 0 0 0 716 0 0 0 0 0 0 0 0 0 0 582 0 0 0 0 elastic_grad$sd
S 680 6 4 0 0 7 681 582 5432 40802061 1020 A 0 0 0 0 0 760 0 0 0 0 0 0 716 0 0 0 0 0 0 0 0 0 0 582 0 0 0 0 elastic_grad$p
S 681 6 4 0 0 7 679 582 5447 40802060 1020 A 0 0 0 0 0 768 0 0 0 0 0 0 716 0 0 0 0 0 0 0 0 0 0 582 0 0 0 0 elastic_grad$o
S 682 22 1 0 0 9 1 582 5462 40000000 1000 A 0 0 0 0 0 0 0 677 0 0 0 0 679 0 0 0 0 0 0 0 0 0 0 582 0 0 0 0 elastic_grad$arrdsc
S 683 7 6 0 0 106 1 582 5482 10a00004 51 A 0 0 0 0 0 0 686 0 0 0 688 0 0 0 0 0 0 0 0 685 0 0 687 582 0 0 0 0 mass
S 684 6 4 0 0 6 690 582 5487 40800006 0 A 0 0 0 0 0 96 0 0 0 0 0 0 716 0 0 0 0 0 0 0 0 0 0 582 0 0 0 0 z_b_11
S 685 8 4 0 0 109 692 582 5494 40822064 1020 A 0 0 0 0 0 776 0 0 0 0 0 0 716 0 0 0 0 0 0 0 0 0 0 582 0 0 0 0 mass$sd
S 686 6 4 0 0 7 687 582 5502 40802061 1020 A 0 0 0 0 0 848 0 0 0 0 0 0 716 0 0 0 0 0 0 0 0 0 0 582 0 0 0 0 mass$p
S 687 6 4 0 0 7 685 582 5509 40802060 1020 A 0 0 0 0 0 856 0 0 0 0 0 0 716 0 0 0 0 0 0 0 0 0 0 582 0 0 0 0 mass$o
S 688 22 1 0 0 6 1 582 5516 40000000 1000 A 0 0 0 0 0 0 0 683 0 0 0 0 685 0 0 0 0 0 0 0 0 0 0 582 0 0 0 0 mass$arrdsc
S 689 7 6 0 0 112 1 582 5528 10a00004 51 A 0 0 0 0 0 0 692 0 0 0 694 0 0 0 0 0 0 0 0 691 0 0 693 582 0 0 0 0 k
S 690 6 4 0 0 6 696 582 5530 40800006 0 A 0 0 0 0 0 100 0 0 0 0 0 0 716 0 0 0 0 0 0 0 0 0 0 582 0 0 0 0 z_b_12
S 691 8 4 0 0 115 699 582 5537 40822064 1020 A 0 0 0 0 0 864 0 0 0 0 0 0 716 0 0 0 0 0 0 0 0 0 0 582 0 0 0 0 k$sd
S 692 6 4 0 0 7 693 582 5542 40802061 1020 A 0 0 0 0 0 936 0 0 0 0 0 0 716 0 0 0 0 0 0 0 0 0 0 582 0 0 0 0 k$p
S 693 6 4 0 0 7 691 582 5546 40802060 1020 A 0 0 0 0 0 944 0 0 0 0 0 0 716 0 0 0 0 0 0 0 0 0 0 582 0 0 0 0 k$o
S 694 22 1 0 0 6 1 582 5550 40000000 1000 A 0 0 0 0 0 0 0 689 0 0 0 0 691 0 0 0 0 0 0 0 0 0 0 582 0 0 0 0 k$arrdsc
S 695 7 6 0 0 118 1 582 5559 10a00004 51 A 0 0 0 0 0 0 699 0 0 0 701 0 0 0 0 0 0 0 0 698 0 0 700 582 0 0 0 0 posold
S 696 6 4 0 0 6 697 582 5566 40800006 0 A 0 0 0 0 0 104 0 0 0 0 0 0 716 0 0 0 0 0 0 0 0 0 0 582 0 0 0 0 z_b_13
S 697 6 4 0 0 6 703 582 5573 40800006 0 A 0 0 0 0 0 108 0 0 0 0 0 0 716 0 0 0 0 0 0 0 0 0 0 582 0 0 0 0 z_b_14
S 698 8 4 0 0 121 706 582 5580 40822064 1020 A 0 0 0 0 0 952 0 0 0 0 0 0 716 0 0 0 0 0 0 0 0 0 0 582 0 0 0 0 posold$sd
S 699 6 4 0 0 7 700 582 5590 40802061 1020 A 0 0 0 0 0 1048 0 0 0 0 0 0 716 0 0 0 0 0 0 0 0 0 0 582 0 0 0 0 posold$p
S 700 6 4 0 0 7 698 582 5599 40802060 1020 A 0 0 0 0 0 1056 0 0 0 0 0 0 716 0 0 0 0 0 0 0 0 0 0 582 0 0 0 0 posold$o
S 701 22 1 0 0 9 1 582 5608 40000000 1000 A 0 0 0 0 0 0 0 695 0 0 0 0 698 0 0 0 0 0 0 0 0 0 0 582 0 0 0 0 posold$arrdsc
S 702 7 6 0 0 124 1 582 5622 10a00004 51 A 0 0 0 0 0 0 706 0 0 0 708 0 0 0 0 0 0 0 0 705 0 0 707 582 0 0 0 0 grad
S 703 6 4 0 0 6 704 582 5627 40800006 0 A 0 0 0 0 0 112 0 0 0 0 0 0 716 0 0 0 0 0 0 0 0 0 0 582 0 0 0 0 z_b_15
S 704 6 4 0 0 6 710 582 5634 40800006 0 A 0 0 0 0 0 116 0 0 0 0 0 0 716 0 0 0 0 0 0 0 0 0 0 582 0 0 0 0 z_b_16
S 705 8 4 0 0 127 713 582 5641 40822064 1020 A 0 0 0 0 0 1064 0 0 0 0 0 0 716 0 0 0 0 0 0 0 0 0 0 582 0 0 0 0 grad$sd
S 706 6 4 0 0 7 707 582 5649 40802061 1020 A 0 0 0 0 0 1160 0 0 0 0 0 0 716 0 0 0 0 0 0 0 0 0 0 582 0 0 0 0 grad$p
S 707 6 4 0 0 7 705 582 5656 40802060 1020 A 0 0 0 0 0 1168 0 0 0 0 0 0 716 0 0 0 0 0 0 0 0 0 0 582 0 0 0 0 grad$o
S 708 22 1 0 0 9 1 582 5663 40000000 1000 A 0 0 0 0 0 0 0 702 0 0 0 0 705 0 0 0 0 0 0 0 0 0 0 582 0 0 0 0 grad$arrdsc
S 709 7 6 0 0 130 1 582 5675 10a00004 51 A 0 0 0 0 0 0 713 0 0 0 715 0 0 0 0 0 0 0 0 712 0 0 714 582 0 0 0 0 lang
S 710 6 4 0 0 6 711 582 5680 40800006 0 A 0 0 0 0 0 120 0 0 0 0 0 0 716 0 0 0 0 0 0 0 0 0 0 582 0 0 0 0 z_b_17
S 711 6 4 0 0 6 1 582 5687 40800006 0 A 0 0 0 0 0 124 0 0 0 0 0 0 716 0 0 0 0 0 0 0 0 0 0 582 0 0 0 0 z_b_18
S 712 8 4 0 0 133 594 582 5694 40822064 1020 A 0 0 0 0 0 1176 0 0 0 0 0 0 716 0 0 0 0 0 0 0 0 0 0 582 0 0 0 0 lang$sd
S 713 6 4 0 0 7 714 582 5702 40802061 1020 A 0 0 0 0 0 1272 0 0 0 0 0 0 716 0 0 0 0 0 0 0 0 0 0 582 0 0 0 0 lang$p
S 714 6 4 0 0 7 712 582 5709 40802060 1020 A 0 0 0 0 0 1280 0 0 0 0 0 0 716 0 0 0 0 0 0 0 0 0 0 582 0 0 0 0 lang$o
S 715 22 1 0 0 6 1 582 5716 40000000 1000 A 0 0 0 0 0 0 0 709 0 0 0 0 712 0 0 0 0 0 0 0 0 0 0 582 0 0 0 0 lang$arrdsc
S 716 11 0 0 0 9 1 582 5728 40800000 801000 A 0 0 0 0 0 1416 0 0 621 711 0 0 0 0 0 0 0 0 0 0 0 0 0 0 0 0 0 0 _path_variables$0
S 717 11 0 0 0 9 716 582 5746 40800000 801000 A 0 0 0 0 0 80 0 0 604 676 0 0 0 0 0 0 0 0 0 0 0 0 0 0 0 0 0 0 _path_variables$2
S 718 11 0 0 0 9 717 582 5764 40800000 801000 A 0 0 0 0 0 16 0 0 610 614 0 0 0 0 0 0 0 0 0 0 0 0 0 0 0 0 0 0 _path_variables$8
S 719 11 0 0 0 9 718 582 5782 40800000 801000 A 0 0 0 0 0 20 0 0 671 671 0 0 0 0 0 0 0 0 0 0 0 0 0 0 0 0 0 0 _path_variables$1
S 720 23 5 0 0 0 721 582 5800 0 0 A 0 0 0 0 0 0 0 0 0 0 0 0 0 0 0 0 0 0 0 0 0 0 0 0 0 0 0 0 path_allocation
S 721 14 5 0 0 0 1 720 5800 0 400000 A 0 0 0 0 0 0 0 4 0 0 0 0 0 0 0 0 0 0 0 0 0 106 0 582 0 0 0 0 path_allocation
F 721 0
S 722 23 5 0 0 0 723 582 5816 0 0 A 0 0 0 0 0 0 0 0 0 0 0 0 0 0 0 0 0 0 0 0 0 0 0 0 0 0 0 0 path_deallocation
S 723 14 5 0 0 0 1 722 5816 0 400000 A 0 0 0 0 0 0 0 5 0 0 0 0 0 0 0 0 0 0 0 0 0 133 0 582 0 0 0 0 path_deallocation
F 723 0
A 13 2 0 0 0 6 585 0 0 0 13 0 0 0 0 0 0 0 0 0
A 23 2 0 0 0 6 619 0 0 0 23 0 0 0 0 0 0 0 0 0
A 24 2 0 0 0 6 624 0 0 0 24 0 0 0 0 0 0 0 0 0
A 25 1 0 1 0 59 620 0 0 0 0 0 0 0 0 0 0 0 0 0
A 26 10 0 0 0 6 25 1 0 0 0 0 0 0 0 0 0 0 0 0
X 1 24
A 27 2 0 0 0 6 625 0 0 0 27 0 0 0 0 0 0 0 0 0
A 28 10 0 0 26 6 25 4 0 0 0 0 0 0 0 0 0 0 0 0
X 1 27
A 29 4 0 0 0 6 28 0 3 0 0 0 0 2 0 0 0 0 0 0
A 30 4 0 0 0 6 26 0 29 0 0 0 0 1 0 0 0 0 0 0
A 31 2 0 0 0 6 626 0 0 0 31 0 0 0 0 0 0 0 0 0
A 32 10 0 0 28 6 25 7 0 0 0 0 0 0 0 0 0 0 0 0
X 1 31
A 33 2 0 0 0 6 627 0 0 0 33 0 0 0 0 0 0 0 0 0
A 34 10 0 0 32 6 25 10 0 0 0 0 0 0 0 0 0 0 0 0
X 1 33
A 35 10 0 0 34 6 25 13 0 0 0 0 0 0 0 0 0 0 0 0
X 1 13
A 37 1 0 1 0 65 630 0 0 0 0 0 0 0 0 0 0 0 0 0
A 38 10 0 0 0 6 37 1 0 0 0 0 0 0 0 0 0 0 0 0
X 1 24
A 39 10 0 0 38 6 37 4 0 0 0 0 0 0 0 0 0 0 0 0
X 1 27
A 40 4 0 0 0 6 39 0 3 0 0 0 0 2 0 0 0 0 0 0
A 41 4 0 0 0 6 38 0 40 0 0 0 0 1 0 0 0 0 0 0
A 42 10 0 0 39 6 37 7 0 0 0 0 0 0 0 0 0 0 0 0
X 1 31
A 43 10 0 0 42 6 37 10 0 0 0 0 0 0 0 0 0 0 0 0
X 1 33
A 44 10 0 0 43 6 37 13 0 0 0 0 0 0 0 0 0 0 0 0
X 1 13
A 47 2 0 0 0 6 637 0 0 0 47 0 0 0 0 0 0 0 0 0
A 48 1 0 3 0 71 638 0 0 0 0 0 0 0 0 0 0 0 0 0
A 49 10 0 0 0 6 48 1 0 0 0 0 0 0 0 0 0 0 0 0
X 1 24
A 50 10 0 0 49 6 48 4 0 0 0 0 0 0 0 0 0 0 0 0
X 1 27
A 51 4 0 0 0 6 50 0 3 0 0 0 0 2 0 0 0 0 0 0
A 52 4 0 0 0 6 49 0 51 0 0 0 0 1 0 0 0 0 0 0
A 53 2 0 0 0 6 642 0 0 0 53 0 0 0 0 0 0 0 0 0
A 54 10 0 0 50 6 48 16 0 0 0 0 0 0 0 0 0 0 0 0
X 1 53
A 55 2 0 0 0 6 643 0 0 0 55 0 0 0 0 0 0 0 0 0
A 56 10 0 0 54 6 48 19 0 0 0 0 0 0 0 0 0 0 0 0
X 1 55
A 57 4 0 0 0 6 56 0 3 0 0 0 0 2 0 0 0 0 0 0
A 58 4 0 0 0 6 54 0 57 0 0 0 0 1 0 0 0 0 0 0
A 59 10 0 0 56 6 48 7 0 0 0 0 0 0 0 0 0 0 0 0
X 1 31
A 60 2 0 0 0 6 644 0 0 0 60 0 0 0 0 0 0 0 0 0
A 61 10 0 0 59 6 48 22 0 0 0 0 0 0 0 0 0 0 0 0
X 1 60
A 62 10 0 0 61 6 48 10 0 0 0 0 0 0 0 0 0 0 0 0
X 1 33
A 63 10 0 0 62 6 48 13 0 0 0 0 0 0 0 0 0 0 0 0
X 1 13
A 66 1 0 3 0 77 648 0 0 0 0 0 0 0 0 0 0 0 0 0
A 67 10 0 0 0 6 66 1 0 0 0 0 0 0 0 0 0 0 0 0
X 1 24
A 68 10 0 0 67 6 66 4 0 0 0 0 0 0 0 0 0 0 0 0
X 1 27
A 69 4 0 0 0 6 68 0 3 0 0 0 0 2 0 0 0 0 0 0
A 70 4 0 0 0 6 67 0 69 0 0 0 0 1 0 0 0 0 0 0
A 71 10 0 0 68 6 66 16 0 0 0 0 0 0 0 0 0 0 0 0
X 1 53
A 72 10 0 0 71 6 66 19 0 0 0 0 0 0 0 0 0 0 0 0
X 1 55
A 73 4 0 0 0 6 72 0 3 0 0 0 0 2 0 0 0 0 0 0
A 74 4 0 0 0 6 71 0 73 0 0 0 0 1 0 0 0 0 0 0
A 75 10 0 0 72 6 66 7 0 0 0 0 0 0 0 0 0 0 0 0
X 1 31
A 76 10 0 0 75 6 66 22 0 0 0 0 0 0 0 0 0 0 0 0
X 1 60
A 77 10 0 0 76 6 66 10 0 0 0 0 0 0 0 0 0 0 0 0
X 1 33
A 78 10 0 0 77 6 66 13 0 0 0 0 0 0 0 0 0 0 0 0
X 1 13
A 81 1 0 3 0 83 655 0 0 0 0 0 0 0 0 0 0 0 0 0
A 82 10 0 0 0 6 81 1 0 0 0 0 0 0 0 0 0 0 0 0
X 1 24
A 83 10 0 0 82 6 81 4 0 0 0 0 0 0 0 0 0 0 0 0
X 1 27
A 84 4 0 0 11 6 83 0 3 0 0 0 0 2 0 0 0 0 0 0
A 85 4 0 0 0 6 82 0 84 0 0 0 0 1 0 0 0 0 0 0
A 86 10 0 0 83 6 81 16 0 0 0 0 0 0 0 0 0 0 0 0
X 1 53
A 87 10 0 0 86 6 81 19 0 0 0 0 0 0 0 0 0 0 0 0
X 1 55
A 88 4 0 0 0 6 87 0 3 0 0 0 0 2 0 0 0 0 0 0
A 89 4 0 0 0 6 86 0 88 0 0 0 0 1 0 0 0 0 0 0
A 90 10 0 0 87 6 81 7 0 0 0 0 0 0 0 0 0 0 0 0
X 1 31
A 91 10 0 0 90 6 81 22 0 0 0 0 0 0 0 0 0 0 0 0
X 1 60
A 92 10 0 0 91 6 81 10 0 0 0 0 0 0 0 0 0 0 0 0
X 1 33
A 93 10 0 0 92 6 81 13 0 0 0 0 0 0 0 0 0 0 0 0
X 1 13
A 95 1 0 1 0 89 661 0 0 0 0 0 0 0 0 0 0 0 0 0
A 96 10 0 0 0 6 95 1 0 0 0 0 0 0 0 0 0 0 0 0
X 1 24
A 97 10 0 0 96 6 95 4 0 0 0 0 0 0 0 0 0 0 0 0
X 1 27
A 98 4 0 0 15 6 97 0 3 0 0 0 0 2 0 0 0 0 0 0
A 99 4 0 0 0 6 96 0 98 0 0 0 0 1 0 0 0 0 0 0
A 100 10 0 0 97 6 95 7 0 0 0 0 0 0 0 0 0 0 0 0
X 1 31
A 101 10 0 0 100 6 95 10 0 0 0 0 0 0 0 0 0 0 0 0
X 1 33
A 102 10 0 0 101 6 95 13 0 0 0 0 0 0 0 0 0 0 0 0
X 1 13
A 104 1 0 1 19 95 667 0 0 0 0 0 0 0 0 0 0 0 0 0
A 105 10 0 0 0 6 104 1 0 0 0 0 0 0 0 0 0 0 0 0
X 1 24
A 106 10 0 0 105 6 104 4 0 0 0 0 0 0 0 0 0 0 0 0
X 1 27
A 107 4 0 0 0 6 106 0 3 0 0 0 0 2 0 0 0 0 0 0
A 108 4 0 0 0 6 105 0 107 0 0 0 0 1 0 0 0 0 0 0
A 109 10 0 0 106 6 104 7 0 0 0 0 0 0 0 0 0 0 0 0
X 1 31
A 110 10 0 0 109 6 104 10 0 0 0 0 0 0 0 0 0 0 0 0
X 1 33
A 111 10 0 0 110 6 104 13 0 0 0 0 0 0 0 0 0 0 0 0
X 1 13
A 113 1 0 1 0 103 679 0 0 0 0 0 0 0 0 0 0 0 0 0
A 114 10 0 0 22 6 113 1 0 0 0 0 0 0 0 0 0 0 0 0
X 1 24
A 115 10 0 0 114 6 113 4 0 0 0 0 0 0 0 0 0 0 0 0
X 1 27
A 116 4 0 0 0 6 115 0 3 0 0 0 0 2 0 0 0 0 0 0
A 117 4 0 0 0 6 114 0 116 0 0 0 0 1 0 0 0 0 0 0
A 118 10 0 0 115 6 113 7 0 0 0 0 0 0 0 0 0 0 0 0
X 1 31
A 119 10 0 0 118 6 113 10 0 0 0 0 0 0 0 0 0 0 0 0
X 1 33
A 120 10 0 0 119 6 113 13 0 0 0 0 0 0 0 0 0 0 0 0
X 1 13
A 122 1 0 1 0 109 685 0 0 0 0 0 0 0 0 0 0 0 0 0
A 123 10 0 0 0 6 122 1 0 0 0 0 0 0 0 0 0 0 0 0
X 1 24
A 124 10 0 0 123 6 122 4 0 0 0 0 0 0 0 0 0 0 0 0
X 1 27
A 125 4 0 0 0 6 124 0 3 0 0 0 0 2 0 0 0 0 0 0
A 126 4 0 0 0 6 123 0 125 0 0 0 0 1 0 0 0 0 0 0
A 127 10 0 0 124 6 122 7 0 0 0 0 0 0 0 0 0 0 0 0
X 1 31
A 128 10 0 0 127 6 122 10 0 0 0 0 0 0 0 0 0 0 0 0
X 1 33
A 129 10 0 0 128 6 122 13 0 0 0 0 0 0 0 0 0 0 0 0
X 1 13
A 131 1 0 1 0 115 691 0 0 0 0 0 0 0 0 0 0 0 0 0
A 132 10 0 0 46 6 131 1 0 0 0 0 0 0 0 0 0 0 0 0
X 1 24
A 133 10 0 0 132 6 131 4 0 0 0 0 0 0 0 0 0 0 0 0
X 1 27
A 134 4 0 0 0 6 133 0 3 0 0 0 0 2 0 0 0 0 0 0
A 135 4 0 0 0 6 132 0 134 0 0 0 0 1 0 0 0 0 0 0
A 136 10 0 0 133 6 131 7 0 0 0 0 0 0 0 0 0 0 0 0
X 1 31
A 137 10 0 0 136 6 131 10 0 0 0 0 0 0 0 0 0 0 0 0
X 1 33
A 138 10 0 0 137 6 131 13 0 0 0 0 0 0 0 0 0 0 0 0
X 1 13
A 141 1 0 3 55 121 698 0 0 0 0 0 0 0 0 0 0 0 0 0
A 142 10 0 0 64 6 141 1 0 0 0 0 0 0 0 0 0 0 0 0
X 1 24
A 143 10 0 0 142 6 141 4 0 0 0 0 0 0 0 0 0 0 0 0
X 1 27
A 144 4 0 0 30 6 143 0 3 0 0 0 0 2 0 0 0 0 0 0
A 145 4 0 0 0 6 142 0 144 0 0 0 0 1 0 0 0 0 0 0
A 146 10 0 0 143 6 141 16 0 0 0 0 0 0 0 0 0 0 0 0
X 1 53
A 147 10 0 0 146 6 141 19 0 0 0 0 0 0 0 0 0 0 0 0
X 1 55
A 148 4 0 0 131 6 147 0 3 0 0 0 0 2 0 0 0 0 0 0
A 149 4 0 0 0 6 146 0 148 0 0 0 0 1 0 0 0 0 0 0
A 150 10 0 0 147 6 141 7 0 0 0 0 0 0 0 0 0 0 0 0
X 1 31
A 151 10 0 0 150 6 141 22 0 0 0 0 0 0 0 0 0 0 0 0
X 1 60
A 152 10 0 0 151 6 141 10 0 0 0 0 0 0 0 0 0 0 0 0
X 1 33
A 153 10 0 0 152 6 141 13 0 0 0 0 0 0 0 0 0 0 0 0
X 1 13
A 156 1 0 3 0 127 705 0 0 0 0 0 0 0 0 0 0 0 0 0
A 157 10 0 0 0 6 156 1 0 0 0 0 0 0 0 0 0 0 0 0
X 1 24
A 158 10 0 0 157 6 156 4 0 0 0 0 0 0 0 0 0 0 0 0
X 1 27
A 159 4 0 0 0 6 158 0 3 0 0 0 0 2 0 0 0 0 0 0
A 160 4 0 0 7 6 157 0 159 0 0 0 0 1 0 0 0 0 0 0
A 161 10 0 0 158 6 156 16 0 0 0 0 0 0 0 0 0 0 0 0
X 1 53
A 162 10 0 0 161 6 156 19 0 0 0 0 0 0 0 0 0 0 0 0
X 1 55
A 163 4 0 0 0 6 162 0 3 0 0 0 0 2 0 0 0 0 0 0
A 164 4 0 0 0 6 161 0 163 0 0 0 0 1 0 0 0 0 0 0
A 165 10 0 0 162 6 156 7 0 0 0 0 0 0 0 0 0 0 0 0
X 1 31
A 166 10 0 0 165 6 156 22 0 0 0 0 0 0 0 0 0 0 0 0
X 1 60
A 167 10 0 0 166 6 156 10 0 0 0 0 0 0 0 0 0 0 0 0
X 1 33
A 168 10 0 0 167 6 156 13 0 0 0 0 0 0 0 0 0 0 0 0
X 1 13
A 171 1 0 3 0 133 712 0 0 0 0 0 0 0 0 0 0 0 0 0
A 172 10 0 0 0 6 171 1 0 0 0 0 0 0 0 0 0 0 0 0
X 1 24
A 173 10 0 0 172 6 171 4 0 0 0 0 0 0 0 0 0 0 0 0
X 1 27
A 174 4 0 0 0 6 173 0 3 0 0 0 0 2 0 0 0 0 0 0
A 175 4 0 0 0 6 172 0 174 0 0 0 0 1 0 0 0 0 0 0
A 176 10 0 0 173 6 171 16 0 0 0 0 0 0 0 0 0 0 0 0
X 1 53
A 177 10 0 0 176 6 171 19 0 0 0 0 0 0 0 0 0 0 0 0
X 1 55
A 178 4 0 0 0 6 177 0 3 0 0 0 0 2 0 0 0 0 0 0
A 179 4 0 0 0 6 176 0 178 0 0 0 0 1 0 0 0 0 0 0
A 180 10 0 0 177 6 171 7 0 0 0 0 0 0 0 0 0 0 0 0
X 1 31
A 181 10 0 0 180 6 171 22 0 0 0 0 0 0 0 0 0 0 0 0
X 1 60
A 182 10 0 0 181 6 171 10 0 0 0 0 0 0 0 0 0 0 0 0
X 1 33
A 183 10 0 0 182 6 171 13 0 0 0 0 0 0 0 0 0 0 0 0
X 1 13
Z
Z
