V26 path_reparametrisation
26 path_reparametrisation.F90 S582 0
04/24/2012  15:51:13
use mp private
use io_global private
use io_files private
use kinds private
use mp private
use io_global private
use io_files private
use kinds private
enduse
D 367 21 9 1 971 974 1 1 0 0 1
 3 972 3 3 972 973
D 370 21 9 2 975 981 1 1 0 0 1
 3 976 3 3 976 977
 3 978 979 3 978 980
S 582 24 0 0 0 9 1 0 4658 10015 0 A 0 0 0 0 0 0 0 0 0 0 0 0 0 0 0 0 0 0 0 0 0 27 0 0 0 0 0 0 path_reparametrisation
S 584 23 0 0 0 9 595 582 4687 14 0 A 0 0 0 0 0 0 0 0 0 0 0 0 0 0 0 0 0 0 0 0 0 0 0 582 0 0 0 0 dp
S 586 23 0 0 0 6 716 582 4699 14 0 A 0 0 0 0 0 0 0 0 0 0 0 0 0 0 0 0 0 0 0 0 0 0 0 582 0 0 0 0 iunpath
S 588 23 0 0 0 6 749 582 4717 14 0 A 0 0 0 0 0 0 0 0 0 0 0 0 0 0 0 0 0 0 0 0 0 0 0 582 0 0 0 0 meta_ionode
S 589 23 0 0 0 6 750 582 4729 14 0 A 0 0 0 0 0 0 0 0 0 0 0 0 0 0 0 0 0 0 0 0 0 0 0 582 0 0 0 0 meta_ionode_id
S 591 19 0 0 0 6 1 582 4747 14 0 A 0 0 0 0 0 0 0 0 0 0 0 0 0 0 0 0 142 20 0 0 0 0 0 582 0 0 0 0 mp_bcast
O 591 20 1518 1503 1456 1438 1550 1541 1423 1382 1370 1491 1411 1536 1482 1402 1361 1567 1562 1477 1397 1356
R 595 16 1 kinds dp
R 716 6 72 io_files iunpath
R 749 6 7 io_global meta_ionode
R 750 6 8 io_global meta_ionode_id
R 1356 14 162 mp mp_bcast_i1
R 1361 14 167 mp mp_bcast_iv
R 1370 14 176 mp mp_bcast_im
R 1382 14 188 mp mp_bcast_it
R 1397 14 203 mp mp_bcast_r1
R 1402 14 208 mp mp_bcast_rv
R 1411 14 217 mp mp_bcast_rm
R 1423 14 229 mp mp_bcast_rt
R 1438 14 244 mp mp_bcast_r4d
R 1456 14 262 mp mp_bcast_r5d
R 1477 14 283 mp mp_bcast_c1
R 1482 14 288 mp mp_bcast_cv
R 1491 14 297 mp mp_bcast_cm
R 1503 14 309 mp mp_bcast_ct
R 1518 14 324 mp mp_bcast_c4d
R 1536 14 342 mp mp_bcast_l
R 1541 14 347 mp mp_bcast_lv
R 1550 14 356 mp mp_bcast_lm
R 1562 14 368 mp mp_bcast_z
R 1567 14 373 mp mp_bcast_zv
S 2171 6 4 0 0 9 1 582 12773 0 1000 A 0 0 0 0 0 0 0 0 0 0 0 0 2175 0 0 0 0 0 0 0 0 0 0 582 0 0 0 0 reparametrise
S 2172 19 0 0 0 9 1 582 12787 4000 0 A 0 0 0 0 0 0 0 0 0 0 0 0 0 0 0 0 155 2 0 0 0 0 0 582 0 0 0 0 spline_interpolation
O 2172 2 2174 2173
S 2173 27 0 0 0 9 2178 582 12808 10010 400000 A 0 0 0 0 0 0 156 0 0 0 0 0 0 0 0 0 0 0 0 0 0 0 0 582 0 0 0 0 spline_interpolation_1d
Q 2173 2172 0
S 2174 27 0 0 0 9 2188 582 12832 10010 400000 A 0 0 0 0 0 0 157 0 0 0 0 0 0 0 0 0 0 0 0 0 0 0 0 582 0 0 0 0 spline_interpolation_2d
Q 2174 2172 0
S 2175 11 0 0 0 9 1294 582 12856 40800000 801000 A 0 0 0 0 0 8 0 0 2171 2171 0 0 0 0 0 0 0 0 0 0 0 0 0 0 0 0 0 0 _path_reparametrisation$2
S 2176 23 5 0 0 0 2177 582 12773 0 0 A 0 0 0 0 0 0 0 0 0 0 0 0 0 0 0 0 0 0 0 0 0 0 0 0 0 0 0 0 reparametrise
S 2177 14 5 0 0 0 1 2176 12773 0 400000 A 0 0 0 0 0 0 0 330 0 0 0 0 0 0 0 0 0 0 0 0 0 57 0 582 0 0 0 0 reparametrise
F 2177 0
S 2178 23 5 0 0 0 2183 582 12808 10 0 A 0 0 0 0 0 0 0 0 0 0 0 0 0 0 0 0 0 0 0 0 0 0 0 0 0 0 0 0 spline_interpolation_1d
S 2179 7 3 3 0 367 1 2178 12619 20000014 10003000 A 0 0 0 0 0 0 0 0 0 0 0 0 0 0 0 0 0 0 0 0 0 0 0 0 0 0 0 0 vec
S 2180 1 3 1 0 6 1 2178 12882 14 3000 A 0 0 0 0 0 0 0 0 0 0 0 0 0 0 0 0 0 0 0 0 0 0 0 0 0 0 0 0 ni
S 2181 1 3 1 0 6 1 2178 12885 14 3000 A 0 0 0 0 0 0 0 0 0 0 0 0 0 0 0 0 0 0 0 0 0 0 0 0 0 0 0 0 nf
S 2182 1 3 1 0 6 1 2178 12888 80000014 3000 A 0 0 0 0 0 0 0 0 0 0 0 0 0 0 0 0 0 0 0 0 0 0 0 0 0 0 0 0 nim
S 2183 14 5 0 0 0 1 2178 12808 20000010 400000 A 0 0 0 0 0 0 0 331 4 0 0 0 0 0 0 0 0 0 0 0 0 109 0 582 0 0 0 0 spline_interpolation_1d
F 2183 4 2179 2180 2181 2182
S 2184 6 1 0 0 6 1 2178 11301 40800016 3000 A 0 0 0 0 0 0 0 0 0 0 0 0 0 0 0 0 0 0 0 0 0 0 0 0 0 0 0 0 z_b_0_1
S 2185 6 1 0 0 6 1 2178 11309 40800016 3000 A 0 0 0 0 0 0 0 0 0 0 0 0 0 0 0 0 0 0 0 0 0 0 0 0 0 0 0 0 z_b_2
S 2186 6 1 0 0 6 1 2178 11315 40800016 3000 A 0 0 0 0 0 0 0 0 0 0 0 0 0 0 0 0 0 0 0 0 0 0 0 0 0 0 0 0 z_b_3
S 2187 6 1 0 0 6 1 2178 12892 40800016 3000 A 0 0 0 0 0 0 0 0 0 0 0 0 0 0 0 0 0 0 0 0 0 0 0 0 0 0 0 0 z_e_1054
S 2188 23 5 0 0 0 2193 582 12832 10 0 A 0 0 0 0 0 0 0 0 0 0 0 0 0 0 0 0 0 0 0 0 0 0 0 0 0 0 0 0 spline_interpolation_2d
S 2189 7 3 3 0 370 1 2188 12619 20000014 10003000 A 0 0 0 0 0 0 0 0 0 0 0 0 0 0 0 0 0 0 0 0 0 0 0 0 0 0 0 0 vec
S 2190 1 3 1 0 6 1 2188 12882 14 3000 A 0 0 0 0 0 0 0 0 0 0 0 0 0 0 0 0 0 0 0 0 0 0 0 0 0 0 0 0 ni
S 2191 1 3 1 0 6 1 2188 12885 14 3000 A 0 0 0 0 0 0 0 0 0 0 0 0 0 0 0 0 0 0 0 0 0 0 0 0 0 0 0 0 nf
S 2192 1 3 1 0 6 1 2188 12888 80000014 3000 A 0 0 0 0 0 0 0 0 0 0 0 0 0 0 0 0 0 0 0 0 0 0 0 0 0 0 0 0 nim
S 2193 14 5 0 0 0 1 2188 12832 20000010 400000 A 0 0 0 0 0 0 0 336 4 0 0 0 0 0 0 0 0 0 0 0 0 179 0 582 0 0 0 0 spline_interpolation_2d
F 2193 4 2189 2190 2191 2192
S 2194 6 1 0 0 6 1 2188 11301 40800016 3000 A 0 0 0 0 0 0 0 0 0 0 0 0 0 0 0 0 0 0 0 0 0 0 0 0 0 0 0 0 z_b_0_1
S 2195 6 1 0 0 6 1 2188 11309 40800016 3000 A 0 0 0 0 0 0 0 0 0 0 0 0 0 0 0 0 0 0 0 0 0 0 0 0 0 0 0 0 z_b_2
S 2196 6 1 0 0 6 1 2188 11315 40800016 3000 A 0 0 0 0 0 0 0 0 0 0 0 0 0 0 0 0 0 0 0 0 0 0 0 0 0 0 0 0 z_b_3
S 2197 6 1 0 0 6 1 2188 11503 40800016 3000 A 0 0 0 0 0 0 0 0 0 0 0 0 0 0 0 0 0 0 0 0 0 0 0 0 0 0 0 0 z_b_5
S 2198 6 1 0 0 6 1 2188 11335 40800016 3000 A 0 0 0 0 0 0 0 0 0 0 0 0 0 0 0 0 0 0 0 0 0 0 0 0 0 0 0 0 z_b_6
S 2199 6 1 0 0 6 1 2188 12901 40800016 3000 A 0 0 0 0 0 0 0 0 0 0 0 0 0 0 0 0 0 0 0 0 0 0 0 0 0 0 0 0 z_e_1061
S 2200 6 1 0 0 6 1 2188 12910 40800016 3000 A 0 0 0 0 0 0 0 0 0 0 0 0 0 0 0 0 0 0 0 0 0 0 0 0 0 0 0 0 z_e_1064
S 2201 23 5 0 0 0 2204 582 12919 10 0 A 0 0 0 0 0 0 0 0 0 0 0 0 0 0 0 0 0 0 0 0 0 0 0 0 0 0 0 0 cubic_interpolation
S 2202 1 3 1 0 6 1 2201 12882 14 3000 A 0 0 0 0 0 0 0 0 0 0 0 0 0 0 0 0 0 0 0 0 0 0 0 0 0 0 0 0 ni
S 2203 1 3 1 0 6 1 2201 12885 14 3000 A 0 0 0 0 0 0 0 0 0 0 0 0 0 0 0 0 0 0 0 0 0 0 0 0 0 0 0 0 nf
S 2204 14 5 0 0 0 1 2201 12919 10 400000 A 0 0 0 0 0 0 0 341 2 0 0 0 0 0 0 0 0 0 0 0 0 252 0 582 0 0 0 0 cubic_interpolation
F 2204 2 2202 2203
A 971 1 0 0 0 6 2186 0 0 0 0 0 0 0 0 0 0 0 0 0
A 972 1 0 0 0 6 2184 0 0 0 0 0 0 0 0 0 0 0 0 0
A 973 1 0 0 0 6 2187 0 0 0 0 0 0 0 0 0 0 0 0 0
A 974 1 0 0 0 6 2185 0 0 0 0 0 0 0 0 0 0 0 0 0
A 975 1 0 0 675 6 2198 0 0 0 0 0 0 0 0 0 0 0 0 0
A 976 1 0 0 671 6 2194 0 0 0 0 0 0 0 0 0 0 0 0 0
A 977 1 0 0 672 6 2199 0 0 0 0 0 0 0 0 0 0 0 0 0
A 978 1 0 0 670 6 2196 0 0 0 0 0 0 0 0 0 0 0 0 0
A 979 1 0 0 668 6 2195 0 0 0 0 0 0 0 0 0 0 0 0 0
A 980 1 0 0 674 6 2200 0 0 0 0 0 0 0 0 0 0 0 0 0
A 981 1 0 0 673 6 2197 0 0 0 0 0 0 0 0 0 0 0 0 0
Z
Z
