V26 paw_variables
17 paw_variables.F90 S582 0
04/24/2012  15:51:02
use kinds private
use kinds private
enduse
D 56 24 606 640 605 7
D 62 21 9 1 41 40 0 1 0 0 1
 32 36 38 32 36 34
D 65 21 6 1 0 29 0 0 0 0 0
 0 29 0 3 29 0
D 68 21 9 2 60 59 0 1 0 0 1
 46 49 56 46 49 47
 51 55 58 51 55 53
D 71 21 6 1 0 44 0 0 0 0 0
 0 44 0 3 44 0
D 74 21 9 2 75 74 0 1 0 0 1
 64 67 72 64 67 65
 68 71 73 68 71 69
D 77 21 6 1 0 44 0 0 0 0 0
 0 44 0 3 44 0
D 80 21 9 2 90 89 0 1 0 0 1
 79 82 87 79 82 80
 83 86 88 83 86 84
D 83 21 6 1 0 44 0 0 0 0 0
 0 44 0 3 44 0
D 86 21 9 2 105 104 0 1 0 0 1
 94 97 102 94 97 95
 98 101 103 98 101 99
D 89 21 6 1 0 44 0 0 0 0 0
 0 44 0 3 44 0
D 92 21 9 1 114 113 0 1 0 0 1
 108 111 112 108 111 109
D 95 21 6 1 0 29 0 0 0 0 0
 0 29 0 3 29 0
D 98 21 56 1 123 122 0 1 0 0 1
 117 120 121 117 120 118
D 101 21 6 1 0 29 0 0 0 0 0
 0 29 0 3 29 0
D 104 24 666 20 665 3
D 110 21 9 3 148 147 0 1 0 0 1
 129 132 143 129 132 130
 133 136 144 133 136 134
 138 142 146 138 142 140
D 113 21 6 1 0 127 0 0 0 0 0
 0 127 0 3 127 0
D 116 21 6 1 0 3 0 0 0 0 0
 0 3 0 3 3 0
D 119 21 6 1 0 3 0 0 0 0 0
 0 3 0 3 3 0
S 582 24 0 0 0 9 1 0 4658 10005 0 A 0 0 0 0 0 0 0 0 0 0 0 0 74 0 0 0 0 0 0 0 0 3 0 0 0 0 0 0 paw_variables
S 584 23 0 0 0 9 587 582 4678 4 0 A 0 0 0 0 0 0 0 0 0 0 0 0 0 0 0 0 0 0 0 0 0 0 0 582 0 0 0 0 dp
S 585 3 0 0 0 6 1 1 0 0 0 A 0 0 0 0 0 0 0 0 0 8 0 0 0 0 0 0 0 0 0 0 0 0 0 0 0 0 0 0 6
R 587 16 1 kinds dp
S 594 6 4 0 0 16 596 582 4712 80000c 0 A 0 0 0 0 0 0 0 0 0 0 0 0 685 0 0 0 0 0 0 0 0 0 0 582 0 0 0 0 paw_is_init
S 595 3 0 0 0 16 0 1 0 0 0 A 0 0 0 0 0 0 0 0 0 0 0 0 0 0 0 0 0 0 0 0 0 0 0 0 0 0 0 0 16
S 596 6 4 0 0 16 1 582 4724 80000c 0 A 0 0 0 0 0 4 0 0 0 0 0 0 685 0 0 0 0 0 0 0 0 0 0 582 0 0 0 0 okpaw
S 597 6 4 0 0 9 1 582 4730 80000c 0 A 0 0 0 0 0 0 0 0 0 0 0 0 686 0 0 0 0 0 0 0 0 0 0 582 0 0 0 0 total_core_energy
S 598 6 4 0 0 16 611 582 4748 4 0 A 0 0 0 0 0 0 0 0 0 0 0 0 687 0 0 0 0 0 0 0 0 0 0 582 0 0 0 0 only_paw
S 599 16 0 0 0 6 601 582 4757 800004 400000 A 0 0 0 0 0 0 0 0 3 22 0 0 0 0 0 0 0 0 0 0 0 0 0 582 0 0 0 0 lm_fact
S 600 3 0 0 0 6 0 1 0 0 0 A 0 0 0 0 0 0 0 0 0 3 0 0 0 0 0 0 0 0 0 0 0 0 0 0 0 0 0 0 6
S 601 16 0 0 0 6 602 582 4765 800004 400000 A 0 0 0 0 0 0 0 0 3 22 0 0 0 0 0 0 0 0 0 0 0 0 0 582 0 0 0 0 lm_fact_x
S 602 16 0 0 0 6 604 582 4775 800004 400000 A 0 0 0 0 0 0 0 0 2 25 0 0 0 0 0 0 0 0 0 0 0 0 0 582 0 0 0 0 xlm
S 603 3 0 0 0 6 0 1 0 0 0 A 0 0 0 0 0 0 0 0 0 2 0 0 0 0 0 0 0 0 0 0 0 0 0 0 0 0 0 0 6
S 604 16 0 0 0 6 0 582 4779 800004 400000 A 0 0 0 0 0 0 0 0 0 2 0 0 0 0 0 0 0 0 0 0 0 0 0 582 0 0 0 0 radial_grad_style
S 605 25 0 0 0 56 1 582 4797 10000004 800014 A 0 0 0 0 0 0 0 0 0 0 0 0 0 0 0 0 0 0 0 684 0 0 0 582 0 0 0 0 paw_radial_integrator
S 606 5 0 0 0 6 607 582 4819 800004 0 A 0 0 0 0 0 0 0 0 56 0 0 0 0 0 0 0 0 0 0 0 1 606 0 582 0 0 0 0 lmax
S 607 5 0 0 0 6 608 582 4824 800004 0 A 0 0 0 0 0 4 0 0 56 0 0 0 0 0 0 0 0 0 0 0 606 607 0 582 0 0 0 0 ladd
S 608 5 0 0 0 6 609 582 4829 800004 0 A 0 0 0 0 0 8 0 0 56 0 0 0 0 0 0 0 0 0 0 0 607 608 0 582 0 0 0 0 lm_max
S 609 5 0 0 0 6 610 582 4836 800004 0 A 0 0 0 0 0 12 0 0 56 0 0 0 0 0 0 0 0 0 0 0 608 609 0 582 0 0 0 0 nx
S 610 5 6 0 0 62 614 582 4839 10a00004 14 A 0 0 0 0 0 16 614 0 56 0 616 0 0 0 0 0 0 0 0 613 609 610 615 582 0 0 0 0 ww
S 611 6 4 0 0 6 622 582 4842 40800006 0 A 0 0 0 0 0 4 0 0 0 0 0 0 687 0 0 0 0 0 0 0 0 0 0 582 0 0 0 0 z_b_0
S 612 3 0 0 0 6 0 1 0 0 0 A 0 0 0 0 0 0 0 0 0 18 0 0 0 0 0 0 0 0 0 0 0 0 0 0 0 0 0 0 6
S 613 5 0 0 0 65 621 582 4848 40822004 1020 A 0 0 0 0 0 32 0 0 56 0 0 0 0 0 0 0 0 0 0 0 615 613 0 582 0 0 0 0 ww$sd
S 614 5 0 0 0 7 615 582 4854 40802001 1020 A 0 0 0 0 0 16 0 0 56 0 0 0 0 0 0 0 0 0 0 0 610 614 0 582 0 0 0 0 ww$p
S 615 5 0 0 0 7 613 582 4859 40802000 1020 A 0 0 0 0 0 24 0 0 56 0 0 0 0 0 0 0 0 0 0 0 614 615 0 582 0 0 0 0 ww$o
S 616 22 1 0 0 9 1 582 4864 40000000 1000 A 0 0 0 0 0 0 0 610 0 0 0 0 613 0 0 0 0 0 0 0 0 0 0 582 0 0 0 0 ww$arrdsc
S 617 3 0 0 0 6 0 1 0 0 0 A 0 0 0 0 0 0 0 0 0 13 0 0 0 0 0 0 0 0 0 0 0 0 0 0 0 0 0 0 6
S 618 3 0 0 0 6 0 1 0 0 0 A 0 0 0 0 0 0 0 0 0 14 0 0 0 0 0 0 0 0 0 0 0 0 0 0 0 0 0 0 6
S 619 3 0 0 0 6 0 1 0 0 0 A 0 0 0 0 0 0 0 0 0 17 0 0 0 0 0 0 0 0 0 0 0 0 0 0 0 0 0 0 6
S 620 3 0 0 0 6 0 1 0 0 0 A 0 0 0 0 0 0 0 0 0 7 0 0 0 0 0 0 0 0 0 0 0 0 0 0 0 0 0 0 6
S 621 5 6 0 0 68 626 582 4874 10a00004 14 A 0 0 0 0 0 104 626 0 56 0 628 0 0 0 0 0 0 0 0 625 610 621 627 582 0 0 0 0 ylm
S 622 6 4 0 0 6 623 582 4878 40800006 0 A 0 0 0 0 0 8 0 0 0 0 0 0 687 0 0 0 0 0 0 0 0 0 0 582 0 0 0 0 z_b_1
S 623 6 4 0 0 6 633 582 4884 40800006 0 A 0 0 0 0 0 12 0 0 0 0 0 0 687 0 0 0 0 0 0 0 0 0 0 582 0 0 0 0 z_b_2
S 624 3 0 0 0 6 0 1 0 0 0 A 0 0 0 0 0 0 0 0 0 24 0 0 0 0 0 0 0 0 0 0 0 0 0 0 0 0 0 0 6
S 625 5 0 0 0 71 632 582 4890 40822004 1020 A 0 0 0 0 0 120 0 0 56 0 0 0 0 0 0 0 0 0 0 0 627 625 0 582 0 0 0 0 ylm$sd
S 626 5 0 0 0 7 627 582 4897 40802001 1020 A 0 0 0 0 0 104 0 0 56 0 0 0 0 0 0 0 0 0 0 0 621 626 0 582 0 0 0 0 ylm$p
S 627 5 0 0 0 7 625 582 4903 40802000 1020 A 0 0 0 0 0 112 0 0 56 0 0 0 0 0 0 0 0 0 0 0 626 627 0 582 0 0 0 0 ylm$o
S 628 22 1 0 0 9 1 582 4909 40000000 1000 A 0 0 0 0 0 0 0 621 0 0 0 0 625 0 0 0 0 0 0 0 0 0 0 582 0 0 0 0 ylm$arrdsc
S 629 3 0 0 0 6 0 1 0 0 0 A 0 0 0 0 0 0 0 0 0 19 0 0 0 0 0 0 0 0 0 0 0 0 0 0 0 0 0 0 6
S 630 3 0 0 0 6 0 1 0 0 0 A 0 0 0 0 0 0 0 0 0 20 0 0 0 0 0 0 0 0 0 0 0 0 0 0 0 0 0 0 6
S 631 3 0 0 0 6 0 1 0 0 0 A 0 0 0 0 0 0 0 0 0 23 0 0 0 0 0 0 0 0 0 0 0 0 0 0 0 0 0 0 6
S 632 5 6 0 0 74 636 582 4920 10a00004 14 A 0 0 0 0 0 216 636 0 56 0 638 0 0 0 0 0 0 0 0 635 621 632 637 582 0 0 0 0 wwylm
S 633 6 4 0 0 6 634 582 4926 40800006 0 A 0 0 0 0 0 16 0 0 0 0 0 0 687 0 0 0 0 0 0 0 0 0 0 582 0 0 0 0 z_b_3
S 634 6 4 0 0 6 640 582 4932 40800006 0 A 0 0 0 0 0 20 0 0 0 0 0 0 687 0 0 0 0 0 0 0 0 0 0 582 0 0 0 0 z_b_4
S 635 5 0 0 0 77 639 582 4938 40822004 1020 A 0 0 0 0 0 232 0 0 56 0 0 0 0 0 0 0 0 0 0 0 637 635 0 582 0 0 0 0 wwylm$sd
S 636 5 0 0 0 7 637 582 4947 40802001 1020 A 0 0 0 0 0 216 0 0 56 0 0 0 0 0 0 0 0 0 0 0 632 636 0 582 0 0 0 0 wwylm$p
S 637 5 0 0 0 7 635 582 4955 40802000 1020 A 0 0 0 0 0 224 0 0 56 0 0 0 0 0 0 0 0 0 0 0 636 637 0 582 0 0 0 0 wwylm$o
S 638 22 1 0 0 9 1 582 4963 40000000 1000 A 0 0 0 0 0 0 0 632 0 0 0 0 635 0 0 0 0 0 0 0 0 0 0 582 0 0 0 0 wwylm$arrdsc
S 639 5 6 0 0 80 643 582 4976 10a00004 14 A 0 0 0 0 0 328 643 0 56 0 645 0 0 0 0 0 0 0 0 642 632 639 644 582 0 0 0 0 dylmt
S 640 6 4 0 0 6 641 582 4982 40800006 0 A 0 0 0 0 0 24 0 0 0 0 0 0 687 0 0 0 0 0 0 0 0 0 0 582 0 0 0 0 z_b_5
S 641 6 4 0 0 6 647 582 4988 40800006 0 A 0 0 0 0 0 28 0 0 0 0 0 0 687 0 0 0 0 0 0 0 0 0 0 582 0 0 0 0 z_b_6
S 642 5 0 0 0 83 646 582 4994 40822004 1020 A 0 0 0 0 0 344 0 0 56 0 0 0 0 0 0 0 0 0 0 0 644 642 0 582 0 0 0 0 dylmt$sd
S 643 5 0 0 0 7 644 582 5003 40802001 1020 A 0 0 0 0 0 328 0 0 56 0 0 0 0 0 0 0 0 0 0 0 639 643 0 582 0 0 0 0 dylmt$p
S 644 5 0 0 0 7 642 582 5011 40802000 1020 A 0 0 0 0 0 336 0 0 56 0 0 0 0 0 0 0 0 0 0 0 643 644 0 582 0 0 0 0 dylmt$o
S 645 22 1 0 0 9 1 582 5019 40000000 1000 A 0 0 0 0 0 0 0 639 0 0 0 0 642 0 0 0 0 0 0 0 0 0 0 582 0 0 0 0 dylmt$arrdsc
S 646 5 6 0 0 86 650 582 5032 10a00004 14 A 0 0 0 0 0 440 650 0 56 0 652 0 0 0 0 0 0 0 0 649 639 646 651 582 0 0 0 0 dylmp
S 647 6 4 0 0 6 648 582 5038 40800006 0 A 0 0 0 0 0 32 0 0 0 0 0 0 687 0 0 0 0 0 0 0 0 0 0 582 0 0 0 0 z_b_7
S 648 6 4 0 0 6 654 582 5044 40800006 0 A 0 0 0 0 0 36 0 0 0 0 0 0 687 0 0 0 0 0 0 0 0 0 0 582 0 0 0 0 z_b_8
S 649 5 0 0 0 89 653 582 5050 40822004 1020 A 0 0 0 0 0 456 0 0 56 0 0 0 0 0 0 0 0 0 0 0 651 649 0 582 0 0 0 0 dylmp$sd
S 650 5 0 0 0 7 651 582 5059 40802001 1020 A 0 0 0 0 0 440 0 0 56 0 0 0 0 0 0 0 0 0 0 0 646 650 0 582 0 0 0 0 dylmp$p
S 651 5 0 0 0 7 649 582 5067 40802000 1020 A 0 0 0 0 0 448 0 0 56 0 0 0 0 0 0 0 0 0 0 0 650 651 0 582 0 0 0 0 dylmp$o
S 652 22 1 0 0 9 1 582 5075 40000000 1000 A 0 0 0 0 0 0 0 646 0 0 0 0 649 0 0 0 0 0 0 0 0 0 0 582 0 0 0 0 dylmp$arrdsc
S 653 5 6 0 0 92 656 582 5088 10a00004 14 A 0 0 0 0 0 552 656 0 56 0 658 0 0 0 0 0 0 0 0 655 646 653 657 582 0 0 0 0 cotg_th
S 654 6 4 0 0 6 660 582 5096 40800006 0 A 0 0 0 0 0 40 0 0 0 0 0 0 687 0 0 0 0 0 0 0 0 0 0 582 0 0 0 0 z_b_9
S 655 5 0 0 0 95 1 582 5102 40822004 1020 A 0 0 0 0 0 568 0 0 56 0 0 0 0 0 0 0 0 0 0 0 657 655 0 582 0 0 0 0 cotg_th$sd
S 656 5 0 0 0 7 657 582 5113 40802001 1020 A 0 0 0 0 0 552 0 0 56 0 0 0 0 0 0 0 0 0 0 0 653 656 0 582 0 0 0 0 cotg_th$p
S 657 5 0 0 0 7 655 582 5123 40802000 1020 A 0 0 0 0 0 560 0 0 56 0 0 0 0 0 0 0 0 0 0 0 656 657 0 582 0 0 0 0 cotg_th$o
S 658 22 1 0 0 9 1 582 5133 40000000 1000 A 0 0 0 0 0 0 0 653 0 0 0 0 655 0 0 0 0 0 0 0 0 0 0 582 0 0 0 0 cotg_th$arrdsc
S 659 7 6 0 0 98 1 582 5148 10a00004 51 A 0 0 0 0 0 0 662 0 0 0 664 0 0 0 0 0 0 0 0 661 0 0 663 582 0 0 0 0 rad
S 660 6 4 0 0 6 672 582 5152 40800006 0 A 0 0 0 0 0 44 0 0 0 0 0 0 687 0 0 0 0 0 0 0 0 0 0 582 0 0 0 0 z_b_10
S 661 8 4 0 0 101 677 582 5159 40822064 1020 A 0 0 0 0 0 0 0 0 0 0 0 0 687 0 0 0 0 0 0 0 0 0 0 582 0 0 0 0 rad$sd
S 662 6 4 0 0 7 663 582 5166 40802061 1020 A 0 0 0 0 0 72 0 0 0 0 0 0 687 0 0 0 0 0 0 0 0 0 0 582 0 0 0 0 rad$p
S 663 6 4 0 0 7 661 582 5172 40802060 1020 A 0 0 0 0 0 80 0 0 0 0 0 0 687 0 0 0 0 0 0 0 0 0 0 582 0 0 0 0 rad$o
S 664 22 1 0 0 9 1 582 5178 40000000 1000 A 0 0 0 0 0 0 0 659 0 0 0 0 661 0 0 0 0 0 0 0 0 0 0 582 0 0 0 0 rad$arrdsc
S 665 25 0 0 0 104 1 582 5189 10000004 800010 A 0 0 0 0 0 0 0 0 0 0 0 0 0 0 0 0 0 0 0 683 0 0 0 582 0 0 0 0 paw_info
S 666 5 0 0 0 6 667 582 5198 800004 0 A 0 0 0 0 0 0 0 0 104 0 0 0 0 0 0 0 0 0 0 0 1 666 0 582 0 0 0 0 a
S 667 5 0 0 0 6 668 582 5200 800004 0 A 0 0 0 0 0 4 0 0 104 0 0 0 0 0 0 0 0 0 0 0 666 667 0 582 0 0 0 0 t
S 668 5 0 0 0 6 669 582 5202 800004 0 A 0 0 0 0 0 8 0 0 104 0 0 0 0 0 0 0 0 0 0 0 667 668 0 582 0 0 0 0 m
S 669 5 0 0 0 6 670 582 5204 800004 0 A 0 0 0 0 0 12 0 0 104 0 0 0 0 0 0 0 0 0 0 0 668 669 0 582 0 0 0 0 b
S 670 5 0 0 0 6 1 582 5206 800004 0 A 0 0 0 0 0 16 0 0 104 0 0 0 0 0 0 0 0 0 0 0 669 670 0 582 0 0 0 0 l
S 671 7 6 0 0 110 1 582 5208 10a00004 51 A 0 0 0 0 0 0 677 0 0 0 679 0 0 0 0 0 0 0 0 676 0 0 678 582 0 0 0 0 ddd_paw
S 672 6 4 0 0 6 673 582 5216 40800006 0 A 0 0 0 0 0 48 0 0 0 0 0 0 687 0 0 0 0 0 0 0 0 0 0 582 0 0 0 0 z_b_11
S 673 6 4 0 0 6 674 582 5223 40800006 0 A 0 0 0 0 0 52 0 0 0 0 0 0 687 0 0 0 0 0 0 0 0 0 0 582 0 0 0 0 z_b_12
S 674 6 4 0 0 6 1 582 5230 40800006 0 A 0 0 0 0 0 56 0 0 0 0 0 0 687 0 0 0 0 0 0 0 0 0 0 582 0 0 0 0 z_b_13
S 675 3 0 0 0 6 0 1 0 0 0 A 0 0 0 0 0 0 0 0 0 30 0 0 0 0 0 0 0 0 0 0 0 0 0 0 0 0 0 0 6
S 676 8 4 0 0 113 598 582 5237 40822064 1020 A 0 0 0 0 0 88 0 0 0 0 0 0 687 0 0 0 0 0 0 0 0 0 0 582 0 0 0 0 ddd_paw$sd
S 677 6 4 0 0 7 678 582 5248 40802061 1020 A 0 0 0 0 0 208 0 0 0 0 0 0 687 0 0 0 0 0 0 0 0 0 0 582 0 0 0 0 ddd_paw$p
S 678 6 4 0 0 7 676 582 5258 40802060 1020 A 0 0 0 0 0 216 0 0 0 0 0 0 687 0 0 0 0 0 0 0 0 0 0 582 0 0 0 0 ddd_paw$o
S 679 22 1 0 0 9 1 582 5268 40000000 1000 A 0 0 0 0 0 0 0 671 0 0 0 0 676 0 0 0 0 0 0 0 0 0 0 582 0 0 0 0 ddd_paw$arrdsc
S 680 3 0 0 0 6 0 1 0 0 0 A 0 0 0 0 0 0 0 0 0 25 0 0 0 0 0 0 0 0 0 0 0 0 0 0 0 0 0 0 6
S 681 3 0 0 0 6 0 1 0 0 0 A 0 0 0 0 0 0 0 0 0 26 0 0 0 0 0 0 0 0 0 0 0 0 0 0 0 0 0 0 6
S 682 3 0 0 0 6 0 1 0 0 0 A 0 0 0 0 0 0 0 0 0 29 0 0 0 0 0 0 0 0 0 0 0 0 0 0 0 0 0 0 6
S 683 8 5 0 0 116 1 582 5283 40822004 1220 A 0 0 0 0 0 0 0 104 0 0 0 0 0 0 0 0 0 0 0 0 0 0 0 582 0 0 0 0 paw_variables$paw_info$td
S 684 8 5 0 0 119 1 582 5309 40822004 1220 A 0 0 0 0 0 0 0 56 0 0 0 0 0 0 0 0 0 0 0 0 0 0 0 582 0 0 0 0 paw_variables$paw_radial_integrator$td
S 685 11 0 0 0 9 1 582 5348 40800008 801000 A 0 0 0 0 0 8 0 0 594 596 0 0 0 0 0 0 0 0 0 0 0 0 0 0 0 0 0 0 _paw_variables$8
S 686 11 0 0 0 9 685 582 5365 40800008 801000 A 0 0 0 0 0 8 0 0 597 597 0 0 0 0 0 0 0 0 0 0 0 0 0 0 0 0 0 0 _paw_variables$10
S 687 11 0 0 0 9 686 582 5383 40800000 801000 A 0 0 0 0 0 284 0 0 662 674 0 0 0 0 0 0 0 0 0 0 0 0 0 0 0 0 0 0 _paw_variables$0
A 13 2 0 0 0 6 585 0 0 0 13 0 0 0 0 0 0 0 0 0
A 17 2 0 0 0 16 595 0 0 0 17 0 0 0 0 0 0 0 0 0
A 18 1 0 0 0 16 594 0 0 0 0 0 0 0 0 0 0 0 0 0
A 19 1 0 0 0 16 596 0 0 0 0 0 0 0 0 0 0 0 0 0
A 20 2 0 0 0 9 577 0 0 0 20 0 0 0 0 0 0 0 0 0
A 21 1 0 0 0 9 597 0 0 0 0 0 0 0 0 0 0 0 0 0
A 22 2 0 0 0 6 600 0 0 0 22 0 0 0 0 0 0 0 0 0
A 25 2 0 0 0 6 603 0 0 0 25 0 0 0 0 0 0 0 0 0
A 29 2 0 0 0 6 612 0 0 0 29 0 0 0 0 0 0 0 0 0
A 30 2 0 0 0 6 617 0 0 0 30 0 0 0 0 0 0 0 0 0
A 31 1 0 1 0 65 613 0 0 0 0 0 0 0 0 0 0 0 0 0
A 32 10 0 0 0 6 31 1 0 0 0 0 0 0 0 0 0 0 0 0
X 1 30
A 33 2 0 0 0 6 618 0 0 0 33 0 0 0 0 0 0 0 0 0
A 34 10 0 0 32 6 31 4 0 0 0 0 0 0 0 0 0 0 0 0
X 1 33
A 35 4 0 0 0 6 34 0 3 0 0 0 0 2 0 0 0 0 0 0
A 36 4 0 0 0 6 32 0 35 0 0 0 0 1 0 0 0 0 0 0
A 37 2 0 0 0 6 619 0 0 0 37 0 0 0 0 0 0 0 0 0
A 38 10 0 0 34 6 31 7 0 0 0 0 0 0 0 0 0 0 0 0
X 1 37
A 39 2 0 0 0 6 620 0 0 0 39 0 0 0 0 0 0 0 0 0
A 40 10 0 0 38 6 31 10 0 0 0 0 0 0 0 0 0 0 0 0
X 1 39
A 41 10 0 0 40 6 31 13 0 0 0 0 0 0 0 0 0 0 0 0
X 1 13
A 44 2 0 0 0 6 624 0 0 0 44 0 0 0 0 0 0 0 0 0
A 45 1 0 3 0 71 625 0 0 0 0 0 0 0 0 0 0 0 0 0
A 46 10 0 0 0 6 45 1 0 0 0 0 0 0 0 0 0 0 0 0
X 1 30
A 47 10 0 0 46 6 45 4 0 0 0 0 0 0 0 0 0 0 0 0
X 1 33
A 48 4 0 0 0 6 47 0 3 0 0 0 0 2 0 0 0 0 0 0
A 49 4 0 0 0 6 46 0 48 0 0 0 0 1 0 0 0 0 0 0
A 50 2 0 0 0 6 629 0 0 0 50 0 0 0 0 0 0 0 0 0
A 51 10 0 0 47 6 45 16 0 0 0 0 0 0 0 0 0 0 0 0
X 1 50
A 52 2 0 0 0 6 630 0 0 0 52 0 0 0 0 0 0 0 0 0
A 53 10 0 0 51 6 45 19 0 0 0 0 0 0 0 0 0 0 0 0
X 1 52
A 54 4 0 0 0 6 53 0 3 0 0 0 0 2 0 0 0 0 0 0
A 55 4 0 0 0 6 51 0 54 0 0 0 0 1 0 0 0 0 0 0
A 56 10 0 0 53 6 45 7 0 0 0 0 0 0 0 0 0 0 0 0
X 1 37
A 57 2 0 0 0 6 631 0 0 0 57 0 0 0 0 0 0 0 0 0
A 58 10 0 0 56 6 45 22 0 0 0 0 0 0 0 0 0 0 0 0
X 1 57
A 59 10 0 0 58 6 45 10 0 0 0 0 0 0 0 0 0 0 0 0
X 1 39
A 60 10 0 0 59 6 45 13 0 0 0 0 0 0 0 0 0 0 0 0
X 1 13
A 63 1 0 3 0 77 635 0 0 0 0 0 0 0 0 0 0 0 0 0
A 64 10 0 0 0 6 63 1 0 0 0 0 0 0 0 0 0 0 0 0
X 1 30
A 65 10 0 0 64 6 63 4 0 0 0 0 0 0 0 0 0 0 0 0
X 1 33
A 66 4 0 0 0 6 65 0 3 0 0 0 0 2 0 0 0 0 0 0
A 67 4 0 0 13 6 64 0 66 0 0 0 0 1 0 0 0 0 0 0
A 68 10 0 0 65 6 63 16 0 0 0 0 0 0 0 0 0 0 0 0
X 1 50
A 69 10 0 0 68 6 63 19 0 0 0 0 0 0 0 0 0 0 0 0
X 1 52
A 70 4 0 0 0 6 69 0 3 0 0 0 0 2 0 0 0 0 0 0
A 71 4 0 0 0 6 68 0 70 0 0 0 0 1 0 0 0 0 0 0
A 72 10 0 0 69 6 63 7 0 0 0 0 0 0 0 0 0 0 0 0
X 1 37
A 73 10 0 0 72 6 63 22 0 0 0 0 0 0 0 0 0 0 0 0
X 1 57
A 74 10 0 0 73 6 63 10 0 0 0 0 0 0 0 0 0 0 0 0
X 1 39
A 75 10 0 0 74 6 63 13 0 0 0 0 0 0 0 0 0 0 0 0
X 1 13
A 78 1 0 3 0 83 642 0 0 0 0 0 0 0 0 0 0 0 0 0
A 79 10 0 0 0 6 78 1 0 0 0 0 0 0 0 0 0 0 0 0
X 1 30
A 80 10 0 0 79 6 78 4 0 0 0 0 0 0 0 0 0 0 0 0
X 1 33
A 81 4 0 0 2 6 80 0 3 0 0 0 0 2 0 0 0 0 0 0
A 82 4 0 0 0 6 79 0 81 0 0 0 0 1 0 0 0 0 0 0
A 83 10 0 0 80 6 78 16 0 0 0 0 0 0 0 0 0 0 0 0
X 1 50
A 84 10 0 0 83 6 78 19 0 0 0 0 0 0 0 0 0 0 0 0
X 1 52
A 85 4 0 0 0 6 84 0 3 0 0 0 0 2 0 0 0 0 0 0
A 86 4 0 0 60 6 83 0 85 0 0 0 0 1 0 0 0 0 0 0
A 87 10 0 0 84 6 78 7 0 0 0 0 0 0 0 0 0 0 0 0
X 1 37
A 88 10 0 0 87 6 78 22 0 0 0 0 0 0 0 0 0 0 0 0
X 1 57
A 89 10 0 0 88 6 78 10 0 0 0 0 0 0 0 0 0 0 0 0
X 1 39
A 90 10 0 0 89 6 78 13 0 0 0 0 0 0 0 0 0 0 0 0
X 1 13
A 93 1 0 3 18 89 649 0 0 0 0 0 0 0 0 0 0 0 0 0
A 94 10 0 0 49 6 93 1 0 0 0 0 0 0 0 0 0 0 0 0
X 1 30
A 95 10 0 0 94 6 93 4 0 0 0 0 0 0 0 0 0 0 0 0
X 1 33
A 96 4 0 0 0 6 95 0 3 0 0 0 0 2 0 0 0 0 0 0
A 97 4 0 0 0 6 94 0 96 0 0 0 0 1 0 0 0 0 0 0
A 98 10 0 0 95 6 93 16 0 0 0 0 0 0 0 0 0 0 0 0
X 1 50
A 99 10 0 0 98 6 93 19 0 0 0 0 0 0 0 0 0 0 0 0
X 1 52
A 100 4 0 0 0 6 99 0 3 0 0 0 0 2 0 0 0 0 0 0
A 101 4 0 0 0 6 98 0 100 0 0 0 0 1 0 0 0 0 0 0
A 102 10 0 0 99 6 93 7 0 0 0 0 0 0 0 0 0 0 0 0
X 1 37
A 103 10 0 0 102 6 93 22 0 0 0 0 0 0 0 0 0 0 0 0
X 1 57
A 104 10 0 0 103 6 93 10 0 0 0 0 0 0 0 0 0 0 0 0
X 1 39
A 105 10 0 0 104 6 93 13 0 0 0 0 0 0 0 0 0 0 0 0
X 1 13
A 107 1 0 1 0 95 655 0 0 0 0 0 0 0 0 0 0 0 0 0
A 108 10 0 0 0 6 107 1 0 0 0 0 0 0 0 0 0 0 0 0
X 1 30
A 109 10 0 0 108 6 107 4 0 0 0 0 0 0 0 0 0 0 0 0
X 1 33
A 110 4 0 0 0 6 109 0 3 0 0 0 0 2 0 0 0 0 0 0
A 111 4 0 0 0 6 108 0 110 0 0 0 0 1 0 0 0 0 0 0
A 112 10 0 0 109 6 107 7 0 0 0 0 0 0 0 0 0 0 0 0
X 1 37
A 113 10 0 0 112 6 107 10 0 0 0 0 0 0 0 0 0 0 0 0
X 1 39
A 114 10 0 0 113 6 107 13 0 0 0 0 0 0 0 0 0 0 0 0
X 1 13
A 116 1 0 1 0 101 661 0 0 0 0 0 0 0 0 0 0 0 0 0
A 117 10 0 0 0 6 116 1 0 0 0 0 0 0 0 0 0 0 0 0
X 1 30
A 118 10 0 0 117 6 116 4 0 0 0 0 0 0 0 0 0 0 0 0
X 1 33
A 119 4 0 0 71 6 118 0 3 0 0 0 0 2 0 0 0 0 0 0
A 120 4 0 0 0 6 117 0 119 0 0 0 0 1 0 0 0 0 0 0
A 121 10 0 0 118 6 116 7 0 0 0 0 0 0 0 0 0 0 0 0
X 1 37
A 122 10 0 0 121 6 116 10 0 0 0 0 0 0 0 0 0 0 0 0
X 1 39
A 123 10 0 0 122 6 116 13 0 0 0 0 0 0 0 0 0 0 0 0
X 1 13
A 127 2 0 0 0 6 675 0 0 0 127 0 0 0 0 0 0 0 0 0
A 128 1 0 5 0 113 676 0 0 0 0 0 0 0 0 0 0 0 0 0
A 129 10 0 0 61 6 128 1 0 0 0 0 0 0 0 0 0 0 0 0
X 1 30
A 130 10 0 0 129 6 128 4 0 0 0 0 0 0 0 0 0 0 0 0
X 1 33
A 131 4 0 0 37 6 130 0 3 0 0 0 0 2 0 0 0 0 0 0
A 132 4 0 0 0 6 129 0 131 0 0 0 0 1 0 0 0 0 0 0
A 133 10 0 0 130 6 128 16 0 0 0 0 0 0 0 0 0 0 0 0
X 1 50
A 134 10 0 0 133 6 128 19 0 0 0 0 0 0 0 0 0 0 0 0
X 1 52
A 135 4 0 0 0 6 134 0 3 0 0 0 0 2 0 0 0 0 0 0
A 136 4 0 0 0 6 133 0 135 0 0 0 0 1 0 0 0 0 0 0
A 137 2 0 0 0 6 680 0 0 0 137 0 0 0 0 0 0 0 0 0
A 138 10 0 0 134 6 128 25 0 0 0 0 0 0 0 0 0 0 0 0
X 1 137
A 139 2 0 0 0 6 681 0 0 0 139 0 0 0 0 0 0 0 0 0
A 140 10 0 0 138 6 128 28 0 0 0 0 0 0 0 0 0 0 0 0
X 1 139
A 141 4 0 0 50 6 140 0 3 0 0 0 0 2 0 0 0 0 0 0
A 142 4 0 0 0 6 138 0 141 0 0 0 0 1 0 0 0 0 0 0
A 143 10 0 0 140 6 128 7 0 0 0 0 0 0 0 0 0 0 0 0
X 1 37
A 144 10 0 0 143 6 128 22 0 0 0 0 0 0 0 0 0 0 0 0
X 1 57
A 145 2 0 0 0 6 682 0 0 0 145 0 0 0 0 0 0 0 0 0
A 146 10 0 0 144 6 128 31 0 0 0 0 0 0 0 0 0 0 0 0
X 1 145
A 147 10 0 0 146 6 128 10 0 0 0 0 0 0 0 0 0 0 0 0
X 1 39
A 148 10 0 0 147 6 128 13 0 0 0 0 0 0 0 0 0 0 0 0
X 1 13
Z
Z
