V26 printout_base
17 printout_base.F90 S582 0
04/24/2012  15:51:15
enduse
D 56 18 12
D 58 18 13
D 60 21 58 1 14 16 0 0 0 0 0
 14 15 3 14 15 16
D 63 18 13
D 65 21 9 2 17 23 1 1 0 0 1
 3 18 3 3 18 19
 3 20 21 3 20 22
D 68 18 24
D 70 21 68 1 25 28 1 1 0 0 1
 3 26 3 3 26 27
D 73 21 6 1 29 32 1 1 0 0 1
 3 30 3 3 30 31
D 76 21 9 2 33 34 0 0 0 0 0
 0 24 3 3 24 24
 0 24 24 3 24 24
D 79 21 9 2 33 34 0 0 0 0 0
 0 24 3 3 24 24
 0 24 24 3 24 24
S 582 24 0 0 0 9 1 0 4658 10005 0 A 0 0 0 0 0 0 0 0 0 0 0 0 0 0 0 0 0 0 0 0 0 14 0 0 0 0 0 0 printout_base
S 583 3 0 0 0 6 0 1 0 0 0 A 0 0 0 0 0 0 0 0 0 75 0 0 0 0 0 0 0 0 0 0 0 0 0 0 0 0 0 0 6
S 584 6 4 0 0 56 586 582 4672 4 0 A 0 0 0 0 0 0 0 0 0 0 0 0 591 0 0 0 0 0 0 0 0 0 0 582 0 0 0 0 title
S 585 3 0 0 0 6 1 1 0 0 0 A 0 0 0 0 0 0 0 0 0 256 0 0 0 0 0 0 0 0 0 0 0 0 0 0 0 0 0 0 6
S 586 7 4 0 4 60 590 582 4678 800004 100 A 0 0 0 0 0 80 0 0 0 0 0 0 591 0 0 0 0 0 0 0 0 0 0 582 0 0 0 0 fort_unit
S 587 3 0 0 0 6 0 1 0 0 0 A 0 0 0 0 0 0 0 0 0 30 0 0 0 0 0 0 0 0 0 0 0 0 0 0 0 0 0 0 6
S 588 3 0 0 0 6 0 1 0 0 0 A 0 0 0 0 0 0 0 0 0 42 0 0 0 0 0 0 0 0 0 0 0 0 0 0 0 0 0 0 6
S 589 3 0 0 0 6 0 1 0 0 0 A 0 0 0 0 0 0 0 0 0 13 0 0 0 0 0 0 0 0 0 0 0 0 0 0 0 0 0 0 6
S 590 6 4 0 0 58 1 582 4688 4 0 A 0 0 0 0 0 3408 0 0 0 0 0 0 591 0 0 0 0 0 0 0 0 0 0 582 0 0 0 0 pprefix
S 591 11 0 0 4 9 1 582 4696 40800000 801000 A 0 0 0 0 0 3664 0 0 584 590 0 0 0 0 0 0 0 0 0 0 0 0 0 0 0 0 0 0 _printout_base$1
S 592 23 5 0 0 0 595 582 4713 0 0 A 0 0 0 0 0 0 0 0 0 0 0 0 0 0 0 0 0 0 0 0 0 0 0 0 0 0 0 0 printout_base_init
S 593 1 3 1 0 28 1 592 4732 4 43000 A 0 0 0 0 0 0 0 0 0 0 0 0 0 0 0 0 0 0 0 0 0 0 0 0 0 0 0 0 outdir
S 594 1 3 1 0 28 1 592 4739 4 43000 A 0 0 0 0 0 0 0 0 0 0 0 0 0 0 0 0 0 0 0 0 0 0 0 0 0 0 0 0 prefix
S 595 14 5 0 0 0 1 592 4713 0 400000 A 0 0 0 0 0 0 0 2 2 0 0 0 0 0 0 0 0 0 0 0 0 31 0 582 0 0 0 0 printout_base_init
F 595 2 593 594
S 596 23 5 0 0 0 598 582 4746 0 0 A 0 0 0 0 0 0 0 0 0 0 0 0 0 0 0 0 0 0 0 0 0 0 0 0 0 0 0 0 printout_base_open
S 597 1 3 1 0 28 1 596 4765 80000004 43000 A 0 0 0 0 0 0 0 0 0 0 0 0 0 0 0 0 0 0 0 0 0 0 0 0 0 0 0 0 suffix
S 598 14 5 0 0 0 1 596 4746 0 400000 A 0 0 0 0 0 0 0 5 1 0 0 0 0 0 0 0 0 0 0 0 0 83 0 582 0 0 0 0 printout_base_open
F 598 1 597
S 599 23 5 0 0 9 601 582 4772 0 0 A 0 0 0 0 0 0 0 0 0 0 0 0 0 0 0 0 0 0 0 0 0 0 0 0 0 0 0 0 printout_base_unit
S 600 1 3 1 0 28 1 599 4765 4 43000 A 0 0 0 0 0 0 0 0 0 0 0 0 0 0 0 0 0 0 0 0 0 0 0 0 0 0 0 0 suffix
S 601 14 5 0 0 6 1 599 4772 4 400000 A 0 0 0 0 0 0 0 7 1 0 0 602 0 0 0 0 0 0 0 0 0 111 0 582 0 0 0 0 printout_base_unit
F 601 1 600
S 602 1 3 0 0 6 1 599 4772 4 1003000 A 0 0 0 0 0 0 0 0 0 0 0 0 0 0 0 0 0 0 0 0 0 0 0 0 0 0 0 0 printout_base_unit
S 603 23 5 0 0 9 605 582 4791 0 0 A 0 0 0 0 0 0 0 0 0 0 0 0 0 0 0 0 0 0 0 0 0 0 0 0 0 0 0 0 printout_base_name
S 604 1 3 1 0 28 1 603 4765 4 43000 A 0 0 0 0 0 0 0 0 0 0 0 0 0 0 0 0 0 0 0 0 0 0 0 0 0 0 0 0 suffix
S 605 14 5 0 0 63 1 603 4791 4 400000 A 0 0 0 0 0 0 0 9 1 0 0 606 0 0 0 0 0 0 0 0 0 132 0 582 0 0 0 0 printout_base_name
F 605 1 604
S 606 1 3 0 0 63 1 603 4791 4 1003000 A 0 0 0 0 0 0 0 0 0 0 0 0 0 0 0 0 0 0 0 0 0 0 0 0 0 0 0 0 printout_base_name
S 607 23 5 0 0 0 609 582 4810 0 0 A 0 0 0 0 0 0 0 0 0 0 0 0 0 0 0 0 0 0 0 0 0 0 0 0 0 0 0 0 printout_base_close
S 608 1 3 1 0 28 1 607 4765 80000004 43000 A 0 0 0 0 0 0 0 0 0 0 0 0 0 0 0 0 0 0 0 0 0 0 0 0 0 0 0 0 suffix
S 609 14 5 0 0 0 1 607 4810 0 400000 A 0 0 0 0 0 0 0 11 1 0 0 0 0 0 0 0 0 0 0 0 0 154 0 582 0 0 0 0 printout_base_close
F 609 1 608
S 610 23 5 0 0 0 621 582 4830 0 0 A 0 0 0 0 0 0 0 0 0 0 0 0 0 0 0 0 0 0 0 0 0 0 0 0 0 0 0 0 printout_pos
S 611 1 3 1 0 6 1 610 4843 4 3000 A 0 0 0 0 0 0 0 0 0 0 0 0 0 0 0 0 0 0 0 0 0 0 0 0 0 0 0 0 iunit
S 612 7 3 1 0 65 1 610 4849 20000004 10003000 A 0 0 0 0 0 0 0 0 0 0 0 0 0 0 0 0 0 0 0 0 0 0 0 0 0 0 0 0 tau
S 613 1 3 1 0 6 1 610 4853 4 3000 A 0 0 0 0 0 0 0 0 0 0 0 0 0 0 0 0 0 0 0 0 0 0 0 0 0 0 0 0 nat
S 614 1 3 1 0 68 1 610 4857 80000004 3000 A 0 0 0 0 0 0 0 0 0 0 0 0 0 0 0 0 0 0 0 0 0 0 0 0 0 0 0 0 what
S 615 1 3 1 0 6 1 610 4862 80000004 3000 A 0 0 0 0 0 0 0 0 0 0 0 0 0 0 0 0 0 0 0 0 0 0 0 0 0 0 0 0 nfi
S 616 1 3 1 0 9 1 610 4866 80000004 3000 A 0 0 0 0 0 0 0 0 0 0 0 0 0 0 0 0 0 0 0 0 0 0 0 0 0 0 0 0 tps
S 617 7 3 1 0 70 1 610 4870 a0000004 10003000 A 0 0 0 0 0 0 0 0 0 0 0 0 0 0 0 0 0 0 0 0 0 0 0 0 0 0 0 0 label
S 618 1 3 1 0 9 1 610 4876 80000004 3000 A 0 0 0 0 0 0 0 0 0 0 0 0 0 0 0 0 0 0 0 0 0 0 0 0 0 0 0 0 fact
S 619 7 3 1 0 73 1 610 4881 a0000004 10003000 A 0 0 0 0 0 0 0 0 0 0 0 0 0 0 0 0 0 0 0 0 0 0 0 0 0 0 0 0 sort
S 620 1 3 1 0 28 1 610 4886 80000004 43000 A 0 0 0 0 0 0 0 0 0 0 0 0 0 0 0 0 0 0 0 0 0 0 0 0 0 0 0 0 head
S 621 14 5 0 0 0 1 610 4830 20000000 400000 A 0 0 0 0 0 0 0 13 10 0 0 0 0 0 0 0 0 0 0 0 0 185 0 582 0 0 0 0 printout_pos
F 621 10 611 612 613 614 615 616 617 618 619 620
S 622 6 1 0 0 6 1 610 4891 40800006 3000 A 0 0 0 0 0 0 0 0 0 0 0 0 0 0 0 0 0 0 0 0 0 0 0 0 0 0 0 0 z_b_0
S 623 6 1 0 0 6 1 610 4897 40800006 3000 A 0 0 0 0 0 0 0 0 0 0 0 0 0 0 0 0 0 0 0 0 0 0 0 0 0 0 0 0 z_b_2
S 624 6 1 0 0 6 1 610 4903 40800006 3000 A 0 0 0 0 0 0 0 0 0 0 0 0 0 0 0 0 0 0 0 0 0 0 0 0 0 0 0 0 z_b_3
S 625 6 1 0 0 6 1 610 4909 40800006 3000 A 0 0 0 0 0 0 0 0 0 0 0 0 0 0 0 0 0 0 0 0 0 0 0 0 0 0 0 0 z_b_5
S 626 6 1 0 0 6 1 610 4915 40800006 3000 A 0 0 0 0 0 0 0 0 0 0 0 0 0 0 0 0 0 0 0 0 0 0 0 0 0 0 0 0 z_b_6
S 627 6 1 0 0 6 1 610 4921 40800006 3000 A 0 0 0 0 0 0 0 0 0 0 0 0 0 0 0 0 0 0 0 0 0 0 0 0 0 0 0 0 z_e_30
S 628 6 1 0 0 6 1 610 4928 40800006 3000 A 0 0 0 0 0 0 0 0 0 0 0 0 0 0 0 0 0 0 0 0 0 0 0 0 0 0 0 0 z_e_33
S 629 3 0 0 0 6 1 1 0 0 0 A 0 0 0 0 0 0 0 0 0 3 0 0 0 0 0 0 0 0 0 0 0 0 0 0 0 0 0 0 6
S 630 6 1 0 0 6 1 610 4935 40800006 3000 A 0 0 0 0 0 0 0 0 0 0 0 0 0 0 0 0 0 0 0 0 0 0 0 0 0 0 0 0 z_b_7
S 631 6 1 0 0 6 1 610 4941 40800006 3000 A 0 0 0 0 0 0 0 0 0 0 0 0 0 0 0 0 0 0 0 0 0 0 0 0 0 0 0 0 z_b_9
S 632 6 1 0 0 6 1 610 4947 40800006 3000 A 0 0 0 0 0 0 0 0 0 0 0 0 0 0 0 0 0 0 0 0 0 0 0 0 0 0 0 0 z_b_10
S 633 6 1 0 0 6 1 610 4954 40800006 3000 A 0 0 0 0 0 0 0 0 0 0 0 0 0 0 0 0 0 0 0 0 0 0 0 0 0 0 0 0 z_e_41
S 634 6 1 0 0 6 1 610 4961 40800006 3000 A 0 0 0 0 0 0 0 0 0 0 0 0 0 0 0 0 0 0 0 0 0 0 0 0 0 0 0 0 z_b_11
S 635 6 1 0 0 6 1 610 4968 40800006 3000 A 0 0 0 0 0 0 0 0 0 0 0 0 0 0 0 0 0 0 0 0 0 0 0 0 0 0 0 0 z_b_13
S 636 6 1 0 0 6 1 610 4975 40800006 3000 A 0 0 0 0 0 0 0 0 0 0 0 0 0 0 0 0 0 0 0 0 0 0 0 0 0 0 0 0 z_b_14
S 637 6 1 0 0 6 1 610 4982 40800006 3000 A 0 0 0 0 0 0 0 0 0 0 0 0 0 0 0 0 0 0 0 0 0 0 0 0 0 0 0 0 z_e_48
S 638 23 5 0 0 0 643 582 4989 0 0 A 0 0 0 0 0 0 0 0 0 0 0 0 0 0 0 0 0 0 0 0 0 0 0 0 0 0 0 0 printout_cell
S 639 1 3 1 0 6 1 638 4843 4 3000 A 0 0 0 0 0 0 0 0 0 0 0 0 0 0 0 0 0 0 0 0 0 0 0 0 0 0 0 0 iunit
S 640 7 3 1 0 76 1 638 5003 800004 3000 A 0 0 0 0 0 0 0 0 0 0 0 0 0 0 0 0 0 0 0 0 0 0 0 0 0 0 0 0 h
S 641 1 3 1 0 6 1 638 4862 80000004 3000 A 0 0 0 0 0 0 0 0 0 0 0 0 0 0 0 0 0 0 0 0 0 0 0 0 0 0 0 0 nfi
S 642 1 3 1 0 9 1 638 4866 80000004 3000 A 0 0 0 0 0 0 0 0 0 0 0 0 0 0 0 0 0 0 0 0 0 0 0 0 0 0 0 0 tps
S 643 14 5 0 0 0 1 638 4989 0 400000 A 0 0 0 0 0 0 0 24 4 0 0 0 0 0 0 0 0 0 0 0 0 255 0 582 0 0 0 0 printout_cell
F 643 4 639 640 641 642
S 644 3 0 0 0 6 1 1 0 0 0 A 0 0 0 0 0 0 0 0 0 4 0 0 0 0 0 0 0 0 0 0 0 0 0 0 0 0 0 0 6
S 645 3 0 0 0 6 1 1 0 0 0 A 0 0 0 0 0 0 0 0 0 9 0 0 0 0 0 0 0 0 0 0 0 0 0 0 0 0 0 0 6
S 646 23 5 0 0 0 651 582 5005 0 0 A 0 0 0 0 0 0 0 0 0 0 0 0 0 0 0 0 0 0 0 0 0 0 0 0 0 0 0 0 printout_stress
S 647 1 3 1 0 6 1 646 4843 4 3000 A 0 0 0 0 0 0 0 0 0 0 0 0 0 0 0 0 0 0 0 0 0 0 0 0 0 0 0 0 iunit
S 648 7 3 1 0 79 1 646 5021 800004 3000 A 0 0 0 0 0 0 0 0 0 0 0 0 0 0 0 0 0 0 0 0 0 0 0 0 0 0 0 0 str
S 649 1 3 1 0 6 1 646 4862 80000004 3000 A 0 0 0 0 0 0 0 0 0 0 0 0 0 0 0 0 0 0 0 0 0 0 0 0 0 0 0 0 nfi
S 650 1 3 1 0 9 1 646 4866 80000004 3000 A 0 0 0 0 0 0 0 0 0 0 0 0 0 0 0 0 0 0 0 0 0 0 0 0 0 0 0 0 tps
S 651 14 5 0 0 0 1 646 5005 0 400000 A 0 0 0 0 0 0 0 29 4 0 0 0 0 0 0 0 0 0 0 0 0 284 0 582 0 0 0 0 printout_stress
F 651 4 647 648 649 650
A 12 2 0 0 0 6 583 0 0 0 12 0 0 0 0 0 0 0 0 0
A 13 2 0 0 0 6 585 0 0 0 13 0 0 0 0 0 0 0 0 0
A 14 2 0 0 0 6 587 0 0 0 14 0 0 0 0 0 0 0 0 0
A 15 2 0 0 0 6 588 0 0 0 15 0 0 0 0 0 0 0 0 0
A 16 2 0 0 0 6 589 0 0 0 16 0 0 0 0 0 0 0 0 0
A 17 1 0 0 0 6 626 0 0 0 0 0 0 0 0 0 0 0 0 0
A 18 1 0 0 0 6 622 0 0 0 0 0 0 0 0 0 0 0 0 0
A 19 1 0 0 0 6 627 0 0 0 0 0 0 0 0 0 0 0 0 0
A 20 1 0 0 0 6 624 0 0 0 0 0 0 0 0 0 0 0 0 0
A 21 1 0 0 0 6 623 0 0 0 0 0 0 0 0 0 0 0 0 0
A 22 1 0 0 0 6 628 0 0 0 0 0 0 0 0 0 0 0 0 0
A 23 1 0 0 0 6 625 0 0 0 0 0 0 0 0 0 0 0 0 0
A 24 2 0 0 0 6 629 0 0 0 24 0 0 0 0 0 0 0 0 0
A 25 1 0 0 0 6 632 0 0 0 0 0 0 0 0 0 0 0 0 0
A 26 1 0 0 0 6 630 0 0 0 0 0 0 0 0 0 0 0 0 0
A 27 1 0 0 0 6 633 0 0 0 0 0 0 0 0 0 0 0 0 0
A 28 1 0 0 0 6 631 0 0 0 0 0 0 0 0 0 0 0 0 0
A 29 1 0 0 0 6 636 0 0 0 0 0 0 0 0 0 0 0 0 0
A 30 1 0 0 0 6 634 0 0 0 0 0 0 0 0 0 0 0 0 0
A 31 1 0 0 0 6 637 0 0 0 0 0 0 0 0 0 0 0 0 0
A 32 1 0 0 0 6 635 0 0 0 0 0 0 0 0 0 0 0 0 0
A 33 2 0 0 0 6 644 0 0 0 33 0 0 0 0 0 0 0 0 0
A 34 2 0 0 0 6 645 0 0 0 34 0 0 0 0 0 0 0 0 0
Z
Z
