V26 pseudo_types
16 pseudo_types.F90 S582 0
04/24/2012  15:51:12
use radial_grids private
use kinds private
use radial_grids private
use kinds private
enduse
D 56 24 606 656 605 7
D 128 24 723 712 722 7
D 134 21 9 1 95 94 0 1 0 0 1
 89 92 93 89 92 90
D 137 21 6 1 0 19 0 0 0 0 0
 0 19 0 3 19 0
D 140 21 9 3 123 122 0 1 0 0 1
 101 104 117 101 104 102
 106 110 119 106 110 108
 112 116 121 112 116 114
D 143 21 6 1 0 99 0 0 0 0 0
 0 99 0 3 99 0
D 146 21 9 3 144 143 0 1 0 0 1
 128 131 140 128 131 129
 132 135 141 132 135 133
 136 139 142 136 139 137
D 149 21 6 1 0 99 0 0 0 0 0
 0 99 0 3 99 0
D 152 21 9 1 153 152 0 1 0 0 1
 147 150 151 147 150 148
D 155 21 6 1 0 19 0 0 0 0 0
 0 19 0 3 19 0
D 158 21 9 1 162 161 0 1 0 0 1
 156 159 160 156 159 157
D 161 21 6 1 0 19 0 0 0 0 0
 0 19 0 3 19 0
D 164 21 9 3 183 182 0 1 0 0 1
 167 170 179 167 170 168
 171 174 180 171 174 172
 175 178 181 175 178 176
D 167 21 6 1 0 99 0 0 0 0 0
 0 99 0 3 99 0
D 170 18 184
D 172 24 781 5360 778 7
D 178 18 2
D 180 18 185
D 182 18 187
D 184 18 107
D 186 18 188
D 188 18 189
D 190 21 6 1 198 197 0 1 0 0 1
 192 195 196 192 195 193
D 193 21 6 1 0 19 0 0 0 0 0
 0 19 0 3 19 0
D 196 21 6 1 207 206 0 1 0 0 1
 201 204 205 201 204 202
D 199 21 6 1 0 19 0 0 0 0 0
 0 19 0 3 19 0
D 202 21 9 2 223 222 0 1 0 0 1
 212 215 220 212 215 213
 216 219 221 216 219 217
D 205 21 6 1 0 210 0 0 0 0 0
 0 210 0 3 210 0
D 208 21 182 1 232 231 0 1 0 0 1
 226 229 230 226 229 227
D 211 21 6 1 0 19 0 0 0 0 0
 0 19 0 3 19 0
D 214 21 182 1 241 240 0 1 0 0 1
 235 238 239 235 238 236
D 217 21 6 1 0 19 0 0 0 0 0
 0 19 0 3 19 0
D 220 21 6 1 250 249 0 1 0 0 1
 244 247 248 244 247 245
D 223 21 6 1 0 19 0 0 0 0 0
 0 19 0 3 19 0
D 226 21 6 1 259 258 0 1 0 0 1
 253 256 257 253 256 254
D 229 21 6 1 0 19 0 0 0 0 0
 0 19 0 3 19 0
D 232 21 9 1 268 267 0 1 0 0 1
 262 265 266 262 265 263
D 235 21 6 1 0 19 0 0 0 0 0
 0 19 0 3 19 0
D 238 21 9 1 277 276 0 1 0 0 1
 271 274 275 271 274 272
D 241 21 6 1 0 19 0 0 0 0 0
 0 19 0 3 19 0
D 244 21 9 1 286 285 0 1 0 0 1
 280 283 284 280 283 281
D 247 21 6 1 0 19 0 0 0 0 0
 0 19 0 3 19 0
D 250 21 9 1 295 294 0 1 0 0 1
 289 292 293 289 292 290
D 253 21 6 1 0 19 0 0 0 0 0
 0 19 0 3 19 0
D 256 21 9 2 310 309 0 1 0 0 1
 299 302 307 299 302 300
 303 306 308 303 306 304
D 259 21 6 1 0 210 0 0 0 0 0
 0 210 0 3 210 0
D 262 21 9 1 319 318 0 1 0 0 1
 313 316 317 313 316 314
D 265 21 6 1 0 19 0 0 0 0 0
 0 19 0 3 19 0
D 268 21 9 1 328 327 0 1 0 0 1
 322 325 326 322 325 323
D 271 21 6 1 0 19 0 0 0 0 0
 0 19 0 3 19 0
D 274 21 9 1 337 336 0 1 0 0 1
 331 334 335 331 334 332
D 277 21 6 1 0 19 0 0 0 0 0
 0 19 0 3 19 0
D 280 21 9 1 346 345 0 1 0 0 1
 340 343 344 340 343 341
D 283 21 6 1 0 19 0 0 0 0 0
 0 19 0 3 19 0
D 286 21 9 1 355 354 0 1 0 0 1
 349 352 353 349 352 350
D 289 21 6 1 0 19 0 0 0 0 0
 0 19 0 3 19 0
D 292 21 9 2 370 369 0 1 0 0 1
 359 362 367 359 362 360
 363 366 368 363 366 364
D 295 21 6 1 0 210 0 0 0 0 0
 0 210 0 3 210 0
D 298 21 9 1 379 378 0 1 0 0 1
 373 376 377 373 376 374
D 301 21 6 1 0 19 0 0 0 0 0
 0 19 0 3 19 0
D 304 21 9 2 394 393 0 1 0 0 1
 383 386 391 383 386 384
 387 390 392 387 390 388
D 307 21 6 1 0 210 0 0 0 0 0
 0 210 0 3 210 0
D 310 21 9 2 409 408 0 1 0 0 1
 398 401 406 398 401 399
 402 405 407 402 405 403
D 313 21 6 1 0 210 0 0 0 0 0
 0 210 0 3 210 0
D 316 21 9 3 430 429 0 1 0 0 1
 414 417 426 414 417 415
 418 421 427 418 421 419
 422 425 428 422 425 423
D 319 21 6 1 0 99 0 0 0 0 0
 0 99 0 3 99 0
D 322 21 9 4 461 460 0 1 0 0 1
 437 440 455 437 440 438
 441 444 456 441 444 442
 445 448 457 445 448 446
 450 454 459 450 454 452
D 325 21 6 1 0 435 0 0 0 0 0
 0 435 0 3 435 0
D 328 21 9 2 476 475 0 1 0 0 1
 465 468 473 465 468 466
 469 472 474 469 472 470
D 331 21 6 1 0 210 0 0 0 0 0
 0 210 0 3 210 0
D 334 21 9 2 491 490 0 1 0 0 1
 480 483 488 480 483 481
 484 487 489 484 487 485
D 337 21 6 1 0 210 0 0 0 0 0
 0 210 0 3 210 0
D 340 21 6 1 500 499 0 1 0 0 1
 494 497 498 494 497 495
D 343 21 6 1 0 19 0 0 0 0 0
 0 19 0 3 19 0
D 346 21 9 1 509 508 0 1 0 0 1
 503 506 507 503 506 504
D 349 21 6 1 0 19 0 0 0 0 0
 0 19 0 3 19 0
D 352 21 9 1 518 517 0 1 0 0 1
 512 515 516 512 515 513
D 355 21 6 1 0 19 0 0 0 0 0
 0 19 0 3 19 0
D 358 21 9 1 527 526 0 1 0 0 1
 521 524 525 521 524 522
D 361 21 6 1 0 19 0 0 0 0 0
 0 19 0 3 19 0
D 364 21 9 1 536 535 0 1 0 0 1
 530 533 534 530 533 531
D 367 21 6 1 0 19 0 0 0 0 0
 0 19 0 3 19 0
D 370 21 6 1 0 3 0 0 0 0 0
 0 3 0 3 3 0
D 373 21 9 1 545 544 0 1 0 0 1
 539 542 543 539 542 540
D 376 21 6 1 0 19 0 0 0 0 0
 0 19 0 3 19 0
D 379 21 9 1 554 553 0 1 0 0 1
 548 551 552 548 551 549
D 382 21 6 1 0 19 0 0 0 0 0
 0 19 0 3 19 0
D 385 21 182 1 563 562 0 1 0 0 1
 557 560 561 557 560 558
D 388 21 6 1 0 19 0 0 0 0 0
 0 19 0 3 19 0
D 391 21 9 2 578 577 0 1 0 0 1
 567 570 575 567 570 568
 571 574 576 571 574 572
D 394 21 6 1 0 210 0 0 0 0 0
 0 210 0 3 210 0
D 397 21 9 1 587 586 0 1 0 0 1
 581 584 585 581 584 582
D 400 21 6 1 0 19 0 0 0 0 0
 0 19 0 3 19 0
D 403 21 9 1 596 595 0 1 0 0 1
 590 593 594 590 593 591
D 406 21 6 1 0 19 0 0 0 0 0
 0 19 0 3 19 0
D 409 21 182 1 605 604 0 1 0 0 1
 599 602 603 599 602 600
D 412 21 6 1 0 19 0 0 0 0 0
 0 19 0 3 19 0
D 415 21 6 1 614 613 0 1 0 0 1
 608 611 612 608 611 609
D 418 21 6 1 0 19 0 0 0 0 0
 0 19 0 3 19 0
D 421 21 9 2 629 628 0 1 0 0 1
 618 621 626 618 621 619
 622 625 627 622 625 623
D 424 21 6 1 0 210 0 0 0 0 0
 0 210 0 3 210 0
D 427 21 9 1 638 637 0 1 0 0 1
 632 635 636 632 635 633
D 430 21 6 1 0 19 0 0 0 0 0
 0 19 0 3 19 0
D 433 21 9 1 647 646 0 1 0 0 1
 641 644 645 641 644 642
D 436 21 6 1 0 19 0 0 0 0 0
 0 19 0 3 19 0
D 439 21 9 2 662 661 0 1 0 0 1
 651 654 659 651 654 652
 655 658 660 655 658 656
D 442 21 6 1 0 210 0 0 0 0 0
 0 210 0 3 210 0
D 445 21 6 1 0 3 0 0 0 0 0
 0 3 0 3 3 0
D 448 21 6 1 0 3 0 0 0 0 0
 0 3 0 3 3 0
S 582 24 0 0 0 9 1 0 4658 10005 0 A 0 0 0 0 0 0 0 0 0 0 0 0 0 0 0 0 0 0 0 0 0 10 0 0 0 0 0 0 pseudo_types
S 584 23 0 0 0 9 589 582 4677 4 0 A 0 0 0 0 0 0 0 0 0 0 0 0 0 0 0 0 0 0 0 0 0 0 0 582 0 0 0 0 dp
S 586 23 0 0 0 9 605 582 4693 4 0 A 0 0 0 0 0 0 0 0 0 0 0 0 0 0 0 0 0 0 0 0 0 0 0 582 0 0 0 0 radial_grid_type
S 587 3 0 0 0 6 1 1 0 0 0 A 0 0 0 0 0 0 0 0 0 8 0 0 0 0 0 0 0 0 0 0 0 0 0 0 0 0 0 0 6
R 589 16 1 kinds dp
S 597 3 0 0 0 6 1 1 0 0 0 A 0 0 0 0 0 0 0 0 0 18 0 0 0 0 0 0 0 0 0 0 0 0 0 0 0 0 0 0 6
S 598 3 0 0 0 6 1 1 0 0 0 A 0 0 0 0 0 0 0 0 0 13 0 0 0 0 0 0 0 0 0 0 0 0 0 0 0 0 0 0 6
S 599 3 0 0 0 6 1 1 0 0 0 A 0 0 0 0 0 0 0 0 0 14 0 0 0 0 0 0 0 0 0 0 0 0 0 0 0 0 0 0 6
S 600 3 0 0 0 6 1 1 0 0 0 A 0 0 0 0 0 0 0 0 0 17 0 0 0 0 0 0 0 0 0 0 0 0 0 0 0 0 0 0 6
S 601 3 0 0 0 6 1 1 0 0 0 A 0 0 0 0 0 0 0 0 0 7 0 0 0 0 0 0 0 0 0 0 0 0 0 0 0 0 0 0 6
R 605 25 3 radial_grids radial_grid_type
R 606 5 4 radial_grids mesh radial_grid_type
R 607 5 5 radial_grids r radial_grid_type
R 609 5 7 radial_grids r$sd radial_grid_type
R 610 5 8 radial_grids r$p radial_grid_type
R 611 5 9 radial_grids r$o radial_grid_type
R 613 5 11 radial_grids r2 radial_grid_type
R 615 5 13 radial_grids r2$sd radial_grid_type
R 616 5 14 radial_grids r2$p radial_grid_type
R 617 5 15 radial_grids r2$o radial_grid_type
R 619 5 17 radial_grids rab radial_grid_type
R 621 5 19 radial_grids rab$sd radial_grid_type
R 622 5 20 radial_grids rab$p radial_grid_type
R 623 5 21 radial_grids rab$o radial_grid_type
R 625 5 23 radial_grids sqr radial_grid_type
R 627 5 25 radial_grids sqr$sd radial_grid_type
R 628 5 26 radial_grids sqr$p radial_grid_type
R 629 5 27 radial_grids sqr$o radial_grid_type
R 631 5 29 radial_grids rm1 radial_grid_type
R 633 5 31 radial_grids rm1$sd radial_grid_type
R 634 5 32 radial_grids rm1$p radial_grid_type
R 635 5 33 radial_grids rm1$o radial_grid_type
R 637 5 35 radial_grids rm2 radial_grid_type
R 639 5 37 radial_grids rm2$sd radial_grid_type
R 640 5 38 radial_grids rm2$p radial_grid_type
R 641 5 39 radial_grids rm2$o radial_grid_type
R 643 5 41 radial_grids rm3 radial_grid_type
R 645 5 43 radial_grids rm3$sd radial_grid_type
R 646 5 44 radial_grids rm3$p radial_grid_type
R 647 5 45 radial_grids rm3$o radial_grid_type
R 649 5 47 radial_grids xmin radial_grid_type
R 650 5 48 radial_grids rmax radial_grid_type
R 651 5 49 radial_grids zmesh radial_grid_type
R 652 5 50 radial_grids dx radial_grid_type
S 722 25 0 0 0 128 1 582 5361 10000004 800014 A 0 0 0 0 0 0 0 0 0 0 0 0 0 0 0 0 0 0 0 1102 0 0 0 582 0 0 0 0 paw_in_upf
S 723 5 6 0 0 134 726 582 5372 10a00004 14 A 0 0 0 0 0 0 726 0 128 0 728 0 0 0 0 0 0 0 0 725 1 723 727 582 0 0 0 0 ae_rho_atc
S 724 6 4 0 0 6 730 582 5297 40800006 0 A 0 0 0 0 0 0 0 0 0 0 0 0 1103 0 0 0 0 0 0 0 0 0 0 582 0 0 0 0 z_b_0_1
S 725 5 0 0 0 137 729 582 5383 40822004 1020 A 0 0 0 0 0 16 0 0 128 0 0 0 0 0 0 0 0 0 0 0 727 725 0 582 0 0 0 0 ae_rho_atc$sd
S 726 5 0 0 0 7 727 582 5397 40802001 1020 A 0 0 0 0 0 0 0 0 128 0 0 0 0 0 0 0 0 0 0 0 723 726 0 582 0 0 0 0 ae_rho_atc$p
S 727 5 0 0 0 7 725 582 5410 40802000 1020 A 0 0 0 0 0 8 0 0 128 0 0 0 0 0 0 0 0 0 0 0 726 727 0 582 0 0 0 0 ae_rho_atc$o
S 728 22 1 0 0 9 1 582 5423 40000000 1000 A 0 0 0 0 0 0 0 723 0 0 0 0 725 0 0 0 0 0 0 0 0 0 0 582 0 0 0 0 ae_rho_atc$arrdsc
S 729 5 6 0 0 140 735 582 5441 10a00004 14 A 0 0 0 0 0 88 735 0 128 0 737 0 0 0 0 0 0 0 0 734 723 729 736 582 0 0 0 0 pfunc
S 730 6 4 0 0 6 731 582 5447 40800006 0 A 0 0 0 0 0 4 0 0 0 0 0 0 1103 0 0 0 0 0 0 0 0 0 0 582 0 0 0 0 z_b_1_1
S 731 6 4 0 0 6 732 582 5305 40800006 0 A 0 0 0 0 0 8 0 0 0 0 0 0 1103 0 0 0 0 0 0 0 0 0 0 582 0 0 0 0 z_b_2_1
S 732 6 4 0 0 6 745 582 5313 40800006 0 A 0 0 0 0 0 12 0 0 0 0 0 0 1103 0 0 0 0 0 0 0 0 0 0 582 0 0 0 0 z_b_3_1
S 733 3 0 0 0 6 1 1 0 0 0 A 0 0 0 0 0 0 0 0 0 30 0 0 0 0 0 0 0 0 0 0 0 0 0 0 0 0 0 0 6
S 734 5 0 0 0 143 744 582 5455 40822004 1020 A 0 0 0 0 0 104 0 0 128 0 0 0 0 0 0 0 0 0 0 0 736 734 0 582 0 0 0 0 pfunc$sd
S 735 5 0 0 0 7 736 582 5464 40802001 1020 A 0 0 0 0 0 88 0 0 128 0 0 0 0 0 0 0 0 0 0 0 729 735 0 582 0 0 0 0 pfunc$p
S 736 5 0 0 0 7 734 582 5472 40802000 1020 A 0 0 0 0 0 96 0 0 128 0 0 0 0 0 0 0 0 0 0 0 735 736 0 582 0 0 0 0 pfunc$o
S 737 22 1 0 0 9 1 582 5480 40000000 1000 A 0 0 0 0 0 0 0 729 0 0 0 0 734 0 0 0 0 0 0 0 0 0 0 582 0 0 0 0 pfunc$arrdsc
S 738 3 0 0 0 6 1 1 0 0 0 A 0 0 0 0 0 0 0 0 0 19 0 0 0 0 0 0 0 0 0 0 0 0 0 0 0 0 0 0 6
S 739 3 0 0 0 6 1 1 0 0 0 A 0 0 0 0 0 0 0 0 0 20 0 0 0 0 0 0 0 0 0 0 0 0 0 0 0 0 0 0 6
S 740 3 0 0 0 6 1 1 0 0 0 A 0 0 0 0 0 0 0 0 0 25 0 0 0 0 0 0 0 0 0 0 0 0 0 0 0 0 0 0 6
S 741 3 0 0 0 6 1 1 0 0 0 A 0 0 0 0 0 0 0 0 0 26 0 0 0 0 0 0 0 0 0 0 0 0 0 0 0 0 0 0 6
S 742 3 0 0 0 6 1 1 0 0 0 A 0 0 0 0 0 0 0 0 0 23 0 0 0 0 0 0 0 0 0 0 0 0 0 0 0 0 0 0 6
S 743 3 0 0 0 6 1 1 0 0 0 A 0 0 0 0 0 0 0 0 0 29 0 0 0 0 0 0 0 0 0 0 0 0 0 0 0 0 0 0 6
S 744 5 6 0 0 146 749 582 5493 10a00004 14 A 0 0 0 0 0 224 749 0 128 0 751 0 0 0 0 0 0 0 0 748 729 744 750 582 0 0 0 0 ptfunc
S 745 6 4 0 0 6 746 582 5500 40800006 0 A 0 0 0 0 0 16 0 0 0 0 0 0 1103 0 0 0 0 0 0 0 0 0 0 582 0 0 0 0 z_b_4_1
S 746 6 4 0 0 6 747 582 5508 40800006 0 A 0 0 0 0 0 20 0 0 0 0 0 0 1103 0 0 0 0 0 0 0 0 0 0 582 0 0 0 0 z_b_5_1
S 747 6 4 0 0 6 753 582 5516 40800006 0 A 0 0 0 0 0 24 0 0 0 0 0 0 1103 0 0 0 0 0 0 0 0 0 0 582 0 0 0 0 z_b_6_1
S 748 5 0 0 0 149 752 582 5524 40822004 1020 A 0 0 0 0 0 240 0 0 128 0 0 0 0 0 0 0 0 0 0 0 750 748 0 582 0 0 0 0 ptfunc$sd
S 749 5 0 0 0 7 750 582 5534 40802001 1020 A 0 0 0 0 0 224 0 0 128 0 0 0 0 0 0 0 0 0 0 0 744 749 0 582 0 0 0 0 ptfunc$p
S 750 5 0 0 0 7 748 582 5543 40802000 1020 A 0 0 0 0 0 232 0 0 128 0 0 0 0 0 0 0 0 0 0 0 749 750 0 582 0 0 0 0 ptfunc$o
S 751 22 1 0 0 9 1 582 5552 40000000 1000 A 0 0 0 0 0 0 0 744 0 0 0 0 748 0 0 0 0 0 0 0 0 0 0 582 0 0 0 0 ptfunc$arrdsc
S 752 5 6 0 0 152 755 582 5566 10a00004 14 A 0 0 0 0 0 360 755 0 128 0 757 0 0 0 0 0 0 0 0 754 744 752 756 582 0 0 0 0 ae_vloc
S 753 6 4 0 0 6 759 582 5574 40800006 0 A 0 0 0 0 0 28 0 0 0 0 0 0 1103 0 0 0 0 0 0 0 0 0 0 582 0 0 0 0 z_b_7
S 754 5 0 0 0 155 758 582 5580 40822004 1020 A 0 0 0 0 0 376 0 0 128 0 0 0 0 0 0 0 0 0 0 0 756 754 0 582 0 0 0 0 ae_vloc$sd
S 755 5 0 0 0 7 756 582 5591 40802001 1020 A 0 0 0 0 0 360 0 0 128 0 0 0 0 0 0 0 0 0 0 0 752 755 0 582 0 0 0 0 ae_vloc$p
S 756 5 0 0 0 7 754 582 5601 40802000 1020 A 0 0 0 0 0 368 0 0 128 0 0 0 0 0 0 0 0 0 0 0 755 756 0 582 0 0 0 0 ae_vloc$o
S 757 22 1 0 0 9 1 582 5611 40000000 1000 A 0 0 0 0 0 0 0 752 0 0 0 0 754 0 0 0 0 0 0 0 0 0 0 582 0 0 0 0 ae_vloc$arrdsc
S 758 5 6 0 0 158 761 582 5626 10a00004 14 A 0 0 0 0 0 448 761 0 128 0 763 0 0 0 0 0 0 0 0 760 752 758 762 582 0 0 0 0 oc
S 759 6 4 0 0 6 765 582 5629 40800006 0 A 0 0 0 0 0 32 0 0 0 0 0 0 1103 0 0 0 0 0 0 0 0 0 0 582 0 0 0 0 z_b_8
S 760 5 0 0 0 161 764 582 5635 40822004 1020 A 0 0 0 0 0 464 0 0 128 0 0 0 0 0 0 0 0 0 0 0 762 760 0 582 0 0 0 0 oc$sd
S 761 5 0 0 0 7 762 582 5641 40802001 1020 A 0 0 0 0 0 448 0 0 128 0 0 0 0 0 0 0 0 0 0 0 758 761 0 582 0 0 0 0 oc$p
S 762 5 0 0 0 7 760 582 5646 40802000 1020 A 0 0 0 0 0 456 0 0 128 0 0 0 0 0 0 0 0 0 0 0 761 762 0 582 0 0 0 0 oc$o
S 763 22 1 0 0 9 1 582 5651 40000000 1000 A 0 0 0 0 0 0 0 758 0 0 0 0 760 0 0 0 0 0 0 0 0 0 0 582 0 0 0 0 oc$arrdsc
S 764 5 6 0 0 164 769 582 5661 10a00004 14 A 0 0 0 0 0 536 769 0 128 0 771 0 0 0 0 0 0 0 0 768 758 764 770 582 0 0 0 0 augmom
S 765 6 4 0 0 6 766 582 5668 40800006 0 A 0 0 0 0 0 36 0 0 0 0 0 0 1103 0 0 0 0 0 0 0 0 0 0 582 0 0 0 0 z_b_9
S 766 6 4 0 0 6 767 582 5674 40800006 0 A 0 0 0 0 0 40 0 0 0 0 0 0 1103 0 0 0 0 0 0 0 0 0 0 582 0 0 0 0 z_b_10
S 767 6 4 0 0 6 805 582 5681 40800006 0 A 0 0 0 0 0 44 0 0 0 0 0 0 1103 0 0 0 0 0 0 0 0 0 0 582 0 0 0 0 z_b_11
S 768 5 0 0 0 167 772 582 5688 40822004 1020 A 0 0 0 0 0 552 0 0 128 0 0 0 0 0 0 0 0 0 0 0 770 768 0 582 0 0 0 0 augmom$sd
S 769 5 0 0 0 7 770 582 5698 40802001 1020 A 0 0 0 0 0 536 0 0 128 0 0 0 0 0 0 0 0 0 0 0 764 769 0 582 0 0 0 0 augmom$p
S 770 5 0 0 0 7 768 582 5707 40802000 1020 A 0 0 0 0 0 544 0 0 128 0 0 0 0 0 0 0 0 0 0 0 769 770 0 582 0 0 0 0 augmom$o
S 771 22 1 0 0 9 1 582 5716 40000000 1000 A 0 0 0 0 0 0 0 764 0 0 0 0 768 0 0 0 0 0 0 0 0 0 0 582 0 0 0 0 augmom$arrdsc
S 772 5 0 0 0 9 773 582 5730 800004 0 A 0 0 0 0 0 672 0 0 128 0 0 0 0 0 0 0 0 0 0 0 764 772 0 582 0 0 0 0 raug
S 773 5 0 0 0 6 774 582 5735 800004 0 A 0 0 0 0 0 680 0 0 128 0 0 0 0 0 0 0 0 0 0 0 772 773 0 582 0 0 0 0 iraug
S 774 5 0 0 0 6 775 582 5741 800004 0 A 0 0 0 0 0 684 0 0 128 0 0 0 0 0 0 0 0 0 0 0 773 774 0 582 0 0 0 0 lmax_aug
S 775 5 0 0 0 9 777 582 5750 800004 0 A 0 0 0 0 0 688 0 0 128 0 0 0 0 0 0 0 0 0 0 0 774 775 0 582 0 0 0 0 core_energy
S 776 3 0 0 0 6 1 1 0 0 0 A 0 0 0 0 0 0 0 0 0 12 0 0 0 0 0 0 0 0 0 0 0 0 0 0 0 0 0 0 6
S 777 5 0 0 0 170 1 582 5762 800004 0 A 0 0 0 0 0 696 0 0 128 0 0 0 0 0 0 0 0 0 0 0 775 777 0 582 0 0 0 0 augshape
S 778 25 0 0 0 172 1 582 5771 1000000c 800014 A 0 0 0 0 0 0 0 0 0 0 0 0 0 0 0 0 0 0 0 1101 0 0 0 582 0 0 0 0 pseudo_upf
S 779 3 0 0 0 178 0 1 0 0 0 A 0 0 0 0 0 0 0 0 5782 0 0 0 0 0 0 0 0 0 0 0 0 0 0 0 0 0 0 0 18 0
S 780 3 0 0 0 6 1 1 0 0 0 A 0 0 0 0 0 0 0 0 0 80 0 0 0 0 0 0 0 0 0 0 0 0 0 0 0 0 0 0 6
S 781 5 0 0 0 180 782 582 5783 800004 0 A 0 0 0 0 0 0 0 0 172 0 0 0 0 0 0 0 0 0 0 0 1 781 0 582 0 0 0 0 generated
S 782 5 0 0 0 180 783 582 5793 800004 0 A 0 0 0 0 0 80 0 0 172 0 0 0 0 0 0 0 0 0 0 0 781 782 0 582 0 0 0 0 author
S 783 5 0 0 0 180 784 582 2546 800004 0 A 0 0 0 0 0 160 0 0 172 0 0 0 0 0 0 0 0 0 0 0 782 783 0 582 0 0 0 0 date
S 784 5 0 0 0 180 786 582 5800 800004 0 A 0 0 0 0 0 240 0 0 172 0 0 0 0 0 0 0 0 0 0 0 783 784 0 582 0 0 0 0 comment
S 785 3 0 0 0 6 1 1 0 0 0 A 0 0 0 0 0 0 0 0 0 2 0 0 0 0 0 0 0 0 0 0 0 0 0 0 0 0 0 0 6
S 786 5 0 0 0 182 787 582 5808 800004 0 A 0 0 0 0 0 320 0 0 172 0 0 0 0 0 0 0 0 0 0 0 784 786 0 582 0 0 0 0 psd
S 787 5 0 0 0 184 789 582 5812 800004 0 A 0 0 0 0 0 322 0 0 172 0 0 0 0 0 0 0 0 0 0 0 786 787 0 582 0 0 0 0 typ
S 788 3 0 0 0 6 1 1 0 0 0 A 0 0 0 0 0 0 0 0 0 6 0 0 0 0 0 0 0 0 0 0 0 0 0 0 0 0 0 0 6
S 789 5 0 0 0 186 790 582 5816 800004 0 A 0 0 0 0 0 342 0 0 172 0 0 0 0 0 0 0 0 0 0 0 787 789 0 582 0 0 0 0 rel
S 790 5 0 0 0 16 791 582 5820 800004 0 A 0 0 0 0 0 348 0 0 172 0 0 0 0 0 0 0 0 0 0 0 789 790 0 582 0 0 0 0 tvanp
S 791 5 0 0 0 16 792 582 5826 800004 0 A 0 0 0 0 0 352 0 0 172 0 0 0 0 0 0 0 0 0 0 0 790 791 0 582 0 0 0 0 tcoulombp
S 792 5 0 0 0 16 793 582 5836 800004 0 A 0 0 0 0 0 356 0 0 172 0 0 0 0 0 0 0 0 0 0 0 791 792 0 582 0 0 0 0 nlcc
S 793 5 0 0 0 184 794 582 5841 800004 0 A 0 0 0 0 0 360 0 0 172 0 0 0 0 0 0 0 0 0 0 0 792 793 0 582 0 0 0 0 dft
S 794 5 0 0 0 9 795 582 5845 800004 0 A 0 0 0 0 0 384 0 0 172 0 0 0 0 0 0 0 0 0 0 0 793 794 0 582 0 0 0 0 zp
S 795 5 0 0 0 9 796 582 5848 800004 0 A 0 0 0 0 0 392 0 0 172 0 0 0 0 0 0 0 0 0 0 0 794 795 0 582 0 0 0 0 etotps
S 796 5 0 0 0 9 797 582 5855 800004 0 A 0 0 0 0 0 400 0 0 172 0 0 0 0 0 0 0 0 0 0 0 795 796 0 582 0 0 0 0 ecutwfc
S 797 5 0 0 0 9 799 582 5863 800004 0 A 0 0 0 0 0 408 0 0 172 0 0 0 0 0 0 0 0 0 0 0 796 797 0 582 0 0 0 0 ecutrho
S 798 3 0 0 0 6 1 1 0 0 0 A 0 0 0 0 0 0 0 0 0 11 0 0 0 0 0 0 0 0 0 0 0 0 0 0 0 0 0 0 6
S 799 5 0 0 0 188 800 582 5871 800004 0 A 0 0 0 0 0 416 0 0 172 0 0 0 0 0 0 0 0 0 0 0 797 799 0 582 0 0 0 0 nv
S 800 5 0 0 0 6 801 582 5874 800004 0 A 0 0 0 0 0 428 0 0 172 0 0 0 0 0 0 0 0 0 0 0 799 800 0 582 0 0 0 0 lmax
S 801 5 0 0 0 6 802 582 5879 800004 0 A 0 0 0 0 0 432 0 0 172 0 0 0 0 0 0 0 0 0 0 0 800 801 0 582 0 0 0 0 lmax_rho
S 802 5 0 0 0 6 803 582 5888 800004 0 A 0 0 0 0 0 436 0 0 172 0 0 0 0 0 0 0 0 0 0 0 801 802 0 582 0 0 0 0 nwfc
S 803 5 0 0 0 6 804 582 5893 800004 0 A 0 0 0 0 0 440 0 0 172 0 0 0 0 0 0 0 0 0 0 0 802 803 0 582 0 0 0 0 nbeta
S 804 5 6 0 0 190 807 582 5899 10a00004 14 A 0 0 0 0 0 448 807 0 172 0 809 0 0 0 0 0 0 0 0 806 803 804 808 582 0 0 0 0 kbeta
S 805 6 4 0 0 6 812 582 5905 40800006 0 A 0 0 0 0 0 48 0 0 0 0 0 0 1103 0 0 0 0 0 0 0 0 0 0 582 0 0 0 0 z_b_12
S 806 5 0 0 0 193 810 582 5912 40822004 1020 A 0 0 0 0 0 464 0 0 172 0 0 0 0 0 0 0 0 0 0 0 808 806 0 582 0 0 0 0 kbeta$sd
S 807 5 0 0 0 7 808 582 5921 40802001 1020 A 0 0 0 0 0 448 0 0 172 0 0 0 0 0 0 0 0 0 0 0 804 807 0 582 0 0 0 0 kbeta$p
S 808 5 0 0 0 7 806 582 5929 40802000 1020 A 0 0 0 0 0 456 0 0 172 0 0 0 0 0 0 0 0 0 0 0 807 808 0 582 0 0 0 0 kbeta$o
S 809 22 1 0 0 6 1 582 5937 40000000 1000 A 0 0 0 0 0 0 0 804 0 0 0 0 806 0 0 0 0 0 0 0 0 0 0 582 0 0 0 0 kbeta$arrdsc
S 810 5 0 0 0 6 811 582 5950 800004 0 A 0 0 0 0 0 536 0 0 172 0 0 0 0 0 0 0 0 0 0 0 804 810 0 582 0 0 0 0 kkbeta
S 811 5 6 0 0 196 814 582 5957 10a00004 14 A 0 0 0 0 0 544 814 0 172 0 816 0 0 0 0 0 0 0 0 813 810 811 815 582 0 0 0 0 lll
S 812 6 4 0 0 6 818 582 5961 40800006 0 A 0 0 0 0 0 52 0 0 0 0 0 0 1103 0 0 0 0 0 0 0 0 0 0 582 0 0 0 0 z_b_13
S 813 5 0 0 0 199 817 582 5968 40822004 1020 A 0 0 0 0 0 560 0 0 172 0 0 0 0 0 0 0 0 0 0 0 815 813 0 582 0 0 0 0 lll$sd
S 814 5 0 0 0 7 815 582 5975 40802001 1020 A 0 0 0 0 0 544 0 0 172 0 0 0 0 0 0 0 0 0 0 0 811 814 0 582 0 0 0 0 lll$p
S 815 5 0 0 0 7 813 582 5981 40802000 1020 A 0 0 0 0 0 552 0 0 172 0 0 0 0 0 0 0 0 0 0 0 814 815 0 582 0 0 0 0 lll$o
S 816 22 1 0 0 6 1 582 5987 40000000 1000 A 0 0 0 0 0 0 0 811 0 0 0 0 813 0 0 0 0 0 0 0 0 0 0 582 0 0 0 0 lll$arrdsc
S 817 5 6 0 0 202 822 582 5998 10a00004 14 A 0 0 0 0 0 632 822 0 172 0 824 0 0 0 0 0 0 0 0 821 811 817 823 582 0 0 0 0 beta
S 818 6 4 0 0 6 819 582 6003 40800006 0 A 0 0 0 0 0 56 0 0 0 0 0 0 1103 0 0 0 0 0 0 0 0 0 0 582 0 0 0 0 z_b_14
S 819 6 4 0 0 6 826 582 6010 40800006 0 A 0 0 0 0 0 60 0 0 0 0 0 0 1103 0 0 0 0 0 0 0 0 0 0 582 0 0 0 0 z_b_15
S 820 3 0 0 0 6 1 1 0 0 0 A 0 0 0 0 0 0 0 0 0 24 0 0 0 0 0 0 0 0 0 0 0 0 0 0 0 0 0 0 6
S 821 5 0 0 0 205 825 582 6017 40822004 1020 A 0 0 0 0 0 648 0 0 172 0 0 0 0 0 0 0 0 0 0 0 823 821 0 582 0 0 0 0 beta$sd
S 822 5 0 0 0 7 823 582 6025 40802001 1020 A 0 0 0 0 0 632 0 0 172 0 0 0 0 0 0 0 0 0 0 0 817 822 0 582 0 0 0 0 beta$p
S 823 5 0 0 0 7 821 582 6032 40802000 1020 A 0 0 0 0 0 640 0 0 172 0 0 0 0 0 0 0 0 0 0 0 822 823 0 582 0 0 0 0 beta$o
S 824 22 1 0 0 9 1 582 6039 40000000 1000 A 0 0 0 0 0 0 0 817 0 0 0 0 821 0 0 0 0 0 0 0 0 0 0 582 0 0 0 0 beta$arrdsc
S 825 5 6 0 0 208 828 582 6051 10a00004 14 A 0 0 0 0 0 744 828 0 172 0 830 0 0 0 0 0 0 0 0 827 817 825 829 582 0 0 0 0 els
S 826 6 4 0 0 6 832 582 6055 40800006 0 A 0 0 0 0 0 64 0 0 0 0 0 0 1103 0 0 0 0 0 0 0 0 0 0 582 0 0 0 0 z_b_16
S 827 5 0 0 0 211 831 582 6062 40822004 1020 A 0 0 0 0 0 760 0 0 172 0 0 0 0 0 0 0 0 0 0 0 829 827 0 582 0 0 0 0 els$sd
S 828 5 0 0 0 7 829 582 6069 40802001 1020 A 0 0 0 0 0 744 0 0 172 0 0 0 0 0 0 0 0 0 0 0 825 828 0 582 0 0 0 0 els$p
S 829 5 0 0 0 7 827 582 6075 40802000 1020 A 0 0 0 0 0 752 0 0 172 0 0 0 0 0 0 0 0 0 0 0 828 829 0 582 0 0 0 0 els$o
S 830 22 1 0 0 9 1 582 6081 40000000 1000 A 0 0 0 0 0 0 0 825 0 0 0 0 827 0 0 0 0 0 0 0 0 0 0 582 0 0 0 0 els$arrdsc
S 831 5 6 0 0 214 834 582 6092 10a00004 14 A 0 0 0 0 0 832 834 0 172 0 836 0 0 0 0 0 0 0 0 833 825 831 835 582 0 0 0 0 els_beta
S 832 6 4 0 0 6 838 582 6101 40800006 0 A 0 0 0 0 0 68 0 0 0 0 0 0 1103 0 0 0 0 0 0 0 0 0 0 582 0 0 0 0 z_b_17
S 833 5 0 0 0 217 837 582 6108 40822004 1020 A 0 0 0 0 0 848 0 0 172 0 0 0 0 0 0 0 0 0 0 0 835 833 0 582 0 0 0 0 els_beta$sd
S 834 5 0 0 0 7 835 582 6120 40802001 1020 A 0 0 0 0 0 832 0 0 172 0 0 0 0 0 0 0 0 0 0 0 831 834 0 582 0 0 0 0 els_beta$p
S 835 5 0 0 0 7 833 582 6131 40802000 1020 A 0 0 0 0 0 840 0 0 172 0 0 0 0 0 0 0 0 0 0 0 834 835 0 582 0 0 0 0 els_beta$o
S 836 22 1 0 0 9 1 582 6142 40000000 1000 A 0 0 0 0 0 0 0 831 0 0 0 0 833 0 0 0 0 0 0 0 0 0 0 582 0 0 0 0 els_beta$arrdsc
S 837 5 6 0 0 220 840 582 6158 10a00004 14 A 0 0 0 0 0 920 840 0 172 0 842 0 0 0 0 0 0 0 0 839 831 837 841 582 0 0 0 0 nchi
S 838 6 4 0 0 6 844 582 6163 40800006 0 A 0 0 0 0 0 72 0 0 0 0 0 0 1103 0 0 0 0 0 0 0 0 0 0 582 0 0 0 0 z_b_18
S 839 5 0 0 0 223 843 582 6170 40822004 1020 A 0 0 0 0 0 936 0 0 172 0 0 0 0 0 0 0 0 0 0 0 841 839 0 582 0 0 0 0 nchi$sd
S 840 5 0 0 0 7 841 582 6178 40802001 1020 A 0 0 0 0 0 920 0 0 172 0 0 0 0 0 0 0 0 0 0 0 837 840 0 582 0 0 0 0 nchi$p
S 841 5 0 0 0 7 839 582 6185 40802000 1020 A 0 0 0 0 0 928 0 0 172 0 0 0 0 0 0 0 0 0 0 0 840 841 0 582 0 0 0 0 nchi$o
S 842 22 1 0 0 6 1 582 6192 40000000 1000 A 0 0 0 0 0 0 0 837 0 0 0 0 839 0 0 0 0 0 0 0 0 0 0 582 0 0 0 0 nchi$arrdsc
S 843 5 6 0 0 226 846 582 6204 10a00004 14 A 0 0 0 0 0 1008 846 0 172 0 848 0 0 0 0 0 0 0 0 845 837 843 847 582 0 0 0 0 lchi
S 844 6 4 0 0 6 849 582 6209 40800006 0 A 0 0 0 0 0 76 0 0 0 0 0 0 1103 0 0 0 0 0 0 0 0 0 0 582 0 0 0 0 z_b_19
S 845 5 0 0 0 229 850 582 6216 40822004 1020 A 0 0 0 0 0 1024 0 0 172 0 0 0 0 0 0 0 0 0 0 0 847 845 0 582 0 0 0 0 lchi$sd
S 846 5 0 0 0 7 847 582 6224 40802001 1020 A 0 0 0 0 0 1008 0 0 172 0 0 0 0 0 0 0 0 0 0 0 843 846 0 582 0 0 0 0 lchi$p
S 847 5 0 0 0 7 845 582 6231 40802000 1020 A 0 0 0 0 0 1016 0 0 172 0 0 0 0 0 0 0 0 0 0 0 846 847 0 582 0 0 0 0 lchi$o
S 848 22 1 0 0 6 1 582 6238 40000000 1000 A 0 0 0 0 0 0 0 843 0 0 0 0 845 0 0 0 0 0 0 0 0 0 0 582 0 0 0 0 lchi$arrdsc
S 849 6 4 0 0 6 856 582 6250 40800006 0 A 0 0 0 0 0 80 0 0 0 0 0 0 1103 0 0 0 0 0 0 0 0 0 0 582 0 0 0 0 z_b_20
S 850 5 6 0 0 232 852 582 5626 10a00004 14 A 0 0 0 0 0 1096 852 0 172 0 854 0 0 0 0 0 0 0 0 851 843 850 853 582 0 0 0 0 oc
S 851 5 0 0 0 235 855 582 5635 40822004 1020 A 0 0 0 0 0 1112 0 0 172 0 0 0 0 0 0 0 0 0 0 0 853 851 0 582 0 0 0 0 oc$sd
S 852 5 0 0 0 7 853 582 5641 40802001 1020 A 0 0 0 0 0 1096 0 0 172 0 0 0 0 0 0 0 0 0 0 0 850 852 0 582 0 0 0 0 oc$p
S 853 5 0 0 0 7 851 582 5646 40802000 1020 A 0 0 0 0 0 1104 0 0 172 0 0 0 0 0 0 0 0 0 0 0 852 853 0 582 0 0 0 0 oc$o
S 854 22 1 0 0 9 1 582 6257 40000000 1000 A 0 0 0 0 0 0 0 850 0 0 0 0 851 0 0 0 0 0 0 0 0 0 0 582 0 0 0 0 oc$arrdsc1
S 855 5 6 0 0 238 858 582 6268 10a00004 14 A 0 0 0 0 0 1184 858 0 172 0 860 0 0 0 0 0 0 0 0 857 850 855 859 582 0 0 0 0 epseu
S 856 6 4 0 0 6 862 582 6274 40800006 0 A 0 0 0 0 0 84 0 0 0 0 0 0 1103 0 0 0 0 0 0 0 0 0 0 582 0 0 0 0 z_b_21
S 857 5 0 0 0 241 861 582 6281 40822004 1020 A 0 0 0 0 0 1200 0 0 172 0 0 0 0 0 0 0 0 0 0 0 859 857 0 582 0 0 0 0 epseu$sd
S 858 5 0 0 0 7 859 582 6290 40802001 1020 A 0 0 0 0 0 1184 0 0 172 0 0 0 0 0 0 0 0 0 0 0 855 858 0 582 0 0 0 0 epseu$p
S 859 5 0 0 0 7 857 582 6298 40802000 1020 A 0 0 0 0 0 1192 0 0 172 0 0 0 0 0 0 0 0 0 0 0 858 859 0 582 0 0 0 0 epseu$o
S 860 22 1 0 0 9 1 582 6306 40000000 1000 A 0 0 0 0 0 0 0 855 0 0 0 0 857 0 0 0 0 0 0 0 0 0 0 582 0 0 0 0 epseu$arrdsc
S 861 5 6 0 0 244 864 582 6319 10a00004 14 A 0 0 0 0 0 1272 864 0 172 0 866 0 0 0 0 0 0 0 0 863 855 861 865 582 0 0 0 0 rcut_chi
S 862 6 4 0 0 6 868 582 6328 40800006 0 A 0 0 0 0 0 88 0 0 0 0 0 0 1103 0 0 0 0 0 0 0 0 0 0 582 0 0 0 0 z_b_22
S 863 5 0 0 0 247 867 582 6335 40822004 1020 A 0 0 0 0 0 1288 0 0 172 0 0 0 0 0 0 0 0 0 0 0 865 863 0 582 0 0 0 0 rcut_chi$sd
S 864 5 0 0 0 7 865 582 6347 40802001 1020 A 0 0 0 0 0 1272 0 0 172 0 0 0 0 0 0 0 0 0 0 0 861 864 0 582 0 0 0 0 rcut_chi$p
S 865 5 0 0 0 7 863 582 6358 40802000 1020 A 0 0 0 0 0 1280 0 0 172 0 0 0 0 0 0 0 0 0 0 0 864 865 0 582 0 0 0 0 rcut_chi$o
S 866 22 1 0 0 9 1 582 6369 40000000 1000 A 0 0 0 0 0 0 0 861 0 0 0 0 863 0 0 0 0 0 0 0 0 0 0 582 0 0 0 0 rcut_chi$arrdsc
S 867 5 6 0 0 250 870 582 6385 10a00004 14 A 0 0 0 0 0 1360 870 0 172 0 872 0 0 0 0 0 0 0 0 869 861 867 871 582 0 0 0 0 rcutus_chi
S 868 6 4 0 0 6 874 582 6396 40800006 0 A 0 0 0 0 0 92 0 0 0 0 0 0 1103 0 0 0 0 0 0 0 0 0 0 582 0 0 0 0 z_b_23
S 869 5 0 0 0 253 873 582 6403 40822004 1020 A 0 0 0 0 0 1376 0 0 172 0 0 0 0 0 0 0 0 0 0 0 871 869 0 582 0 0 0 0 rcutus_chi$sd
S 870 5 0 0 0 7 871 582 6417 40802001 1020 A 0 0 0 0 0 1360 0 0 172 0 0 0 0 0 0 0 0 0 0 0 867 870 0 582 0 0 0 0 rcutus_chi$p
S 871 5 0 0 0 7 869 582 6430 40802000 1020 A 0 0 0 0 0 1368 0 0 172 0 0 0 0 0 0 0 0 0 0 0 870 871 0 582 0 0 0 0 rcutus_chi$o
S 872 22 1 0 0 9 1 582 6443 40000000 1000 A 0 0 0 0 0 0 0 867 0 0 0 0 869 0 0 0 0 0 0 0 0 0 0 582 0 0 0 0 rcutus_chi$arrdsc
S 873 5 6 0 0 256 877 582 6461 10a00004 14 A 0 0 0 0 0 1448 877 0 172 0 879 0 0 0 0 0 0 0 0 876 867 873 878 582 0 0 0 0 chi
S 874 6 4 0 0 6 875 582 6465 40800006 0 A 0 0 0 0 0 96 0 0 0 0 0 0 1103 0 0 0 0 0 0 0 0 0 0 582 0 0 0 0 z_b_24
S 875 6 4 0 0 6 881 582 6472 40800006 0 A 0 0 0 0 0 100 0 0 0 0 0 0 1103 0 0 0 0 0 0 0 0 0 0 582 0 0 0 0 z_b_25
S 876 5 0 0 0 259 880 582 6479 40822004 1020 A 0 0 0 0 0 1464 0 0 172 0 0 0 0 0 0 0 0 0 0 0 878 876 0 582 0 0 0 0 chi$sd
S 877 5 0 0 0 7 878 582 6486 40802001 1020 A 0 0 0 0 0 1448 0 0 172 0 0 0 0 0 0 0 0 0 0 0 873 877 0 582 0 0 0 0 chi$p
S 878 5 0 0 0 7 876 582 6492 40802000 1020 A 0 0 0 0 0 1456 0 0 172 0 0 0 0 0 0 0 0 0 0 0 877 878 0 582 0 0 0 0 chi$o
S 879 22 1 0 0 9 1 582 6498 40000000 1000 A 0 0 0 0 0 0 0 873 0 0 0 0 876 0 0 0 0 0 0 0 0 0 0 582 0 0 0 0 chi$arrdsc
S 880 5 6 0 0 262 883 582 6509 10a00004 14 A 0 0 0 0 0 1560 883 0 172 0 885 0 0 0 0 0 0 0 0 882 873 880 884 582 0 0 0 0 rho_at
S 881 6 4 0 0 6 891 582 6516 40800006 0 A 0 0 0 0 0 104 0 0 0 0 0 0 1103 0 0 0 0 0 0 0 0 0 0 582 0 0 0 0 z_b_26
S 882 5 0 0 0 265 886 582 6523 40822004 1020 A 0 0 0 0 0 1576 0 0 172 0 0 0 0 0 0 0 0 0 0 0 884 882 0 582 0 0 0 0 rho_at$sd
S 883 5 0 0 0 7 884 582 6533 40802001 1020 A 0 0 0 0 0 1560 0 0 172 0 0 0 0 0 0 0 0 0 0 0 880 883 0 582 0 0 0 0 rho_at$p
S 884 5 0 0 0 7 882 582 6542 40802000 1020 A 0 0 0 0 0 1568 0 0 172 0 0 0 0 0 0 0 0 0 0 0 883 884 0 582 0 0 0 0 rho_at$o
S 885 22 1 0 0 9 1 582 6551 40000000 1000 A 0 0 0 0 0 0 0 880 0 0 0 0 882 0 0 0 0 0 0 0 0 0 0 582 0 0 0 0 rho_at$arrdsc
S 886 5 0 0 0 6 887 582 4746 800004 0 A 0 0 0 0 0 1648 0 0 172 0 0 0 0 0 0 0 0 0 0 0 880 886 0 582 0 0 0 0 mesh
S 887 5 0 0 0 9 888 582 5016 800004 0 A 0 0 0 0 0 1656 0 0 172 0 0 0 0 0 0 0 0 0 0 0 886 887 0 582 0 0 0 0 xmin
S 888 5 0 0 0 9 889 582 5021 800004 0 A 0 0 0 0 0 1664 0 0 172 0 0 0 0 0 0 0 0 0 0 0 887 888 0 582 0 0 0 0 rmax
S 889 5 0 0 0 9 890 582 5026 800004 0 A 0 0 0 0 0 1672 0 0 172 0 0 0 0 0 0 0 0 0 0 0 888 889 0 582 0 0 0 0 zmesh
S 890 5 0 0 0 9 892 582 5032 800004 0 A 0 0 0 0 0 1680 0 0 172 0 0 0 0 0 0 0 0 0 0 0 889 890 0 582 0 0 0 0 dx
S 891 6 4 0 0 6 897 582 6565 40800006 0 A 0 0 0 0 0 108 0 0 0 0 0 0 1103 0 0 0 0 0 0 0 0 0 0 582 0 0 0 0 z_b_27
S 892 5 6 0 0 268 894 582 4751 10a00004 14 A 0 0 0 0 0 1688 894 0 172 0 896 0 0 0 0 0 0 0 0 893 890 892 895 582 0 0 0 0 r
S 893 5 0 0 0 271 898 582 4759 40822004 1020 A 0 0 0 0 0 1704 0 0 172 0 0 0 0 0 0 0 0 0 0 0 895 893 0 582 0 0 0 0 r$sd
S 894 5 0 0 0 7 895 582 4764 40802001 1020 A 0 0 0 0 0 1688 0 0 172 0 0 0 0 0 0 0 0 0 0 0 892 894 0 582 0 0 0 0 r$p
S 895 5 0 0 0 7 893 582 4768 40802000 1020 A 0 0 0 0 0 1696 0 0 172 0 0 0 0 0 0 0 0 0 0 0 894 895 0 582 0 0 0 0 r$o
S 896 22 1 0 0 9 1 582 6572 40000000 1000 A 0 0 0 0 0 0 0 892 0 0 0 0 893 0 0 0 0 0 0 0 0 0 0 582 0 0 0 0 r$arrdsc2
S 897 6 4 0 0 6 904 582 6582 40800006 0 A 0 0 0 0 0 112 0 0 0 0 0 0 1103 0 0 0 0 0 0 0 0 0 0 582 0 0 0 0 z_b_28
S 898 5 6 0 0 274 900 582 4816 10a00004 14 A 0 0 0 0 0 1776 900 0 172 0 902 0 0 0 0 0 0 0 0 899 892 898 901 582 0 0 0 0 rab
S 899 5 0 0 0 277 903 582 4826 40822004 1020 A 0 0 0 0 0 1792 0 0 172 0 0 0 0 0 0 0 0 0 0 0 901 899 0 582 0 0 0 0 rab$sd
S 900 5 0 0 0 7 901 582 4833 40802001 1020 A 0 0 0 0 0 1776 0 0 172 0 0 0 0 0 0 0 0 0 0 0 898 900 0 582 0 0 0 0 rab$p
S 901 5 0 0 0 7 899 582 4839 40802000 1020 A 0 0 0 0 0 1784 0 0 172 0 0 0 0 0 0 0 0 0 0 0 900 901 0 582 0 0 0 0 rab$o
S 902 22 1 0 0 9 1 582 6589 40000000 1000 A 0 0 0 0 0 0 0 898 0 0 0 0 899 0 0 0 0 0 0 0 0 0 0 582 0 0 0 0 rab$arrdsc3
S 903 5 6 0 0 280 906 582 6601 10a00004 14 A 0 0 0 0 0 1864 906 0 172 0 908 0 0 0 0 0 0 0 0 905 898 903 907 582 0 0 0 0 rho_atc
S 904 6 4 0 0 6 912 582 6609 40800006 0 A 0 0 0 0 0 116 0 0 0 0 0 0 1103 0 0 0 0 0 0 0 0 0 0 582 0 0 0 0 z_b_29
S 905 5 0 0 0 283 909 582 6616 40822004 1020 A 0 0 0 0 0 1880 0 0 172 0 0 0 0 0 0 0 0 0 0 0 907 905 0 582 0 0 0 0 rho_atc$sd
S 906 5 0 0 0 7 907 582 6627 40802001 1020 A 0 0 0 0 0 1864 0 0 172 0 0 0 0 0 0 0 0 0 0 0 903 906 0 582 0 0 0 0 rho_atc$p
S 907 5 0 0 0 7 905 582 6637 40802000 1020 A 0 0 0 0 0 1872 0 0 172 0 0 0 0 0 0 0 0 0 0 0 906 907 0 582 0 0 0 0 rho_atc$o
S 908 22 1 0 0 9 1 582 6647 40000000 1000 A 0 0 0 0 0 0 0 903 0 0 0 0 905 0 0 0 0 0 0 0 0 0 0 582 0 0 0 0 rho_atc$arrdsc
S 909 5 0 0 0 6 910 582 6662 800004 0 A 0 0 0 0 0 1952 0 0 172 0 0 0 0 0 0 0 0 0 0 0 903 909 0 582 0 0 0 0 lloc
S 910 5 0 0 0 9 911 582 6667 800004 0 A 0 0 0 0 0 1960 0 0 172 0 0 0 0 0 0 0 0 0 0 0 909 910 0 582 0 0 0 0 rcloc
S 911 5 6 0 0 286 914 582 6673 10a00004 14 A 0 0 0 0 0 1968 914 0 172 0 916 0 0 0 0 0 0 0 0 913 910 911 915 582 0 0 0 0 vloc
S 912 6 4 0 0 6 918 582 6678 40800006 0 A 0 0 0 0 0 120 0 0 0 0 0 0 1103 0 0 0 0 0 0 0 0 0 0 582 0 0 0 0 z_b_30
S 913 5 0 0 0 289 917 582 6685 40822004 1020 A 0 0 0 0 0 1984 0 0 172 0 0 0 0 0 0 0 0 0 0 0 915 913 0 582 0 0 0 0 vloc$sd
S 914 5 0 0 0 7 915 582 6693 40802001 1020 A 0 0 0 0 0 1968 0 0 172 0 0 0 0 0 0 0 0 0 0 0 911 914 0 582 0 0 0 0 vloc$p
S 915 5 0 0 0 7 913 582 6700 40802000 1020 A 0 0 0 0 0 1976 0 0 172 0 0 0 0 0 0 0 0 0 0 0 914 915 0 582 0 0 0 0 vloc$o
S 916 22 1 0 0 9 1 582 6707 40000000 1000 A 0 0 0 0 0 0 0 911 0 0 0 0 913 0 0 0 0 0 0 0 0 0 0 582 0 0 0 0 vloc$arrdsc
S 917 5 6 0 0 292 921 582 6719 10a00004 14 A 0 0 0 0 0 2056 921 0 172 0 923 0 0 0 0 0 0 0 0 920 911 917 922 582 0 0 0 0 dion
S 918 6 4 0 0 6 919 582 6724 40800006 0 A 0 0 0 0 0 124 0 0 0 0 0 0 1103 0 0 0 0 0 0 0 0 0 0 582 0 0 0 0 z_b_31
S 919 6 4 0 0 6 929 582 6731 40800006 0 A 0 0 0 0 0 128 0 0 0 0 0 0 1103 0 0 0 0 0 0 0 0 0 0 582 0 0 0 0 z_b_32
S 920 5 0 0 0 295 924 582 6738 40822004 1020 A 0 0 0 0 0 2072 0 0 172 0 0 0 0 0 0 0 0 0 0 0 922 920 0 582 0 0 0 0 dion$sd
S 921 5 0 0 0 7 922 582 6746 40802001 1020 A 0 0 0 0 0 2056 0 0 172 0 0 0 0 0 0 0 0 0 0 0 917 921 0 582 0 0 0 0 dion$p
S 922 5 0 0 0 7 920 582 6753 40802000 1020 A 0 0 0 0 0 2064 0 0 172 0 0 0 0 0 0 0 0 0 0 0 921 922 0 582 0 0 0 0 dion$o
S 923 22 1 0 0 9 1 582 6760 40000000 1000 A 0 0 0 0 0 0 0 917 0 0 0 0 920 0 0 0 0 0 0 0 0 0 0 582 0 0 0 0 dion$arrdsc
S 924 5 0 0 0 16 925 582 6772 800004 0 A 0 0 0 0 0 2168 0 0 172 0 0 0 0 0 0 0 0 0 0 0 917 924 0 582 0 0 0 0 q_with_l
S 925 5 0 0 0 6 926 582 6781 800004 0 A 0 0 0 0 0 2172 0 0 172 0 0 0 0 0 0 0 0 0 0 0 924 925 0 582 0 0 0 0 nqf
S 926 5 0 0 0 6 927 582 6785 800004 0 A 0 0 0 0 0 2176 0 0 172 0 0 0 0 0 0 0 0 0 0 0 925 926 0 582 0 0 0 0 nqlc
S 927 5 0 0 0 9 928 582 6790 800004 0 A 0 0 0 0 0 2184 0 0 172 0 0 0 0 0 0 0 0 0 0 0 926 927 0 582 0 0 0 0 qqq_eps
S 928 5 6 0 0 298 931 582 6798 10a00004 14 A 0 0 0 0 0 2192 931 0 172 0 933 0 0 0 0 0 0 0 0 930 927 928 932 582 0 0 0 0 rinner
S 929 6 4 0 0 6 935 582 6805 40800006 0 A 0 0 0 0 0 132 0 0 0 0 0 0 1103 0 0 0 0 0 0 0 0 0 0 582 0 0 0 0 z_b_33
S 930 5 0 0 0 301 934 582 6812 40822004 1020 A 0 0 0 0 0 2208 0 0 172 0 0 0 0 0 0 0 0 0 0 0 932 930 0 582 0 0 0 0 rinner$sd
S 931 5 0 0 0 7 932 582 6822 40802001 1020 A 0 0 0 0 0 2192 0 0 172 0 0 0 0 0 0 0 0 0 0 0 928 931 0 582 0 0 0 0 rinner$p
S 932 5 0 0 0 7 930 582 6831 40802000 1020 A 0 0 0 0 0 2200 0 0 172 0 0 0 0 0 0 0 0 0 0 0 931 932 0 582 0 0 0 0 rinner$o
S 933 22 1 0 0 9 1 582 6840 40000000 1000 A 0 0 0 0 0 0 0 928 0 0 0 0 930 0 0 0 0 0 0 0 0 0 0 582 0 0 0 0 rinner$arrdsc
S 934 5 6 0 0 304 938 582 6854 10a00004 14 A 0 0 0 0 0 2280 938 0 172 0 940 0 0 0 0 0 0 0 0 937 928 934 939 582 0 0 0 0 qqq
S 935 6 4 0 0 6 936 582 6858 40800006 0 A 0 0 0 0 0 136 0 0 0 0 0 0 1103 0 0 0 0 0 0 0 0 0 0 582 0 0 0 0 z_b_34
S 936 6 4 0 0 6 942 582 6865 40800006 0 A 0 0 0 0 0 140 0 0 0 0 0 0 1103 0 0 0 0 0 0 0 0 0 0 582 0 0 0 0 z_b_35
S 937 5 0 0 0 307 941 582 6872 40822004 1020 A 0 0 0 0 0 2296 0 0 172 0 0 0 0 0 0 0 0 0 0 0 939 937 0 582 0 0 0 0 qqq$sd
S 938 5 0 0 0 7 939 582 6879 40802001 1020 A 0 0 0 0 0 2280 0 0 172 0 0 0 0 0 0 0 0 0 0 0 934 938 0 582 0 0 0 0 qqq$p
S 939 5 0 0 0 7 937 582 6885 40802000 1020 A 0 0 0 0 0 2288 0 0 172 0 0 0 0 0 0 0 0 0 0 0 938 939 0 582 0 0 0 0 qqq$o
S 940 22 1 0 0 9 1 582 6891 40000000 1000 A 0 0 0 0 0 0 0 934 0 0 0 0 937 0 0 0 0 0 0 0 0 0 0 582 0 0 0 0 qqq$arrdsc
S 941 5 6 0 0 310 945 582 6902 10a00004 14 A 0 0 0 0 0 2392 945 0 172 0 947 0 0 0 0 0 0 0 0 944 934 941 946 582 0 0 0 0 qfunc
S 942 6 4 0 0 6 943 582 6908 40800006 0 A 0 0 0 0 0 144 0 0 0 0 0 0 1103 0 0 0 0 0 0 0 0 0 0 582 0 0 0 0 z_b_36
S 943 6 4 0 0 6 949 582 6915 40800006 0 A 0 0 0 0 0 148 0 0 0 0 0 0 1103 0 0 0 0 0 0 0 0 0 0 582 0 0 0 0 z_b_37
S 944 5 0 0 0 313 948 582 6922 40822004 1020 A 0 0 0 0 0 2408 0 0 172 0 0 0 0 0 0 0 0 0 0 0 946 944 0 582 0 0 0 0 qfunc$sd
S 945 5 0 0 0 7 946 582 6931 40802001 1020 A 0 0 0 0 0 2392 0 0 172 0 0 0 0 0 0 0 0 0 0 0 941 945 0 582 0 0 0 0 qfunc$p
S 946 5 0 0 0 7 944 582 6939 40802000 1020 A 0 0 0 0 0 2400 0 0 172 0 0 0 0 0 0 0 0 0 0 0 945 946 0 582 0 0 0 0 qfunc$o
S 947 22 1 0 0 9 1 582 6947 40000000 1000 A 0 0 0 0 0 0 0 941 0 0 0 0 944 0 0 0 0 0 0 0 0 0 0 582 0 0 0 0 qfunc$arrdsc
S 948 5 6 0 0 316 953 582 6960 10a00004 14 A 0 0 0 0 0 2504 953 0 172 0 955 0 0 0 0 0 0 0 0 952 941 948 954 582 0 0 0 0 qfuncl
S 949 6 4 0 0 6 950 582 6967 40800006 0 A 0 0 0 0 0 152 0 0 0 0 0 0 1103 0 0 0 0 0 0 0 0 0 0 582 0 0 0 0 z_b_38
S 950 6 4 0 0 6 951 582 6974 40800006 0 A 0 0 0 0 0 156 0 0 0 0 0 0 1103 0 0 0 0 0 0 0 0 0 0 582 0 0 0 0 z_b_39
S 951 6 4 0 0 6 957 582 6981 40800006 0 A 0 0 0 0 0 160 0 0 0 0 0 0 1103 0 0 0 0 0 0 0 0 0 0 582 0 0 0 0 z_b_40
S 952 5 0 0 0 319 956 582 6988 40822004 1020 A 0 0 0 0 0 2520 0 0 172 0 0 0 0 0 0 0 0 0 0 0 954 952 0 582 0 0 0 0 qfuncl$sd
S 953 5 0 0 0 7 954 582 6998 40802001 1020 A 0 0 0 0 0 2504 0 0 172 0 0 0 0 0 0 0 0 0 0 0 948 953 0 582 0 0 0 0 qfuncl$p
S 954 5 0 0 0 7 952 582 7007 40802000 1020 A 0 0 0 0 0 2512 0 0 172 0 0 0 0 0 0 0 0 0 0 0 953 954 0 582 0 0 0 0 qfuncl$o
S 955 22 1 0 0 9 1 582 7016 40000000 1000 A 0 0 0 0 0 0 0 948 0 0 0 0 952 0 0 0 0 0 0 0 0 0 0 582 0 0 0 0 qfuncl$arrdsc
S 956 5 6 0 0 322 963 582 7030 10a00004 14 A 0 0 0 0 0 2640 963 0 172 0 965 0 0 0 0 0 0 0 0 962 948 956 964 582 0 0 0 0 qfcoef
S 957 6 4 0 0 6 958 582 7037 40800006 0 A 0 0 0 0 0 164 0 0 0 0 0 0 1103 0 0 0 0 0 0 0 0 0 0 582 0 0 0 0 z_b_41
S 958 6 4 0 0 6 959 582 7044 40800006 0 A 0 0 0 0 0 168 0 0 0 0 0 0 1103 0 0 0 0 0 0 0 0 0 0 582 0 0 0 0 z_b_42
S 959 6 4 0 0 6 960 582 7051 40800006 0 A 0 0 0 0 0 172 0 0 0 0 0 0 1103 0 0 0 0 0 0 0 0 0 0 582 0 0 0 0 z_b_43
S 960 6 4 0 0 6 971 582 7058 40800006 0 A 0 0 0 0 0 176 0 0 0 0 0 0 1103 0 0 0 0 0 0 0 0 0 0 582 0 0 0 0 z_b_44
S 961 3 0 0 0 6 1 1 0 0 0 A 0 0 0 0 0 0 0 0 0 36 0 0 0 0 0 0 0 0 0 0 0 0 0 0 0 0 0 0 6
S 962 5 0 0 0 325 969 582 7065 40822004 1020 A 0 0 0 0 0 2656 0 0 172 0 0 0 0 0 0 0 0 0 0 0 964 962 0 582 0 0 0 0 qfcoef$sd
S 963 5 0 0 0 7 964 582 7075 40802001 1020 A 0 0 0 0 0 2640 0 0 172 0 0 0 0 0 0 0 0 0 0 0 956 963 0 582 0 0 0 0 qfcoef$p
S 964 5 0 0 0 7 962 582 7084 40802000 1020 A 0 0 0 0 0 2648 0 0 172 0 0 0 0 0 0 0 0 0 0 0 963 964 0 582 0 0 0 0 qfcoef$o
S 965 22 1 0 0 9 1 582 7093 40000000 1000 A 0 0 0 0 0 0 0 956 0 0 0 0 962 0 0 0 0 0 0 0 0 0 0 582 0 0 0 0 qfcoef$arrdsc
S 966 3 0 0 0 6 1 1 0 0 0 A 0 0 0 0 0 0 0 0 0 31 0 0 0 0 0 0 0 0 0 0 0 0 0 0 0 0 0 0 6
S 967 3 0 0 0 6 1 1 0 0 0 A 0 0 0 0 0 0 0 0 0 32 0 0 0 0 0 0 0 0 0 0 0 0 0 0 0 0 0 0 6
S 968 3 0 0 0 6 1 1 0 0 0 A 0 0 0 0 0 0 0 0 0 35 0 0 0 0 0 0 0 0 0 0 0 0 0 0 0 0 0 0 6
S 969 5 0 0 0 16 970 582 7107 800004 0 A 0 0 0 0 0 2800 0 0 172 0 0 0 0 0 0 0 0 0 0 0 956 969 0 582 0 0 0 0 has_wfc
S 970 5 6 0 0 328 974 582 7115 10a00004 14 A 0 0 0 0 0 2808 974 0 172 0 976 0 0 0 0 0 0 0 0 973 969 970 975 582 0 0 0 0 aewfc
S 971 6 4 0 0 6 972 582 7121 40800006 0 A 0 0 0 0 0 180 0 0 0 0 0 0 1103 0 0 0 0 0 0 0 0 0 0 582 0 0 0 0 z_b_45
S 972 6 4 0 0 6 978 582 7128 40800006 0 A 0 0 0 0 0 184 0 0 0 0 0 0 1103 0 0 0 0 0 0 0 0 0 0 582 0 0 0 0 z_b_46
S 973 5 0 0 0 331 977 582 7135 40822004 1020 A 0 0 0 0 0 2824 0 0 172 0 0 0 0 0 0 0 0 0 0 0 975 973 0 582 0 0 0 0 aewfc$sd
S 974 5 0 0 0 7 975 582 7144 40802001 1020 A 0 0 0 0 0 2808 0 0 172 0 0 0 0 0 0 0 0 0 0 0 970 974 0 582 0 0 0 0 aewfc$p
S 975 5 0 0 0 7 973 582 7152 40802000 1020 A 0 0 0 0 0 2816 0 0 172 0 0 0 0 0 0 0 0 0 0 0 974 975 0 582 0 0 0 0 aewfc$o
S 976 22 1 0 0 9 1 582 7160 40000000 1000 A 0 0 0 0 0 0 0 970 0 0 0 0 973 0 0 0 0 0 0 0 0 0 0 582 0 0 0 0 aewfc$arrdsc
S 977 5 6 0 0 334 981 582 7173 10a00004 14 A 0 0 0 0 0 2920 981 0 172 0 983 0 0 0 0 0 0 0 0 980 970 977 982 582 0 0 0 0 pswfc
S 978 6 4 0 0 6 979 582 7179 40800006 0 A 0 0 0 0 0 188 0 0 0 0 0 0 1103 0 0 0 0 0 0 0 0 0 0 582 0 0 0 0 z_b_47
S 979 6 4 0 0 6 986 582 7186 40800006 0 A 0 0 0 0 0 192 0 0 0 0 0 0 1103 0 0 0 0 0 0 0 0 0 0 582 0 0 0 0 z_b_48
S 980 5 0 0 0 337 984 582 7193 40822004 1020 A 0 0 0 0 0 2936 0 0 172 0 0 0 0 0 0 0 0 0 0 0 982 980 0 582 0 0 0 0 pswfc$sd
S 981 5 0 0 0 7 982 582 7202 40802001 1020 A 0 0 0 0 0 2920 0 0 172 0 0 0 0 0 0 0 0 0 0 0 977 981 0 582 0 0 0 0 pswfc$p
S 982 5 0 0 0 7 980 582 7210 40802000 1020 A 0 0 0 0 0 2928 0 0 172 0 0 0 0 0 0 0 0 0 0 0 981 982 0 582 0 0 0 0 pswfc$o
S 983 22 1 0 0 9 1 582 7218 40000000 1000 A 0 0 0 0 0 0 0 977 0 0 0 0 980 0 0 0 0 0 0 0 0 0 0 582 0 0 0 0 pswfc$arrdsc
S 984 5 0 0 0 16 985 582 7231 800004 0 A 0 0 0 0 0 3032 0 0 172 0 0 0 0 0 0 0 0 0 0 0 977 984 0 582 0 0 0 0 has_so
S 985 5 6 0 0 340 988 582 7238 10a00004 14 A 0 0 0 0 0 3040 988 0 172 0 990 0 0 0 0 0 0 0 0 987 984 985 989 582 0 0 0 0 nn
S 986 6 4 0 0 6 992 582 7241 40800006 0 A 0 0 0 0 0 196 0 0 0 0 0 0 1103 0 0 0 0 0 0 0 0 0 0 582 0 0 0 0 z_b_49
S 987 5 0 0 0 343 991 582 7248 40822004 1020 A 0 0 0 0 0 3056 0 0 172 0 0 0 0 0 0 0 0 0 0 0 989 987 0 582 0 0 0 0 nn$sd
S 988 5 0 0 0 7 989 582 7254 40802001 1020 A 0 0 0 0 0 3040 0 0 172 0 0 0 0 0 0 0 0 0 0 0 985 988 0 582 0 0 0 0 nn$p
S 989 5 0 0 0 7 987 582 7259 40802000 1020 A 0 0 0 0 0 3048 0 0 172 0 0 0 0 0 0 0 0 0 0 0 988 989 0 582 0 0 0 0 nn$o
S 990 22 1 0 0 6 1 582 7264 40000000 1000 A 0 0 0 0 0 0 0 985 0 0 0 0 987 0 0 0 0 0 0 0 0 0 0 582 0 0 0 0 nn$arrdsc
S 991 5 6 0 0 346 994 582 7274 10a00004 14 A 0 0 0 0 0 3128 994 0 172 0 996 0 0 0 0 0 0 0 0 993 985 991 995 582 0 0 0 0 rcut
S 992 6 4 0 0 6 998 582 7279 40800006 0 A 0 0 0 0 0 200 0 0 0 0 0 0 1103 0 0 0 0 0 0 0 0 0 0 582 0 0 0 0 z_b_50
S 993 5 0 0 0 349 997 582 7286 40822004 1020 A 0 0 0 0 0 3144 0 0 172 0 0 0 0 0 0 0 0 0 0 0 995 993 0 582 0 0 0 0 rcut$sd
S 994 5 0 0 0 7 995 582 7294 40802001 1020 A 0 0 0 0 0 3128 0 0 172 0 0 0 0 0 0 0 0 0 0 0 991 994 0 582 0 0 0 0 rcut$p
S 995 5 0 0 0 7 993 582 7301 40802000 1020 A 0 0 0 0 0 3136 0 0 172 0 0 0 0 0 0 0 0 0 0 0 994 995 0 582 0 0 0 0 rcut$o
S 996 22 1 0 0 9 1 582 7308 40000000 1000 A 0 0 0 0 0 0 0 991 0 0 0 0 993 0 0 0 0 0 0 0 0 0 0 582 0 0 0 0 rcut$arrdsc
S 997 5 6 0 0 352 1000 582 7320 10a00004 14 A 0 0 0 0 0 3216 1000 0 172 0 1002 0 0 0 0 0 0 0 0 999 991 997 1001 582 0 0 0 0 rcutus
S 998 6 4 0 0 6 1004 582 7327 40800006 0 A 0 0 0 0 0 204 0 0 0 0 0 0 1103 0 0 0 0 0 0 0 0 0 0 582 0 0 0 0 z_b_51
S 999 5 0 0 0 355 1003 582 7334 40822004 1020 A 0 0 0 0 0 3232 0 0 172 0 0 0 0 0 0 0 0 0 0 0 1001 999 0 582 0 0 0 0 rcutus$sd
S 1000 5 0 0 0 7 1001 582 7344 40802001 1020 A 0 0 0 0 0 3216 0 0 172 0 0 0 0 0 0 0 0 0 0 0 997 1000 0 582 0 0 0 0 rcutus$p
S 1001 5 0 0 0 7 999 582 7353 40802000 1020 A 0 0 0 0 0 3224 0 0 172 0 0 0 0 0 0 0 0 0 0 0 1000 1001 0 582 0 0 0 0 rcutus$o
S 1002 22 1 0 0 9 1 582 7362 40000000 1000 A 0 0 0 0 0 0 0 997 0 0 0 0 999 0 0 0 0 0 0 0 0 0 0 582 0 0 0 0 rcutus$arrdsc
S 1003 5 6 0 0 358 1006 582 7376 10a00004 14 A 0 0 0 0 0 3304 1006 0 172 0 1008 0 0 0 0 0 0 0 0 1005 997 1003 1007 582 0 0 0 0 jchi
S 1004 6 4 0 0 6 1010 582 7381 40800006 0 A 0 0 0 0 0 208 0 0 0 0 0 0 1103 0 0 0 0 0 0 0 0 0 0 582 0 0 0 0 z_b_52
S 1005 5 0 0 0 361 1009 582 7388 40822004 1020 A 0 0 0 0 0 3320 0 0 172 0 0 0 0 0 0 0 0 0 0 0 1007 1005 0 582 0 0 0 0 jchi$sd
S 1006 5 0 0 0 7 1007 582 7396 40802001 1020 A 0 0 0 0 0 3304 0 0 172 0 0 0 0 0 0 0 0 0 0 0 1003 1006 0 582 0 0 0 0 jchi$p
S 1007 5 0 0 0 7 1005 582 7403 40802000 1020 A 0 0 0 0 0 3312 0 0 172 0 0 0 0 0 0 0 0 0 0 0 1006 1007 0 582 0 0 0 0 jchi$o
S 1008 22 1 0 0 6 1 582 7410 40000000 1000 A 0 0 0 0 0 0 0 1003 0 0 0 0 1005 0 0 0 0 0 0 0 0 0 0 582 0 0 0 0 jchi$arrdsc
S 1009 5 6 0 0 364 1012 582 7422 10a00004 14 A 0 0 0 0 0 3392 1012 0 172 0 1014 0 0 0 0 0 0 0 0 1011 1003 1009 1013 582 0 0 0 0 jjj
S 1010 6 4 0 0 6 1026 582 7426 40800006 0 A 0 0 0 0 0 212 0 0 0 0 0 0 1103 0 0 0 0 0 0 0 0 0 0 582 0 0 0 0 z_b_53
S 1011 5 0 0 0 367 1015 582 7433 40822004 1020 A 0 0 0 0 0 3408 0 0 172 0 0 0 0 0 0 0 0 0 0 0 1013 1011 0 582 0 0 0 0 jjj$sd
S 1012 5 0 0 0 7 1013 582 7440 40802001 1020 A 0 0 0 0 0 3392 0 0 172 0 0 0 0 0 0 0 0 0 0 0 1009 1012 0 582 0 0 0 0 jjj$p
S 1013 5 0 0 0 7 1011 582 7446 40802000 1020 A 0 0 0 0 0 3400 0 0 172 0 0 0 0 0 0 0 0 0 0 0 1012 1013 0 582 0 0 0 0 jjj$o
S 1014 22 1 0 0 6 1 582 7452 40000000 1000 A 0 0 0 0 0 0 0 1009 0 0 0 0 1011 0 0 0 0 0 0 0 0 0 0 582 0 0 0 0 jjj$arrdsc
S 1015 5 0 0 0 6 1016 582 7463 800004 0 A 0 0 0 0 0 3480 0 0 172 0 0 0 0 0 0 0 0 0 0 0 1009 1015 0 582 0 0 0 0 paw_data_format
S 1016 5 0 0 0 16 1017 582 7479 800004 0 A 0 0 0 0 0 3484 0 0 172 0 0 0 0 0 0 0 0 0 0 0 1015 1016 0 582 0 0 0 0 tpawp
S 1017 5 0 0 0 128 1018 582 7485 800004 0 A 0 0 0 0 0 3488 0 0 172 0 0 0 0 0 0 0 0 0 0 0 1016 1017 0 582 0 0 0 0 paw
S 1018 5 6 0 0 56 1020 582 5292 800004 14 A 0 0 0 0 0 4200 1020 0 172 0 0 0 0 0 0 0 0 0 0 1019 1017 1018 1021 582 0 0 0 0 grid
S 1019 8 2 0 0 370 1 582 7489 40822064 1020 A 0 0 0 0 0 0 0 0 0 0 0 0 0 0 0 0 0 0 0 0 0 0 0 582 0 0 0 0 grid$sd
S 1020 5 0 0 0 7 1022 582 7497 40802001 1020 A 0 0 0 0 0 4200 0 0 172 0 0 0 0 0 0 0 0 0 0 0 1018 1020 0 582 0 0 0 0 grid$p
S 1021 6 2 0 0 7 1 582 7504 40802060 1020 A 0 0 0 0 0 8 0 0 0 0 0 0 0 0 0 0 0 0 0 0 0 0 0 582 0 0 0 0 grid$o
S 1022 5 0 0 0 16 1023 582 7511 800004 0 A 0 0 0 0 0 4208 0 0 172 0 0 0 0 0 0 0 0 0 0 0 1018 1022 0 582 0 0 0 0 has_gipaw
S 1023 5 0 0 0 6 1024 582 7521 800004 0 A 0 0 0 0 0 4212 0 0 172 0 0 0 0 0 0 0 0 0 0 0 1022 1023 0 582 0 0 0 0 gipaw_data_format
S 1024 5 0 0 0 6 1025 582 7539 800004 0 A 0 0 0 0 0 4216 0 0 172 0 0 0 0 0 0 0 0 0 0 0 1023 1024 0 582 0 0 0 0 gipaw_ncore_orbitals
S 1025 5 6 0 0 373 1028 582 7560 10a00004 14 A 0 0 0 0 0 4224 1028 0 172 0 1030 0 0 0 0 0 0 0 0 1027 1024 1025 1029 582 0 0 0 0 gipaw_core_orbital_n
S 1026 6 4 0 0 6 1032 582 7581 40800006 0 A 0 0 0 0 0 216 0 0 0 0 0 0 1103 0 0 0 0 0 0 0 0 0 0 582 0 0 0 0 z_b_54
S 1027 5 0 0 0 376 1031 582 7588 40822004 1020 A 0 0 0 0 0 4240 0 0 172 0 0 0 0 0 0 0 0 0 0 0 1029 1027 0 582 0 0 0 0 gipaw_core_orbital_n$sd
S 1028 5 0 0 0 7 1029 582 7612 40802001 1020 A 0 0 0 0 0 4224 0 0 172 0 0 0 0 0 0 0 0 0 0 0 1025 1028 0 582 0 0 0 0 gipaw_core_orbital_n$p
S 1029 5 0 0 0 7 1027 582 7635 40802000 1020 A 0 0 0 0 0 4232 0 0 172 0 0 0 0 0 0 0 0 0 0 0 1028 1029 0 582 0 0 0 0 gipaw_core_orbital_n$o
S 1030 22 1 0 0 9 1 582 7658 40000000 1000 A 0 0 0 0 0 0 0 1025 0 0 0 0 1027 0 0 0 0 0 0 0 0 0 0 582 0 0 0 0 gipaw_core_orbital_n$arrdsc
S 1031 5 6 0 0 379 1034 582 7686 10a00004 14 A 0 0 0 0 0 4312 1034 0 172 0 1036 0 0 0 0 0 0 0 0 1033 1025 1031 1035 582 0 0 0 0 gipaw_core_orbital_l
S 1032 6 4 0 0 6 1038 582 7707 40800006 0 A 0 0 0 0 0 220 0 0 0 0 0 0 1103 0 0 0 0 0 0 0 0 0 0 582 0 0 0 0 z_b_55
S 1033 5 0 0 0 382 1037 582 7714 40822004 1020 A 0 0 0 0 0 4328 0 0 172 0 0 0 0 0 0 0 0 0 0 0 1035 1033 0 582 0 0 0 0 gipaw_core_orbital_l$sd
S 1034 5 0 0 0 7 1035 582 7738 40802001 1020 A 0 0 0 0 0 4312 0 0 172 0 0 0 0 0 0 0 0 0 0 0 1031 1034 0 582 0 0 0 0 gipaw_core_orbital_l$p
S 1035 5 0 0 0 7 1033 582 7761 40802000 1020 A 0 0 0 0 0 4320 0 0 172 0 0 0 0 0 0 0 0 0 0 0 1034 1035 0 582 0 0 0 0 gipaw_core_orbital_l$o
S 1036 22 1 0 0 9 1 582 7784 40000000 1000 A 0 0 0 0 0 0 0 1031 0 0 0 0 1033 0 0 0 0 0 0 0 0 0 0 582 0 0 0 0 gipaw_core_orbital_l$arrdsc
S 1037 5 6 0 0 385 1040 582 7812 10a00004 14 A 0 0 0 0 0 4400 1040 0 172 0 1042 0 0 0 0 0 0 0 0 1039 1031 1037 1041 582 0 0 0 0 gipaw_core_orbital_el
S 1038 6 4 0 0 6 1044 582 7834 40800006 0 A 0 0 0 0 0 224 0 0 0 0 0 0 1103 0 0 0 0 0 0 0 0 0 0 582 0 0 0 0 z_b_56
S 1039 5 0 0 0 388 1043 582 7841 40822004 1020 A 0 0 0 0 0 4416 0 0 172 0 0 0 0 0 0 0 0 0 0 0 1041 1039 0 582 0 0 0 0 gipaw_core_orbital_el$sd
S 1040 5 0 0 0 7 1041 582 7866 40802001 1020 A 0 0 0 0 0 4400 0 0 172 0 0 0 0 0 0 0 0 0 0 0 1037 1040 0 582 0 0 0 0 gipaw_core_orbital_el$p
S 1041 5 0 0 0 7 1039 582 7890 40802000 1020 A 0 0 0 0 0 4408 0 0 172 0 0 0 0 0 0 0 0 0 0 0 1040 1041 0 582 0 0 0 0 gipaw_core_orbital_el$o
S 1042 22 1 0 0 9 1 582 7914 40000000 1000 A 0 0 0 0 0 0 0 1037 0 0 0 0 1039 0 0 0 0 0 0 0 0 0 0 582 0 0 0 0 gipaw_core_orbital_el$arrdsc
S 1043 5 6 0 0 391 1047 582 7943 10a00004 14 A 0 0 0 0 0 4488 1047 0 172 0 1049 0 0 0 0 0 0 0 0 1046 1037 1043 1048 582 0 0 0 0 gipaw_core_orbital
S 1044 6 4 0 0 6 1045 582 7962 40800006 0 A 0 0 0 0 0 228 0 0 0 0 0 0 1103 0 0 0 0 0 0 0 0 0 0 582 0 0 0 0 z_b_57
S 1045 6 4 0 0 6 1051 582 7969 40800006 0 A 0 0 0 0 0 232 0 0 0 0 0 0 1103 0 0 0 0 0 0 0 0 0 0 582 0 0 0 0 z_b_58
S 1046 5 0 0 0 394 1050 582 7976 40822004 1020 A 0 0 0 0 0 4504 0 0 172 0 0 0 0 0 0 0 0 0 0 0 1048 1046 0 582 0 0 0 0 gipaw_core_orbital$sd
S 1047 5 0 0 0 7 1048 582 7998 40802001 1020 A 0 0 0 0 0 4488 0 0 172 0 0 0 0 0 0 0 0 0 0 0 1043 1047 0 582 0 0 0 0 gipaw_core_orbital$p
S 1048 5 0 0 0 7 1046 582 8019 40802000 1020 A 0 0 0 0 0 4496 0 0 172 0 0 0 0 0 0 0 0 0 0 0 1047 1048 0 582 0 0 0 0 gipaw_core_orbital$o
S 1049 22 1 0 0 9 1 582 8040 40000000 1000 A 0 0 0 0 0 0 0 1043 0 0 0 0 1046 0 0 0 0 0 0 0 0 0 0 582 0 0 0 0 gipaw_core_orbital$arrdsc
S 1050 5 6 0 0 397 1053 582 8066 10a00004 14 A 0 0 0 0 0 4600 1053 0 172 0 1055 0 0 0 0 0 0 0 0 1052 1043 1050 1054 582 0 0 0 0 gipaw_vlocal_ae
S 1051 6 4 0 0 6 1057 582 8082 40800006 0 A 0 0 0 0 0 236 0 0 0 0 0 0 1103 0 0 0 0 0 0 0 0 0 0 582 0 0 0 0 z_b_59
S 1052 5 0 0 0 400 1056 582 8089 40822004 1020 A 0 0 0 0 0 4616 0 0 172 0 0 0 0 0 0 0 0 0 0 0 1054 1052 0 582 0 0 0 0 gipaw_vlocal_ae$sd
S 1053 5 0 0 0 7 1054 582 8108 40802001 1020 A 0 0 0 0 0 4600 0 0 172 0 0 0 0 0 0 0 0 0 0 0 1050 1053 0 582 0 0 0 0 gipaw_vlocal_ae$p
S 1054 5 0 0 0 7 1052 582 8126 40802000 1020 A 0 0 0 0 0 4608 0 0 172 0 0 0 0 0 0 0 0 0 0 0 1053 1054 0 582 0 0 0 0 gipaw_vlocal_ae$o
S 1055 22 1 0 0 9 1 582 8144 40000000 1000 A 0 0 0 0 0 0 0 1050 0 0 0 0 1052 0 0 0 0 0 0 0 0 0 0 582 0 0 0 0 gipaw_vlocal_ae$arrdsc
S 1056 5 6 0 0 403 1059 582 8167 10a00004 14 A 0 0 0 0 0 4688 1059 0 172 0 1061 0 0 0 0 0 0 0 0 1058 1050 1056 1060 582 0 0 0 0 gipaw_vlocal_ps
S 1057 6 4 0 0 6 1064 582 8183 40800006 0 A 0 0 0 0 0 240 0 0 0 0 0 0 1103 0 0 0 0 0 0 0 0 0 0 582 0 0 0 0 z_b_60
S 1058 5 0 0 0 406 1062 582 8190 40822004 1020 A 0 0 0 0 0 4704 0 0 172 0 0 0 0 0 0 0 0 0 0 0 1060 1058 0 582 0 0 0 0 gipaw_vlocal_ps$sd
S 1059 5 0 0 0 7 1060 582 8209 40802001 1020 A 0 0 0 0 0 4688 0 0 172 0 0 0 0 0 0 0 0 0 0 0 1056 1059 0 582 0 0 0 0 gipaw_vlocal_ps$p
S 1060 5 0 0 0 7 1058 582 8227 40802000 1020 A 0 0 0 0 0 4696 0 0 172 0 0 0 0 0 0 0 0 0 0 0 1059 1060 0 582 0 0 0 0 gipaw_vlocal_ps$o
S 1061 22 1 0 0 9 1 582 8245 40000000 1000 A 0 0 0 0 0 0 0 1056 0 0 0 0 1058 0 0 0 0 0 0 0 0 0 0 582 0 0 0 0 gipaw_vlocal_ps$arrdsc
S 1062 5 0 0 0 6 1063 582 8268 800004 0 A 0 0 0 0 0 4776 0 0 172 0 0 0 0 0 0 0 0 0 0 0 1056 1062 0 582 0 0 0 0 gipaw_wfs_nchannels
S 1063 5 6 0 0 409 1066 582 8288 10a00004 14 A 0 0 0 0 0 4784 1066 0 172 0 1068 0 0 0 0 0 0 0 0 1065 1062 1063 1067 582 0 0 0 0 gipaw_wfs_el
S 1064 6 4 0 0 6 1070 582 8301 40800006 0 A 0 0 0 0 0 244 0 0 0 0 0 0 1103 0 0 0 0 0 0 0 0 0 0 582 0 0 0 0 z_b_61
S 1065 5 0 0 0 412 1069 582 8308 40822004 1020 A 0 0 0 0 0 4800 0 0 172 0 0 0 0 0 0 0 0 0 0 0 1067 1065 0 582 0 0 0 0 gipaw_wfs_el$sd
S 1066 5 0 0 0 7 1067 582 8324 40802001 1020 A 0 0 0 0 0 4784 0 0 172 0 0 0 0 0 0 0 0 0 0 0 1063 1066 0 582 0 0 0 0 gipaw_wfs_el$p
S 1067 5 0 0 0 7 1065 582 8339 40802000 1020 A 0 0 0 0 0 4792 0 0 172 0 0 0 0 0 0 0 0 0 0 0 1066 1067 0 582 0 0 0 0 gipaw_wfs_el$o
S 1068 22 1 0 0 9 1 582 8354 40000000 1000 A 0 0 0 0 0 0 0 1063 0 0 0 0 1065 0 0 0 0 0 0 0 0 0 0 582 0 0 0 0 gipaw_wfs_el$arrdsc
S 1069 5 6 0 0 415 1072 582 8374 10a00004 14 A 0 0 0 0 0 4872 1072 0 172 0 1074 0 0 0 0 0 0 0 0 1071 1063 1069 1073 582 0 0 0 0 gipaw_wfs_ll
S 1070 6 4 0 0 6 1076 582 8387 40800006 0 A 0 0 0 0 0 248 0 0 0 0 0 0 1103 0 0 0 0 0 0 0 0 0 0 582 0 0 0 0 z_b_62
S 1071 5 0 0 0 418 1075 582 8394 40822004 1020 A 0 0 0 0 0 4888 0 0 172 0 0 0 0 0 0 0 0 0 0 0 1073 1071 0 582 0 0 0 0 gipaw_wfs_ll$sd
S 1072 5 0 0 0 7 1073 582 8410 40802001 1020 A 0 0 0 0 0 4872 0 0 172 0 0 0 0 0 0 0 0 0 0 0 1069 1072 0 582 0 0 0 0 gipaw_wfs_ll$p
S 1073 5 0 0 0 7 1071 582 8425 40802000 1020 A 0 0 0 0 0 4880 0 0 172 0 0 0 0 0 0 0 0 0 0 0 1072 1073 0 582 0 0 0 0 gipaw_wfs_ll$o
S 1074 22 1 0 0 9 1 582 8440 40000000 1000 A 0 0 0 0 0 0 0 1069 0 0 0 0 1071 0 0 0 0 0 0 0 0 0 0 582 0 0 0 0 gipaw_wfs_ll$arrdsc
S 1075 5 6 0 0 421 1079 582 8460 10a00004 14 A 0 0 0 0 0 4960 1079 0 172 0 1081 0 0 0 0 0 0 0 0 1078 1069 1075 1080 582 0 0 0 0 gipaw_wfs_ae
S 1076 6 4 0 0 6 1077 582 8473 40800006 0 A 0 0 0 0 0 252 0 0 0 0 0 0 1103 0 0 0 0 0 0 0 0 0 0 582 0 0 0 0 z_b_63
S 1077 6 4 0 0 6 1083 582 8480 40800006 0 A 0 0 0 0 0 256 0 0 0 0 0 0 1103 0 0 0 0 0 0 0 0 0 0 582 0 0 0 0 z_b_64
S 1078 5 0 0 0 424 1082 582 8487 40822004 1020 A 0 0 0 0 0 4976 0 0 172 0 0 0 0 0 0 0 0 0 0 0 1080 1078 0 582 0 0 0 0 gipaw_wfs_ae$sd
S 1079 5 0 0 0 7 1080 582 8503 40802001 1020 A 0 0 0 0 0 4960 0 0 172 0 0 0 0 0 0 0 0 0 0 0 1075 1079 0 582 0 0 0 0 gipaw_wfs_ae$p
S 1080 5 0 0 0 7 1078 582 8518 40802000 1020 A 0 0 0 0 0 4968 0 0 172 0 0 0 0 0 0 0 0 0 0 0 1079 1080 0 582 0 0 0 0 gipaw_wfs_ae$o
S 1081 22 1 0 0 9 1 582 8533 40000000 1000 A 0 0 0 0 0 0 0 1075 0 0 0 0 1078 0 0 0 0 0 0 0 0 0 0 582 0 0 0 0 gipaw_wfs_ae$arrdsc
S 1082 5 6 0 0 427 1085 582 8553 10a00004 14 A 0 0 0 0 0 5072 1085 0 172 0 1087 0 0 0 0 0 0 0 0 1084 1075 1082 1086 582 0 0 0 0 gipaw_wfs_rcut
S 1083 6 4 0 0 6 1089 582 8568 40800006 0 A 0 0 0 0 0 260 0 0 0 0 0 0 1103 0 0 0 0 0 0 0 0 0 0 582 0 0 0 0 z_b_65
S 1084 5 0 0 0 430 1088 582 8575 40822004 1020 A 0 0 0 0 0 5088 0 0 172 0 0 0 0 0 0 0 0 0 0 0 1086 1084 0 582 0 0 0 0 gipaw_wfs_rcut$sd
S 1085 5 0 0 0 7 1086 582 8593 40802001 1020 A 0 0 0 0 0 5072 0 0 172 0 0 0 0 0 0 0 0 0 0 0 1082 1085 0 582 0 0 0 0 gipaw_wfs_rcut$p
S 1086 5 0 0 0 7 1084 582 8610 40802000 1020 A 0 0 0 0 0 5080 0 0 172 0 0 0 0 0 0 0 0 0 0 0 1085 1086 0 582 0 0 0 0 gipaw_wfs_rcut$o
S 1087 22 1 0 0 9 1 582 8627 40000000 1000 A 0 0 0 0 0 0 0 1082 0 0 0 0 1084 0 0 0 0 0 0 0 0 0 0 582 0 0 0 0 gipaw_wfs_rcut$arrdsc
S 1088 5 6 0 0 433 1091 582 8649 10a00004 14 A 0 0 0 0 0 5160 1091 0 172 0 1093 0 0 0 0 0 0 0 0 1090 1082 1088 1092 582 0 0 0 0 gipaw_wfs_rcutus
S 1089 6 4 0 0 6 1095 582 8666 40800006 0 A 0 0 0 0 0 264 0 0 0 0 0 0 1103 0 0 0 0 0 0 0 0 0 0 582 0 0 0 0 z_b_66
S 1090 5 0 0 0 436 1094 582 8673 40822004 1020 A 0 0 0 0 0 5176 0 0 172 0 0 0 0 0 0 0 0 0 0 0 1092 1090 0 582 0 0 0 0 gipaw_wfs_rcutus$sd
S 1091 5 0 0 0 7 1092 582 8693 40802001 1020 A 0 0 0 0 0 5160 0 0 172 0 0 0 0 0 0 0 0 0 0 0 1088 1091 0 582 0 0 0 0 gipaw_wfs_rcutus$p
S 1092 5 0 0 0 7 1090 582 8712 40802000 1020 A 0 0 0 0 0 5168 0 0 172 0 0 0 0 0 0 0 0 0 0 0 1091 1092 0 582 0 0 0 0 gipaw_wfs_rcutus$o
S 1093 22 1 0 0 9 1 582 8731 40000000 1000 A 0 0 0 0 0 0 0 1088 0 0 0 0 1090 0 0 0 0 0 0 0 0 0 0 582 0 0 0 0 gipaw_wfs_rcutus$arrdsc
S 1094 5 6 0 0 439 1098 582 8755 10a00004 14 A 0 0 0 0 0 5248 1098 0 172 0 1100 0 0 0 0 0 0 0 0 1097 1088 1094 1099 582 0 0 0 0 gipaw_wfs_ps
S 1095 6 4 0 0 6 1096 582 8768 40800006 0 A 0 0 0 0 0 268 0 0 0 0 0 0 1103 0 0 0 0 0 0 0 0 0 0 582 0 0 0 0 z_b_67
S 1096 6 4 0 0 6 1 582 8775 40800006 0 A 0 0 0 0 0 272 0 0 0 0 0 0 1103 0 0 0 0 0 0 0 0 0 0 582 0 0 0 0 z_b_68
S 1097 5 0 0 0 442 1 582 8782 40822004 1020 A 0 0 0 0 0 5264 0 0 172 0 0 0 0 0 0 0 0 0 0 0 1099 1097 0 582 0 0 0 0 gipaw_wfs_ps$sd
S 1098 5 0 0 0 7 1099 582 8798 40802001 1020 A 0 0 0 0 0 5248 0 0 172 0 0 0 0 0 0 0 0 0 0 0 1094 1098 0 582 0 0 0 0 gipaw_wfs_ps$p
S 1099 5 0 0 0 7 1097 582 8813 40802000 1020 A 0 0 0 0 0 5256 0 0 172 0 0 0 0 0 0 0 0 0 0 0 1098 1099 0 582 0 0 0 0 gipaw_wfs_ps$o
S 1100 22 1 0 0 9 1 582 8828 40000000 1000 A 0 0 0 0 0 0 0 1094 0 0 0 0 1097 0 0 0 0 0 0 0 0 0 0 582 0 0 0 0 gipaw_wfs_ps$arrdsc
S 1101 8 5 0 0 445 1 582 8848 40022004 1220 A 0 0 0 0 0 0 0 172 0 0 0 0 0 0 0 0 0 0 0 0 0 0 0 582 0 0 0 0 pseudo_types$pseudo_upf$td
S 1102 8 5 0 0 448 1 582 8875 40022004 1220 A 0 0 0 0 0 0 0 128 0 0 0 0 0 0 0 0 0 0 0 0 0 0 0 582 0 0 0 0 pseudo_types$paw_in_upf$td
S 1103 11 0 0 0 9 666 582 8902 40800000 801000 A 0 0 0 0 0 276 0 0 724 1096 0 0 0 0 0 0 0 0 0 0 0 0 0 0 0 0 0 0 _pseudo_types$0
S 1104 23 5 0 0 0 1106 582 8918 0 0 A 0 0 0 0 0 0 0 0 0 0 0 0 0 0 0 0 0 0 0 0 0 0 0 0 0 0 0 0 nullify_paw_in_upf
S 1105 1 3 3 0 128 1 1104 7485 4 3000 A 0 0 0 0 0 0 0 0 0 0 0 0 0 0 0 0 0 0 0 0 0 0 0 0 0 0 0 0 paw
S 1106 14 5 0 0 0 1 1104 8918 0 400000 A 0 0 0 0 0 0 0 43 1 0 0 0 0 0 0 0 0 0 0 0 0 164 0 582 0 0 0 0 nullify_paw_in_upf
F 1106 1 1105
S 1107 23 5 0 0 0 1109 582 8937 0 0 A 0 0 0 0 0 0 0 0 0 0 0 0 0 0 0 0 0 0 0 0 0 0 0 0 0 0 0 0 deallocate_paw_in_upf
S 1108 1 3 3 0 128 1 1107 7485 4 3000 A 0 0 0 0 0 0 0 0 0 0 0 0 0 0 0 0 0 0 0 0 0 0 0 0 0 0 0 0 paw
S 1109 14 5 0 0 0 1 1107 8937 0 400000 A 0 0 0 0 0 0 0 45 1 0 0 0 0 0 0 0 0 0 0 0 0 174 0 582 0 0 0 0 deallocate_paw_in_upf
F 1109 1 1108
S 1110 23 5 0 0 0 1112 582 8959 0 0 A 0 0 0 0 0 0 0 0 0 0 0 0 0 0 0 0 0 0 0 0 0 0 0 0 0 0 0 0 nullify_pseudo_upf
S 1111 1 3 3 0 172 1 1110 8978 4 3000 A 0 0 0 0 0 0 0 0 0 0 0 0 0 0 0 0 0 0 0 0 0 0 0 0 0 0 0 0 upf
S 1112 14 5 0 0 0 1 1110 8959 0 400000 A 0 0 0 0 0 0 0 47 1 0 0 0 0 0 0 0 0 0 0 0 0 185 0 582 0 0 0 0 nullify_pseudo_upf
F 1112 1 1111
S 1113 23 5 0 0 0 1115 582 8982 0 0 A 0 0 0 0 0 0 0 0 0 0 0 0 0 0 0 0 0 0 0 0 0 0 0 0 0 0 0 0 deallocate_pseudo_upf
S 1114 1 3 3 0 172 1 1113 8978 4 3000 A 0 0 0 0 0 0 0 0 0 0 0 0 0 0 0 0 0 0 0 0 0 0 0 0 0 0 0 0 upf
S 1115 14 5 0 0 0 1 1113 8982 0 400000 A 0 0 0 0 0 0 0 49 1 0 0 0 0 0 0 0 0 0 0 0 0 216 0 582 0 0 0 0 deallocate_pseudo_upf
F 1115 1 1114
A 13 2 0 0 0 6 587 0 0 0 13 0 0 0 0 0 0 0 0 0
A 19 2 0 0 0 6 597 0 0 0 19 0 0 0 0 0 0 0 0 0
A 22 2 0 0 0 6 598 0 0 0 22 0 0 0 0 0 0 0 0 0
A 24 2 0 0 0 6 599 0 0 0 24 0 0 0 0 0 0 0 0 0
A 28 2 0 0 0 6 600 0 0 0 28 0 0 0 0 0 0 0 0 0
A 30 2 0 0 0 6 601 0 0 0 30 0 0 0 0 0 0 0 0 0
A 88 1 0 1 0 137 725 0 0 0 0 0 0 0 0 0 0 0 0 0
A 89 10 0 0 0 6 88 4 0 0 0 0 0 0 0 0 0 0 0 0
X 1 22
A 90 10 0 0 89 6 88 7 0 0 0 0 0 0 0 0 0 0 0 0
X 1 24
A 91 4 0 0 0 6 90 0 3 0 0 0 0 2 0 0 0 0 0 0
A 92 4 0 0 0 6 89 0 91 0 0 0 0 1 0 0 0 0 0 0
A 93 10 0 0 90 6 88 10 0 0 0 0 0 0 0 0 0 0 0 0
X 1 28
A 94 10 0 0 93 6 88 13 0 0 0 0 0 0 0 0 0 0 0 0
X 1 30
A 95 10 0 0 94 6 88 1 0 0 0 0 0 0 0 0 0 0 0 0
X 1 13
A 99 2 0 0 0 6 733 0 0 0 99 0 0 0 0 0 0 0 0 0
A 100 1 0 3 0 143 734 0 0 0 0 0 0 0 0 0 0 0 0 0
A 101 10 0 0 0 6 100 4 0 0 0 0 0 0 0 0 0 0 0 0
X 1 22
A 102 10 0 0 101 6 100 7 0 0 0 0 0 0 0 0 0 0 0 0
X 1 24
A 103 4 0 0 0 6 102 0 3 0 0 0 0 2 0 0 0 0 0 0
A 104 4 0 0 0 6 101 0 103 0 0 0 0 1 0 0 0 0 0 0
A 105 2 0 0 0 6 738 0 0 0 105 0 0 0 0 0 0 0 0 0
A 106 10 0 0 102 6 100 16 0 0 0 0 0 0 0 0 0 0 0 0
X 1 105
A 107 2 0 0 0 6 739 0 0 0 107 0 0 0 0 0 0 0 0 0
A 108 10 0 0 106 6 100 19 0 0 0 0 0 0 0 0 0 0 0 0
X 1 107
A 109 4 0 0 19 6 108 0 3 0 0 0 0 2 0 0 0 0 0 0
A 110 4 0 0 81 6 106 0 109 0 0 0 0 1 0 0 0 0 0 0
A 111 2 0 0 0 6 740 0 0 0 111 0 0 0 0 0 0 0 0 0
A 112 10 0 0 108 6 100 22 0 0 0 0 0 0 0 0 0 0 0 0
X 1 111
A 113 2 0 0 0 6 741 0 0 0 113 0 0 0 0 0 0 0 0 0
A 114 10 0 0 112 6 100 25 0 0 0 0 0 0 0 0 0 0 0 0
X 1 113
A 115 4 0 0 0 6 114 0 3 0 0 0 0 2 0 0 0 0 0 0
A 116 4 0 0 86 6 112 0 115 0 0 0 0 1 0 0 0 0 0 0
A 117 10 0 0 114 6 100 10 0 0 0 0 0 0 0 0 0 0 0 0
X 1 28
A 118 2 0 0 0 6 742 0 0 0 118 0 0 0 0 0 0 0 0 0
A 119 10 0 0 117 6 100 28 0 0 0 0 0 0 0 0 0 0 0 0
X 1 118
A 120 2 0 0 0 6 743 0 0 0 120 0 0 0 0 0 0 0 0 0
A 121 10 0 0 119 6 100 31 0 0 0 0 0 0 0 0 0 0 0 0
X 1 120
A 122 10 0 0 121 6 100 13 0 0 0 0 0 0 0 0 0 0 0 0
X 1 30
A 123 10 0 0 122 6 100 1 0 0 0 0 0 0 0 0 0 0 0 0
X 1 13
A 127 1 0 3 0 149 748 0 0 0 0 0 0 0 0 0 0 0 0 0
A 128 10 0 0 0 6 127 4 0 0 0 0 0 0 0 0 0 0 0 0
X 1 22
A 129 10 0 0 128 6 127 7 0 0 0 0 0 0 0 0 0 0 0 0
X 1 24
A 130 4 0 0 96 6 129 0 3 0 0 0 0 2 0 0 0 0 0 0
A 131 4 0 0 0 6 128 0 130 0 0 0 0 1 0 0 0 0 0 0
A 132 10 0 0 129 6 127 16 0 0 0 0 0 0 0 0 0 0 0 0
X 1 105
A 133 10 0 0 132 6 127 19 0 0 0 0 0 0 0 0 0 0 0 0
X 1 107
A 134 4 0 0 0 6 133 0 3 0 0 0 0 2 0 0 0 0 0 0
A 135 4 0 0 0 6 132 0 134 0 0 0 0 1 0 0 0 0 0 0
A 136 10 0 0 133 6 127 22 0 0 0 0 0 0 0 0 0 0 0 0
X 1 111
A 137 10 0 0 136 6 127 25 0 0 0 0 0 0 0 0 0 0 0 0
X 1 113
A 138 4 0 0 0 6 137 0 3 0 0 0 0 2 0 0 0 0 0 0
A 139 4 0 0 14 6 136 0 138 0 0 0 0 1 0 0 0 0 0 0
A 140 10 0 0 137 6 127 10 0 0 0 0 0 0 0 0 0 0 0 0
X 1 28
A 141 10 0 0 140 6 127 28 0 0 0 0 0 0 0 0 0 0 0 0
X 1 118
A 142 10 0 0 141 6 127 31 0 0 0 0 0 0 0 0 0 0 0 0
X 1 120
A 143 10 0 0 142 6 127 13 0 0 0 0 0 0 0 0 0 0 0 0
X 1 30
A 144 10 0 0 143 6 127 1 0 0 0 0 0 0 0 0 0 0 0 0
X 1 13
A 146 1 0 1 37 155 754 0 0 0 0 0 0 0 0 0 0 0 0 0
A 147 10 0 0 0 6 146 4 0 0 0 0 0 0 0 0 0 0 0 0
X 1 22
A 148 10 0 0 147 6 146 7 0 0 0 0 0 0 0 0 0 0 0 0
X 1 24
A 149 4 0 0 0 6 148 0 3 0 0 0 0 2 0 0 0 0 0 0
A 150 4 0 0 0 6 147 0 149 0 0 0 0 1 0 0 0 0 0 0
A 151 10 0 0 148 6 146 10 0 0 0 0 0 0 0 0 0 0 0 0
X 1 28
A 152 10 0 0 151 6 146 13 0 0 0 0 0 0 0 0 0 0 0 0
X 1 30
A 153 10 0 0 152 6 146 1 0 0 0 0 0 0 0 0 0 0 0 0
X 1 13
A 155 1 0 1 0 161 760 0 0 0 0 0 0 0 0 0 0 0 0 0
A 156 10 0 0 60 6 155 4 0 0 0 0 0 0 0 0 0 0 0 0
X 1 22
A 157 10 0 0 156 6 155 7 0 0 0 0 0 0 0 0 0 0 0 0
X 1 24
A 158 4 0 0 0 6 157 0 3 0 0 0 0 2 0 0 0 0 0 0
A 159 4 0 0 15 6 156 0 158 0 0 0 0 1 0 0 0 0 0 0
A 160 10 0 0 157 6 155 10 0 0 0 0 0 0 0 0 0 0 0 0
X 1 28
A 161 10 0 0 160 6 155 13 0 0 0 0 0 0 0 0 0 0 0 0
X 1 30
A 162 10 0 0 161 6 155 1 0 0 0 0 0 0 0 0 0 0 0 0
X 1 13
A 166 1 0 3 0 167 768 0 0 0 0 0 0 0 0 0 0 0 0 0
A 167 10 0 0 0 6 166 4 0 0 0 0 0 0 0 0 0 0 0 0
X 1 22
A 168 10 0 0 167 6 166 7 0 0 0 0 0 0 0 0 0 0 0 0
X 1 24
A 169 4 0 0 0 6 168 0 3 0 0 0 0 2 0 0 0 0 0 0
A 170 4 0 0 0 6 167 0 169 0 0 0 0 1 0 0 0 0 0 0
A 171 10 0 0 168 6 166 16 0 0 0 0 0 0 0 0 0 0 0 0
X 1 105
A 172 10 0 0 171 6 166 19 0 0 0 0 0 0 0 0 0 0 0 0
X 1 107
A 173 4 0 0 0 6 172 0 3 0 0 0 0 2 0 0 0 0 0 0
A 174 4 0 0 0 6 171 0 173 0 0 0 0 1 0 0 0 0 0 0
A 175 10 0 0 172 6 166 22 0 0 0 0 0 0 0 0 0 0 0 0
X 1 111
A 176 10 0 0 175 6 166 25 0 0 0 0 0 0 0 0 0 0 0 0
X 1 113
A 177 4 0 0 0 6 176 0 3 0 0 0 0 2 0 0 0 0 0 0
A 178 4 0 0 55 6 175 0 177 0 0 0 0 1 0 0 0 0 0 0
A 179 10 0 0 176 6 166 10 0 0 0 0 0 0 0 0 0 0 0 0
X 1 28
A 180 10 0 0 179 6 166 28 0 0 0 0 0 0 0 0 0 0 0 0
X 1 118
A 181 10 0 0 180 6 166 31 0 0 0 0 0 0 0 0 0 0 0 0
X 1 120
A 182 10 0 0 181 6 166 13 0 0 0 0 0 0 0 0 0 0 0 0
X 1 30
A 183 10 0 0 182 6 166 1 0 0 0 0 0 0 0 0 0 0 0 0
X 1 13
A 184 2 0 0 0 6 776 0 0 0 184 0 0 0 0 0 0 0 0 0
A 185 2 0 0 0 6 780 0 0 0 185 0 0 0 0 0 0 0 0 0
A 186 2 0 0 0 178 779 0 0 0 186 0 0 0 0 0 0 0 0 0
A 187 2 0 0 0 6 785 0 0 0 187 0 0 0 0 0 0 0 0 0
A 188 2 0 0 0 6 788 0 0 0 188 0 0 0 0 0 0 0 0 0
A 189 2 0 0 0 6 798 0 0 0 189 0 0 0 0 0 0 0 0 0
A 191 1 0 1 0 193 806 0 0 0 0 0 0 0 0 0 0 0 0 0
A 192 10 0 0 0 6 191 4 0 0 0 0 0 0 0 0 0 0 0 0
X 1 22
A 193 10 0 0 192 6 191 7 0 0 0 0 0 0 0 0 0 0 0 0
X 1 24
A 194 4 0 0 0 6 193 0 3 0 0 0 0 2 0 0 0 0 0 0
A 195 4 0 0 0 6 192 0 194 0 0 0 0 1 0 0 0 0 0 0
A 196 10 0 0 193 6 191 10 0 0 0 0 0 0 0 0 0 0 0 0
X 1 28
A 197 10 0 0 196 6 191 13 0 0 0 0 0 0 0 0 0 0 0 0
X 1 30
A 198 10 0 0 197 6 191 1 0 0 0 0 0 0 0 0 0 0 0 0
X 1 13
A 200 1 0 1 0 199 813 0 0 0 0 0 0 0 0 0 0 0 0 0
A 201 10 0 0 0 6 200 4 0 0 0 0 0 0 0 0 0 0 0 0
X 1 22
A 202 10 0 0 201 6 200 7 0 0 0 0 0 0 0 0 0 0 0 0
X 1 24
A 203 4 0 0 0 6 202 0 3 0 0 0 0 2 0 0 0 0 0 0
A 204 4 0 0 198 6 201 0 203 0 0 0 0 1 0 0 0 0 0 0
A 205 10 0 0 202 6 200 10 0 0 0 0 0 0 0 0 0 0 0 0
X 1 28
A 206 10 0 0 205 6 200 13 0 0 0 0 0 0 0 0 0 0 0 0
X 1 30
A 207 10 0 0 206 6 200 1 0 0 0 0 0 0 0 0 0 0 0 0
X 1 13
A 210 2 0 0 0 6 820 0 0 0 210 0 0 0 0 0 0 0 0 0
A 211 1 0 5 0 205 821 0 0 0 0 0 0 0 0 0 0 0 0 0
A 212 10 0 0 0 6 211 4 0 0 0 0 0 0 0 0 0 0 0 0
X 1 22
A 213 10 0 0 212 6 211 7 0 0 0 0 0 0 0 0 0 0 0 0
X 1 24
A 214 4 0 0 72 6 213 0 3 0 0 0 0 2 0 0 0 0 0 0
A 215 4 0 0 0 6 212 0 214 0 0 0 0 1 0 0 0 0 0 0
A 216 10 0 0 213 6 211 16 0 0 0 0 0 0 0 0 0 0 0 0
X 1 105
A 217 10 0 0 216 6 211 19 0 0 0 0 0 0 0 0 0 0 0 0
X 1 107
A 218 4 0 0 208 6 217 0 3 0 0 0 0 2 0 0 0 0 0 0
A 219 4 0 0 0 6 216 0 218 0 0 0 0 1 0 0 0 0 0 0
A 220 10 0 0 217 6 211 10 0 0 0 0 0 0 0 0 0 0 0 0
X 1 28
A 221 10 0 0 220 6 211 28 0 0 0 0 0 0 0 0 0 0 0 0
X 1 118
A 222 10 0 0 221 6 211 13 0 0 0 0 0 0 0 0 0 0 0 0
X 1 30
A 223 10 0 0 222 6 211 1 0 0 0 0 0 0 0 0 0 0 0 0
X 1 13
A 225 1 0 1 0 211 827 0 0 0 0 0 0 0 0 0 0 0 0 0
A 226 10 0 0 130 6 225 4 0 0 0 0 0 0 0 0 0 0 0 0
X 1 22
A 227 10 0 0 226 6 225 7 0 0 0 0 0 0 0 0 0 0 0 0
X 1 24
A 228 4 0 0 0 6 227 0 3 0 0 0 0 2 0 0 0 0 0 0
A 229 4 0 0 0 6 226 0 228 0 0 0 0 1 0 0 0 0 0 0
A 230 10 0 0 227 6 225 10 0 0 0 0 0 0 0 0 0 0 0 0
X 1 28
A 231 10 0 0 230 6 225 13 0 0 0 0 0 0 0 0 0 0 0 0
X 1 30
A 232 10 0 0 231 6 225 1 0 0 0 0 0 0 0 0 0 0 0 0
X 1 13
A 234 1 0 1 0 217 833 0 0 0 0 0 0 0 0 0 0 0 0 0
A 235 10 0 0 0 6 234 4 0 0 0 0 0 0 0 0 0 0 0 0
X 1 22
A 236 10 0 0 235 6 234 7 0 0 0 0 0 0 0 0 0 0 0 0
X 1 24
A 237 4 0 0 0 6 236 0 3 0 0 0 0 2 0 0 0 0 0 0
A 238 4 0 0 0 6 235 0 237 0 0 0 0 1 0 0 0 0 0 0
A 239 10 0 0 236 6 234 10 0 0 0 0 0 0 0 0 0 0 0 0
X 1 28
A 240 10 0 0 239 6 234 13 0 0 0 0 0 0 0 0 0 0 0 0
X 1 30
A 241 10 0 0 240 6 234 1 0 0 0 0 0 0 0 0 0 0 0 0
X 1 13
A 243 1 0 1 0 223 839 0 0 0 0 0 0 0 0 0 0 0 0 0
A 244 10 0 0 0 6 243 4 0 0 0 0 0 0 0 0 0 0 0 0
X 1 22
A 245 10 0 0 244 6 243 7 0 0 0 0 0 0 0 0 0 0 0 0
X 1 24
A 246 4 0 0 0 6 245 0 3 0 0 0 0 2 0 0 0 0 0 0
A 247 4 0 0 110 6 244 0 246 0 0 0 0 1 0 0 0 0 0 0
A 248 10 0 0 245 6 243 10 0 0 0 0 0 0 0 0 0 0 0 0
X 1 28
A 249 10 0 0 248 6 243 13 0 0 0 0 0 0 0 0 0 0 0 0
X 1 30
A 250 10 0 0 249 6 243 1 0 0 0 0 0 0 0 0 0 0 0 0
X 1 13
A 252 1 0 1 0 229 845 0 0 0 0 0 0 0 0 0 0 0 0 0
A 253 10 0 0 0 6 252 4 0 0 0 0 0 0 0 0 0 0 0 0
X 1 22
A 254 10 0 0 253 6 252 7 0 0 0 0 0 0 0 0 0 0 0 0
X 1 24
A 255 4 0 0 120 6 254 0 3 0 0 0 0 2 0 0 0 0 0 0
A 256 4 0 0 0 6 253 0 255 0 0 0 0 1 0 0 0 0 0 0
A 257 10 0 0 254 6 252 10 0 0 0 0 0 0 0 0 0 0 0 0
X 1 28
A 258 10 0 0 257 6 252 13 0 0 0 0 0 0 0 0 0 0 0 0
X 1 30
A 259 10 0 0 258 6 252 1 0 0 0 0 0 0 0 0 0 0 0 0
X 1 13
A 261 1 0 1 189 235 851 0 0 0 0 0 0 0 0 0 0 0 0 0
A 262 10 0 0 164 6 261 4 0 0 0 0 0 0 0 0 0 0 0 0
X 1 22
A 263 10 0 0 262 6 261 7 0 0 0 0 0 0 0 0 0 0 0 0
X 1 24
A 264 4 0 0 255 6 263 0 3 0 0 0 0 2 0 0 0 0 0 0
A 265 4 0 0 0 6 262 0 264 0 0 0 0 1 0 0 0 0 0 0
A 266 10 0 0 263 6 261 10 0 0 0 0 0 0 0 0 0 0 0 0
X 1 28
A 267 10 0 0 266 6 261 13 0 0 0 0 0 0 0 0 0 0 0 0
X 1 30
A 268 10 0 0 267 6 261 1 0 0 0 0 0 0 0 0 0 0 0 0
X 1 13
A 270 1 0 1 0 241 857 0 0 0 0 0 0 0 0 0 0 0 0 0
A 271 10 0 0 0 6 270 4 0 0 0 0 0 0 0 0 0 0 0 0
X 1 22
A 272 10 0 0 271 6 270 7 0 0 0 0 0 0 0 0 0 0 0 0
X 1 24
A 273 4 0 0 0 6 272 0 3 0 0 0 0 2 0 0 0 0 0 0
A 274 4 0 0 71 6 271 0 273 0 0 0 0 1 0 0 0 0 0 0
A 275 10 0 0 272 6 270 10 0 0 0 0 0 0 0 0 0 0 0 0
X 1 28
A 276 10 0 0 275 6 270 13 0 0 0 0 0 0 0 0 0 0 0 0
X 1 30
A 277 10 0 0 276 6 270 1 0 0 0 0 0 0 0 0 0 0 0 0
X 1 13
A 279 1 0 1 0 247 863 0 0 0 0 0 0 0 0 0 0 0 0 0
A 280 10 0 0 0 6 279 4 0 0 0 0 0 0 0 0 0 0 0 0
X 1 22
A 281 10 0 0 280 6 279 7 0 0 0 0 0 0 0 0 0 0 0 0
X 1 24
A 282 4 0 0 0 6 281 0 3 0 0 0 0 2 0 0 0 0 0 0
A 283 4 0 0 0 6 280 0 282 0 0 0 0 1 0 0 0 0 0 0
A 284 10 0 0 281 6 279 10 0 0 0 0 0 0 0 0 0 0 0 0
X 1 28
A 285 10 0 0 284 6 279 13 0 0 0 0 0 0 0 0 0 0 0 0
X 1 30
A 286 10 0 0 285 6 279 1 0 0 0 0 0 0 0 0 0 0 0 0
X 1 13
A 288 1 0 1 0 253 869 0 0 0 0 0 0 0 0 0 0 0 0 0
A 289 10 0 0 0 6 288 4 0 0 0 0 0 0 0 0 0 0 0 0
X 1 22
A 290 10 0 0 289 6 288 7 0 0 0 0 0 0 0 0 0 0 0 0
X 1 24
A 291 4 0 0 166 6 290 0 3 0 0 0 0 2 0 0 0 0 0 0
A 292 4 0 0 68 6 289 0 291 0 0 0 0 1 0 0 0 0 0 0
A 293 10 0 0 290 6 288 10 0 0 0 0 0 0 0 0 0 0 0 0
X 1 28
A 294 10 0 0 293 6 288 13 0 0 0 0 0 0 0 0 0 0 0 0
X 1 30
A 295 10 0 0 294 6 288 1 0 0 0 0 0 0 0 0 0 0 0 0
X 1 13
A 298 1 0 5 211 259 876 0 0 0 0 0 0 0 0 0 0 0 0 0
A 299 10 0 0 203 6 298 4 0 0 0 0 0 0 0 0 0 0 0 0
X 1 22
A 300 10 0 0 299 6 298 7 0 0 0 0 0 0 0 0 0 0 0 0
X 1 24
A 301 4 0 0 185 6 300 0 3 0 0 0 0 2 0 0 0 0 0 0
A 302 4 0 0 0 6 299 0 301 0 0 0 0 1 0 0 0 0 0 0
A 303 10 0 0 300 6 298 16 0 0 0 0 0 0 0 0 0 0 0 0
X 1 105
A 304 10 0 0 303 6 298 19 0 0 0 0 0 0 0 0 0 0 0 0
X 1 107
A 305 4 0 0 0 6 304 0 3 0 0 0 0 2 0 0 0 0 0 0
A 306 4 0 0 124 6 303 0 305 0 0 0 0 1 0 0 0 0 0 0
A 307 10 0 0 304 6 298 10 0 0 0 0 0 0 0 0 0 0 0 0
X 1 28
A 308 10 0 0 307 6 298 28 0 0 0 0 0 0 0 0 0 0 0 0
X 1 118
A 309 10 0 0 308 6 298 13 0 0 0 0 0 0 0 0 0 0 0 0
X 1 30
A 310 10 0 0 309 6 298 1 0 0 0 0 0 0 0 0 0 0 0 0
X 1 13
A 312 1 0 1 0 265 882 0 0 0 0 0 0 0 0 0 0 0 0 0
A 313 10 0 0 0 6 312 4 0 0 0 0 0 0 0 0 0 0 0 0
X 1 22
A 314 10 0 0 313 6 312 7 0 0 0 0 0 0 0 0 0 0 0 0
X 1 24
A 315 4 0 0 0 6 314 0 3 0 0 0 0 2 0 0 0 0 0 0
A 316 4 0 0 0 6 313 0 315 0 0 0 0 1 0 0 0 0 0 0
A 317 10 0 0 314 6 312 10 0 0 0 0 0 0 0 0 0 0 0 0
X 1 28
A 318 10 0 0 317 6 312 13 0 0 0 0 0 0 0 0 0 0 0 0
X 1 30
A 319 10 0 0 318 6 312 1 0 0 0 0 0 0 0 0 0 0 0 0
X 1 13
A 321 1 0 1 0 271 893 0 0 0 0 0 0 0 0 0 0 0 0 0
A 322 10 0 0 224 6 321 4 0 0 0 0 0 0 0 0 0 0 0 0
X 1 22
A 323 10 0 0 322 6 321 7 0 0 0 0 0 0 0 0 0 0 0 0
X 1 24
A 324 4 0 0 0 6 323 0 3 0 0 0 0 2 0 0 0 0 0 0
A 325 4 0 0 0 6 322 0 324 0 0 0 0 1 0 0 0 0 0 0
A 326 10 0 0 323 6 321 10 0 0 0 0 0 0 0 0 0 0 0 0
X 1 28
A 327 10 0 0 326 6 321 13 0 0 0 0 0 0 0 0 0 0 0 0
X 1 30
A 328 10 0 0 327 6 321 1 0 0 0 0 0 0 0 0 0 0 0 0
X 1 13
A 330 1 0 1 0 277 899 0 0 0 0 0 0 0 0 0 0 0 0 0
A 331 10 0 0 0 6 330 4 0 0 0 0 0 0 0 0 0 0 0 0
X 1 22
A 332 10 0 0 331 6 330 7 0 0 0 0 0 0 0 0 0 0 0 0
X 1 24
A 333 4 0 0 0 6 332 0 3 0 0 0 0 2 0 0 0 0 0 0
A 334 4 0 0 0 6 331 0 333 0 0 0 0 1 0 0 0 0 0 0
A 335 10 0 0 332 6 330 10 0 0 0 0 0 0 0 0 0 0 0 0
X 1 28
A 336 10 0 0 335 6 330 13 0 0 0 0 0 0 0 0 0 0 0 0
X 1 30
A 337 10 0 0 336 6 330 1 0 0 0 0 0 0 0 0 0 0 0 0
X 1 13
A 339 1 0 1 0 283 905 0 0 0 0 0 0 0 0 0 0 0 0 0
A 340 10 0 0 251 6 339 4 0 0 0 0 0 0 0 0 0 0 0 0
X 1 22
A 341 10 0 0 340 6 339 7 0 0 0 0 0 0 0 0 0 0 0 0
X 1 24
A 342 4 0 0 0 6 341 0 3 0 0 0 0 2 0 0 0 0 0 0
A 343 4 0 0 0 6 340 0 342 0 0 0 0 1 0 0 0 0 0 0
A 344 10 0 0 341 6 339 10 0 0 0 0 0 0 0 0 0 0 0 0
X 1 28
A 345 10 0 0 344 6 339 13 0 0 0 0 0 0 0 0 0 0 0 0
X 1 30
A 346 10 0 0 345 6 339 1 0 0 0 0 0 0 0 0 0 0 0 0
X 1 13
A 348 1 0 1 0 289 913 0 0 0 0 0 0 0 0 0 0 0 0 0
A 349 10 0 0 113 6 348 4 0 0 0 0 0 0 0 0 0 0 0 0
X 1 22
A 350 10 0 0 349 6 348 7 0 0 0 0 0 0 0 0 0 0 0 0
X 1 24
A 351 4 0 0 0 6 350 0 3 0 0 0 0 2 0 0 0 0 0 0
A 352 4 0 0 0 6 349 0 351 0 0 0 0 1 0 0 0 0 0 0
A 353 10 0 0 350 6 348 10 0 0 0 0 0 0 0 0 0 0 0 0
X 1 28
A 354 10 0 0 353 6 348 13 0 0 0 0 0 0 0 0 0 0 0 0
X 1 30
A 355 10 0 0 354 6 348 1 0 0 0 0 0 0 0 0 0 0 0 0
X 1 13
A 358 1 0 5 333 295 920 0 0 0 0 0 0 0 0 0 0 0 0 0
A 359 10 0 0 0 6 358 4 0 0 0 0 0 0 0 0 0 0 0 0
X 1 22
A 360 10 0 0 359 6 358 7 0 0 0 0 0 0 0 0 0 0 0 0
X 1 24
A 361 4 0 0 0 6 360 0 3 0 0 0 0 2 0 0 0 0 0 0
A 362 4 0 0 225 6 359 0 361 0 0 0 0 1 0 0 0 0 0 0
A 363 10 0 0 360 6 358 16 0 0 0 0 0 0 0 0 0 0 0 0
X 1 105
A 364 10 0 0 363 6 358 19 0 0 0 0 0 0 0 0 0 0 0 0
X 1 107
A 365 4 0 0 0 6 364 0 3 0 0 0 0 2 0 0 0 0 0 0
A 366 4 0 0 0 6 363 0 365 0 0 0 0 1 0 0 0 0 0 0
A 367 10 0 0 364 6 358 10 0 0 0 0 0 0 0 0 0 0 0 0
X 1 28
A 368 10 0 0 367 6 358 28 0 0 0 0 0 0 0 0 0 0 0 0
X 1 118
A 369 10 0 0 368 6 358 13 0 0 0 0 0 0 0 0 0 0 0 0
X 1 30
A 370 10 0 0 369 6 358 1 0 0 0 0 0 0 0 0 0 0 0 0
X 1 13
A 372 1 0 1 0 301 930 0 0 0 0 0 0 0 0 0 0 0 0 0
A 373 10 0 0 0 6 372 4 0 0 0 0 0 0 0 0 0 0 0 0
X 1 22
A 374 10 0 0 373 6 372 7 0 0 0 0 0 0 0 0 0 0 0 0
X 1 24
A 375 4 0 0 0 6 374 0 3 0 0 0 0 2 0 0 0 0 0 0
A 376 4 0 0 0 6 373 0 375 0 0 0 0 1 0 0 0 0 0 0
A 377 10 0 0 374 6 372 10 0 0 0 0 0 0 0 0 0 0 0 0
X 1 28
A 378 10 0 0 377 6 372 13 0 0 0 0 0 0 0 0 0 0 0 0
X 1 30
A 379 10 0 0 378 6 372 1 0 0 0 0 0 0 0 0 0 0 0 0
X 1 13
A 382 1 0 5 0 307 937 0 0 0 0 0 0 0 0 0 0 0 0 0
A 383 10 0 0 0 6 382 4 0 0 0 0 0 0 0 0 0 0 0 0
X 1 22
A 384 10 0 0 383 6 382 7 0 0 0 0 0 0 0 0 0 0 0 0
X 1 24
A 385 4 0 0 0 6 384 0 3 0 0 0 0 2 0 0 0 0 0 0
A 386 4 0 0 83 6 383 0 385 0 0 0 0 1 0 0 0 0 0 0
A 387 10 0 0 384 6 382 16 0 0 0 0 0 0 0 0 0 0 0 0
X 1 105
A 388 10 0 0 387 6 382 19 0 0 0 0 0 0 0 0 0 0 0 0
X 1 107
A 389 4 0 0 0 6 388 0 3 0 0 0 0 2 0 0 0 0 0 0
A 390 4 0 0 0 6 387 0 389 0 0 0 0 1 0 0 0 0 0 0
A 391 10 0 0 388 6 382 10 0 0 0 0 0 0 0 0 0 0 0 0
X 1 28
A 392 10 0 0 391 6 382 28 0 0 0 0 0 0 0 0 0 0 0 0
X 1 118
A 393 10 0 0 392 6 382 13 0 0 0 0 0 0 0 0 0 0 0 0
X 1 30
A 394 10 0 0 393 6 382 1 0 0 0 0 0 0 0 0 0 0 0 0
X 1 13
A 397 1 0 5 0 313 944 0 0 0 0 0 0 0 0 0 0 0 0 0
A 398 10 0 0 150 6 397 4 0 0 0 0 0 0 0 0 0 0 0 0
X 1 22
A 399 10 0 0 398 6 397 7 0 0 0 0 0 0 0 0 0 0 0 0
X 1 24
A 400 4 0 0 0 6 399 0 3 0 0 0 0 2 0 0 0 0 0 0
A 401 4 0 0 0 6 398 0 400 0 0 0 0 1 0 0 0 0 0 0
A 402 10 0 0 399 6 397 16 0 0 0 0 0 0 0 0 0 0 0 0
X 1 105
A 403 10 0 0 402 6 397 19 0 0 0 0 0 0 0 0 0 0 0 0
X 1 107
A 404 4 0 0 0 6 403 0 3 0 0 0 0 2 0 0 0 0 0 0
A 405 4 0 0 0 6 402 0 404 0 0 0 0 1 0 0 0 0 0 0
A 406 10 0 0 403 6 397 10 0 0 0 0 0 0 0 0 0 0 0 0
X 1 28
A 407 10 0 0 406 6 397 28 0 0 0 0 0 0 0 0 0 0 0 0
X 1 118
A 408 10 0 0 407 6 397 13 0 0 0 0 0 0 0 0 0 0 0 0
X 1 30
A 409 10 0 0 408 6 397 1 0 0 0 0 0 0 0 0 0 0 0 0
X 1 13
A 413 1 0 3 346 319 952 0 0 0 0 0 0 0 0 0 0 0 0 0
A 414 10 0 0 356 6 413 4 0 0 0 0 0 0 0 0 0 0 0 0
X 1 22
A 415 10 0 0 414 6 413 7 0 0 0 0 0 0 0 0 0 0 0 0
X 1 24
A 416 4 0 0 0 6 415 0 3 0 0 0 0 2 0 0 0 0 0 0
A 417 4 0 0 0 6 414 0 416 0 0 0 0 1 0 0 0 0 0 0
A 418 10 0 0 415 6 413 16 0 0 0 0 0 0 0 0 0 0 0 0
X 1 105
A 419 10 0 0 418 6 413 19 0 0 0 0 0 0 0 0 0 0 0 0
X 1 107
A 420 4 0 0 0 6 419 0 3 0 0 0 0 2 0 0 0 0 0 0
A 421 4 0 0 144 6 418 0 420 0 0 0 0 1 0 0 0 0 0 0
A 422 10 0 0 419 6 413 22 0 0 0 0 0 0 0 0 0 0 0 0
X 1 111
A 423 10 0 0 422 6 413 25 0 0 0 0 0 0 0 0 0 0 0 0
X 1 113
A 424 4 0 0 0 6 423 0 3 0 0 0 0 2 0 0 0 0 0 0
A 425 4 0 0 0 6 422 0 424 0 0 0 0 1 0 0 0 0 0 0
A 426 10 0 0 423 6 413 10 0 0 0 0 0 0 0 0 0 0 0 0
X 1 28
A 427 10 0 0 426 6 413 28 0 0 0 0 0 0 0 0 0 0 0 0
X 1 118
A 428 10 0 0 427 6 413 31 0 0 0 0 0 0 0 0 0 0 0 0
X 1 120
A 429 10 0 0 428 6 413 13 0 0 0 0 0 0 0 0 0 0 0 0
X 1 30
A 430 10 0 0 429 6 413 1 0 0 0 0 0 0 0 0 0 0 0 0
X 1 13
A 435 2 0 0 0 6 961 0 0 0 435 0 0 0 0 0 0 0 0 0
A 436 1 0 7 0 325 962 0 0 0 0 0 0 0 0 0 0 0 0 0
A 437 10 0 0 0 6 436 4 0 0 0 0 0 0 0 0 0 0 0 0
X 1 22
A 438 10 0 0 437 6 436 7 0 0 0 0 0 0 0 0 0 0 0 0
X 1 24
A 439 4 0 0 219 6 438 0 3 0 0 0 0 2 0 0 0 0 0 0
A 440 4 0 0 27 6 437 0 439 0 0 0 0 1 0 0 0 0 0 0
A 441 10 0 0 438 6 436 16 0 0 0 0 0 0 0 0 0 0 0 0
X 1 105
A 442 10 0 0 441 6 436 19 0 0 0 0 0 0 0 0 0 0 0 0
X 1 107
A 443 4 0 0 174 6 442 0 3 0 0 0 0 2 0 0 0 0 0 0
A 444 4 0 0 0 6 441 0 443 0 0 0 0 1 0 0 0 0 0 0
A 445 10 0 0 442 6 436 22 0 0 0 0 0 0 0 0 0 0 0 0
X 1 111
A 446 10 0 0 445 6 436 25 0 0 0 0 0 0 0 0 0 0 0 0
X 1 113
A 447 4 0 0 0 6 446 0 3 0 0 0 0 2 0 0 0 0 0 0
A 448 4 0 0 0 6 445 0 447 0 0 0 0 1 0 0 0 0 0 0
A 449 2 0 0 0 6 966 0 0 0 449 0 0 0 0 0 0 0 0 0
A 450 10 0 0 446 6 436 34 0 0 0 0 0 0 0 0 0 0 0 0
X 1 449
A 451 2 0 0 45 6 967 0 0 0 451 0 0 0 0 0 0 0 0 0
A 452 10 0 0 450 6 436 37 0 0 0 0 0 0 0 0 0 0 0 0
X 1 451
A 453 4 0 0 0 6 452 0 3 0 0 0 0 2 0 0 0 0 0 0
A 454 4 0 0 0 6 450 0 453 0 0 0 0 1 0 0 0 0 0 0
A 455 10 0 0 452 6 436 10 0 0 0 0 0 0 0 0 0 0 0 0
X 1 28
A 456 10 0 0 455 6 436 28 0 0 0 0 0 0 0 0 0 0 0 0
X 1 118
A 457 10 0 0 456 6 436 31 0 0 0 0 0 0 0 0 0 0 0 0
X 1 120
A 458 2 0 0 79 6 968 0 0 0 458 0 0 0 0 0 0 0 0 0
A 459 10 0 0 457 6 436 40 0 0 0 0 0 0 0 0 0 0 0 0
X 1 458
A 460 10 0 0 459 6 436 13 0 0 0 0 0 0 0 0 0 0 0 0
X 1 30
A 461 10 0 0 460 6 436 1 0 0 0 0 0 0 0 0 0 0 0 0
X 1 13
A 464 1 0 5 0 331 973 0 0 0 0 0 0 0 0 0 0 0 0 0
A 465 10 0 0 56 6 464 4 0 0 0 0 0 0 0 0 0 0 0 0
X 1 22
A 466 10 0 0 465 6 464 7 0 0 0 0 0 0 0 0 0 0 0 0
X 1 24
A 467 4 0 0 0 6 466 0 3 0 0 0 0 2 0 0 0 0 0 0
A 468 4 0 0 0 6 465 0 467 0 0 0 0 1 0 0 0 0 0 0
A 469 10 0 0 466 6 464 16 0 0 0 0 0 0 0 0 0 0 0 0
X 1 105
A 470 10 0 0 469 6 464 19 0 0 0 0 0 0 0 0 0 0 0 0
X 1 107
A 471 4 0 0 0 6 470 0 3 0 0 0 0 2 0 0 0 0 0 0
A 472 4 0 0 52 6 469 0 471 0 0 0 0 1 0 0 0 0 0 0
A 473 10 0 0 470 6 464 10 0 0 0 0 0 0 0 0 0 0 0 0
X 1 28
A 474 10 0 0 473 6 464 28 0 0 0 0 0 0 0 0 0 0 0 0
X 1 118
A 475 10 0 0 474 6 464 13 0 0 0 0 0 0 0 0 0 0 0 0
X 1 30
A 476 10 0 0 475 6 464 1 0 0 0 0 0 0 0 0 0 0 0 0
X 1 13
A 479 1 0 5 95 337 980 0 0 0 0 0 0 0 0 0 0 0 0 0
A 480 10 0 0 0 6 479 4 0 0 0 0 0 0 0 0 0 0 0 0
X 1 22
A 481 10 0 0 480 6 479 7 0 0 0 0 0 0 0 0 0 0 0 0
X 1 24
A 482 4 0 0 435 6 481 0 3 0 0 0 0 2 0 0 0 0 0 0
A 483 4 0 0 0 6 480 0 482 0 0 0 0 1 0 0 0 0 0 0
A 484 10 0 0 481 6 479 16 0 0 0 0 0 0 0 0 0 0 0 0
X 1 105
A 485 10 0 0 484 6 479 19 0 0 0 0 0 0 0 0 0 0 0 0
X 1 107
A 486 4 0 0 0 6 485 0 3 0 0 0 0 2 0 0 0 0 0 0
A 487 4 0 0 404 6 484 0 486 0 0 0 0 1 0 0 0 0 0 0
A 488 10 0 0 485 6 479 10 0 0 0 0 0 0 0 0 0 0 0 0
X 1 28
A 489 10 0 0 488 6 479 28 0 0 0 0 0 0 0 0 0 0 0 0
X 1 118
A 490 10 0 0 489 6 479 13 0 0 0 0 0 0 0 0 0 0 0 0
X 1 30
A 491 10 0 0 490 6 479 1 0 0 0 0 0 0 0 0 0 0 0 0
X 1 13
A 493 1 0 1 0 343 987 0 0 0 0 0 0 0 0 0 0 0 0 0
A 494 10 0 0 352 6 493 4 0 0 0 0 0 0 0 0 0 0 0 0
X 1 22
A 495 10 0 0 494 6 493 7 0 0 0 0 0 0 0 0 0 0 0 0
X 1 24
A 496 4 0 0 0 6 495 0 3 0 0 0 0 2 0 0 0 0 0 0
A 497 4 0 0 0 6 494 0 496 0 0 0 0 1 0 0 0 0 0 0
A 498 10 0 0 495 6 493 10 0 0 0 0 0 0 0 0 0 0 0 0
X 1 28
A 499 10 0 0 498 6 493 13 0 0 0 0 0 0 0 0 0 0 0 0
X 1 30
A 500 10 0 0 499 6 493 1 0 0 0 0 0 0 0 0 0 0 0 0
X 1 13
A 502 1 0 1 0 349 993 0 0 0 0 0 0 0 0 0 0 0 0 0
A 503 10 0 0 416 6 502 4 0 0 0 0 0 0 0 0 0 0 0 0
X 1 22
A 504 10 0 0 503 6 502 7 0 0 0 0 0 0 0 0 0 0 0 0
X 1 24
A 505 4 0 0 479 6 504 0 3 0 0 0 0 2 0 0 0 0 0 0
A 506 4 0 0 0 6 503 0 505 0 0 0 0 1 0 0 0 0 0 0
A 507 10 0 0 504 6 502 10 0 0 0 0 0 0 0 0 0 0 0 0
X 1 28
A 508 10 0 0 507 6 502 13 0 0 0 0 0 0 0 0 0 0 0 0
X 1 30
A 509 10 0 0 508 6 502 1 0 0 0 0 0 0 0 0 0 0 0 0
X 1 13
A 511 1 0 1 0 355 999 0 0 0 0 0 0 0 0 0 0 0 0 0
A 512 10 0 0 0 6 511 4 0 0 0 0 0 0 0 0 0 0 0 0
X 1 22
A 513 10 0 0 512 6 511 7 0 0 0 0 0 0 0 0 0 0 0 0
X 1 24
A 514 4 0 0 505 6 513 0 3 0 0 0 0 2 0 0 0 0 0 0
A 515 4 0 0 0 6 512 0 514 0 0 0 0 1 0 0 0 0 0 0
A 516 10 0 0 513 6 511 10 0 0 0 0 0 0 0 0 0 0 0 0
X 1 28
A 517 10 0 0 516 6 511 13 0 0 0 0 0 0 0 0 0 0 0 0
X 1 30
A 518 10 0 0 517 6 511 1 0 0 0 0 0 0 0 0 0 0 0 0
X 1 13
A 520 1 0 1 0 361 1005 0 0 0 0 0 0 0 0 0 0 0 0 0
A 521 10 0 0 401 6 520 4 0 0 0 0 0 0 0 0 0 0 0 0
X 1 22
A 522 10 0 0 521 6 520 7 0 0 0 0 0 0 0 0 0 0 0 0
X 1 24
A 523 4 0 0 0 6 522 0 3 0 0 0 0 2 0 0 0 0 0 0
A 524 4 0 0 371 6 521 0 523 0 0 0 0 1 0 0 0 0 0 0
A 525 10 0 0 522 6 520 10 0 0 0 0 0 0 0 0 0 0 0 0
X 1 28
A 526 10 0 0 525 6 520 13 0 0 0 0 0 0 0 0 0 0 0 0
X 1 30
A 527 10 0 0 526 6 520 1 0 0 0 0 0 0 0 0 0 0 0 0
X 1 13
A 529 1 0 1 434 367 1011 0 0 0 0 0 0 0 0 0 0 0 0 0
A 530 10 0 0 443 6 529 4 0 0 0 0 0 0 0 0 0 0 0 0
X 1 22
A 531 10 0 0 530 6 529 7 0 0 0 0 0 0 0 0 0 0 0 0
X 1 24
A 532 4 0 0 0 6 531 0 3 0 0 0 0 2 0 0 0 0 0 0
A 533 4 0 0 306 6 530 0 532 0 0 0 0 1 0 0 0 0 0 0
A 534 10 0 0 531 6 529 10 0 0 0 0 0 0 0 0 0 0 0 0
X 1 28
A 535 10 0 0 534 6 529 13 0 0 0 0 0 0 0 0 0 0 0 0
X 1 30
A 536 10 0 0 535 6 529 1 0 0 0 0 0 0 0 0 0 0 0 0
X 1 13
A 538 1 0 1 273 376 1027 0 0 0 0 0 0 0 0 0 0 0 0 0
A 539 10 0 0 0 6 538 4 0 0 0 0 0 0 0 0 0 0 0 0
X 1 22
A 540 10 0 0 539 6 538 7 0 0 0 0 0 0 0 0 0 0 0 0
X 1 24
A 541 4 0 0 53 6 540 0 3 0 0 0 0 2 0 0 0 0 0 0
A 542 4 0 0 0 6 539 0 541 0 0 0 0 1 0 0 0 0 0 0
A 543 10 0 0 540 6 538 10 0 0 0 0 0 0 0 0 0 0 0 0
X 1 28
A 544 10 0 0 543 6 538 13 0 0 0 0 0 0 0 0 0 0 0 0
X 1 30
A 545 10 0 0 544 6 538 1 0 0 0 0 0 0 0 0 0 0 0 0
X 1 13
A 547 1 0 1 0 382 1033 0 0 0 0 0 0 0 0 0 0 0 0 0
A 548 10 0 0 0 6 547 4 0 0 0 0 0 0 0 0 0 0 0 0
X 1 22
A 549 10 0 0 548 6 547 7 0 0 0 0 0 0 0 0 0 0 0 0
X 1 24
A 550 4 0 0 0 6 549 0 3 0 0 0 0 2 0 0 0 0 0 0
A 551 4 0 0 328 6 548 0 550 0 0 0 0 1 0 0 0 0 0 0
A 552 10 0 0 549 6 547 10 0 0 0 0 0 0 0 0 0 0 0 0
X 1 28
A 553 10 0 0 552 6 547 13 0 0 0 0 0 0 0 0 0 0 0 0
X 1 30
A 554 10 0 0 553 6 547 1 0 0 0 0 0 0 0 0 0 0 0 0
X 1 13
A 556 1 0 1 109 388 1039 0 0 0 0 0 0 0 0 0 0 0 0 0
A 557 10 0 0 0 6 556 4 0 0 0 0 0 0 0 0 0 0 0 0
X 1 22
A 558 10 0 0 557 6 556 7 0 0 0 0 0 0 0 0 0 0 0 0
X 1 24
A 559 4 0 0 0 6 558 0 3 0 0 0 0 2 0 0 0 0 0 0
A 560 4 0 0 100 6 557 0 559 0 0 0 0 1 0 0 0 0 0 0
A 561 10 0 0 558 6 556 10 0 0 0 0 0 0 0 0 0 0 0 0
X 1 28
A 562 10 0 0 561 6 556 13 0 0 0 0 0 0 0 0 0 0 0 0
X 1 30
A 563 10 0 0 562 6 556 1 0 0 0 0 0 0 0 0 0 0 0 0
X 1 13
A 566 1 0 5 223 394 1046 0 0 0 0 0 0 0 0 0 0 0 0 0
A 567 10 0 0 135 6 566 4 0 0 0 0 0 0 0 0 0 0 0 0
X 1 22
A 568 10 0 0 567 6 566 7 0 0 0 0 0 0 0 0 0 0 0 0
X 1 24
A 569 4 0 0 200 6 568 0 3 0 0 0 0 2 0 0 0 0 0 0
A 570 4 0 0 0 6 567 0 569 0 0 0 0 1 0 0 0 0 0 0
A 571 10 0 0 568 6 566 16 0 0 0 0 0 0 0 0 0 0 0 0
X 1 105
A 572 10 0 0 571 6 566 19 0 0 0 0 0 0 0 0 0 0 0 0
X 1 107
A 573 4 0 0 472 6 572 0 3 0 0 0 0 2 0 0 0 0 0 0
A 574 4 0 0 0 6 571 0 573 0 0 0 0 1 0 0 0 0 0 0
A 575 10 0 0 572 6 566 10 0 0 0 0 0 0 0 0 0 0 0 0
X 1 28
A 576 10 0 0 575 6 566 28 0 0 0 0 0 0 0 0 0 0 0 0
X 1 118
A 577 10 0 0 576 6 566 13 0 0 0 0 0 0 0 0 0 0 0 0
X 1 30
A 578 10 0 0 577 6 566 1 0 0 0 0 0 0 0 0 0 0 0 0
X 1 13
A 580 1 0 1 417 400 1052 0 0 0 0 0 0 0 0 0 0 0 0 0
A 581 10 0 0 229 6 580 4 0 0 0 0 0 0 0 0 0 0 0 0
X 1 22
A 582 10 0 0 581 6 580 7 0 0 0 0 0 0 0 0 0 0 0 0
X 1 24
A 583 4 0 0 312 6 582 0 3 0 0 0 0 2 0 0 0 0 0 0
A 584 4 0 0 0 6 581 0 583 0 0 0 0 1 0 0 0 0 0 0
A 585 10 0 0 582 6 580 10 0 0 0 0 0 0 0 0 0 0 0 0
X 1 28
A 586 10 0 0 585 6 580 13 0 0 0 0 0 0 0 0 0 0 0 0
X 1 30
A 587 10 0 0 586 6 580 1 0 0 0 0 0 0 0 0 0 0 0 0
X 1 13
A 589 1 0 1 0 406 1058 0 0 0 0 0 0 0 0 0 0 0 0 0
A 590 10 0 0 16 6 589 4 0 0 0 0 0 0 0 0 0 0 0 0
X 1 22
A 591 10 0 0 590 6 589 7 0 0 0 0 0 0 0 0 0 0 0 0
X 1 24
A 592 4 0 0 183 6 591 0 3 0 0 0 0 2 0 0 0 0 0 0
A 593 4 0 0 366 6 590 0 592 0 0 0 0 1 0 0 0 0 0 0
A 594 10 0 0 591 6 589 10 0 0 0 0 0 0 0 0 0 0 0 0
X 1 28
A 595 10 0 0 594 6 589 13 0 0 0 0 0 0 0 0 0 0 0 0
X 1 30
A 596 10 0 0 595 6 589 1 0 0 0 0 0 0 0 0 0 0 0 0
X 1 13
A 598 1 0 1 0 412 1065 0 0 0 0 0 0 0 0 0 0 0 0 0
A 599 10 0 0 493 6 598 4 0 0 0 0 0 0 0 0 0 0 0 0
X 1 22
A 600 10 0 0 599 6 598 7 0 0 0 0 0 0 0 0 0 0 0 0
X 1 24
A 601 4 0 0 0 6 600 0 3 0 0 0 0 2 0 0 0 0 0 0
A 602 4 0 0 282 6 599 0 601 0 0 0 0 1 0 0 0 0 0 0
A 603 10 0 0 600 6 598 10 0 0 0 0 0 0 0 0 0 0 0 0
X 1 28
A 604 10 0 0 603 6 598 13 0 0 0 0 0 0 0 0 0 0 0 0
X 1 30
A 605 10 0 0 604 6 598 1 0 0 0 0 0 0 0 0 0 0 0 0
X 1 13
A 607 1 0 1 0 418 1071 0 0 0 0 0 0 0 0 0 0 0 0 0
A 608 10 0 0 0 6 607 4 0 0 0 0 0 0 0 0 0 0 0 0
X 1 22
A 609 10 0 0 608 6 607 7 0 0 0 0 0 0 0 0 0 0 0 0
X 1 24
A 610 4 0 0 0 6 609 0 3 0 0 0 0 2 0 0 0 0 0 0
A 611 4 0 0 0 6 608 0 610 0 0 0 0 1 0 0 0 0 0 0
A 612 10 0 0 609 6 607 10 0 0 0 0 0 0 0 0 0 0 0 0
X 1 28
A 613 10 0 0 612 6 607 13 0 0 0 0 0 0 0 0 0 0 0 0
X 1 30
A 614 10 0 0 613 6 607 1 0 0 0 0 0 0 0 0 0 0 0 0
X 1 13
A 617 1 0 5 463 424 1078 0 0 0 0 0 0 0 0 0 0 0 0 0
A 618 10 0 0 0 6 617 4 0 0 0 0 0 0 0 0 0 0 0 0
X 1 22
A 619 10 0 0 618 6 617 7 0 0 0 0 0 0 0 0 0 0 0 0
X 1 24
A 620 4 0 0 13 6 619 0 3 0 0 0 0 2 0 0 0 0 0 0
A 621 4 0 0 0 6 618 0 620 0 0 0 0 1 0 0 0 0 0 0
A 622 10 0 0 619 6 617 16 0 0 0 0 0 0 0 0 0 0 0 0
X 1 105
A 623 10 0 0 622 6 617 19 0 0 0 0 0 0 0 0 0 0 0 0
X 1 107
A 624 4 0 0 103 6 623 0 3 0 0 0 0 2 0 0 0 0 0 0
A 625 4 0 0 250 6 622 0 624 0 0 0 0 1 0 0 0 0 0 0
A 626 10 0 0 623 6 617 10 0 0 0 0 0 0 0 0 0 0 0 0
X 1 28
A 627 10 0 0 626 6 617 28 0 0 0 0 0 0 0 0 0 0 0 0
X 1 118
A 628 10 0 0 627 6 617 13 0 0 0 0 0 0 0 0 0 0 0 0
X 1 30
A 629 10 0 0 628 6 617 1 0 0 0 0 0 0 0 0 0 0 0 0
X 1 13
A 631 1 0 1 477 430 1084 0 0 0 0 0 0 0 0 0 0 0 0 0
A 632 10 0 0 0 6 631 4 0 0 0 0 0 0 0 0 0 0 0 0
X 1 22
A 633 10 0 0 632 6 631 7 0 0 0 0 0 0 0 0 0 0 0 0
X 1 24
A 634 4 0 0 30 6 633 0 3 0 0 0 0 2 0 0 0 0 0 0
A 635 4 0 0 0 6 632 0 634 0 0 0 0 1 0 0 0 0 0 0
A 636 10 0 0 633 6 631 10 0 0 0 0 0 0 0 0 0 0 0 0
X 1 28
A 637 10 0 0 636 6 631 13 0 0 0 0 0 0 0 0 0 0 0 0
X 1 30
A 638 10 0 0 637 6 631 1 0 0 0 0 0 0 0 0 0 0 0 0
X 1 13
A 640 1 0 1 0 436 1090 0 0 0 0 0 0 0 0 0 0 0 0 0
A 641 10 0 0 0 6 640 4 0 0 0 0 0 0 0 0 0 0 0 0
X 1 22
A 642 10 0 0 641 6 640 7 0 0 0 0 0 0 0 0 0 0 0 0
X 1 24
A 643 4 0 0 0 6 642 0 3 0 0 0 0 2 0 0 0 0 0 0
A 644 4 0 0 92 6 641 0 643 0 0 0 0 1 0 0 0 0 0 0
A 645 10 0 0 642 6 640 10 0 0 0 0 0 0 0 0 0 0 0 0
X 1 28
A 646 10 0 0 645 6 640 13 0 0 0 0 0 0 0 0 0 0 0 0
X 1 30
A 647 10 0 0 646 6 640 1 0 0 0 0 0 0 0 0 0 0 0 0
X 1 13
A 650 1 0 5 283 442 1097 0 0 0 0 0 0 0 0 0 0 0 0 0
A 651 10 0 0 573 6 650 4 0 0 0 0 0 0 0 0 0 0 0 0
X 1 22
A 652 10 0 0 651 6 650 7 0 0 0 0 0 0 0 0 0 0 0 0
X 1 24
A 653 4 0 0 98 6 652 0 3 0 0 0 0 2 0 0 0 0 0 0
A 654 4 0 0 298 6 651 0 653 0 0 0 0 1 0 0 0 0 0 0
A 655 10 0 0 652 6 650 16 0 0 0 0 0 0 0 0 0 0 0 0
X 1 105
A 656 10 0 0 655 6 650 19 0 0 0 0 0 0 0 0 0 0 0 0
X 1 107
A 657 4 0 0 0 6 656 0 3 0 0 0 0 2 0 0 0 0 0 0
A 658 4 0 0 0 6 655 0 657 0 0 0 0 1 0 0 0 0 0 0
A 659 10 0 0 656 6 650 10 0 0 0 0 0 0 0 0 0 0 0 0
X 1 28
A 660 10 0 0 659 6 650 28 0 0 0 0 0 0 0 0 0 0 0 0
X 1 118
A 661 10 0 0 660 6 650 13 0 0 0 0 0 0 0 0 0 0 0 0
X 1 30
A 662 10 0 0 661 6 650 1 0 0 0 0 0 0 0 0 0 0 0 0
X 1 13
Z
T 778 172 0 3 0 0
A 781 178 0 0 1 186 1
A 782 178 0 0 1 186 1
A 783 178 0 0 1 186 1
A 784 178 0 0 1 186 1
A 786 178 0 0 1 186 1
A 787 178 0 0 1 186 1
A 789 178 0 0 1 186 0
Z
