V26 radial_grids
16 radial_grids.F90 S582 0
04/24/2012  15:51:03
use kinds private
use kinds private
enduse
D 56 24 597 656 596 7
D 62 21 9 1 32 31 0 1 0 0 1
 23 27 29 23 27 25
D 65 21 6 1 0 20 0 0 0 0 0
 0 20 0 3 20 0
D 68 21 9 1 41 40 0 1 0 0 1
 35 38 39 35 38 36
D 71 21 6 1 0 20 0 0 0 0 0
 0 20 0 3 20 0
D 74 21 9 1 50 49 0 1 0 0 1
 44 47 48 44 47 45
D 77 21 6 1 0 20 0 0 0 0 0
 0 20 0 3 20 0
D 80 21 9 1 59 58 0 1 0 0 1
 53 56 57 53 56 54
D 83 21 6 1 0 20 0 0 0 0 0
 0 20 0 3 20 0
D 86 21 9 1 68 67 0 1 0 0 1
 62 65 66 62 65 63
D 89 21 6 1 0 20 0 0 0 0 0
 0 20 0 3 20 0
D 92 21 9 1 77 76 0 1 0 0 1
 71 74 75 71 74 72
D 95 21 6 1 0 20 0 0 0 0 0
 0 20 0 3 20 0
D 98 21 9 1 86 85 0 1 0 0 1
 80 83 84 80 83 81
D 101 21 6 1 0 20 0 0 0 0 0
 0 20 0 3 20 0
D 104 21 6 1 0 3 0 0 0 0 0
 0 3 0 3 3 0
D 107 21 56 1 87 90 1 1 0 0 1
 3 88 3 3 88 89
D 110 21 9 1 3 92 0 0 1 0 0
 0 91 3 3 92 92
D 113 21 9 1 3 92 0 0 1 0 0
 0 91 3 3 92 92
D 116 21 9 1 3 15 0 0 0 0 0
 0 15 3 3 15 15
D 119 21 9 1 3 15 0 0 0 0 0
 0 15 3 3 15 15
D 122 21 9 1 3 15 0 0 0 0 0
 0 15 3 3 15 15
D 125 21 9 1 2 15 0 0 0 0 0
 2 93 3 2 93 15
S 582 24 0 0 0 9 1 0 4658 10015 0 A 0 0 0 0 0 0 0 0 0 0 0 0 0 0 0 0 0 0 0 0 0 10 0 0 0 0 0 0 radial_grids
S 584 23 0 0 0 9 587 582 4677 14 0 A 0 0 0 0 0 0 0 0 0 0 0 0 0 0 0 0 0 0 0 0 0 0 0 582 0 0 0 0 dp
S 585 3 0 0 0 6 1 1 0 0 0 A 0 0 0 0 0 0 0 0 0 8 0 0 0 0 0 0 0 0 0 0 0 0 0 0 0 0 0 0 6
S 586 3 0 0 0 6 1 1 0 0 0 A 0 0 0 0 0 0 0 0 0 4 0 0 0 0 0 0 0 0 0 0 0 0 0 0 0 0 0 0 6
R 587 16 1 kinds dp
S 594 16 0 0 0 6 1 582 4711 4 400000 A 0 0 0 0 0 0 0 0 3500 17 0 0 0 0 0 0 0 0 0 0 0 0 0 582 0 0 0 0 ndmx
S 595 3 0 0 0 6 0 1 0 0 0 A 0 0 0 0 0 0 0 0 0 3500 0 0 0 0 0 0 0 0 0 0 0 0 0 0 0 0 0 0 6
S 596 25 0 0 0 56 1 582 4716 10000004 800014 A 0 0 0 0 0 0 0 0 0 0 0 0 0 0 0 0 0 0 0 661 0 0 0 582 0 0 0 0 radial_grid_type
S 597 5 0 0 0 6 598 582 4733 800004 0 A 0 0 0 0 0 0 0 0 56 0 0 0 0 0 0 0 0 0 0 0 1 597 0 582 0 0 0 0 mesh
S 598 5 6 0 0 62 602 582 4738 10a00004 14 A 0 0 0 0 0 8 602 0 56 0 604 0 0 0 0 0 0 0 0 601 597 598 603 582 0 0 0 0 r
S 599 6 4 0 0 6 610 582 4740 40800016 0 A 0 0 0 0 0 0 0 0 0 0 0 0 662 0 0 0 0 0 0 0 0 0 0 582 0 0 0 0 z_b_0
S 600 3 0 0 0 6 1 1 0 0 0 A 0 0 0 0 0 0 0 0 0 18 0 0 0 0 0 0 0 0 0 0 0 0 0 0 0 0 0 0 6
S 601 5 0 0 0 65 609 582 4746 40822004 1020 A 0 0 0 0 0 24 0 0 56 0 0 0 0 0 0 0 0 0 0 0 603 601 0 582 0 0 0 0 r$sd
S 602 5 0 0 0 7 603 582 4751 40802001 1020 A 0 0 0 0 0 8 0 0 56 0 0 0 0 0 0 0 0 0 0 0 598 602 0 582 0 0 0 0 r$p
S 603 5 0 0 0 7 601 582 4755 40802000 1020 A 0 0 0 0 0 16 0 0 56 0 0 0 0 0 0 0 0 0 0 0 602 603 0 582 0 0 0 0 r$o
S 604 22 1 0 0 9 1 582 4759 40000000 1000 A 0 0 0 0 0 0 0 598 0 0 0 0 601 0 0 0 0 0 0 0 0 0 0 582 0 0 0 0 r$arrdsc
S 605 3 0 0 0 6 1 1 0 0 0 A 0 0 0 0 0 0 0 0 0 13 0 0 0 0 0 0 0 0 0 0 0 0 0 0 0 0 0 0 6
S 606 3 0 0 0 6 1 1 0 0 0 A 0 0 0 0 0 0 0 0 0 14 0 0 0 0 0 0 0 0 0 0 0 0 0 0 0 0 0 0 6
S 607 3 0 0 0 6 1 1 0 0 0 A 0 0 0 0 0 0 0 0 0 17 0 0 0 0 0 0 0 0 0 0 0 0 0 0 0 0 0 0 6
S 608 3 0 0 0 6 1 1 0 0 0 A 0 0 0 0 0 0 0 0 0 7 0 0 0 0 0 0 0 0 0 0 0 0 0 0 0 0 0 0 6
S 609 5 6 0 0 68 612 582 4768 10a00004 14 A 0 0 0 0 0 96 612 0 56 0 614 0 0 0 0 0 0 0 0 611 598 609 613 582 0 0 0 0 r2
S 610 6 4 0 0 6 616 582 4771 40800016 0 A 0 0 0 0 0 4 0 0 0 0 0 0 662 0 0 0 0 0 0 0 0 0 0 582 0 0 0 0 z_b_1
S 611 5 0 0 0 71 615 582 4777 40822004 1020 A 0 0 0 0 0 112 0 0 56 0 0 0 0 0 0 0 0 0 0 0 613 611 0 582 0 0 0 0 r2$sd
S 612 5 0 0 0 7 613 582 4783 40802001 1020 A 0 0 0 0 0 96 0 0 56 0 0 0 0 0 0 0 0 0 0 0 609 612 0 582 0 0 0 0 r2$p
S 613 5 0 0 0 7 611 582 4788 40802000 1020 A 0 0 0 0 0 104 0 0 56 0 0 0 0 0 0 0 0 0 0 0 612 613 0 582 0 0 0 0 r2$o
S 614 22 1 0 0 9 1 582 4793 40000000 1000 A 0 0 0 0 0 0 0 609 0 0 0 0 611 0 0 0 0 0 0 0 0 0 0 582 0 0 0 0 r2$arrdsc
S 615 5 6 0 0 74 618 582 4803 10a00004 14 A 0 0 0 0 0 184 618 0 56 0 620 0 0 0 0 0 0 0 0 617 609 615 619 582 0 0 0 0 rab
S 616 6 4 0 0 6 622 582 4807 40800016 0 A 0 0 0 0 0 8 0 0 0 0 0 0 662 0 0 0 0 0 0 0 0 0 0 582 0 0 0 0 z_b_2
S 617 5 0 0 0 77 621 582 4813 40822004 1020 A 0 0 0 0 0 200 0 0 56 0 0 0 0 0 0 0 0 0 0 0 619 617 0 582 0 0 0 0 rab$sd
S 618 5 0 0 0 7 619 582 4820 40802001 1020 A 0 0 0 0 0 184 0 0 56 0 0 0 0 0 0 0 0 0 0 0 615 618 0 582 0 0 0 0 rab$p
S 619 5 0 0 0 7 617 582 4826 40802000 1020 A 0 0 0 0 0 192 0 0 56 0 0 0 0 0 0 0 0 0 0 0 618 619 0 582 0 0 0 0 rab$o
S 620 22 1 0 0 9 1 582 4832 40000000 1000 A 0 0 0 0 0 0 0 615 0 0 0 0 617 0 0 0 0 0 0 0 0 0 0 582 0 0 0 0 rab$arrdsc
S 621 5 6 0 0 80 624 582 4843 10a00004 14 A 0 0 0 0 0 272 624 0 56 0 626 0 0 0 0 0 0 0 0 623 615 621 625 582 0 0 0 0 sqr
S 622 6 4 0 0 6 628 582 4847 40800016 0 A 0 0 0 0 0 12 0 0 0 0 0 0 662 0 0 0 0 0 0 0 0 0 0 582 0 0 0 0 z_b_3
S 623 5 0 0 0 83 627 582 4853 40822004 1020 A 0 0 0 0 0 288 0 0 56 0 0 0 0 0 0 0 0 0 0 0 625 623 0 582 0 0 0 0 sqr$sd
S 624 5 0 0 0 7 625 582 4860 40802001 1020 A 0 0 0 0 0 272 0 0 56 0 0 0 0 0 0 0 0 0 0 0 621 624 0 582 0 0 0 0 sqr$p
S 625 5 0 0 0 7 623 582 4866 40802000 1020 A 0 0 0 0 0 280 0 0 56 0 0 0 0 0 0 0 0 0 0 0 624 625 0 582 0 0 0 0 sqr$o
S 626 22 1 0 0 9 1 582 4872 40000000 1000 A 0 0 0 0 0 0 0 621 0 0 0 0 623 0 0 0 0 0 0 0 0 0 0 582 0 0 0 0 sqr$arrdsc
S 627 5 6 0 0 86 630 582 4883 10a00004 14 A 0 0 0 0 0 360 630 0 56 0 632 0 0 0 0 0 0 0 0 629 621 627 631 582 0 0 0 0 rm1
S 628 6 4 0 0 6 634 582 4887 40800016 0 A 0 0 0 0 0 16 0 0 0 0 0 0 662 0 0 0 0 0 0 0 0 0 0 582 0 0 0 0 z_b_4
S 629 5 0 0 0 89 633 582 4893 40822004 1020 A 0 0 0 0 0 376 0 0 56 0 0 0 0 0 0 0 0 0 0 0 631 629 0 582 0 0 0 0 rm1$sd
S 630 5 0 0 0 7 631 582 4900 40802001 1020 A 0 0 0 0 0 360 0 0 56 0 0 0 0 0 0 0 0 0 0 0 627 630 0 582 0 0 0 0 rm1$p
S 631 5 0 0 0 7 629 582 4906 40802000 1020 A 0 0 0 0 0 368 0 0 56 0 0 0 0 0 0 0 0 0 0 0 630 631 0 582 0 0 0 0 rm1$o
S 632 22 1 0 0 9 1 582 4912 40000000 1000 A 0 0 0 0 0 0 0 627 0 0 0 0 629 0 0 0 0 0 0 0 0 0 0 582 0 0 0 0 rm1$arrdsc
S 633 5 6 0 0 92 636 582 4923 10a00004 14 A 0 0 0 0 0 448 636 0 56 0 638 0 0 0 0 0 0 0 0 635 627 633 637 582 0 0 0 0 rm2
S 634 6 4 0 0 6 640 582 4927 40800016 0 A 0 0 0 0 0 20 0 0 0 0 0 0 662 0 0 0 0 0 0 0 0 0 0 582 0 0 0 0 z_b_5
S 635 5 0 0 0 95 639 582 4933 40822004 1020 A 0 0 0 0 0 464 0 0 56 0 0 0 0 0 0 0 0 0 0 0 637 635 0 582 0 0 0 0 rm2$sd
S 636 5 0 0 0 7 637 582 4940 40802001 1020 A 0 0 0 0 0 448 0 0 56 0 0 0 0 0 0 0 0 0 0 0 633 636 0 582 0 0 0 0 rm2$p
S 637 5 0 0 0 7 635 582 4946 40802000 1020 A 0 0 0 0 0 456 0 0 56 0 0 0 0 0 0 0 0 0 0 0 636 637 0 582 0 0 0 0 rm2$o
S 638 22 1 0 0 9 1 582 4952 40000000 1000 A 0 0 0 0 0 0 0 633 0 0 0 0 635 0 0 0 0 0 0 0 0 0 0 582 0 0 0 0 rm2$arrdsc
S 639 5 6 0 0 98 642 582 4963 10a00004 14 A 0 0 0 0 0 536 642 0 56 0 644 0 0 0 0 0 0 0 0 641 633 639 643 582 0 0 0 0 rm3
S 640 6 4 0 0 6 1 582 4967 40800016 0 A 0 0 0 0 0 24 0 0 0 0 0 0 662 0 0 0 0 0 0 0 0 0 0 582 0 0 0 0 z_b_6
S 641 5 0 0 0 101 645 582 4973 40822004 1020 A 0 0 0 0 0 552 0 0 56 0 0 0 0 0 0 0 0 0 0 0 643 641 0 582 0 0 0 0 rm3$sd
S 642 5 0 0 0 7 643 582 4980 40802001 1020 A 0 0 0 0 0 536 0 0 56 0 0 0 0 0 0 0 0 0 0 0 639 642 0 582 0 0 0 0 rm3$p
S 643 5 0 0 0 7 641 582 4986 40802000 1020 A 0 0 0 0 0 544 0 0 56 0 0 0 0 0 0 0 0 0 0 0 642 643 0 582 0 0 0 0 rm3$o
S 644 22 1 0 0 9 1 582 4992 40000000 1000 A 0 0 0 0 0 0 0 639 0 0 0 0 641 0 0 0 0 0 0 0 0 0 0 582 0 0 0 0 rm3$arrdsc
S 645 5 0 0 0 9 646 582 5003 800004 0 A 0 0 0 0 0 624 0 0 56 0 0 0 0 0 0 0 0 0 0 0 639 645 0 582 0 0 0 0 xmin
S 646 5 0 0 0 9 647 582 5008 800004 0 A 0 0 0 0 0 632 0 0 56 0 0 0 0 0 0 0 0 0 0 0 645 646 0 582 0 0 0 0 rmax
S 647 5 0 0 0 9 648 582 5013 800004 0 A 0 0 0 0 0 640 0 0 56 0 0 0 0 0 0 0 0 0 0 0 646 647 0 582 0 0 0 0 zmesh
S 648 5 0 0 0 9 1 582 5019 800004 0 A 0 0 0 0 0 648 0 0 56 0 0 0 0 0 0 0 0 0 0 0 647 648 0 582 0 0 0 0 dx
S 649 27 0 0 0 9 684 582 5022 0 0 A 0 0 0 0 0 0 0 0 0 0 0 0 0 0 0 0 0 0 0 0 0 0 0 582 0 0 0 0 do_mesh
S 650 27 0 0 0 9 692 582 5030 0 0 A 0 0 0 0 0 0 0 0 0 0 0 0 0 0 0 0 0 0 0 0 0 0 0 582 0 0 0 0 check_mesh
S 651 27 0 0 0 9 695 582 5041 0 0 A 0 0 0 0 0 0 0 0 0 0 0 0 0 0 0 0 0 0 0 0 0 0 0 582 0 0 0 0 hartree
S 652 27 0 0 0 9 704 582 5049 0 0 A 0 0 0 0 0 0 0 0 0 0 0 0 0 0 0 0 0 0 0 0 0 0 0 582 0 0 0 0 series
S 653 27 0 0 0 9 711 582 5056 0 0 A 0 0 0 0 0 0 0 0 0 0 0 0 0 0 0 0 0 0 0 0 0 0 0 582 0 0 0 0 write_grid_on_file
S 654 27 0 0 0 9 715 582 5075 0 0 A 0 0 0 0 0 0 0 0 0 0 0 0 0 0 0 0 0 0 0 0 0 0 0 582 0 0 0 0 read_grid_from_file
S 655 27 0 0 0 9 667 582 5095 0 0 A 0 0 0 0 0 0 0 0 0 0 0 0 0 0 0 0 0 0 0 0 0 0 0 582 0 0 0 0 allocate_radial_grid
S 656 19 0 0 0 9 1 582 5116 4000 0 A 0 0 0 0 0 0 0 0 0 0 0 0 0 0 0 0 5 2 0 0 0 0 0 582 0 0 0 0 deallocate_radial_grid
O 656 2 660 659
S 657 27 0 0 0 6 681 582 5139 0 0 A 0 0 0 0 0 0 0 0 0 0 0 0 0 0 0 0 0 0 0 0 0 0 0 582 0 0 0 0 nullify_radial_grid
S 658 27 0 0 0 9 663 582 5159 0 0 A 0 0 0 0 0 0 0 0 0 0 0 0 0 0 0 0 0 0 0 0 0 0 0 582 0 0 0 0 radial_grid_copy
S 659 27 0 0 0 9 671 582 5176 10010 400000 A 0 0 0 0 0 0 6 0 0 0 0 0 0 0 0 0 0 0 0 0 0 0 0 582 0 0 0 0 deallocate_radial_grid_s
Q 659 656 0
S 660 27 0 0 0 9 674 582 5201 10010 400000 A 0 0 0 0 0 0 7 0 0 0 0 0 0 0 0 0 0 0 0 0 0 0 0 582 0 0 0 0 deallocate_radial_grid_v
Q 660 656 0
S 661 8 5 0 0 104 1 582 5226 40022004 1220 A 0 0 0 0 0 0 0 56 0 0 0 0 0 0 0 0 0 0 0 0 0 0 0 582 0 0 0 0 radial_grids$radial_grid_type$td
S 662 11 0 0 0 9 1 582 5259 40800010 801000 A 0 0 0 0 0 28 0 0 599 640 0 0 0 0 0 0 0 0 0 0 0 0 0 0 0 0 0 0 _radial_grids$4
S 663 23 5 0 0 0 666 582 5159 0 0 A 0 0 0 0 0 0 0 0 0 0 0 0 0 0 0 0 0 0 0 0 0 0 0 0 0 0 0 0 radial_grid_copy
S 664 1 3 1 0 56 1 663 5275 14 3000 A 0 0 0 0 0 0 0 0 0 0 0 0 0 0 0 0 0 0 0 0 0 0 0 0 0 0 0 0 x
S 665 1 3 3 0 56 1 663 5277 14 3000 A 0 0 0 0 0 0 0 0 0 0 0 0 0 0 0 0 0 0 0 0 0 0 0 0 0 0 0 0 y
S 666 14 5 0 0 0 1 663 5159 0 400000 A 0 0 0 0 0 0 0 4 2 0 0 0 0 0 0 0 0 0 0 0 0 95 0 582 0 0 0 0 radial_grid_copy
F 666 2 664 665
S 667 23 5 0 0 0 670 582 5095 0 0 A 0 0 0 0 0 0 0 0 0 0 0 0 0 0 0 0 0 0 0 0 0 0 0 0 0 0 0 0 allocate_radial_grid
S 668 1 3 3 0 56 1 667 5279 14 3000 A 0 0 0 0 0 0 0 0 0 0 0 0 0 0 0 0 0 0 0 0 0 0 0 0 0 0 0 0 grid
S 669 1 3 1 0 6 1 667 4733 14 3000 A 0 0 0 0 0 0 0 0 0 0 0 0 0 0 0 0 0 0 0 0 0 0 0 0 0 0 0 0 mesh
S 670 14 5 0 0 0 1 667 5095 0 400000 A 0 0 0 0 0 0 0 7 2 0 0 0 0 0 0 0 0 0 0 0 0 118 0 582 0 0 0 0 allocate_radial_grid
F 670 2 668 669
S 671 23 5 0 0 0 673 582 5176 10 0 A 0 0 0 0 0 0 0 0 0 0 0 0 0 0 0 0 0 0 0 0 0 0 0 0 0 0 0 0 deallocate_radial_grid_s
S 672 1 3 3 0 56 1 671 5279 14 3000 A 0 0 0 0 0 0 0 0 0 0 0 0 0 0 0 0 0 0 0 0 0 0 0 0 0 0 0 0 grid
S 673 14 5 0 0 0 1 671 5176 10 400000 A 0 0 0 0 0 0 0 10 1 0 0 0 0 0 0 0 0 0 0 0 0 136 0 582 0 0 0 0 deallocate_radial_grid_s
F 673 1 672
S 674 23 5 0 0 0 676 582 5201 10 0 A 0 0 0 0 0 0 0 0 0 0 0 0 0 0 0 0 0 0 0 0 0 0 0 0 0 0 0 0 deallocate_radial_grid_v
S 675 7 3 3 0 107 1 674 5279 20000014 10003000 A 0 0 0 0 0 0 0 0 0 0 0 0 0 0 0 0 0 0 0 0 0 0 0 0 0 0 0 0 grid
S 676 14 5 0 0 0 1 674 5201 20000010 400000 A 0 0 0 0 0 0 0 12 1 0 0 0 0 0 0 0 0 0 0 0 0 150 0 582 0 0 0 0 deallocate_radial_grid_v
F 676 1 675
S 677 6 1 0 0 6 1 674 5284 40800016 3000 A 0 0 0 0 0 0 0 0 0 0 0 0 0 0 0 0 0 0 0 0 0 0 0 0 0 0 0 0 z_b_0_1
S 678 6 1 0 0 6 1 674 5292 40800016 3000 A 0 0 0 0 0 0 0 0 0 0 0 0 0 0 0 0 0 0 0 0 0 0 0 0 0 0 0 0 z_b_2_1
S 679 6 1 0 0 6 1 674 5300 40800016 3000 A 0 0 0 0 0 0 0 0 0 0 0 0 0 0 0 0 0 0 0 0 0 0 0 0 0 0 0 0 z_b_3_1
S 680 6 1 0 0 6 1 674 5308 40800016 3000 A 0 0 0 0 0 0 0 0 0 0 0 0 0 0 0 0 0 0 0 0 0 0 0 0 0 0 0 0 z_e_92
S 681 23 5 0 0 0 683 582 5139 0 0 A 0 0 0 0 0 0 0 0 0 0 0 0 0 0 0 0 0 0 0 0 0 0 0 0 0 0 0 0 nullify_radial_grid
S 682 1 3 3 0 56 1 681 5279 14 3000 A 0 0 0 0 0 0 0 0 0 0 0 0 0 0 0 0 0 0 0 0 0 0 0 0 0 0 0 0 grid
S 683 14 5 0 0 0 1 681 5139 0 400000 A 0 0 0 0 0 0 0 14 1 0 0 0 0 0 0 0 0 0 0 0 0 168 0 582 0 0 0 0 nullify_radial_grid
F 683 1 682
S 684 23 5 0 0 0 691 582 5022 0 0 A 0 0 0 0 0 0 0 0 0 0 0 0 0 0 0 0 0 0 0 0 0 0 0 0 0 0 0 0 do_mesh
S 685 1 3 1 0 9 1 684 5008 14 3000 A 0 0 0 0 0 0 0 0 0 0 0 0 0 0 0 0 0 0 0 0 0 0 0 0 0 0 0 0 rmax
S 686 1 3 1 0 9 1 684 5013 14 3000 A 0 0 0 0 0 0 0 0 0 0 0 0 0 0 0 0 0 0 0 0 0 0 0 0 0 0 0 0 zmesh
S 687 1 3 3 0 9 1 684 5003 14 3000 A 0 0 0 0 0 0 0 0 0 0 0 0 0 0 0 0 0 0 0 0 0 0 0 0 0 0 0 0 xmin
S 688 1 3 1 0 9 1 684 5019 14 3000 A 0 0 0 0 0 0 0 0 0 0 0 0 0 0 0 0 0 0 0 0 0 0 0 0 0 0 0 0 dx
S 689 1 3 1 0 6 1 684 5315 14 3000 A 0 0 0 0 0 0 0 0 0 0 0 0 0 0 0 0 0 0 0 0 0 0 0 0 0 0 0 0 ibound
S 690 1 3 2 0 56 1 684 5279 14 3000 A 0 0 0 0 0 0 0 0 0 0 0 0 0 0 0 0 0 0 0 0 0 0 0 0 0 0 0 0 grid
S 691 14 5 0 0 0 1 684 5022 0 400000 A 0 0 0 0 0 0 0 16 6 0 0 0 0 0 0 0 0 0 0 0 0 183 0 582 0 0 0 0 do_mesh
F 691 6 685 686 687 688 689 690
S 692 23 5 0 0 0 694 582 5030 0 0 A 0 0 0 0 0 0 0 0 0 0 0 0 0 0 0 0 0 0 0 0 0 0 0 0 0 0 0 0 check_mesh
S 693 1 3 1 0 56 1 692 5279 14 3000 A 0 0 0 0 0 0 0 0 0 0 0 0 0 0 0 0 0 0 0 0 0 0 0 0 0 0 0 0 grid
S 694 14 5 0 0 0 1 692 5030 0 400000 A 0 0 0 0 0 0 0 23 1 0 0 0 0 0 0 0 0 0 0 0 0 231 0 582 0 0 0 0 check_mesh
F 694 1 693
S 695 23 5 0 0 0 702 582 5041 0 0 A 0 0 0 0 0 0 0 0 0 0 0 0 0 0 0 0 0 0 0 0 0 0 0 0 0 0 0 0 hartree
S 696 1 3 1 0 6 1 695 5322 14 3000 A 0 0 0 0 0 0 0 0 0 0 0 0 0 0 0 0 0 0 0 0 0 0 0 0 0 0 0 0 k
S 697 1 3 1 0 6 1 695 5324 14 3000 A 0 0 0 0 0 0 0 0 0 0 0 0 0 0 0 0 0 0 0 0 0 0 0 0 0 0 0 0 nst
S 698 6 3 1 0 6 1 695 4733 800014 3000 A 0 0 0 0 0 0 0 0 0 0 0 0 0 0 0 0 0 0 0 0 0 0 0 0 0 0 0 0 mesh
S 699 1 3 1 0 56 1 695 5279 14 3000 A 0 0 0 0 0 0 0 0 0 0 0 0 0 0 0 0 0 0 0 0 0 0 0 0 0 0 0 0 grid
S 700 7 3 1 0 110 1 695 5328 800214 3000 A 0 0 0 0 0 0 0 0 0 0 0 0 0 0 0 0 0 0 0 0 0 0 0 0 0 0 0 0 f
S 701 7 3 2 0 113 1 695 5330 800214 3000 A 0 0 0 0 0 0 0 0 0 0 0 0 0 0 0 0 0 0 0 0 0 0 0 0 0 0 0 0 vh
S 702 14 5 0 0 0 1 695 5041 200 400000 A 0 0 0 0 0 0 0 25 6 0 0 0 0 0 0 0 0 0 0 0 0 255 0 582 0 0 0 0 hartree
F 702 6 696 697 698 699 700 701
S 703 6 1 0 0 6 1 695 5333 40800016 3000 A 0 0 0 0 0 0 0 0 0 0 0 0 0 0 0 0 0 0 0 0 0 0 0 0 0 0 0 0 z_e_91
S 704 23 5 0 0 0 709 582 5049 0 0 A 0 0 0 0 0 0 0 0 0 0 0 0 0 0 0 0 0 0 0 0 0 0 0 0 0 0 0 0 series
S 705 7 3 0 0 116 1 704 5328 800014 3000 A 0 0 0 0 0 0 0 0 0 0 0 0 0 0 0 0 0 0 0 0 0 0 0 0 0 0 0 0 f
S 706 7 3 0 0 119 1 704 4738 800014 3000 A 0 0 0 0 0 0 0 0 0 0 0 0 0 0 0 0 0 0 0 0 0 0 0 0 0 0 0 0 r
S 707 7 3 0 0 122 1 704 4768 800014 3000 A 0 0 0 0 0 0 0 0 0 0 0 0 0 0 0 0 0 0 0 0 0 0 0 0 0 0 0 0 r2
S 708 7 3 0 0 125 1 704 5340 800014 3000 A 0 0 0 0 0 0 0 0 0 0 0 0 0 0 0 0 0 0 0 0 0 0 0 0 0 0 0 0 b
S 709 14 5 0 0 0 1 704 5049 0 400000 A 0 0 0 0 0 0 0 32 4 0 0 0 0 0 0 0 0 0 0 0 0 408 0 582 0 0 0 0 series
F 709 4 705 706 707 708
S 710 3 0 0 0 6 1 1 0 0 0 A 0 0 0 0 0 0 0 0 0 3 0 0 0 0 0 0 0 0 0 0 0 0 0 0 0 0 0 0 6
S 711 23 5 0 0 0 714 582 5056 0 0 A 0 0 0 0 0 0 0 0 0 0 0 0 0 0 0 0 0 0 0 0 0 0 0 0 0 0 0 0 write_grid_on_file
S 712 1 3 1 0 6 1 711 5342 14 3000 A 0 0 0 0 0 0 0 0 0 0 0 0 0 0 0 0 0 0 0 0 0 0 0 0 0 0 0 0 iunit
S 713 1 3 1 0 56 1 711 5279 14 3000 A 0 0 0 0 0 0 0 0 0 0 0 0 0 0 0 0 0 0 0 0 0 0 0 0 0 0 0 0 grid
S 714 14 5 0 0 0 1 711 5056 0 400000 A 0 0 0 0 0 0 0 37 2 0 0 0 0 0 0 0 0 0 0 0 0 439 0 582 0 0 0 0 write_grid_on_file
F 714 2 712 713
S 715 23 5 0 0 0 718 582 5075 0 0 A 0 0 0 0 0 0 0 0 0 0 0 0 0 0 0 0 0 0 0 0 0 0 0 0 0 0 0 0 read_grid_from_file
S 716 1 3 1 0 6 1 715 5342 14 3000 A 0 0 0 0 0 0 0 0 0 0 0 0 0 0 0 0 0 0 0 0 0 0 0 0 0 0 0 0 iunit
S 717 1 3 2 0 56 1 715 5279 14 3000 A 0 0 0 0 0 0 0 0 0 0 0 0 0 0 0 0 0 0 0 0 0 0 0 0 0 0 0 0 grid
S 718 14 5 0 0 0 1 715 5075 0 400000 A 0 0 0 0 0 0 0 40 2 0 0 0 0 0 0 0 0 0 0 0 0 457 0 582 0 0 0 0 read_grid_from_file
F 718 2 716 717
A 13 2 0 0 0 6 585 0 0 0 13 0 0 0 0 0 0 0 0 0
A 15 2 0 0 0 6 586 0 0 0 15 0 0 0 0 0 0 0 0 0
A 17 2 0 0 0 6 595 0 0 0 17 0 0 0 0 0 0 0 0 0
A 20 2 0 0 0 6 600 0 0 0 20 0 0 0 0 0 0 0 0 0
A 21 2 0 0 0 6 605 0 0 0 21 0 0 0 0 0 0 0 0 0
A 22 1 0 1 0 65 601 0 0 0 0 0 0 0 0 0 0 0 0 0
A 23 10 0 0 0 6 22 1 0 0 0 0 0 0 0 0 0 0 0 0
X 1 21
A 24 2 0 0 0 6 606 0 0 0 24 0 0 0 0 0 0 0 0 0
A 25 10 0 0 23 6 22 4 0 0 0 0 0 0 0 0 0 0 0 0
X 1 24
A 26 4 0 0 0 6 25 0 3 0 0 0 0 2 0 0 0 0 0 0
A 27 4 0 0 0 6 23 0 26 0 0 0 0 1 0 0 0 0 0 0
A 28 2 0 0 0 6 607 0 0 0 28 0 0 0 0 0 0 0 0 0
A 29 10 0 0 25 6 22 7 0 0 0 0 0 0 0 0 0 0 0 0
X 1 28
A 30 2 0 0 0 6 608 0 0 0 30 0 0 0 0 0 0 0 0 0
A 31 10 0 0 29 6 22 10 0 0 0 0 0 0 0 0 0 0 0 0
X 1 30
A 32 10 0 0 31 6 22 13 0 0 0 0 0 0 0 0 0 0 0 0
X 1 13
A 34 1 0 1 0 71 611 0 0 0 0 0 0 0 0 0 0 0 0 0
A 35 10 0 0 0 6 34 1 0 0 0 0 0 0 0 0 0 0 0 0
X 1 21
A 36 10 0 0 35 6 34 4 0 0 0 0 0 0 0 0 0 0 0 0
X 1 24
A 37 4 0 0 0 6 36 0 3 0 0 0 0 2 0 0 0 0 0 0
A 38 4 0 0 0 6 35 0 37 0 0 0 0 1 0 0 0 0 0 0
A 39 10 0 0 36 6 34 7 0 0 0 0 0 0 0 0 0 0 0 0
X 1 28
A 40 10 0 0 39 6 34 10 0 0 0 0 0 0 0 0 0 0 0 0
X 1 30
A 41 10 0 0 40 6 34 13 0 0 0 0 0 0 0 0 0 0 0 0
X 1 13
A 43 1 0 1 0 77 617 0 0 0 0 0 0 0 0 0 0 0 0 0
A 44 10 0 0 0 6 43 1 0 0 0 0 0 0 0 0 0 0 0 0
X 1 21
A 45 10 0 0 44 6 43 4 0 0 0 0 0 0 0 0 0 0 0 0
X 1 24
A 46 4 0 0 0 6 45 0 3 0 0 0 0 2 0 0 0 0 0 0
A 47 4 0 0 12 6 44 0 46 0 0 0 0 1 0 0 0 0 0 0
A 48 10 0 0 45 6 43 7 0 0 0 0 0 0 0 0 0 0 0 0
X 1 28
A 49 10 0 0 48 6 43 10 0 0 0 0 0 0 0 0 0 0 0 0
X 1 30
A 50 10 0 0 49 6 43 13 0 0 0 0 0 0 0 0 0 0 0 0
X 1 13
A 52 1 0 1 0 83 623 0 0 0 0 0 0 0 0 0 0 0 0 0
A 53 10 0 0 0 6 52 1 0 0 0 0 0 0 0 0 0 0 0 0
X 1 21
A 54 10 0 0 53 6 52 4 0 0 0 0 0 0 0 0 0 0 0 0
X 1 24
A 55 4 0 0 0 6 54 0 3 0 0 0 0 2 0 0 0 0 0 0
A 56 4 0 0 0 6 53 0 55 0 0 0 0 1 0 0 0 0 0 0
A 57 10 0 0 54 6 52 7 0 0 0 0 0 0 0 0 0 0 0 0
X 1 28
A 58 10 0 0 57 6 52 10 0 0 0 0 0 0 0 0 0 0 0 0
X 1 30
A 59 10 0 0 58 6 52 13 0 0 0 0 0 0 0 0 0 0 0 0
X 1 13
A 61 1 0 1 0 89 629 0 0 0 0 0 0 0 0 0 0 0 0 0
A 62 10 0 0 0 6 61 1 0 0 0 0 0 0 0 0 0 0 0 0
X 1 21
A 63 10 0 0 62 6 61 4 0 0 0 0 0 0 0 0 0 0 0 0
X 1 24
A 64 4 0 0 0 6 63 0 3 0 0 0 0 2 0 0 0 0 0 0
A 65 4 0 0 0 6 62 0 64 0 0 0 0 1 0 0 0 0 0 0
A 66 10 0 0 63 6 61 7 0 0 0 0 0 0 0 0 0 0 0 0
X 1 28
A 67 10 0 0 66 6 61 10 0 0 0 0 0 0 0 0 0 0 0 0
X 1 30
A 68 10 0 0 67 6 61 13 0 0 0 0 0 0 0 0 0 0 0 0
X 1 13
A 70 1 0 1 0 95 635 0 0 0 0 0 0 0 0 0 0 0 0 0
A 71 10 0 0 0 6 70 1 0 0 0 0 0 0 0 0 0 0 0 0
X 1 21
A 72 10 0 0 71 6 70 4 0 0 0 0 0 0 0 0 0 0 0 0
X 1 24
A 73 4 0 0 0 6 72 0 3 0 0 0 0 2 0 0 0 0 0 0
A 74 4 0 0 0 6 71 0 73 0 0 0 0 1 0 0 0 0 0 0
A 75 10 0 0 72 6 70 7 0 0 0 0 0 0 0 0 0 0 0 0
X 1 28
A 76 10 0 0 75 6 70 10 0 0 0 0 0 0 0 0 0 0 0 0
X 1 30
A 77 10 0 0 76 6 70 13 0 0 0 0 0 0 0 0 0 0 0 0
X 1 13
A 79 1 0 1 0 101 641 0 0 0 0 0 0 0 0 0 0 0 0 0
A 80 10 0 0 0 6 79 1 0 0 0 0 0 0 0 0 0 0 0 0
X 1 21
A 81 10 0 0 80 6 79 4 0 0 0 0 0 0 0 0 0 0 0 0
X 1 24
A 82 4 0 0 10 6 81 0 3 0 0 0 0 2 0 0 0 0 0 0
A 83 4 0 0 0 6 80 0 82 0 0 0 0 1 0 0 0 0 0 0
A 84 10 0 0 81 6 79 7 0 0 0 0 0 0 0 0 0 0 0 0
X 1 28
A 85 10 0 0 84 6 79 10 0 0 0 0 0 0 0 0 0 0 0 0
X 1 30
A 86 10 0 0 85 6 79 13 0 0 0 0 0 0 0 0 0 0 0 0
X 1 13
A 87 1 0 0 0 6 679 0 0 0 0 0 0 0 0 0 0 0 0 0
A 88 1 0 0 0 6 677 0 0 0 0 0 0 0 0 0 0 0 0 0
A 89 1 0 0 0 6 680 0 0 0 0 0 0 0 0 0 0 0 0 0
A 90 1 0 0 0 6 678 0 0 0 0 0 0 0 0 0 0 0 0 0
A 91 1 0 0 15 6 698 0 0 0 0 0 0 0 0 0 0 0 0 0
A 92 1 0 0 0 6 703 0 0 0 0 0 0 0 0 0 0 0 0 0
A 93 2 0 0 0 6 710 0 0 0 93 0 0 0 0 0 0 0 0 0
Z
Z
