V26 random_numbers
18 random_numbers.F90 S582 0
04/24/2012  15:51:02
use kinds private
use kinds private
enduse
D 56 21 9 1 3 18 0 0 1 0 0
 0 17 3 3 18 18
S 582 24 0 0 0 9 1 0 4658 10005 0 A 0 0 0 0 0 0 0 0 0 0 0 0 0 0 0 0 0 0 0 0 0 11 0 0 0 0 0 0 random_numbers
S 584 23 0 0 0 9 587 582 4679 4 0 A 0 0 0 0 0 0 0 0 0 0 0 0 0 0 0 0 0 0 0 0 0 0 0 582 0 0 0 0 dp
R 587 16 1 kinds dp
S 594 6 4 0 0 6 1 582 4713 24 0 A 0 0 0 0 0 0 0 0 0 0 0 0 598 0 0 0 0 0 0 0 0 0 0 582 0 0 0 0 irand
S 595 19 0 0 0 9 1 582 4719 4000 0 A 0 0 0 0 0 0 0 0 0 0 0 0 0 0 0 0 5 2 0 0 0 0 0 582 0 0 0 0 gauss_dist
O 595 2 597 596
S 596 27 0 0 0 9 615 582 4730 10000 400000 A 0 0 0 0 0 0 6 0 0 0 0 0 0 0 0 0 0 0 0 0 0 0 0 582 0 0 0 0 gauss_dist_scal
Q 596 595 0
S 597 27 0 0 0 9 620 582 4746 10000 400000 A 0 0 0 0 0 0 7 0 0 0 0 0 0 0 0 0 0 0 0 0 0 0 0 582 0 0 0 0 gauss_dist_vect
Q 597 595 0
S 598 11 0 0 0 9 1 582 4762 40800000 801000 A 0 0 0 0 0 4 0 0 594 594 0 0 0 0 0 0 0 0 0 0 0 0 0 0 0 0 0 0 _random_numbers$0
S 599 23 5 0 0 9 600 582 4780 0 0 A 0 0 0 0 0 0 0 0 0 0 0 0 0 0 0 0 0 0 0 0 0 0 0 0 0 0 0 0 rranf
S 600 14 5 0 0 9 1 599 4780 4 400000 A 0 0 0 0 0 0 0 4 0 0 0 601 0 0 0 0 0 0 0 0 0 29 0 582 0 0 0 0 rranf
F 600 0
S 601 1 3 0 0 9 1 599 4780 4 1003000 A 0 0 0 0 0 0 0 0 0 0 0 0 0 0 0 0 0 0 0 0 0 0 0 0 0 0 0 0 rranf
S 602 23 5 0 0 9 603 582 4786 0 0 A 0 0 0 0 0 0 0 0 0 0 0 0 0 0 0 0 0 0 0 0 0 0 0 0 0 0 0 0 randy
S 603 14 5 0 0 9 1 602 4786 4 400000 A 0 0 0 0 0 0 0 5 0 0 0 604 0 0 0 0 0 0 0 0 0 50 0 582 0 0 0 0 randy
F 603 0
S 604 1 3 0 0 9 1 602 4786 4 1003000 A 0 0 0 0 0 0 0 0 0 0 0 0 0 0 0 0 0 0 0 0 0 0 0 0 0 0 0 0 randy
S 605 23 5 0 0 9 606 582 4792 0 0 A 0 0 0 0 0 0 0 0 0 0 0 0 0 0 0 0 0 0 0 0 0 0 0 0 0 0 0 0 rndm
S 606 14 5 0 0 9 1 605 4792 4 400000 A 0 0 0 0 0 0 0 6 0 0 0 607 0 0 0 0 0 0 0 0 0 98 0 582 0 0 0 0 rndm
F 606 0
S 607 1 3 0 0 9 1 605 4792 4 1003000 A 0 0 0 0 0 0 0 0 0 0 0 0 0 0 0 0 0 0 0 0 0 0 0 0 0 0 0 0 rndm
S 608 23 5 0 0 9 610 582 4797 0 0 A 0 0 0 0 0 0 0 0 0 0 0 0 0 0 0 0 0 0 0 0 0 0 0 0 0 0 0 0 rndx
S 609 1 3 3 0 6 1 608 4713 4 3000 A 0 0 0 0 0 0 0 0 0 0 0 0 0 0 0 0 0 0 0 0 0 0 0 0 0 0 0 0 irand
S 610 14 5 0 0 9 1 608 4797 4 400000 A 0 0 0 0 0 0 0 7 1 0 0 611 0 0 0 0 0 0 0 0 0 143 0 582 0 0 0 0 rndx
F 610 1 609
S 611 1 3 0 0 9 1 608 4797 4 1003000 A 0 0 0 0 0 0 0 0 0 0 0 0 0 0 0 0 0 0 0 0 0 0 0 0 0 0 0 0 rndx
S 612 23 5 0 0 0 614 582 4802 0 0 A 0 0 0 0 0 0 0 0 0 0 0 0 0 0 0 0 0 0 0 0 0 0 0 0 0 0 0 0 set_rndm_seed
S 613 1 3 1 0 6 1 612 4816 4 3000 A 0 0 0 0 0 0 0 0 0 0 0 0 0 0 0 0 0 0 0 0 0 0 0 0 0 0 0 0 iseed
S 614 14 5 0 0 0 1 612 4802 0 400000 A 0 0 0 0 0 0 0 9 1 0 0 0 0 0 0 0 0 0 0 0 0 187 0 582 0 0 0 0 set_rndm_seed
F 614 1 613
S 615 23 5 0 0 9 618 582 4730 0 0 A 0 0 0 0 0 0 0 0 0 0 0 0 0 0 0 0 0 0 0 0 0 0 0 0 0 0 0 0 gauss_dist_scal
S 616 1 3 1 0 9 1 615 4822 4 3000 A 0 0 0 0 0 0 0 0 0 0 0 0 0 0 0 0 0 0 0 0 0 0 0 0 0 0 0 0 mu
S 617 1 3 1 0 9 1 615 4825 4 3000 A 0 0 0 0 0 0 0 0 0 0 0 0 0 0 0 0 0 0 0 0 0 0 0 0 0 0 0 0 sigma
S 618 14 5 0 0 9 1 615 4730 4 400000 A 0 0 0 0 0 0 0 11 2 0 0 619 0 0 0 0 0 0 0 0 0 212 0 582 0 0 0 0 gauss_dist_scal
F 618 2 616 617
S 619 1 3 0 0 9 1 615 4730 4 1003000 A 0 0 0 0 0 0 0 0 0 0 0 0 0 0 0 0 0 0 0 0 0 0 0 0 0 0 0 0 gauss_dist_scal
S 620 23 5 0 0 9 624 582 4746 0 0 A 0 0 0 0 0 0 0 0 0 0 0 0 0 0 0 0 0 0 0 0 0 0 0 0 0 0 0 0 gauss_dist_vect
S 621 1 3 1 0 9 1 620 4822 4 3000 A 0 0 0 0 0 0 0 0 0 0 0 0 0 0 0 0 0 0 0 0 0 0 0 0 0 0 0 0 mu
S 622 1 3 1 0 9 1 620 4825 4 3000 A 0 0 0 0 0 0 0 0 0 0 0 0 0 0 0 0 0 0 0 0 0 0 0 0 0 0 0 0 sigma
S 623 6 3 1 0 6 1 620 2375 800004 3000 A 0 0 0 0 0 0 0 0 0 0 0 0 0 0 0 0 0 0 0 0 0 0 0 0 0 0 0 0 dim
S 624 14 5 0 0 56 1 620 4746 204 400000 A 0 0 0 0 0 0 0 14 3 0 0 625 0 0 0 0 0 0 0 0 0 247 0 582 0 0 0 0 gauss_dist_vect
F 624 3 621 622 623
S 625 7 3 0 0 56 1 620 4746 800204 1003000 A 0 0 0 0 0 0 0 0 0 0 0 0 0 0 0 0 0 0 0 0 0 0 0 0 0 0 0 0 gauss_dist_vect
S 626 6 1 0 0 6 1 620 4831 40800006 3000 A 0 0 0 0 0 0 0 0 0 0 0 0 0 0 0 0 0 0 0 0 0 0 0 0 0 0 0 0 z_e_17
A 17 1 0 0 0 6 623 0 0 0 0 0 0 0 0 0 0 0 0 0
A 18 1 0 0 0 6 626 0 0 0 0 0 0 0 0 0 0 0 0 0
Z
Z
