V26 read_cards_module
14 read_cards.F90 S582 0
04/24/2012  15:51:52
use parser private
use constants private
use io_global private
use kinds private
use parser private
use constants private
use io_global private
use kinds private
enduse
D 303 18 123
D 305 18 123
D 307 18 132
D 309 18 123
D 311 18 132
D 313 18 123
D 315 18 132
D 317 18 132
D 319 18 132
D 321 18 132
D 323 18 132
D 325 18 132
D 327 18 132
D 329 18 132
D 331 18 132
D 333 18 132
D 335 18 132
D 337 18 132
D 339 18 132
D 341 18 132
D 343 18 132
D 345 18 132
D 347 18 132
S 582 24 0 0 0 9 1 0 4658 10015 0 A 0 0 0 0 0 0 0 0 0 0 0 0 0 0 0 0 0 0 0 0 0 11 0 0 0 0 0 0 read_cards_module
S 584 23 0 0 0 9 597 582 4682 14 0 A 0 0 0 0 0 0 0 0 0 0 0 0 0 0 0 0 0 0 0 0 0 0 0 582 0 0 0 0 dp
S 586 23 0 0 0 9 607 582 4695 14 0 A 0 0 0 0 0 0 0 0 0 0 0 0 0 0 0 0 0 0 0 0 0 0 0 582 0 0 0 0 stdout
S 588 23 0 0 0 9 716 582 4712 14 0 A 0 0 0 0 0 0 0 0 0 0 0 0 0 0 0 0 0 0 0 0 0 0 0 582 0 0 0 0 angstrom_au
S 590 23 0 0 0 9 733 582 4731 14 0 A 0 0 0 0 0 0 0 0 0 0 0 0 0 0 0 0 0 0 0 0 0 0 0 582 0 0 0 0 field_count
S 591 23 0 0 0 9 739 582 4743 14 0 A 0 0 0 0 0 0 0 0 0 0 0 0 0 0 0 0 0 0 0 0 0 0 0 582 0 0 0 0 read_line
S 592 23 0 0 0 6 608 582 4753 14 0 A 0 0 0 0 0 0 0 0 0 0 0 0 0 0 0 0 0 0 0 0 0 0 0 582 0 0 0 0 ionode
S 593 23 0 0 0 6 609 582 4760 14 0 A 0 0 0 0 0 0 0 0 0 0 0 0 0 0 0 0 0 0 0 0 0 0 0 582 0 0 0 0 ionode_id
R 597 16 1 kinds dp
R 607 6 4 io_global stdout
R 608 6 5 io_global ionode
R 609 6 6 io_global ionode_id
R 716 16 48 constants angstrom_au
R 733 14 13 parser field_count
R 739 14 19 parser read_line
S 765 3 0 0 0 6 1 1 0 0 0 A 0 0 0 0 0 0 0 0 0 2 0 0 0 0 0 0 0 0 0 0 0 0 0 0 0 0 0 0 6
S 784 3 0 0 0 6 1 1 0 0 0 A 0 0 0 0 0 0 0 0 0 256 0 0 0 0 0 0 0 0 0 0 0 0 0 0 0 0 0 0 6
S 1314 27 0 0 0 9 1318 582 10928 0 0 A 0 0 0 0 0 0 0 0 0 0 0 0 0 0 0 0 0 0 0 0 0 0 0 582 0 0 0 0 read_cards
S 1315 23 5 0 0 0 1317 582 10939 10 0 A 0 0 0 0 0 0 0 0 0 0 0 0 0 0 0 0 0 0 0 0 0 0 0 0 0 0 0 0 card_default_values
S 1316 1 3 0 0 303 1 1315 10959 14 3000 A 0 0 0 0 0 0 0 0 0 0 0 0 0 0 0 0 0 0 0 0 0 0 0 0 0 0 0 0 prog
S 1317 14 5 0 0 0 1 1315 10939 10 400000 A 0 0 0 0 0 0 0 51 1 0 0 0 0 0 0 0 0 0 0 0 0 45 0 582 0 0 0 0 card_default_values
F 1317 1 1316
S 1318 23 5 0 0 0 1320 582 10928 0 0 A 0 0 0 0 0 0 0 0 0 0 0 0 0 0 0 0 0 0 0 0 0 0 0 0 0 0 0 0 read_cards
S 1319 1 3 0 0 305 1 1318 10959 14 3000 A 0 0 0 0 0 0 0 0 0 0 0 0 0 0 0 0 0 0 0 0 0 0 0 0 0 0 0 0 prog
S 1320 14 5 0 0 0 1 1318 10928 0 400000 A 0 0 0 0 0 0 0 53 1 0 0 0 0 0 0 0 0 0 0 0 0 149 0 582 0 0 0 0 read_cards
F 1320 1 1319
S 1321 23 5 0 0 0 1324 582 10964 10 0 A 0 0 0 0 0 0 0 0 0 0 0 0 0 0 0 0 0 0 0 0 0 0 0 0 0 0 0 0 card_atomic_species
S 1322 1 3 0 0 307 1 1321 10984 14 3000 A 0 0 0 0 0 0 0 0 0 0 0 0 0 0 0 0 0 0 0 0 0 0 0 0 0 0 0 0 input_line
S 1323 1 3 0 0 309 1 1321 10959 14 3000 A 0 0 0 0 0 0 0 0 0 0 0 0 0 0 0 0 0 0 0 0 0 0 0 0 0 0 0 0 prog
S 1324 14 5 0 0 0 1 1321 10964 10 400000 A 0 0 0 0 0 0 0 55 2 0 0 0 0 0 0 0 0 0 0 0 0 327 0 582 0 0 0 0 card_atomic_species
F 1324 2 1322 1323
S 1325 23 5 0 0 0 1328 582 10995 10 0 A 0 0 0 0 0 0 0 0 0 0 0 0 0 0 0 0 0 0 0 0 0 0 0 0 0 0 0 0 card_atomic_positions
S 1326 1 3 0 0 311 1 1325 10984 14 3000 A 0 0 0 0 0 0 0 0 0 0 0 0 0 0 0 0 0 0 0 0 0 0 0 0 0 0 0 0 input_line
S 1327 1 3 0 0 313 1 1325 10959 14 3000 A 0 0 0 0 0 0 0 0 0 0 0 0 0 0 0 0 0 0 0 0 0 0 0 0 0 0 0 0 prog
S 1328 14 5 0 0 0 1 1325 10995 10 400000 A 0 0 0 0 0 0 0 58 2 0 0 0 0 0 0 0 0 0 0 0 0 415 0 582 0 0 0 0 card_atomic_positions
F 1328 2 1326 1327
S 1329 23 5 0 0 0 1331 582 11017 10 0 A 0 0 0 0 0 0 0 0 0 0 0 0 0 0 0 0 0 0 0 0 0 0 0 0 0 0 0 0 card_kpoints
S 1330 1 3 0 0 315 1 1329 10984 14 3000 A 0 0 0 0 0 0 0 0 0 0 0 0 0 0 0 0 0 0 0 0 0 0 0 0 0 0 0 0 input_line
S 1331 14 5 0 0 0 1 1329 11017 10 400000 A 0 0 0 0 0 0 0 61 1 0 0 0 0 0 0 0 0 0 0 0 0 767 0 582 0 0 0 0 card_kpoints
F 1331 1 1330
S 1332 23 5 0 0 0 1334 582 11030 10 0 A 0 0 0 0 0 0 0 0 0 0 0 0 0 0 0 0 0 0 0 0 0 0 0 0 0 0 0 0 card_setnfi
S 1333 1 3 0 0 317 1 1332 10984 14 3000 A 0 0 0 0 0 0 0 0 0 0 0 0 0 0 0 0 0 0 0 0 0 0 0 0 0 0 0 0 input_line
S 1334 14 5 0 0 0 1 1332 11030 10 400000 A 0 0 0 0 0 0 0 63 1 0 0 0 0 0 0 0 0 0 0 0 0 874 0 582 0 0 0 0 card_setnfi
F 1334 1 1333
S 1335 23 5 0 0 0 1337 582 11042 10 0 A 0 0 0 0 0 0 0 0 0 0 0 0 0 0 0 0 0 0 0 0 0 0 0 0 0 0 0 0 card_occupations
S 1336 1 3 0 0 319 1 1335 10984 14 3000 A 0 0 0 0 0 0 0 0 0 0 0 0 0 0 0 0 0 0 0 0 0 0 0 0 0 0 0 0 input_line
S 1337 14 5 0 0 0 1 1335 11042 10 400000 A 0 0 0 0 0 0 0 65 1 0 0 0 0 0 0 0 0 0 0 0 0 962 0 582 0 0 0 0 card_occupations
F 1337 1 1336
S 1338 23 5 0 0 0 1340 582 11059 10 0 A 0 0 0 0 0 0 0 0 0 0 0 0 0 0 0 0 0 0 0 0 0 0 0 0 0 0 0 0 card_vhmean
S 1339 1 3 0 0 321 1 1338 10984 14 3000 A 0 0 0 0 0 0 0 0 0 0 0 0 0 0 0 0 0 0 0 0 0 0 0 0 0 0 0 0 input_line
S 1340 14 5 0 0 0 1 1338 11059 10 400000 A 0 0 0 0 0 0 0 67 1 0 0 0 0 0 0 0 0 0 0 0 0 1027 0 582 0 0 0 0 card_vhmean
F 1340 1 1339
S 1341 23 5 0 0 0 1343 582 11071 10 0 A 0 0 0 0 0 0 0 0 0 0 0 0 0 0 0 0 0 0 0 0 0 0 0 0 0 0 0 0 card_dipole
S 1342 1 3 0 0 323 1 1341 10984 14 3000 A 0 0 0 0 0 0 0 0 0 0 0 0 0 0 0 0 0 0 0 0 0 0 0 0 0 0 0 0 input_line
S 1343 14 5 0 0 0 1 1341 11071 10 400000 A 0 0 0 0 0 0 0 69 1 0 0 0 0 0 0 0 0 0 0 0 0 1071 0 582 0 0 0 0 card_dipole
F 1343 1 1342
S 1344 23 5 0 0 0 1346 582 11083 10 0 A 0 0 0 0 0 0 0 0 0 0 0 0 0 0 0 0 0 0 0 0 0 0 0 0 0 0 0 0 card_esr
S 1345 1 3 0 0 325 1 1344 10984 14 3000 A 0 0 0 0 0 0 0 0 0 0 0 0 0 0 0 0 0 0 0 0 0 0 0 0 0 0 0 0 input_line
S 1346 14 5 0 0 0 1 1344 11083 10 400000 A 0 0 0 0 0 0 0 71 1 0 0 0 0 0 0 0 0 0 0 0 0 1121 0 582 0 0 0 0 card_esr
F 1346 1 1345
S 1347 23 5 0 0 0 1349 582 11092 10 0 A 0 0 0 0 0 0 0 0 0 0 0 0 0 0 0 0 0 0 0 0 0 0 0 0 0 0 0 0 card_neighbours
S 1348 1 3 0 0 327 1 1347 10984 14 3000 A 0 0 0 0 0 0 0 0 0 0 0 0 0 0 0 0 0 0 0 0 0 0 0 0 0 0 0 0 input_line
S 1349 14 5 0 0 0 1 1347 11092 10 400000 A 0 0 0 0 0 0 0 73 1 0 0 0 0 0 0 0 0 0 0 0 0 1169 0 582 0 0 0 0 card_neighbours
F 1349 1 1348
S 1350 23 5 0 0 0 1352 582 11108 10 0 A 0 0 0 0 0 0 0 0 0 0 0 0 0 0 0 0 0 0 0 0 0 0 0 0 0 0 0 0 card_cell_parameters
S 1351 1 3 0 0 329 1 1350 10984 14 3000 A 0 0 0 0 0 0 0 0 0 0 0 0 0 0 0 0 0 0 0 0 0 0 0 0 0 0 0 0 input_line
S 1352 14 5 0 0 0 1 1350 11108 10 400000 A 0 0 0 0 0 0 0 75 1 0 0 0 0 0 0 0 0 0 0 0 0 1224 0 582 0 0 0 0 card_cell_parameters
F 1352 1 1351
S 1353 23 5 0 0 0 1355 582 11129 10 0 A 0 0 0 0 0 0 0 0 0 0 0 0 0 0 0 0 0 0 0 0 0 0 0 0 0 0 0 0 card_turbo
S 1354 1 3 0 0 331 1 1353 10984 14 3000 A 0 0 0 0 0 0 0 0 0 0 0 0 0 0 0 0 0 0 0 0 0 0 0 0 0 0 0 0 input_line
S 1355 14 5 0 0 0 1 1353 11129 10 400000 A 0 0 0 0 0 0 0 77 1 0 0 0 0 0 0 0 0 0 0 0 0 1293 0 582 0 0 0 0 card_turbo
F 1355 1 1354
S 1356 23 5 0 0 0 1358 582 11140 10 0 A 0 0 0 0 0 0 0 0 0 0 0 0 0 0 0 0 0 0 0 0 0 0 0 0 0 0 0 0 card_ion_velocities
S 1357 1 3 0 0 333 1 1356 10984 14 3000 A 0 0 0 0 0 0 0 0 0 0 0 0 0 0 0 0 0 0 0 0 0 0 0 0 0 0 0 0 input_line
S 1358 14 5 0 0 0 1 1356 11140 10 400000 A 0 0 0 0 0 0 0 79 1 0 0 0 0 0 0 0 0 0 0 0 0 1349 0 582 0 0 0 0 card_ion_velocities
F 1358 1 1357
S 1359 23 5 0 0 0 1361 582 11160 10 0 A 0 0 0 0 0 0 0 0 0 0 0 0 0 0 0 0 0 0 0 0 0 0 0 0 0 0 0 0 card_constraints
S 1360 1 3 0 0 335 1 1359 10984 14 3000 A 0 0 0 0 0 0 0 0 0 0 0 0 0 0 0 0 0 0 0 0 0 0 0 0 0 0 0 0 input_line
S 1361 14 5 0 0 0 1 1359 11160 10 400000 A 0 0 0 0 0 0 0 81 1 0 0 0 0 0 0 0 0 0 0 0 0 1447 0 582 0 0 0 0 card_constraints
F 1361 1 1360
S 1362 23 5 0 0 0 1364 582 11177 10 0 A 0 0 0 0 0 0 0 0 0 0 0 0 0 0 0 0 0 0 0 0 0 0 0 0 0 0 0 0 card_collective_vars
S 1363 1 3 0 0 337 1 1362 10984 14 3000 A 0 0 0 0 0 0 0 0 0 0 0 0 0 0 0 0 0 0 0 0 0 0 0 0 0 0 0 0 input_line
S 1364 14 5 0 0 0 1 1362 11177 10 400000 A 0 0 0 0 0 0 0 83 1 0 0 0 0 0 0 0 0 0 0 0 0 1640 0 582 0 0 0 0 card_collective_vars
F 1364 1 1363
S 1365 23 5 0 0 0 1367 582 11198 10 0 A 0 0 0 0 0 0 0 0 0 0 0 0 0 0 0 0 0 0 0 0 0 0 0 0 0 0 0 0 card_ksout
S 1366 1 3 0 0 339 1 1365 10984 14 3000 A 0 0 0 0 0 0 0 0 0 0 0 0 0 0 0 0 0 0 0 0 0 0 0 0 0 0 0 0 input_line
S 1367 14 5 0 0 0 1 1365 11198 10 400000 A 0 0 0 0 0 0 0 85 1 0 0 0 0 0 0 0 0 0 0 0 0 1934 0 582 0 0 0 0 card_ksout
F 1367 1 1366
S 1368 23 5 0 0 0 1370 582 11209 10 0 A 0 0 0 0 0 0 0 0 0 0 0 0 0 0 0 0 0 0 0 0 0 0 0 0 0 0 0 0 card_ksout_empty
S 1369 1 3 0 0 341 1 1368 10984 14 3000 A 0 0 0 0 0 0 0 0 0 0 0 0 0 0 0 0 0 0 0 0 0 0 0 0 0 0 0 0 input_line
S 1370 14 5 0 0 0 1 1368 11209 10 400000 A 0 0 0 0 0 0 0 87 1 0 0 0 0 0 0 0 0 0 0 0 0 2042 0 582 0 0 0 0 card_ksout_empty
F 1370 1 1369
S 1371 23 5 0 0 0 1373 582 11226 10 0 A 0 0 0 0 0 0 0 0 0 0 0 0 0 0 0 0 0 0 0 0 0 0 0 0 0 0 0 0 card_climbing_images
S 1372 1 3 0 0 343 1 1371 10984 14 3000 A 0 0 0 0 0 0 0 0 0 0 0 0 0 0 0 0 0 0 0 0 0 0 0 0 0 0 0 0 input_line
S 1373 14 5 0 0 0 1 1371 11226 10 400000 A 0 0 0 0 0 0 0 89 1 0 0 0 0 0 0 0 0 0 0 0 0 2125 0 582 0 0 0 0 card_climbing_images
F 1373 1 1372
S 1374 23 5 0 0 0 1376 582 11247 10 0 A 0 0 0 0 0 0 0 0 0 0 0 0 0 0 0 0 0 0 0 0 0 0 0 0 0 0 0 0 card_plot_wannier
S 1375 1 3 0 0 345 1 1374 10984 14 3000 A 0 0 0 0 0 0 0 0 0 0 0 0 0 0 0 0 0 0 0 0 0 0 0 0 0 0 0 0 input_line
S 1376 14 5 0 0 0 1 1374 11247 10 400000 A 0 0 0 0 0 0 0 91 1 0 0 0 0 0 0 0 0 0 0 0 0 2192 0 582 0 0 0 0 card_plot_wannier
F 1376 1 1375
S 1377 23 5 0 0 0 1379 582 11265 10 0 A 0 0 0 0 0 0 0 0 0 0 0 0 0 0 0 0 0 0 0 0 0 0 0 0 0 0 0 0 card_template
S 1378 1 3 0 0 347 1 1377 10984 14 3000 A 0 0 0 0 0 0 0 0 0 0 0 0 0 0 0 0 0 0 0 0 0 0 0 0 0 0 0 0 input_line
S 1379 14 5 0 0 0 1 1377 11265 10 400000 A 0 0 0 0 0 0 0 93 1 0 0 0 0 0 0 0 0 0 0 0 0 2270 0 582 0 0 0 0 card_template
F 1379 1 1378
A 123 2 0 0 0 6 765 0 0 0 123 0 0 0 0 0 0 0 0 0
A 132 2 0 0 0 6 784 0 0 0 132 0 0 0 0 0 0 0 0 0
Z
Z
