V26 read_namelists_module
18 read_namelists.F90 S582 0
04/24/2012  15:51:13
use kinds private
use kinds private
enduse
D 301 18 30
D 303 18 30
D 305 18 30
D 307 18 30
D 309 18 30
D 311 18 30
D 313 18 30
D 315 18 30
D 317 18 30
D 319 18 30
D 321 18 30
D 323 18 30
D 325 18 30
D 327 18 30
D 329 18 30
D 331 18 30
D 333 18 30
S 582 24 0 0 0 9 1 0 4658 10015 0 A 0 0 0 0 0 0 0 0 0 0 0 0 0 0 0 0 0 0 0 0 0 11 0 0 0 0 0 0 read_namelists_module
S 584 23 0 0 0 9 588 582 4686 14 0 A 0 0 0 0 0 0 0 0 0 0 0 0 0 0 0 0 0 0 0 0 0 0 0 582 0 0 0 0 dp
R 588 16 1 kinds dp
S 599 3 0 0 0 6 1 1 0 0 0 A 0 0 0 0 0 0 0 0 0 2 0 0 0 0 0 0 0 0 0 0 0 0 0 0 0 0 0 0 6
S 1148 16 0 0 0 9 1 582 10100 4 400000 A 0 0 0 0 0 0 0 0 1150 259 0 0 0 0 0 0 0 0 0 0 0 0 0 582 0 0 0 0 sm_not_set
S 1150 3 0 0 0 9 0 1 0 0 0 A 0 0 0 0 0 0 0 0 -1070333952 0 0 0 0 0 0 0 0 0 0 0 0 0 0 0 0 0 0 0 9
S 1151 27 0 0 0 9 1216 582 10119 0 0 A 0 0 0 0 0 0 0 0 0 0 0 0 0 0 0 0 0 0 0 0 0 0 0 582 0 0 0 0 read_namelists
S 1152 23 5 0 0 0 1154 582 10134 10 0 A 0 0 0 0 0 0 0 0 0 0 0 0 0 0 0 0 0 0 0 0 0 0 0 0 0 0 0 0 control_defaults
S 1153 1 3 0 0 301 1 1152 10151 14 3000 A 0 0 0 0 0 0 0 0 0 0 0 0 0 0 0 0 0 0 0 0 0 0 0 0 0 0 0 0 prog
S 1154 14 5 0 0 0 1 1152 10134 10 400000 A 0 0 0 0 0 0 0 16 1 0 0 0 0 0 0 0 0 0 0 0 0 44 0 582 0 0 0 0 control_defaults
F 1154 1 1153
S 1155 23 5 0 0 0 1157 582 10156 10 0 A 0 0 0 0 0 0 0 0 0 0 0 0 0 0 0 0 0 0 0 0 0 0 0 0 0 0 0 0 system_defaults
S 1156 1 3 0 0 303 1 1155 10151 14 3000 A 0 0 0 0 0 0 0 0 0 0 0 0 0 0 0 0 0 0 0 0 0 0 0 0 0 0 0 0 prog
S 1157 14 5 0 0 0 1 1155 10156 10 400000 A 0 0 0 0 0 0 0 18 1 0 0 0 0 0 0 0 0 0 0 0 0 123 0 582 0 0 0 0 system_defaults
F 1157 1 1156
S 1158 23 5 0 0 0 1160 582 10172 10 0 A 0 0 0 0 0 0 0 0 0 0 0 0 0 0 0 0 0 0 0 0 0 0 0 0 0 0 0 0 electrons_defaults
S 1159 1 3 0 0 305 1 1158 10151 14 3000 A 0 0 0 0 0 0 0 0 0 0 0 0 0 0 0 0 0 0 0 0 0 0 0 0 0 0 0 0 prog
S 1160 14 5 0 0 0 1 1158 10172 10 400000 A 0 0 0 0 0 0 0 20 1 0 0 0 0 0 0 0 0 0 0 0 0 222 0 582 0 0 0 0 electrons_defaults
F 1160 1 1159
S 1161 23 5 0 0 0 1163 582 10191 10 0 A 0 0 0 0 0 0 0 0 0 0 0 0 0 0 0 0 0 0 0 0 0 0 0 0 0 0 0 0 ions_defaults
S 1162 1 3 0 0 307 1 1161 10151 14 3000 A 0 0 0 0 0 0 0 0 0 0 0 0 0 0 0 0 0 0 0 0 0 0 0 0 0 0 0 0 prog
S 1163 14 5 0 0 0 1 1161 10191 10 400000 A 0 0 0 0 0 0 0 22 1 0 0 0 0 0 0 0 0 0 0 0 0 337 0 582 0 0 0 0 ions_defaults
F 1163 1 1162
S 1164 23 5 0 0 0 1166 582 10205 10 0 A 0 0 0 0 0 0 0 0 0 0 0 0 0 0 0 0 0 0 0 0 0 0 0 0 0 0 0 0 cell_defaults
S 1165 1 3 0 0 309 1 1164 10151 14 3000 A 0 0 0 0 0 0 0 0 0 0 0 0 0 0 0 0 0 0 0 0 0 0 0 0 0 0 0 0 prog
S 1166 14 5 0 0 0 1 1164 10205 10 400000 A 0 0 0 0 0 0 0 24 1 0 0 0 0 0 0 0 0 0 0 0 0 436 0 582 0 0 0 0 cell_defaults
F 1166 1 1165
S 1167 23 5 0 0 0 1169 582 10219 10 0 A 0 0 0 0 0 0 0 0 0 0 0 0 0 0 0 0 0 0 0 0 0 0 0 0 0 0 0 0 press_ai_defaults
S 1168 1 3 0 0 311 1 1167 10151 14 3000 A 0 0 0 0 0 0 0 0 0 0 0 0 0 0 0 0 0 0 0 0 0 0 0 0 0 0 0 0 prog
S 1169 14 5 0 0 0 1 1167 10219 10 400000 A 0 0 0 0 0 0 0 26 1 0 0 0 0 0 0 0 0 0 0 0 0 483 0 582 0 0 0 0 press_ai_defaults
F 1169 1 1168
S 1170 23 5 0 0 0 1172 582 10237 10 0 A 0 0 0 0 0 0 0 0 0 0 0 0 0 0 0 0 0 0 0 0 0 0 0 0 0 0 0 0 phonon_defaults
S 1171 1 3 0 0 313 1 1170 10151 14 3000 A 0 0 0 0 0 0 0 0 0 0 0 0 0 0 0 0 0 0 0 0 0 0 0 0 0 0 0 0 prog
S 1172 14 5 0 0 0 1 1170 10237 10 400000 A 0 0 0 0 0 0 0 28 1 0 0 0 0 0 0 0 0 0 0 0 0 525 0 582 0 0 0 0 phonon_defaults
F 1172 1 1171
S 1173 23 5 0 0 0 1175 582 10253 10 0 A 0 0 0 0 0 0 0 0 0 0 0 0 0 0 0 0 0 0 0 0 0 0 0 0 0 0 0 0 wannier_defaults
S 1174 1 3 0 0 315 1 1173 10151 14 3000 A 0 0 0 0 0 0 0 0 0 0 0 0 0 0 0 0 0 0 0 0 0 0 0 0 0 0 0 0 prog
S 1175 14 5 0 0 0 1 1173 10253 10 400000 A 0 0 0 0 0 0 0 30 1 0 0 0 0 0 0 0 0 0 0 0 0 545 0 582 0 0 0 0 wannier_defaults
F 1175 1 1174
S 1176 23 5 0 0 0 1177 582 10270 10 0 A 0 0 0 0 0 0 0 0 0 0 0 0 0 0 0 0 0 0 0 0 0 0 0 0 0 0 0 0 control_bcast
S 1177 14 5 0 0 0 1 1176 10270 10 400000 A 0 0 0 0 0 0 0 32 0 0 0 0 0 0 0 0 0 0 0 0 0 597 0 582 0 0 0 0 control_bcast
F 1177 0
S 1178 23 5 0 0 0 1179 582 10284 10 0 A 0 0 0 0 0 0 0 0 0 0 0 0 0 0 0 0 0 0 0 0 0 0 0 0 0 0 0 0 system_bcast
S 1179 14 5 0 0 0 1 1178 10284 10 400000 A 0 0 0 0 0 0 0 33 0 0 0 0 0 0 0 0 0 0 0 0 0 652 0 582 0 0 0 0 system_bcast
F 1179 0
S 1180 23 5 0 0 0 1181 582 10297 10 0 A 0 0 0 0 0 0 0 0 0 0 0 0 0 0 0 0 0 0 0 0 0 0 0 0 0 0 0 0 electrons_bcast
S 1181 14 5 0 0 0 1 1180 10297 10 400000 A 0 0 0 0 0 0 0 34 0 0 0 0 0 0 0 0 0 0 0 0 0 743 0 582 0 0 0 0 electrons_bcast
F 1181 0
S 1182 23 5 0 0 0 1183 582 10313 10 0 A 0 0 0 0 0 0 0 0 0 0 0 0 0 0 0 0 0 0 0 0 0 0 0 0 0 0 0 0 ions_bcast
S 1183 14 5 0 0 0 1 1182 10313 10 400000 A 0 0 0 0 0 0 0 35 0 0 0 0 0 0 0 0 0 0 0 0 0 849 0 582 0 0 0 0 ions_bcast
F 1183 0
S 1184 23 5 0 0 0 1185 582 10324 10 0 A 0 0 0 0 0 0 0 0 0 0 0 0 0 0 0 0 0 0 0 0 0 0 0 0 0 0 0 0 cell_bcast
S 1185 14 5 0 0 0 1 1184 10324 10 400000 A 0 0 0 0 0 0 0 36 0 0 0 0 0 0 0 0 0 0 0 0 0 928 0 582 0 0 0 0 cell_bcast
F 1185 0
S 1186 23 5 0 0 0 1187 582 10335 10 0 A 0 0 0 0 0 0 0 0 0 0 0 0 0 0 0 0 0 0 0 0 0 0 0 0 0 0 0 0 press_ai_bcast
S 1187 14 5 0 0 0 1 1186 10335 10 400000 A 0 0 0 0 0 0 0 37 0 0 0 0 0 0 0 0 0 0 0 0 0 962 0 582 0 0 0 0 press_ai_bcast
F 1187 0
S 1188 23 5 0 0 0 1189 582 10350 10 0 A 0 0 0 0 0 0 0 0 0 0 0 0 0 0 0 0 0 0 0 0 0 0 0 0 0 0 0 0 phonon_bcast
S 1189 14 5 0 0 0 1 1188 10350 10 400000 A 0 0 0 0 0 0 0 38 0 0 0 0 0 0 0 0 0 0 0 0 0 1004 0 582 0 0 0 0 phonon_bcast
F 1189 0
S 1190 23 5 0 0 0 1191 582 10363 10 0 A 0 0 0 0 0 0 0 0 0 0 0 0 0 0 0 0 0 0 0 0 0 0 0 0 0 0 0 0 wannier_bcast
S 1191 14 5 0 0 0 1 1190 10363 10 400000 A 0 0 0 0 0 0 0 39 0 0 0 0 0 0 0 0 0 0 0 0 0 1026 0 582 0 0 0 0 wannier_bcast
F 1191 0
S 1192 23 5 0 0 0 1194 582 10377 10 0 A 0 0 0 0 0 0 0 0 0 0 0 0 0 0 0 0 0 0 0 0 0 0 0 0 0 0 0 0 control_checkin
S 1193 1 3 0 0 317 1 1192 10151 14 3000 A 0 0 0 0 0 0 0 0 0 0 0 0 0 0 0 0 0 0 0 0 0 0 0 0 0 0 0 0 prog
S 1194 14 5 0 0 0 1 1192 10377 10 400000 A 0 0 0 0 0 0 0 40 1 0 0 0 0 0 0 0 0 0 0 0 0 1069 0 582 0 0 0 0 control_checkin
F 1194 1 1193
S 1195 23 5 0 0 0 1197 582 10393 10 0 A 0 0 0 0 0 0 0 0 0 0 0 0 0 0 0 0 0 0 0 0 0 0 0 0 0 0 0 0 system_checkin
S 1196 1 3 0 0 319 1 1195 10151 14 3000 A 0 0 0 0 0 0 0 0 0 0 0 0 0 0 0 0 0 0 0 0 0 0 0 0 0 0 0 0 prog
S 1197 14 5 0 0 0 1 1195 10393 10 400000 A 0 0 0 0 0 0 0 42 1 0 0 0 0 0 0 0 0 0 0 0 0 1155 0 582 0 0 0 0 system_checkin
F 1197 1 1196
S 1198 23 5 0 0 0 1200 582 10408 10 0 A 0 0 0 0 0 0 0 0 0 0 0 0 0 0 0 0 0 0 0 0 0 0 0 0 0 0 0 0 electrons_checkin
S 1199 1 3 0 0 321 1 1198 10151 14 3000 A 0 0 0 0 0 0 0 0 0 0 0 0 0 0 0 0 0 0 0 0 0 0 0 0 0 0 0 0 prog
S 1200 14 5 0 0 0 1 1198 10408 10 400000 A 0 0 0 0 0 0 0 44 1 0 0 0 0 0 0 0 0 0 0 0 0 1273 0 582 0 0 0 0 electrons_checkin
F 1200 1 1199
S 1201 23 5 0 0 0 1203 582 10426 10 0 A 0 0 0 0 0 0 0 0 0 0 0 0 0 0 0 0 0 0 0 0 0 0 0 0 0 0 0 0 ions_checkin
S 1202 1 3 0 0 323 1 1201 10151 14 3000 A 0 0 0 0 0 0 0 0 0 0 0 0 0 0 0 0 0 0 0 0 0 0 0 0 0 0 0 0 prog
S 1203 14 5 0 0 0 1 1201 10426 10 400000 A 0 0 0 0 0 0 0 46 1 0 0 0 0 0 0 0 0 0 0 0 0 1328 0 582 0 0 0 0 ions_checkin
F 1203 1 1202
S 1204 23 5 0 0 0 1206 582 10439 10 0 A 0 0 0 0 0 0 0 0 0 0 0 0 0 0 0 0 0 0 0 0 0 0 0 0 0 0 0 0 cell_checkin
S 1205 1 3 0 0 325 1 1204 10151 14 3000 A 0 0 0 0 0 0 0 0 0 0 0 0 0 0 0 0 0 0 0 0 0 0 0 0 0 0 0 0 prog
S 1206 14 5 0 0 0 1 1204 10439 10 400000 A 0 0 0 0 0 0 0 48 1 0 0 0 0 0 0 0 0 0 0 0 0 1433 0 582 0 0 0 0 cell_checkin
F 1206 1 1205
S 1207 23 5 0 0 0 1209 582 10452 10 0 A 0 0 0 0 0 0 0 0 0 0 0 0 0 0 0 0 0 0 0 0 0 0 0 0 0 0 0 0 phonon_checkin
S 1208 1 3 0 0 327 1 1207 10151 14 3000 A 0 0 0 0 0 0 0 0 0 0 0 0 0 0 0 0 0 0 0 0 0 0 0 0 0 0 0 0 prog
S 1209 14 5 0 0 0 1 1207 10452 10 400000 A 0 0 0 0 0 0 0 50 1 0 0 0 0 0 0 0 0 0 0 0 0 1471 0 582 0 0 0 0 phonon_checkin
F 1209 1 1208
S 1210 23 5 0 0 0 1212 582 10467 10 0 A 0 0 0 0 0 0 0 0 0 0 0 0 0 0 0 0 0 0 0 0 0 0 0 0 0 0 0 0 wannier_checkin
S 1211 1 3 0 0 329 1 1210 10151 14 3000 A 0 0 0 0 0 0 0 0 0 0 0 0 0 0 0 0 0 0 0 0 0 0 0 0 0 0 0 0 prog
S 1212 14 5 0 0 0 1 1210 10467 10 400000 A 0 0 0 0 0 0 0 52 1 0 0 0 0 0 0 0 0 0 0 0 0 1490 0 582 0 0 0 0 wannier_checkin
F 1212 1 1211
S 1213 23 5 0 0 0 1215 582 10483 10 0 A 0 0 0 0 0 0 0 0 0 0 0 0 0 0 0 0 0 0 0 0 0 0 0 0 0 0 0 0 fixval
S 1214 1 3 0 0 331 1 1213 10151 14 3000 A 0 0 0 0 0 0 0 0 0 0 0 0 0 0 0 0 0 0 0 0 0 0 0 0 0 0 0 0 prog
S 1215 14 5 0 0 0 1 1213 10483 10 400000 A 0 0 0 0 0 0 0 54 1 0 0 0 0 0 0 0 0 0 0 0 0 1513 0 582 0 0 0 0 fixval
F 1215 1 1214
S 1216 23 5 0 0 0 1218 582 10119 0 0 A 0 0 0 0 0 0 0 0 0 0 0 0 0 0 0 0 0 0 0 0 0 0 0 0 0 0 0 0 read_namelists
S 1217 1 3 0 0 333 1 1216 10151 14 3000 A 0 0 0 0 0 0 0 0 0 0 0 0 0 0 0 0 0 0 0 0 0 0 0 0 0 0 0 0 prog
S 1218 14 5 0 0 0 1 1216 10119 0 400000 A 0 0 0 0 0 0 0 56 1 0 0 0 0 0 0 0 0 0 0 0 0 1671 0 582 0 0 0 0 read_namelists
F 1218 1 1217
A 30 2 0 0 0 6 599 0 0 0 30 0 0 0 0 0 0 0 0 0
A 259 2 0 0 124 9 1150 0 0 0 259 0 0 0 0 0 0 0 0 0
Z
Z
