V26 reciprocal_vectors
10 recvec.F90 S582 0
04/24/2012  15:51:15
use gvecp public 0 direct
use gvecb public 0 direct
use gvecs public 0 direct
use gvecw public 0 direct
use kinds private
use kinds private
enduse
D 116 21 9 1 135 134 0 1 0 0 1
 129 132 133 129 132 130
D 119 21 6 1 0 24 0 0 0 0 0
 0 24 0 3 24 0
D 122 21 9 1 144 143 0 1 0 0 1
 138 141 142 138 141 139
D 125 21 6 1 0 24 0 0 0 0 0
 0 24 0 3 24 0
D 128 21 9 2 159 158 0 1 0 0 1
 148 151 156 148 151 149
 152 155 157 152 155 153
D 131 21 6 1 0 37 0 0 0 0 0
 0 37 0 3 37 0
D 134 21 9 1 168 167 0 1 0 0 1
 162 165 166 162 165 163
D 137 21 6 1 0 24 0 0 0 0 0
 0 24 0 3 24 0
D 140 21 6 2 183 182 0 1 0 0 1
 172 175 180 172 175 173
 176 179 181 176 179 177
D 143 21 6 1 0 37 0 0 0 0 0
 0 37 0 3 37 0
D 146 21 6 2 198 197 0 1 0 0 1
 187 190 195 187 190 188
 191 194 196 191 194 192
D 149 21 6 1 0 37 0 0 0 0 0
 0 37 0 3 37 0
D 152 21 6 1 207 206 0 1 0 0 1
 201 204 205 201 204 202
D 155 21 6 1 0 24 0 0 0 0 0
 0 24 0 3 24 0
D 158 21 6 1 216 215 0 1 0 0 1
 210 213 214 210 213 211
D 161 21 6 1 0 24 0 0 0 0 0
 0 24 0 3 24 0
D 164 21 6 1 225 224 0 1 0 0 1
 219 222 223 219 222 220
D 167 21 6 1 0 24 0 0 0 0 0
 0 24 0 3 24 0
D 170 21 9 1 3 226 0 0 0 0 0
 0 226 3 3 226 226
D 176 21 9 1 3 226 0 0 0 0 0
 0 226 3 3 226 226
D 182 21 9 1 3 226 0 0 0 0 0
 0 226 3 3 226 226
S 582 24 0 0 0 9 1 0 4658 10005 0 A 0 0 0 0 0 0 0 0 0 0 0 0 0 0 0 0 0 0 0 0 0 164 0 0 0 0 0 0 reciprocal_vectors
S 584 23 0 0 0 9 591 582 4683 4 0 A 0 0 0 0 0 0 0 0 0 0 0 0 0 0 0 0 0 0 0 0 0 0 0 582 0 0 0 0 dp
S 589 3 0 0 0 6 1 1 0 0 0 A 0 0 0 0 0 0 0 0 0 8 0 0 0 0 0 0 0 0 0 0 0 0 0 0 0 0 0 0 6
R 591 16 1 kinds dp
S 607 3 0 0 0 6 1 1 0 0 0 A 0 0 0 0 0 0 0 0 0 18 0 0 0 0 0 0 0 0 0 0 0 0 0 0 0 0 0 0 6
S 608 3 0 0 0 6 1 1 0 0 0 A 0 0 0 0 0 0 0 0 0 13 0 0 0 0 0 0 0 0 0 0 0 0 0 0 0 0 0 0 6
S 609 3 0 0 0 6 1 1 0 0 0 A 0 0 0 0 0 0 0 0 0 14 0 0 0 0 0 0 0 0 0 0 0 0 0 0 0 0 0 0 6
S 610 3 0 0 0 6 1 1 0 0 0 A 0 0 0 0 0 0 0 0 0 17 0 0 0 0 0 0 0 0 0 0 0 0 0 0 0 0 0 0 6
S 611 3 0 0 0 6 1 1 0 0 0 A 0 0 0 0 0 0 0 0 0 7 0 0 0 0 0 0 0 0 0 0 0 0 0 0 0 0 0 0 6
S 612 3 0 0 0 6 1 1 0 0 0 A 0 0 0 0 0 0 0 0 0 24 0 0 0 0 0 0 0 0 0 0 0 0 0 0 0 0 0 0 6
S 613 3 0 0 0 6 1 1 0 0 0 A 0 0 0 0 0 0 0 0 0 19 0 0 0 0 0 0 0 0 0 0 0 0 0 0 0 0 0 0 6
S 614 3 0 0 0 6 1 1 0 0 0 A 0 0 0 0 0 0 0 0 0 20 0 0 0 0 0 0 0 0 0 0 0 0 0 0 0 0 0 0 6
S 615 3 0 0 0 6 1 1 0 0 0 A 0 0 0 0 0 0 0 0 0 23 0 0 0 0 0 0 0 0 0 0 0 0 0 0 0 0 0 0 6
S 727 6 4 0 0 16 729 582 5507 80000c 0 A 0 0 0 0 0 0 0 0 0 0 0 0 792 0 0 0 0 0 0 0 0 0 0 582 0 0 0 0 gzero
S 729 6 4 0 0 6 1 582 5513 80000c 0 A 0 0 0 0 0 4 0 0 0 0 0 0 792 0 0 0 0 0 0 0 0 0 0 582 0 0 0 0 gstart
S 731 7 6 0 0 116 1 582 5520 10a00004 59 A 0 0 0 0 0 0 734 0 0 0 736 0 0 0 0 0 0 0 0 733 0 0 735 582 0 0 0 0 g
S 732 6 4 0 0 6 738 582 5522 40800006 0 A 0 0 0 0 0 0 0 0 0 0 0 0 793 0 0 0 0 0 0 0 0 0 0 582 0 0 0 0 z_b_0_1
S 733 8 4 0 0 119 740 582 5530 40822064 1020 A 0 0 0 0 0 0 0 0 0 0 0 0 793 0 0 0 0 0 0 0 0 0 0 582 0 0 0 0 g$sd
S 734 6 4 0 0 7 735 582 5535 40802061 1020 A 0 0 0 0 0 72 0 0 0 0 0 0 793 0 0 0 0 0 0 0 0 0 0 582 0 0 0 0 g$p
S 735 6 4 0 0 7 733 582 5539 40802060 1020 A 0 0 0 0 0 80 0 0 0 0 0 0 793 0 0 0 0 0 0 0 0 0 0 582 0 0 0 0 g$o
S 736 22 1 0 0 9 1 582 5543 40000000 1000 A 0 0 0 0 0 0 0 731 0 0 0 0 733 0 0 0 0 0 0 0 0 0 0 582 0 0 0 0 g$arrdsc
S 737 7 6 0 0 122 1 582 5552 10a00004 59 A 0 0 0 0 0 0 740 0 0 0 742 0 0 0 0 0 0 0 0 739 0 0 741 582 0 0 0 0 gl
S 738 6 4 0 0 6 744 582 5555 40800006 0 A 0 0 0 0 0 4 0 0 0 0 0 0 793 0 0 0 0 0 0 0 0 0 0 582 0 0 0 0 z_b_1_1
S 739 8 4 0 0 125 747 582 5563 40822064 1020 A 0 0 0 0 0 88 0 0 0 0 0 0 793 0 0 0 0 0 0 0 0 0 0 582 0 0 0 0 gl$sd
S 740 6 4 0 0 7 741 582 5569 40802061 1020 A 0 0 0 0 0 160 0 0 0 0 0 0 793 0 0 0 0 0 0 0 0 0 0 582 0 0 0 0 gl$p
S 741 6 4 0 0 7 739 582 5574 40802060 1020 A 0 0 0 0 0 168 0 0 0 0 0 0 793 0 0 0 0 0 0 0 0 0 0 582 0 0 0 0 gl$o
S 742 22 1 0 0 9 1 582 5579 40000000 1000 A 0 0 0 0 0 0 0 737 0 0 0 0 739 0 0 0 0 0 0 0 0 0 0 582 0 0 0 0 gl$arrdsc
S 743 7 6 0 0 128 1 582 5589 10a00004 59 A 0 0 0 0 0 0 747 0 0 0 749 0 0 0 0 0 0 0 0 746 0 0 748 582 0 0 0 0 gx
S 744 6 4 0 0 6 745 582 5592 40800006 0 A 0 0 0 0 0 8 0 0 0 0 0 0 793 0 0 0 0 0 0 0 0 0 0 582 0 0 0 0 z_b_2_1
S 745 6 4 0 0 6 751 582 5600 40800006 0 A 0 0 0 0 0 12 0 0 0 0 0 0 793 0 0 0 0 0 0 0 0 0 0 582 0 0 0 0 z_b_3_1
S 746 8 4 0 0 131 753 582 5608 40822064 1020 A 0 0 0 0 0 176 0 0 0 0 0 0 793 0 0 0 0 0 0 0 0 0 0 582 0 0 0 0 gx$sd
S 747 6 4 0 0 7 748 582 5614 40802061 1020 A 0 0 0 0 0 272 0 0 0 0 0 0 793 0 0 0 0 0 0 0 0 0 0 582 0 0 0 0 gx$p
S 748 6 4 0 0 7 746 582 5619 40802060 1020 A 0 0 0 0 0 280 0 0 0 0 0 0 793 0 0 0 0 0 0 0 0 0 0 582 0 0 0 0 gx$o
S 749 22 1 0 0 9 1 582 5624 40000000 1000 A 0 0 0 0 0 0 0 743 0 0 0 0 746 0 0 0 0 0 0 0 0 0 0 582 0 0 0 0 gx$arrdsc
S 750 7 6 0 0 134 1 582 5634 10a00004 59 A 0 0 0 0 0 0 753 0 0 0 755 0 0 0 0 0 0 0 0 752 0 0 754 582 0 0 0 0 g2_g
S 751 6 4 0 0 6 757 582 5639 40800006 0 A 0 0 0 0 0 16 0 0 0 0 0 0 793 0 0 0 0 0 0 0 0 0 0 582 0 0 0 0 z_b_4_1
S 752 8 4 0 0 137 760 582 5647 40822064 1020 A 0 0 0 0 0 288 0 0 0 0 0 0 793 0 0 0 0 0 0 0 0 0 0 582 0 0 0 0 g2_g$sd
S 753 6 4 0 0 7 754 582 5655 40802061 1020 A 0 0 0 0 0 360 0 0 0 0 0 0 793 0 0 0 0 0 0 0 0 0 0 582 0 0 0 0 g2_g$p
S 754 6 4 0 0 7 752 582 5662 40802060 1020 A 0 0 0 0 0 368 0 0 0 0 0 0 793 0 0 0 0 0 0 0 0 0 0 582 0 0 0 0 g2_g$o
S 755 22 1 0 0 9 1 582 5669 40000000 1000 A 0 0 0 0 0 0 0 750 0 0 0 0 752 0 0 0 0 0 0 0 0 0 0 582 0 0 0 0 g2_g$arrdsc
S 756 7 6 0 0 140 1 582 5681 10a00004 59 A 0 0 0 0 0 0 760 0 0 0 762 0 0 0 0 0 0 0 0 759 0 0 761 582 0 0 0 0 mill_g
S 757 6 4 0 0 6 758 582 5688 40800006 0 A 0 0 0 0 0 20 0 0 0 0 0 0 793 0 0 0 0 0 0 0 0 0 0 582 0 0 0 0 z_b_5_1
S 758 6 4 0 0 6 764 582 5696 40800006 0 A 0 0 0 0 0 24 0 0 0 0 0 0 793 0 0 0 0 0 0 0 0 0 0 582 0 0 0 0 z_b_6_1
S 759 8 4 0 0 143 767 582 5704 40822064 1020 A 0 0 0 0 0 376 0 0 0 0 0 0 793 0 0 0 0 0 0 0 0 0 0 582 0 0 0 0 mill_g$sd
S 760 6 4 0 0 7 761 582 5714 40802061 1020 A 0 0 0 0 0 472 0 0 0 0 0 0 793 0 0 0 0 0 0 0 0 0 0 582 0 0 0 0 mill_g$p
S 761 6 4 0 0 7 759 582 5723 40802060 1020 A 0 0 0 0 0 480 0 0 0 0 0 0 793 0 0 0 0 0 0 0 0 0 0 582 0 0 0 0 mill_g$o
S 762 22 1 0 0 6 1 582 5732 40000000 1000 A 0 0 0 0 0 0 0 756 0 0 0 0 759 0 0 0 0 0 0 0 0 0 0 582 0 0 0 0 mill_g$arrdsc
S 763 7 6 0 0 146 1 582 5746 10a00004 59 A 0 0 0 0 0 0 767 0 0 0 769 0 0 0 0 0 0 0 0 766 0 0 768 582 0 0 0 0 mill_l
S 764 6 4 0 0 6 765 582 5753 40800006 0 A 0 0 0 0 0 28 0 0 0 0 0 0 793 0 0 0 0 0 0 0 0 0 0 582 0 0 0 0 z_b_7_1
S 765 6 4 0 0 6 771 582 5761 40800006 0 A 0 0 0 0 0 32 0 0 0 0 0 0 793 0 0 0 0 0 0 0 0 0 0 582 0 0 0 0 z_b_8_1
S 766 8 4 0 0 149 773 582 5769 40822064 1020 A 0 0 0 0 0 488 0 0 0 0 0 0 793 0 0 0 0 0 0 0 0 0 0 582 0 0 0 0 mill_l$sd
S 767 6 4 0 0 7 768 582 5779 40802061 1020 A 0 0 0 0 0 584 0 0 0 0 0 0 793 0 0 0 0 0 0 0 0 0 0 582 0 0 0 0 mill_l$p
S 768 6 4 0 0 7 766 582 5788 40802060 1020 A 0 0 0 0 0 592 0 0 0 0 0 0 793 0 0 0 0 0 0 0 0 0 0 582 0 0 0 0 mill_l$o
S 769 22 1 0 0 6 1 582 5797 40000000 1000 A 0 0 0 0 0 0 0 763 0 0 0 0 766 0 0 0 0 0 0 0 0 0 0 582 0 0 0 0 mill_l$arrdsc
S 770 7 6 0 0 152 1 582 5811 10a00004 59 A 0 0 0 0 0 0 773 0 0 0 775 0 0 0 0 0 0 0 0 772 0 0 774 582 0 0 0 0 ig_l2g
S 771 6 4 0 0 6 777 582 5818 40800006 0 A 0 0 0 0 0 36 0 0 0 0 0 0 793 0 0 0 0 0 0 0 0 0 0 582 0 0 0 0 z_b_9
S 772 8 4 0 0 155 779 582 5824 40822064 1020 A 0 0 0 0 0 600 0 0 0 0 0 0 793 0 0 0 0 0 0 0 0 0 0 582 0 0 0 0 ig_l2g$sd
S 773 6 4 0 0 7 774 582 5834 40802061 1020 A 0 0 0 0 0 672 0 0 0 0 0 0 793 0 0 0 0 0 0 0 0 0 0 582 0 0 0 0 ig_l2g$p
S 774 6 4 0 0 7 772 582 5843 40802060 1020 A 0 0 0 0 0 680 0 0 0 0 0 0 793 0 0 0 0 0 0 0 0 0 0 582 0 0 0 0 ig_l2g$o
S 775 22 1 0 0 6 1 582 5852 40000000 1000 A 0 0 0 0 0 0 0 770 0 0 0 0 772 0 0 0 0 0 0 0 0 0 0 582 0 0 0 0 ig_l2g$arrdsc
S 776 7 6 0 0 158 1 582 5866 10a00004 59 A 0 0 0 0 0 0 779 0 0 0 781 0 0 0 0 0 0 0 0 778 0 0 780 582 0 0 0 0 sortedig_l2g
S 777 6 4 0 0 6 783 582 5879 40800006 0 A 0 0 0 0 0 40 0 0 0 0 0 0 793 0 0 0 0 0 0 0 0 0 0 582 0 0 0 0 z_b_10
S 778 8 4 0 0 161 785 582 5886 40822064 1020 A 0 0 0 0 0 688 0 0 0 0 0 0 793 0 0 0 0 0 0 0 0 0 0 582 0 0 0 0 sortedig_l2g$sd
S 779 6 4 0 0 7 780 582 5902 40802061 1020 A 0 0 0 0 0 760 0 0 0 0 0 0 793 0 0 0 0 0 0 0 0 0 0 582 0 0 0 0 sortedig_l2g$p
S 780 6 4 0 0 7 778 582 5917 40802060 1020 A 0 0 0 0 0 768 0 0 0 0 0 0 793 0 0 0 0 0 0 0 0 0 0 582 0 0 0 0 sortedig_l2g$o
S 781 22 1 0 0 9 1 582 5932 40000000 1000 A 0 0 0 0 0 0 0 776 0 0 0 0 778 0 0 0 0 0 0 0 0 0 0 582 0 0 0 0 sortedig_l2g$arrdsc
S 782 7 6 0 0 164 1 582 5952 10a00004 59 A 0 0 0 0 0 0 785 0 0 0 787 0 0 0 0 0 0 0 0 784 0 0 786 582 0 0 0 0 igl
S 783 6 4 0 0 6 1 582 5956 40800006 0 A 0 0 0 0 0 44 0 0 0 0 0 0 793 0 0 0 0 0 0 0 0 0 0 582 0 0 0 0 z_b_11
S 784 8 4 0 0 167 732 582 5963 40822064 1020 A 0 0 0 0 0 776 0 0 0 0 0 0 793 0 0 0 0 0 0 0 0 0 0 582 0 0 0 0 igl$sd
S 785 6 4 0 0 7 786 582 5970 40802061 1020 A 0 0 0 0 0 848 0 0 0 0 0 0 793 0 0 0 0 0 0 0 0 0 0 582 0 0 0 0 igl$p
S 786 6 4 0 0 7 784 582 5976 40802060 1020 A 0 0 0 0 0 856 0 0 0 0 0 0 793 0 0 0 0 0 0 0 0 0 0 582 0 0 0 0 igl$o
S 787 22 1 0 0 6 1 582 5982 40000000 1000 A 0 0 0 0 0 0 0 782 0 0 0 0 784 0 0 0 0 0 0 0 0 0 0 582 0 0 0 0 igl$arrdsc
S 788 7 4 0 4 170 790 582 5993 80000c 100 A 0 0 0 0 0 0 0 0 0 0 0 0 794 0 0 0 0 0 0 0 0 0 0 582 0 0 0 0 bi1
S 789 3 0 0 0 6 0 1 0 0 0 A 0 0 0 0 0 0 0 0 0 3 0 0 0 0 0 0 0 0 0 0 0 0 0 0 0 0 0 0 6
S 790 7 4 0 4 176 791 582 6018 80000c 100 A 0 0 0 0 0 32 0 0 0 0 0 0 794 0 0 0 0 0 0 0 0 0 0 582 0 0 0 0 bi2
S 791 7 4 0 4 182 1 582 6043 80000c 100 A 0 0 0 0 0 64 0 0 0 0 0 0 794 0 0 0 0 0 0 0 0 0 0 582 0 0 0 0 bi3
S 792 11 0 0 0 9 724 582 6068 40800000 801000 A 0 0 0 0 0 8 0 0 727 729 0 0 0 0 0 0 0 0 0 0 0 0 0 0 0 0 0 0 _reciprocal_vectors$8
S 793 11 0 0 0 9 792 582 6090 40800000 801000 A 0 0 0 0 0 912 0 0 734 783 0 0 0 0 0 0 0 0 0 0 0 0 0 0 0 0 0 0 _reciprocal_vectors$0
S 794 11 0 0 4 9 793 582 6112 40800000 801000 A 0 0 0 0 0 88 0 0 788 791 0 0 0 0 0 0 0 0 0 0 0 0 0 0 0 0 0 0 _reciprocal_vectors$10
S 795 23 5 0 0 0 796 582 6135 0 0 A 0 0 0 0 0 0 0 0 0 0 0 0 0 0 0 0 0 0 0 0 0 0 0 0 0 0 0 0 deallocate_recvecs
S 796 14 5 0 0 0 1 795 6135 0 400000 A 0 0 0 0 0 0 0 10 0 0 0 0 0 0 0 0 0 0 0 0 0 231 0 582 0 0 0 0 deallocate_recvecs
F 796 0
A 13 2 0 0 0 6 589 0 0 0 13 0 0 0 0 0 0 0 0 0
A 24 2 0 0 0 6 607 0 0 0 24 0 0 0 0 0 0 0 0 0
A 27 2 0 0 0 6 608 0 0 0 27 0 0 0 0 0 0 0 0 0
A 29 2 0 0 0 6 609 0 0 0 29 0 0 0 0 0 0 0 0 0
A 33 2 0 0 0 6 610 0 0 0 33 0 0 0 0 0 0 0 0 0
A 35 2 0 0 0 6 611 0 0 0 35 0 0 0 0 0 0 0 0 0
A 37 2 0 0 0 6 612 0 0 0 37 0 0 0 0 0 0 0 0 0
A 45 2 0 0 0 6 613 0 0 0 45 0 0 0 0 0 0 0 0 0
A 47 2 0 0 0 6 614 0 0 0 47 0 0 0 0 0 0 0 0 0
A 51 2 0 0 0 6 615 0 0 0 51 0 0 0 0 0 0 0 0 0
A 128 1 0 1 0 119 733 0 0 0 0 0 0 0 0 0 0 0 0 0
A 129 10 0 0 0 6 128 4 0 0 0 0 0 0 0 0 0 0 0 0
X 1 27
A 130 10 0 0 129 6 128 7 0 0 0 0 0 0 0 0 0 0 0 0
X 1 29
A 131 4 0 0 0 6 130 0 3 0 0 0 0 2 0 0 0 0 0 0
A 132 4 0 0 0 6 129 0 131 0 0 0 0 1 0 0 0 0 0 0
A 133 10 0 0 130 6 128 10 0 0 0 0 0 0 0 0 0 0 0 0
X 1 33
A 134 10 0 0 133 6 128 13 0 0 0 0 0 0 0 0 0 0 0 0
X 1 35
A 135 10 0 0 134 6 128 1 0 0 0 0 0 0 0 0 0 0 0 0
X 1 13
A 137 1 0 1 0 125 739 0 0 0 0 0 0 0 0 0 0 0 0 0
A 138 10 0 0 42 6 137 4 0 0 0 0 0 0 0 0 0 0 0 0
X 1 27
A 139 10 0 0 138 6 137 7 0 0 0 0 0 0 0 0 0 0 0 0
X 1 29
A 140 4 0 0 0 6 139 0 3 0 0 0 0 2 0 0 0 0 0 0
A 141 4 0 0 19 6 138 0 140 0 0 0 0 1 0 0 0 0 0 0
A 142 10 0 0 139 6 137 10 0 0 0 0 0 0 0 0 0 0 0 0
X 1 33
A 143 10 0 0 142 6 137 13 0 0 0 0 0 0 0 0 0 0 0 0
X 1 35
A 144 10 0 0 143 6 137 1 0 0 0 0 0 0 0 0 0 0 0 0
X 1 13
A 147 1 0 3 0 131 746 0 0 0 0 0 0 0 0 0 0 0 0 0
A 148 10 0 0 0 6 147 4 0 0 0 0 0 0 0 0 0 0 0 0
X 1 27
A 149 10 0 0 148 6 147 7 0 0 0 0 0 0 0 0 0 0 0 0
X 1 29
A 150 4 0 0 0 6 149 0 3 0 0 0 0 2 0 0 0 0 0 0
A 151 4 0 0 0 6 148 0 150 0 0 0 0 1 0 0 0 0 0 0
A 152 10 0 0 149 6 147 16 0 0 0 0 0 0 0 0 0 0 0 0
X 1 45
A 153 10 0 0 152 6 147 19 0 0 0 0 0 0 0 0 0 0 0 0
X 1 47
A 154 4 0 0 0 6 153 0 3 0 0 0 0 2 0 0 0 0 0 0
A 155 4 0 0 0 6 152 0 154 0 0 0 0 1 0 0 0 0 0 0
A 156 10 0 0 153 6 147 10 0 0 0 0 0 0 0 0 0 0 0 0
X 1 33
A 157 10 0 0 156 6 147 22 0 0 0 0 0 0 0 0 0 0 0 0
X 1 51
A 158 10 0 0 157 6 147 13 0 0 0 0 0 0 0 0 0 0 0 0
X 1 35
A 159 10 0 0 158 6 147 1 0 0 0 0 0 0 0 0 0 0 0 0
X 1 13
A 161 1 0 1 144 137 752 0 0 0 0 0 0 0 0 0 0 0 0 0
A 162 10 0 0 66 6 161 4 0 0 0 0 0 0 0 0 0 0 0 0
X 1 27
A 163 10 0 0 162 6 161 7 0 0 0 0 0 0 0 0 0 0 0 0
X 1 29
A 164 4 0 0 0 6 163 0 3 0 0 0 0 2 0 0 0 0 0 0
A 165 4 0 0 0 6 162 0 164 0 0 0 0 1 0 0 0 0 0 0
A 166 10 0 0 163 6 161 10 0 0 0 0 0 0 0 0 0 0 0 0
X 1 33
A 167 10 0 0 166 6 161 13 0 0 0 0 0 0 0 0 0 0 0 0
X 1 35
A 168 10 0 0 167 6 161 1 0 0 0 0 0 0 0 0 0 0 0 0
X 1 13
A 171 1 0 3 104 143 759 0 0 0 0 0 0 0 0 0 0 0 0 0
A 172 10 0 0 0 6 171 4 0 0 0 0 0 0 0 0 0 0 0 0
X 1 27
A 173 10 0 0 172 6 171 7 0 0 0 0 0 0 0 0 0 0 0 0
X 1 29
A 174 4 0 0 0 6 173 0 3 0 0 0 0 2 0 0 0 0 0 0
A 175 4 0 0 0 6 172 0 174 0 0 0 0 1 0 0 0 0 0 0
A 176 10 0 0 173 6 171 16 0 0 0 0 0 0 0 0 0 0 0 0
X 1 45
A 177 10 0 0 176 6 171 19 0 0 0 0 0 0 0 0 0 0 0 0
X 1 47
A 178 4 0 0 0 6 177 0 3 0 0 0 0 2 0 0 0 0 0 0
A 179 4 0 0 0 6 176 0 178 0 0 0 0 1 0 0 0 0 0 0
A 180 10 0 0 177 6 171 10 0 0 0 0 0 0 0 0 0 0 0 0
X 1 33
A 181 10 0 0 180 6 171 22 0 0 0 0 0 0 0 0 0 0 0 0
X 1 51
A 182 10 0 0 181 6 171 13 0 0 0 0 0 0 0 0 0 0 0 0
X 1 35
A 183 10 0 0 182 6 171 1 0 0 0 0 0 0 0 0 0 0 0 0
X 1 13
A 186 1 0 3 0 149 766 0 0 0 0 0 0 0 0 0 0 0 0 0
A 187 10 0 0 0 6 186 4 0 0 0 0 0 0 0 0 0 0 0 0
X 1 27
A 188 10 0 0 187 6 186 7 0 0 0 0 0 0 0 0 0 0 0 0
X 1 29
A 189 4 0 0 0 6 188 0 3 0 0 0 0 2 0 0 0 0 0 0
A 190 4 0 0 0 6 187 0 189 0 0 0 0 1 0 0 0 0 0 0
A 191 10 0 0 188 6 186 16 0 0 0 0 0 0 0 0 0 0 0 0
X 1 45
A 192 10 0 0 191 6 186 19 0 0 0 0 0 0 0 0 0 0 0 0
X 1 47
A 193 4 0 0 0 6 192 0 3 0 0 0 0 2 0 0 0 0 0 0
A 194 4 0 0 0 6 191 0 193 0 0 0 0 1 0 0 0 0 0 0
A 195 10 0 0 192 6 186 10 0 0 0 0 0 0 0 0 0 0 0 0
X 1 33
A 196 10 0 0 195 6 186 22 0 0 0 0 0 0 0 0 0 0 0 0
X 1 51
A 197 10 0 0 196 6 186 13 0 0 0 0 0 0 0 0 0 0 0 0
X 1 35
A 198 10 0 0 197 6 186 1 0 0 0 0 0 0 0 0 0 0 0 0
X 1 13
A 200 1 0 1 0 155 772 0 0 0 0 0 0 0 0 0 0 0 0 0
A 201 10 0 0 0 6 200 4 0 0 0 0 0 0 0 0 0 0 0 0
X 1 27
A 202 10 0 0 201 6 200 7 0 0 0 0 0 0 0 0 0 0 0 0
X 1 29
A 203 4 0 0 132 6 202 0 3 0 0 0 0 2 0 0 0 0 0 0
A 204 4 0 0 0 6 201 0 203 0 0 0 0 1 0 0 0 0 0 0
A 205 10 0 0 202 6 200 10 0 0 0 0 0 0 0 0 0 0 0 0
X 1 33
A 206 10 0 0 205 6 200 13 0 0 0 0 0 0 0 0 0 0 0 0
X 1 35
A 207 10 0 0 206 6 200 1 0 0 0 0 0 0 0 0 0 0 0 0
X 1 13
A 209 1 0 1 0 161 778 0 0 0 0 0 0 0 0 0 0 0 0 0
A 210 10 0 0 0 6 209 4 0 0 0 0 0 0 0 0 0 0 0 0
X 1 27
A 211 10 0 0 210 6 209 7 0 0 0 0 0 0 0 0 0 0 0 0
X 1 29
A 212 4 0 0 0 6 211 0 3 0 0 0 0 2 0 0 0 0 0 0
A 213 4 0 0 86 6 210 0 212 0 0 0 0 1 0 0 0 0 0 0
A 214 10 0 0 211 6 209 10 0 0 0 0 0 0 0 0 0 0 0 0
X 1 33
A 215 10 0 0 214 6 209 13 0 0 0 0 0 0 0 0 0 0 0 0
X 1 35
A 216 10 0 0 215 6 209 1 0 0 0 0 0 0 0 0 0 0 0 0
X 1 13
A 218 1 0 1 0 167 784 0 0 0 0 0 0 0 0 0 0 0 0 0
A 219 10 0 0 35 6 218 4 0 0 0 0 0 0 0 0 0 0 0 0
X 1 27
A 220 10 0 0 219 6 218 7 0 0 0 0 0 0 0 0 0 0 0 0
X 1 29
A 221 4 0 0 0 6 220 0 3 0 0 0 0 2 0 0 0 0 0 0
A 222 4 0 0 0 6 219 0 221 0 0 0 0 1 0 0 0 0 0 0
A 223 10 0 0 220 6 218 10 0 0 0 0 0 0 0 0 0 0 0 0
X 1 33
A 224 10 0 0 223 6 218 13 0 0 0 0 0 0 0 0 0 0 0 0
X 1 35
A 225 10 0 0 224 6 218 1 0 0 0 0 0 0 0 0 0 0 0 0
X 1 13
A 226 2 0 0 0 6 789 0 0 0 226 0 0 0 0 0 0 0 0 0
Z
Z
