V26 recvecs_subroutines
10 recvec.F90 S582 0
04/24/2012  15:51:15
enduse
S 582 24 0 0 0 9 1 0 4658 10005 0 A 0 0 0 0 0 0 0 0 0 0 0 0 0 0 0 0 0 0 0 0 0 281 0 0 0 0 0 0 recvecs_subroutines
S 583 23 5 0 0 0 587 582 4678 0 0 A 0 0 0 0 0 0 0 0 0 0 0 0 0 0 0 0 0 0 0 0 0 0 0 0 0 0 0 0 recvecs_init
S 584 1 3 1 0 6 1 583 4691 4 3000 A 0 0 0 0 0 0 0 0 0 0 0 0 0 0 0 0 0 0 0 0 0 0 0 0 0 0 0 0 ngm_
S 585 1 3 1 0 6 1 583 4696 4 3000 A 0 0 0 0 0 0 0 0 0 0 0 0 0 0 0 0 0 0 0 0 0 0 0 0 0 0 0 0 ngw_
S 586 1 3 1 0 6 1 583 4701 4 3000 A 0 0 0 0 0 0 0 0 0 0 0 0 0 0 0 0 0 0 0 0 0 0 0 0 0 0 0 0 ngs_
S 587 14 5 0 0 0 1 583 4678 0 400000 A 0 0 0 0 0 0 0 2 3 0 0 0 0 0 0 0 0 0 0 0 0 289 0 582 0 0 0 0 recvecs_init
F 587 3 584 585 586
Z
Z
