V26 recvecs_indexes
10 recvec.F90 S582 0
04/24/2012  15:51:15
enduse
D 56 21 6 1 26 24 0 1 0 0 1
 16 20 22 16 20 18
D 59 21 6 1 0 13 0 0 0 0 0
 0 13 0 3 13 0
D 62 21 6 1 35 34 0 1 0 0 1
 29 32 33 29 32 30
D 65 21 6 1 0 13 0 0 0 0 0
 0 13 0 3 13 0
D 68 21 6 1 44 43 0 1 0 0 1
 38 41 42 38 41 39
D 71 21 6 1 0 13 0 0 0 0 0
 0 13 0 3 13 0
D 74 21 6 1 53 52 0 1 0 0 1
 47 50 51 47 50 48
D 77 21 6 1 0 13 0 0 0 0 0
 0 13 0 3 13 0
D 80 21 6 1 62 61 0 1 0 0 1
 56 59 60 56 59 57
D 83 21 6 1 0 13 0 0 0 0 0
 0 13 0 3 13 0
S 582 24 0 0 0 9 1 0 4658 10005 0 A 0 0 0 0 0 0 0 0 0 0 0 0 0 0 0 0 0 0 0 0 0 252 0 0 0 0 0 0 recvecs_indexes
S 583 7 6 0 0 56 1 582 4674 10a00004 51 A 0 0 0 0 0 0 587 0 0 0 589 0 0 0 0 0 0 0 0 586 0 0 588 582 0 0 0 0 np
S 584 6 4 0 0 6 596 582 4677 40800006 0 A 0 0 0 0 0 0 0 0 0 0 0 0 619 0 0 0 0 0 0 0 0 0 0 582 0 0 0 0 z_b_0
S 585 3 0 0 0 6 0 1 0 0 0 A 0 0 0 0 0 0 0 0 0 18 0 0 0 0 0 0 0 0 0 0 0 0 0 0 0 0 0 0 6
S 586 8 4 0 0 59 598 582 4683 40822064 1020 A 0 0 0 0 0 0 0 0 0 0 0 0 619 0 0 0 0 0 0 0 0 0 0 582 0 0 0 0 np$sd
S 587 6 4 0 0 7 588 582 4689 40802061 1020 A 0 0 0 0 0 72 0 0 0 0 0 0 619 0 0 0 0 0 0 0 0 0 0 582 0 0 0 0 np$p
S 588 6 4 0 0 7 586 582 4694 40802060 1020 A 0 0 0 0 0 80 0 0 0 0 0 0 619 0 0 0 0 0 0 0 0 0 0 582 0 0 0 0 np$o
S 589 22 1 0 0 6 1 582 4699 40000000 1000 A 0 0 0 0 0 0 0 583 0 0 0 0 586 0 0 0 0 0 0 0 0 0 0 582 0 0 0 0 np$arrdsc
S 590 3 0 0 0 6 0 1 0 0 0 A 0 0 0 0 0 0 0 0 0 13 0 0 0 0 0 0 0 0 0 0 0 0 0 0 0 0 0 0 6
S 591 3 0 0 0 6 0 1 0 0 0 A 0 0 0 0 0 0 0 0 0 14 0 0 0 0 0 0 0 0 0 0 0 0 0 0 0 0 0 0 6
S 592 3 0 0 0 6 0 1 0 0 0 A 0 0 0 0 0 0 0 0 0 17 0 0 0 0 0 0 0 0 0 0 0 0 0 0 0 0 0 0 6
S 593 3 0 0 0 6 0 1 0 0 0 A 0 0 0 0 0 0 0 0 0 7 0 0 0 0 0 0 0 0 0 0 0 0 0 0 0 0 0 0 6
S 594 3 0 0 0 6 0 1 0 0 0 A 0 0 0 0 0 0 0 0 0 8 0 0 0 0 0 0 0 0 0 0 0 0 0 0 0 0 0 0 6
S 595 7 6 0 0 62 1 582 4709 10a00004 51 A 0 0 0 0 0 0 598 0 0 0 600 0 0 0 0 0 0 0 0 597 0 0 599 582 0 0 0 0 nm
S 596 6 4 0 0 6 602 582 4712 40800006 0 A 0 0 0 0 0 4 0 0 0 0 0 0 619 0 0 0 0 0 0 0 0 0 0 582 0 0 0 0 z_b_1
S 597 8 4 0 0 65 604 582 4718 40822064 1020 A 0 0 0 0 0 88 0 0 0 0 0 0 619 0 0 0 0 0 0 0 0 0 0 582 0 0 0 0 nm$sd
S 598 6 4 0 0 7 599 582 4724 40802061 1020 A 0 0 0 0 0 160 0 0 0 0 0 0 619 0 0 0 0 0 0 0 0 0 0 582 0 0 0 0 nm$p
S 599 6 4 0 0 7 597 582 4729 40802060 1020 A 0 0 0 0 0 168 0 0 0 0 0 0 619 0 0 0 0 0 0 0 0 0 0 582 0 0 0 0 nm$o
S 600 22 1 0 0 6 1 582 4734 40000000 1000 A 0 0 0 0 0 0 0 595 0 0 0 0 597 0 0 0 0 0 0 0 0 0 0 582 0 0 0 0 nm$arrdsc
S 601 7 6 0 0 68 1 582 4744 10a00004 51 A 0 0 0 0 0 0 604 0 0 0 606 0 0 0 0 0 0 0 0 603 0 0 605 582 0 0 0 0 in1p
S 602 6 4 0 0 6 608 582 4749 40800006 0 A 0 0 0 0 0 8 0 0 0 0 0 0 619 0 0 0 0 0 0 0 0 0 0 582 0 0 0 0 z_b_2
S 603 8 4 0 0 71 610 582 4755 40822064 1020 A 0 0 0 0 0 176 0 0 0 0 0 0 619 0 0 0 0 0 0 0 0 0 0 582 0 0 0 0 in1p$sd
S 604 6 4 0 0 7 605 582 4763 40802061 1020 A 0 0 0 0 0 248 0 0 0 0 0 0 619 0 0 0 0 0 0 0 0 0 0 582 0 0 0 0 in1p$p
S 605 6 4 0 0 7 603 582 4770 40802060 1020 A 0 0 0 0 0 256 0 0 0 0 0 0 619 0 0 0 0 0 0 0 0 0 0 582 0 0 0 0 in1p$o
S 606 22 1 0 0 6 1 582 4777 40000000 1000 A 0 0 0 0 0 0 0 601 0 0 0 0 603 0 0 0 0 0 0 0 0 0 0 582 0 0 0 0 in1p$arrdsc
S 607 7 6 0 0 74 1 582 4789 10a00004 51 A 0 0 0 0 0 0 610 0 0 0 612 0 0 0 0 0 0 0 0 609 0 0 611 582 0 0 0 0 in2p
S 608 6 4 0 0 6 614 582 4794 40800006 0 A 0 0 0 0 0 12 0 0 0 0 0 0 619 0 0 0 0 0 0 0 0 0 0 582 0 0 0 0 z_b_3
S 609 8 4 0 0 77 616 582 4800 40822064 1020 A 0 0 0 0 0 264 0 0 0 0 0 0 619 0 0 0 0 0 0 0 0 0 0 582 0 0 0 0 in2p$sd
S 610 6 4 0 0 7 611 582 4808 40802061 1020 A 0 0 0 0 0 336 0 0 0 0 0 0 619 0 0 0 0 0 0 0 0 0 0 582 0 0 0 0 in2p$p
S 611 6 4 0 0 7 609 582 4815 40802060 1020 A 0 0 0 0 0 344 0 0 0 0 0 0 619 0 0 0 0 0 0 0 0 0 0 582 0 0 0 0 in2p$o
S 612 22 1 0 0 6 1 582 4822 40000000 1000 A 0 0 0 0 0 0 0 607 0 0 0 0 609 0 0 0 0 0 0 0 0 0 0 582 0 0 0 0 in2p$arrdsc
S 613 7 6 0 0 80 1 582 4834 10a00004 51 A 0 0 0 0 0 0 616 0 0 0 618 0 0 0 0 0 0 0 0 615 0 0 617 582 0 0 0 0 in3p
S 614 6 4 0 0 6 1 582 4839 40800006 0 A 0 0 0 0 0 16 0 0 0 0 0 0 619 0 0 0 0 0 0 0 0 0 0 582 0 0 0 0 z_b_4
S 615 8 4 0 0 83 584 582 4845 40822064 1020 A 0 0 0 0 0 352 0 0 0 0 0 0 619 0 0 0 0 0 0 0 0 0 0 582 0 0 0 0 in3p$sd
S 616 6 4 0 0 7 617 582 4853 40802061 1020 A 0 0 0 0 0 424 0 0 0 0 0 0 619 0 0 0 0 0 0 0 0 0 0 582 0 0 0 0 in3p$p
S 617 6 4 0 0 7 615 582 4860 40802060 1020 A 0 0 0 0 0 432 0 0 0 0 0 0 619 0 0 0 0 0 0 0 0 0 0 582 0 0 0 0 in3p$o
S 618 22 1 0 0 6 1 582 4867 40000000 1000 A 0 0 0 0 0 0 0 613 0 0 0 0 615 0 0 0 0 0 0 0 0 0 0 582 0 0 0 0 in3p$arrdsc
S 619 11 0 0 0 9 1 582 4879 40800000 801000 A 0 0 0 0 0 460 0 0 587 614 0 0 0 0 0 0 0 0 0 0 0 0 0 0 0 0 0 0 _recvecs_indexes$0
S 620 23 5 0 0 0 621 582 4898 0 0 A 0 0 0 0 0 0 0 0 0 0 0 0 0 0 0 0 0 0 0 0 0 0 0 0 0 0 0 0 deallocate_recvecs_indexes
S 621 14 5 0 0 0 1 620 4898 0 400000 A 0 0 0 0 0 0 0 2 0 0 0 0 0 0 0 0 0 0 0 0 0 267 0 582 0 0 0 0 deallocate_recvecs_indexes
F 621 0
A 13 2 0 0 0 6 585 0 0 0 13 0 0 0 0 0 0 0 0 0
A 14 2 0 0 0 6 590 0 0 0 14 0 0 0 0 0 0 0 0 0
A 15 1 0 1 0 59 586 0 0 0 0 0 0 0 0 0 0 0 0 0
A 16 10 0 0 0 6 15 1 0 0 0 0 0 0 0 0 0 0 0 0
X 1 14
A 17 2 0 0 0 6 591 0 0 0 17 0 0 0 0 0 0 0 0 0
A 18 10 0 0 16 6 15 4 0 0 0 0 0 0 0 0 0 0 0 0
X 1 17
A 19 4 0 0 0 6 18 0 3 0 0 0 0 2 0 0 0 0 0 0
A 20 4 0 0 0 6 16 0 19 0 0 0 0 1 0 0 0 0 0 0
A 21 2 0 0 0 6 592 0 0 0 21 0 0 0 0 0 0 0 0 0
A 22 10 0 0 18 6 15 7 0 0 0 0 0 0 0 0 0 0 0 0
X 1 21
A 23 2 0 0 0 6 593 0 0 0 23 0 0 0 0 0 0 0 0 0
A 24 10 0 0 22 6 15 10 0 0 0 0 0 0 0 0 0 0 0 0
X 1 23
A 25 2 0 0 0 6 594 0 0 0 25 0 0 0 0 0 0 0 0 0
A 26 10 0 0 24 6 15 13 0 0 0 0 0 0 0 0 0 0 0 0
X 1 25
A 28 1 0 1 0 65 597 0 0 0 0 0 0 0 0 0 0 0 0 0
A 29 10 0 0 0 6 28 1 0 0 0 0 0 0 0 0 0 0 0 0
X 1 14
A 30 10 0 0 29 6 28 4 0 0 0 0 0 0 0 0 0 0 0 0
X 1 17
A 31 4 0 0 0 6 30 0 3 0 0 0 0 2 0 0 0 0 0 0
A 32 4 0 0 0 6 29 0 31 0 0 0 0 1 0 0 0 0 0 0
A 33 10 0 0 30 6 28 7 0 0 0 0 0 0 0 0 0 0 0 0
X 1 21
A 34 10 0 0 33 6 28 10 0 0 0 0 0 0 0 0 0 0 0 0
X 1 23
A 35 10 0 0 34 6 28 13 0 0 0 0 0 0 0 0 0 0 0 0
X 1 25
A 37 1 0 1 0 71 603 0 0 0 0 0 0 0 0 0 0 0 0 0
A 38 10 0 0 28 6 37 1 0 0 0 0 0 0 0 0 0 0 0 0
X 1 14
A 39 10 0 0 38 6 37 4 0 0 0 0 0 0 0 0 0 0 0 0
X 1 17
A 40 4 0 0 0 6 39 0 3 0 0 0 0 2 0 0 0 0 0 0
A 41 4 0 0 0 6 38 0 40 0 0 0 0 1 0 0 0 0 0 0
A 42 10 0 0 39 6 37 7 0 0 0 0 0 0 0 0 0 0 0 0
X 1 21
A 43 10 0 0 42 6 37 10 0 0 0 0 0 0 0 0 0 0 0 0
X 1 23
A 44 10 0 0 43 6 37 13 0 0 0 0 0 0 0 0 0 0 0 0
X 1 25
A 46 1 0 1 41 77 609 0 0 0 0 0 0 0 0 0 0 0 0 0
A 47 10 0 0 0 6 46 1 0 0 0 0 0 0 0 0 0 0 0 0
X 1 14
A 48 10 0 0 47 6 46 4 0 0 0 0 0 0 0 0 0 0 0 0
X 1 17
A 49 4 0 0 0 6 48 0 3 0 0 0 0 2 0 0 0 0 0 0
A 50 4 0 0 0 6 47 0 49 0 0 0 0 1 0 0 0 0 0 0
A 51 10 0 0 48 6 46 7 0 0 0 0 0 0 0 0 0 0 0 0
X 1 21
A 52 10 0 0 51 6 46 10 0 0 0 0 0 0 0 0 0 0 0 0
X 1 23
A 53 10 0 0 52 6 46 13 0 0 0 0 0 0 0 0 0 0 0 0
X 1 25
A 55 1 0 1 0 83 615 0 0 0 0 0 0 0 0 0 0 0 0 0
A 56 10 0 0 0 6 55 1 0 0 0 0 0 0 0 0 0 0 0 0
X 1 14
A 57 10 0 0 56 6 55 4 0 0 0 0 0 0 0 0 0 0 0 0
X 1 17
A 58 4 0 0 0 6 57 0 3 0 0 0 0 2 0 0 0 0 0 0
A 59 4 0 0 0 6 56 0 58 0 0 0 0 1 0 0 0 0 0 0
A 60 10 0 0 57 6 55 7 0 0 0 0 0 0 0 0 0 0 0 0
X 1 21
A 61 10 0 0 60 6 55 10 0 0 0 0 0 0 0 0 0 0 0 0
X 1 23
A 62 10 0 0 61 6 55 13 0 0 0 0 0 0 0 0 0 0 0 0
X 1 25
Z
Z
