V26 shmem_include
17 shmem_include.F90 S582 0
04/24/2012  15:51:02
use kinds public 0 direct
enduse
S 582 24 0 0 0 9 1 0 4658 10005 0 A 0 0 0 0 0 0 0 0 0 0 0 0 35 0 0 0 0 0 0 0 0 24 0 0 0 0 0 0 shmem_include
S 593 6 4 0 0 16 1 582 4712 80006c 0 A 0 0 0 0 0 0 0 0 0 0 0 0 595 0 0 0 0 0 0 0 0 0 0 582 0 0 0 0 tshmem
S 594 3 0 0 0 16 0 1 0 0 0 A 0 0 0 0 0 0 0 0 0 0 0 0 0 0 0 0 0 0 0 0 0 0 0 0 0 0 0 0 16
S 595 11 0 0 0 9 1 582 4719 40800008 801000 A 0 0 0 0 0 4 0 0 593 593 0 0 0 0 0 0 0 0 0 0 0 0 0 0 0 0 0 0 _shmem_include$8
A 17 1 0 0 0 16 593 0 0 0 0 0 0 0 0 0 0 0 0 0
A 18 2 0 0 0 16 594 0 0 0 18 0 0 0 0 0 0 0 0 0
Z
Z
