V26 sic_module
7 sic.F90 S582 0
04/24/2012  15:51:02
use kinds private
use kinds private
enduse
D 56 21 6 1 30 29 0 1 0 0 1
 21 25 27 21 25 23
D 59 21 6 1 0 18 0 0 0 0 0
 0 18 0 3 18 0
D 62 21 9 2 57 56 0 1 0 0 1
 43 46 53 43 46 44
 48 52 55 48 52 50
D 65 21 6 1 0 41 0 0 0 0 0
 0 41 0 3 41 0
D 68 21 6 1 58 61 1 1 0 0 1
 3 59 3 3 59 60
S 582 24 0 0 0 9 1 0 4658 10005 0 A 0 0 0 0 0 0 0 0 0 0 0 0 0 0 0 0 0 0 0 0 0 12 0 0 0 0 0 0 sic_module
S 584 23 0 0 0 9 587 582 4675 4 0 A 0 0 0 0 0 0 0 0 0 0 0 0 0 0 0 0 0 0 0 0 0 0 0 582 0 0 0 0 dp
S 585 3 0 0 0 6 1 1 0 0 0 A 0 0 0 0 0 0 0 0 0 8 0 0 0 0 0 0 0 0 0 0 0 0 0 0 0 0 0 0 6
R 587 16 1 kinds dp
S 594 7 6 0 0 56 1 582 4709 10a00004 51 A 0 0 0 0 0 0 598 0 0 0 600 0 0 0 0 0 0 0 0 597 0 0 599 582 0 0 0 0 ind_localisation
S 595 6 4 0 0 6 613 582 4726 40800006 0 A 0 0 0 0 0 0 0 0 0 0 0 0 623 0 0 0 0 0 0 0 0 0 0 582 0 0 0 0 z_b_0
S 596 3 0 0 0 6 0 1 0 0 0 A 0 0 0 0 0 0 0 0 0 18 0 0 0 0 0 0 0 0 0 0 0 0 0 0 0 0 0 0 6
S 597 8 4 0 0 59 617 582 4732 40822064 1020 A 0 0 0 0 0 0 0 0 0 0 0 0 623 0 0 0 0 0 0 0 0 0 0 582 0 0 0 0 ind_localisation$sd
S 598 6 4 0 0 7 599 582 4752 40802061 1020 A 0 0 0 0 0 72 0 0 0 0 0 0 623 0 0 0 0 0 0 0 0 0 0 582 0 0 0 0 ind_localisation$p
S 599 6 4 0 0 7 597 582 4771 40802060 1020 A 0 0 0 0 0 80 0 0 0 0 0 0 623 0 0 0 0 0 0 0 0 0 0 582 0 0 0 0 ind_localisation$o
S 600 22 1 0 0 6 1 582 4790 40000000 1000 A 0 0 0 0 0 0 0 594 0 0 0 0 597 0 0 0 0 0 0 0 0 0 0 582 0 0 0 0 ind_localisation$arrdsc
S 601 3 0 0 0 6 0 1 0 0 0 A 0 0 0 0 0 0 0 0 0 13 0 0 0 0 0 0 0 0 0 0 0 0 0 0 0 0 0 0 6
S 602 3 0 0 0 6 0 1 0 0 0 A 0 0 0 0 0 0 0 0 0 14 0 0 0 0 0 0 0 0 0 0 0 0 0 0 0 0 0 0 6
S 603 3 0 0 0 6 0 1 0 0 0 A 0 0 0 0 0 0 0 0 0 17 0 0 0 0 0 0 0 0 0 0 0 0 0 0 0 0 0 0 6
S 604 3 0 0 0 6 0 1 0 0 0 A 0 0 0 0 0 0 0 0 0 7 0 0 0 0 0 0 0 0 0 0 0 0 0 0 0 0 0 0 6
S 605 6 4 0 0 6 606 582 4814 80000c 0 A 0 0 0 0 0 0 0 0 0 0 0 0 624 0 0 0 0 0 0 0 0 0 0 582 0 0 0 0 nat_localisation
S 606 6 4 0 0 16 608 582 4831 80000c 0 A 0 0 0 0 0 4 0 0 0 0 0 0 624 0 0 0 0 0 0 0 0 0 0 582 0 0 0 0 print_localisation
S 608 6 4 0 0 6 1 582 4850 80000c 0 A 0 0 0 0 0 8 0 0 0 0 0 0 624 0 0 0 0 0 0 0 0 0 0 582 0 0 0 0 self_interaction
S 609 6 4 0 0 9 610 582 4867 80000c 0 A 0 0 0 0 0 0 0 0 0 0 0 0 625 0 0 0 0 0 0 0 0 0 0 582 0 0 0 0 sic_epsilon
S 610 6 4 0 0 9 611 582 4886 80000c 0 A 0 0 0 0 0 8 0 0 0 0 0 0 625 0 0 0 0 0 0 0 0 0 0 582 0 0 0 0 sic_alpha
S 611 6 4 0 0 9 1 582 4903 80000c 0 A 0 0 0 0 0 16 0 0 0 0 0 0 625 0 0 0 0 0 0 0 0 0 0 582 0 0 0 0 sic_rloc
S 612 7 6 0 0 62 1 582 4919 10a00004 51 A 0 0 0 0 0 0 617 0 0 0 619 0 0 0 0 0 0 0 0 616 0 0 618 582 0 0 0 0 pos_localisation
S 613 6 4 0 0 6 614 582 4936 40800006 0 A 0 0 0 0 0 4 0 0 0 0 0 0 623 0 0 0 0 0 0 0 0 0 0 582 0 0 0 0 z_b_1
S 614 6 4 0 0 6 1 582 4942 40800006 0 A 0 0 0 0 0 8 0 0 0 0 0 0 623 0 0 0 0 0 0 0 0 0 0 582 0 0 0 0 z_b_2
S 615 3 0 0 0 6 0 1 0 0 0 A 0 0 0 0 0 0 0 0 0 24 0 0 0 0 0 0 0 0 0 0 0 0 0 0 0 0 0 0 6
S 616 8 4 0 0 65 595 582 4948 40822064 1020 A 0 0 0 0 0 88 0 0 0 0 0 0 623 0 0 0 0 0 0 0 0 0 0 582 0 0 0 0 pos_localisation$sd
S 617 6 4 0 0 7 618 582 4968 40802061 1020 A 0 0 0 0 0 184 0 0 0 0 0 0 623 0 0 0 0 0 0 0 0 0 0 582 0 0 0 0 pos_localisation$p
S 618 6 4 0 0 7 616 582 4987 40802060 1020 A 0 0 0 0 0 192 0 0 0 0 0 0 623 0 0 0 0 0 0 0 0 0 0 582 0 0 0 0 pos_localisation$o
S 619 22 1 0 0 9 1 582 5006 40000000 1000 A 0 0 0 0 0 0 0 612 0 0 0 0 616 0 0 0 0 0 0 0 0 0 0 582 0 0 0 0 pos_localisation$arrdsc
S 620 3 0 0 0 6 0 1 0 0 0 A 0 0 0 0 0 0 0 0 0 19 0 0 0 0 0 0 0 0 0 0 0 0 0 0 0 0 0 0 6
S 621 3 0 0 0 6 0 1 0 0 0 A 0 0 0 0 0 0 0 0 0 20 0 0 0 0 0 0 0 0 0 0 0 0 0 0 0 0 0 0 6
S 622 3 0 0 0 6 0 1 0 0 0 A 0 0 0 0 0 0 0 0 0 23 0 0 0 0 0 0 0 0 0 0 0 0 0 0 0 0 0 0 6
S 623 11 0 0 0 9 1 582 5030 40800000 801000 A 0 0 0 0 0 212 0 0 598 614 0 0 0 0 0 0 0 0 0 0 0 0 0 0 0 0 0 0 _sic_module$0
S 624 11 0 0 0 9 623 582 5044 40800000 801000 A 0 0 0 0 0 12 0 0 605 608 0 0 0 0 0 0 0 0 0 0 0 0 0 0 0 0 0 0 _sic_module$8
S 625 11 0 0 0 9 624 582 5058 40800000 801000 A 0 0 0 0 0 24 0 0 609 611 0 0 0 0 0 0 0 0 0 0 0 0 0 0 0 0 0 0 _sic_module$10
S 626 23 5 0 0 0 633 582 5073 0 0 A 0 0 0 0 0 0 0 0 0 0 0 0 0 0 0 0 0 0 0 0 0 0 0 0 0 0 0 0 sic_initval
S 627 1 3 1 0 6 1 626 5085 4 3000 A 0 0 0 0 0 0 0 0 0 0 0 0 0 0 0 0 0 0 0 0 0 0 0 0 0 0 0 0 nat_
S 628 7 3 1 0 68 1 626 5090 20000004 10003000 A 0 0 0 0 0 0 0 0 0 0 0 0 0 0 0 0 0 0 0 0 0 0 0 0 0 0 0 0 id_loc_
S 629 1 3 1 0 28 1 626 5098 4 43000 A 0 0 0 0 0 0 0 0 0 0 0 0 0 0 0 0 0 0 0 0 0 0 0 0 0 0 0 0 sic_
S 630 1 3 1 0 9 1 626 5103 4 3000 A 0 0 0 0 0 0 0 0 0 0 0 0 0 0 0 0 0 0 0 0 0 0 0 0 0 0 0 0 sic_epsilon_
S 631 1 3 1 0 9 1 626 5116 4 3000 A 0 0 0 0 0 0 0 0 0 0 0 0 0 0 0 0 0 0 0 0 0 0 0 0 0 0 0 0 sic_alpha_
S 632 1 3 1 0 9 1 626 5127 4 3000 A 0 0 0 0 0 0 0 0 0 0 0 0 0 0 0 0 0 0 0 0 0 0 0 0 0 0 0 0 sic_rloc_
S 633 14 5 0 0 0 1 626 5073 20000000 400000 A 0 0 0 0 0 0 0 4 6 0 0 0 0 0 0 0 0 0 0 0 0 58 0 582 0 0 0 0 sic_initval
F 633 6 627 628 629 630 631 632
S 634 6 1 0 0 6 1 626 5137 40800006 3000 A 0 0 0 0 0 0 0 0 0 0 0 0 0 0 0 0 0 0 0 0 0 0 0 0 0 0 0 0 z_b_0_1
S 635 6 1 0 0 6 1 626 5145 40800006 3000 A 0 0 0 0 0 0 0 0 0 0 0 0 0 0 0 0 0 0 0 0 0 0 0 0 0 0 0 0 z_b_2_1
S 636 6 1 0 0 6 1 626 5153 40800006 3000 A 0 0 0 0 0 0 0 0 0 0 0 0 0 0 0 0 0 0 0 0 0 0 0 0 0 0 0 0 z_b_3
S 637 6 1 0 0 6 1 626 5159 40800006 3000 A 0 0 0 0 0 0 0 0 0 0 0 0 0 0 0 0 0 0 0 0 0 0 0 0 0 0 0 0 z_e_63
S 638 23 5 0 0 0 639 582 5166 0 0 A 0 0 0 0 0 0 0 0 0 0 0 0 0 0 0 0 0 0 0 0 0 0 0 0 0 0 0 0 deallocate_sic
S 639 14 5 0 0 0 1 638 5166 0 400000 A 0 0 0 0 0 0 0 11 0 0 0 0 0 0 0 0 0 0 0 0 0 92 0 582 0 0 0 0 deallocate_sic
F 639 0
S 640 23 5 0 0 0 641 582 5181 0 0 A 0 0 0 0 0 0 0 0 0 0 0 0 0 0 0 0 0 0 0 0 0 0 0 0 0 0 0 0 sic_info
S 641 14 5 0 0 0 1 640 5181 0 400000 A 0 0 0 0 0 0 0 12 0 0 0 0 0 0 0 0 0 0 0 0 0 101 0 582 0 0 0 0 sic_info
F 641 0
A 13 2 0 0 0 6 585 0 0 0 13 0 0 0 0 0 0 0 0 0
A 18 2 0 0 0 6 596 0 0 0 18 0 0 0 0 0 0 0 0 0
A 19 2 0 0 0 6 601 0 0 0 19 0 0 0 0 0 0 0 0 0
A 20 1 0 1 0 59 597 0 0 0 0 0 0 0 0 0 0 0 0 0
A 21 10 0 0 0 6 20 1 0 0 0 0 0 0 0 0 0 0 0 0
X 1 19
A 22 2 0 0 0 6 602 0 0 0 22 0 0 0 0 0 0 0 0 0
A 23 10 0 0 21 6 20 4 0 0 0 0 0 0 0 0 0 0 0 0
X 1 22
A 24 4 0 0 0 6 23 0 3 0 0 0 0 2 0 0 0 0 0 0
A 25 4 0 0 0 6 21 0 24 0 0 0 0 1 0 0 0 0 0 0
A 26 2 0 0 0 6 603 0 0 0 26 0 0 0 0 0 0 0 0 0
A 27 10 0 0 23 6 20 7 0 0 0 0 0 0 0 0 0 0 0 0
X 1 26
A 28 2 0 0 0 6 604 0 0 0 28 0 0 0 0 0 0 0 0 0
A 29 10 0 0 27 6 20 10 0 0 0 0 0 0 0 0 0 0 0 0
X 1 28
A 30 10 0 0 29 6 20 13 0 0 0 0 0 0 0 0 0 0 0 0
X 1 13
A 41 2 0 0 0 6 615 0 0 0 41 0 0 0 0 0 0 0 0 0
A 42 1 0 3 0 65 616 0 0 0 0 0 0 0 0 0 0 0 0 0
A 43 10 0 0 0 6 42 1 0 0 0 0 0 0 0 0 0 0 0 0
X 1 19
A 44 10 0 0 43 6 42 4 0 0 0 0 0 0 0 0 0 0 0 0
X 1 22
A 45 4 0 0 0 6 44 0 3 0 0 0 0 2 0 0 0 0 0 0
A 46 4 0 0 0 6 43 0 45 0 0 0 0 1 0 0 0 0 0 0
A 47 2 0 0 0 6 620 0 0 0 47 0 0 0 0 0 0 0 0 0
A 48 10 0 0 44 6 42 16 0 0 0 0 0 0 0 0 0 0 0 0
X 1 47
A 49 2 0 0 0 6 621 0 0 0 49 0 0 0 0 0 0 0 0 0
A 50 10 0 0 48 6 42 19 0 0 0 0 0 0 0 0 0 0 0 0
X 1 49
A 51 4 0 0 0 6 50 0 3 0 0 0 0 2 0 0 0 0 0 0
A 52 4 0 0 0 6 48 0 51 0 0 0 0 1 0 0 0 0 0 0
A 53 10 0 0 50 6 42 7 0 0 0 0 0 0 0 0 0 0 0 0
X 1 26
A 54 2 0 0 0 6 622 0 0 0 54 0 0 0 0 0 0 0 0 0
A 55 10 0 0 53 6 42 22 0 0 0 0 0 0 0 0 0 0 0 0
X 1 54
A 56 10 0 0 55 6 42 10 0 0 0 0 0 0 0 0 0 0 0 0
X 1 28
A 57 10 0 0 56 6 42 13 0 0 0 0 0 0 0 0 0 0 0 0
X 1 13
A 58 1 0 0 0 6 636 0 0 0 0 0 0 0 0 0 0 0 0 0
A 59 1 0 0 0 6 634 0 0 0 0 0 0 0 0 0 0 0 0 0
A 60 1 0 0 0 6 637 0 0 0 0 0 0 0 0 0 0 0 0 0
A 61 1 0 0 0 6 635 0 0 0 0 0 0 0 0 0 0 0 0 0
Z
Z
