V26 smallbox_grid_dimensions
11 griddim.F90 S582 0
04/24/2012  15:51:15
enduse
S 582 24 0 0 0 9 1 0 4658 10005 0 A 0 0 0 0 0 0 0 0 0 0 0 0 93 0 0 0 0 0 0 0 0 69 0 0 0 0 0 0 smallbox_grid_dimensions
S 583 6 4 0 0 6 584 582 4683 80000c 0 A 0 0 0 0 0 0 0 0 0 0 0 0 593 0 0 0 0 0 0 0 0 0 0 582 0 0 0 0 nr1b
S 584 6 4 0 0 6 585 582 4688 80000c 0 A 0 0 0 0 0 4 0 0 0 0 0 0 593 0 0 0 0 0 0 0 0 0 0 582 0 0 0 0 nr2b
S 585 6 4 0 0 6 586 582 4693 80000c 0 A 0 0 0 0 0 8 0 0 0 0 0 0 593 0 0 0 0 0 0 0 0 0 0 582 0 0 0 0 nr3b
S 586 6 4 0 0 6 587 582 4698 80000c 0 A 0 0 0 0 0 12 0 0 0 0 0 0 593 0 0 0 0 0 0 0 0 0 0 582 0 0 0 0 nr1bx
S 587 6 4 0 0 6 588 582 4704 80000c 0 A 0 0 0 0 0 16 0 0 0 0 0 0 593 0 0 0 0 0 0 0 0 0 0 582 0 0 0 0 nr2bx
S 588 6 4 0 0 6 589 582 4710 80000c 0 A 0 0 0 0 0 20 0 0 0 0 0 0 593 0 0 0 0 0 0 0 0 0 0 582 0 0 0 0 nr3bx
S 589 6 4 0 0 6 590 582 4716 80000c 0 A 0 0 0 0 0 24 0 0 0 0 0 0 593 0 0 0 0 0 0 0 0 0 0 582 0 0 0 0 nr1bl
S 590 6 4 0 0 6 591 582 4722 80000c 0 A 0 0 0 0 0 28 0 0 0 0 0 0 593 0 0 0 0 0 0 0 0 0 0 582 0 0 0 0 nr2bl
S 591 6 4 0 0 6 592 582 4728 80000c 0 A 0 0 0 0 0 32 0 0 0 0 0 0 593 0 0 0 0 0 0 0 0 0 0 582 0 0 0 0 nr3bl
S 592 6 4 0 0 6 1 582 4734 80000c 0 A 0 0 0 0 0 36 0 0 0 0 0 0 593 0 0 0 0 0 0 0 0 0 0 582 0 0 0 0 nnrbx
S 593 11 0 0 0 9 1 582 4740 40800008 801000 A 0 0 0 0 0 40 0 0 583 592 0 0 0 0 0 0 0 0 0 0 0 0 0 0 0 0 0 0 _smallbox_grid_dimensions$8
A 12 1 0 0 0 6 583 0 0 0 0 0 0 0 0 0 0 0 0 0
A 13 1 0 0 0 6 584 0 0 0 0 0 0 0 0 0 0 0 0 0
A 14 1 0 0 0 6 585 0 0 0 0 0 0 0 0 0 0 0 0 0
A 15 1 0 0 0 6 586 0 0 0 0 0 0 0 0 0 0 0 0 0
A 16 1 0 0 0 6 587 0 0 0 0 0 0 0 0 0 0 0 0 0
A 17 1 0 0 0 6 588 0 0 0 0 0 0 0 0 0 0 0 0 0
A 18 1 0 0 0 6 589 0 0 0 0 0 0 0 0 0 0 0 0 0
A 19 1 0 0 0 6 590 0 0 0 0 0 0 0 0 0 0 0 0 0
A 20 1 0 0 0 6 591 0 0 0 0 0 0 0 0 0 0 0 0 0
A 21 1 0 0 0 6 592 0 0 0 0 0 0 0 0 0 0 0 0 0
Z
Z
