V26 small_box
12 smallbox.F90 S582 0
04/24/2012  15:51:03
use kinds private
use kinds private
enduse
D 56 21 9 1 3 17 0 0 0 0 0
 0 17 3 3 17 17
D 62 21 9 1 3 17 0 0 0 0 0
 0 17 3 3 17 17
D 68 21 9 1 3 17 0 0 0 0 0
 0 17 3 3 17 17
D 74 21 9 1 3 17 0 0 0 0 0
 0 17 3 3 17 17
D 80 21 9 1 3 17 0 0 0 0 0
 0 17 3 3 17 17
D 86 21 9 1 3 17 0 0 0 0 0
 0 17 3 3 17 17
D 92 21 9 2 15 25 0 0 0 0 0
 0 17 3 3 17 17
 0 17 17 3 17 17
D 95 21 9 1 3 17 0 0 0 0 0
 0 17 3 3 17 17
D 98 21 9 1 3 17 0 0 0 0 0
 0 17 3 3 17 17
D 101 21 9 1 3 17 0 0 0 0 0
 0 17 3 3 17 17
S 582 24 0 0 0 9 1 0 4658 10005 0 A 0 0 0 0 0 0 0 0 0 0 0 0 0 0 0 0 0 0 0 0 0 12 0 0 0 0 0 0 small_box
S 584 23 0 0 0 9 587 582 4674 4 0 A 0 0 0 0 0 0 0 0 0 0 0 0 0 0 0 0 0 0 0 0 0 0 0 582 0 0 0 0 dp
S 586 3 0 0 0 6 1 1 0 0 0 A 0 0 0 0 0 0 0 0 0 4 0 0 0 0 0 0 0 0 0 0 0 0 0 0 0 0 0 0 6
R 587 16 1 kinds dp
S 594 7 4 0 4 56 596 582 4708 80000c 100 A 0 0 0 0 0 0 0 0 0 0 0 0 606 0 0 0 0 0 0 0 0 0 0 582 0 0 0 0 a1b
S 595 3 0 0 0 6 1 1 0 0 0 A 0 0 0 0 0 0 0 0 0 3 0 0 0 0 0 0 0 0 0 0 0 0 0 0 0 0 0 0 6
S 596 7 4 0 4 62 597 582 4733 80000c 100 A 0 0 0 0 0 32 0 0 0 0 0 0 606 0 0 0 0 0 0 0 0 0 0 582 0 0 0 0 a2b
S 597 7 4 0 4 68 598 582 4758 80000c 100 A 0 0 0 0 0 64 0 0 0 0 0 0 606 0 0 0 0 0 0 0 0 0 0 582 0 0 0 0 a3b
S 598 7 4 0 4 74 599 582 4783 80000c 100 A 0 0 0 0 0 96 0 0 0 0 0 0 606 0 0 0 0 0 0 0 0 0 0 582 0 0 0 0 b1b
S 599 7 4 0 4 80 600 582 4808 80000c 100 A 0 0 0 0 0 128 0 0 0 0 0 0 606 0 0 0 0 0 0 0 0 0 0 582 0 0 0 0 b2b
S 600 7 4 0 4 86 601 582 4833 80000c 100 A 0 0 0 0 0 160 0 0 0 0 0 0 606 0 0 0 0 0 0 0 0 0 0 582 0 0 0 0 b3b
S 601 7 4 0 4 92 603 582 4858 80000c 100 A 0 0 0 0 0 192 0 0 0 0 0 0 606 0 0 0 0 0 0 0 0 0 0 582 0 0 0 0 ainvb
S 602 3 0 0 0 6 0 1 0 0 0 A 0 0 0 0 0 0 0 0 0 9 0 0 0 0 0 0 0 0 0 0 0 0 0 0 0 0 0 0 6
S 603 6 4 0 0 9 604 582 4871 80000c 0 A 0 0 0 0 0 264 0 0 0 0 0 0 606 0 0 0 0 0 0 0 0 0 0 582 0 0 0 0 omegab
S 604 6 4 0 0 9 605 582 4885 80000c 0 A 0 0 0 0 0 272 0 0 0 0 0 0 606 0 0 0 0 0 0 0 0 0 0 582 0 0 0 0 tpibab
S 605 6 4 0 0 9 1 582 4899 80000c 0 A 0 0 0 0 0 280 0 0 0 0 0 0 606 0 0 0 0 0 0 0 0 0 0 582 0 0 0 0 alatb
S 606 11 0 0 4 9 1 582 4912 40800000 801000 A 0 0 0 0 0 288 0 0 594 605 0 0 0 0 0 0 0 0 0 0 0 0 0 0 0 0 0 0 _small_box$10
S 607 23 5 0 0 0 616 582 4926 0 0 A 0 0 0 0 0 0 0 0 0 0 0 0 0 0 0 0 0 0 0 0 0 0 0 0 0 0 0 0 small_box_set
S 608 1 3 1 0 9 1 607 4940 4 3000 A 0 0 0 0 0 0 0 0 0 0 0 0 0 0 0 0 0 0 0 0 0 0 0 0 0 0 0 0 alat
S 609 1 3 1 0 9 1 607 4945 4 3000 A 0 0 0 0 0 0 0 0 0 0 0 0 0 0 0 0 0 0 0 0 0 0 0 0 0 0 0 0 omega
S 610 7 3 1 0 95 1 607 4951 800004 3000 A 0 0 0 0 0 0 0 0 0 0 0 0 0 0 0 0 0 0 0 0 0 0 0 0 0 0 0 0 a1
S 611 7 3 1 0 98 1 607 4954 800004 3000 A 0 0 0 0 0 0 0 0 0 0 0 0 0 0 0 0 0 0 0 0 0 0 0 0 0 0 0 0 a2
S 612 7 3 1 0 101 1 607 4957 800004 3000 A 0 0 0 0 0 0 0 0 0 0 0 0 0 0 0 0 0 0 0 0 0 0 0 0 0 0 0 0 a3
S 613 1 3 1 0 9 1 607 4960 4 3000 A 0 0 0 0 0 0 0 0 0 0 0 0 0 0 0 0 0 0 0 0 0 0 0 0 0 0 0 0 rat1
S 614 1 3 1 0 9 1 607 4965 4 3000 A 0 0 0 0 0 0 0 0 0 0 0 0 0 0 0 0 0 0 0 0 0 0 0 0 0 0 0 0 rat2
S 615 1 3 1 0 9 1 607 4970 4 3000 A 0 0 0 0 0 0 0 0 0 0 0 0 0 0 0 0 0 0 0 0 0 0 0 0 0 0 0 0 rat3
S 616 14 5 0 0 0 1 607 4926 0 400000 A 0 0 0 0 0 0 0 4 8 0 0 0 0 0 0 0 0 0 0 0 0 46 0 582 0 0 0 0 small_box_set
F 616 8 608 609 610 611 612 613 614 615
A 15 2 0 0 0 6 586 0 0 0 15 0 0 0 0 0 0 0 0 0
A 17 2 0 0 0 6 595 0 0 0 17 0 0 0 0 0 0 0 0 0
A 25 2 0 0 0 6 602 0 0 0 25 0 0 0 0 0 0 0 0 0
Z
Z
