V26 splinelib
13 splinelib.F90 S582 0
04/24/2012  15:51:02
use kinds private
use kinds private
enduse
D 56 21 9 1 17 20 1 1 0 0 1
 3 18 3 3 18 19
D 59 21 9 1 21 24 1 1 0 0 1
 3 22 3 3 22 23
D 62 21 9 1 25 28 1 1 0 0 1
 3 26 3 3 26 27
D 65 21 9 1 29 32 1 1 0 0 1
 3 30 3 3 30 31
D 68 21 9 1 33 36 1 1 0 0 1
 3 34 3 3 34 35
D 71 21 9 1 37 40 1 1 0 0 1
 3 38 3 3 38 39
D 74 21 9 1 41 44 1 1 0 0 1
 3 42 3 3 42 43
D 77 21 9 1 45 48 1 1 0 0 1
 3 46 3 3 46 47
D 80 21 9 1 49 52 1 1 0 0 1
 3 50 3 3 50 51
D 83 21 9 1 53 56 1 1 0 0 1
 3 54 3 3 54 55
D 86 21 9 1 57 60 1 1 0 0 1
 3 58 3 3 58 59
D 89 21 9 1 61 64 1 1 0 0 1
 3 62 3 3 62 63
D 92 21 9 1 65 68 1 1 0 0 1
 3 66 3 3 66 67
D 95 21 9 1 69 72 1 1 0 0 1
 3 70 3 3 70 71
D 98 21 9 1 73 76 1 1 0 0 1
 3 74 3 3 74 75
D 101 21 9 1 77 80 1 1 0 0 1
 3 78 3 3 78 79
D 104 21 9 2 81 87 1 1 0 0 1
 3 82 3 3 82 83
 3 84 85 3 84 86
D 107 21 9 2 88 94 1 1 0 0 1
 3 89 3 3 89 90
 3 91 92 3 91 93
S 582 24 0 0 0 9 1 0 4658 10015 0 A 0 0 0 0 0 0 0 0 0 0 0 0 0 0 0 0 0 0 0 0 0 11 0 0 0 0 0 0 splinelib
S 584 23 0 0 0 9 587 582 4674 14 0 A 0 0 0 0 0 0 0 0 0 0 0 0 0 0 0 0 0 0 0 0 0 0 0 582 0 0 0 0 dp
R 587 16 1 kinds dp
S 594 19 0 0 0 9 1 582 4708 4000 0 A 0 0 0 0 0 0 0 0 0 0 0 0 0 0 0 0 5 2 0 0 0 0 0 582 0 0 0 0 dosplineint
O 594 2 599 598
S 595 27 0 0 0 9 600 582 4720 0 0 A 0 0 0 0 0 0 0 0 0 0 0 0 0 0 0 0 0 0 0 0 0 0 0 582 0 0 0 0 spline
S 596 27 0 0 0 9 619 582 4727 0 0 A 0 0 0 0 0 0 0 0 0 0 0 0 0 0 0 0 0 0 0 0 0 0 0 582 0 0 0 0 splint
S 597 27 0 0 0 9 638 582 4734 0 0 A 0 0 0 0 0 0 0 0 0 0 0 0 0 0 0 0 0 0 0 0 0 0 0 582 0 0 0 0 splint_deriv
S 598 27 0 0 0 9 666 582 4747 10010 400000 A 0 0 0 0 0 0 6 0 0 0 0 0 0 0 0 0 0 0 0 0 0 0 0 582 0 0 0 0 dosplineint_1d
Q 598 594 0
S 599 27 0 0 0 9 688 582 4762 10010 400000 A 0 0 0 0 0 0 7 0 0 0 0 0 0 0 0 0 0 0 0 0 0 0 0 582 0 0 0 0 dosplineint_2d
Q 599 594 0
S 600 23 5 0 0 0 606 582 4720 0 0 A 0 0 0 0 0 0 0 0 0 0 0 0 0 0 0 0 0 0 0 0 0 0 0 0 0 0 0 0 spline
S 601 7 3 1 0 56 1 600 4777 20000014 10003000 A 0 0 0 0 0 0 0 0 0 0 0 0 0 0 0 0 0 0 0 0 0 0 0 0 0 0 0 0 xdata
S 602 7 3 1 0 59 1 600 4783 20000014 10003000 A 0 0 0 0 0 0 0 0 0 0 0 0 0 0 0 0 0 0 0 0 0 0 0 0 0 0 0 0 ydata
S 603 1 3 1 0 9 1 600 4789 14 3000 A 0 0 0 0 0 0 0 0 0 0 0 0 0 0 0 0 0 0 0 0 0 0 0 0 0 0 0 0 startu
S 604 1 3 1 0 9 1 600 4796 14 3000 A 0 0 0 0 0 0 0 0 0 0 0 0 0 0 0 0 0 0 0 0 0 0 0 0 0 0 0 0 startd
S 605 7 3 2 0 62 1 600 4803 20000014 10003000 A 0 0 0 0 0 0 0 0 0 0 0 0 0 0 0 0 0 0 0 0 0 0 0 0 0 0 0 0 d2y
S 606 14 5 0 0 0 1 600 4720 20000000 400000 A 0 0 0 0 0 0 0 4 5 0 0 0 0 0 0 0 0 0 0 0 0 31 0 582 0 0 0 0 spline
F 606 5 601 602 603 604 605
S 607 6 1 0 0 6 1 600 4807 40800016 3000 A 0 0 0 0 0 0 0 0 0 0 0 0 0 0 0 0 0 0 0 0 0 0 0 0 0 0 0 0 z_b_0
S 608 6 1 0 0 6 1 600 4813 40800016 3000 A 0 0 0 0 0 0 0 0 0 0 0 0 0 0 0 0 0 0 0 0 0 0 0 0 0 0 0 0 z_b_2
S 609 6 1 0 0 6 1 600 4819 40800016 3000 A 0 0 0 0 0 0 0 0 0 0 0 0 0 0 0 0 0 0 0 0 0 0 0 0 0 0 0 0 z_b_3
S 610 6 1 0 0 6 1 600 4825 40800016 3000 A 0 0 0 0 0 0 0 0 0 0 0 0 0 0 0 0 0 0 0 0 0 0 0 0 0 0 0 0 z_e_22
S 611 6 1 0 0 6 1 600 4832 40800016 3000 A 0 0 0 0 0 0 0 0 0 0 0 0 0 0 0 0 0 0 0 0 0 0 0 0 0 0 0 0 z_b_4
S 612 6 1 0 0 6 1 600 4838 40800016 3000 A 0 0 0 0 0 0 0 0 0 0 0 0 0 0 0 0 0 0 0 0 0 0 0 0 0 0 0 0 z_b_6
S 613 6 1 0 0 6 1 600 4844 40800016 3000 A 0 0 0 0 0 0 0 0 0 0 0 0 0 0 0 0 0 0 0 0 0 0 0 0 0 0 0 0 z_b_7
S 614 6 1 0 0 6 1 600 4850 40800016 3000 A 0 0 0 0 0 0 0 0 0 0 0 0 0 0 0 0 0 0 0 0 0 0 0 0 0 0 0 0 z_e_29
S 615 6 1 0 0 6 1 600 4857 40800016 3000 A 0 0 0 0 0 0 0 0 0 0 0 0 0 0 0 0 0 0 0 0 0 0 0 0 0 0 0 0 z_b_8
S 616 6 1 0 0 6 1 600 4863 40800016 3000 A 0 0 0 0 0 0 0 0 0 0 0 0 0 0 0 0 0 0 0 0 0 0 0 0 0 0 0 0 z_b_10
S 617 6 1 0 0 6 1 600 4870 40800016 3000 A 0 0 0 0 0 0 0 0 0 0 0 0 0 0 0 0 0 0 0 0 0 0 0 0 0 0 0 0 z_b_11
S 618 6 1 0 0 6 1 600 4877 40800016 3000 A 0 0 0 0 0 0 0 0 0 0 0 0 0 0 0 0 0 0 0 0 0 0 0 0 0 0 0 0 z_e_36
S 619 23 5 0 0 9 624 582 4727 0 0 A 0 0 0 0 0 0 0 0 0 0 0 0 0 0 0 0 0 0 0 0 0 0 0 0 0 0 0 0 splint
S 620 7 3 1 0 65 1 619 4777 20000014 10003000 A 0 0 0 0 0 0 0 0 0 0 0 0 0 0 0 0 0 0 0 0 0 0 0 0 0 0 0 0 xdata
S 621 7 3 1 0 68 1 619 4783 20000014 10003000 A 0 0 0 0 0 0 0 0 0 0 0 0 0 0 0 0 0 0 0 0 0 0 0 0 0 0 0 0 ydata
S 622 7 3 1 0 71 1 619 4803 20000014 10003000 A 0 0 0 0 0 0 0 0 0 0 0 0 0 0 0 0 0 0 0 0 0 0 0 0 0 0 0 0 d2y
S 623 1 3 1 0 9 1 619 4884 14 3000 A 0 0 0 0 0 0 0 0 0 0 0 0 0 0 0 0 0 0 0 0 0 0 0 0 0 0 0 0 x
S 624 14 5 0 0 9 1 619 4727 20000004 400000 A 0 0 0 0 0 0 0 10 4 0 0 625 0 0 0 0 0 0 0 0 0 76 0 582 0 0 0 0 splint
F 624 4 620 621 622 623
S 625 1 3 0 0 9 1 619 4727 14 1003000 A 0 0 0 0 0 0 0 0 0 0 0 0 0 0 0 0 0 0 0 0 0 0 0 0 0 0 0 0 splint
S 626 6 1 0 0 6 1 619 4807 40800016 3000 A 0 0 0 0 0 0 0 0 0 0 0 0 0 0 0 0 0 0 0 0 0 0 0 0 0 0 0 0 z_b_0
S 627 6 1 0 0 6 1 619 4813 40800016 3000 A 0 0 0 0 0 0 0 0 0 0 0 0 0 0 0 0 0 0 0 0 0 0 0 0 0 0 0 0 z_b_2
S 628 6 1 0 0 6 1 619 4819 40800016 3000 A 0 0 0 0 0 0 0 0 0 0 0 0 0 0 0 0 0 0 0 0 0 0 0 0 0 0 0 0 z_b_3
S 629 6 1 0 0 6 1 619 4886 40800016 3000 A 0 0 0 0 0 0 0 0 0 0 0 0 0 0 0 0 0 0 0 0 0 0 0 0 0 0 0 0 z_e_34
S 630 6 1 0 0 6 1 619 4832 40800016 3000 A 0 0 0 0 0 0 0 0 0 0 0 0 0 0 0 0 0 0 0 0 0 0 0 0 0 0 0 0 z_b_4
S 631 6 1 0 0 6 1 619 4838 40800016 3000 A 0 0 0 0 0 0 0 0 0 0 0 0 0 0 0 0 0 0 0 0 0 0 0 0 0 0 0 0 z_b_6
S 632 6 1 0 0 6 1 619 4844 40800016 3000 A 0 0 0 0 0 0 0 0 0 0 0 0 0 0 0 0 0 0 0 0 0 0 0 0 0 0 0 0 z_b_7
S 633 6 1 0 0 6 1 619 4893 40800016 3000 A 0 0 0 0 0 0 0 0 0 0 0 0 0 0 0 0 0 0 0 0 0 0 0 0 0 0 0 0 z_e_41
S 634 6 1 0 0 6 1 619 4857 40800016 3000 A 0 0 0 0 0 0 0 0 0 0 0 0 0 0 0 0 0 0 0 0 0 0 0 0 0 0 0 0 z_b_8
S 635 6 1 0 0 6 1 619 4863 40800016 3000 A 0 0 0 0 0 0 0 0 0 0 0 0 0 0 0 0 0 0 0 0 0 0 0 0 0 0 0 0 z_b_10
S 636 6 1 0 0 6 1 619 4870 40800016 3000 A 0 0 0 0 0 0 0 0 0 0 0 0 0 0 0 0 0 0 0 0 0 0 0 0 0 0 0 0 z_b_11
S 637 6 1 0 0 6 1 619 4900 40800016 3000 A 0 0 0 0 0 0 0 0 0 0 0 0 0 0 0 0 0 0 0 0 0 0 0 0 0 0 0 0 z_e_48
S 638 23 5 0 0 9 643 582 4734 0 0 A 0 0 0 0 0 0 0 0 0 0 0 0 0 0 0 0 0 0 0 0 0 0 0 0 0 0 0 0 splint_deriv
S 639 7 3 1 0 74 1 638 4777 20000014 10003000 A 0 0 0 0 0 0 0 0 0 0 0 0 0 0 0 0 0 0 0 0 0 0 0 0 0 0 0 0 xdata
S 640 7 3 1 0 77 1 638 4783 20000014 10003000 A 0 0 0 0 0 0 0 0 0 0 0 0 0 0 0 0 0 0 0 0 0 0 0 0 0 0 0 0 ydata
S 641 7 3 1 0 80 1 638 4803 20000014 10003000 A 0 0 0 0 0 0 0 0 0 0 0 0 0 0 0 0 0 0 0 0 0 0 0 0 0 0 0 0 d2y
S 642 1 3 1 0 9 1 638 4884 14 3000 A 0 0 0 0 0 0 0 0 0 0 0 0 0 0 0 0 0 0 0 0 0 0 0 0 0 0 0 0 x
S 643 14 5 0 0 9 1 638 4734 20000004 400000 A 0 0 0 0 0 0 0 15 4 0 0 644 0 0 0 0 0 0 0 0 0 111 0 582 0 0 0 0 splint_deriv
F 643 4 639 640 641 642
S 644 1 3 0 0 9 1 638 4734 14 1003000 A 0 0 0 0 0 0 0 0 0 0 0 0 0 0 0 0 0 0 0 0 0 0 0 0 0 0 0 0 splint_deriv
S 645 6 1 0 0 6 1 638 4807 40800016 3000 A 0 0 0 0 0 0 0 0 0 0 0 0 0 0 0 0 0 0 0 0 0 0 0 0 0 0 0 0 z_b_0
S 646 6 1 0 0 6 1 638 4813 40800016 3000 A 0 0 0 0 0 0 0 0 0 0 0 0 0 0 0 0 0 0 0 0 0 0 0 0 0 0 0 0 z_b_2
S 647 6 1 0 0 6 1 638 4819 40800016 3000 A 0 0 0 0 0 0 0 0 0 0 0 0 0 0 0 0 0 0 0 0 0 0 0 0 0 0 0 0 z_b_3
S 648 6 1 0 0 6 1 638 4907 40800016 3000 A 0 0 0 0 0 0 0 0 0 0 0 0 0 0 0 0 0 0 0 0 0 0 0 0 0 0 0 0 z_e_46
S 649 6 1 0 0 6 1 638 4832 40800016 3000 A 0 0 0 0 0 0 0 0 0 0 0 0 0 0 0 0 0 0 0 0 0 0 0 0 0 0 0 0 z_b_4
S 650 6 1 0 0 6 1 638 4838 40800016 3000 A 0 0 0 0 0 0 0 0 0 0 0 0 0 0 0 0 0 0 0 0 0 0 0 0 0 0 0 0 z_b_6
S 651 6 1 0 0 6 1 638 4844 40800016 3000 A 0 0 0 0 0 0 0 0 0 0 0 0 0 0 0 0 0 0 0 0 0 0 0 0 0 0 0 0 z_b_7
S 652 6 1 0 0 6 1 638 4914 40800016 3000 A 0 0 0 0 0 0 0 0 0 0 0 0 0 0 0 0 0 0 0 0 0 0 0 0 0 0 0 0 z_e_53
S 653 6 1 0 0 6 1 638 4857 40800016 3000 A 0 0 0 0 0 0 0 0 0 0 0 0 0 0 0 0 0 0 0 0 0 0 0 0 0 0 0 0 z_b_8
S 654 6 1 0 0 6 1 638 4863 40800016 3000 A 0 0 0 0 0 0 0 0 0 0 0 0 0 0 0 0 0 0 0 0 0 0 0 0 0 0 0 0 z_b_10
S 655 6 1 0 0 6 1 638 4870 40800016 3000 A 0 0 0 0 0 0 0 0 0 0 0 0 0 0 0 0 0 0 0 0 0 0 0 0 0 0 0 0 z_b_11
S 656 6 1 0 0 6 1 638 4921 40800016 3000 A 0 0 0 0 0 0 0 0 0 0 0 0 0 0 0 0 0 0 0 0 0 0 0 0 0 0 0 0 z_e_60
S 657 23 5 0 0 6 660 582 4928 10 0 A 0 0 0 0 0 0 0 0 0 0 0 0 0 0 0 0 0 0 0 0 0 0 0 0 0 0 0 0 locate
S 658 7 3 1 0 83 1 657 4935 20000014 10003000 A 0 0 0 0 0 0 0 0 0 0 0 0 0 0 0 0 0 0 0 0 0 0 0 0 0 0 0 0 xx
S 659 1 3 1 0 9 1 657 4884 14 3000 A 0 0 0 0 0 0 0 0 0 0 0 0 0 0 0 0 0 0 0 0 0 0 0 0 0 0 0 0 x
S 660 14 5 0 0 6 1 657 4928 20000014 400000 A 0 0 0 0 0 0 0 20 2 0 0 661 0 0 0 0 0 0 0 0 0 148 0 582 0 0 0 0 locate
F 660 2 658 659
S 661 1 3 0 0 6 1 657 4928 14 1003000 A 0 0 0 0 0 0 0 0 0 0 0 0 0 0 0 0 0 0 0 0 0 0 0 0 0 0 0 0 locate
S 662 6 1 0 0 6 1 657 4807 40800016 3000 A 0 0 0 0 0 0 0 0 0 0 0 0 0 0 0 0 0 0 0 0 0 0 0 0 0 0 0 0 z_b_0
S 663 6 1 0 0 6 1 657 4813 40800016 3000 A 0 0 0 0 0 0 0 0 0 0 0 0 0 0 0 0 0 0 0 0 0 0 0 0 0 0 0 0 z_b_2
S 664 6 1 0 0 6 1 657 4819 40800016 3000 A 0 0 0 0 0 0 0 0 0 0 0 0 0 0 0 0 0 0 0 0 0 0 0 0 0 0 0 0 z_b_3
S 665 6 1 0 0 6 1 657 4938 40800016 3000 A 0 0 0 0 0 0 0 0 0 0 0 0 0 0 0 0 0 0 0 0 0 0 0 0 0 0 0 0 z_e_58
S 666 23 5 0 0 0 671 582 4747 10 0 A 0 0 0 0 0 0 0 0 0 0 0 0 0 0 0 0 0 0 0 0 0 0 0 0 0 0 0 0 dosplineint_1d
S 667 7 3 1 0 86 1 666 4945 20000014 10003000 A 0 0 0 0 0 0 0 0 0 0 0 0 0 0 0 0 0 0 0 0 0 0 0 0 0 0 0 0 old_mesh
S 668 7 3 1 0 92 1 666 4954 20000014 10003000 A 0 0 0 0 0 0 0 0 0 0 0 0 0 0 0 0 0 0 0 0 0 0 0 0 0 0 0 0 old_vec
S 669 7 3 1 0 89 1 666 4962 20000014 10003000 A 0 0 0 0 0 0 0 0 0 0 0 0 0 0 0 0 0 0 0 0 0 0 0 0 0 0 0 0 new_mesh
S 670 7 3 2 0 95 1 666 4971 20000014 10003000 A 0 0 0 0 0 0 0 0 0 0 0 0 0 0 0 0 0 0 0 0 0 0 0 0 0 0 0 0 new_vec
S 671 14 5 0 0 0 1 666 4747 20000010 400000 A 0 0 0 0 0 0 0 23 4 0 0 0 0 0 0 0 0 0 0 0 0 202 0 582 0 0 0 0 dosplineint_1d
F 671 4 667 668 669 670
S 672 6 1 0 0 6 1 666 4807 40800016 3000 A 0 0 0 0 0 0 0 0 0 0 0 0 0 0 0 0 0 0 0 0 0 0 0 0 0 0 0 0 z_b_0
S 673 6 1 0 0 6 1 666 4813 40800016 3000 A 0 0 0 0 0 0 0 0 0 0 0 0 0 0 0 0 0 0 0 0 0 0 0 0 0 0 0 0 z_b_2
S 674 6 1 0 0 6 1 666 4819 40800016 3000 A 0 0 0 0 0 0 0 0 0 0 0 0 0 0 0 0 0 0 0 0 0 0 0 0 0 0 0 0 z_b_3
S 675 6 1 0 0 6 1 666 4979 40800016 3000 A 0 0 0 0 0 0 0 0 0 0 0 0 0 0 0 0 0 0 0 0 0 0 0 0 0 0 0 0 z_e_62
S 676 6 1 0 0 6 1 666 4832 40800016 3000 A 0 0 0 0 0 0 0 0 0 0 0 0 0 0 0 0 0 0 0 0 0 0 0 0 0 0 0 0 z_b_4
S 677 6 1 0 0 6 1 666 4838 40800016 3000 A 0 0 0 0 0 0 0 0 0 0 0 0 0 0 0 0 0 0 0 0 0 0 0 0 0 0 0 0 z_b_6
S 678 6 1 0 0 6 1 666 4844 40800016 3000 A 0 0 0 0 0 0 0 0 0 0 0 0 0 0 0 0 0 0 0 0 0 0 0 0 0 0 0 0 z_b_7
S 679 6 1 0 0 6 1 666 4986 40800016 3000 A 0 0 0 0 0 0 0 0 0 0 0 0 0 0 0 0 0 0 0 0 0 0 0 0 0 0 0 0 z_e_69
S 680 6 1 0 0 6 1 666 4857 40800016 3000 A 0 0 0 0 0 0 0 0 0 0 0 0 0 0 0 0 0 0 0 0 0 0 0 0 0 0 0 0 z_b_8
S 681 6 1 0 0 6 1 666 4863 40800016 3000 A 0 0 0 0 0 0 0 0 0 0 0 0 0 0 0 0 0 0 0 0 0 0 0 0 0 0 0 0 z_b_10
S 682 6 1 0 0 6 1 666 4870 40800016 3000 A 0 0 0 0 0 0 0 0 0 0 0 0 0 0 0 0 0 0 0 0 0 0 0 0 0 0 0 0 z_b_11
S 683 6 1 0 0 6 1 666 4993 40800016 3000 A 0 0 0 0 0 0 0 0 0 0 0 0 0 0 0 0 0 0 0 0 0 0 0 0 0 0 0 0 z_e_76
S 684 6 1 0 0 6 1 666 5000 40800016 3000 A 0 0 0 0 0 0 0 0 0 0 0 0 0 0 0 0 0 0 0 0 0 0 0 0 0 0 0 0 z_b_12
S 685 6 1 0 0 6 1 666 5007 40800016 3000 A 0 0 0 0 0 0 0 0 0 0 0 0 0 0 0 0 0 0 0 0 0 0 0 0 0 0 0 0 z_b_14
S 686 6 1 0 0 6 1 666 5014 40800016 3000 A 0 0 0 0 0 0 0 0 0 0 0 0 0 0 0 0 0 0 0 0 0 0 0 0 0 0 0 0 z_b_15
S 687 6 1 0 0 6 1 666 5021 40800016 3000 A 0 0 0 0 0 0 0 0 0 0 0 0 0 0 0 0 0 0 0 0 0 0 0 0 0 0 0 0 z_e_83
S 688 23 5 0 0 0 693 582 4762 10 0 A 0 0 0 0 0 0 0 0 0 0 0 0 0 0 0 0 0 0 0 0 0 0 0 0 0 0 0 0 dosplineint_2d
S 689 7 3 1 0 98 1 688 4945 20000014 10003000 A 0 0 0 0 0 0 0 0 0 0 0 0 0 0 0 0 0 0 0 0 0 0 0 0 0 0 0 0 old_mesh
S 690 7 3 1 0 104 1 688 4954 20000014 10003000 A 0 0 0 0 0 0 0 0 0 0 0 0 0 0 0 0 0 0 0 0 0 0 0 0 0 0 0 0 old_vec
S 691 7 3 1 0 101 1 688 4962 20000014 10003000 A 0 0 0 0 0 0 0 0 0 0 0 0 0 0 0 0 0 0 0 0 0 0 0 0 0 0 0 0 new_mesh
S 692 7 3 2 0 107 1 688 4971 20000014 10003000 A 0 0 0 0 0 0 0 0 0 0 0 0 0 0 0 0 0 0 0 0 0 0 0 0 0 0 0 0 new_vec
S 693 14 5 0 0 0 1 688 4762 20000010 400000 A 0 0 0 0 0 0 0 28 4 0 0 0 0 0 0 0 0 0 0 0 0 244 0 582 0 0 0 0 dosplineint_2d
F 693 4 689 690 691 692
S 694 6 1 0 0 6 1 688 4807 40800016 3000 A 0 0 0 0 0 0 0 0 0 0 0 0 0 0 0 0 0 0 0 0 0 0 0 0 0 0 0 0 z_b_0
S 695 6 1 0 0 6 1 688 4813 40800016 3000 A 0 0 0 0 0 0 0 0 0 0 0 0 0 0 0 0 0 0 0 0 0 0 0 0 0 0 0 0 z_b_2
S 696 6 1 0 0 6 1 688 4819 40800016 3000 A 0 0 0 0 0 0 0 0 0 0 0 0 0 0 0 0 0 0 0 0 0 0 0 0 0 0 0 0 z_b_3
S 697 6 1 0 0 6 1 688 5028 40800016 3000 A 0 0 0 0 0 0 0 0 0 0 0 0 0 0 0 0 0 0 0 0 0 0 0 0 0 0 0 0 z_e_78
S 698 6 1 0 0 6 1 688 4832 40800016 3000 A 0 0 0 0 0 0 0 0 0 0 0 0 0 0 0 0 0 0 0 0 0 0 0 0 0 0 0 0 z_b_4
S 699 6 1 0 0 6 1 688 4838 40800016 3000 A 0 0 0 0 0 0 0 0 0 0 0 0 0 0 0 0 0 0 0 0 0 0 0 0 0 0 0 0 z_b_6
S 700 6 1 0 0 6 1 688 4844 40800016 3000 A 0 0 0 0 0 0 0 0 0 0 0 0 0 0 0 0 0 0 0 0 0 0 0 0 0 0 0 0 z_b_7
S 701 6 1 0 0 6 1 688 5035 40800016 3000 A 0 0 0 0 0 0 0 0 0 0 0 0 0 0 0 0 0 0 0 0 0 0 0 0 0 0 0 0 z_e_85
S 702 6 1 0 0 6 1 688 4857 40800016 3000 A 0 0 0 0 0 0 0 0 0 0 0 0 0 0 0 0 0 0 0 0 0 0 0 0 0 0 0 0 z_b_8
S 703 6 1 0 0 6 1 688 4863 40800016 3000 A 0 0 0 0 0 0 0 0 0 0 0 0 0 0 0 0 0 0 0 0 0 0 0 0 0 0 0 0 z_b_10
S 704 6 1 0 0 6 1 688 4870 40800016 3000 A 0 0 0 0 0 0 0 0 0 0 0 0 0 0 0 0 0 0 0 0 0 0 0 0 0 0 0 0 z_b_11
S 705 6 1 0 0 6 1 688 5042 40800016 3000 A 0 0 0 0 0 0 0 0 0 0 0 0 0 0 0 0 0 0 0 0 0 0 0 0 0 0 0 0 z_b_13
S 706 6 1 0 0 6 1 688 5007 40800016 3000 A 0 0 0 0 0 0 0 0 0 0 0 0 0 0 0 0 0 0 0 0 0 0 0 0 0 0 0 0 z_b_14
S 707 6 1 0 0 6 1 688 5049 40800016 3000 A 0 0 0 0 0 0 0 0 0 0 0 0 0 0 0 0 0 0 0 0 0 0 0 0 0 0 0 0 z_e_95
S 708 6 1 0 0 6 1 688 5056 40800016 3000 A 0 0 0 0 0 0 0 0 0 0 0 0 0 0 0 0 0 0 0 0 0 0 0 0 0 0 0 0 z_e_98
S 709 6 1 0 0 6 1 688 5014 40800016 3000 A 0 0 0 0 0 0 0 0 0 0 0 0 0 0 0 0 0 0 0 0 0 0 0 0 0 0 0 0 z_b_15
S 710 6 1 0 0 6 1 688 5063 40800016 3000 A 0 0 0 0 0 0 0 0 0 0 0 0 0 0 0 0 0 0 0 0 0 0 0 0 0 0 0 0 z_b_17
S 711 6 1 0 0 6 1 688 5070 40800016 3000 A 0 0 0 0 0 0 0 0 0 0 0 0 0 0 0 0 0 0 0 0 0 0 0 0 0 0 0 0 z_b_18
S 712 6 1 0 0 6 1 688 5077 40800016 3000 A 0 0 0 0 0 0 0 0 0 0 0 0 0 0 0 0 0 0 0 0 0 0 0 0 0 0 0 0 z_b_20
S 713 6 1 0 0 6 1 688 5084 40800016 3000 A 0 0 0 0 0 0 0 0 0 0 0 0 0 0 0 0 0 0 0 0 0 0 0 0 0 0 0 0 z_b_21
S 714 6 1 0 0 6 1 688 5091 40800016 3000 A 0 0 0 0 0 0 0 0 0 0 0 0 0 0 0 0 0 0 0 0 0 0 0 0 0 0 0 0 z_e_108
S 715 6 1 0 0 6 1 688 5099 40800016 3000 A 0 0 0 0 0 0 0 0 0 0 0 0 0 0 0 0 0 0 0 0 0 0 0 0 0 0 0 0 z_e_111
A 17 1 0 0 0 6 609 0 0 0 0 0 0 0 0 0 0 0 0 0
A 18 1 0 0 0 6 607 0 0 0 0 0 0 0 0 0 0 0 0 0
A 19 1 0 0 0 6 610 0 0 0 0 0 0 0 0 0 0 0 0 0
A 20 1 0 0 0 6 608 0 0 0 0 0 0 0 0 0 0 0 0 0
A 21 1 0 0 0 6 613 0 0 0 0 0 0 0 0 0 0 0 0 0
A 22 1 0 0 0 6 611 0 0 0 0 0 0 0 0 0 0 0 0 0
A 23 1 0 0 0 6 614 0 0 0 0 0 0 0 0 0 0 0 0 0
A 24 1 0 0 0 6 612 0 0 0 0 0 0 0 0 0 0 0 0 0
A 25 1 0 0 0 6 617 0 0 0 0 0 0 0 0 0 0 0 0 0
A 26 1 0 0 0 6 615 0 0 0 0 0 0 0 0 0 0 0 0 0
A 27 1 0 0 0 6 618 0 0 0 0 0 0 0 0 0 0 0 0 0
A 28 1 0 0 0 6 616 0 0 0 0 0 0 0 0 0 0 0 0 0
A 29 1 0 0 0 6 628 0 0 0 0 0 0 0 0 0 0 0 0 0
A 30 1 0 0 0 6 626 0 0 0 0 0 0 0 0 0 0 0 0 0
A 31 1 0 0 0 6 629 0 0 0 0 0 0 0 0 0 0 0 0 0
A 32 1 0 0 0 6 627 0 0 0 0 0 0 0 0 0 0 0 0 0
A 33 1 0 0 0 6 632 0 0 0 0 0 0 0 0 0 0 0 0 0
A 34 1 0 0 0 6 630 0 0 0 0 0 0 0 0 0 0 0 0 0
A 35 1 0 0 0 6 633 0 0 0 0 0 0 0 0 0 0 0 0 0
A 36 1 0 0 0 6 631 0 0 0 0 0 0 0 0 0 0 0 0 0
A 37 1 0 0 0 6 636 0 0 0 0 0 0 0 0 0 0 0 0 0
A 38 1 0 0 0 6 634 0 0 0 0 0 0 0 0 0 0 0 0 0
A 39 1 0 0 0 6 637 0 0 0 0 0 0 0 0 0 0 0 0 0
A 40 1 0 0 0 6 635 0 0 0 0 0 0 0 0 0 0 0 0 0
A 41 1 0 0 0 6 647 0 0 0 0 0 0 0 0 0 0 0 0 0
A 42 1 0 0 0 6 645 0 0 0 0 0 0 0 0 0 0 0 0 0
A 43 1 0 0 0 6 648 0 0 0 0 0 0 0 0 0 0 0 0 0
A 44 1 0 0 0 6 646 0 0 0 0 0 0 0 0 0 0 0 0 0
A 45 1 0 0 0 6 651 0 0 0 0 0 0 0 0 0 0 0 0 0
A 46 1 0 0 0 6 649 0 0 0 0 0 0 0 0 0 0 0 0 0
A 47 1 0 0 0 6 652 0 0 0 0 0 0 0 0 0 0 0 0 0
A 48 1 0 0 0 6 650 0 0 0 0 0 0 0 0 0 0 0 0 0
A 49 1 0 0 0 6 655 0 0 0 0 0 0 0 0 0 0 0 0 0
A 50 1 0 0 0 6 653 0 0 0 0 0 0 0 0 0 0 0 0 0
A 51 1 0 0 0 6 656 0 0 0 0 0 0 0 0 0 0 0 0 0
A 52 1 0 0 0 6 654 0 0 0 0 0 0 0 0 0 0 0 0 0
A 53 1 0 0 0 6 664 0 0 0 0 0 0 0 0 0 0 0 0 0
A 54 1 0 0 0 6 662 0 0 0 0 0 0 0 0 0 0 0 0 0
A 55 1 0 0 0 6 665 0 0 0 0 0 0 0 0 0 0 0 0 0
A 56 1 0 0 0 6 663 0 0 0 0 0 0 0 0 0 0 0 0 0
A 57 1 0 0 0 6 674 0 0 0 0 0 0 0 0 0 0 0 0 0
A 58 1 0 0 0 6 672 0 0 0 0 0 0 0 0 0 0 0 0 0
A 59 1 0 0 0 6 675 0 0 0 0 0 0 0 0 0 0 0 0 0
A 60 1 0 0 0 6 673 0 0 0 0 0 0 0 0 0 0 0 0 0
A 61 1 0 0 0 6 678 0 0 0 0 0 0 0 0 0 0 0 0 0
A 62 1 0 0 0 6 676 0 0 0 0 0 0 0 0 0 0 0 0 0
A 63 1 0 0 0 6 679 0 0 0 0 0 0 0 0 0 0 0 0 0
A 64 1 0 0 0 6 677 0 0 0 0 0 0 0 0 0 0 0 0 0
A 65 1 0 0 10 6 682 0 0 0 0 0 0 0 0 0 0 0 0 0
A 66 1 0 0 0 6 680 0 0 0 0 0 0 0 0 0 0 0 0 0
A 67 1 0 0 3 6 683 0 0 0 0 0 0 0 0 0 0 0 0 0
A 68 1 0 0 2 6 681 0 0 0 0 0 0 0 0 0 0 0 0 0
A 69 1 0 0 0 6 686 0 0 0 0 0 0 0 0 0 0 0 0 0
A 70 1 0 0 11 6 684 0 0 0 0 0 0 0 0 0 0 0 0 0
A 71 1 0 0 0 6 687 0 0 0 0 0 0 0 0 0 0 0 0 0
A 72 1 0 0 0 6 685 0 0 0 0 0 0 0 0 0 0 0 0 0
A 73 1 0 0 0 6 696 0 0 0 0 0 0 0 0 0 0 0 0 0
A 74 1 0 0 0 6 694 0 0 0 0 0 0 0 0 0 0 0 0 0
A 75 1 0 0 13 6 697 0 0 0 0 0 0 0 0 0 0 0 0 0
A 76 1 0 0 0 6 695 0 0 0 0 0 0 0 0 0 0 0 0 0
A 77 1 0 0 0 6 700 0 0 0 0 0 0 0 0 0 0 0 0 0
A 78 1 0 0 15 6 698 0 0 0 0 0 0 0 0 0 0 0 0 0
A 79 1 0 0 0 6 701 0 0 0 0 0 0 0 0 0 0 0 0 0
A 80 1 0 0 0 6 699 0 0 0 0 0 0 0 0 0 0 0 0 0
A 81 1 0 0 0 6 706 0 0 0 0 0 0 0 0 0 0 0 0 0
A 82 1 0 0 0 6 702 0 0 0 0 0 0 0 0 0 0 0 0 0
A 83 1 0 0 0 6 707 0 0 0 0 0 0 0 0 0 0 0 0 0
A 84 1 0 0 0 6 704 0 0 0 0 0 0 0 0 0 0 0 0 0
A 85 1 0 0 0 6 703 0 0 0 0 0 0 0 0 0 0 0 0 0
A 86 1 0 0 0 6 708 0 0 0 0 0 0 0 0 0 0 0 0 0
A 87 1 0 0 0 6 705 0 0 0 0 0 0 0 0 0 0 0 0 0
A 88 1 0 0 0 6 713 0 0 0 0 0 0 0 0 0 0 0 0 0
A 89 1 0 0 0 6 709 0 0 0 0 0 0 0 0 0 0 0 0 0
A 90 1 0 0 0 6 714 0 0 0 0 0 0 0 0 0 0 0 0 0
A 91 1 0 0 0 6 711 0 0 0 0 0 0 0 0 0 0 0 0 0
A 92 1 0 0 0 6 710 0 0 0 0 0 0 0 0 0 0 0 0 0
A 93 1 0 0 0 6 715 0 0 0 0 0 0 0 0 0 0 0 0 0
A 94 1 0 0 0 6 712 0 0 0 0 0 0 0 0 0 0 0 0 0
Z
Z
