V26 stick_base
14 stick_base.F90 S582 0
04/24/2012  15:51:15
use fft_types private
use io_global private
use fft_types private
use io_global private
enduse
D 56 21 6 2 39 38 0 1 0 0 1
 22 26 34 22 26 24
 28 32 36 28 32 30
D 59 21 6 1 0 19 0 0 0 0 0
 0 19 0 3 19 0
D 62 21 6 1 40 43 1 1 0 0 1
 3 41 3 3 41 42
D 65 21 6 1 44 47 1 1 0 0 1
 3 45 3 3 45 46
D 68 21 9 1 48 51 1 1 0 0 1
 3 49 3 3 49 50
D 71 21 9 1 52 55 1 1 0 0 1
 3 53 3 3 53 54
D 74 21 9 1 56 59 1 1 0 0 1
 3 57 3 3 57 58
D 77 21 6 2 60 74 0 0 1 0 0
 62 64 3 65 66 67
 69 70 67 71 72 73
D 80 21 6 2 60 74 0 0 1 0 0
 62 64 3 65 66 67
 69 70 67 71 72 73
D 83 21 6 2 60 74 0 0 1 0 0
 62 64 3 65 66 67
 69 70 67 71 72 73
D 86 21 6 1 75 78 1 1 0 0 1
 3 76 3 3 76 77
D 89 21 6 1 79 82 1 1 0 0 1
 3 80 3 3 80 81
D 92 21 9 1 83 86 1 1 0 0 1
 3 84 3 3 84 85
D 95 21 9 1 87 90 1 1 0 0 1
 3 88 3 3 88 89
D 98 21 9 1 91 94 1 1 0 0 1
 3 92 3 3 92 93
D 101 21 6 2 95 109 0 0 1 0 0
 97 99 3 100 101 102
 104 105 102 106 107 108
D 104 21 6 1 110 113 1 1 0 0 1
 3 111 3 3 111 112
D 107 21 6 1 114 117 1 1 0 0 1
 3 115 3 3 115 116
D 110 21 6 1 118 121 1 1 0 0 1
 3 119 3 3 119 120
D 113 21 6 1 122 125 1 1 0 0 1
 3 123 3 3 123 124
D 116 21 6 1 126 129 1 1 0 0 1
 3 127 3 3 127 128
D 119 21 6 1 130 133 1 1 0 0 1
 3 131 3 3 131 132
D 122 21 6 2 134 147 0 0 1 0 0
 136 138 3 139 140 141
 142 143 141 144 145 146
D 125 21 6 2 134 147 0 0 1 0 0
 136 138 3 139 140 141
 142 143 141 144 145 146
D 128 21 6 2 134 147 0 0 1 0 0
 136 138 3 139 140 141
 142 143 141 144 145 146
D 131 21 6 1 148 151 1 1 0 0 1
 3 149 3 3 149 150
D 134 21 6 1 152 155 1 1 0 0 1
 3 153 3 3 153 154
D 137 21 6 1 156 159 1 1 0 0 1
 3 157 3 3 157 158
D 140 21 6 1 160 163 1 1 0 0 1
 3 161 3 3 161 162
D 143 21 6 1 164 167 1 1 0 0 1
 3 165 3 3 165 166
D 146 21 6 1 168 171 1 1 0 0 1
 3 169 3 3 169 170
D 149 21 6 1 172 175 1 1 0 0 1
 3 173 3 3 173 174
D 152 21 6 1 176 179 1 1 0 0 1
 3 177 3 3 177 178
D 155 21 6 2 180 193 0 0 1 0 0
 182 184 3 185 186 187
 188 189 187 190 191 192
D 158 21 6 2 180 193 0 0 1 0 0
 182 184 3 185 186 187
 188 189 187 190 191 192
D 161 21 6 2 180 193 0 0 1 0 0
 182 184 3 185 186 187
 188 189 187 190 191 192
D 164 21 6 1 194 197 1 1 0 0 1
 3 195 3 3 195 196
D 167 21 6 1 198 201 1 1 0 0 1
 3 199 3 3 199 200
D 170 21 6 1 202 205 1 1 0 0 1
 3 203 3 3 203 204
D 173 21 6 1 206 209 1 1 0 0 1
 3 207 3 3 207 208
D 176 21 6 1 210 213 1 1 0 0 1
 3 211 3 3 211 212
D 179 21 6 1 214 217 1 1 0 0 1
 3 215 3 3 215 216
D 182 21 6 1 218 221 1 1 0 0 1
 3 219 3 3 219 220
D 185 21 6 1 222 225 1 1 0 0 1
 3 223 3 3 223 224
D 188 21 6 1 226 229 1 1 0 0 1
 3 227 3 3 227 228
D 191 21 6 1 230 233 1 1 0 0 1
 3 231 3 3 231 232
D 194 21 6 1 234 237 1 1 0 0 1
 3 235 3 3 235 236
D 197 21 6 1 238 241 1 1 0 0 1
 3 239 3 3 239 240
D 200 21 6 1 242 245 1 1 0 0 1
 3 243 3 3 243 244
D 203 21 6 1 246 249 1 1 0 0 1
 3 247 3 3 247 248
D 206 21 6 2 250 263 0 0 1 0 0
 252 254 3 255 256 257
 258 259 257 260 261 262
D 209 21 6 2 250 263 0 0 1 0 0
 252 254 3 255 256 257
 258 259 257 260 261 262
D 212 21 6 2 250 263 0 0 1 0 0
 252 254 3 255 256 257
 258 259 257 260 261 262
D 215 21 6 1 264 267 1 1 0 0 1
 3 265 3 3 265 266
D 218 21 6 1 268 271 1 1 0 0 1
 3 269 3 3 269 270
D 221 21 6 1 272 275 1 1 0 0 1
 3 273 3 3 273 274
D 224 21 6 1 276 279 1 1 0 0 1
 3 277 3 3 277 278
D 227 21 6 1 280 283 1 1 0 0 1
 3 281 3 3 281 282
D 230 21 6 1 284 287 1 1 0 0 1
 3 285 3 3 285 286
D 233 21 6 1 288 291 1 1 0 0 1
 3 289 3 3 289 290
D 236 21 6 1 292 295 1 1 0 0 1
 3 293 3 3 293 294
D 239 21 6 1 296 299 1 1 0 0 1
 3 297 3 3 297 298
D 242 21 6 1 300 303 1 1 0 0 1
 3 301 3 3 301 302
D 245 21 6 1 304 307 1 1 0 0 1
 3 305 3 3 305 306
D 410 24 976 1584 975 7
D 416 21 9 1 3 103 0 0 0 0 0
 0 103 3 3 103 103
D 419 21 9 1 3 103 0 0 0 0 0
 0 103 3 3 103 103
D 422 21 9 1 3 103 0 0 0 0 0
 0 103 3 3 103 103
S 582 24 0 0 0 9 1 0 4658 10015 0 A 0 0 0 0 0 0 0 0 0 0 0 0 0 0 0 0 0 0 0 0 0 12 0 0 0 0 0 0 stick_base
S 585 23 0 0 0 6 599 582 4685 14 0 A 0 0 0 0 0 0 0 0 0 0 0 0 0 0 0 0 0 0 0 0 0 0 0 582 0 0 0 0 ionode
S 586 3 0 0 0 6 1 1 0 0 0 A 0 0 0 0 0 0 0 0 0 8 0 0 0 0 0 0 0 0 0 0 0 0 0 0 0 0 0 0 6
R 599 6 5 io_global ionode
S 618 27 0 0 0 9 644 582 4892 0 0 A 0 0 0 0 0 0 0 0 0 0 0 0 0 0 0 0 0 0 0 0 0 0 0 582 0 0 0 0 sticks_maps
S 619 27 0 0 0 9 730 582 4904 0 0 A 0 0 0 0 0 0 0 0 0 0 0 0 0 0 0 0 0 0 0 0 0 0 0 582 0 0 0 0 sticks_sort
S 620 27 0 0 0 9 753 582 4916 0 0 A 0 0 0 0 0 0 0 0 0 0 0 0 0 0 0 0 0 0 0 0 0 0 0 582 0 0 0 0 sticks_countg
S 621 19 0 0 0 9 1 582 4930 4000 0 A 0 0 0 0 0 0 0 0 0 0 0 0 0 0 0 0 3 1 0 0 0 0 0 582 0 0 0 0 sticks_dist
O 621 1 641
S 622 27 0 0 0 9 887 582 4942 0 0 A 0 0 0 0 0 0 0 0 0 0 0 0 0 0 0 0 0 0 0 0 0 0 0 582 0 0 0 0 sticks_pairup
S 623 7 6 0 0 56 1 582 4956 10a00004 59 A 0 0 0 0 0 0 631 0 0 0 633 0 0 0 0 0 0 0 0 630 0 0 632 582 0 0 0 0 sticks_owner
S 624 27 0 0 0 9 1268 582 4969 0 0 A 0 0 0 0 0 0 0 0 0 0 0 0 0 0 0 0 0 0 0 0 0 0 0 582 0 0 0 0 sticks_deallocate
S 625 27 0 0 0 9 1242 582 4987 0 0 A 0 0 0 0 0 0 0 0 0 0 0 0 0 0 0 0 0 0 0 0 0 0 0 582 0 0 0 0 pstickset
S 626 27 0 0 0 9 687 582 4997 0 0 A 0 0 0 0 0 0 0 0 0 0 0 0 0 0 0 0 0 0 0 0 0 0 0 582 0 0 0 0 sticks_maps_scalar
S 627 6 4 0 0 6 628 582 5016 40800016 0 A 0 0 0 0 0 0 0 0 0 0 0 0 642 0 0 0 0 0 0 0 0 0 0 582 0 0 0 0 z_b_0
S 628 6 4 0 0 6 1 582 5022 40800016 0 A 0 0 0 0 0 4 0 0 0 0 0 0 642 0 0 0 0 0 0 0 0 0 0 582 0 0 0 0 z_b_1
S 629 3 0 0 0 6 1 1 0 0 0 A 0 0 0 0 0 0 0 0 0 24 0 0 0 0 0 0 0 0 0 0 0 0 0 0 0 0 0 0 6
S 630 8 4 0 0 59 1 582 5028 40822064 1020 A 0 0 0 0 0 0 0 0 0 0 0 0 643 0 0 0 0 0 0 0 0 0 0 582 0 0 0 0 sticks_owner$sd
S 631 6 4 0 0 7 632 582 5044 40802061 1020 A 0 0 0 0 0 96 0 0 0 0 0 0 643 0 0 0 0 0 0 0 0 0 0 582 0 0 0 0 sticks_owner$p
S 632 6 4 0 0 7 630 582 5059 40802060 1020 A 0 0 0 0 0 104 0 0 0 0 0 0 643 0 0 0 0 0 0 0 0 0 0 582 0 0 0 0 sticks_owner$o
S 633 22 1 0 0 9 1 582 5074 40000000 1000 A 0 0 0 0 0 0 0 623 0 0 0 0 630 0 0 0 0 0 0 0 0 0 0 582 0 0 0 0 sticks_owner$arrdsc
S 634 3 0 0 0 6 1 1 0 0 0 A 0 0 0 0 0 0 0 0 0 13 0 0 0 0 0 0 0 0 0 0 0 0 0 0 0 0 0 0 6
S 635 3 0 0 0 6 1 1 0 0 0 A 0 0 0 0 0 0 0 0 0 14 0 0 0 0 0 0 0 0 0 0 0 0 0 0 0 0 0 0 6
S 636 3 0 0 0 6 1 1 0 0 0 A 0 0 0 0 0 0 0 0 0 19 0 0 0 0 0 0 0 0 0 0 0 0 0 0 0 0 0 0 6
S 637 3 0 0 0 6 1 1 0 0 0 A 0 0 0 0 0 0 0 0 0 20 0 0 0 0 0 0 0 0 0 0 0 0 0 0 0 0 0 0 6
S 638 3 0 0 0 6 1 1 0 0 0 A 0 0 0 0 0 0 0 0 0 17 0 0 0 0 0 0 0 0 0 0 0 0 0 0 0 0 0 0 6
S 639 3 0 0 0 6 1 1 0 0 0 A 0 0 0 0 0 0 0 0 0 23 0 0 0 0 0 0 0 0 0 0 0 0 0 0 0 0 0 0 6
S 640 3 0 0 0 6 1 1 0 0 0 A 0 0 0 0 0 0 0 0 0 7 0 0 0 0 0 0 0 0 0 0 0 0 0 0 0 0 0 0 6
S 641 27 0 0 0 9 802 582 5094 10010 400000 A 0 0 0 0 0 0 4 0 0 0 0 0 0 0 0 0 0 0 0 0 0 0 0 582 0 0 0 0 sticks_dist1
Q 641 621 0
S 642 11 0 0 0 9 605 582 5107 40800010 801000 A 0 0 0 0 0 8 0 0 627 628 0 0 0 0 0 0 0 0 0 0 0 0 0 0 0 0 0 0 _stick_base$4
S 643 11 0 0 0 9 642 582 5121 40800000 801000 A 0 0 0 0 0 112 0 0 631 630 0 0 0 0 0 0 0 0 0 0 0 0 0 0 0 0 0 0 _stick_base$0
S 644 23 5 0 0 0 657 582 4892 0 0 A 0 0 0 0 0 0 0 0 0 0 0 0 0 0 0 0 0 0 0 0 0 0 0 0 0 0 0 0 sticks_maps
S 645 1 3 1 0 16 1 644 5135 14 3000 A 0 0 0 0 0 0 0 0 0 0 0 0 0 0 0 0 0 0 0 0 0 0 0 0 0 0 0 0 tk
S 646 7 3 1 0 62 1 644 5138 20000014 10003000 A 0 0 0 0 0 0 0 0 0 0 0 0 0 0 0 0 0 0 0 0 0 0 0 0 0 0 0 0 ub
S 647 7 3 1 0 65 1 644 5141 20000014 10003000 A 0 0 0 0 0 0 0 0 0 0 0 0 0 0 0 0 0 0 0 0 0 0 0 0 0 0 0 0 lb
S 648 7 3 1 0 68 1 644 5144 20000014 10003000 A 0 0 0 0 0 0 0 0 0 0 0 0 0 0 0 0 0 0 0 0 0 0 0 0 0 0 0 0 b1
S 649 7 3 1 0 71 1 644 5147 20000014 10003000 A 0 0 0 0 0 0 0 0 0 0 0 0 0 0 0 0 0 0 0 0 0 0 0 0 0 0 0 0 b2
S 650 7 3 1 0 74 1 644 5150 20000014 10003000 A 0 0 0 0 0 0 0 0 0 0 0 0 0 0 0 0 0 0 0 0 0 0 0 0 0 0 0 0 b3
S 651 1 3 1 0 9 1 644 5153 14 3000 A 0 0 0 0 0 0 0 0 0 0 0 0 0 0 0 0 0 0 0 0 0 0 0 0 0 0 0 0 gcut
S 652 1 3 1 0 9 1 644 5158 14 3000 A 0 0 0 0 0 0 0 0 0 0 0 0 0 0 0 0 0 0 0 0 0 0 0 0 0 0 0 0 gcutw
S 653 1 3 1 0 9 1 644 5164 14 3000 A 0 0 0 0 0 0 0 0 0 0 0 0 0 0 0 0 0 0 0 0 0 0 0 0 0 0 0 0 gcuts
S 654 7 3 2 0 77 1 644 5170 800214 3000 A 0 0 0 0 0 0 0 0 0 0 0 0 0 0 0 0 0 0 0 0 0 0 0 0 0 0 0 0 st
S 655 7 3 2 0 80 1 644 5173 800214 3000 A 0 0 0 0 0 0 0 0 0 0 0 0 0 0 0 0 0 0 0 0 0 0 0 0 0 0 0 0 stw
S 656 7 3 2 0 83 1 644 5177 800214 3000 A 0 0 0 0 0 0 0 0 0 0 0 0 0 0 0 0 0 0 0 0 0 0 0 0 0 0 0 0 sts
S 657 14 5 0 0 0 1 644 4892 20000200 400000 A 0 0 0 0 0 0 0 13 12 0 0 0 0 0 0 0 0 0 0 0 0 38 0 582 0 0 0 0 sticks_maps
F 657 12 645 646 647 648 649 650 651 652 653 654 655 656
S 658 3 0 0 0 6 1 1 0 0 0 A 0 0 0 0 0 0 0 0 0 2 0 0 0 0 0 0 0 0 0 0 0 0 0 0 0 0 0 0 6
S 659 6 1 0 0 6 1 644 5181 40800016 3000 A 0 0 0 0 0 0 0 0 0 0 0 0 0 0 0 0 0 0 0 0 0 0 0 0 0 0 0 0 z_b_0_1
S 660 6 1 0 0 6 1 644 5189 40800016 3000 A 0 0 0 0 0 0 0 0 0 0 0 0 0 0 0 0 0 0 0 0 0 0 0 0 0 0 0 0 z_b_2
S 661 6 1 0 0 6 1 644 5195 40800016 3000 A 0 0 0 0 0 0 0 0 0 0 0 0 0 0 0 0 0 0 0 0 0 0 0 0 0 0 0 0 z_b_3
S 662 6 1 0 0 6 1 644 5201 40800016 3000 A 0 0 0 0 0 0 0 0 0 0 0 0 0 0 0 0 0 0 0 0 0 0 0 0 0 0 0 0 z_e_888
S 663 6 1 0 0 6 1 644 5209 40800016 3000 A 0 0 0 0 0 0 0 0 0 0 0 0 0 0 0 0 0 0 0 0 0 0 0 0 0 0 0 0 z_b_4
S 664 6 1 0 0 6 1 644 5215 40800016 3000 A 0 0 0 0 0 0 0 0 0 0 0 0 0 0 0 0 0 0 0 0 0 0 0 0 0 0 0 0 z_b_6
S 665 6 1 0 0 6 1 644 5221 40800016 3000 A 0 0 0 0 0 0 0 0 0 0 0 0 0 0 0 0 0 0 0 0 0 0 0 0 0 0 0 0 z_b_7
S 666 6 1 0 0 6 1 644 5227 40800016 3000 A 0 0 0 0 0 0 0 0 0 0 0 0 0 0 0 0 0 0 0 0 0 0 0 0 0 0 0 0 z_e_895
S 667 6 1 0 0 6 1 644 5235 40800016 3000 A 0 0 0 0 0 0 0 0 0 0 0 0 0 0 0 0 0 0 0 0 0 0 0 0 0 0 0 0 z_b_8
S 668 6 1 0 0 6 1 644 5241 40800016 3000 A 0 0 0 0 0 0 0 0 0 0 0 0 0 0 0 0 0 0 0 0 0 0 0 0 0 0 0 0 z_b_10
S 669 6 1 0 0 6 1 644 5248 40800016 3000 A 0 0 0 0 0 0 0 0 0 0 0 0 0 0 0 0 0 0 0 0 0 0 0 0 0 0 0 0 z_b_11
S 670 6 1 0 0 6 1 644 5255 40800016 3000 A 0 0 0 0 0 0 0 0 0 0 0 0 0 0 0 0 0 0 0 0 0 0 0 0 0 0 0 0 z_e_902
S 671 6 1 0 0 6 1 644 5263 40800016 3000 A 0 0 0 0 0 0 0 0 0 0 0 0 0 0 0 0 0 0 0 0 0 0 0 0 0 0 0 0 z_b_12
S 672 6 1 0 0 6 1 644 5270 40800016 3000 A 0 0 0 0 0 0 0 0 0 0 0 0 0 0 0 0 0 0 0 0 0 0 0 0 0 0 0 0 z_b_14
S 673 6 1 0 0 6 1 644 5277 40800016 3000 A 0 0 0 0 0 0 0 0 0 0 0 0 0 0 0 0 0 0 0 0 0 0 0 0 0 0 0 0 z_b_15
S 674 6 1 0 0 6 1 644 5284 40800016 3000 A 0 0 0 0 0 0 0 0 0 0 0 0 0 0 0 0 0 0 0 0 0 0 0 0 0 0 0 0 z_e_909
S 675 6 1 0 0 6 1 644 5292 40800016 3000 A 0 0 0 0 0 0 0 0 0 0 0 0 0 0 0 0 0 0 0 0 0 0 0 0 0 0 0 0 z_b_16
S 676 6 1 0 0 6 1 644 5299 40800016 3000 A 0 0 0 0 0 0 0 0 0 0 0 0 0 0 0 0 0 0 0 0 0 0 0 0 0 0 0 0 z_b_18
S 677 6 1 0 0 6 1 644 5306 40800016 3000 A 0 0 0 0 0 0 0 0 0 0 0 0 0 0 0 0 0 0 0 0 0 0 0 0 0 0 0 0 z_b_19
S 678 6 1 0 0 6 1 644 5313 40800016 3000 A 0 0 0 0 0 0 0 0 0 0 0 0 0 0 0 0 0 0 0 0 0 0 0 0 0 0 0 0 z_e_916
S 679 6 1 0 0 6 1 644 5321 40800016 3000 A 0 0 0 0 0 0 0 0 0 0 0 0 0 0 0 0 0 0 0 0 0 0 0 0 0 0 0 0 z_e_919
S 680 6 1 0 0 6 1 644 5329 40800016 3000 A 0 0 0 0 0 0 0 0 0 0 0 0 0 0 0 0 0 0 0 0 0 0 0 0 0 0 0 0 z_e_921
S 681 6 1 0 0 6 1 644 5337 40800016 3000 A 0 0 0 0 0 0 0 0 0 0 0 0 0 0 0 0 0 0 0 0 0 0 0 0 0 0 0 0 z_e_927
S 682 6 1 0 0 6 1 644 5345 40800016 3000 A 0 0 0 0 0 0 0 0 0 0 0 0 0 0 0 0 0 0 0 0 0 0 0 0 0 0 0 0 z_e_922
S 683 6 1 0 0 6 1 644 5353 40800016 3000 A 0 0 0 0 0 0 0 0 0 0 0 0 0 0 0 0 0 0 0 0 0 0 0 0 0 0 0 0 z_e_923
S 684 6 1 0 0 6 1 644 5361 40800016 3000 A 0 0 0 0 0 0 0 0 0 0 0 0 0 0 0 0 0 0 0 0 0 0 0 0 0 0 0 0 z_e_932
S 685 6 1 0 0 6 1 644 5369 40800016 3000 A 0 0 0 0 0 0 0 0 0 0 0 0 0 0 0 0 0 0 0 0 0 0 0 0 0 0 0 0 z_e_934
S 686 6 1 0 0 6 1 644 5377 40800016 3000 A 0 0 0 0 0 0 0 0 0 0 0 0 0 0 0 0 0 0 0 0 0 0 0 0 0 0 0 0 z_e_937
S 687 23 5 0 0 0 700 582 4997 0 0 A 0 0 0 0 0 0 0 0 0 0 0 0 0 0 0 0 0 0 0 0 0 0 0 0 0 0 0 0 sticks_maps_scalar
S 688 1 3 1 0 16 1 687 5385 14 3000 A 0 0 0 0 0 0 0 0 0 0 0 0 0 0 0 0 0 0 0 0 0 0 0 0 0 0 0 0 lgamma
S 689 7 3 1 0 86 1 687 5138 20000014 10003000 A 0 0 0 0 0 0 0 0 0 0 0 0 0 0 0 0 0 0 0 0 0 0 0 0 0 0 0 0 ub
S 690 7 3 1 0 89 1 687 5141 20000014 10003000 A 0 0 0 0 0 0 0 0 0 0 0 0 0 0 0 0 0 0 0 0 0 0 0 0 0 0 0 0 lb
S 691 7 3 1 0 92 1 687 5144 20000014 10003000 A 0 0 0 0 0 0 0 0 0 0 0 0 0 0 0 0 0 0 0 0 0 0 0 0 0 0 0 0 b1
S 692 7 3 1 0 95 1 687 5147 20000014 10003000 A 0 0 0 0 0 0 0 0 0 0 0 0 0 0 0 0 0 0 0 0 0 0 0 0 0 0 0 0 b2
S 693 7 3 1 0 98 1 687 5150 20000014 10003000 A 0 0 0 0 0 0 0 0 0 0 0 0 0 0 0 0 0 0 0 0 0 0 0 0 0 0 0 0 b3
S 694 1 3 1 0 9 1 687 5392 14 3000 A 0 0 0 0 0 0 0 0 0 0 0 0 0 0 0 0 0 0 0 0 0 0 0 0 0 0 0 0 gcutm
S 695 1 3 1 0 9 1 687 5398 14 3000 A 0 0 0 0 0 0 0 0 0 0 0 0 0 0 0 0 0 0 0 0 0 0 0 0 0 0 0 0 gkcut
S 696 1 3 1 0 9 1 687 5404 14 3000 A 0 0 0 0 0 0 0 0 0 0 0 0 0 0 0 0 0 0 0 0 0 0 0 0 0 0 0 0 gcutms
S 697 7 3 2 0 101 1 687 5173 800214 3000 A 0 0 0 0 0 0 0 0 0 0 0 0 0 0 0 0 0 0 0 0 0 0 0 0 0 0 0 0 stw
S 698 1 3 2 0 6 1 687 5411 14 3000 A 0 0 0 0 0 0 0 0 0 0 0 0 0 0 0 0 0 0 0 0 0 0 0 0 0 0 0 0 ngm
S 699 1 3 2 0 6 1 687 5415 14 3000 A 0 0 0 0 0 0 0 0 0 0 0 0 0 0 0 0 0 0 0 0 0 0 0 0 0 0 0 0 ngms
S 700 14 5 0 0 0 1 687 4997 20000200 400000 A 0 0 0 0 0 0 0 26 12 0 0 0 0 0 0 0 0 0 0 0 0 181 0 582 0 0 0 0 sticks_maps_scalar
F 700 12 688 689 690 691 692 693 694 695 696 697 698 699
S 701 6 1 0 0 6 1 687 5181 40800016 3000 A 0 0 0 0 0 0 0 0 0 0 0 0 0 0 0 0 0 0 0 0 0 0 0 0 0 0 0 0 z_b_0_1
S 702 6 1 0 0 6 1 687 5189 40800016 3000 A 0 0 0 0 0 0 0 0 0 0 0 0 0 0 0 0 0 0 0 0 0 0 0 0 0 0 0 0 z_b_2
S 703 6 1 0 0 6 1 687 5195 40800016 3000 A 0 0 0 0 0 0 0 0 0 0 0 0 0 0 0 0 0 0 0 0 0 0 0 0 0 0 0 0 z_b_3
S 704 6 1 0 0 6 1 687 5420 40800016 3000 A 0 0 0 0 0 0 0 0 0 0 0 0 0 0 0 0 0 0 0 0 0 0 0 0 0 0 0 0 z_e_80
S 705 6 1 0 0 6 1 687 5209 40800016 3000 A 0 0 0 0 0 0 0 0 0 0 0 0 0 0 0 0 0 0 0 0 0 0 0 0 0 0 0 0 z_b_4
S 706 6 1 0 0 6 1 687 5215 40800016 3000 A 0 0 0 0 0 0 0 0 0 0 0 0 0 0 0 0 0 0 0 0 0 0 0 0 0 0 0 0 z_b_6
S 707 6 1 0 0 6 1 687 5221 40800016 3000 A 0 0 0 0 0 0 0 0 0 0 0 0 0 0 0 0 0 0 0 0 0 0 0 0 0 0 0 0 z_b_7
S 708 6 1 0 0 6 1 687 5427 40800016 3000 A 0 0 0 0 0 0 0 0 0 0 0 0 0 0 0 0 0 0 0 0 0 0 0 0 0 0 0 0 z_e_87
S 709 6 1 0 0 6 1 687 5235 40800016 3000 A 0 0 0 0 0 0 0 0 0 0 0 0 0 0 0 0 0 0 0 0 0 0 0 0 0 0 0 0 z_b_8
S 710 6 1 0 0 6 1 687 5241 40800016 3000 A 0 0 0 0 0 0 0 0 0 0 0 0 0 0 0 0 0 0 0 0 0 0 0 0 0 0 0 0 z_b_10
S 711 6 1 0 0 6 1 687 5248 40800016 3000 A 0 0 0 0 0 0 0 0 0 0 0 0 0 0 0 0 0 0 0 0 0 0 0 0 0 0 0 0 z_b_11
S 712 6 1 0 0 6 1 687 5434 40800016 3000 A 0 0 0 0 0 0 0 0 0 0 0 0 0 0 0 0 0 0 0 0 0 0 0 0 0 0 0 0 z_e_94
S 713 6 1 0 0 6 1 687 5263 40800016 3000 A 0 0 0 0 0 0 0 0 0 0 0 0 0 0 0 0 0 0 0 0 0 0 0 0 0 0 0 0 z_b_12
S 714 6 1 0 0 6 1 687 5270 40800016 3000 A 0 0 0 0 0 0 0 0 0 0 0 0 0 0 0 0 0 0 0 0 0 0 0 0 0 0 0 0 z_b_14
S 715 6 1 0 0 6 1 687 5277 40800016 3000 A 0 0 0 0 0 0 0 0 0 0 0 0 0 0 0 0 0 0 0 0 0 0 0 0 0 0 0 0 z_b_15
S 716 6 1 0 0 6 1 687 5441 40800016 3000 A 0 0 0 0 0 0 0 0 0 0 0 0 0 0 0 0 0 0 0 0 0 0 0 0 0 0 0 0 z_e_101
S 717 6 1 0 0 6 1 687 5292 40800016 3000 A 0 0 0 0 0 0 0 0 0 0 0 0 0 0 0 0 0 0 0 0 0 0 0 0 0 0 0 0 z_b_16
S 718 6 1 0 0 6 1 687 5299 40800016 3000 A 0 0 0 0 0 0 0 0 0 0 0 0 0 0 0 0 0 0 0 0 0 0 0 0 0 0 0 0 z_b_18
S 719 6 1 0 0 6 1 687 5306 40800016 3000 A 0 0 0 0 0 0 0 0 0 0 0 0 0 0 0 0 0 0 0 0 0 0 0 0 0 0 0 0 z_b_19
S 720 6 1 0 0 6 1 687 5449 40800016 3000 A 0 0 0 0 0 0 0 0 0 0 0 0 0 0 0 0 0 0 0 0 0 0 0 0 0 0 0 0 z_e_108
S 721 3 0 0 0 6 1 1 0 0 0 A 0 0 0 0 0 0 0 0 0 3 0 0 0 0 0 0 0 0 0 0 0 0 0 0 0 0 0 0 6
S 722 6 1 0 0 6 1 687 5457 40800016 3000 A 0 0 0 0 0 0 0 0 0 0 0 0 0 0 0 0 0 0 0 0 0 0 0 0 0 0 0 0 z_e_111
S 723 6 1 0 0 6 1 687 5465 40800016 3000 A 0 0 0 0 0 0 0 0 0 0 0 0 0 0 0 0 0 0 0 0 0 0 0 0 0 0 0 0 z_e_113
S 724 6 1 0 0 6 1 687 5473 40800016 3000 A 0 0 0 0 0 0 0 0 0 0 0 0 0 0 0 0 0 0 0 0 0 0 0 0 0 0 0 0 z_e_120
S 725 6 1 0 0 6 1 687 5481 40800016 3000 A 0 0 0 0 0 0 0 0 0 0 0 0 0 0 0 0 0 0 0 0 0 0 0 0 0 0 0 0 z_e_115
S 726 6 1 0 0 6 1 687 5489 40800016 3000 A 0 0 0 0 0 0 0 0 0 0 0 0 0 0 0 0 0 0 0 0 0 0 0 0 0 0 0 0 z_e_116
S 727 6 1 0 0 6 1 687 5497 40800016 3000 A 0 0 0 0 0 0 0 0 0 0 0 0 0 0 0 0 0 0 0 0 0 0 0 0 0 0 0 0 z_e_125
S 728 6 1 0 0 6 1 687 5505 40800016 3000 A 0 0 0 0 0 0 0 0 0 0 0 0 0 0 0 0 0 0 0 0 0 0 0 0 0 0 0 0 z_e_127
S 729 6 1 0 0 6 1 687 5513 40800016 3000 A 0 0 0 0 0 0 0 0 0 0 0 0 0 0 0 0 0 0 0 0 0 0 0 0 0 0 0 0 z_e_130
S 730 23 5 0 0 0 736 582 4904 0 0 A 0 0 0 0 0 0 0 0 0 0 0 0 0 0 0 0 0 0 0 0 0 0 0 0 0 0 0 0 sticks_sort
S 731 7 3 1 0 104 1 730 5521 20000014 10003000 A 0 0 0 0 0 0 0 0 0 0 0 0 0 0 0 0 0 0 0 0 0 0 0 0 0 0 0 0 ngc
S 732 7 3 1 0 107 1 730 5525 20000014 10003000 A 0 0 0 0 0 0 0 0 0 0 0 0 0 0 0 0 0 0 0 0 0 0 0 0 0 0 0 0 ngcw
S 733 7 3 1 0 110 1 730 5530 20000014 10003000 A 0 0 0 0 0 0 0 0 0 0 0 0 0 0 0 0 0 0 0 0 0 0 0 0 0 0 0 0 ngcs
S 734 1 3 1 0 6 1 730 5535 14 3000 A 0 0 0 0 0 0 0 0 0 0 0 0 0 0 0 0 0 0 0 0 0 0 0 0 0 0 0 0 nct
S 735 7 3 2 0 113 1 730 5539 20000014 10003000 A 0 0 0 0 0 0 0 0 0 0 0 0 0 0 0 0 0 0 0 0 0 0 0 0 0 0 0 0 idx
S 736 14 5 0 0 0 1 730 4904 20000000 400000 A 0 0 0 0 0 0 0 39 5 0 0 0 0 0 0 0 0 0 0 0 0 244 0 582 0 0 0 0 sticks_sort
F 736 5 731 732 733 734 735
S 737 6 1 0 0 6 1 730 5181 40800016 3000 A 0 0 0 0 0 0 0 0 0 0 0 0 0 0 0 0 0 0 0 0 0 0 0 0 0 0 0 0 z_b_0_1
S 738 6 1 0 0 6 1 730 5189 40800016 3000 A 0 0 0 0 0 0 0 0 0 0 0 0 0 0 0 0 0 0 0 0 0 0 0 0 0 0 0 0 z_b_2
S 739 6 1 0 0 6 1 730 5195 40800016 3000 A 0 0 0 0 0 0 0 0 0 0 0 0 0 0 0 0 0 0 0 0 0 0 0 0 0 0 0 0 z_b_3
S 740 6 1 0 0 6 1 730 5543 40800016 3000 A 0 0 0 0 0 0 0 0 0 0 0 0 0 0 0 0 0 0 0 0 0 0 0 0 0 0 0 0 z_e_532
S 741 6 1 0 0 6 1 730 5209 40800016 3000 A 0 0 0 0 0 0 0 0 0 0 0 0 0 0 0 0 0 0 0 0 0 0 0 0 0 0 0 0 z_b_4
S 742 6 1 0 0 6 1 730 5215 40800016 3000 A 0 0 0 0 0 0 0 0 0 0 0 0 0 0 0 0 0 0 0 0 0 0 0 0 0 0 0 0 z_b_6
S 743 6 1 0 0 6 1 730 5221 40800016 3000 A 0 0 0 0 0 0 0 0 0 0 0 0 0 0 0 0 0 0 0 0 0 0 0 0 0 0 0 0 z_b_7
S 744 6 1 0 0 6 1 730 5551 40800016 3000 A 0 0 0 0 0 0 0 0 0 0 0 0 0 0 0 0 0 0 0 0 0 0 0 0 0 0 0 0 z_e_539
S 745 6 1 0 0 6 1 730 5235 40800016 3000 A 0 0 0 0 0 0 0 0 0 0 0 0 0 0 0 0 0 0 0 0 0 0 0 0 0 0 0 0 z_b_8
S 746 6 1 0 0 6 1 730 5241 40800016 3000 A 0 0 0 0 0 0 0 0 0 0 0 0 0 0 0 0 0 0 0 0 0 0 0 0 0 0 0 0 z_b_10
S 747 6 1 0 0 6 1 730 5248 40800016 3000 A 0 0 0 0 0 0 0 0 0 0 0 0 0 0 0 0 0 0 0 0 0 0 0 0 0 0 0 0 z_b_11
S 748 6 1 0 0 6 1 730 5559 40800016 3000 A 0 0 0 0 0 0 0 0 0 0 0 0 0 0 0 0 0 0 0 0 0 0 0 0 0 0 0 0 z_e_546
S 749 6 1 0 0 6 1 730 5263 40800016 3000 A 0 0 0 0 0 0 0 0 0 0 0 0 0 0 0 0 0 0 0 0 0 0 0 0 0 0 0 0 z_b_12
S 750 6 1 0 0 6 1 730 5270 40800016 3000 A 0 0 0 0 0 0 0 0 0 0 0 0 0 0 0 0 0 0 0 0 0 0 0 0 0 0 0 0 z_b_14
S 751 6 1 0 0 6 1 730 5277 40800016 3000 A 0 0 0 0 0 0 0 0 0 0 0 0 0 0 0 0 0 0 0 0 0 0 0 0 0 0 0 0 z_b_15
S 752 6 1 0 0 6 1 730 5567 40800016 3000 A 0 0 0 0 0 0 0 0 0 0 0 0 0 0 0 0 0 0 0 0 0 0 0 0 0 0 0 0 z_e_553
S 753 23 5 0 0 0 765 582 4916 0 0 A 0 0 0 0 0 0 0 0 0 0 0 0 0 0 0 0 0 0 0 0 0 0 0 0 0 0 0 0 sticks_countg
S 754 1 3 1 0 16 1 753 5135 14 3000 A 0 0 0 0 0 0 0 0 0 0 0 0 0 0 0 0 0 0 0 0 0 0 0 0 0 0 0 0 tk
S 755 7 3 1 0 116 1 753 5138 20000014 10003000 A 0 0 0 0 0 0 0 0 0 0 0 0 0 0 0 0 0 0 0 0 0 0 0 0 0 0 0 0 ub
S 756 7 3 1 0 119 1 753 5141 20000014 10003000 A 0 0 0 0 0 0 0 0 0 0 0 0 0 0 0 0 0 0 0 0 0 0 0 0 0 0 0 0 lb
S 757 7 3 1 0 122 1 753 5170 800214 3000 A 0 0 0 0 0 0 0 0 0 0 0 0 0 0 0 0 0 0 0 0 0 0 0 0 0 0 0 0 st
S 758 7 3 1 0 125 1 753 5173 800214 3000 A 0 0 0 0 0 0 0 0 0 0 0 0 0 0 0 0 0 0 0 0 0 0 0 0 0 0 0 0 stw
S 759 7 3 1 0 128 1 753 5177 800214 3000 A 0 0 0 0 0 0 0 0 0 0 0 0 0 0 0 0 0 0 0 0 0 0 0 0 0 0 0 0 sts
S 760 7 3 2 0 131 1 753 5575 20000014 10003000 A 0 0 0 0 0 0 0 0 0 0 0 0 0 0 0 0 0 0 0 0 0 0 0 0 0 0 0 0 in1
S 761 7 3 2 0 134 1 753 5579 20000014 10003000 A 0 0 0 0 0 0 0 0 0 0 0 0 0 0 0 0 0 0 0 0 0 0 0 0 0 0 0 0 in2
S 762 7 3 2 0 137 1 753 5521 20000014 10003000 A 0 0 0 0 0 0 0 0 0 0 0 0 0 0 0 0 0 0 0 0 0 0 0 0 0 0 0 0 ngc
S 763 7 3 2 0 140 1 753 5525 20000014 10003000 A 0 0 0 0 0 0 0 0 0 0 0 0 0 0 0 0 0 0 0 0 0 0 0 0 0 0 0 0 ngcw
S 764 7 3 2 0 143 1 753 5530 20000014 10003000 A 0 0 0 0 0 0 0 0 0 0 0 0 0 0 0 0 0 0 0 0 0 0 0 0 0 0 0 0 ngcs
S 765 14 5 0 0 0 1 753 4916 20000200 400000 A 0 0 0 0 0 0 0 45 11 0 0 0 0 0 0 0 0 0 0 0 0 312 0 582 0 0 0 0 sticks_countg
F 765 11 754 755 756 757 758 759 760 761 762 763 764
S 766 6 1 0 0 6 1 753 5181 40800016 3000 A 0 0 0 0 0 0 0 0 0 0 0 0 0 0 0 0 0 0 0 0 0 0 0 0 0 0 0 0 z_b_0_1
S 767 6 1 0 0 6 1 753 5189 40800016 3000 A 0 0 0 0 0 0 0 0 0 0 0 0 0 0 0 0 0 0 0 0 0 0 0 0 0 0 0 0 z_b_2
S 768 6 1 0 0 6 1 753 5195 40800016 3000 A 0 0 0 0 0 0 0 0 0 0 0 0 0 0 0 0 0 0 0 0 0 0 0 0 0 0 0 0 z_b_3
S 769 6 1 0 0 6 1 753 5583 40800016 3000 A 0 0 0 0 0 0 0 0 0 0 0 0 0 0 0 0 0 0 0 0 0 0 0 0 0 0 0 0 z_e_131
S 770 6 1 0 0 6 1 753 5209 40800016 3000 A 0 0 0 0 0 0 0 0 0 0 0 0 0 0 0 0 0 0 0 0 0 0 0 0 0 0 0 0 z_b_4
S 771 6 1 0 0 6 1 753 5215 40800016 3000 A 0 0 0 0 0 0 0 0 0 0 0 0 0 0 0 0 0 0 0 0 0 0 0 0 0 0 0 0 z_b_6
S 772 6 1 0 0 6 1 753 5221 40800016 3000 A 0 0 0 0 0 0 0 0 0 0 0 0 0 0 0 0 0 0 0 0 0 0 0 0 0 0 0 0 z_b_7
S 773 6 1 0 0 6 1 753 5591 40800016 3000 A 0 0 0 0 0 0 0 0 0 0 0 0 0 0 0 0 0 0 0 0 0 0 0 0 0 0 0 0 z_e_138
S 774 6 1 0 0 6 1 753 5599 40800016 3000 A 0 0 0 0 0 0 0 0 0 0 0 0 0 0 0 0 0 0 0 0 0 0 0 0 0 0 0 0 z_e_141
S 775 6 1 0 0 6 1 753 5607 40800016 3000 A 0 0 0 0 0 0 0 0 0 0 0 0 0 0 0 0 0 0 0 0 0 0 0 0 0 0 0 0 z_e_143
S 776 6 1 0 0 6 1 753 5615 40800016 3000 A 0 0 0 0 0 0 0 0 0 0 0 0 0 0 0 0 0 0 0 0 0 0 0 0 0 0 0 0 z_e_149
S 777 6 1 0 0 6 1 753 5623 40800016 3000 A 0 0 0 0 0 0 0 0 0 0 0 0 0 0 0 0 0 0 0 0 0 0 0 0 0 0 0 0 z_e_144
S 778 6 1 0 0 6 1 753 5631 40800016 3000 A 0 0 0 0 0 0 0 0 0 0 0 0 0 0 0 0 0 0 0 0 0 0 0 0 0 0 0 0 z_e_145
S 779 6 1 0 0 6 1 753 5639 40800016 3000 A 0 0 0 0 0 0 0 0 0 0 0 0 0 0 0 0 0 0 0 0 0 0 0 0 0 0 0 0 z_e_154
S 780 6 1 0 0 6 1 753 5647 40800016 3000 A 0 0 0 0 0 0 0 0 0 0 0 0 0 0 0 0 0 0 0 0 0 0 0 0 0 0 0 0 z_e_156
S 781 6 1 0 0 6 1 753 5655 40800016 3000 A 0 0 0 0 0 0 0 0 0 0 0 0 0 0 0 0 0 0 0 0 0 0 0 0 0 0 0 0 z_e_159
S 782 6 1 0 0 6 1 753 5235 40800016 3000 A 0 0 0 0 0 0 0 0 0 0 0 0 0 0 0 0 0 0 0 0 0 0 0 0 0 0 0 0 z_b_8
S 783 6 1 0 0 6 1 753 5241 40800016 3000 A 0 0 0 0 0 0 0 0 0 0 0 0 0 0 0 0 0 0 0 0 0 0 0 0 0 0 0 0 z_b_10
S 784 6 1 0 0 6 1 753 5248 40800016 3000 A 0 0 0 0 0 0 0 0 0 0 0 0 0 0 0 0 0 0 0 0 0 0 0 0 0 0 0 0 z_b_11
S 785 6 1 0 0 6 1 753 5663 40800016 3000 A 0 0 0 0 0 0 0 0 0 0 0 0 0 0 0 0 0 0 0 0 0 0 0 0 0 0 0 0 z_e_166
S 786 6 1 0 0 6 1 753 5263 40800016 3000 A 0 0 0 0 0 0 0 0 0 0 0 0 0 0 0 0 0 0 0 0 0 0 0 0 0 0 0 0 z_b_12
S 787 6 1 0 0 6 1 753 5270 40800016 3000 A 0 0 0 0 0 0 0 0 0 0 0 0 0 0 0 0 0 0 0 0 0 0 0 0 0 0 0 0 z_b_14
S 788 6 1 0 0 6 1 753 5277 40800016 3000 A 0 0 0 0 0 0 0 0 0 0 0 0 0 0 0 0 0 0 0 0 0 0 0 0 0 0 0 0 z_b_15
S 789 6 1 0 0 6 1 753 5671 40800016 3000 A 0 0 0 0 0 0 0 0 0 0 0 0 0 0 0 0 0 0 0 0 0 0 0 0 0 0 0 0 z_e_173
S 790 6 1 0 0 6 1 753 5292 40800016 3000 A 0 0 0 0 0 0 0 0 0 0 0 0 0 0 0 0 0 0 0 0 0 0 0 0 0 0 0 0 z_b_16
S 791 6 1 0 0 6 1 753 5299 40800016 3000 A 0 0 0 0 0 0 0 0 0 0 0 0 0 0 0 0 0 0 0 0 0 0 0 0 0 0 0 0 z_b_18
S 792 6 1 0 0 6 1 753 5306 40800016 3000 A 0 0 0 0 0 0 0 0 0 0 0 0 0 0 0 0 0 0 0 0 0 0 0 0 0 0 0 0 z_b_19
S 793 6 1 0 0 6 1 753 5679 40800016 3000 A 0 0 0 0 0 0 0 0 0 0 0 0 0 0 0 0 0 0 0 0 0 0 0 0 0 0 0 0 z_e_180
S 794 6 1 0 0 6 1 753 5687 40800016 3000 A 0 0 0 0 0 0 0 0 0 0 0 0 0 0 0 0 0 0 0 0 0 0 0 0 0 0 0 0 z_b_20
S 795 6 1 0 0 6 1 753 5694 40800016 3000 A 0 0 0 0 0 0 0 0 0 0 0 0 0 0 0 0 0 0 0 0 0 0 0 0 0 0 0 0 z_b_22
S 796 6 1 0 0 6 1 753 5701 40800016 3000 A 0 0 0 0 0 0 0 0 0 0 0 0 0 0 0 0 0 0 0 0 0 0 0 0 0 0 0 0 z_b_23
S 797 6 1 0 0 6 1 753 5708 40800016 3000 A 0 0 0 0 0 0 0 0 0 0 0 0 0 0 0 0 0 0 0 0 0 0 0 0 0 0 0 0 z_e_187
S 798 6 1 0 0 6 1 753 5716 40800016 3000 A 0 0 0 0 0 0 0 0 0 0 0 0 0 0 0 0 0 0 0 0 0 0 0 0 0 0 0 0 z_b_24
S 799 6 1 0 0 6 1 753 5723 40800016 3000 A 0 0 0 0 0 0 0 0 0 0 0 0 0 0 0 0 0 0 0 0 0 0 0 0 0 0 0 0 z_b_26
S 800 6 1 0 0 6 1 753 5730 40800016 3000 A 0 0 0 0 0 0 0 0 0 0 0 0 0 0 0 0 0 0 0 0 0 0 0 0 0 0 0 0 z_b_27
S 801 6 1 0 0 6 1 753 5737 40800016 3000 A 0 0 0 0 0 0 0 0 0 0 0 0 0 0 0 0 0 0 0 0 0 0 0 0 0 0 0 0 z_e_194
S 802 23 5 0 0 0 822 582 5094 10 0 A 0 0 0 0 0 0 0 0 0 0 0 0 0 0 0 0 0 0 0 0 0 0 0 0 0 0 0 0 sticks_dist1
S 803 1 3 1 0 16 1 802 5135 14 3000 A 0 0 0 0 0 0 0 0 0 0 0 0 0 0 0 0 0 0 0 0 0 0 0 0 0 0 0 0 tk
S 804 7 3 1 0 146 1 802 5138 20000014 10003000 A 0 0 0 0 0 0 0 0 0 0 0 0 0 0 0 0 0 0 0 0 0 0 0 0 0 0 0 0 ub
S 805 7 3 1 0 149 1 802 5141 20000014 10003000 A 0 0 0 0 0 0 0 0 0 0 0 0 0 0 0 0 0 0 0 0 0 0 0 0 0 0 0 0 lb
S 806 7 3 1 0 152 1 802 5539 20000014 10003000 A 0 0 0 0 0 0 0 0 0 0 0 0 0 0 0 0 0 0 0 0 0 0 0 0 0 0 0 0 idx
S 807 7 3 1 0 164 1 802 5575 20000014 10003000 A 0 0 0 0 0 0 0 0 0 0 0 0 0 0 0 0 0 0 0 0 0 0 0 0 0 0 0 0 in1
S 808 7 3 1 0 167 1 802 5579 20000014 10003000 A 0 0 0 0 0 0 0 0 0 0 0 0 0 0 0 0 0 0 0 0 0 0 0 0 0 0 0 0 in2
S 809 7 3 1 0 170 1 802 5521 20000014 10003000 A 0 0 0 0 0 0 0 0 0 0 0 0 0 0 0 0 0 0 0 0 0 0 0 0 0 0 0 0 ngc
S 810 7 3 1 0 173 1 802 5525 20000014 10003000 A 0 0 0 0 0 0 0 0 0 0 0 0 0 0 0 0 0 0 0 0 0 0 0 0 0 0 0 0 ngcw
S 811 7 3 1 0 176 1 802 5530 20000014 10003000 A 0 0 0 0 0 0 0 0 0 0 0 0 0 0 0 0 0 0 0 0 0 0 0 0 0 0 0 0 ngcs
S 812 1 3 1 0 6 1 802 5535 14 3000 A 0 0 0 0 0 0 0 0 0 0 0 0 0 0 0 0 0 0 0 0 0 0 0 0 0 0 0 0 nct
S 813 7 3 2 0 179 1 802 5745 20000014 10003000 A 0 0 0 0 0 0 0 0 0 0 0 0 0 0 0 0 0 0 0 0 0 0 0 0 0 0 0 0 ncp
S 814 7 3 2 0 182 1 802 5749 20000014 10003000 A 0 0 0 0 0 0 0 0 0 0 0 0 0 0 0 0 0 0 0 0 0 0 0 0 0 0 0 0 ncpw
S 815 7 3 2 0 185 1 802 5754 20000014 10003000 A 0 0 0 0 0 0 0 0 0 0 0 0 0 0 0 0 0 0 0 0 0 0 0 0 0 0 0 0 ncps
S 816 7 3 2 0 188 1 802 5759 20000014 10003000 A 0 0 0 0 0 0 0 0 0 0 0 0 0 0 0 0 0 0 0 0 0 0 0 0 0 0 0 0 ngp
S 817 7 3 2 0 191 1 802 5763 20000014 10003000 A 0 0 0 0 0 0 0 0 0 0 0 0 0 0 0 0 0 0 0 0 0 0 0 0 0 0 0 0 ngpw
S 818 7 3 2 0 194 1 802 5768 20000014 10003000 A 0 0 0 0 0 0 0 0 0 0 0 0 0 0 0 0 0 0 0 0 0 0 0 0 0 0 0 0 ngps
S 819 7 3 2 0 155 1 802 5773 800214 3000 A 0 0 0 0 0 0 0 0 0 0 0 0 0 0 0 0 0 0 0 0 0 0 0 0 0 0 0 0 stown
S 820 7 3 2 0 158 1 802 5779 800214 3000 A 0 0 0 0 0 0 0 0 0 0 0 0 0 0 0 0 0 0 0 0 0 0 0 0 0 0 0 0 stownw
S 821 7 3 2 0 161 1 802 5786 800214 3000 A 0 0 0 0 0 0 0 0 0 0 0 0 0 0 0 0 0 0 0 0 0 0 0 0 0 0 0 0 stowns
S 822 14 5 0 0 0 1 802 5094 20000210 400000 A 0 0 0 0 0 0 0 57 19 0 0 0 0 0 0 0 0 0 0 0 0 374 0 582 0 0 0 0 sticks_dist1
F 822 19 803 804 805 806 807 808 809 810 811 812 813 814 815 816 817 818 819 820 821
S 823 6 1 0 0 6 1 802 5181 40800016 3000 A 0 0 0 0 0 0 0 0 0 0 0 0 0 0 0 0 0 0 0 0 0 0 0 0 0 0 0 0 z_b_0_1
S 824 6 1 0 0 6 1 802 5189 40800016 3000 A 0 0 0 0 0 0 0 0 0 0 0 0 0 0 0 0 0 0 0 0 0 0 0 0 0 0 0 0 z_b_2
S 825 6 1 0 0 6 1 802 5195 40800016 3000 A 0 0 0 0 0 0 0 0 0 0 0 0 0 0 0 0 0 0 0 0 0 0 0 0 0 0 0 0 z_b_3
S 826 6 1 0 0 6 1 802 5793 40800016 3000 A 0 0 0 0 0 0 0 0 0 0 0 0 0 0 0 0 0 0 0 0 0 0 0 0 0 0 0 0 z_e_590
S 827 6 1 0 0 6 1 802 5209 40800016 3000 A 0 0 0 0 0 0 0 0 0 0 0 0 0 0 0 0 0 0 0 0 0 0 0 0 0 0 0 0 z_b_4
S 828 6 1 0 0 6 1 802 5215 40800016 3000 A 0 0 0 0 0 0 0 0 0 0 0 0 0 0 0 0 0 0 0 0 0 0 0 0 0 0 0 0 z_b_6
S 829 6 1 0 0 6 1 802 5221 40800016 3000 A 0 0 0 0 0 0 0 0 0 0 0 0 0 0 0 0 0 0 0 0 0 0 0 0 0 0 0 0 z_b_7
S 830 6 1 0 0 6 1 802 5801 40800016 3000 A 0 0 0 0 0 0 0 0 0 0 0 0 0 0 0 0 0 0 0 0 0 0 0 0 0 0 0 0 z_e_597
S 831 6 1 0 0 6 1 802 5235 40800016 3000 A 0 0 0 0 0 0 0 0 0 0 0 0 0 0 0 0 0 0 0 0 0 0 0 0 0 0 0 0 z_b_8
S 832 6 1 0 0 6 1 802 5241 40800016 3000 A 0 0 0 0 0 0 0 0 0 0 0 0 0 0 0 0 0 0 0 0 0 0 0 0 0 0 0 0 z_b_10
S 833 6 1 0 0 6 1 802 5248 40800016 3000 A 0 0 0 0 0 0 0 0 0 0 0 0 0 0 0 0 0 0 0 0 0 0 0 0 0 0 0 0 z_b_11
S 834 6 1 0 0 6 1 802 5809 40800016 3000 A 0 0 0 0 0 0 0 0 0 0 0 0 0 0 0 0 0 0 0 0 0 0 0 0 0 0 0 0 z_e_604
S 835 6 1 0 0 6 1 802 5817 40800016 3000 A 0 0 0 0 0 0 0 0 0 0 0 0 0 0 0 0 0 0 0 0 0 0 0 0 0 0 0 0 z_e_607
S 836 6 1 0 0 6 1 802 5825 40800016 3000 A 0 0 0 0 0 0 0 0 0 0 0 0 0 0 0 0 0 0 0 0 0 0 0 0 0 0 0 0 z_e_609
S 837 6 1 0 0 6 1 802 5833 40800016 3000 A 0 0 0 0 0 0 0 0 0 0 0 0 0 0 0 0 0 0 0 0 0 0 0 0 0 0 0 0 z_e_615
S 838 6 1 0 0 6 1 802 5841 40800016 3000 A 0 0 0 0 0 0 0 0 0 0 0 0 0 0 0 0 0 0 0 0 0 0 0 0 0 0 0 0 z_e_610
S 839 6 1 0 0 6 1 802 5849 40800016 3000 A 0 0 0 0 0 0 0 0 0 0 0 0 0 0 0 0 0 0 0 0 0 0 0 0 0 0 0 0 z_e_611
S 840 6 1 0 0 6 1 802 5857 40800016 3000 A 0 0 0 0 0 0 0 0 0 0 0 0 0 0 0 0 0 0 0 0 0 0 0 0 0 0 0 0 z_e_620
S 841 6 1 0 0 6 1 802 5865 40800016 3000 A 0 0 0 0 0 0 0 0 0 0 0 0 0 0 0 0 0 0 0 0 0 0 0 0 0 0 0 0 z_e_622
S 842 6 1 0 0 6 1 802 5873 40800016 3000 A 0 0 0 0 0 0 0 0 0 0 0 0 0 0 0 0 0 0 0 0 0 0 0 0 0 0 0 0 z_e_625
S 843 6 1 0 0 6 1 802 5263 40800016 3000 A 0 0 0 0 0 0 0 0 0 0 0 0 0 0 0 0 0 0 0 0 0 0 0 0 0 0 0 0 z_b_12
S 844 6 1 0 0 6 1 802 5270 40800016 3000 A 0 0 0 0 0 0 0 0 0 0 0 0 0 0 0 0 0 0 0 0 0 0 0 0 0 0 0 0 z_b_14
S 845 6 1 0 0 6 1 802 5277 40800016 3000 A 0 0 0 0 0 0 0 0 0 0 0 0 0 0 0 0 0 0 0 0 0 0 0 0 0 0 0 0 z_b_15
S 846 6 1 0 0 6 1 802 5881 40800016 3000 A 0 0 0 0 0 0 0 0 0 0 0 0 0 0 0 0 0 0 0 0 0 0 0 0 0 0 0 0 z_e_632
S 847 6 1 0 0 6 1 802 5292 40800016 3000 A 0 0 0 0 0 0 0 0 0 0 0 0 0 0 0 0 0 0 0 0 0 0 0 0 0 0 0 0 z_b_16
S 848 6 1 0 0 6 1 802 5299 40800016 3000 A 0 0 0 0 0 0 0 0 0 0 0 0 0 0 0 0 0 0 0 0 0 0 0 0 0 0 0 0 z_b_18
S 849 6 1 0 0 6 1 802 5306 40800016 3000 A 0 0 0 0 0 0 0 0 0 0 0 0 0 0 0 0 0 0 0 0 0 0 0 0 0 0 0 0 z_b_19
S 850 6 1 0 0 6 1 802 5889 40800016 3000 A 0 0 0 0 0 0 0 0 0 0 0 0 0 0 0 0 0 0 0 0 0 0 0 0 0 0 0 0 z_e_639
S 851 6 1 0 0 6 1 802 5687 40800016 3000 A 0 0 0 0 0 0 0 0 0 0 0 0 0 0 0 0 0 0 0 0 0 0 0 0 0 0 0 0 z_b_20
S 852 6 1 0 0 6 1 802 5694 40800016 3000 A 0 0 0 0 0 0 0 0 0 0 0 0 0 0 0 0 0 0 0 0 0 0 0 0 0 0 0 0 z_b_22
S 853 6 1 0 0 6 1 802 5701 40800016 3000 A 0 0 0 0 0 0 0 0 0 0 0 0 0 0 0 0 0 0 0 0 0 0 0 0 0 0 0 0 z_b_23
S 854 6 1 0 0 6 1 802 5897 40800016 3000 A 0 0 0 0 0 0 0 0 0 0 0 0 0 0 0 0 0 0 0 0 0 0 0 0 0 0 0 0 z_e_646
S 855 6 1 0 0 6 1 802 5716 40800016 3000 A 0 0 0 0 0 0 0 0 0 0 0 0 0 0 0 0 0 0 0 0 0 0 0 0 0 0 0 0 z_b_24
S 856 6 1 0 0 6 1 802 5723 40800016 3000 A 0 0 0 0 0 0 0 0 0 0 0 0 0 0 0 0 0 0 0 0 0 0 0 0 0 0 0 0 z_b_26
S 857 6 1 0 0 6 1 802 5730 40800016 3000 A 0 0 0 0 0 0 0 0 0 0 0 0 0 0 0 0 0 0 0 0 0 0 0 0 0 0 0 0 z_b_27
S 858 6 1 0 0 6 1 802 5905 40800016 3000 A 0 0 0 0 0 0 0 0 0 0 0 0 0 0 0 0 0 0 0 0 0 0 0 0 0 0 0 0 z_e_653
S 859 6 1 0 0 6 1 802 5913 40800016 3000 A 0 0 0 0 0 0 0 0 0 0 0 0 0 0 0 0 0 0 0 0 0 0 0 0 0 0 0 0 z_b_28
S 860 6 1 0 0 6 1 802 5920 40800016 3000 A 0 0 0 0 0 0 0 0 0 0 0 0 0 0 0 0 0 0 0 0 0 0 0 0 0 0 0 0 z_b_30
S 861 6 1 0 0 6 1 802 5927 40800016 3000 A 0 0 0 0 0 0 0 0 0 0 0 0 0 0 0 0 0 0 0 0 0 0 0 0 0 0 0 0 z_b_31
S 862 6 1 0 0 6 1 802 5934 40800016 3000 A 0 0 0 0 0 0 0 0 0 0 0 0 0 0 0 0 0 0 0 0 0 0 0 0 0 0 0 0 z_e_660
S 863 6 1 0 0 6 1 802 5942 40800016 3000 A 0 0 0 0 0 0 0 0 0 0 0 0 0 0 0 0 0 0 0 0 0 0 0 0 0 0 0 0 z_b_32
S 864 6 1 0 0 6 1 802 5949 40800016 3000 A 0 0 0 0 0 0 0 0 0 0 0 0 0 0 0 0 0 0 0 0 0 0 0 0 0 0 0 0 z_b_34
S 865 6 1 0 0 6 1 802 5956 40800016 3000 A 0 0 0 0 0 0 0 0 0 0 0 0 0 0 0 0 0 0 0 0 0 0 0 0 0 0 0 0 z_b_35
S 866 6 1 0 0 6 1 802 5963 40800016 3000 A 0 0 0 0 0 0 0 0 0 0 0 0 0 0 0 0 0 0 0 0 0 0 0 0 0 0 0 0 z_e_667
S 867 6 1 0 0 6 1 802 5971 40800016 3000 A 0 0 0 0 0 0 0 0 0 0 0 0 0 0 0 0 0 0 0 0 0 0 0 0 0 0 0 0 z_b_36
S 868 6 1 0 0 6 1 802 5978 40800016 3000 A 0 0 0 0 0 0 0 0 0 0 0 0 0 0 0 0 0 0 0 0 0 0 0 0 0 0 0 0 z_b_38
S 869 6 1 0 0 6 1 802 5985 40800016 3000 A 0 0 0 0 0 0 0 0 0 0 0 0 0 0 0 0 0 0 0 0 0 0 0 0 0 0 0 0 z_b_39
S 870 6 1 0 0 6 1 802 5992 40800016 3000 A 0 0 0 0 0 0 0 0 0 0 0 0 0 0 0 0 0 0 0 0 0 0 0 0 0 0 0 0 z_e_674
S 871 6 1 0 0 6 1 802 6000 40800016 3000 A 0 0 0 0 0 0 0 0 0 0 0 0 0 0 0 0 0 0 0 0 0 0 0 0 0 0 0 0 z_b_40
S 872 6 1 0 0 6 1 802 6007 40800016 3000 A 0 0 0 0 0 0 0 0 0 0 0 0 0 0 0 0 0 0 0 0 0 0 0 0 0 0 0 0 z_b_42
S 873 6 1 0 0 6 1 802 6014 40800016 3000 A 0 0 0 0 0 0 0 0 0 0 0 0 0 0 0 0 0 0 0 0 0 0 0 0 0 0 0 0 z_b_43
S 874 6 1 0 0 6 1 802 6021 40800016 3000 A 0 0 0 0 0 0 0 0 0 0 0 0 0 0 0 0 0 0 0 0 0 0 0 0 0 0 0 0 z_e_681
S 875 6 1 0 0 6 1 802 6029 40800016 3000 A 0 0 0 0 0 0 0 0 0 0 0 0 0 0 0 0 0 0 0 0 0 0 0 0 0 0 0 0 z_b_44
S 876 6 1 0 0 6 1 802 6036 40800016 3000 A 0 0 0 0 0 0 0 0 0 0 0 0 0 0 0 0 0 0 0 0 0 0 0 0 0 0 0 0 z_b_46
S 877 6 1 0 0 6 1 802 6043 40800016 3000 A 0 0 0 0 0 0 0 0 0 0 0 0 0 0 0 0 0 0 0 0 0 0 0 0 0 0 0 0 z_b_47
S 878 6 1 0 0 6 1 802 6050 40800016 3000 A 0 0 0 0 0 0 0 0 0 0 0 0 0 0 0 0 0 0 0 0 0 0 0 0 0 0 0 0 z_e_688
S 879 6 1 0 0 6 1 802 6058 40800016 3000 A 0 0 0 0 0 0 0 0 0 0 0 0 0 0 0 0 0 0 0 0 0 0 0 0 0 0 0 0 z_b_48
S 880 6 1 0 0 6 1 802 6065 40800016 3000 A 0 0 0 0 0 0 0 0 0 0 0 0 0 0 0 0 0 0 0 0 0 0 0 0 0 0 0 0 z_b_50
S 881 6 1 0 0 6 1 802 6072 40800016 3000 A 0 0 0 0 0 0 0 0 0 0 0 0 0 0 0 0 0 0 0 0 0 0 0 0 0 0 0 0 z_b_51
S 882 6 1 0 0 6 1 802 6079 40800016 3000 A 0 0 0 0 0 0 0 0 0 0 0 0 0 0 0 0 0 0 0 0 0 0 0 0 0 0 0 0 z_e_695
S 883 6 1 0 0 6 1 802 6087 40800016 3000 A 0 0 0 0 0 0 0 0 0 0 0 0 0 0 0 0 0 0 0 0 0 0 0 0 0 0 0 0 z_b_52
S 884 6 1 0 0 6 1 802 6094 40800016 3000 A 0 0 0 0 0 0 0 0 0 0 0 0 0 0 0 0 0 0 0 0 0 0 0 0 0 0 0 0 z_b_54
S 885 6 1 0 0 6 1 802 6101 40800016 3000 A 0 0 0 0 0 0 0 0 0 0 0 0 0 0 0 0 0 0 0 0 0 0 0 0 0 0 0 0 z_b_55
S 886 6 1 0 0 6 1 802 6108 40800016 3000 A 0 0 0 0 0 0 0 0 0 0 0 0 0 0 0 0 0 0 0 0 0 0 0 0 0 0 0 0 z_e_702
S 887 23 5 0 0 0 907 582 4942 0 0 A 0 0 0 0 0 0 0 0 0 0 0 0 0 0 0 0 0 0 0 0 0 0 0 0 0 0 0 0 sticks_pairup
S 888 1 3 1 0 16 1 887 5135 14 3000 A 0 0 0 0 0 0 0 0 0 0 0 0 0 0 0 0 0 0 0 0 0 0 0 0 0 0 0 0 tk
S 889 7 3 1 0 197 1 887 5138 20000014 10003000 A 0 0 0 0 0 0 0 0 0 0 0 0 0 0 0 0 0 0 0 0 0 0 0 0 0 0 0 0 ub
S 890 7 3 1 0 200 1 887 5141 20000014 10003000 A 0 0 0 0 0 0 0 0 0 0 0 0 0 0 0 0 0 0 0 0 0 0 0 0 0 0 0 0 lb
S 891 7 3 1 0 203 1 887 5539 20000014 10003000 A 0 0 0 0 0 0 0 0 0 0 0 0 0 0 0 0 0 0 0 0 0 0 0 0 0 0 0 0 idx
S 892 7 3 1 0 215 1 887 5575 20000014 10003000 A 0 0 0 0 0 0 0 0 0 0 0 0 0 0 0 0 0 0 0 0 0 0 0 0 0 0 0 0 in1
S 893 7 3 1 0 218 1 887 5579 20000014 10003000 A 0 0 0 0 0 0 0 0 0 0 0 0 0 0 0 0 0 0 0 0 0 0 0 0 0 0 0 0 in2
S 894 7 3 1 0 221 1 887 5521 20000014 10003000 A 0 0 0 0 0 0 0 0 0 0 0 0 0 0 0 0 0 0 0 0 0 0 0 0 0 0 0 0 ngc
S 895 7 3 1 0 224 1 887 5525 20000014 10003000 A 0 0 0 0 0 0 0 0 0 0 0 0 0 0 0 0 0 0 0 0 0 0 0 0 0 0 0 0 ngcw
S 896 7 3 1 0 227 1 887 5530 20000014 10003000 A 0 0 0 0 0 0 0 0 0 0 0 0 0 0 0 0 0 0 0 0 0 0 0 0 0 0 0 0 ngcs
S 897 1 3 1 0 6 1 887 5535 14 3000 A 0 0 0 0 0 0 0 0 0 0 0 0 0 0 0 0 0 0 0 0 0 0 0 0 0 0 0 0 nct
S 898 7 3 2 0 230 1 887 5745 20000014 10003000 A 0 0 0 0 0 0 0 0 0 0 0 0 0 0 0 0 0 0 0 0 0 0 0 0 0 0 0 0 ncp
S 899 7 3 2 0 233 1 887 5749 20000014 10003000 A 0 0 0 0 0 0 0 0 0 0 0 0 0 0 0 0 0 0 0 0 0 0 0 0 0 0 0 0 ncpw
S 900 7 3 2 0 236 1 887 5754 20000014 10003000 A 0 0 0 0 0 0 0 0 0 0 0 0 0 0 0 0 0 0 0 0 0 0 0 0 0 0 0 0 ncps
S 901 7 3 2 0 239 1 887 5759 20000014 10003000 A 0 0 0 0 0 0 0 0 0 0 0 0 0 0 0 0 0 0 0 0 0 0 0 0 0 0 0 0 ngp
S 902 7 3 2 0 242 1 887 5763 20000014 10003000 A 0 0 0 0 0 0 0 0 0 0 0 0 0 0 0 0 0 0 0 0 0 0 0 0 0 0 0 0 ngpw
S 903 7 3 2 0 245 1 887 5768 20000014 10003000 A 0 0 0 0 0 0 0 0 0 0 0 0 0 0 0 0 0 0 0 0 0 0 0 0 0 0 0 0 ngps
S 904 7 3 3 0 206 1 887 5773 800214 3000 A 0 0 0 0 0 0 0 0 0 0 0 0 0 0 0 0 0 0 0 0 0 0 0 0 0 0 0 0 stown
S 905 7 3 3 0 209 1 887 5779 800214 3000 A 0 0 0 0 0 0 0 0 0 0 0 0 0 0 0 0 0 0 0 0 0 0 0 0 0 0 0 0 stownw
S 906 7 3 3 0 212 1 887 5786 800214 3000 A 0 0 0 0 0 0 0 0 0 0 0 0 0 0 0 0 0 0 0 0 0 0 0 0 0 0 0 0 stowns
S 907 14 5 0 0 0 1 887 4942 20000200 400000 A 0 0 0 0 0 0 0 77 19 0 0 0 0 0 0 0 0 0 0 0 0 473 0 582 0 0 0 0 sticks_pairup
F 907 19 888 889 890 891 892 893 894 895 896 897 898 899 900 901 902 903 904 905 906
S 908 6 1 0 0 6 1 887 5181 40800016 3000 A 0 0 0 0 0 0 0 0 0 0 0 0 0 0 0 0 0 0 0 0 0 0 0 0 0 0 0 0 z_b_0_1
S 909 6 1 0 0 6 1 887 5189 40800016 3000 A 0 0 0 0 0 0 0 0 0 0 0 0 0 0 0 0 0 0 0 0 0 0 0 0 0 0 0 0 z_b_2
S 910 6 1 0 0 6 1 887 5195 40800016 3000 A 0 0 0 0 0 0 0 0 0 0 0 0 0 0 0 0 0 0 0 0 0 0 0 0 0 0 0 0 z_b_3
S 911 6 1 0 0 6 1 887 5934 40800016 3000 A 0 0 0 0 0 0 0 0 0 0 0 0 0 0 0 0 0 0 0 0 0 0 0 0 0 0 0 0 z_e_660
S 912 6 1 0 0 6 1 887 5209 40800016 3000 A 0 0 0 0 0 0 0 0 0 0 0 0 0 0 0 0 0 0 0 0 0 0 0 0 0 0 0 0 z_b_4
S 913 6 1 0 0 6 1 887 5215 40800016 3000 A 0 0 0 0 0 0 0 0 0 0 0 0 0 0 0 0 0 0 0 0 0 0 0 0 0 0 0 0 z_b_6
S 914 6 1 0 0 6 1 887 5221 40800016 3000 A 0 0 0 0 0 0 0 0 0 0 0 0 0 0 0 0 0 0 0 0 0 0 0 0 0 0 0 0 z_b_7
S 915 6 1 0 0 6 1 887 5963 40800016 3000 A 0 0 0 0 0 0 0 0 0 0 0 0 0 0 0 0 0 0 0 0 0 0 0 0 0 0 0 0 z_e_667
S 916 6 1 0 0 6 1 887 5235 40800016 3000 A 0 0 0 0 0 0 0 0 0 0 0 0 0 0 0 0 0 0 0 0 0 0 0 0 0 0 0 0 z_b_8
S 917 6 1 0 0 6 1 887 5241 40800016 3000 A 0 0 0 0 0 0 0 0 0 0 0 0 0 0 0 0 0 0 0 0 0 0 0 0 0 0 0 0 z_b_10
S 918 6 1 0 0 6 1 887 5248 40800016 3000 A 0 0 0 0 0 0 0 0 0 0 0 0 0 0 0 0 0 0 0 0 0 0 0 0 0 0 0 0 z_b_11
S 919 6 1 0 0 6 1 887 5992 40800016 3000 A 0 0 0 0 0 0 0 0 0 0 0 0 0 0 0 0 0 0 0 0 0 0 0 0 0 0 0 0 z_e_674
S 920 6 1 0 0 6 1 887 6116 40800016 3000 A 0 0 0 0 0 0 0 0 0 0 0 0 0 0 0 0 0 0 0 0 0 0 0 0 0 0 0 0 z_e_677
S 921 6 1 0 0 6 1 887 6124 40800016 3000 A 0 0 0 0 0 0 0 0 0 0 0 0 0 0 0 0 0 0 0 0 0 0 0 0 0 0 0 0 z_e_679
S 922 6 1 0 0 6 1 887 6132 40800016 3000 A 0 0 0 0 0 0 0 0 0 0 0 0 0 0 0 0 0 0 0 0 0 0 0 0 0 0 0 0 z_e_685
S 923 6 1 0 0 6 1 887 6140 40800016 3000 A 0 0 0 0 0 0 0 0 0 0 0 0 0 0 0 0 0 0 0 0 0 0 0 0 0 0 0 0 z_e_680
S 924 6 1 0 0 6 1 887 6021 40800016 3000 A 0 0 0 0 0 0 0 0 0 0 0 0 0 0 0 0 0 0 0 0 0 0 0 0 0 0 0 0 z_e_681
S 925 6 1 0 0 6 1 887 6148 40800016 3000 A 0 0 0 0 0 0 0 0 0 0 0 0 0 0 0 0 0 0 0 0 0 0 0 0 0 0 0 0 z_e_690
S 926 6 1 0 0 6 1 887 6156 40800016 3000 A 0 0 0 0 0 0 0 0 0 0 0 0 0 0 0 0 0 0 0 0 0 0 0 0 0 0 0 0 z_e_692
S 927 6 1 0 0 6 1 887 6079 40800016 3000 A 0 0 0 0 0 0 0 0 0 0 0 0 0 0 0 0 0 0 0 0 0 0 0 0 0 0 0 0 z_e_695
S 928 6 1 0 0 6 1 887 5263 40800016 3000 A 0 0 0 0 0 0 0 0 0 0 0 0 0 0 0 0 0 0 0 0 0 0 0 0 0 0 0 0 z_b_12
S 929 6 1 0 0 6 1 887 5270 40800016 3000 A 0 0 0 0 0 0 0 0 0 0 0 0 0 0 0 0 0 0 0 0 0 0 0 0 0 0 0 0 z_b_14
S 930 6 1 0 0 6 1 887 5277 40800016 3000 A 0 0 0 0 0 0 0 0 0 0 0 0 0 0 0 0 0 0 0 0 0 0 0 0 0 0 0 0 z_b_15
S 931 6 1 0 0 6 1 887 6108 40800016 3000 A 0 0 0 0 0 0 0 0 0 0 0 0 0 0 0 0 0 0 0 0 0 0 0 0 0 0 0 0 z_e_702
S 932 6 1 0 0 6 1 887 5292 40800016 3000 A 0 0 0 0 0 0 0 0 0 0 0 0 0 0 0 0 0 0 0 0 0 0 0 0 0 0 0 0 z_b_16
S 933 6 1 0 0 6 1 887 5299 40800016 3000 A 0 0 0 0 0 0 0 0 0 0 0 0 0 0 0 0 0 0 0 0 0 0 0 0 0 0 0 0 z_b_18
S 934 6 1 0 0 6 1 887 5306 40800016 3000 A 0 0 0 0 0 0 0 0 0 0 0 0 0 0 0 0 0 0 0 0 0 0 0 0 0 0 0 0 z_b_19
S 935 6 1 0 0 6 1 887 6164 40800016 3000 A 0 0 0 0 0 0 0 0 0 0 0 0 0 0 0 0 0 0 0 0 0 0 0 0 0 0 0 0 z_e_709
S 936 6 1 0 0 6 1 887 5687 40800016 3000 A 0 0 0 0 0 0 0 0 0 0 0 0 0 0 0 0 0 0 0 0 0 0 0 0 0 0 0 0 z_b_20
S 937 6 1 0 0 6 1 887 5694 40800016 3000 A 0 0 0 0 0 0 0 0 0 0 0 0 0 0 0 0 0 0 0 0 0 0 0 0 0 0 0 0 z_b_22
S 938 6 1 0 0 6 1 887 5701 40800016 3000 A 0 0 0 0 0 0 0 0 0 0 0 0 0 0 0 0 0 0 0 0 0 0 0 0 0 0 0 0 z_b_23
S 939 6 1 0 0 6 1 887 6172 40800016 3000 A 0 0 0 0 0 0 0 0 0 0 0 0 0 0 0 0 0 0 0 0 0 0 0 0 0 0 0 0 z_e_716
S 940 6 1 0 0 6 1 887 5716 40800016 3000 A 0 0 0 0 0 0 0 0 0 0 0 0 0 0 0 0 0 0 0 0 0 0 0 0 0 0 0 0 z_b_24
S 941 6 1 0 0 6 1 887 5723 40800016 3000 A 0 0 0 0 0 0 0 0 0 0 0 0 0 0 0 0 0 0 0 0 0 0 0 0 0 0 0 0 z_b_26
S 942 6 1 0 0 6 1 887 5730 40800016 3000 A 0 0 0 0 0 0 0 0 0 0 0 0 0 0 0 0 0 0 0 0 0 0 0 0 0 0 0 0 z_b_27
S 943 6 1 0 0 6 1 887 6180 40800016 3000 A 0 0 0 0 0 0 0 0 0 0 0 0 0 0 0 0 0 0 0 0 0 0 0 0 0 0 0 0 z_e_723
S 944 6 1 0 0 6 1 887 5913 40800016 3000 A 0 0 0 0 0 0 0 0 0 0 0 0 0 0 0 0 0 0 0 0 0 0 0 0 0 0 0 0 z_b_28
S 945 6 1 0 0 6 1 887 5920 40800016 3000 A 0 0 0 0 0 0 0 0 0 0 0 0 0 0 0 0 0 0 0 0 0 0 0 0 0 0 0 0 z_b_30
S 946 6 1 0 0 6 1 887 5927 40800016 3000 A 0 0 0 0 0 0 0 0 0 0 0 0 0 0 0 0 0 0 0 0 0 0 0 0 0 0 0 0 z_b_31
S 947 6 1 0 0 6 1 887 6188 40800016 3000 A 0 0 0 0 0 0 0 0 0 0 0 0 0 0 0 0 0 0 0 0 0 0 0 0 0 0 0 0 z_e_730
S 948 6 1 0 0 6 1 887 5942 40800016 3000 A 0 0 0 0 0 0 0 0 0 0 0 0 0 0 0 0 0 0 0 0 0 0 0 0 0 0 0 0 z_b_32
S 949 6 1 0 0 6 1 887 5949 40800016 3000 A 0 0 0 0 0 0 0 0 0 0 0 0 0 0 0 0 0 0 0 0 0 0 0 0 0 0 0 0 z_b_34
S 950 6 1 0 0 6 1 887 5956 40800016 3000 A 0 0 0 0 0 0 0 0 0 0 0 0 0 0 0 0 0 0 0 0 0 0 0 0 0 0 0 0 z_b_35
S 951 6 1 0 0 6 1 887 6196 40800016 3000 A 0 0 0 0 0 0 0 0 0 0 0 0 0 0 0 0 0 0 0 0 0 0 0 0 0 0 0 0 z_e_737
S 952 6 1 0 0 6 1 887 5971 40800016 3000 A 0 0 0 0 0 0 0 0 0 0 0 0 0 0 0 0 0 0 0 0 0 0 0 0 0 0 0 0 z_b_36
S 953 6 1 0 0 6 1 887 5978 40800016 3000 A 0 0 0 0 0 0 0 0 0 0 0 0 0 0 0 0 0 0 0 0 0 0 0 0 0 0 0 0 z_b_38
S 954 6 1 0 0 6 1 887 5985 40800016 3000 A 0 0 0 0 0 0 0 0 0 0 0 0 0 0 0 0 0 0 0 0 0 0 0 0 0 0 0 0 z_b_39
S 955 6 1 0 0 6 1 887 6204 40800016 3000 A 0 0 0 0 0 0 0 0 0 0 0 0 0 0 0 0 0 0 0 0 0 0 0 0 0 0 0 0 z_e_744
S 956 6 1 0 0 6 1 887 6000 40800016 3000 A 0 0 0 0 0 0 0 0 0 0 0 0 0 0 0 0 0 0 0 0 0 0 0 0 0 0 0 0 z_b_40
S 957 6 1 0 0 6 1 887 6007 40800016 3000 A 0 0 0 0 0 0 0 0 0 0 0 0 0 0 0 0 0 0 0 0 0 0 0 0 0 0 0 0 z_b_42
S 958 6 1 0 0 6 1 887 6014 40800016 3000 A 0 0 0 0 0 0 0 0 0 0 0 0 0 0 0 0 0 0 0 0 0 0 0 0 0 0 0 0 z_b_43
S 959 6 1 0 0 6 1 887 6212 40800016 3000 A 0 0 0 0 0 0 0 0 0 0 0 0 0 0 0 0 0 0 0 0 0 0 0 0 0 0 0 0 z_e_751
S 960 6 1 0 0 6 1 887 6029 40800016 3000 A 0 0 0 0 0 0 0 0 0 0 0 0 0 0 0 0 0 0 0 0 0 0 0 0 0 0 0 0 z_b_44
S 961 6 1 0 0 6 1 887 6036 40800016 3000 A 0 0 0 0 0 0 0 0 0 0 0 0 0 0 0 0 0 0 0 0 0 0 0 0 0 0 0 0 z_b_46
S 962 6 1 0 0 6 1 887 6043 40800016 3000 A 0 0 0 0 0 0 0 0 0 0 0 0 0 0 0 0 0 0 0 0 0 0 0 0 0 0 0 0 z_b_47
S 963 6 1 0 0 6 1 887 6220 40800016 3000 A 0 0 0 0 0 0 0 0 0 0 0 0 0 0 0 0 0 0 0 0 0 0 0 0 0 0 0 0 z_e_758
S 964 6 1 0 0 6 1 887 6058 40800016 3000 A 0 0 0 0 0 0 0 0 0 0 0 0 0 0 0 0 0 0 0 0 0 0 0 0 0 0 0 0 z_b_48
S 965 6 1 0 0 6 1 887 6065 40800016 3000 A 0 0 0 0 0 0 0 0 0 0 0 0 0 0 0 0 0 0 0 0 0 0 0 0 0 0 0 0 z_b_50
S 966 6 1 0 0 6 1 887 6072 40800016 3000 A 0 0 0 0 0 0 0 0 0 0 0 0 0 0 0 0 0 0 0 0 0 0 0 0 0 0 0 0 z_b_51
S 967 6 1 0 0 6 1 887 6228 40800016 3000 A 0 0 0 0 0 0 0 0 0 0 0 0 0 0 0 0 0 0 0 0 0 0 0 0 0 0 0 0 z_e_765
S 968 6 1 0 0 6 1 887 6087 40800016 3000 A 0 0 0 0 0 0 0 0 0 0 0 0 0 0 0 0 0 0 0 0 0 0 0 0 0 0 0 0 z_b_52
S 969 6 1 0 0 6 1 887 6094 40800016 3000 A 0 0 0 0 0 0 0 0 0 0 0 0 0 0 0 0 0 0 0 0 0 0 0 0 0 0 0 0 z_b_54
S 970 6 1 0 0 6 1 887 6101 40800016 3000 A 0 0 0 0 0 0 0 0 0 0 0 0 0 0 0 0 0 0 0 0 0 0 0 0 0 0 0 0 z_b_55
S 971 6 1 0 0 6 1 887 6236 40800016 3000 A 0 0 0 0 0 0 0 0 0 0 0 0 0 0 0 0 0 0 0 0 0 0 0 0 0 0 0 0 z_e_772
R 975 25 2 fft_types fft_dlay_descriptor
R 976 5 3 fft_types nst fft_dlay_descriptor
R 977 5 4 fft_types nsp fft_dlay_descriptor
R 979 5 6 fft_types nsp$sd fft_dlay_descriptor
R 980 5 7 fft_types nsp$p fft_dlay_descriptor
R 981 5 8 fft_types nsp$o fft_dlay_descriptor
R 983 5 10 fft_types nsw fft_dlay_descriptor
R 985 5 12 fft_types nsw$sd fft_dlay_descriptor
R 986 5 13 fft_types nsw$p fft_dlay_descriptor
R 987 5 14 fft_types nsw$o fft_dlay_descriptor
R 989 5 16 fft_types nr1 fft_dlay_descriptor
R 990 5 17 fft_types nr2 fft_dlay_descriptor
R 991 5 18 fft_types nr3 fft_dlay_descriptor
R 992 5 19 fft_types nr1x fft_dlay_descriptor
R 993 5 20 fft_types nr2x fft_dlay_descriptor
R 994 5 21 fft_types nr3x fft_dlay_descriptor
R 995 5 22 fft_types npl fft_dlay_descriptor
R 996 5 23 fft_types nnp fft_dlay_descriptor
R 997 5 24 fft_types nnr fft_dlay_descriptor
R 998 5 25 fft_types ngt fft_dlay_descriptor
R 999 5 26 fft_types ngl fft_dlay_descriptor
R 1001 5 28 fft_types ngl$sd fft_dlay_descriptor
R 1002 5 29 fft_types ngl$p fft_dlay_descriptor
R 1003 5 30 fft_types ngl$o fft_dlay_descriptor
R 1005 5 32 fft_types nwl fft_dlay_descriptor
R 1007 5 34 fft_types nwl$sd fft_dlay_descriptor
R 1008 5 35 fft_types nwl$p fft_dlay_descriptor
R 1009 5 36 fft_types nwl$o fft_dlay_descriptor
R 1011 5 38 fft_types npp fft_dlay_descriptor
R 1013 5 40 fft_types npp$sd fft_dlay_descriptor
R 1014 5 41 fft_types npp$p fft_dlay_descriptor
R 1015 5 42 fft_types npp$o fft_dlay_descriptor
R 1017 5 44 fft_types ipp fft_dlay_descriptor
R 1019 5 46 fft_types ipp$sd fft_dlay_descriptor
R 1020 5 47 fft_types ipp$p fft_dlay_descriptor
R 1021 5 48 fft_types ipp$o fft_dlay_descriptor
R 1023 5 50 fft_types iss fft_dlay_descriptor
R 1025 5 52 fft_types iss$sd fft_dlay_descriptor
R 1026 5 53 fft_types iss$p fft_dlay_descriptor
R 1027 5 54 fft_types iss$o fft_dlay_descriptor
R 1029 5 56 fft_types isind fft_dlay_descriptor
R 1031 5 58 fft_types isind$sd fft_dlay_descriptor
R 1032 5 59 fft_types isind$p fft_dlay_descriptor
R 1033 5 60 fft_types isind$o fft_dlay_descriptor
R 1035 5 62 fft_types ismap fft_dlay_descriptor
R 1037 5 64 fft_types ismap$sd fft_dlay_descriptor
R 1038 5 65 fft_types ismap$p fft_dlay_descriptor
R 1039 5 66 fft_types ismap$o fft_dlay_descriptor
R 1041 5 68 fft_types iplp fft_dlay_descriptor
R 1043 5 70 fft_types iplp$sd fft_dlay_descriptor
R 1044 5 71 fft_types iplp$p fft_dlay_descriptor
R 1045 5 72 fft_types iplp$o fft_dlay_descriptor
R 1047 5 74 fft_types iplw fft_dlay_descriptor
R 1049 5 76 fft_types iplw$sd fft_dlay_descriptor
R 1050 5 77 fft_types iplw$p fft_dlay_descriptor
R 1051 5 78 fft_types iplw$o fft_dlay_descriptor
R 1053 5 80 fft_types id fft_dlay_descriptor
R 1054 5 81 fft_types tptr fft_dlay_descriptor
R 1055 5 82 fft_types irb fft_dlay_descriptor
R 1058 5 85 fft_types irb$sd fft_dlay_descriptor
R 1059 5 86 fft_types irb$p fft_dlay_descriptor
R 1060 5 87 fft_types irb$o fft_dlay_descriptor
R 1062 5 89 fft_types imin3 fft_dlay_descriptor
R 1064 5 91 fft_types imin3$sd fft_dlay_descriptor
R 1065 5 92 fft_types imin3$p fft_dlay_descriptor
R 1066 5 93 fft_types imin3$o fft_dlay_descriptor
R 1068 5 95 fft_types imax3 fft_dlay_descriptor
R 1070 5 97 fft_types imax3$sd fft_dlay_descriptor
R 1071 5 98 fft_types imax3$p fft_dlay_descriptor
R 1072 5 99 fft_types imax3$o fft_dlay_descriptor
R 1074 5 101 fft_types np3 fft_dlay_descriptor
R 1076 5 103 fft_types np3$sd fft_dlay_descriptor
R 1077 5 104 fft_types np3$p fft_dlay_descriptor
R 1078 5 105 fft_types np3$o fft_dlay_descriptor
R 1080 5 107 fft_types have_task_groups fft_dlay_descriptor
R 1081 5 108 fft_types nnrx fft_dlay_descriptor
R 1082 5 109 fft_types tg_nsw fft_dlay_descriptor
R 1084 5 111 fft_types tg_nsw$sd fft_dlay_descriptor
R 1085 5 112 fft_types tg_nsw$p fft_dlay_descriptor
R 1086 5 113 fft_types tg_nsw$o fft_dlay_descriptor
R 1088 5 115 fft_types tg_npp fft_dlay_descriptor
R 1090 5 117 fft_types tg_npp$sd fft_dlay_descriptor
R 1091 5 118 fft_types tg_npp$p fft_dlay_descriptor
R 1092 5 119 fft_types tg_npp$o fft_dlay_descriptor
S 1242 23 5 0 0 0 1267 582 4987 0 0 A 0 0 0 0 0 0 0 0 0 0 0 0 0 0 0 0 0 0 0 0 0 0 0 0 0 0 0 0 pstickset
S 1243 1 3 3 0 410 1 1242 7615 14 3000 A 0 0 0 0 0 0 0 0 0 0 0 0 0 0 0 0 0 0 0 0 0 0 0 0 0 0 0 0 dfftp
S 1244 1 3 3 0 410 1 1242 7621 14 3000 A 0 0 0 0 0 0 0 0 0 0 0 0 0 0 0 0 0 0 0 0 0 0 0 0 0 0 0 0 dffts
S 1245 1 3 1 0 9 1 1242 7627 14 3000 A 0 0 0 0 0 0 0 0 0 0 0 0 0 0 0 0 0 0 0 0 0 0 0 0 0 0 0 0 alat
S 1246 7 3 1 0 416 1 1242 7632 800014 3000 A 0 0 0 0 0 0 0 0 0 0 0 0 0 0 0 0 0 0 0 0 0 0 0 0 0 0 0 0 a1
S 1247 7 3 1 0 419 1 1242 7635 800014 3000 A 0 0 0 0 0 0 0 0 0 0 0 0 0 0 0 0 0 0 0 0 0 0 0 0 0 0 0 0 a2
S 1248 7 3 1 0 422 1 1242 7638 800014 3000 A 0 0 0 0 0 0 0 0 0 0 0 0 0 0 0 0 0 0 0 0 0 0 0 0 0 0 0 0 a3
S 1249 1 3 1 0 9 1 1242 5153 14 3000 A 0 0 0 0 0 0 0 0 0 0 0 0 0 0 0 0 0 0 0 0 0 0 0 0 0 0 0 0 gcut
S 1250 1 3 1 0 9 1 1242 5398 14 3000 A 0 0 0 0 0 0 0 0 0 0 0 0 0 0 0 0 0 0 0 0 0 0 0 0 0 0 0 0 gkcut
S 1251 1 3 1 0 9 1 1242 5164 14 3000 A 0 0 0 0 0 0 0 0 0 0 0 0 0 0 0 0 0 0 0 0 0 0 0 0 0 0 0 0 gcuts
S 1252 1 3 1 0 6 1 1242 6346 14 3000 A 0 0 0 0 0 0 0 0 0 0 0 0 0 0 0 0 0 0 0 0 0 0 0 0 0 0 0 0 nr1
S 1253 1 3 1 0 6 1 1242 6350 14 3000 A 0 0 0 0 0 0 0 0 0 0 0 0 0 0 0 0 0 0 0 0 0 0 0 0 0 0 0 0 nr2
S 1254 1 3 1 0 6 1 1242 6354 14 3000 A 0 0 0 0 0 0 0 0 0 0 0 0 0 0 0 0 0 0 0 0 0 0 0 0 0 0 0 0 nr3
S 1255 1 3 1 0 6 1 1242 6358 14 3000 A 0 0 0 0 0 0 0 0 0 0 0 0 0 0 0 0 0 0 0 0 0 0 0 0 0 0 0 0 nr1x
S 1256 1 3 1 0 6 1 1242 6363 14 3000 A 0 0 0 0 0 0 0 0 0 0 0 0 0 0 0 0 0 0 0 0 0 0 0 0 0 0 0 0 nr2x
S 1257 1 3 1 0 6 1 1242 6368 14 3000 A 0 0 0 0 0 0 0 0 0 0 0 0 0 0 0 0 0 0 0 0 0 0 0 0 0 0 0 0 nr3x
S 1258 1 3 1 0 6 1 1242 7641 14 3000 A 0 0 0 0 0 0 0 0 0 0 0 0 0 0 0 0 0 0 0 0 0 0 0 0 0 0 0 0 nr1s
S 1259 1 3 1 0 6 1 1242 7646 14 3000 A 0 0 0 0 0 0 0 0 0 0 0 0 0 0 0 0 0 0 0 0 0 0 0 0 0 0 0 0 nr2s
S 1260 1 3 1 0 6 1 1242 7651 14 3000 A 0 0 0 0 0 0 0 0 0 0 0 0 0 0 0 0 0 0 0 0 0 0 0 0 0 0 0 0 nr3s
S 1261 1 3 1 0 6 1 1242 7656 14 3000 A 0 0 0 0 0 0 0 0 0 0 0 0 0 0 0 0 0 0 0 0 0 0 0 0 0 0 0 0 nr1sx
S 1262 1 3 1 0 6 1 1242 7662 14 3000 A 0 0 0 0 0 0 0 0 0 0 0 0 0 0 0 0 0 0 0 0 0 0 0 0 0 0 0 0 nr2sx
S 1263 1 3 1 0 6 1 1242 7668 14 3000 A 0 0 0 0 0 0 0 0 0 0 0 0 0 0 0 0 0 0 0 0 0 0 0 0 0 0 0 0 nr3sx
S 1264 1 3 2 0 6 1 1242 7674 14 3000 A 0 0 0 0 0 0 0 0 0 0 0 0 0 0 0 0 0 0 0 0 0 0 0 0 0 0 0 0 ngw
S 1265 1 3 2 0 6 1 1242 5411 14 3000 A 0 0 0 0 0 0 0 0 0 0 0 0 0 0 0 0 0 0 0 0 0 0 0 0 0 0 0 0 ngm
S 1266 1 3 2 0 6 1 1242 7678 14 3000 A 0 0 0 0 0 0 0 0 0 0 0 0 0 0 0 0 0 0 0 0 0 0 0 0 0 0 0 0 ngs
S 1267 14 5 0 0 0 1 1242 4987 0 400000 A 0 0 0 0 0 0 0 159 24 0 0 0 0 0 0 0 0 0 0 0 0 546 0 582 0 0 0 0 pstickset
F 1267 24 1243 1244 1245 1246 1247 1248 1249 1250 1251 1252 1253 1254 1255 1256 1257 1258 1259 1260 1261 1262 1263 1264 1265 1266
S 1268 23 5 0 0 0 1269 582 4969 0 0 A 0 0 0 0 0 0 0 0 0 0 0 0 0 0 0 0 0 0 0 0 0 0 0 0 0 0 0 0 sticks_deallocate
S 1269 14 5 0 0 0 1 1268 4969 0 400000 A 0 0 0 0 0 0 0 184 0 0 0 0 0 0 0 0 0 0 0 0 0 778 0 582 0 0 0 0 sticks_deallocate
F 1269 0
A 13 2 0 0 0 6 586 0 0 0 13 0 0 0 0 0 0 0 0 0
A 19 2 0 0 0 6 629 0 0 0 19 0 0 0 0 0 0 0 0 0
A 20 2 0 0 0 6 634 0 0 0 20 0 0 0 0 0 0 0 0 0
A 21 1 0 1 0 59 630 0 0 0 0 0 0 0 0 0 0 0 0 0
A 22 10 0 0 0 6 21 1 0 0 0 0 0 0 0 0 0 0 0 0
X 1 20
A 23 2 0 0 0 6 635 0 0 0 23 0 0 0 0 0 0 0 0 0
A 24 10 0 0 22 6 21 4 0 0 0 0 0 0 0 0 0 0 0 0
X 1 23
A 25 4 0 0 0 6 24 0 3 0 0 0 0 2 0 0 0 0 0 0
A 26 4 0 0 0 6 22 0 25 0 0 0 0 1 0 0 0 0 0 0
A 27 2 0 0 0 6 636 0 0 0 27 0 0 0 0 0 0 0 0 0
A 28 10 0 0 24 6 21 7 0 0 0 0 0 0 0 0 0 0 0 0
X 1 27
A 29 2 0 0 0 6 637 0 0 0 29 0 0 0 0 0 0 0 0 0
A 30 10 0 0 28 6 21 10 0 0 0 0 0 0 0 0 0 0 0 0
X 1 29
A 31 4 0 0 0 6 30 0 3 0 0 0 0 2 0 0 0 0 0 0
A 32 4 0 0 0 6 28 0 31 0 0 0 0 1 0 0 0 0 0 0
A 33 2 0 0 0 6 638 0 0 0 33 0 0 0 0 0 0 0 0 0
A 34 10 0 0 30 6 21 13 0 0 0 0 0 0 0 0 0 0 0 0
X 1 33
A 35 2 0 0 0 6 639 0 0 0 35 0 0 0 0 0 0 0 0 0
A 36 10 0 0 34 6 21 16 0 0 0 0 0 0 0 0 0 0 0 0
X 1 35
A 37 2 0 0 0 6 640 0 0 0 37 0 0 0 0 0 0 0 0 0
A 38 10 0 0 36 6 21 19 0 0 0 0 0 0 0 0 0 0 0 0
X 1 37
A 39 10 0 0 38 6 21 22 0 0 0 0 0 0 0 0 0 0 0 0
X 1 13
A 40 1 0 0 0 6 661 0 0 0 0 0 0 0 0 0 0 0 0 0
A 41 1 0 0 0 6 659 0 0 0 0 0 0 0 0 0 0 0 0 0
A 42 1 0 0 0 6 662 0 0 0 0 0 0 0 0 0 0 0 0 0
A 43 1 0 0 0 6 660 0 0 0 0 0 0 0 0 0 0 0 0 0
A 44 1 0 0 0 6 665 0 0 0 0 0 0 0 0 0 0 0 0 0
A 45 1 0 0 0 6 663 0 0 0 0 0 0 0 0 0 0 0 0 0
A 46 1 0 0 0 6 666 0 0 0 0 0 0 0 0 0 0 0 0 0
A 47 1 0 0 0 6 664 0 0 0 0 0 0 0 0 0 0 0 0 0
A 48 1 0 0 0 6 669 0 0 0 0 0 0 0 0 0 0 0 0 0
A 49 1 0 0 0 6 667 0 0 0 0 0 0 0 0 0 0 0 0 0
A 50 1 0 0 0 6 670 0 0 0 0 0 0 0 0 0 0 0 0 0
A 51 1 0 0 0 6 668 0 0 0 0 0 0 0 0 0 0 0 0 0
A 52 1 0 0 0 6 673 0 0 0 0 0 0 0 0 0 0 0 0 0
A 53 1 0 0 0 6 671 0 0 0 0 0 0 0 0 0 0 0 0 0
A 54 1 0 0 0 6 674 0 0 0 0 0 0 0 0 0 0 0 0 0
A 55 1 0 0 0 6 672 0 0 0 0 0 0 0 0 0 0 0 0 0
A 56 1 0 0 0 6 677 0 0 0 0 0 0 0 0 0 0 0 0 0
A 57 1 0 0 0 6 675 0 0 0 0 0 0 0 0 0 0 0 0 0
A 58 1 0 0 0 6 678 0 0 0 0 0 0 0 0 0 0 0 0 0
A 59 1 0 0 0 6 676 0 0 0 0 0 0 0 0 0 0 0 0 0
A 60 1 0 0 0 6 686 0 0 0 0 0 0 0 0 0 0 0 0 0
A 61 1 0 3 0 65 647 0 0 0 0 0 0 0 0 0 0 0 0 0
A 62 10 0 0 0 6 61 25 0 0 0 0 0 0 0 0 0 0 0 0
X 1 3
A 63 1 0 5 0 62 646 0 0 0 0 0 0 0 0 0 0 0 0 0
A 64 10 0 0 0 6 63 25 0 0 0 0 0 0 0 0 0 0 0 0
X 1 3
A 65 1 0 0 0 6 679 0 0 0 0 0 0 0 0 0 0 0 0 0
A 66 1 0 0 0 6 680 0 0 0 0 0 0 0 0 0 0 0 0 0
A 67 1 0 0 2 6 681 0 0 0 0 0 0 0 0 0 0 0 0 0
A 68 2 0 0 0 6 658 0 0 0 68 0 0 0 0 0 0 0 0 0
A 69 10 0 0 62 6 61 28 0 0 0 0 0 0 0 0 0 0 0 0
X 1 68
A 70 10 0 0 64 6 63 28 0 0 0 0 0 0 0 0 0 0 0 0
X 1 68
A 71 1 0 0 10 6 682 0 0 0 0 0 0 0 0 0 0 0 0 0
A 72 1 0 0 3 6 683 0 0 0 0 0 0 0 0 0 0 0 0 0
A 73 1 0 0 11 6 684 0 0 0 0 0 0 0 0 0 0 0 0 0
A 74 1 0 0 0 6 685 0 0 0 0 0 0 0 0 0 0 0 0 0
A 75 1 0 0 0 6 703 0 0 0 0 0 0 0 0 0 0 0 0 0
A 76 1 0 0 0 6 701 0 0 0 0 0 0 0 0 0 0 0 0 0
A 77 1 0 0 0 6 704 0 0 0 0 0 0 0 0 0 0 0 0 0
A 78 1 0 0 0 6 702 0 0 0 0 0 0 0 0 0 0 0 0 0
A 79 1 0 0 0 6 707 0 0 0 0 0 0 0 0 0 0 0 0 0
A 80 1 0 0 0 6 705 0 0 0 0 0 0 0 0 0 0 0 0 0
A 81 1 0 0 0 6 708 0 0 0 0 0 0 0 0 0 0 0 0 0
A 82 1 0 0 0 6 706 0 0 0 0 0 0 0 0 0 0 0 0 0
A 83 1 0 0 0 6 711 0 0 0 0 0 0 0 0 0 0 0 0 0
A 84 1 0 0 0 6 709 0 0 0 0 0 0 0 0 0 0 0 0 0
A 85 1 0 0 0 6 712 0 0 0 0 0 0 0 0 0 0 0 0 0
A 86 1 0 0 0 6 710 0 0 0 0 0 0 0 0 0 0 0 0 0
A 87 1 0 0 0 6 715 0 0 0 0 0 0 0 0 0 0 0 0 0
A 88 1 0 0 0 6 713 0 0 0 0 0 0 0 0 0 0 0 0 0
A 89 1 0 0 0 6 716 0 0 0 0 0 0 0 0 0 0 0 0 0
A 90 1 0 0 0 6 714 0 0 0 0 0 0 0 0 0 0 0 0 0
A 91 1 0 0 0 6 719 0 0 0 0 0 0 0 0 0 0 0 0 0
A 92 1 0 0 0 6 717 0 0 0 0 0 0 0 0 0 0 0 0 0
A 93 1 0 0 0 6 720 0 0 0 0 0 0 0 0 0 0 0 0 0
A 94 1 0 0 0 6 718 0 0 0 0 0 0 0 0 0 0 0 0 0
A 95 1 0 0 0 6 729 0 0 0 0 0 0 0 0 0 0 0 0 0
A 96 1 0 7 0 89 690 0 0 0 0 0 0 0 0 0 0 0 0 0
A 97 10 0 0 0 6 96 28 0 0 0 0 0 0 0 0 0 0 0 0
X 1 68
A 98 1 0 9 0 86 689 0 0 0 0 0 0 0 0 0 0 0 0 0
A 99 10 0 0 0 6 98 28 0 0 0 0 0 0 0 0 0 0 0 0
X 1 68
A 100 1 0 0 26 6 722 0 0 0 0 0 0 0 0 0 0 0 0 0
A 101 1 0 0 0 6 723 0 0 0 0 0 0 0 0 0 0 0 0 0
A 102 1 0 0 0 6 724 0 0 0 0 0 0 0 0 0 0 0 0 0
A 103 2 0 0 0 6 721 0 0 0 103 0 0 0 0 0 0 0 0 0
A 104 10 0 0 97 6 96 31 0 0 0 0 0 0 0 0 0 0 0 0
X 1 103
A 105 10 0 0 99 6 98 31 0 0 0 0 0 0 0 0 0 0 0 0
X 1 103
A 106 1 0 0 0 6 725 0 0 0 0 0 0 0 0 0 0 0 0 0
A 107 1 0 0 0 6 726 0 0 0 0 0 0 0 0 0 0 0 0 0
A 108 1 0 0 0 6 727 0 0 0 0 0 0 0 0 0 0 0 0 0
A 109 1 0 0 0 6 728 0 0 0 0 0 0 0 0 0 0 0 0 0
A 110 1 0 0 0 6 739 0 0 0 0 0 0 0 0 0 0 0 0 0
A 111 1 0 0 0 6 737 0 0 0 0 0 0 0 0 0 0 0 0 0
A 112 1 0 0 0 6 740 0 0 0 0 0 0 0 0 0 0 0 0 0
A 113 1 0 0 0 6 738 0 0 0 0 0 0 0 0 0 0 0 0 0
A 114 1 0 0 0 6 743 0 0 0 0 0 0 0 0 0 0 0 0 0
A 115 1 0 0 19 6 741 0 0 0 0 0 0 0 0 0 0 0 0 0
A 116 1 0 0 0 6 744 0 0 0 0 0 0 0 0 0 0 0 0 0
A 117 1 0 0 21 6 742 0 0 0 0 0 0 0 0 0 0 0 0 0
A 118 1 0 0 23 6 747 0 0 0 0 0 0 0 0 0 0 0 0 0
A 119 1 0 0 0 6 745 0 0 0 0 0 0 0 0 0 0 0 0 0
A 120 1 0 0 27 6 748 0 0 0 0 0 0 0 0 0 0 0 0 0
A 121 1 0 0 20 6 746 0 0 0 0 0 0 0 0 0 0 0 0 0
A 122 1 0 0 35 6 751 0 0 0 0 0 0 0 0 0 0 0 0 0
A 123 1 0 0 29 6 749 0 0 0 0 0 0 0 0 0 0 0 0 0
A 124 1 0 0 37 6 752 0 0 0 0 0 0 0 0 0 0 0 0 0
A 125 1 0 0 33 6 750 0 0 0 0 0 0 0 0 0 0 0 0 0
A 126 1 0 0 0 6 768 0 0 0 0 0 0 0 0 0 0 0 0 0
A 127 1 0 0 0 6 766 0 0 0 0 0 0 0 0 0 0 0 0 0
A 128 1 0 0 0 6 769 0 0 0 0 0 0 0 0 0 0 0 0 0
A 129 1 0 0 0 6 767 0 0 0 0 0 0 0 0 0 0 0 0 0
A 130 1 0 0 0 6 772 0 0 0 0 0 0 0 0 0 0 0 0 0
A 131 1 0 0 68 6 770 0 0 0 0 0 0 0 0 0 0 0 0 0
A 132 1 0 0 0 6 773 0 0 0 0 0 0 0 0 0 0 0 0 0
A 133 1 0 0 0 6 771 0 0 0 0 0 0 0 0 0 0 0 0 0
A 134 1 0 0 0 6 781 0 0 0 0 0 0 0 0 0 0 0 0 0
A 135 1 0 11 0 119 756 0 0 0 0 0 0 0 0 0 0 0 0 0
A 136 10 0 0 0 6 135 25 0 0 0 0 0 0 0 0 0 0 0 0
X 1 3
A 137 1 0 13 0 116 755 0 0 0 0 0 0 0 0 0 0 0 0 0
A 138 10 0 0 0 6 137 25 0 0 0 0 0 0 0 0 0 0 0 0
X 1 3
A 139 1 0 0 0 6 774 0 0 0 0 0 0 0 0 0 0 0 0 0
A 140 1 0 0 0 6 775 0 0 0 0 0 0 0 0 0 0 0 0 0
A 141 1 0 0 0 6 776 0 0 0 0 0 0 0 0 0 0 0 0 0
A 142 10 0 0 136 6 135 28 0 0 0 0 0 0 0 0 0 0 0 0
X 1 68
A 143 10 0 0 138 6 137 28 0 0 0 0 0 0 0 0 0 0 0 0
X 1 68
A 144 1 0 0 0 6 777 0 0 0 0 0 0 0 0 0 0 0 0 0
A 145 1 0 0 0 6 778 0 0 0 0 0 0 0 0 0 0 0 0 0
A 146 1 0 0 0 6 779 0 0 0 0 0 0 0 0 0 0 0 0 0
A 147 1 0 0 0 6 780 0 0 0 0 0 0 0 0 0 0 0 0 0
A 148 1 0 0 0 6 784 0 0 0 0 0 0 0 0 0 0 0 0 0
A 149 1 0 0 0 6 782 0 0 0 0 0 0 0 0 0 0 0 0 0
A 150 1 0 0 0 6 785 0 0 0 0 0 0 0 0 0 0 0 0 0
A 151 1 0 0 0 6 783 0 0 0 0 0 0 0 0 0 0 0 0 0
A 152 1 0 0 0 6 788 0 0 0 0 0 0 0 0 0 0 0 0 0
A 153 1 0 0 0 6 786 0 0 0 0 0 0 0 0 0 0 0 0 0
A 154 1 0 0 0 6 789 0 0 0 0 0 0 0 0 0 0 0 0 0
A 155 1 0 0 0 6 787 0 0 0 0 0 0 0 0 0 0 0 0 0
A 156 1 0 0 0 6 792 0 0 0 0 0 0 0 0 0 0 0 0 0
A 157 1 0 0 0 6 790 0 0 0 0 0 0 0 0 0 0 0 0 0
A 158 1 0 0 0 6 793 0 0 0 0 0 0 0 0 0 0 0 0 0
A 159 1 0 0 0 6 791 0 0 0 0 0 0 0 0 0 0 0 0 0
A 160 1 0 0 0 6 796 0 0 0 0 0 0 0 0 0 0 0 0 0
A 161 1 0 0 0 6 794 0 0 0 0 0 0 0 0 0 0 0 0 0
A 162 1 0 0 0 6 797 0 0 0 0 0 0 0 0 0 0 0 0 0
A 163 1 0 0 0 6 795 0 0 0 0 0 0 0 0 0 0 0 0 0
A 164 1 0 0 0 6 800 0 0 0 0 0 0 0 0 0 0 0 0 0
A 165 1 0 0 0 6 798 0 0 0 0 0 0 0 0 0 0 0 0 0
A 166 1 0 0 0 6 801 0 0 0 0 0 0 0 0 0 0 0 0 0
A 167 1 0 0 0 6 799 0 0 0 0 0 0 0 0 0 0 0 0 0
A 168 1 0 0 0 6 825 0 0 0 0 0 0 0 0 0 0 0 0 0
A 169 1 0 0 0 6 823 0 0 0 0 0 0 0 0 0 0 0 0 0
A 170 1 0 0 0 6 826 0 0 0 0 0 0 0 0 0 0 0 0 0
A 171 1 0 0 0 6 824 0 0 0 0 0 0 0 0 0 0 0 0 0
A 172 1 0 0 0 6 829 0 0 0 0 0 0 0 0 0 0 0 0 0
A 173 1 0 0 0 6 827 0 0 0 0 0 0 0 0 0 0 0 0 0
A 174 1 0 0 0 6 830 0 0 0 0 0 0 0 0 0 0 0 0 0
A 175 1 0 0 0 6 828 0 0 0 0 0 0 0 0 0 0 0 0 0
A 176 1 0 0 103 6 833 0 0 0 0 0 0 0 0 0 0 0 0 0
A 177 1 0 0 0 6 831 0 0 0 0 0 0 0 0 0 0 0 0 0
A 178 1 0 0 0 6 834 0 0 0 0 0 0 0 0 0 0 0 0 0
A 179 1 0 0 0 6 832 0 0 0 0 0 0 0 0 0 0 0 0 0
A 180 1 0 0 0 6 842 0 0 0 0 0 0 0 0 0 0 0 0 0
A 181 1 0 15 0 149 805 0 0 0 0 0 0 0 0 0 0 0 0 0
A 182 10 0 0 60 6 181 25 0 0 0 0 0 0 0 0 0 0 0 0
X 1 3
A 183 1 0 17 0 146 804 0 0 0 0 0 0 0 0 0 0 0 0 0
A 184 10 0 0 0 6 183 25 0 0 0 0 0 0 0 0 0 0 0 0
X 1 3
A 185 1 0 0 0 6 835 0 0 0 0 0 0 0 0 0 0 0 0 0
A 186 1 0 0 0 6 836 0 0 0 0 0 0 0 0 0 0 0 0 0
A 187 1 0 0 0 6 837 0 0 0 0 0 0 0 0 0 0 0 0 0
A 188 10 0 0 182 6 181 28 0 0 0 0 0 0 0 0 0 0 0 0
X 1 68
A 189 10 0 0 184 6 183 28 0 0 0 0 0 0 0 0 0 0 0 0
X 1 68
A 190 1 0 0 0 6 838 0 0 0 0 0 0 0 0 0 0 0 0 0
A 191 1 0 0 0 6 839 0 0 0 0 0 0 0 0 0 0 0 0 0
A 192 1 0 0 0 6 840 0 0 0 0 0 0 0 0 0 0 0 0 0
A 193 1 0 0 0 6 841 0 0 0 0 0 0 0 0 0 0 0 0 0
A 194 1 0 0 0 6 845 0 0 0 0 0 0 0 0 0 0 0 0 0
A 195 1 0 0 0 6 843 0 0 0 0 0 0 0 0 0 0 0 0 0
A 196 1 0 0 0 6 846 0 0 0 0 0 0 0 0 0 0 0 0 0
A 197 1 0 0 0 6 844 0 0 0 0 0 0 0 0 0 0 0 0 0
A 198 1 0 0 0 6 849 0 0 0 0 0 0 0 0 0 0 0 0 0
A 199 1 0 0 9 6 847 0 0 0 0 0 0 0 0 0 0 0 0 0
A 200 1 0 0 0 6 850 0 0 0 0 0 0 0 0 0 0 0 0 0
A 201 1 0 0 0 6 848 0 0 0 0 0 0 0 0 0 0 0 0 0
A 202 1 0 0 0 6 853 0 0 0 0 0 0 0 0 0 0 0 0 0
A 203 1 0 0 0 6 851 0 0 0 0 0 0 0 0 0 0 0 0 0
A 204 1 0 0 0 6 854 0 0 0 0 0 0 0 0 0 0 0 0 0
A 205 1 0 0 0 6 852 0 0 0 0 0 0 0 0 0 0 0 0 0
A 206 1 0 0 0 6 857 0 0 0 0 0 0 0 0 0 0 0 0 0
A 207 1 0 0 0 6 855 0 0 0 0 0 0 0 0 0 0 0 0 0
A 208 1 0 0 0 6 858 0 0 0 0 0 0 0 0 0 0 0 0 0
A 209 1 0 0 0 6 856 0 0 0 0 0 0 0 0 0 0 0 0 0
A 210 1 0 0 0 6 861 0 0 0 0 0 0 0 0 0 0 0 0 0
A 211 1 0 0 0 6 859 0 0 0 0 0 0 0 0 0 0 0 0 0
A 212 1 0 0 0 6 862 0 0 0 0 0 0 0 0 0 0 0 0 0
A 213 1 0 0 0 6 860 0 0 0 0 0 0 0 0 0 0 0 0 0
A 214 1 0 0 0 6 865 0 0 0 0 0 0 0 0 0 0 0 0 0
A 215 1 0 0 0 6 863 0 0 0 0 0 0 0 0 0 0 0 0 0
A 216 1 0 0 0 6 866 0 0 0 0 0 0 0 0 0 0 0 0 0
A 217 1 0 0 0 6 864 0 0 0 0 0 0 0 0 0 0 0 0 0
A 218 1 0 0 0 6 869 0 0 0 0 0 0 0 0 0 0 0 0 0
A 219 1 0 0 0 6 867 0 0 0 0 0 0 0 0 0 0 0 0 0
A 220 1 0 0 0 6 870 0 0 0 0 0 0 0 0 0 0 0 0 0
A 221 1 0 0 0 6 868 0 0 0 0 0 0 0 0 0 0 0 0 0
A 222 1 0 0 0 6 873 0 0 0 0 0 0 0 0 0 0 0 0 0
A 223 1 0 0 0 6 871 0 0 0 0 0 0 0 0 0 0 0 0 0
A 224 1 0 0 0 6 874 0 0 0 0 0 0 0 0 0 0 0 0 0
A 225 1 0 0 0 6 872 0 0 0 0 0 0 0 0 0 0 0 0 0
A 226 1 0 0 0 6 877 0 0 0 0 0 0 0 0 0 0 0 0 0
A 227 1 0 0 0 6 875 0 0 0 0 0 0 0 0 0 0 0 0 0
A 228 1 0 0 0 6 878 0 0 0 0 0 0 0 0 0 0 0 0 0
A 229 1 0 0 0 6 876 0 0 0 0 0 0 0 0 0 0 0 0 0
A 230 1 0 0 0 6 881 0 0 0 0 0 0 0 0 0 0 0 0 0
A 231 1 0 0 0 6 879 0 0 0 0 0 0 0 0 0 0 0 0 0
A 232 1 0 0 0 6 882 0 0 0 0 0 0 0 0 0 0 0 0 0
A 233 1 0 0 0 6 880 0 0 0 0 0 0 0 0 0 0 0 0 0
A 234 1 0 0 0 6 885 0 0 0 0 0 0 0 0 0 0 0 0 0
A 235 1 0 0 0 6 883 0 0 0 0 0 0 0 0 0 0 0 0 0
A 236 1 0 0 0 6 886 0 0 0 0 0 0 0 0 0 0 0 0 0
A 237 1 0 0 0 6 884 0 0 0 0 0 0 0 0 0 0 0 0 0
A 238 1 0 0 0 6 910 0 0 0 0 0 0 0 0 0 0 0 0 0
A 239 1 0 0 0 6 908 0 0 0 0 0 0 0 0 0 0 0 0 0
A 240 1 0 0 0 6 911 0 0 0 0 0 0 0 0 0 0 0 0 0
A 241 1 0 0 0 6 909 0 0 0 0 0 0 0 0 0 0 0 0 0
A 242 1 0 0 0 6 914 0 0 0 0 0 0 0 0 0 0 0 0 0
A 243 1 0 0 0 6 912 0 0 0 0 0 0 0 0 0 0 0 0 0
A 244 1 0 0 0 6 915 0 0 0 0 0 0 0 0 0 0 0 0 0
A 245 1 0 0 0 6 913 0 0 0 0 0 0 0 0 0 0 0 0 0
A 246 1 0 0 0 6 918 0 0 0 0 0 0 0 0 0 0 0 0 0
A 247 1 0 0 0 6 916 0 0 0 0 0 0 0 0 0 0 0 0 0
A 248 1 0 0 0 6 919 0 0 0 0 0 0 0 0 0 0 0 0 0
A 249 1 0 0 0 6 917 0 0 0 0 0 0 0 0 0 0 0 0 0
A 250 1 0 0 0 6 927 0 0 0 0 0 0 0 0 0 0 0 0 0
A 251 1 0 19 106 200 890 0 0 0 0 0 0 0 0 0 0 0 0 0
A 252 10 0 0 0 6 251 25 0 0 0 0 0 0 0 0 0 0 0 0
X 1 3
A 253 1 0 21 102 197 889 0 0 0 0 0 0 0 0 0 0 0 0 0
A 254 10 0 0 63 6 253 25 0 0 0 0 0 0 0 0 0 0 0 0
X 1 3
A 255 1 0 0 0 6 920 0 0 0 0 0 0 0 0 0 0 0 0 0
A 256 1 0 0 0 6 921 0 0 0 0 0 0 0 0 0 0 0 0 0
A 257 1 0 0 0 6 922 0 0 0 0 0 0 0 0 0 0 0 0 0
A 258 10 0 0 252 6 251 28 0 0 0 0 0 0 0 0 0 0 0 0
X 1 68
A 259 10 0 0 254 6 253 28 0 0 0 0 0 0 0 0 0 0 0 0
X 1 68
A 260 1 0 0 0 6 923 0 0 0 0 0 0 0 0 0 0 0 0 0
A 261 1 0 0 0 6 924 0 0 0 0 0 0 0 0 0 0 0 0 0
A 262 1 0 0 0 6 925 0 0 0 0 0 0 0 0 0 0 0 0 0
A 263 1 0 0 0 6 926 0 0 0 0 0 0 0 0 0 0 0 0 0
A 264 1 0 0 0 6 930 0 0 0 0 0 0 0 0 0 0 0 0 0
A 265 1 0 0 0 6 928 0 0 0 0 0 0 0 0 0 0 0 0 0
A 266 1 0 0 0 6 931 0 0 0 0 0 0 0 0 0 0 0 0 0
A 267 1 0 0 0 6 929 0 0 0 0 0 0 0 0 0 0 0 0 0
A 268 1 0 0 0 6 934 0 0 0 0 0 0 0 0 0 0 0 0 0
A 269 1 0 0 0 6 932 0 0 0 0 0 0 0 0 0 0 0 0 0
A 270 1 0 0 0 6 935 0 0 0 0 0 0 0 0 0 0 0 0 0
A 271 1 0 0 0 6 933 0 0 0 0 0 0 0 0 0 0 0 0 0
A 272 1 0 0 0 6 938 0 0 0 0 0 0 0 0 0 0 0 0 0
A 273 1 0 0 0 6 936 0 0 0 0 0 0 0 0 0 0 0 0 0
A 274 1 0 0 0 6 939 0 0 0 0 0 0 0 0 0 0 0 0 0
A 275 1 0 0 0 6 937 0 0 0 0 0 0 0 0 0 0 0 0 0
A 276 1 0 0 0 6 942 0 0 0 0 0 0 0 0 0 0 0 0 0
A 277 1 0 0 0 6 940 0 0 0 0 0 0 0 0 0 0 0 0 0
A 278 1 0 0 0 6 943 0 0 0 0 0 0 0 0 0 0 0 0 0
A 279 1 0 0 0 6 941 0 0 0 0 0 0 0 0 0 0 0 0 0
A 280 1 0 0 0 6 946 0 0 0 0 0 0 0 0 0 0 0 0 0
A 281 1 0 0 0 6 944 0 0 0 0 0 0 0 0 0 0 0 0 0
A 282 1 0 0 0 6 947 0 0 0 0 0 0 0 0 0 0 0 0 0
A 283 1 0 0 0 6 945 0 0 0 0 0 0 0 0 0 0 0 0 0
A 284 1 0 0 0 6 950 0 0 0 0 0 0 0 0 0 0 0 0 0
A 285 1 0 0 0 6 948 0 0 0 0 0 0 0 0 0 0 0 0 0
A 286 1 0 0 0 6 951 0 0 0 0 0 0 0 0 0 0 0 0 0
A 287 1 0 0 0 6 949 0 0 0 0 0 0 0 0 0 0 0 0 0
A 288 1 0 0 0 6 954 0 0 0 0 0 0 0 0 0 0 0 0 0
A 289 1 0 0 0 6 952 0 0 0 0 0 0 0 0 0 0 0 0 0
A 290 1 0 0 5 6 955 0 0 0 0 0 0 0 0 0 0 0 0 0
A 291 1 0 0 0 6 953 0 0 0 0 0 0 0 0 0 0 0 0 0
A 292 1 0 0 0 6 958 0 0 0 0 0 0 0 0 0 0 0 0 0
A 293 1 0 0 0 6 956 0 0 0 0 0 0 0 0 0 0 0 0 0
A 294 1 0 0 0 6 959 0 0 0 0 0 0 0 0 0 0 0 0 0
A 295 1 0 0 7 6 957 0 0 0 0 0 0 0 0 0 0 0 0 0
A 296 1 0 0 0 6 962 0 0 0 0 0 0 0 0 0 0 0 0 0
A 297 1 0 0 0 6 960 0 0 0 0 0 0 0 0 0 0 0 0 0
A 298 1 0 0 0 6 963 0 0 0 0 0 0 0 0 0 0 0 0 0
A 299 1 0 0 0 6 961 0 0 0 0 0 0 0 0 0 0 0 0 0
A 300 1 0 0 0 6 966 0 0 0 0 0 0 0 0 0 0 0 0 0
A 301 1 0 0 0 6 964 0 0 0 0 0 0 0 0 0 0 0 0 0
A 302 1 0 0 0 6 967 0 0 0 0 0 0 0 0 0 0 0 0 0
A 303 1 0 0 0 6 965 0 0 0 0 0 0 0 0 0 0 0 0 0
A 304 1 0 0 0 6 970 0 0 0 0 0 0 0 0 0 0 0 0 0
A 305 1 0 0 0 6 968 0 0 0 0 0 0 0 0 0 0 0 0 0
A 306 1 0 0 0 6 971 0 0 0 0 0 0 0 0 0 0 0 0 0
A 307 1 0 0 0 6 969 0 0 0 0 0 0 0 0 0 0 0 0 0
Z
Z
