V26 task_groups
15 task_groups.F90 S582 0
04/24/2012  15:51:15
use fft_types private
use kinds private
use fft_types private
use kinds private
enduse
D 56 24 632 1584 631 7
D 218 24 632 1584 631 7
D 224 21 9 1 256 259 1 1 0 0 1
 3 257 3 3 257 258
D 227 21 9 1 260 263 1 1 0 0 1
 3 261 3 3 261 262
S 582 24 0 0 0 9 1 0 4658 10005 0 A 0 0 0 0 0 0 0 0 0 0 0 0 0 0 0 0 0 0 0 0 0 15 0 0 0 0 0 0 task_groups
S 584 23 0 0 0 9 587 582 4676 4 0 A 0 0 0 0 0 0 0 0 0 0 0 0 0 0 0 0 0 0 0 0 0 0 0 582 0 0 0 0 dp
R 587 16 1 kinds dp
R 631 25 2 fft_types fft_dlay_descriptor
R 632 5 3 fft_types nst fft_dlay_descriptor
R 633 5 4 fft_types nsp fft_dlay_descriptor
R 635 5 6 fft_types nsp$sd fft_dlay_descriptor
R 636 5 7 fft_types nsp$p fft_dlay_descriptor
R 637 5 8 fft_types nsp$o fft_dlay_descriptor
R 639 5 10 fft_types nsw fft_dlay_descriptor
R 641 5 12 fft_types nsw$sd fft_dlay_descriptor
R 642 5 13 fft_types nsw$p fft_dlay_descriptor
R 643 5 14 fft_types nsw$o fft_dlay_descriptor
R 645 5 16 fft_types nr1 fft_dlay_descriptor
R 646 5 17 fft_types nr2 fft_dlay_descriptor
R 647 5 18 fft_types nr3 fft_dlay_descriptor
R 648 5 19 fft_types nr1x fft_dlay_descriptor
R 649 5 20 fft_types nr2x fft_dlay_descriptor
R 650 5 21 fft_types nr3x fft_dlay_descriptor
R 651 5 22 fft_types npl fft_dlay_descriptor
R 652 5 23 fft_types nnp fft_dlay_descriptor
R 653 5 24 fft_types nnr fft_dlay_descriptor
R 654 5 25 fft_types ngt fft_dlay_descriptor
R 655 5 26 fft_types ngl fft_dlay_descriptor
R 657 5 28 fft_types ngl$sd fft_dlay_descriptor
R 658 5 29 fft_types ngl$p fft_dlay_descriptor
R 659 5 30 fft_types ngl$o fft_dlay_descriptor
R 661 5 32 fft_types nwl fft_dlay_descriptor
R 663 5 34 fft_types nwl$sd fft_dlay_descriptor
R 664 5 35 fft_types nwl$p fft_dlay_descriptor
R 665 5 36 fft_types nwl$o fft_dlay_descriptor
R 667 5 38 fft_types npp fft_dlay_descriptor
R 669 5 40 fft_types npp$sd fft_dlay_descriptor
R 670 5 41 fft_types npp$p fft_dlay_descriptor
R 671 5 42 fft_types npp$o fft_dlay_descriptor
R 673 5 44 fft_types ipp fft_dlay_descriptor
R 675 5 46 fft_types ipp$sd fft_dlay_descriptor
R 676 5 47 fft_types ipp$p fft_dlay_descriptor
R 677 5 48 fft_types ipp$o fft_dlay_descriptor
R 679 5 50 fft_types iss fft_dlay_descriptor
R 681 5 52 fft_types iss$sd fft_dlay_descriptor
R 682 5 53 fft_types iss$p fft_dlay_descriptor
R 683 5 54 fft_types iss$o fft_dlay_descriptor
R 685 5 56 fft_types isind fft_dlay_descriptor
R 687 5 58 fft_types isind$sd fft_dlay_descriptor
R 688 5 59 fft_types isind$p fft_dlay_descriptor
R 689 5 60 fft_types isind$o fft_dlay_descriptor
R 691 5 62 fft_types ismap fft_dlay_descriptor
R 693 5 64 fft_types ismap$sd fft_dlay_descriptor
R 694 5 65 fft_types ismap$p fft_dlay_descriptor
R 695 5 66 fft_types ismap$o fft_dlay_descriptor
R 697 5 68 fft_types iplp fft_dlay_descriptor
R 699 5 70 fft_types iplp$sd fft_dlay_descriptor
R 700 5 71 fft_types iplp$p fft_dlay_descriptor
R 701 5 72 fft_types iplp$o fft_dlay_descriptor
R 703 5 74 fft_types iplw fft_dlay_descriptor
R 705 5 76 fft_types iplw$sd fft_dlay_descriptor
R 706 5 77 fft_types iplw$p fft_dlay_descriptor
R 707 5 78 fft_types iplw$o fft_dlay_descriptor
R 709 5 80 fft_types id fft_dlay_descriptor
R 710 5 81 fft_types tptr fft_dlay_descriptor
R 711 5 82 fft_types irb fft_dlay_descriptor
R 714 5 85 fft_types irb$sd fft_dlay_descriptor
R 715 5 86 fft_types irb$p fft_dlay_descriptor
R 716 5 87 fft_types irb$o fft_dlay_descriptor
R 718 5 89 fft_types imin3 fft_dlay_descriptor
R 720 5 91 fft_types imin3$sd fft_dlay_descriptor
R 721 5 92 fft_types imin3$p fft_dlay_descriptor
R 722 5 93 fft_types imin3$o fft_dlay_descriptor
R 724 5 95 fft_types imax3 fft_dlay_descriptor
R 726 5 97 fft_types imax3$sd fft_dlay_descriptor
R 727 5 98 fft_types imax3$p fft_dlay_descriptor
R 728 5 99 fft_types imax3$o fft_dlay_descriptor
R 730 5 101 fft_types np3 fft_dlay_descriptor
R 732 5 103 fft_types np3$sd fft_dlay_descriptor
R 733 5 104 fft_types np3$p fft_dlay_descriptor
R 734 5 105 fft_types np3$o fft_dlay_descriptor
R 736 5 107 fft_types have_task_groups fft_dlay_descriptor
R 737 5 108 fft_types nnrx fft_dlay_descriptor
R 738 5 109 fft_types tg_nsw fft_dlay_descriptor
R 740 5 111 fft_types tg_nsw$sd fft_dlay_descriptor
R 741 5 112 fft_types tg_nsw$p fft_dlay_descriptor
R 742 5 113 fft_types tg_nsw$o fft_dlay_descriptor
R 744 5 115 fft_types tg_npp fft_dlay_descriptor
R 746 5 117 fft_types tg_npp$sd fft_dlay_descriptor
R 747 5 118 fft_types tg_npp$p fft_dlay_descriptor
R 748 5 119 fft_types tg_npp$o fft_dlay_descriptor
S 898 23 5 0 0 0 900 582 6522 0 0 A 0 0 0 0 0 0 0 0 0 0 0 0 0 0 0 0 0 0 0 0 0 0 0 0 0 0 0 0 task_groups_init
S 899 1 3 3 0 218 1 898 6539 4 3000 A 0 0 0 0 0 0 0 0 0 0 0 0 0 0 0 0 0 0 0 0 0 0 0 0 0 0 0 0 dffts
S 900 14 5 0 0 0 1 898 6522 0 400000 A 0 0 0 0 0 0 0 75 1 0 0 0 0 0 0 0 0 0 0 0 0 39 0 582 0 0 0 0 task_groups_init
F 900 1 899
S 901 23 5 0 0 0 905 582 6545 0 0 A 0 0 0 0 0 0 0 0 0 0 0 0 0 0 0 0 0 0 0 0 0 0 0 0 0 0 0 0 tg_gather
S 902 1 3 1 0 56 1 901 6539 4 3000 A 0 0 0 0 0 0 0 0 0 0 0 0 0 0 0 0 0 0 0 0 0 0 0 0 0 0 0 0 dffts
S 903 7 3 0 0 224 1 901 6555 20000004 10003000 A 0 0 0 0 0 0 0 0 0 0 0 0 0 0 0 0 0 0 0 0 0 0 0 0 0 0 0 0 v
S 904 7 3 0 0 227 1 901 6557 20000004 10003000 A 0 0 0 0 0 0 0 0 0 0 0 0 0 0 0 0 0 0 0 0 0 0 0 0 0 0 0 0 tg_v
S 905 14 5 0 0 0 1 901 6545 20000000 400000 A 0 0 0 0 0 0 0 77 3 0 0 0 0 0 0 0 0 0 0 0 0 120 0 582 0 0 0 0 tg_gather
F 905 3 902 903 904
S 906 6 1 0 0 6 1 901 6004 40800006 3000 A 0 0 0 0 0 0 0 0 0 0 0 0 0 0 0 0 0 0 0 0 0 0 0 0 0 0 0 0 z_b_0_1
S 907 6 1 0 0 6 1 901 6012 40800006 3000 A 0 0 0 0 0 0 0 0 0 0 0 0 0 0 0 0 0 0 0 0 0 0 0 0 0 0 0 0 z_b_2_1
S 908 6 1 0 0 6 1 901 6020 40800006 3000 A 0 0 0 0 0 0 0 0 0 0 0 0 0 0 0 0 0 0 0 0 0 0 0 0 0 0 0 0 z_b_3_1
S 909 6 1 0 0 6 1 901 6562 40800006 3000 A 0 0 0 0 0 0 0 0 0 0 0 0 0 0 0 0 0 0 0 0 0 0 0 0 0 0 0 0 z_e_677
S 910 6 1 0 0 6 1 901 6036 40800006 3000 A 0 0 0 0 0 0 0 0 0 0 0 0 0 0 0 0 0 0 0 0 0 0 0 0 0 0 0 0 z_b_4_1
S 911 6 1 0 0 6 1 901 6044 40800006 3000 A 0 0 0 0 0 0 0 0 0 0 0 0 0 0 0 0 0 0 0 0 0 0 0 0 0 0 0 0 z_b_6_1
S 912 6 1 0 0 6 1 901 6052 40800006 3000 A 0 0 0 0 0 0 0 0 0 0 0 0 0 0 0 0 0 0 0 0 0 0 0 0 0 0 0 0 z_b_7_1
S 913 6 1 0 0 6 1 901 6570 40800006 3000 A 0 0 0 0 0 0 0 0 0 0 0 0 0 0 0 0 0 0 0 0 0 0 0 0 0 0 0 0 z_e_684
A 256 1 0 0 0 6 908 0 0 0 0 0 0 0 0 0 0 0 0 0
A 257 1 0 0 0 6 906 0 0 0 0 0 0 0 0 0 0 0 0 0
A 258 1 0 0 0 6 909 0 0 0 0 0 0 0 0 0 0 0 0 0
A 259 1 0 0 0 6 907 0 0 0 0 0 0 0 0 0 0 0 0 0
A 260 1 0 0 0 6 912 0 0 0 0 0 0 0 0 0 0 0 0 0
A 261 1 0 0 0 6 910 0 0 0 0 0 0 0 0 0 0 0 0 0
A 262 1 0 0 0 6 913 0 0 0 0 0 0 0 0 0 0 0 0 0
A 263 1 0 0 0 6 911 0 0 0 0 0 0 0 0 0 0 0 0 0
Z
Z
