V26 time_step
12 timestep.F90 S582 0
04/24/2012  15:51:02
enduse
S 582 24 0 0 0 9 1 0 4658 10015 0 A 0 0 0 0 0 0 0 0 0 0 0 0 0 0 0 0 0 0 0 0 0 21 0 0 0 0 0 0 time_step
S 593 6 4 0 0 9 595 582 4708 14 0 A 0 0 0 0 0 0 0 0 0 0 0 0 601 0 0 0 0 0 0 0 0 0 0 582 0 0 0 0 delthal
S 594 6 4 0 0 9 596 582 4716 4 0 A 0 0 0 0 0 0 0 0 0 0 0 0 602 0 0 0 0 0 0 0 0 0 0 582 0 0 0 0 twodelt
S 595 6 4 0 0 9 1 582 4724 14 0 A 0 0 0 0 0 8 0 0 0 0 0 0 601 0 0 0 0 0 0 0 0 0 0 582 0 0 0 0 fordt2
S 596 6 4 0 0 9 597 582 4731 4 0 A 0 0 0 0 0 8 0 0 0 0 0 0 602 0 0 0 0 0 0 0 0 0 0 582 0 0 0 0 dt2
S 597 6 4 0 0 9 598 582 4735 4 0 A 0 0 0 0 0 16 0 0 0 0 0 0 602 0 0 0 0 0 0 0 0 0 0 582 0 0 0 0 dt2by2
S 598 6 4 0 0 9 599 582 4742 4 0 A 0 0 0 0 0 24 0 0 0 0 0 0 602 0 0 0 0 0 0 0 0 0 0 582 0 0 0 0 delt
S 599 6 4 0 0 9 1 582 4747 4 0 A 0 0 0 0 0 32 0 0 0 0 0 0 602 0 0 0 0 0 0 0 0 0 0 582 0 0 0 0 tps
S 600 27 0 0 0 9 603 582 4751 0 0 A 0 0 0 0 0 0 0 0 0 0 0 0 0 0 0 0 0 0 0 0 0 0 0 582 0 0 0 0 set_time_step
S 601 11 0 0 0 9 1 582 4765 40800010 801000 A 0 0 0 0 0 16 0 0 593 595 0 0 0 0 0 0 0 0 0 0 0 0 0 0 0 0 0 0 _time_step$6
S 602 11 0 0 0 9 601 582 4778 40800000 801000 A 0 0 0 0 0 40 0 0 594 599 0 0 0 0 0 0 0 0 0 0 0 0 0 0 0 0 0 0 _time_step$2
S 603 23 5 0 0 0 605 582 4751 0 0 A 0 0 0 0 0 0 0 0 0 0 0 0 0 0 0 0 0 0 0 0 0 0 0 0 0 0 0 0 set_time_step
S 604 1 3 1 0 9 1 603 4791 14 3000 A 0 0 0 0 0 0 0 0 0 0 0 0 0 0 0 0 0 0 0 0 0 0 0 0 0 0 0 0 dt
S 605 14 5 0 0 0 1 603 4751 0 400000 A 0 0 0 0 0 0 0 4 1 0 0 0 0 0 0 0 0 0 0 0 0 51 0 582 0 0 0 0 set_time_step
F 605 1 604
Z
Z
