V26 uspp
8 uspp.F90 S582 0
04/24/2012  15:51:15
use parameters private
use kinds private
use parameters private
use kinds private
enduse
D 56 21 6 2 40 39 0 0 0 0 0
 0 34 3 3 34 34
 0 34 34 3 34 34
D 59 21 6 3 42 41 0 0 0 0 0
 0 34 3 3 34 34
 0 34 34 3 34 34
 0 37 39 3 37 37
D 62 21 9 3 46 45 0 0 0 0 0
 0 43 3 3 43 43
 0 34 43 3 34 34
 0 34 44 3 34 34
D 65 21 6 2 65 64 0 1 0 0 1
 51 54 61 51 54 52
 56 60 63 56 60 58
D 68 21 6 1 0 49 0 0 0 0 0
 0 49 0 3 49 0
D 71 21 6 2 80 79 0 1 0 0 1
 69 72 77 69 72 70
 73 76 78 73 76 74
D 74 21 6 1 0 49 0 0 0 0 0
 0 49 0 3 49 0
D 77 21 6 2 95 94 0 1 0 0 1
 84 87 92 84 87 85
 88 91 93 88 91 89
D 80 21 6 1 0 49 0 0 0 0 0
 0 49 0 3 49 0
D 83 21 6 3 120 119 0 1 0 0 1
 101 104 115 101 104 102
 105 108 116 105 108 106
 110 114 118 110 114 112
D 86 21 6 1 0 99 0 0 0 0 0
 0 99 0 3 99 0
D 89 21 12 2 137 136 0 1 0 0 1
 126 129 134 126 129 127
 130 133 135 130 133 131
D 92 21 6 1 0 49 0 0 0 0 0
 0 49 0 3 49 0
D 95 21 9 3 158 157 0 1 0 0 1
 142 145 154 142 145 143
 146 149 155 146 149 147
 150 153 156 150 153 151
D 98 21 6 1 0 99 0 0 0 0 0
 0 99 0 3 99 0
D 101 21 9 3 179 178 0 1 0 0 1
 163 166 175 163 166 164
 167 170 176 167 170 168
 171 174 177 171 174 172
D 104 21 6 1 0 99 0 0 0 0 0
 0 99 0 3 99 0
D 107 21 9 4 210 209 0 1 0 0 1
 186 189 204 186 189 187
 190 193 205 190 193 191
 194 197 206 194 197 195
 199 203 208 199 203 201
D 110 21 6 1 0 184 0 0 0 0 0
 0 184 0 3 184 0
D 113 21 9 3 231 230 0 1 0 0 1
 215 218 227 215 218 216
 219 222 228 219 222 220
 223 226 229 223 226 224
D 116 21 6 1 0 99 0 0 0 0 0
 0 99 0 3 99 0
D 119 21 9 2 246 245 0 1 0 0 1
 235 238 243 235 238 236
 239 242 244 239 242 240
D 122 21 6 1 0 49 0 0 0 0 0
 0 49 0 3 49 0
D 125 21 12 4 273 272 0 1 0 0 1
 252 255 268 252 255 253
 256 259 269 256 259 257
 260 263 270 260 263 261
 264 267 271 264 267 265
D 128 21 6 1 0 184 0 0 0 0 0
 0 184 0 3 184 0
D 131 21 12 4 300 299 0 1 0 0 1
 279 282 295 279 282 280
 283 286 296 283 286 284
 287 290 297 287 290 288
 291 294 298 291 294 292
D 134 21 6 1 0 184 0 0 0 0 0
 0 184 0 3 184 0
D 137 21 12 4 327 326 0 1 0 0 1
 306 309 322 306 309 307
 310 313 323 310 313 311
 314 317 324 314 317 315
 318 321 325 318 321 319
D 140 21 6 1 0 184 0 0 0 0 0
 0 184 0 3 184 0
D 143 21 9 3 348 347 0 1 0 0 1
 332 335 344 332 335 333
 336 339 345 336 339 337
 340 343 346 340 343 341
D 146 21 6 1 0 99 0 0 0 0 0
 0 99 0 3 99 0
D 149 21 9 2 15 351 0 0 1 0 0
 0 23 3 3 23 23
 0 349 23 3 350 350
D 152 21 9 1 3 350 0 0 1 0 0
 0 349 3 3 350 350
D 155 21 9 2 352 355 0 0 1 0 0
 0 353 3 3 354 354
 0 353 354 3 354 354
D 158 21 9 2 352 355 0 0 1 0 0
 0 353 3 3 354 354
 0 353 354 3 354 354
S 582 24 0 0 0 9 1 0 4658 10015 0 A 0 0 0 0 0 0 0 0 0 0 0 0 0 0 0 0 0 0 0 0 0 36 0 0 0 0 0 0 uspp
S 584 23 0 0 0 9 590 582 4669 14 0 A 0 0 0 0 0 0 0 0 0 0 0 0 0 0 0 0 0 0 0 0 0 0 0 582 0 0 0 0 dp
S 586 23 0 0 0 6 606 582 4683 14 0 A 0 0 0 0 0 0 0 0 0 0 0 0 0 0 0 0 0 0 0 0 0 0 0 582 0 0 0 0 lmaxx
S 587 23 0 0 0 6 607 582 4689 14 0 A 0 0 0 0 0 0 0 0 0 0 0 0 0 0 0 0 0 0 0 0 0 0 0 582 0 0 0 0 lqmax
S 588 3 0 0 0 6 1 1 0 0 0 A 0 0 0 0 0 0 0 0 0 8 0 0 0 0 0 0 0 0 0 0 0 0 0 0 0 0 0 0 6
S 589 3 0 0 0 6 1 1 0 0 0 A 0 0 0 0 0 0 0 0 0 4 0 0 0 0 0 0 0 0 0 0 0 0 0 0 0 0 0 0 6
R 590 16 1 kinds dp
S 599 3 0 0 0 6 1 1 0 0 0 A 0 0 0 0 0 0 0 0 0 3 0 0 0 0 0 0 0 0 0 0 0 0 0 0 0 0 0 0 6
S 601 3 0 0 0 6 1 1 0 0 0 A 0 0 0 0 0 0 0 0 0 7 0 0 0 0 0 0 0 0 0 0 0 0 0 0 0 0 0 0 6
R 606 16 4 parameters lmaxx
R 607 16 5 parameters lqmax
S 614 16 1 0 0 6 1 582 4780 4 400000 A 0 0 0 0 0 0 0 0 16 34 0 0 0 0 0 0 0 0 0 0 0 0 0 582 0 0 0 0 nlx
S 615 7 4 0 4 56 616 582 4784 800004 100 A 0 0 0 0 0 0 0 0 0 0 0 0 759 0 0 0 0 0 0 0 0 0 0 582 0 0 0 0 lpx
S 616 7 4 0 4 59 622 582 4788 800004 100 A 0 0 0 0 0 1024 0 0 0 0 0 0 759 0 0 0 0 0 0 0 0 0 0 582 0 0 0 0 lpl
S 617 7 4 0 4 62 1 582 4792 800004 100 A 0 0 0 0 0 0 0 0 0 0 0 0 760 0 0 0 0 0 0 0 0 0 0 582 0 0 0 0 ap
S 618 27 0 0 0 9 763 582 4795 0 0 A 0 0 0 0 0 0 0 0 0 0 0 0 0 0 0 0 0 0 0 0 0 0 0 582 0 0 0 0 aainit
S 619 7 6 0 0 65 1 582 4802 10a00004 51 A 0 0 0 0 0 0 653 0 0 0 655 0 0 0 0 0 0 0 0 652 0 0 654 582 0 0 0 0 indv
S 620 7 6 0 0 71 1 582 4807 10a00004 51 A 0 0 0 0 0 0 662 0 0 0 664 0 0 0 0 0 0 0 0 661 0 0 663 582 0 0 0 0 nhtol
S 621 7 6 0 0 77 1 582 4813 10a00004 51 A 0 0 0 0 0 0 668 0 0 0 670 0 0 0 0 0 0 0 0 667 0 0 669 582 0 0 0 0 nhtolm
S 622 6 4 0 0 6 623 582 4820 4 0 A 0 0 0 0 0 14336 0 0 0 0 0 0 759 0 0 0 0 0 0 0 0 0 0 582 0 0 0 0 nkb
S 623 6 4 0 0 6 1 582 4824 4 0 A 0 0 0 0 0 14340 0 0 0 0 0 0 759 0 0 0 0 0 0 0 0 0 0 582 0 0 0 0 nkbus
S 624 7 6 0 0 89 1 582 4830 10a00004 59 A 0 0 0 0 0 0 686 0 0 0 688 0 0 0 0 0 0 0 0 685 0 0 687 582 0 0 0 0 vkb
S 625 7 6 0 0 101 1 582 4834 10a00004 51 A 0 0 0 0 0 0 700 0 0 0 702 0 0 0 0 0 0 0 0 699 0 0 701 582 0 0 0 0 dvan
S 626 7 6 0 0 107 1 582 4839 10a00004 51 A 0 0 0 0 0 0 709 0 0 0 711 0 0 0 0 0 0 0 0 708 0 0 710 582 0 0 0 0 deeq
S 627 7 6 0 0 113 1 582 4844 10a00004 51 A 0 0 0 0 0 0 719 0 0 0 721 0 0 0 0 0 0 0 0 718 0 0 720 582 0 0 0 0 qq
S 628 7 6 0 0 119 1 582 4847 10a00004 51 A 0 0 0 0 0 0 725 0 0 0 727 0 0 0 0 0 0 0 0 724 0 0 726 582 0 0 0 0 nhtoj
S 629 7 6 0 0 83 1 582 4853 10a00004 51 A 0 0 0 0 0 0 676 0 0 0 678 0 0 0 0 0 0 0 0 675 0 0 677 582 0 0 0 0 ijtoh
S 630 7 6 0 0 143 1 582 4859 10a00004 51 A 0 0 0 0 0 0 756 0 0 0 758 0 0 0 0 0 0 0 0 755 0 0 757 582 0 0 0 0 beta
S 631 7 6 0 0 95 1 582 4864 10a00004 51 A 0 0 0 0 0 0 693 0 0 0 695 0 0 0 0 0 0 0 0 692 0 0 694 582 0 0 0 0 becsum
S 632 6 4 0 0 16 1 582 4871 80000c 0 A 0 0 0 0 0 0 0 0 0 0 0 0 761 0 0 0 0 0 0 0 0 0 0 582 0 0 0 0 okvan
S 633 27 0 0 0 9 785 582 4877 0 0 A 0 0 0 0 0 0 0 0 0 0 0 0 0 0 0 0 0 0 0 0 0 0 0 582 0 0 0 0 deallocate_uspp
S 634 7 6 0 0 125 1 582 4893 10a00004 51 A 0 0 0 0 0 0 733 0 0 0 735 0 0 0 0 0 0 0 0 732 0 0 734 582 0 0 0 0 qq_so
S 635 7 6 0 0 131 1 582 4899 10a00004 51 A 0 0 0 0 0 0 741 0 0 0 743 0 0 0 0 0 0 0 0 740 0 0 742 582 0 0 0 0 dvan_so
S 636 7 6 0 0 137 1 582 4907 10a00004 51 A 0 0 0 0 0 0 749 0 0 0 751 0 0 0 0 0 0 0 0 748 0 0 750 582 0 0 0 0 deeq_nc
S 637 3 0 0 0 6 0 1 0 0 0 A 0 0 0 0 0 0 0 0 0 16 0 0 0 0 0 0 0 0 0 0 0 0 0 0 0 0 0 0 6
S 638 16 1 0 0 6 1 582 4915 14 400000 A 0 0 0 0 0 0 0 0 13 37 0 0 0 0 0 0 0 0 0 0 0 0 0 582 0 0 0 0 mx
S 639 3 0 0 0 6 0 1 0 0 0 A 0 0 0 0 0 0 0 0 0 14 0 0 0 0 0 0 0 0 0 0 0 0 0 0 0 0 0 0 6
S 640 3 0 0 0 6 0 1 0 0 0 A 0 0 0 0 0 0 0 0 0 13 0 0 0 0 0 0 0 0 0 0 0 0 0 0 0 0 0 0 6
S 641 3 0 0 0 6 0 1 0 0 0 A 0 0 0 0 0 0 0 0 0 256 0 0 0 0 0 0 0 0 0 0 0 0 0 0 0 0 0 0 6
S 642 3 0 0 0 6 0 1 0 0 0 A 0 0 0 0 0 0 0 0 0 17 0 0 0 0 0 0 0 0 0 0 0 0 0 0 0 0 0 0 6
S 643 3 0 0 0 6 0 1 0 0 0 A 0 0 0 0 0 0 0 0 0 3328 0 0 0 0 0 0 0 0 0 0 0 0 0 0 0 0 0 0 6
S 644 3 0 0 0 6 0 1 0 0 0 A 0 0 0 0 0 0 0 0 0 273 0 0 0 0 0 0 0 0 0 0 0 0 0 0 0 0 0 0 6
S 645 3 0 0 0 6 0 1 0 0 0 A 0 0 0 0 0 0 0 0 0 49 0 0 0 0 0 0 0 0 0 0 0 0 0 0 0 0 0 0 6
S 646 3 0 0 0 6 0 1 0 0 0 A 0 0 0 0 0 0 0 0 0 784 0 0 0 0 0 0 0 0 0 0 0 0 0 0 0 0 0 0 6
S 647 3 0 0 0 6 0 1 0 0 0 A 0 0 0 0 0 0 0 0 0 12544 0 0 0 0 0 0 0 0 0 0 0 0 0 0 0 0 0 0 6
S 648 3 0 0 0 6 0 1 0 0 0 A 0 0 0 0 0 0 0 0 0 834 0 0 0 0 0 0 0 0 0 0 0 0 0 0 0 0 0 0 6
S 649 6 4 0 0 6 650 582 4918 40800016 0 A 0 0 0 0 0 0 0 0 0 0 0 0 762 0 0 0 0 0 0 0 0 0 0 582 0 0 0 0 z_b_0
S 650 6 4 0 0 6 659 582 4924 40800016 0 A 0 0 0 0 0 4 0 0 0 0 0 0 762 0 0 0 0 0 0 0 0 0 0 582 0 0 0 0 z_b_1
S 651 3 0 0 0 6 0 1 0 0 0 A 0 0 0 0 0 0 0 0 0 24 0 0 0 0 0 0 0 0 0 0 0 0 0 0 0 0 0 0 6
S 652 8 4 0 0 68 662 582 4930 40822064 1020 A 0 0 0 0 0 0 0 0 0 0 0 0 759 0 0 0 0 0 0 0 0 0 0 582 0 0 0 0 indv$sd
S 653 6 4 0 0 7 654 582 4938 40802061 1020 A 0 0 0 0 0 96 0 0 0 0 0 0 759 0 0 0 0 0 0 0 0 0 0 582 0 0 0 0 indv$p
S 654 6 4 0 0 7 652 582 4945 40802060 1020 A 0 0 0 0 0 104 0 0 0 0 0 0 759 0 0 0 0 0 0 0 0 0 0 582 0 0 0 0 indv$o
S 655 22 1 0 0 6 1 582 4952 40000000 1000 A 0 0 0 0 0 0 0 619 0 0 0 0 652 0 0 0 0 0 0 0 0 0 0 582 0 0 0 0 indv$arrdsc
S 656 3 0 0 0 6 0 1 0 0 0 A 0 0 0 0 0 0 0 0 0 19 0 0 0 0 0 0 0 0 0 0 0 0 0 0 0 0 0 0 6
S 657 3 0 0 0 6 0 1 0 0 0 A 0 0 0 0 0 0 0 0 0 20 0 0 0 0 0 0 0 0 0 0 0 0 0 0 0 0 0 0 6
S 658 3 0 0 0 6 0 1 0 0 0 A 0 0 0 0 0 0 0 0 0 23 0 0 0 0 0 0 0 0 0 0 0 0 0 0 0 0 0 0 6
S 659 6 4 0 0 6 660 582 4964 40800016 0 A 0 0 0 0 0 8 0 0 0 0 0 0 762 0 0 0 0 0 0 0 0 0 0 582 0 0 0 0 z_b_2
S 660 6 4 0 0 6 665 582 4970 40800016 0 A 0 0 0 0 0 12 0 0 0 0 0 0 762 0 0 0 0 0 0 0 0 0 0 582 0 0 0 0 z_b_3
S 661 8 4 0 0 74 668 582 4976 40822064 1020 A 0 0 0 0 0 112 0 0 0 0 0 0 759 0 0 0 0 0 0 0 0 0 0 582 0 0 0 0 nhtol$sd
S 662 6 4 0 0 7 663 582 4985 40802061 1020 A 0 0 0 0 0 208 0 0 0 0 0 0 759 0 0 0 0 0 0 0 0 0 0 582 0 0 0 0 nhtol$p
S 663 6 4 0 0 7 661 582 4993 40802060 1020 A 0 0 0 0 0 216 0 0 0 0 0 0 759 0 0 0 0 0 0 0 0 0 0 582 0 0 0 0 nhtol$o
S 664 22 1 0 0 6 1 582 5001 40000000 1000 A 0 0 0 0 0 0 0 620 0 0 0 0 661 0 0 0 0 0 0 0 0 0 0 582 0 0 0 0 nhtol$arrdsc
S 665 6 4 0 0 6 666 582 5014 40800016 0 A 0 0 0 0 0 16 0 0 0 0 0 0 762 0 0 0 0 0 0 0 0 0 0 582 0 0 0 0 z_b_4
S 666 6 4 0 0 6 671 582 5020 40800016 0 A 0 0 0 0 0 20 0 0 0 0 0 0 762 0 0 0 0 0 0 0 0 0 0 582 0 0 0 0 z_b_5
S 667 8 4 0 0 80 686 582 5026 40822064 1020 A 0 0 0 0 0 224 0 0 0 0 0 0 759 0 0 0 0 0 0 0 0 0 0 582 0 0 0 0 nhtolm$sd
S 668 6 4 0 0 7 669 582 5036 40802061 1020 A 0 0 0 0 0 320 0 0 0 0 0 0 759 0 0 0 0 0 0 0 0 0 0 582 0 0 0 0 nhtolm$p
S 669 6 4 0 0 7 667 582 5045 40802060 1020 A 0 0 0 0 0 328 0 0 0 0 0 0 759 0 0 0 0 0 0 0 0 0 0 582 0 0 0 0 nhtolm$o
S 670 22 1 0 0 6 1 582 5054 40000000 1000 A 0 0 0 0 0 0 0 621 0 0 0 0 667 0 0 0 0 0 0 0 0 0 0 582 0 0 0 0 nhtolm$arrdsc
S 671 6 4 0 0 6 672 582 5068 40800016 0 A 0 0 0 0 0 24 0 0 0 0 0 0 762 0 0 0 0 0 0 0 0 0 0 582 0 0 0 0 z_b_6
S 672 6 4 0 0 6 673 582 5074 40800016 0 A 0 0 0 0 0 28 0 0 0 0 0 0 762 0 0 0 0 0 0 0 0 0 0 582 0 0 0 0 z_b_7
S 673 6 4 0 0 6 683 582 5080 40800016 0 A 0 0 0 0 0 32 0 0 0 0 0 0 762 0 0 0 0 0 0 0 0 0 0 582 0 0 0 0 z_b_8
S 674 3 0 0 0 6 0 1 0 0 0 A 0 0 0 0 0 0 0 0 0 30 0 0 0 0 0 0 0 0 0 0 0 0 0 0 0 0 0 0 6
S 675 8 4 0 0 86 756 582 5086 40822064 1020 A 0 0 0 0 0 336 0 0 0 0 0 0 759 0 0 0 0 0 0 0 0 0 0 582 0 0 0 0 ijtoh$sd
S 676 6 4 0 0 7 677 582 5095 40802061 1020 A 0 0 0 0 0 456 0 0 0 0 0 0 759 0 0 0 0 0 0 0 0 0 0 582 0 0 0 0 ijtoh$p
S 677 6 4 0 0 7 675 582 5103 40802060 1020 A 0 0 0 0 0 464 0 0 0 0 0 0 759 0 0 0 0 0 0 0 0 0 0 582 0 0 0 0 ijtoh$o
S 678 22 1 0 0 6 1 582 5111 40000000 1000 A 0 0 0 0 0 0 0 629 0 0 0 0 675 0 0 0 0 0 0 0 0 0 0 582 0 0 0 0 ijtoh$arrdsc
S 679 3 0 0 0 6 0 1 0 0 0 A 0 0 0 0 0 0 0 0 0 25 0 0 0 0 0 0 0 0 0 0 0 0 0 0 0 0 0 0 6
S 680 3 0 0 0 6 0 1 0 0 0 A 0 0 0 0 0 0 0 0 0 26 0 0 0 0 0 0 0 0 0 0 0 0 0 0 0 0 0 0 6
S 681 3 0 0 0 6 0 1 0 0 0 A 0 0 0 0 0 0 0 0 0 29 0 0 0 0 0 0 0 0 0 0 0 0 0 0 0 0 0 0 6
S 683 6 4 0 0 6 684 582 5124 40800016 0 A 0 0 0 0 0 36 0 0 0 0 0 0 762 0 0 0 0 0 0 0 0 0 0 582 0 0 0 0 z_b_9
S 684 6 4 0 0 6 689 582 5130 40800016 0 A 0 0 0 0 0 40 0 0 0 0 0 0 762 0 0 0 0 0 0 0 0 0 0 582 0 0 0 0 z_b_10
S 685 8 4 0 0 92 700 582 5137 40822064 1020 A 0 0 0 0 0 472 0 0 0 0 0 0 759 0 0 0 0 0 0 0 0 0 0 582 0 0 0 0 vkb$sd
S 686 6 4 0 0 7 687 582 5144 40802061 1020 A 0 0 0 0 0 568 0 0 0 0 0 0 759 0 0 0 0 0 0 0 0 0 0 582 0 0 0 0 vkb$p
S 687 6 4 0 0 7 685 582 5150 40802060 1020 A 0 0 0 0 0 576 0 0 0 0 0 0 759 0 0 0 0 0 0 0 0 0 0 582 0 0 0 0 vkb$o
S 688 22 1 0 0 9 1 582 5156 40000000 1000 A 0 0 0 0 0 0 0 624 0 0 0 0 685 0 0 0 0 0 0 0 0 0 0 582 0 0 0 0 vkb$arrdsc
S 689 6 4 0 0 6 690 582 5167 40800016 0 A 0 0 0 0 0 44 0 0 0 0 0 0 762 0 0 0 0 0 0 0 0 0 0 582 0 0 0 0 z_b_11
S 690 6 4 0 0 6 691 582 5174 40800016 0 A 0 0 0 0 0 48 0 0 0 0 0 0 762 0 0 0 0 0 0 0 0 0 0 582 0 0 0 0 z_b_12
S 691 6 4 0 0 6 696 582 5181 40800016 0 A 0 0 0 0 0 52 0 0 0 0 0 0 762 0 0 0 0 0 0 0 0 0 0 582 0 0 0 0 z_b_13
S 692 8 4 0 0 98 733 582 5188 40822064 1020 A 0 0 0 0 0 584 0 0 0 0 0 0 759 0 0 0 0 0 0 0 0 0 0 582 0 0 0 0 becsum$sd
S 693 6 4 0 0 7 694 582 5198 40802061 1020 A 0 0 0 0 0 704 0 0 0 0 0 0 759 0 0 0 0 0 0 0 0 0 0 582 0 0 0 0 becsum$p
S 694 6 4 0 0 7 692 582 5207 40802060 1020 A 0 0 0 0 0 712 0 0 0 0 0 0 759 0 0 0 0 0 0 0 0 0 0 582 0 0 0 0 becsum$o
S 695 22 1 0 0 9 1 582 5216 40000000 1000 A 0 0 0 0 0 0 0 631 0 0 0 0 692 0 0 0 0 0 0 0 0 0 0 582 0 0 0 0 becsum$arrdsc
S 696 6 4 0 0 6 697 582 5230 40800016 0 A 0 0 0 0 0 56 0 0 0 0 0 0 762 0 0 0 0 0 0 0 0 0 0 582 0 0 0 0 z_b_14
S 697 6 4 0 0 6 698 582 5237 40800016 0 A 0 0 0 0 0 60 0 0 0 0 0 0 762 0 0 0 0 0 0 0 0 0 0 582 0 0 0 0 z_b_15
S 698 6 4 0 0 6 703 582 5244 40800016 0 A 0 0 0 0 0 64 0 0 0 0 0 0 762 0 0 0 0 0 0 0 0 0 0 582 0 0 0 0 z_b_16
S 699 8 4 0 0 104 709 582 5251 40822064 1020 A 0 0 0 0 0 720 0 0 0 0 0 0 759 0 0 0 0 0 0 0 0 0 0 582 0 0 0 0 dvan$sd
S 700 6 4 0 0 7 701 582 5259 40802061 1020 A 0 0 0 0 0 840 0 0 0 0 0 0 759 0 0 0 0 0 0 0 0 0 0 582 0 0 0 0 dvan$p
S 701 6 4 0 0 7 699 582 5266 40802060 1020 A 0 0 0 0 0 848 0 0 0 0 0 0 759 0 0 0 0 0 0 0 0 0 0 582 0 0 0 0 dvan$o
S 702 22 1 0 0 9 1 582 5273 40000000 1000 A 0 0 0 0 0 0 0 625 0 0 0 0 699 0 0 0 0 0 0 0 0 0 0 582 0 0 0 0 dvan$arrdsc
S 703 6 4 0 0 6 704 582 5285 40800016 0 A 0 0 0 0 0 68 0 0 0 0 0 0 762 0 0 0 0 0 0 0 0 0 0 582 0 0 0 0 z_b_17
S 704 6 4 0 0 6 705 582 5292 40800016 0 A 0 0 0 0 0 72 0 0 0 0 0 0 762 0 0 0 0 0 0 0 0 0 0 582 0 0 0 0 z_b_18
S 705 6 4 0 0 6 706 582 5299 40800016 0 A 0 0 0 0 0 76 0 0 0 0 0 0 762 0 0 0 0 0 0 0 0 0 0 582 0 0 0 0 z_b_19
S 706 6 4 0 0 6 715 582 5306 40800016 0 A 0 0 0 0 0 80 0 0 0 0 0 0 762 0 0 0 0 0 0 0 0 0 0 582 0 0 0 0 z_b_20
S 707 3 0 0 0 6 0 1 0 0 0 A 0 0 0 0 0 0 0 0 0 36 0 0 0 0 0 0 0 0 0 0 0 0 0 0 0 0 0 0 6
S 708 8 4 0 0 110 719 582 5313 40822064 1020 A 0 0 0 0 0 856 0 0 0 0 0 0 759 0 0 0 0 0 0 0 0 0 0 582 0 0 0 0 deeq$sd
S 709 6 4 0 0 7 710 582 5321 40802061 1020 A 0 0 0 0 0 1000 0 0 0 0 0 0 759 0 0 0 0 0 0 0 0 0 0 582 0 0 0 0 deeq$p
S 710 6 4 0 0 7 708 582 5328 40802060 1020 A 0 0 0 0 0 1008 0 0 0 0 0 0 759 0 0 0 0 0 0 0 0 0 0 582 0 0 0 0 deeq$o
S 711 22 1 0 0 9 1 582 5335 40000000 1000 A 0 0 0 0 0 0 0 626 0 0 0 0 708 0 0 0 0 0 0 0 0 0 0 582 0 0 0 0 deeq$arrdsc
S 712 3 0 0 0 6 0 1 0 0 0 A 0 0 0 0 0 0 0 0 0 31 0 0 0 0 0 0 0 0 0 0 0 0 0 0 0 0 0 0 6
S 713 3 0 0 0 6 0 1 0 0 0 A 0 0 0 0 0 0 0 0 0 32 0 0 0 0 0 0 0 0 0 0 0 0 0 0 0 0 0 0 6
S 714 3 0 0 0 6 0 1 0 0 0 A 0 0 0 0 0 0 0 0 0 35 0 0 0 0 0 0 0 0 0 0 0 0 0 0 0 0 0 0 6
S 715 6 4 0 0 6 716 582 5347 40800016 0 A 0 0 0 0 0 84 0 0 0 0 0 0 762 0 0 0 0 0 0 0 0 0 0 582 0 0 0 0 z_b_21
S 716 6 4 0 0 6 717 582 5354 40800016 0 A 0 0 0 0 0 88 0 0 0 0 0 0 762 0 0 0 0 0 0 0 0 0 0 582 0 0 0 0 z_b_22
S 717 6 4 0 0 6 722 582 5361 40800016 0 A 0 0 0 0 0 92 0 0 0 0 0 0 762 0 0 0 0 0 0 0 0 0 0 582 0 0 0 0 z_b_23
S 718 8 4 0 0 116 725 582 5368 40822064 1020 A 0 0 0 0 0 1016 0 0 0 0 0 0 759 0 0 0 0 0 0 0 0 0 0 582 0 0 0 0 qq$sd
S 719 6 4 0 0 7 720 582 5374 40802061 1020 A 0 0 0 0 0 1136 0 0 0 0 0 0 759 0 0 0 0 0 0 0 0 0 0 582 0 0 0 0 qq$p
S 720 6 4 0 0 7 718 582 5379 40802060 1020 A 0 0 0 0 0 1144 0 0 0 0 0 0 759 0 0 0 0 0 0 0 0 0 0 582 0 0 0 0 qq$o
S 721 22 1 0 0 9 1 582 5384 40000000 1000 A 0 0 0 0 0 0 0 627 0 0 0 0 718 0 0 0 0 0 0 0 0 0 0 582 0 0 0 0 qq$arrdsc
S 722 6 4 0 0 6 723 582 5394 40800016 0 A 0 0 0 0 0 96 0 0 0 0 0 0 762 0 0 0 0 0 0 0 0 0 0 582 0 0 0 0 z_b_24
S 723 6 4 0 0 6 728 582 5401 40800016 0 A 0 0 0 0 0 100 0 0 0 0 0 0 762 0 0 0 0 0 0 0 0 0 0 582 0 0 0 0 z_b_25
S 724 8 4 0 0 122 676 582 5408 40822064 1020 A 0 0 0 0 0 1152 0 0 0 0 0 0 759 0 0 0 0 0 0 0 0 0 0 582 0 0 0 0 nhtoj$sd
S 725 6 4 0 0 7 726 582 5417 40802061 1020 A 0 0 0 0 0 1248 0 0 0 0 0 0 759 0 0 0 0 0 0 0 0 0 0 582 0 0 0 0 nhtoj$p
S 726 6 4 0 0 7 724 582 5425 40802060 1020 A 0 0 0 0 0 1256 0 0 0 0 0 0 759 0 0 0 0 0 0 0 0 0 0 582 0 0 0 0 nhtoj$o
S 727 22 1 0 0 6 1 582 5433 40000000 1000 A 0 0 0 0 0 0 0 628 0 0 0 0 724 0 0 0 0 0 0 0 0 0 0 582 0 0 0 0 nhtoj$arrdsc
S 728 6 4 0 0 6 729 582 5446 40800016 0 A 0 0 0 0 0 104 0 0 0 0 0 0 762 0 0 0 0 0 0 0 0 0 0 582 0 0 0 0 z_b_26
S 729 6 4 0 0 6 730 582 5453 40800016 0 A 0 0 0 0 0 108 0 0 0 0 0 0 762 0 0 0 0 0 0 0 0 0 0 582 0 0 0 0 z_b_27
S 730 6 4 0 0 6 731 582 5460 40800016 0 A 0 0 0 0 0 112 0 0 0 0 0 0 762 0 0 0 0 0 0 0 0 0 0 582 0 0 0 0 z_b_28
S 731 6 4 0 0 6 736 582 5467 40800016 0 A 0 0 0 0 0 116 0 0 0 0 0 0 762 0 0 0 0 0 0 0 0 0 0 582 0 0 0 0 z_b_29
S 732 8 4 0 0 128 741 582 5474 40822064 1020 A 0 0 0 0 0 1264 0 0 0 0 0 0 759 0 0 0 0 0 0 0 0 0 0 582 0 0 0 0 qq_so$sd
S 733 6 4 0 0 7 734 582 5483 40802061 1020 A 0 0 0 0 0 1408 0 0 0 0 0 0 759 0 0 0 0 0 0 0 0 0 0 582 0 0 0 0 qq_so$p
S 734 6 4 0 0 7 732 582 5491 40802060 1020 A 0 0 0 0 0 1416 0 0 0 0 0 0 759 0 0 0 0 0 0 0 0 0 0 582 0 0 0 0 qq_so$o
S 735 22 1 0 0 9 1 582 5499 40000000 1000 A 0 0 0 0 0 0 0 634 0 0 0 0 732 0 0 0 0 0 0 0 0 0 0 582 0 0 0 0 qq_so$arrdsc
S 736 6 4 0 0 6 737 582 5512 40800016 0 A 0 0 0 0 0 120 0 0 0 0 0 0 762 0 0 0 0 0 0 0 0 0 0 582 0 0 0 0 z_b_30
S 737 6 4 0 0 6 738 582 5519 40800016 0 A 0 0 0 0 0 124 0 0 0 0 0 0 762 0 0 0 0 0 0 0 0 0 0 582 0 0 0 0 z_b_31
S 738 6 4 0 0 6 739 582 5526 40800016 0 A 0 0 0 0 0 128 0 0 0 0 0 0 762 0 0 0 0 0 0 0 0 0 0 582 0 0 0 0 z_b_32
S 739 6 4 0 0 6 744 582 5533 40800016 0 A 0 0 0 0 0 132 0 0 0 0 0 0 762 0 0 0 0 0 0 0 0 0 0 582 0 0 0 0 z_b_33
S 740 8 4 0 0 134 749 582 5540 40822064 1020 A 0 0 0 0 0 1424 0 0 0 0 0 0 759 0 0 0 0 0 0 0 0 0 0 582 0 0 0 0 dvan_so$sd
S 741 6 4 0 0 7 742 582 5551 40802061 1020 A 0 0 0 0 0 1568 0 0 0 0 0 0 759 0 0 0 0 0 0 0 0 0 0 582 0 0 0 0 dvan_so$p
S 742 6 4 0 0 7 740 582 5561 40802060 1020 A 0 0 0 0 0 1576 0 0 0 0 0 0 759 0 0 0 0 0 0 0 0 0 0 582 0 0 0 0 dvan_so$o
S 743 22 1 0 0 9 1 582 5571 40000000 1000 A 0 0 0 0 0 0 0 635 0 0 0 0 740 0 0 0 0 0 0 0 0 0 0 582 0 0 0 0 dvan_so$arrdsc
S 744 6 4 0 0 6 745 582 5586 40800016 0 A 0 0 0 0 0 136 0 0 0 0 0 0 762 0 0 0 0 0 0 0 0 0 0 582 0 0 0 0 z_b_34
S 745 6 4 0 0 6 746 582 5593 40800016 0 A 0 0 0 0 0 140 0 0 0 0 0 0 762 0 0 0 0 0 0 0 0 0 0 582 0 0 0 0 z_b_35
S 746 6 4 0 0 6 747 582 5600 40800016 0 A 0 0 0 0 0 144 0 0 0 0 0 0 762 0 0 0 0 0 0 0 0 0 0 582 0 0 0 0 z_b_36
S 747 6 4 0 0 6 752 582 5607 40800016 0 A 0 0 0 0 0 148 0 0 0 0 0 0 762 0 0 0 0 0 0 0 0 0 0 582 0 0 0 0 z_b_37
S 748 8 4 0 0 140 615 582 5614 40822064 1020 A 0 0 0 0 0 1584 0 0 0 0 0 0 759 0 0 0 0 0 0 0 0 0 0 582 0 0 0 0 deeq_nc$sd
S 749 6 4 0 0 7 750 582 5625 40802061 1020 A 0 0 0 0 0 1728 0 0 0 0 0 0 759 0 0 0 0 0 0 0 0 0 0 582 0 0 0 0 deeq_nc$p
S 750 6 4 0 0 7 748 582 5635 40802060 1020 A 0 0 0 0 0 1736 0 0 0 0 0 0 759 0 0 0 0 0 0 0 0 0 0 582 0 0 0 0 deeq_nc$o
S 751 22 1 0 0 9 1 582 5645 40000000 1000 A 0 0 0 0 0 0 0 636 0 0 0 0 748 0 0 0 0 0 0 0 0 0 0 582 0 0 0 0 deeq_nc$arrdsc
S 752 6 4 0 0 6 753 582 5660 40800016 0 A 0 0 0 0 0 152 0 0 0 0 0 0 762 0 0 0 0 0 0 0 0 0 0 582 0 0 0 0 z_b_38
S 753 6 4 0 0 6 754 582 5667 40800016 0 A 0 0 0 0 0 156 0 0 0 0 0 0 762 0 0 0 0 0 0 0 0 0 0 582 0 0 0 0 z_b_39
S 754 6 4 0 0 6 1 582 5674 40800016 0 A 0 0 0 0 0 160 0 0 0 0 0 0 762 0 0 0 0 0 0 0 0 0 0 582 0 0 0 0 z_b_40
S 755 8 4 0 0 146 693 582 5681 40822064 1020 A 0 0 0 0 0 1744 0 0 0 0 0 0 759 0 0 0 0 0 0 0 0 0 0 582 0 0 0 0 beta$sd
S 756 6 4 0 0 7 757 582 5689 40802061 1020 A 0 0 0 0 0 1864 0 0 0 0 0 0 759 0 0 0 0 0 0 0 0 0 0 582 0 0 0 0 beta$p
S 757 6 4 0 0 7 755 582 5696 40802060 1020 A 0 0 0 0 0 1872 0 0 0 0 0 0 759 0 0 0 0 0 0 0 0 0 0 582 0 0 0 0 beta$o
S 758 22 1 0 0 9 1 582 5703 40000000 1000 A 0 0 0 0 0 0 0 630 0 0 0 0 755 0 0 0 0 0 0 0 0 0 0 582 0 0 0 0 beta$arrdsc
S 759 11 0 0 4 9 1 582 5715 40800000 801000 A 0 0 0 0 0 16224 0 0 653 623 0 0 0 0 0 0 0 0 0 0 0 0 0 0 0 0 0 0 _uspp$0
S 760 11 0 0 4 9 759 582 5723 40800000 801000 A 0 0 0 0 0 100352 0 0 617 617 0 0 0 0 0 0 0 0 0 0 0 0 0 0 0 0 0 0 _uspp$2
S 761 11 0 0 0 9 760 582 5731 40800000 801000 A 0 0 0 0 0 4 0 0 632 632 0 0 0 0 0 0 0 0 0 0 0 0 0 0 0 0 0 0 _uspp$8
S 762 11 0 0 0 9 761 582 5739 40800010 801000 A 0 0 0 0 0 164 0 0 649 754 0 0 0 0 0 0 0 0 0 0 0 0 0 0 0 0 0 0 _uspp$4
S 763 23 5 0 0 0 765 582 4795 0 0 A 0 0 0 0 0 0 0 0 0 0 0 0 0 0 0 0 0 0 0 0 0 0 0 0 0 0 0 0 aainit
S 764 1 3 0 0 6 1 763 5747 14 3000 A 0 0 0 0 0 0 0 0 0 0 0 0 0 0 0 0 0 0 0 0 0 0 0 0 0 0 0 0 lli
S 765 14 5 0 0 0 1 763 4795 0 400000 A 0 0 0 0 0 0 0 4 1 0 0 0 0 0 0 0 0 0 0 0 0 96 0 582 0 0 0 0 aainit
F 765 1 764
S 766 23 5 0 0 0 770 582 5751 10 0 A 0 0 0 0 0 0 0 0 0 0 0 0 0 0 0 0 0 0 0 0 0 0 0 0 0 0 0 0 gen_rndm_r
S 767 6 3 0 0 6 1 766 5762 800014 3000 A 0 0 0 0 0 0 0 0 0 0 0 0 0 0 0 0 0 0 0 0 0 0 0 0 0 0 0 0 llx
S 768 7 3 0 0 149 1 766 5766 800214 3000 A 0 0 0 0 0 0 0 0 0 0 0 0 0 0 0 0 0 0 0 0 0 0 0 0 0 0 0 0 r
S 769 7 3 0 0 152 1 766 5768 800214 3000 A 0 0 0 0 0 0 0 0 0 0 0 0 0 0 0 0 0 0 0 0 0 0 0 0 0 0 0 0 rr
S 770 14 5 0 0 0 1 766 5751 210 400000 A 0 0 0 0 0 0 0 6 3 0 0 0 0 0 0 0 0 0 0 0 0 183 0 582 0 0 0 0 gen_rndm_r
F 770 3 767 768 769
S 771 6 1 0 0 6 1 766 5771 40800016 3000 A 0 0 0 0 0 0 0 0 0 0 0 0 0 0 0 0 0 0 0 0 0 0 0 0 0 0 0 0 z_e_712
S 772 6 1 0 0 6 1 766 5779 40800016 3000 A 0 0 0 0 0 0 0 0 0 0 0 0 0 0 0 0 0 0 0 0 0 0 0 0 0 0 0 0 z_e_714
S 773 23 5 0 0 9 780 582 5787 10 0 A 0 0 0 0 0 0 0 0 0 0 0 0 0 0 0 0 0 0 0 0 0 0 0 0 0 0 0 0 compute_ap
S 774 1 3 0 0 6 1 773 5798 14 3000 A 0 0 0 0 0 0 0 0 0 0 0 0 0 0 0 0 0 0 0 0 0 0 0 0 0 0 0 0 l
S 775 1 3 0 0 6 1 773 5800 14 3000 A 0 0 0 0 0 0 0 0 0 0 0 0 0 0 0 0 0 0 0 0 0 0 0 0 0 0 0 0 li
S 776 1 3 0 0 6 1 773 5803 14 3000 A 0 0 0 0 0 0 0 0 0 0 0 0 0 0 0 0 0 0 0 0 0 0 0 0 0 0 0 0 lj
S 777 6 3 0 0 6 1 773 5762 800014 3000 A 0 0 0 0 0 0 0 0 0 0 0 0 0 0 0 0 0 0 0 0 0 0 0 0 0 0 0 0 llx
S 778 7 3 0 0 155 1 773 5806 800214 3000 A 0 0 0 0 0 0 0 0 0 0 0 0 0 0 0 0 0 0 0 0 0 0 0 0 0 0 0 0 ylm
S 779 7 3 0 0 158 1 773 5810 800214 3000 A 0 0 0 0 0 0 0 0 0 0 0 0 0 0 0 0 0 0 0 0 0 0 0 0 0 0 0 0 mly
S 780 14 5 0 0 9 1 773 5787 214 400000 A 0 0 0 0 0 0 0 10 6 0 0 781 0 0 0 0 0 0 0 0 0 219 0 582 0 0 0 0 compute_ap
F 780 6 774 775 776 777 778 779
S 781 1 3 0 0 9 1 773 5787 14 1003000 A 0 0 0 0 0 0 0 0 0 0 0 0 0 0 0 0 0 0 0 0 0 0 0 0 0 0 0 0 compute_ap
S 782 6 1 0 0 6 1 773 5814 40800016 3000 A 0 0 0 0 0 0 0 0 0 0 0 0 0 0 0 0 0 0 0 0 0 0 0 0 0 0 0 0 z_e_617
S 783 6 1 0 0 6 1 773 5822 40800016 3000 A 0 0 0 0 0 0 0 0 0 0 0 0 0 0 0 0 0 0 0 0 0 0 0 0 0 0 0 0 z_e_619
S 784 6 1 0 0 6 1 773 5830 40800016 3000 A 0 0 0 0 0 0 0 0 0 0 0 0 0 0 0 0 0 0 0 0 0 0 0 0 0 0 0 0 z_e_621
S 785 23 5 0 0 0 786 582 4877 0 0 A 0 0 0 0 0 0 0 0 0 0 0 0 0 0 0 0 0 0 0 0 0 0 0 0 0 0 0 0 deallocate_uspp
S 786 14 5 0 0 0 1 785 4877 0 400000 A 0 0 0 0 0 0 0 17 0 0 0 0 0 0 0 0 0 0 0 0 0 248 0 582 0 0 0 0 deallocate_uspp
F 786 0
A 13 2 0 0 0 6 588 0 0 0 13 0 0 0 0 0 0 0 0 0
A 15 2 0 0 0 6 589 0 0 0 15 0 0 0 0 0 0 0 0 0
A 23 2 0 0 0 6 599 0 0 0 23 0 0 0 0 0 0 0 0 0
A 25 2 0 0 0 6 601 0 0 0 25 0 0 0 0 0 0 0 0 0
A 34 2 0 0 0 6 637 0 0 0 34 0 0 0 0 0 0 0 0 0
A 36 2 0 0 0 6 639 0 0 0 36 0 0 0 0 0 0 0 0 0
A 37 2 0 0 0 6 640 0 0 0 37 0 0 0 0 0 0 0 0 0
A 39 2 0 0 0 6 641 0 0 0 39 0 0 0 0 0 0 0 0 0
A 40 2 0 0 0 6 642 0 0 0 40 0 0 0 0 0 0 0 0 0
A 41 2 0 0 0 6 643 0 0 0 41 0 0 0 0 0 0 0 0 0
A 42 2 0 0 0 6 644 0 0 0 42 0 0 0 0 0 0 0 0 0
A 43 2 0 0 0 6 645 0 0 0 43 0 0 0 0 0 0 0 0 0
A 44 2 0 0 0 6 646 0 0 0 44 0 0 0 0 0 0 0 0 0
A 45 2 0 0 0 6 647 0 0 0 45 0 0 0 0 0 0 0 0 0
A 46 2 0 0 0 6 648 0 0 0 46 0 0 0 0 0 0 0 0 0
A 49 2 0 0 0 6 651 0 0 0 49 0 0 0 0 0 0 0 0 0
A 50 1 0 1 0 68 652 0 0 0 0 0 0 0 0 0 0 0 0 0
A 51 10 0 0 0 6 50 1 0 0 0 0 0 0 0 0 0 0 0 0
X 1 37
A 52 10 0 0 51 6 50 4 0 0 0 0 0 0 0 0 0 0 0 0
X 1 36
A 53 4 0 0 0 6 52 0 3 0 0 0 0 2 0 0 0 0 0 0
A 54 4 0 0 0 6 51 0 53 0 0 0 0 1 0 0 0 0 0 0
A 55 2 0 0 0 6 656 0 0 0 55 0 0 0 0 0 0 0 0 0
A 56 10 0 0 52 6 50 7 0 0 0 0 0 0 0 0 0 0 0 0
X 1 55
A 57 2 0 0 0 6 657 0 0 0 57 0 0 0 0 0 0 0 0 0
A 58 10 0 0 56 6 50 10 0 0 0 0 0 0 0 0 0 0 0 0
X 1 57
A 59 4 0 0 0 6 58 0 3 0 0 0 0 2 0 0 0 0 0 0
A 60 4 0 0 0 6 56 0 59 0 0 0 0 1 0 0 0 0 0 0
A 61 10 0 0 58 6 50 13 0 0 0 0 0 0 0 0 0 0 0 0
X 1 40
A 62 2 0 0 0 6 658 0 0 0 62 0 0 0 0 0 0 0 0 0
A 63 10 0 0 61 6 50 16 0 0 0 0 0 0 0 0 0 0 0 0
X 1 62
A 64 10 0 0 63 6 50 19 0 0 0 0 0 0 0 0 0 0 0 0
X 1 25
A 65 10 0 0 64 6 50 22 0 0 0 0 0 0 0 0 0 0 0 0
X 1 13
A 68 1 0 1 22 74 661 0 0 0 0 0 0 0 0 0 0 0 0 0
A 69 10 0 0 0 6 68 1 0 0 0 0 0 0 0 0 0 0 0 0
X 1 37
A 70 10 0 0 69 6 68 4 0 0 0 0 0 0 0 0 0 0 0 0
X 1 36
A 71 4 0 0 0 6 70 0 3 0 0 0 0 2 0 0 0 0 0 0
A 72 4 0 0 0 6 69 0 71 0 0 0 0 1 0 0 0 0 0 0
A 73 10 0 0 70 6 68 7 0 0 0 0 0 0 0 0 0 0 0 0
X 1 55
A 74 10 0 0 73 6 68 10 0 0 0 0 0 0 0 0 0 0 0 0
X 1 57
A 75 4 0 0 0 6 74 0 3 0 0 0 0 2 0 0 0 0 0 0
A 76 4 0 0 0 6 73 0 75 0 0 0 0 1 0 0 0 0 0 0
A 77 10 0 0 74 6 68 13 0 0 0 0 0 0 0 0 0 0 0 0
X 1 40
A 78 10 0 0 77 6 68 16 0 0 0 0 0 0 0 0 0 0 0 0
X 1 62
A 79 10 0 0 78 6 68 19 0 0 0 0 0 0 0 0 0 0 0 0
X 1 25
A 80 10 0 0 79 6 68 22 0 0 0 0 0 0 0 0 0 0 0 0
X 1 13
A 83 1 0 1 0 80 667 0 0 0 0 0 0 0 0 0 0 0 0 0
A 84 10 0 0 0 6 83 1 0 0 0 0 0 0 0 0 0 0 0 0
X 1 37
A 85 10 0 0 84 6 83 4 0 0 0 0 0 0 0 0 0 0 0 0
X 1 36
A 86 4 0 0 0 6 85 0 3 0 0 0 0 2 0 0 0 0 0 0
A 87 4 0 0 0 6 84 0 86 0 0 0 0 1 0 0 0 0 0 0
A 88 10 0 0 85 6 83 7 0 0 0 0 0 0 0 0 0 0 0 0
X 1 55
A 89 10 0 0 88 6 83 10 0 0 0 0 0 0 0 0 0 0 0 0
X 1 57
A 90 4 0 0 0 6 89 0 3 0 0 0 0 2 0 0 0 0 0 0
A 91 4 0 0 0 6 88 0 90 0 0 0 0 1 0 0 0 0 0 0
A 92 10 0 0 89 6 83 13 0 0 0 0 0 0 0 0 0 0 0 0
X 1 40
A 93 10 0 0 92 6 83 16 0 0 0 0 0 0 0 0 0 0 0 0
X 1 62
A 94 10 0 0 93 6 83 19 0 0 0 0 0 0 0 0 0 0 0 0
X 1 25
A 95 10 0 0 94 6 83 22 0 0 0 0 0 0 0 0 0 0 0 0
X 1 13
A 99 2 0 0 0 6 674 0 0 0 99 0 0 0 0 0 0 0 0 0
A 100 1 0 3 0 86 675 0 0 0 0 0 0 0 0 0 0 0 0 0
A 101 10 0 0 20 6 100 1 0 0 0 0 0 0 0 0 0 0 0 0
X 1 37
A 102 10 0 0 101 6 100 4 0 0 0 0 0 0 0 0 0 0 0 0
X 1 36
A 103 4 0 0 0 6 102 0 3 0 0 0 0 2 0 0 0 0 0 0
A 104 4 0 0 47 6 101 0 103 0 0 0 0 1 0 0 0 0 0 0
A 105 10 0 0 102 6 100 7 0 0 0 0 0 0 0 0 0 0 0 0
X 1 55
A 106 10 0 0 105 6 100 10 0 0 0 0 0 0 0 0 0 0 0 0
X 1 57
A 107 4 0 0 0 6 106 0 3 0 0 0 0 2 0 0 0 0 0 0
A 108 4 0 0 96 6 105 0 107 0 0 0 0 1 0 0 0 0 0 0
A 109 2 0 0 0 6 679 0 0 0 109 0 0 0 0 0 0 0 0 0
A 110 10 0 0 106 6 100 25 0 0 0 0 0 0 0 0 0 0 0 0
X 1 109
A 111 2 0 0 0 6 680 0 0 0 111 0 0 0 0 0 0 0 0 0
A 112 10 0 0 110 6 100 28 0 0 0 0 0 0 0 0 0 0 0 0
X 1 111
A 113 4 0 0 25 6 112 0 3 0 0 0 0 2 0 0 0 0 0 0
A 114 4 0 0 103 6 110 0 113 0 0 0 0 1 0 0 0 0 0 0
A 115 10 0 0 112 6 100 13 0 0 0 0 0 0 0 0 0 0 0 0
X 1 40
A 116 10 0 0 115 6 100 16 0 0 0 0 0 0 0 0 0 0 0 0
X 1 62
A 117 2 0 0 0 6 681 0 0 0 117 0 0 0 0 0 0 0 0 0
A 118 10 0 0 116 6 100 31 0 0 0 0 0 0 0 0 0 0 0 0
X 1 117
A 119 10 0 0 118 6 100 19 0 0 0 0 0 0 0 0 0 0 0 0
X 1 25
A 120 10 0 0 119 6 100 22 0 0 0 0 0 0 0 0 0 0 0 0
X 1 13
A 125 1 0 1 0 92 685 0 0 0 0 0 0 0 0 0 0 0 0 0
A 126 10 0 0 0 6 125 1 0 0 0 0 0 0 0 0 0 0 0 0
X 1 37
A 127 10 0 0 126 6 125 4 0 0 0 0 0 0 0 0 0 0 0 0
X 1 36
A 128 4 0 0 0 6 127 0 3 0 0 0 0 2 0 0 0 0 0 0
A 129 4 0 0 0 6 126 0 128 0 0 0 0 1 0 0 0 0 0 0
A 130 10 0 0 127 6 125 7 0 0 0 0 0 0 0 0 0 0 0 0
X 1 55
A 131 10 0 0 130 6 125 10 0 0 0 0 0 0 0 0 0 0 0 0
X 1 57
A 132 4 0 0 0 6 131 0 3 0 0 0 0 2 0 0 0 0 0 0
A 133 4 0 0 0 6 130 0 132 0 0 0 0 1 0 0 0 0 0 0
A 134 10 0 0 131 6 125 13 0 0 0 0 0 0 0 0 0 0 0 0
X 1 40
A 135 10 0 0 134 6 125 16 0 0 0 0 0 0 0 0 0 0 0 0
X 1 62
A 136 10 0 0 135 6 125 19 0 0 0 0 0 0 0 0 0 0 0 0
X 1 25
A 137 10 0 0 136 6 125 22 0 0 0 0 0 0 0 0 0 0 0 0
X 1 13
A 141 1 0 3 0 98 692 0 0 0 0 0 0 0 0 0 0 0 0 0
A 142 10 0 0 0 6 141 1 0 0 0 0 0 0 0 0 0 0 0 0
X 1 37
A 143 10 0 0 142 6 141 4 0 0 0 0 0 0 0 0 0 0 0 0
X 1 36
A 144 4 0 0 0 6 143 0 3 0 0 0 0 2 0 0 0 0 0 0
A 145 4 0 0 0 6 142 0 144 0 0 0 0 1 0 0 0 0 0 0
A 146 10 0 0 143 6 141 7 0 0 0 0 0 0 0 0 0 0 0 0
X 1 55
A 147 10 0 0 146 6 141 10 0 0 0 0 0 0 0 0 0 0 0 0
X 1 57
A 148 4 0 0 0 6 147 0 3 0 0 0 0 2 0 0 0 0 0 0
A 149 4 0 0 0 6 146 0 148 0 0 0 0 1 0 0 0 0 0 0
A 150 10 0 0 147 6 141 25 0 0 0 0 0 0 0 0 0 0 0 0
X 1 109
A 151 10 0 0 150 6 141 28 0 0 0 0 0 0 0 0 0 0 0 0
X 1 111
A 152 4 0 0 37 6 151 0 3 0 0 0 0 2 0 0 0 0 0 0
A 153 4 0 0 0 6 150 0 152 0 0 0 0 1 0 0 0 0 0 0
A 154 10 0 0 151 6 141 13 0 0 0 0 0 0 0 0 0 0 0 0
X 1 40
A 155 10 0 0 154 6 141 16 0 0 0 0 0 0 0 0 0 0 0 0
X 1 62
A 156 10 0 0 155 6 141 31 0 0 0 0 0 0 0 0 0 0 0 0
X 1 117
A 157 10 0 0 156 6 141 19 0 0 0 0 0 0 0 0 0 0 0 0
X 1 25
A 158 10 0 0 157 6 141 22 0 0 0 0 0 0 0 0 0 0 0 0
X 1 13
A 162 1 0 3 0 104 699 0 0 0 0 0 0 0 0 0 0 0 0 0
A 163 10 0 0 153 6 162 1 0 0 0 0 0 0 0 0 0 0 0 0
X 1 37
A 164 10 0 0 163 6 162 4 0 0 0 0 0 0 0 0 0 0 0 0
X 1 36
A 165 4 0 0 0 6 164 0 3 0 0 0 0 2 0 0 0 0 0 0
A 166 4 0 0 0 6 163 0 165 0 0 0 0 1 0 0 0 0 0 0
A 167 10 0 0 164 6 162 7 0 0 0 0 0 0 0 0 0 0 0 0
X 1 55
A 168 10 0 0 167 6 162 10 0 0 0 0 0 0 0 0 0 0 0 0
X 1 57
A 169 4 0 0 57 6 168 0 3 0 0 0 0 2 0 0 0 0 0 0
A 170 4 0 0 0 6 167 0 169 0 0 0 0 1 0 0 0 0 0 0
A 171 10 0 0 168 6 162 25 0 0 0 0 0 0 0 0 0 0 0 0
X 1 109
A 172 10 0 0 171 6 162 28 0 0 0 0 0 0 0 0 0 0 0 0
X 1 111
A 173 4 0 0 0 6 172 0 3 0 0 0 0 2 0 0 0 0 0 0
A 174 4 0 0 0 6 171 0 173 0 0 0 0 1 0 0 0 0 0 0
A 175 10 0 0 172 6 162 13 0 0 0 0 0 0 0 0 0 0 0 0
X 1 40
A 176 10 0 0 175 6 162 16 0 0 0 0 0 0 0 0 0 0 0 0
X 1 62
A 177 10 0 0 176 6 162 31 0 0 0 0 0 0 0 0 0 0 0 0
X 1 117
A 178 10 0 0 177 6 162 19 0 0 0 0 0 0 0 0 0 0 0 0
X 1 25
A 179 10 0 0 178 6 162 22 0 0 0 0 0 0 0 0 0 0 0 0
X 1 13
A 184 2 0 0 0 6 707 0 0 0 184 0 0 0 0 0 0 0 0 0
A 185 1 0 5 54 110 708 0 0 0 0 0 0 0 0 0 0 0 0 0
A 186 10 0 0 139 6 185 1 0 0 0 0 0 0 0 0 0 0 0 0
X 1 37
A 187 10 0 0 186 6 185 4 0 0 0 0 0 0 0 0 0 0 0 0
X 1 36
A 188 4 0 0 0 6 187 0 3 0 0 0 0 2 0 0 0 0 0 0
A 189 4 0 0 0 6 186 0 188 0 0 0 0 1 0 0 0 0 0 0
A 190 10 0 0 187 6 185 7 0 0 0 0 0 0 0 0 0 0 0 0
X 1 55
A 191 10 0 0 190 6 185 10 0 0 0 0 0 0 0 0 0 0 0 0
X 1 57
A 192 4 0 0 111 6 191 0 3 0 0 0 0 2 0 0 0 0 0 0
A 193 4 0 0 0 6 190 0 192 0 0 0 0 1 0 0 0 0 0 0
A 194 10 0 0 191 6 185 25 0 0 0 0 0 0 0 0 0 0 0 0
X 1 109
A 195 10 0 0 194 6 185 28 0 0 0 0 0 0 0 0 0 0 0 0
X 1 111
A 196 4 0 0 0 6 195 0 3 0 0 0 0 2 0 0 0 0 0 0
A 197 4 0 0 60 6 194 0 196 0 0 0 0 1 0 0 0 0 0 0
A 198 2 0 0 0 6 712 0 0 0 198 0 0 0 0 0 0 0 0 0
A 199 10 0 0 195 6 185 34 0 0 0 0 0 0 0 0 0 0 0 0
X 1 198
A 200 2 0 0 0 6 713 0 0 0 200 0 0 0 0 0 0 0 0 0
A 201 10 0 0 199 6 185 37 0 0 0 0 0 0 0 0 0 0 0 0
X 1 200
A 202 4 0 0 0 6 201 0 3 0 0 0 0 2 0 0 0 0 0 0
A 203 4 0 0 0 6 199 0 202 0 0 0 0 1 0 0 0 0 0 0
A 204 10 0 0 201 6 185 13 0 0 0 0 0 0 0 0 0 0 0 0
X 1 40
A 205 10 0 0 204 6 185 16 0 0 0 0 0 0 0 0 0 0 0 0
X 1 62
A 206 10 0 0 205 6 185 31 0 0 0 0 0 0 0 0 0 0 0 0
X 1 117
A 207 2 0 0 0 6 714 0 0 0 207 0 0 0 0 0 0 0 0 0
A 208 10 0 0 206 6 185 40 0 0 0 0 0 0 0 0 0 0 0 0
X 1 207
A 209 10 0 0 208 6 185 19 0 0 0 0 0 0 0 0 0 0 0 0
X 1 25
A 210 10 0 0 209 6 185 22 0 0 0 0 0 0 0 0 0 0 0 0
X 1 13
A 214 1 0 3 0 116 718 0 0 0 0 0 0 0 0 0 0 0 0 0
A 215 10 0 0 0 6 214 1 0 0 0 0 0 0 0 0 0 0 0 0
X 1 37
A 216 10 0 0 215 6 214 4 0 0 0 0 0 0 0 0 0 0 0 0
X 1 36
A 217 4 0 0 0 6 216 0 3 0 0 0 0 2 0 0 0 0 0 0
A 218 4 0 0 173 6 215 0 217 0 0 0 0 1 0 0 0 0 0 0
A 219 10 0 0 216 6 214 7 0 0 0 0 0 0 0 0 0 0 0 0
X 1 55
A 220 10 0 0 219 6 214 10 0 0 0 0 0 0 0 0 0 0 0 0
X 1 57
A 221 4 0 0 0 6 220 0 3 0 0 0 0 2 0 0 0 0 0 0
A 222 4 0 0 0 6 219 0 221 0 0 0 0 1 0 0 0 0 0 0
A 223 10 0 0 220 6 214 25 0 0 0 0 0 0 0 0 0 0 0 0
X 1 109
A 224 10 0 0 223 6 214 28 0 0 0 0 0 0 0 0 0 0 0 0
X 1 111
A 225 4 0 0 200 6 224 0 3 0 0 0 0 2 0 0 0 0 0 0
A 226 4 0 0 217 6 223 0 225 0 0 0 0 1 0 0 0 0 0 0
A 227 10 0 0 224 6 214 13 0 0 0 0 0 0 0 0 0 0 0 0
X 1 40
A 228 10 0 0 227 6 214 16 0 0 0 0 0 0 0 0 0 0 0 0
X 1 62
A 229 10 0 0 228 6 214 31 0 0 0 0 0 0 0 0 0 0 0 0
X 1 117
A 230 10 0 0 229 6 214 19 0 0 0 0 0 0 0 0 0 0 0 0
X 1 25
A 231 10 0 0 230 6 214 22 0 0 0 0 0 0 0 0 0 0 0 0
X 1 13
A 234 1 0 1 0 122 724 0 0 0 0 0 0 0 0 0 0 0 0 0
A 235 10 0 0 0 6 234 1 0 0 0 0 0 0 0 0 0 0 0 0
X 1 37
A 236 10 0 0 235 6 234 4 0 0 0 0 0 0 0 0 0 0 0 0
X 1 36
A 237 4 0 0 0 6 236 0 3 0 0 0 0 2 0 0 0 0 0 0
A 238 4 0 0 0 6 235 0 237 0 0 0 0 1 0 0 0 0 0 0
A 239 10 0 0 236 6 234 7 0 0 0 0 0 0 0 0 0 0 0 0
X 1 55
A 240 10 0 0 239 6 234 10 0 0 0 0 0 0 0 0 0 0 0 0
X 1 57
A 241 4 0 0 0 6 240 0 3 0 0 0 0 2 0 0 0 0 0 0
A 242 4 0 0 0 6 239 0 241 0 0 0 0 1 0 0 0 0 0 0
A 243 10 0 0 240 6 234 13 0 0 0 0 0 0 0 0 0 0 0 0
X 1 40
A 244 10 0 0 243 6 234 16 0 0 0 0 0 0 0 0 0 0 0 0
X 1 62
A 245 10 0 0 244 6 234 19 0 0 0 0 0 0 0 0 0 0 0 0
X 1 25
A 246 10 0 0 245 6 234 22 0 0 0 0 0 0 0 0 0 0 0 0
X 1 13
A 251 1 0 5 0 128 732 0 0 0 0 0 0 0 0 0 0 0 0 0
A 252 10 0 0 42 6 251 1 0 0 0 0 0 0 0 0 0 0 0 0
X 1 37
A 253 10 0 0 252 6 251 4 0 0 0 0 0 0 0 0 0 0 0 0
X 1 36
A 254 4 0 0 0 6 253 0 3 0 0 0 0 2 0 0 0 0 0 0
A 255 4 0 0 0 6 252 0 254 0 0 0 0 1 0 0 0 0 0 0
A 256 10 0 0 253 6 251 7 0 0 0 0 0 0 0 0 0 0 0 0
X 1 55
A 257 10 0 0 256 6 251 10 0 0 0 0 0 0 0 0 0 0 0 0
X 1 57
A 258 4 0 0 0 6 257 0 3 0 0 0 0 2 0 0 0 0 0 0
A 259 4 0 0 0 6 256 0 258 0 0 0 0 1 0 0 0 0 0 0
A 260 10 0 0 257 6 251 25 0 0 0 0 0 0 0 0 0 0 0 0
X 1 109
A 261 10 0 0 260 6 251 28 0 0 0 0 0 0 0 0 0 0 0 0
X 1 111
A 262 4 0 0 0 6 261 0 3 0 0 0 0 2 0 0 0 0 0 0
A 263 4 0 0 169 6 260 0 262 0 0 0 0 1 0 0 0 0 0 0
A 264 10 0 0 261 6 251 34 0 0 0 0 0 0 0 0 0 0 0 0
X 1 198
A 265 10 0 0 264 6 251 37 0 0 0 0 0 0 0 0 0 0 0 0
X 1 200
A 266 4 0 0 0 6 265 0 3 0 0 0 0 2 0 0 0 0 0 0
A 267 4 0 0 109 6 264 0 266 0 0 0 0 1 0 0 0 0 0 0
A 268 10 0 0 265 6 251 13 0 0 0 0 0 0 0 0 0 0 0 0
X 1 40
A 269 10 0 0 268 6 251 16 0 0 0 0 0 0 0 0 0 0 0 0
X 1 62
A 270 10 0 0 269 6 251 31 0 0 0 0 0 0 0 0 0 0 0 0
X 1 117
A 271 10 0 0 270 6 251 40 0 0 0 0 0 0 0 0 0 0 0 0
X 1 207
A 272 10 0 0 271 6 251 19 0 0 0 0 0 0 0 0 0 0 0 0
X 1 25
A 273 10 0 0 272 6 251 22 0 0 0 0 0 0 0 0 0 0 0 0
X 1 13
A 278 1 0 5 137 134 740 0 0 0 0 0 0 0 0 0 0 0 0 0
A 279 10 0 0 0 6 278 1 0 0 0 0 0 0 0 0 0 0 0 0
X 1 37
A 280 10 0 0 279 6 278 4 0 0 0 0 0 0 0 0 0 0 0 0
X 1 36
A 281 4 0 0 0 6 280 0 3 0 0 0 0 2 0 0 0 0 0 0
A 282 4 0 0 32 6 279 0 281 0 0 0 0 1 0 0 0 0 0 0
A 283 10 0 0 280 6 278 7 0 0 0 0 0 0 0 0 0 0 0 0
X 1 55
A 284 10 0 0 283 6 278 10 0 0 0 0 0 0 0 0 0 0 0 0
X 1 57
A 285 4 0 0 0 6 284 0 3 0 0 0 0 2 0 0 0 0 0 0
A 286 4 0 0 0 6 283 0 285 0 0 0 0 1 0 0 0 0 0 0
A 287 10 0 0 284 6 278 25 0 0 0 0 0 0 0 0 0 0 0 0
X 1 109
A 288 10 0 0 287 6 278 28 0 0 0 0 0 0 0 0 0 0 0 0
X 1 111
A 289 4 0 0 0 6 288 0 3 0 0 0 0 2 0 0 0 0 0 0
A 290 4 0 0 0 6 287 0 289 0 0 0 0 1 0 0 0 0 0 0
A 291 10 0 0 288 6 278 34 0 0 0 0 0 0 0 0 0 0 0 0
X 1 198
A 292 10 0 0 291 6 278 37 0 0 0 0 0 0 0 0 0 0 0 0
X 1 200
A 293 4 0 0 0 6 292 0 3 0 0 0 0 2 0 0 0 0 0 0
A 294 4 0 0 0 6 291 0 293 0 0 0 0 1 0 0 0 0 0 0
A 295 10 0 0 292 6 278 13 0 0 0 0 0 0 0 0 0 0 0 0
X 1 40
A 296 10 0 0 295 6 278 16 0 0 0 0 0 0 0 0 0 0 0 0
X 1 62
A 297 10 0 0 296 6 278 31 0 0 0 0 0 0 0 0 0 0 0 0
X 1 117
A 298 10 0 0 297 6 278 40 0 0 0 0 0 0 0 0 0 0 0 0
X 1 207
A 299 10 0 0 298 6 278 19 0 0 0 0 0 0 0 0 0 0 0 0
X 1 25
A 300 10 0 0 299 6 278 22 0 0 0 0 0 0 0 0 0 0 0 0
X 1 13
A 305 1 0 5 38 140 748 0 0 0 0 0 0 0 0 0 0 0 0 0
A 306 10 0 0 0 6 305 1 0 0 0 0 0 0 0 0 0 0 0 0
X 1 37
A 307 10 0 0 306 6 305 4 0 0 0 0 0 0 0 0 0 0 0 0
X 1 36
A 308 4 0 0 0 6 307 0 3 0 0 0 0 2 0 0 0 0 0 0
A 309 4 0 0 0 6 306 0 308 0 0 0 0 1 0 0 0 0 0 0
A 310 10 0 0 307 6 305 7 0 0 0 0 0 0 0 0 0 0 0 0
X 1 55
A 311 10 0 0 310 6 305 10 0 0 0 0 0 0 0 0 0 0 0 0
X 1 57
A 312 4 0 0 0 6 311 0 3 0 0 0 0 2 0 0 0 0 0 0
A 313 4 0 0 0 6 310 0 312 0 0 0 0 1 0 0 0 0 0 0
A 314 10 0 0 311 6 305 25 0 0 0 0 0 0 0 0 0 0 0 0
X 1 109
A 315 10 0 0 314 6 305 28 0 0 0 0 0 0 0 0 0 0 0 0
X 1 111
A 316 4 0 0 0 6 315 0 3 0 0 0 0 2 0 0 0 0 0 0
A 317 4 0 0 0 6 314 0 316 0 0 0 0 1 0 0 0 0 0 0
A 318 10 0 0 315 6 305 34 0 0 0 0 0 0 0 0 0 0 0 0
X 1 198
A 319 10 0 0 318 6 305 37 0 0 0 0 0 0 0 0 0 0 0 0
X 1 200
A 320 4 0 0 0 6 319 0 3 0 0 0 0 2 0 0 0 0 0 0
A 321 4 0 0 0 6 318 0 320 0 0 0 0 1 0 0 0 0 0 0
A 322 10 0 0 319 6 305 13 0 0 0 0 0 0 0 0 0 0 0 0
X 1 40
A 323 10 0 0 322 6 305 16 0 0 0 0 0 0 0 0 0 0 0 0
X 1 62
A 324 10 0 0 323 6 305 31 0 0 0 0 0 0 0 0 0 0 0 0
X 1 117
A 325 10 0 0 324 6 305 40 0 0 0 0 0 0 0 0 0 0 0 0
X 1 207
A 326 10 0 0 325 6 305 19 0 0 0 0 0 0 0 0 0 0 0 0
X 1 25
A 327 10 0 0 326 6 305 22 0 0 0 0 0 0 0 0 0 0 0 0
X 1 13
A 331 1 0 3 0 146 755 0 0 0 0 0 0 0 0 0 0 0 0 0
A 332 10 0 0 0 6 331 1 0 0 0 0 0 0 0 0 0 0 0 0
X 1 37
A 333 10 0 0 332 6 331 4 0 0 0 0 0 0 0 0 0 0 0 0
X 1 36
A 334 4 0 0 0 6 333 0 3 0 0 0 0 2 0 0 0 0 0 0
A 335 4 0 0 0 6 332 0 334 0 0 0 0 1 0 0 0 0 0 0
A 336 10 0 0 333 6 331 7 0 0 0 0 0 0 0 0 0 0 0 0
X 1 55
A 337 10 0 0 336 6 331 10 0 0 0 0 0 0 0 0 0 0 0 0
X 1 57
A 338 4 0 0 0 6 337 0 3 0 0 0 0 2 0 0 0 0 0 0
A 339 4 0 0 124 6 336 0 338 0 0 0 0 1 0 0 0 0 0 0
A 340 10 0 0 337 6 331 25 0 0 0 0 0 0 0 0 0 0 0 0
X 1 109
A 341 10 0 0 340 6 331 28 0 0 0 0 0 0 0 0 0 0 0 0
X 1 111
A 342 4 0 0 0 6 341 0 3 0 0 0 0 2 0 0 0 0 0 0
A 343 4 0 0 183 6 340 0 342 0 0 0 0 1 0 0 0 0 0 0
A 344 10 0 0 341 6 331 13 0 0 0 0 0 0 0 0 0 0 0 0
X 1 40
A 345 10 0 0 344 6 331 16 0 0 0 0 0 0 0 0 0 0 0 0
X 1 62
A 346 10 0 0 345 6 331 31 0 0 0 0 0 0 0 0 0 0 0 0
X 1 117
A 347 10 0 0 346 6 331 19 0 0 0 0 0 0 0 0 0 0 0 0
X 1 25
A 348 10 0 0 347 6 331 22 0 0 0 0 0 0 0 0 0 0 0 0
X 1 13
A 349 1 0 0 0 6 767 0 0 0 0 0 0 0 0 0 0 0 0 0
A 350 1 0 0 0 6 771 0 0 0 0 0 0 0 0 0 0 0 0 0
A 351 1 0 0 0 6 772 0 0 0 0 0 0 0 0 0 0 0 0 0
A 352 1 0 0 0 6 784 0 0 0 0 0 0 0 0 0 0 0 0 0
A 353 1 0 0 0 6 777 0 0 0 0 0 0 0 0 0 0 0 0 0
A 354 1 0 0 0 6 782 0 0 0 0 0 0 0 0 0 0 0 0 0
A 355 1 0 0 300 6 783 0 0 0 0 0 0 0 0 0 0 0 0 0
Z
Z
