V26 wannier
11 wannier.F90 S582 0
04/24/2012  15:51:02
use kinds private
use kinds private
enduse
D 56 21 6 2 39 38 0 1 0 0 1
 22 26 34 22 26 24
 28 32 36 28 32 30
D 59 21 6 1 0 19 0 0 0 0 0
 0 19 0 3 19 0
D 62 21 6 3 64 63 0 1 0 0 1
 45 48 59 45 48 46
 49 52 60 49 52 50
 54 58 62 54 58 56
D 65 21 6 1 0 43 0 0 0 0 0
 0 43 0 3 43 0
D 68 21 6 2 79 78 0 1 0 0 1
 68 71 76 68 71 69
 72 75 77 72 75 73
D 71 21 6 1 0 19 0 0 0 0 0
 0 19 0 3 19 0
D 74 21 6 2 94 93 0 1 0 0 1
 83 86 91 83 86 84
 87 90 92 87 90 88
D 77 21 6 1 0 19 0 0 0 0 0
 0 19 0 3 19 0
D 80 21 6 2 109 108 0 1 0 0 1
 98 101 106 98 101 99
 102 105 107 102 105 103
D 83 21 6 1 0 19 0 0 0 0 0
 0 19 0 3 19 0
D 86 21 6 1 119 118 0 1 0 0 1
 113 116 117 113 116 114
D 89 21 6 1 0 111 0 0 0 0 0
 0 111 0 3 111 0
D 92 21 16 1 128 127 0 1 0 0 1
 122 125 126 122 125 123
D 95 21 6 1 0 111 0 0 0 0 0
 0 111 0 3 111 0
D 98 21 12 2 143 142 0 1 0 0 1
 132 135 140 132 135 133
 136 139 141 136 139 137
D 101 21 6 1 0 19 0 0 0 0 0
 0 19 0 3 19 0
D 104 18 144
D 106 21 9 2 159 158 0 1 0 0 1
 148 151 156 148 151 149
 152 155 157 152 155 153
D 109 21 6 1 0 19 0 0 0 0 0
 0 19 0 3 19 0
D 112 21 6 1 168 167 0 1 0 0 1
 162 165 166 162 165 163
D 115 21 6 1 0 111 0 0 0 0 0
 0 111 0 3 111 0
D 118 21 6 1 177 176 0 1 0 0 1
 171 174 175 171 174 172
D 121 21 6 1 0 111 0 0 0 0 0
 0 111 0 3 111 0
D 124 21 6 1 186 185 0 1 0 0 1
 180 183 184 180 183 181
D 127 21 6 1 0 111 0 0 0 0 0
 0 111 0 3 111 0
D 130 21 9 2 201 200 0 1 0 0 1
 190 193 198 190 193 191
 194 197 199 194 197 195
D 133 21 6 1 0 19 0 0 0 0 0
 0 19 0 3 19 0
D 136 21 9 2 216 215 0 1 0 0 1
 205 208 213 205 208 206
 209 212 214 209 212 210
D 139 21 6 1 0 19 0 0 0 0 0
 0 19 0 3 19 0
D 142 21 9 1 225 224 0 1 0 0 1
 219 222 223 219 222 220
D 145 21 6 1 0 111 0 0 0 0 0
 0 111 0 3 111 0
D 148 21 9 2 240 239 0 1 0 0 1
 229 232 237 229 232 230
 233 236 238 233 236 234
D 151 21 6 1 0 19 0 0 0 0 0
 0 19 0 3 19 0
D 154 18 241
D 156 18 37
D 158 21 6 1 3 244 0 0 0 0 0
 0 244 3 3 244 244
D 161 21 9 2 15 245 0 0 0 0 0
 0 244 3 3 244 244
 0 244 244 3 244 244
D 164 21 9 2 15 245 0 0 0 0 0
 0 244 3 3 244 244
 0 244 244 3 244 244
D 167 21 9 2 260 259 0 1 0 0 1
 249 252 257 249 252 250
 253 256 258 253 256 254
D 170 21 6 1 0 19 0 0 0 0 0
 0 19 0 3 19 0
D 173 21 9 2 275 274 0 1 0 0 1
 264 267 272 264 267 265
 268 271 273 268 271 269
D 176 21 6 1 0 19 0 0 0 0 0
 0 19 0 3 19 0
D 179 18 244
D 181 21 179 1 284 283 0 1 0 0 1
 278 281 282 278 281 279
D 184 21 6 1 0 111 0 0 0 0 0
 0 111 0 3 111 0
D 187 21 12 4 317 316 0 1 0 0 1
 293 296 311 293 296 294
 297 300 312 297 300 298
 301 304 313 301 304 302
 306 310 315 306 310 308
D 190 21 6 1 0 291 0 0 0 0 0
 0 291 0 3 291 0
D 193 21 12 3 338 337 0 1 0 0 1
 322 325 334 322 325 323
 326 329 335 326 329 327
 330 333 336 330 333 331
D 196 21 6 1 0 43 0 0 0 0 0
 0 43 0 3 43 0
D 199 21 12 3 359 358 0 1 0 0 1
 343 346 355 343 346 344
 347 350 356 347 350 348
 351 354 357 351 354 352
D 202 21 6 1 0 43 0 0 0 0 0
 0 43 0 3 43 0
D 205 21 12 3 380 379 0 1 0 0 1
 364 367 376 364 367 365
 368 371 377 368 371 369
 372 375 378 372 375 373
D 208 21 6 1 0 43 0 0 0 0 0
 0 43 0 3 43 0
D 211 21 16 2 395 394 0 1 0 0 1
 384 387 392 384 387 385
 388 391 393 388 391 389
D 214 21 6 1 0 19 0 0 0 0 0
 0 19 0 3 19 0
D 217 21 9 2 410 409 0 1 0 0 1
 399 402 407 399 402 400
 403 406 408 403 406 404
D 220 21 6 1 0 19 0 0 0 0 0
 0 19 0 3 19 0
D 223 21 9 1 419 418 0 1 0 0 1
 413 416 417 413 416 414
D 226 21 6 1 0 111 0 0 0 0 0
 0 111 0 3 111 0
D 229 21 9 1 3 244 0 0 0 0 0
 0 244 3 3 244 244
D 232 21 9 2 434 433 0 1 0 0 1
 423 426 431 423 426 424
 427 430 432 427 430 428
D 235 21 6 1 0 19 0 0 0 0 0
 0 19 0 3 19 0
S 582 24 0 0 0 9 1 0 4658 10005 0 A 0 0 0 0 0 0 0 0 0 0 0 0 67 0 0 0 0 0 0 0 0 26 0 0 0 0 0 0 wannier
S 584 23 0 0 0 9 587 582 4672 4 0 A 0 0 0 0 0 0 0 0 0 0 0 0 0 0 0 0 0 0 0 0 0 0 0 582 0 0 0 0 dp
S 585 3 0 0 0 6 1 1 0 0 0 A 0 0 0 0 0 0 0 0 0 8 0 0 0 0 0 0 0 0 0 0 0 0 0 0 0 0 0 0 6
S 586 3 0 0 0 6 1 1 0 0 0 A 0 0 0 0 0 0 0 0 0 4 0 0 0 0 0 0 0 0 0 0 0 0 0 0 0 0 0 0 6
R 587 16 1 kinds dp
S 594 6 4 0 0 6 596 582 4706 4 0 A 0 0 0 0 0 0 0 0 0 0 0 0 835 0 0 0 0 0 0 0 0 0 0 582 0 0 0 0 nnb
S 595 7 6 0 0 56 1 582 4710 10a00004 51 A 0 0 0 0 0 0 600 0 0 0 602 0 0 0 0 0 0 0 0 599 0 0 601 582 0 0 0 0 kpb
S 596 6 4 0 0 6 597 582 4714 40800006 0 A 0 0 0 0 0 4 0 0 0 0 0 0 835 0 0 0 0 0 0 0 0 0 0 582 0 0 0 0 z_b_0
S 597 6 4 0 0 6 611 582 4720 40800006 0 A 0 0 0 0 0 8 0 0 0 0 0 0 835 0 0 0 0 0 0 0 0 0 0 582 0 0 0 0 z_b_1
S 598 3 0 0 0 6 0 1 0 0 0 A 0 0 0 0 0 0 0 0 0 24 0 0 0 0 0 0 0 0 0 0 0 0 0 0 0 0 0 0 6
S 599 8 4 0 0 59 616 582 4726 40822004 1020 A 0 0 0 0 0 0 0 0 0 0 0 0 835 0 0 0 0 0 0 0 0 0 0 582 0 0 0 0 kpb$sd
S 600 6 4 0 0 7 601 582 4733 40802001 1020 A 0 0 0 0 0 0 0 0 0 0 0 0 835 0 0 0 0 0 0 0 0 0 0 582 0 0 0 0 kpb$p
S 601 6 4 0 0 7 599 582 4739 40802000 1020 A 0 0 0 0 0 0 0 0 0 0 0 0 835 0 0 0 0 0 0 0 0 0 0 582 0 0 0 0 kpb$o
S 602 22 1 0 0 6 1 582 4745 40000000 1000 A 0 0 0 0 0 0 0 595 0 0 0 0 599 0 0 0 0 0 0 0 0 0 0 582 0 0 0 0 kpb$arrdsc
S 603 3 0 0 0 6 0 1 0 0 0 A 0 0 0 0 0 0 0 0 0 13 0 0 0 0 0 0 0 0 0 0 0 0 0 0 0 0 0 0 6
S 604 3 0 0 0 6 0 1 0 0 0 A 0 0 0 0 0 0 0 0 0 14 0 0 0 0 0 0 0 0 0 0 0 0 0 0 0 0 0 0 6
S 605 3 0 0 0 6 0 1 0 0 0 A 0 0 0 0 0 0 0 0 0 19 0 0 0 0 0 0 0 0 0 0 0 0 0 0 0 0 0 0 6
S 606 3 0 0 0 6 0 1 0 0 0 A 0 0 0 0 0 0 0 0 0 20 0 0 0 0 0 0 0 0 0 0 0 0 0 0 0 0 0 0 6
S 607 3 0 0 0 6 0 1 0 0 0 A 0 0 0 0 0 0 0 0 0 17 0 0 0 0 0 0 0 0 0 0 0 0 0 0 0 0 0 0 6
S 608 3 0 0 0 6 0 1 0 0 0 A 0 0 0 0 0 0 0 0 0 23 0 0 0 0 0 0 0 0 0 0 0 0 0 0 0 0 0 0 6
S 609 3 0 0 0 6 0 1 0 0 0 A 0 0 0 0 0 0 0 0 0 7 0 0 0 0 0 0 0 0 0 0 0 0 0 0 0 0 0 0 6
S 610 7 6 0 0 62 1 582 4756 10a00004 51 A 0 0 0 0 0 0 616 0 0 0 618 0 0 0 0 0 0 0 0 615 0 0 617 582 0 0 0 0 g_kpb
S 611 6 4 0 0 6 612 582 4762 40800006 0 A 0 0 0 0 0 12 0 0 0 0 0 0 835 0 0 0 0 0 0 0 0 0 0 582 0 0 0 0 z_b_2
S 612 6 4 0 0 6 613 582 4768 40800006 0 A 0 0 0 0 0 16 0 0 0 0 0 0 835 0 0 0 0 0 0 0 0 0 0 582 0 0 0 0 z_b_3
S 613 6 4 0 0 6 623 582 4774 40800006 0 A 0 0 0 0 0 20 0 0 0 0 0 0 835 0 0 0 0 0 0 0 0 0 0 582 0 0 0 0 z_b_4
S 614 3 0 0 0 6 0 1 0 0 0 A 0 0 0 0 0 0 0 0 0 30 0 0 0 0 0 0 0 0 0 0 0 0 0 0 0 0 0 0 6
S 615 8 4 0 0 65 626 582 4780 40822004 1020 A 0 0 0 0 0 0 0 0 0 0 0 0 835 0 0 0 0 0 0 0 0 0 0 582 0 0 0 0 g_kpb$sd
S 616 6 4 0 0 7 617 582 4789 40802001 1020 A 0 0 0 0 0 0 0 0 0 0 0 0 835 0 0 0 0 0 0 0 0 0 0 582 0 0 0 0 g_kpb$p
S 617 6 4 0 0 7 615 582 4797 40802000 1020 A 0 0 0 0 0 0 0 0 0 0 0 0 835 0 0 0 0 0 0 0 0 0 0 582 0 0 0 0 g_kpb$o
S 618 22 1 0 0 9 1 582 4805 40000000 1000 A 0 0 0 0 0 0 0 610 0 0 0 0 615 0 0 0 0 0 0 0 0 0 0 582 0 0 0 0 g_kpb$arrdsc
S 619 3 0 0 0 6 0 1 0 0 0 A 0 0 0 0 0 0 0 0 0 25 0 0 0 0 0 0 0 0 0 0 0 0 0 0 0 0 0 0 6
S 620 3 0 0 0 6 0 1 0 0 0 A 0 0 0 0 0 0 0 0 0 26 0 0 0 0 0 0 0 0 0 0 0 0 0 0 0 0 0 0 6
S 621 3 0 0 0 6 0 1 0 0 0 A 0 0 0 0 0 0 0 0 0 29 0 0 0 0 0 0 0 0 0 0 0 0 0 0 0 0 0 0 6
S 622 7 6 0 0 68 1 582 4818 10a00004 51 A 0 0 0 0 0 0 626 0 0 0 628 0 0 0 0 0 0 0 0 625 0 0 627 582 0 0 0 0 ig_
S 623 6 4 0 0 6 624 582 4822 40800006 0 A 0 0 0 0 0 24 0 0 0 0 0 0 835 0 0 0 0 0 0 0 0 0 0 582 0 0 0 0 z_b_5
S 624 6 4 0 0 6 630 582 4828 40800006 0 A 0 0 0 0 0 28 0 0 0 0 0 0 835 0 0 0 0 0 0 0 0 0 0 582 0 0 0 0 z_b_6
S 625 8 4 0 0 71 633 582 4834 40822004 1020 A 0 0 0 0 0 0 0 0 0 0 0 0 835 0 0 0 0 0 0 0 0 0 0 582 0 0 0 0 ig_$sd
S 626 6 4 0 0 7 627 582 4841 40802001 1020 A 0 0 0 0 0 0 0 0 0 0 0 0 835 0 0 0 0 0 0 0 0 0 0 582 0 0 0 0 ig_$p
S 627 6 4 0 0 7 625 582 4847 40802000 1020 A 0 0 0 0 0 0 0 0 0 0 0 0 835 0 0 0 0 0 0 0 0 0 0 582 0 0 0 0 ig_$o
S 628 22 1 0 0 6 1 582 4853 40000000 1000 A 0 0 0 0 0 0 0 622 0 0 0 0 625 0 0 0 0 0 0 0 0 0 0 582 0 0 0 0 ig_$arrdsc
S 629 7 6 0 0 74 1 582 4864 10a00004 51 A 0 0 0 0 0 0 633 0 0 0 635 0 0 0 0 0 0 0 0 632 0 0 634 582 0 0 0 0 lw
S 630 6 4 0 0 6 631 582 4867 40800006 0 A 0 0 0 0 0 32 0 0 0 0 0 0 835 0 0 0 0 0 0 0 0 0 0 582 0 0 0 0 z_b_7
S 631 6 4 0 0 6 637 582 4873 40800006 0 A 0 0 0 0 0 36 0 0 0 0 0 0 835 0 0 0 0 0 0 0 0 0 0 582 0 0 0 0 z_b_8
S 632 8 4 0 0 77 640 582 4879 40822004 1020 A 0 0 0 0 0 0 0 0 0 0 0 0 835 0 0 0 0 0 0 0 0 0 0 582 0 0 0 0 lw$sd
S 633 6 4 0 0 7 634 582 4885 40802001 1020 A 0 0 0 0 0 0 0 0 0 0 0 0 835 0 0 0 0 0 0 0 0 0 0 582 0 0 0 0 lw$p
S 634 6 4 0 0 7 632 582 4890 40802000 1020 A 0 0 0 0 0 0 0 0 0 0 0 0 835 0 0 0 0 0 0 0 0 0 0 582 0 0 0 0 lw$o
S 635 22 1 0 0 6 1 582 4895 40000000 1000 A 0 0 0 0 0 0 0 629 0 0 0 0 632 0 0 0 0 0 0 0 0 0 0 582 0 0 0 0 lw$arrdsc
S 636 7 6 0 0 80 1 582 4905 10a00004 51 A 0 0 0 0 0 0 640 0 0 0 642 0 0 0 0 0 0 0 0 639 0 0 641 582 0 0 0 0 mw
S 637 6 4 0 0 6 638 582 4908 40800006 0 A 0 0 0 0 0 40 0 0 0 0 0 0 835 0 0 0 0 0 0 0 0 0 0 582 0 0 0 0 z_b_9
S 638 6 4 0 0 6 644 582 4914 40800006 0 A 0 0 0 0 0 44 0 0 0 0 0 0 835 0 0 0 0 0 0 0 0 0 0 582 0 0 0 0 z_b_10
S 639 8 4 0 0 83 647 582 4921 40822004 1020 A 0 0 0 0 0 0 0 0 0 0 0 0 835 0 0 0 0 0 0 0 0 0 0 582 0 0 0 0 mw$sd
S 640 6 4 0 0 7 641 582 4927 40802001 1020 A 0 0 0 0 0 0 0 0 0 0 0 0 835 0 0 0 0 0 0 0 0 0 0 582 0 0 0 0 mw$p
S 641 6 4 0 0 7 639 582 4932 40802000 1020 A 0 0 0 0 0 0 0 0 0 0 0 0 835 0 0 0 0 0 0 0 0 0 0 582 0 0 0 0 mw$o
S 642 22 1 0 0 6 1 582 4937 40000000 1000 A 0 0 0 0 0 0 0 636 0 0 0 0 639 0 0 0 0 0 0 0 0 0 0 582 0 0 0 0 mw$arrdsc
S 643 7 6 0 0 86 1 582 4947 10a00004 51 A 0 0 0 0 0 0 647 0 0 0 649 0 0 0 0 0 0 0 0 646 0 0 648 582 0 0 0 0 num_sph
S 644 6 4 0 0 6 651 582 4955 40800006 0 A 0 0 0 0 0 48 0 0 0 0 0 0 835 0 0 0 0 0 0 0 0 0 0 582 0 0 0 0 z_b_11
S 645 3 0 0 0 6 0 1 0 0 0 A 0 0 0 0 0 0 0 0 0 18 0 0 0 0 0 0 0 0 0 0 0 0 0 0 0 0 0 0 6
S 646 8 4 0 0 89 653 582 4962 40822004 1020 A 0 0 0 0 0 0 0 0 0 0 0 0 835 0 0 0 0 0 0 0 0 0 0 582 0 0 0 0 num_sph$sd
S 647 6 4 0 0 7 648 582 4973 40802001 1020 A 0 0 0 0 0 0 0 0 0 0 0 0 835 0 0 0 0 0 0 0 0 0 0 582 0 0 0 0 num_sph$p
S 648 6 4 0 0 7 646 582 4983 40802000 1020 A 0 0 0 0 0 0 0 0 0 0 0 0 835 0 0 0 0 0 0 0 0 0 0 582 0 0 0 0 num_sph$o
S 649 22 1 0 0 6 1 582 4993 40000000 1000 A 0 0 0 0 0 0 0 643 0 0 0 0 646 0 0 0 0 0 0 0 0 0 0 582 0 0 0 0 num_sph$arrdsc
S 650 7 6 0 0 92 1 582 5008 10a00004 51 A 0 0 0 0 0 0 653 0 0 0 655 0 0 0 0 0 0 0 0 652 0 0 654 582 0 0 0 0 excluded_band
S 651 6 4 0 0 6 656 582 5022 40800006 0 A 0 0 0 0 0 52 0 0 0 0 0 0 835 0 0 0 0 0 0 0 0 0 0 582 0 0 0 0 z_b_12
S 652 8 4 0 0 95 670 582 5029 40822004 1020 A 0 0 0 0 0 0 0 0 0 0 0 0 835 0 0 0 0 0 0 0 0 0 0 582 0 0 0 0 excluded_band$sd
S 653 6 4 0 0 7 654 582 5046 40802001 1020 A 0 0 0 0 0 0 0 0 0 0 0 0 835 0 0 0 0 0 0 0 0 0 0 582 0 0 0 0 excluded_band$p
S 654 6 4 0 0 7 652 582 5062 40802000 1020 A 0 0 0 0 0 0 0 0 0 0 0 0 835 0 0 0 0 0 0 0 0 0 0 582 0 0 0 0 excluded_band$o
S 655 22 1 0 0 9 1 582 5078 40000000 1000 A 0 0 0 0 0 0 0 650 0 0 0 0 652 0 0 0 0 0 0 0 0 0 0 582 0 0 0 0 excluded_band$arrdsc
S 656 6 4 0 0 6 657 582 5099 4 0 A 0 0 0 0 0 56 0 0 0 0 0 0 835 0 0 0 0 0 0 0 0 0 0 582 0 0 0 0 iun_nnkp
S 657 6 4 0 0 6 658 582 5108 4 0 A 0 0 0 0 0 60 0 0 0 0 0 0 835 0 0 0 0 0 0 0 0 0 0 582 0 0 0 0 iun_mmn
S 658 6 4 0 0 6 659 582 5116 4 0 A 0 0 0 0 0 64 0 0 0 0 0 0 835 0 0 0 0 0 0 0 0 0 0 582 0 0 0 0 iun_amn
S 659 6 4 0 0 6 660 582 5124 4 0 A 0 0 0 0 0 68 0 0 0 0 0 0 835 0 0 0 0 0 0 0 0 0 0 582 0 0 0 0 iun_band
S 660 6 4 0 0 6 661 582 5133 4 0 A 0 0 0 0 0 72 0 0 0 0 0 0 835 0 0 0 0 0 0 0 0 0 0 582 0 0 0 0 iun_spn
S 661 6 4 0 0 6 662 582 5141 4 0 A 0 0 0 0 0 76 0 0 0 0 0 0 835 0 0 0 0 0 0 0 0 0 0 582 0 0 0 0 iun_plot
S 662 6 4 0 0 6 663 582 5150 4 0 A 0 0 0 0 0 80 0 0 0 0 0 0 835 0 0 0 0 0 0 0 0 0 0 582 0 0 0 0 nnbx
S 663 6 4 0 0 6 664 582 5155 4 0 A 0 0 0 0 0 84 0 0 0 0 0 0 835 0 0 0 0 0 0 0 0 0 0 582 0 0 0 0 nexband
S 664 6 4 0 0 6 665 582 5163 4 0 A 0 0 0 0 0 88 0 0 0 0 0 0 835 0 0 0 0 0 0 0 0 0 0 582 0 0 0 0 n_wannier
S 665 6 4 0 0 6 667 582 5173 4 0 A 0 0 0 0 0 92 0 0 0 0 0 0 835 0 0 0 0 0 0 0 0 0 0 582 0 0 0 0 n_proj
S 666 7 6 0 0 98 1 582 5180 10a00004 51 A 0 0 0 0 0 0 670 0 0 0 672 0 0 0 0 0 0 0 0 669 0 0 671 582 0 0 0 0 gf
S 667 6 4 0 0 6 668 582 5183 40800006 0 A 0 0 0 0 0 96 0 0 0 0 0 0 835 0 0 0 0 0 0 0 0 0 0 582 0 0 0 0 z_b_13
S 668 6 4 0 0 6 673 582 5190 40800006 0 A 0 0 0 0 0 100 0 0 0 0 0 0 835 0 0 0 0 0 0 0 0 0 0 582 0 0 0 0 z_b_14
S 669 8 4 0 0 101 690 582 5197 40822004 1020 A 0 0 0 0 0 0 0 0 0 0 0 0 835 0 0 0 0 0 0 0 0 0 0 582 0 0 0 0 gf$sd
S 670 6 4 0 0 7 671 582 5203 40802001 1020 A 0 0 0 0 0 0 0 0 0 0 0 0 835 0 0 0 0 0 0 0 0 0 0 582 0 0 0 0 gf$p
S 671 6 4 0 0 7 669 582 5208 40802000 1020 A 0 0 0 0 0 0 0 0 0 0 0 0 835 0 0 0 0 0 0 0 0 0 0 582 0 0 0 0 gf$o
S 672 22 1 0 0 9 1 582 5213 40000000 1000 A 0 0 0 0 0 0 0 666 0 0 0 0 669 0 0 0 0 0 0 0 0 0 0 582 0 0 0 0 gf$arrdsc
S 673 6 4 0 0 6 674 582 5223 4 0 A 0 0 0 0 0 104 0 0 0 0 0 0 835 0 0 0 0 0 0 0 0 0 0 582 0 0 0 0 ispinw
S 674 6 4 0 0 6 675 582 5230 4 0 A 0 0 0 0 0 108 0 0 0 0 0 0 835 0 0 0 0 0 0 0 0 0 0 582 0 0 0 0 ikstart
S 675 6 4 0 0 6 676 582 5238 4 0 A 0 0 0 0 0 112 0 0 0 0 0 0 835 0 0 0 0 0 0 0 0 0 0 582 0 0 0 0 ikstop
S 676 6 4 0 0 6 679 582 5245 4 0 A 0 0 0 0 0 116 0 0 0 0 0 0 835 0 0 0 0 0 0 0 0 0 0 582 0 0 0 0 iknum
S 677 3 0 0 0 6 0 1 0 0 0 A 0 0 0 0 0 0 0 0 0 15 0 0 0 0 0 0 0 0 0 0 0 0 0 0 0 0 0 0 6
S 678 6 4 0 0 104 1 582 5251 4 0 A 0 0 0 0 0 0 0 0 0 0 0 0 836 0 0 0 0 0 0 0 0 0 0 582 0 0 0 0 wan_mode
S 679 6 4 0 0 16 680 582 5260 4 0 A 0 0 0 0 0 120 0 0 0 0 0 0 835 0 0 0 0 0 0 0 0 0 0 582 0 0 0 0 logwann
S 680 6 4 0 0 16 681 582 5268 4 0 A 0 0 0 0 0 124 0 0 0 0 0 0 835 0 0 0 0 0 0 0 0 0 0 582 0 0 0 0 wvfn_formatted
S 681 6 4 0 0 16 682 582 5283 4 0 A 0 0 0 0 0 128 0 0 0 0 0 0 835 0 0 0 0 0 0 0 0 0 0 582 0 0 0 0 write_unk
S 682 6 4 0 0 16 683 582 5293 4 0 A 0 0 0 0 0 132 0 0 0 0 0 0 835 0 0 0 0 0 0 0 0 0 0 582 0 0 0 0 write_amn
S 683 6 4 0 0 16 684 582 5303 4 0 A 0 0 0 0 0 136 0 0 0 0 0 0 835 0 0 0 0 0 0 0 0 0 0 582 0 0 0 0 write_mmn
S 684 6 4 0 0 16 685 582 5313 4 0 A 0 0 0 0 0 140 0 0 0 0 0 0 835 0 0 0 0 0 0 0 0 0 0 582 0 0 0 0 reduce_unk
S 685 6 4 0 0 16 687 582 5324 4 0 A 0 0 0 0 0 144 0 0 0 0 0 0 835 0 0 0 0 0 0 0 0 0 0 582 0 0 0 0 write_spn
S 686 7 6 0 0 106 1 582 5334 10a00004 51 A 0 0 0 0 0 0 690 0 0 0 692 0 0 0 0 0 0 0 0 689 0 0 691 582 0 0 0 0 center_w
S 687 6 4 0 0 6 688 582 5343 40800006 0 A 0 0 0 0 0 148 0 0 0 0 0 0 835 0 0 0 0 0 0 0 0 0 0 582 0 0 0 0 z_b_15
S 688 6 4 0 0 6 694 582 5350 40800006 0 A 0 0 0 0 0 152 0 0 0 0 0 0 835 0 0 0 0 0 0 0 0 0 0 582 0 0 0 0 z_b_16
S 689 8 4 0 0 109 696 582 5357 40822004 1020 A 0 0 0 0 0 0 0 0 0 0 0 0 835 0 0 0 0 0 0 0 0 0 0 582 0 0 0 0 center_w$sd
S 690 6 4 0 0 7 691 582 5369 40802001 1020 A 0 0 0 0 0 0 0 0 0 0 0 0 835 0 0 0 0 0 0 0 0 0 0 582 0 0 0 0 center_w$p
S 691 6 4 0 0 7 689 582 5380 40802000 1020 A 0 0 0 0 0 0 0 0 0 0 0 0 835 0 0 0 0 0 0 0 0 0 0 582 0 0 0 0 center_w$o
S 692 22 1 0 0 9 1 582 5391 40000000 1000 A 0 0 0 0 0 0 0 686 0 0 0 0 689 0 0 0 0 0 0 0 0 0 0 582 0 0 0 0 center_w$arrdsc
S 693 7 6 0 0 112 1 582 5407 10a00004 51 A 0 0 0 0 0 0 696 0 0 0 698 0 0 0 0 0 0 0 0 695 0 0 697 582 0 0 0 0 l_w
S 694 6 4 0 0 6 700 582 5411 40800006 0 A 0 0 0 0 0 156 0 0 0 0 0 0 835 0 0 0 0 0 0 0 0 0 0 582 0 0 0 0 z_b_17
S 695 8 4 0 0 115 702 582 5418 40822004 1020 A 0 0 0 0 0 0 0 0 0 0 0 0 835 0 0 0 0 0 0 0 0 0 0 582 0 0 0 0 l_w$sd
S 696 6 4 0 0 7 697 582 5425 40802001 1020 A 0 0 0 0 0 0 0 0 0 0 0 0 835 0 0 0 0 0 0 0 0 0 0 582 0 0 0 0 l_w$p
S 697 6 4 0 0 7 695 582 5431 40802000 1020 A 0 0 0 0 0 0 0 0 0 0 0 0 835 0 0 0 0 0 0 0 0 0 0 582 0 0 0 0 l_w$o
S 698 22 1 0 0 6 1 582 5437 40000000 1000 A 0 0 0 0 0 0 0 693 0 0 0 0 695 0 0 0 0 0 0 0 0 0 0 582 0 0 0 0 l_w$arrdsc
S 699 7 6 0 0 118 1 582 5448 10a00004 51 A 0 0 0 0 0 0 702 0 0 0 704 0 0 0 0 0 0 0 0 701 0 0 703 582 0 0 0 0 mr_w
S 700 6 4 0 0 6 706 582 5453 40800006 0 A 0 0 0 0 0 160 0 0 0 0 0 0 835 0 0 0 0 0 0 0 0 0 0 582 0 0 0 0 z_b_18
S 701 8 4 0 0 121 708 582 5460 40822004 1020 A 0 0 0 0 0 0 0 0 0 0 0 0 835 0 0 0 0 0 0 0 0 0 0 582 0 0 0 0 mr_w$sd
S 702 6 4 0 0 7 703 582 5468 40802001 1020 A 0 0 0 0 0 0 0 0 0 0 0 0 835 0 0 0 0 0 0 0 0 0 0 582 0 0 0 0 mr_w$p
S 703 6 4 0 0 7 701 582 5475 40802000 1020 A 0 0 0 0 0 0 0 0 0 0 0 0 835 0 0 0 0 0 0 0 0 0 0 582 0 0 0 0 mr_w$o
S 704 22 1 0 0 6 1 582 5482 40000000 1000 A 0 0 0 0 0 0 0 699 0 0 0 0 701 0 0 0 0 0 0 0 0 0 0 582 0 0 0 0 mr_w$arrdsc
S 705 7 6 0 0 124 1 582 5494 10a00004 51 A 0 0 0 0 0 0 708 0 0 0 710 0 0 0 0 0 0 0 0 707 0 0 709 582 0 0 0 0 r_w
S 706 6 4 0 0 6 712 582 5498 40800006 0 A 0 0 0 0 0 164 0 0 0 0 0 0 835 0 0 0 0 0 0 0 0 0 0 582 0 0 0 0 z_b_19
S 707 8 4 0 0 127 715 582 5505 40822004 1020 A 0 0 0 0 0 0 0 0 0 0 0 0 835 0 0 0 0 0 0 0 0 0 0 582 0 0 0 0 r_w$sd
S 708 6 4 0 0 7 709 582 5512 40802001 1020 A 0 0 0 0 0 0 0 0 0 0 0 0 835 0 0 0 0 0 0 0 0 0 0 582 0 0 0 0 r_w$p
S 709 6 4 0 0 7 707 582 5518 40802000 1020 A 0 0 0 0 0 0 0 0 0 0 0 0 835 0 0 0 0 0 0 0 0 0 0 582 0 0 0 0 r_w$o
S 710 22 1 0 0 9 1 582 5524 40000000 1000 A 0 0 0 0 0 0 0 705 0 0 0 0 707 0 0 0 0 0 0 0 0 0 0 582 0 0 0 0 r_w$arrdsc
S 711 7 6 0 0 130 1 582 5535 10a00004 51 A 0 0 0 0 0 0 715 0 0 0 717 0 0 0 0 0 0 0 0 714 0 0 716 582 0 0 0 0 xaxis
S 712 6 4 0 0 6 713 582 5541 40800006 0 A 0 0 0 0 0 168 0 0 0 0 0 0 835 0 0 0 0 0 0 0 0 0 0 582 0 0 0 0 z_b_20
S 713 6 4 0 0 6 719 582 5548 40800006 0 A 0 0 0 0 0 172 0 0 0 0 0 0 835 0 0 0 0 0 0 0 0 0 0 582 0 0 0 0 z_b_21
S 714 8 4 0 0 133 722 582 5555 40822004 1020 A 0 0 0 0 0 0 0 0 0 0 0 0 835 0 0 0 0 0 0 0 0 0 0 582 0 0 0 0 xaxis$sd
S 715 6 4 0 0 7 716 582 5564 40802001 1020 A 0 0 0 0 0 0 0 0 0 0 0 0 835 0 0 0 0 0 0 0 0 0 0 582 0 0 0 0 xaxis$p
S 716 6 4 0 0 7 714 582 5572 40802000 1020 A 0 0 0 0 0 0 0 0 0 0 0 0 835 0 0 0 0 0 0 0 0 0 0 582 0 0 0 0 xaxis$o
S 717 22 1 0 0 9 1 582 5580 40000000 1000 A 0 0 0 0 0 0 0 711 0 0 0 0 714 0 0 0 0 0 0 0 0 0 0 582 0 0 0 0 xaxis$arrdsc
S 718 7 6 0 0 136 1 582 5593 10a00004 51 A 0 0 0 0 0 0 722 0 0 0 724 0 0 0 0 0 0 0 0 721 0 0 723 582 0 0 0 0 zaxis
S 719 6 4 0 0 6 720 582 5599 40800006 0 A 0 0 0 0 0 176 0 0 0 0 0 0 835 0 0 0 0 0 0 0 0 0 0 582 0 0 0 0 z_b_22
S 720 6 4 0 0 6 726 582 5606 40800006 0 A 0 0 0 0 0 180 0 0 0 0 0 0 835 0 0 0 0 0 0 0 0 0 0 582 0 0 0 0 z_b_23
S 721 8 4 0 0 139 728 582 5613 40822004 1020 A 0 0 0 0 0 0 0 0 0 0 0 0 835 0 0 0 0 0 0 0 0 0 0 582 0 0 0 0 zaxis$sd
S 722 6 4 0 0 7 723 582 5622 40802001 1020 A 0 0 0 0 0 0 0 0 0 0 0 0 835 0 0 0 0 0 0 0 0 0 0 582 0 0 0 0 zaxis$p
S 723 6 4 0 0 7 721 582 5630 40802000 1020 A 0 0 0 0 0 0 0 0 0 0 0 0 835 0 0 0 0 0 0 0 0 0 0 582 0 0 0 0 zaxis$o
S 724 22 1 0 0 9 1 582 5638 40000000 1000 A 0 0 0 0 0 0 0 718 0 0 0 0 721 0 0 0 0 0 0 0 0 0 0 582 0 0 0 0 zaxis$arrdsc
S 725 7 6 0 0 142 1 582 5651 10a00004 51 A 0 0 0 0 0 0 728 0 0 0 730 0 0 0 0 0 0 0 0 727 0 0 729 582 0 0 0 0 alpha_w
S 726 6 4 0 0 6 732 582 5659 40800006 0 A 0 0 0 0 0 184 0 0 0 0 0 0 835 0 0 0 0 0 0 0 0 0 0 582 0 0 0 0 z_b_24
S 727 8 4 0 0 145 735 582 5666 40822004 1020 A 0 0 0 0 0 0 0 0 0 0 0 0 835 0 0 0 0 0 0 0 0 0 0 582 0 0 0 0 alpha_w$sd
S 728 6 4 0 0 7 729 582 5677 40802001 1020 A 0 0 0 0 0 0 0 0 0 0 0 0 835 0 0 0 0 0 0 0 0 0 0 582 0 0 0 0 alpha_w$p
S 729 6 4 0 0 7 727 582 5687 40802000 1020 A 0 0 0 0 0 0 0 0 0 0 0 0 835 0 0 0 0 0 0 0 0 0 0 582 0 0 0 0 alpha_w$o
S 730 22 1 0 0 9 1 582 5697 40000000 1000 A 0 0 0 0 0 0 0 725 0 0 0 0 727 0 0 0 0 0 0 0 0 0 0 582 0 0 0 0 alpha_w$arrdsc
S 731 7 6 0 0 148 1 582 5712 10a00004 51 A 0 0 0 0 0 0 735 0 0 0 737 0 0 0 0 0 0 0 0 734 0 0 736 582 0 0 0 0 csph
S 732 6 4 0 0 6 733 582 5717 40800006 0 A 0 0 0 0 0 188 0 0 0 0 0 0 835 0 0 0 0 0 0 0 0 0 0 582 0 0 0 0 z_b_25
S 733 6 4 0 0 6 741 582 5724 40800006 0 A 0 0 0 0 0 192 0 0 0 0 0 0 835 0 0 0 0 0 0 0 0 0 0 582 0 0 0 0 z_b_26
S 734 8 4 0 0 151 750 582 5731 40822004 1020 A 0 0 0 0 0 0 0 0 0 0 0 0 835 0 0 0 0 0 0 0 0 0 0 582 0 0 0 0 csph$sd
S 735 6 4 0 0 7 736 582 5739 40802001 1020 A 0 0 0 0 0 0 0 0 0 0 0 0 835 0 0 0 0 0 0 0 0 0 0 582 0 0 0 0 csph$p
S 736 6 4 0 0 7 734 582 5746 40802000 1020 A 0 0 0 0 0 0 0 0 0 0 0 0 835 0 0 0 0 0 0 0 0 0 0 582 0 0 0 0 csph$o
S 737 22 1 0 0 9 1 582 5753 40000000 1000 A 0 0 0 0 0 0 0 731 0 0 0 0 734 0 0 0 0 0 0 0 0 0 0 582 0 0 0 0 csph$arrdsc
S 738 3 0 0 0 6 0 1 0 0 0 A 0 0 0 0 0 0 0 0 0 256 0 0 0 0 0 0 0 0 0 0 0 0 0 0 0 0 0 0 6
S 739 6 4 0 0 154 1 582 5765 80000c 0 A 0 0 0 0 0 0 0 0 0 0 0 0 837 0 0 0 0 0 0 0 0 0 0 582 0 0 0 0 seedname
S 740 3 0 0 0 156 0 1 0 0 0 A 0 0 0 0 0 0 0 0 5774 0 0 0 0 0 0 0 0 0 0 0 0 0 0 0 0 0 0 0 18 7 77 61 6e 6e 69 65 72
S 741 7 4 0 4 158 747 582 5782 800004 100 A 0 0 0 0 0 208 0 0 0 0 0 0 835 0 0 0 0 0 0 0 0 0 0 582 0 0 0 0 mp_grid
S 742 3 0 0 0 6 0 1 0 0 0 A 0 0 0 0 0 0 0 0 0 3 0 0 0 0 0 0 0 0 0 0 0 0 0 0 0 0 0 0 6
S 743 7 4 0 4 161 745 582 5790 800004 100 A 0 0 0 0 0 0 0 0 0 0 0 0 838 0 0 0 0 0 0 0 0 0 0 582 0 0 0 0 rlatt
S 744 3 0 0 0 6 0 1 0 0 0 A 0 0 0 0 0 0 0 0 0 9 0 0 0 0 0 0 0 0 0 0 0 0 0 0 0 0 0 0 6
S 745 7 4 0 4 164 826 582 5796 800004 100 A 0 0 0 0 0 80 0 0 0 0 0 0 838 0 0 0 0 0 0 0 0 0 0 582 0 0 0 0 glatt
S 746 7 6 0 0 167 1 582 5802 10a00004 51 A 0 0 0 0 0 0 750 0 0 0 752 0 0 0 0 0 0 0 0 749 0 0 751 582 0 0 0 0 kpt_latt
S 747 6 4 0 0 6 748 582 5811 40800006 0 A 0 0 0 0 0 220 0 0 0 0 0 0 835 0 0 0 0 0 0 0 0 0 0 582 0 0 0 0 z_b_27
S 748 6 4 0 0 6 754 582 5818 40800006 0 A 0 0 0 0 0 224 0 0 0 0 0 0 835 0 0 0 0 0 0 0 0 0 0 582 0 0 0 0 z_b_28
S 749 8 4 0 0 170 757 582 5825 40822004 1020 A 0 0 0 0 0 0 0 0 0 0 0 0 835 0 0 0 0 0 0 0 0 0 0 582 0 0 0 0 kpt_latt$sd
S 750 6 4 0 0 7 751 582 5837 40802001 1020 A 0 0 0 0 0 0 0 0 0 0 0 0 835 0 0 0 0 0 0 0 0 0 0 582 0 0 0 0 kpt_latt$p
S 751 6 4 0 0 7 749 582 5848 40802000 1020 A 0 0 0 0 0 0 0 0 0 0 0 0 835 0 0 0 0 0 0 0 0 0 0 582 0 0 0 0 kpt_latt$o
S 752 22 1 0 0 6 1 582 5859 40000000 1000 A 0 0 0 0 0 0 0 746 0 0 0 0 749 0 0 0 0 0 0 0 0 0 0 582 0 0 0 0 kpt_latt$arrdsc
S 753 7 6 0 0 173 1 582 5875 10a00004 51 A 0 0 0 0 0 0 757 0 0 0 759 0 0 0 0 0 0 0 0 756 0 0 758 582 0 0 0 0 atcart
S 754 6 4 0 0 6 755 582 5882 40800006 0 A 0 0 0 0 0 228 0 0 0 0 0 0 835 0 0 0 0 0 0 0 0 0 0 582 0 0 0 0 z_b_29
S 755 6 4 0 0 6 760 582 5889 40800006 0 A 0 0 0 0 0 232 0 0 0 0 0 0 835 0 0 0 0 0 0 0 0 0 0 582 0 0 0 0 z_b_30
S 756 8 4 0 0 176 764 582 5896 40822004 1020 A 0 0 0 0 0 0 0 0 0 0 0 0 835 0 0 0 0 0 0 0 0 0 0 582 0 0 0 0 atcart$sd
S 757 6 4 0 0 7 758 582 5906 40802001 1020 A 0 0 0 0 0 0 0 0 0 0 0 0 835 0 0 0 0 0 0 0 0 0 0 582 0 0 0 0 atcart$p
S 758 6 4 0 0 7 756 582 5915 40802000 1020 A 0 0 0 0 0 0 0 0 0 0 0 0 835 0 0 0 0 0 0 0 0 0 0 582 0 0 0 0 atcart$o
S 759 22 1 0 0 9 1 582 5924 40000000 1000 A 0 0 0 0 0 0 0 753 0 0 0 0 756 0 0 0 0 0 0 0 0 0 0 582 0 0 0 0 atcart$arrdsc
S 760 6 4 0 0 6 762 582 5938 4 0 A 0 0 0 0 0 236 0 0 0 0 0 0 835 0 0 0 0 0 0 0 0 0 0 582 0 0 0 0 num_bands
S 761 7 6 0 0 181 1 582 5948 10a00004 51 A 0 0 0 0 0 0 764 0 0 0 766 0 0 0 0 0 0 0 0 763 0 0 765 582 0 0 0 0 atsym
S 762 6 4 0 0 6 770 582 5954 40800006 0 A 0 0 0 0 0 240 0 0 0 0 0 0 835 0 0 0 0 0 0 0 0 0 0 582 0 0 0 0 z_b_31
S 763 8 4 0 0 184 776 582 5961 40822004 1020 A 0 0 0 0 0 0 0 0 0 0 0 0 835 0 0 0 0 0 0 0 0 0 0 582 0 0 0 0 atsym$sd
S 764 6 4 0 0 7 765 582 5970 40802001 1020 A 0 0 0 0 0 0 0 0 0 0 0 0 835 0 0 0 0 0 0 0 0 0 0 582 0 0 0 0 atsym$p
S 765 6 4 0 0 7 763 582 5978 40802000 1020 A 0 0 0 0 0 0 0 0 0 0 0 0 835 0 0 0 0 0 0 0 0 0 0 582 0 0 0 0 atsym$o
S 766 22 1 0 0 9 1 582 5986 40000000 1000 A 0 0 0 0 0 0 0 761 0 0 0 0 763 0 0 0 0 0 0 0 0 0 0 582 0 0 0 0 atsym$arrdsc
S 767 6 4 0 0 6 1 582 5999 80000c 0 A 0 0 0 0 0 0 0 0 0 0 0 0 839 0 0 0 0 0 0 0 0 0 0 582 0 0 0 0 num_nnmax
S 768 3 0 0 0 6 0 1 0 0 0 A 0 0 0 0 0 0 0 0 0 12 0 0 0 0 0 0 0 0 0 0 0 0 0 0 0 0 0 0 6
S 769 7 6 0 0 187 1 582 6009 10a00004 51 A 0 0 0 0 0 0 776 0 0 0 778 0 0 0 0 0 0 0 0 775 0 0 777 582 0 0 0 0 m_mat
S 770 6 4 0 0 6 771 582 6015 40800006 0 A 0 0 0 0 0 244 0 0 0 0 0 0 835 0 0 0 0 0 0 0 0 0 0 582 0 0 0 0 z_b_32
S 771 6 4 0 0 6 772 582 6022 40800006 0 A 0 0 0 0 0 248 0 0 0 0 0 0 835 0 0 0 0 0 0 0 0 0 0 582 0 0 0 0 z_b_33
S 772 6 4 0 0 6 773 582 6029 40800006 0 A 0 0 0 0 0 252 0 0 0 0 0 0 835 0 0 0 0 0 0 0 0 0 0 582 0 0 0 0 z_b_34
S 773 6 4 0 0 6 783 582 6036 40800006 0 A 0 0 0 0 0 256 0 0 0 0 0 0 835 0 0 0 0 0 0 0 0 0 0 582 0 0 0 0 z_b_35
S 774 3 0 0 0 6 0 1 0 0 0 A 0 0 0 0 0 0 0 0 0 36 0 0 0 0 0 0 0 0 0 0 0 0 0 0 0 0 0 0 6
S 775 8 4 0 0 190 787 582 6043 40822004 1020 A 0 0 0 0 0 0 0 0 0 0 0 0 835 0 0 0 0 0 0 0 0 0 0 582 0 0 0 0 m_mat$sd
S 776 6 4 0 0 7 777 582 6052 40802001 1020 A 0 0 0 0 0 0 0 0 0 0 0 0 835 0 0 0 0 0 0 0 0 0 0 582 0 0 0 0 m_mat$p
S 777 6 4 0 0 7 775 582 6060 40802000 1020 A 0 0 0 0 0 0 0 0 0 0 0 0 835 0 0 0 0 0 0 0 0 0 0 582 0 0 0 0 m_mat$o
S 778 22 1 0 0 6 1 582 6068 40000000 1000 A 0 0 0 0 0 0 0 769 0 0 0 0 775 0 0 0 0 0 0 0 0 0 0 582 0 0 0 0 m_mat$arrdsc
S 779 3 0 0 0 6 0 1 0 0 0 A 0 0 0 0 0 0 0 0 0 31 0 0 0 0 0 0 0 0 0 0 0 0 0 0 0 0 0 0 6
S 780 3 0 0 0 6 0 1 0 0 0 A 0 0 0 0 0 0 0 0 0 32 0 0 0 0 0 0 0 0 0 0 0 0 0 0 0 0 0 0 6
S 781 3 0 0 0 6 0 1 0 0 0 A 0 0 0 0 0 0 0 0 0 35 0 0 0 0 0 0 0 0 0 0 0 0 0 0 0 0 0 0 6
S 782 7 6 0 0 193 1 582 6081 10a00004 51 A 0 0 0 0 0 0 787 0 0 0 789 0 0 0 0 0 0 0 0 786 0 0 788 582 0 0 0 0 a_mat
S 783 6 4 0 0 6 784 582 6087 40800006 0 A 0 0 0 0 0 260 0 0 0 0 0 0 835 0 0 0 0 0 0 0 0 0 0 582 0 0 0 0 z_b_36
S 784 6 4 0 0 6 785 582 6094 40800006 0 A 0 0 0 0 0 264 0 0 0 0 0 0 835 0 0 0 0 0 0 0 0 0 0 582 0 0 0 0 z_b_37
S 785 6 4 0 0 6 791 582 6101 40800006 0 A 0 0 0 0 0 268 0 0 0 0 0 0 835 0 0 0 0 0 0 0 0 0 0 582 0 0 0 0 z_b_38
S 786 8 4 0 0 196 795 582 6108 40822004 1020 A 0 0 0 0 0 0 0 0 0 0 0 0 835 0 0 0 0 0 0 0 0 0 0 582 0 0 0 0 a_mat$sd
S 787 6 4 0 0 7 788 582 6117 40802001 1020 A 0 0 0 0 0 0 0 0 0 0 0 0 835 0 0 0 0 0 0 0 0 0 0 582 0 0 0 0 a_mat$p
S 788 6 4 0 0 7 786 582 6125 40802000 1020 A 0 0 0 0 0 0 0 0 0 0 0 0 835 0 0 0 0 0 0 0 0 0 0 582 0 0 0 0 a_mat$o
S 789 22 1 0 0 9 1 582 6133 40000000 1000 A 0 0 0 0 0 0 0 782 0 0 0 0 786 0 0 0 0 0 0 0 0 0 0 582 0 0 0 0 a_mat$arrdsc
S 790 7 6 0 0 199 1 582 6146 10a00004 51 A 0 0 0 0 0 0 795 0 0 0 797 0 0 0 0 0 0 0 0 794 0 0 796 582 0 0 0 0 u_mat
S 791 6 4 0 0 6 792 582 6152 40800006 0 A 0 0 0 0 0 272 0 0 0 0 0 0 835 0 0 0 0 0 0 0 0 0 0 582 0 0 0 0 z_b_39
S 792 6 4 0 0 6 793 582 6159 40800006 0 A 0 0 0 0 0 276 0 0 0 0 0 0 835 0 0 0 0 0 0 0 0 0 0 582 0 0 0 0 z_b_40
S 793 6 4 0 0 6 799 582 6166 40800006 0 A 0 0 0 0 0 280 0 0 0 0 0 0 835 0 0 0 0 0 0 0 0 0 0 582 0 0 0 0 z_b_41
S 794 8 4 0 0 202 803 582 6173 40822004 1020 A 0 0 0 0 0 0 0 0 0 0 0 0 835 0 0 0 0 0 0 0 0 0 0 582 0 0 0 0 u_mat$sd
S 795 6 4 0 0 7 796 582 6182 40802001 1020 A 0 0 0 0 0 0 0 0 0 0 0 0 835 0 0 0 0 0 0 0 0 0 0 582 0 0 0 0 u_mat$p
S 796 6 4 0 0 7 794 582 6190 40802000 1020 A 0 0 0 0 0 0 0 0 0 0 0 0 835 0 0 0 0 0 0 0 0 0 0 582 0 0 0 0 u_mat$o
S 797 22 1 0 0 9 1 582 6198 40000000 1000 A 0 0 0 0 0 0 0 790 0 0 0 0 794 0 0 0 0 0 0 0 0 0 0 582 0 0 0 0 u_mat$arrdsc
S 798 7 6 0 0 205 1 582 6211 10a00004 51 A 0 0 0 0 0 0 803 0 0 0 805 0 0 0 0 0 0 0 0 802 0 0 804 582 0 0 0 0 u_mat_opt
S 799 6 4 0 0 6 800 582 6221 40800006 0 A 0 0 0 0 0 284 0 0 0 0 0 0 835 0 0 0 0 0 0 0 0 0 0 582 0 0 0 0 z_b_42
S 800 6 4 0 0 6 801 582 6228 40800006 0 A 0 0 0 0 0 288 0 0 0 0 0 0 835 0 0 0 0 0 0 0 0 0 0 582 0 0 0 0 z_b_43
S 801 6 4 0 0 6 807 582 6235 40800006 0 A 0 0 0 0 0 292 0 0 0 0 0 0 835 0 0 0 0 0 0 0 0 0 0 582 0 0 0 0 z_b_44
S 802 8 4 0 0 208 810 582 6242 40822004 1020 A 0 0 0 0 0 0 0 0 0 0 0 0 835 0 0 0 0 0 0 0 0 0 0 582 0 0 0 0 u_mat_opt$sd
S 803 6 4 0 0 7 804 582 6255 40802001 1020 A 0 0 0 0 0 0 0 0 0 0 0 0 835 0 0 0 0 0 0 0 0 0 0 582 0 0 0 0 u_mat_opt$p
S 804 6 4 0 0 7 802 582 6267 40802000 1020 A 0 0 0 0 0 0 0 0 0 0 0 0 835 0 0 0 0 0 0 0 0 0 0 582 0 0 0 0 u_mat_opt$o
S 805 22 1 0 0 9 1 582 6279 40000000 1000 A 0 0 0 0 0 0 0 798 0 0 0 0 802 0 0 0 0 0 0 0 0 0 0 582 0 0 0 0 u_mat_opt$arrdsc
S 806 7 6 0 0 211 1 582 6296 10a00004 51 A 0 0 0 0 0 0 810 0 0 0 812 0 0 0 0 0 0 0 0 809 0 0 811 582 0 0 0 0 lwindow
S 807 6 4 0 0 6 808 582 6304 40800006 0 A 0 0 0 0 0 296 0 0 0 0 0 0 835 0 0 0 0 0 0 0 0 0 0 582 0 0 0 0 z_b_45
S 808 6 4 0 0 6 814 582 6311 40800006 0 A 0 0 0 0 0 300 0 0 0 0 0 0 835 0 0 0 0 0 0 0 0 0 0 582 0 0 0 0 z_b_46
S 809 8 4 0 0 214 817 582 6318 40822004 1020 A 0 0 0 0 0 0 0 0 0 0 0 0 835 0 0 0 0 0 0 0 0 0 0 582 0 0 0 0 lwindow$sd
S 810 6 4 0 0 7 811 582 6329 40802001 1020 A 0 0 0 0 0 0 0 0 0 0 0 0 835 0 0 0 0 0 0 0 0 0 0 582 0 0 0 0 lwindow$p
S 811 6 4 0 0 7 809 582 6339 40802000 1020 A 0 0 0 0 0 0 0 0 0 0 0 0 835 0 0 0 0 0 0 0 0 0 0 582 0 0 0 0 lwindow$o
S 812 22 1 0 0 6 1 582 6349 40000000 1000 A 0 0 0 0 0 0 0 806 0 0 0 0 809 0 0 0 0 0 0 0 0 0 0 582 0 0 0 0 lwindow$arrdsc
S 813 7 6 0 0 217 1 582 6364 10a00004 51 A 0 0 0 0 0 0 817 0 0 0 819 0 0 0 0 0 0 0 0 816 0 0 818 582 0 0 0 0 wann_centers
S 814 6 4 0 0 6 815 582 6377 40800006 0 A 0 0 0 0 0 304 0 0 0 0 0 0 835 0 0 0 0 0 0 0 0 0 0 582 0 0 0 0 z_b_47
S 815 6 4 0 0 6 821 582 6384 40800006 0 A 0 0 0 0 0 308 0 0 0 0 0 0 835 0 0 0 0 0 0 0 0 0 0 582 0 0 0 0 z_b_48
S 816 8 4 0 0 220 823 582 6391 40822004 1020 A 0 0 0 0 0 0 0 0 0 0 0 0 835 0 0 0 0 0 0 0 0 0 0 582 0 0 0 0 wann_centers$sd
S 817 6 4 0 0 7 818 582 6407 40802001 1020 A 0 0 0 0 0 0 0 0 0 0 0 0 835 0 0 0 0 0 0 0 0 0 0 582 0 0 0 0 wann_centers$p
S 818 6 4 0 0 7 816 582 6422 40802000 1020 A 0 0 0 0 0 0 0 0 0 0 0 0 835 0 0 0 0 0 0 0 0 0 0 582 0 0 0 0 wann_centers$o
S 819 22 1 0 0 9 1 582 6437 40000000 1000 A 0 0 0 0 0 0 0 813 0 0 0 0 816 0 0 0 0 0 0 0 0 0 0 582 0 0 0 0 wann_centers$arrdsc
S 820 7 6 0 0 223 1 582 6457 10a00004 51 A 0 0 0 0 0 0 823 0 0 0 825 0 0 0 0 0 0 0 0 822 0 0 824 582 0 0 0 0 wann_spreads
S 821 6 4 0 0 6 828 582 6470 40800006 0 A 0 0 0 0 0 312 0 0 0 0 0 0 835 0 0 0 0 0 0 0 0 0 0 582 0 0 0 0 z_b_49
S 822 8 4 0 0 226 831 582 6477 40822004 1020 A 0 0 0 0 0 0 0 0 0 0 0 0 835 0 0 0 0 0 0 0 0 0 0 582 0 0 0 0 wann_spreads$sd
S 823 6 4 0 0 7 824 582 6493 40802001 1020 A 0 0 0 0 0 0 0 0 0 0 0 0 835 0 0 0 0 0 0 0 0 0 0 582 0 0 0 0 wann_spreads$p
S 824 6 4 0 0 7 822 582 6508 40802000 1020 A 0 0 0 0 0 0 0 0 0 0 0 0 835 0 0 0 0 0 0 0 0 0 0 582 0 0 0 0 wann_spreads$o
S 825 22 1 0 0 9 1 582 6523 40000000 1000 A 0 0 0 0 0 0 0 820 0 0 0 0 822 0 0 0 0 0 0 0 0 0 0 582 0 0 0 0 wann_spreads$arrdsc
S 826 7 4 0 4 229 1 582 6543 800004 100 A 0 0 0 0 0 160 0 0 0 0 0 0 838 0 0 0 0 0 0 0 0 0 0 582 0 0 0 0 spreads
S 827 7 6 0 0 232 1 582 6551 10a00004 51 A 0 0 0 0 0 0 831 0 0 0 833 0 0 0 0 0 0 0 0 830 0 0 832 582 0 0 0 0 eigval
S 828 6 4 0 0 6 829 582 6558 40800006 0 A 0 0 0 0 0 316 0 0 0 0 0 0 835 0 0 0 0 0 0 0 0 0 0 582 0 0 0 0 z_b_50
S 829 6 4 0 0 6 1 582 6565 40800006 0 A 0 0 0 0 0 320 0 0 0 0 0 0 835 0 0 0 0 0 0 0 0 0 0 582 0 0 0 0 z_b_51
S 830 8 4 0 0 235 594 582 6572 40822004 1020 A 0 0 0 0 0 0 0 0 0 0 0 0 835 0 0 0 0 0 0 0 0 0 0 582 0 0 0 0 eigval$sd
S 831 6 4 0 0 7 832 582 6582 40802001 1020 A 0 0 0 0 0 0 0 0 0 0 0 0 835 0 0 0 0 0 0 0 0 0 0 582 0 0 0 0 eigval$p
S 832 6 4 0 0 7 830 582 6591 40802000 1020 A 0 0 0 0 0 0 0 0 0 0 0 0 835 0 0 0 0 0 0 0 0 0 0 582 0 0 0 0 eigval$o
S 833 22 1 0 0 9 1 582 6600 40000000 1000 A 0 0 0 0 0 0 0 827 0 0 0 0 830 0 0 0 0 0 0 0 0 0 0 582 0 0 0 0 eigval$arrdsc
S 835 11 0 0 4 9 1 582 6871 40800000 801000 A 0 0 0 0 0 3300 0 0 600 829 0 0 0 0 0 0 0 0 0 0 0 0 0 0 0 0 0 0 _wannier$0
S 836 11 0 0 0 9 835 582 6882 40800000 801000 A 0 0 0 0 0 15 0 0 678 678 0 0 0 0 0 0 0 0 0 0 0 0 0 0 0 0 0 0 _wannier$1
S 837 11 0 0 0 9 836 582 6893 40800008 801000 A 0 0 0 0 0 256 0 0 739 739 0 0 0 0 0 0 0 0 0 0 0 0 0 0 0 0 0 0 _wannier$9
S 838 11 0 0 4 9 837 582 6904 40800000 801000 A 0 0 0 0 0 184 0 0 743 826 0 0 0 0 0 0 0 0 0 0 0 0 0 0 0 0 0 0 _wannier$2
S 839 11 0 0 0 9 838 582 6915 40800008 801000 A 0 0 0 0 0 4 0 0 767 767 0 0 0 0 0 0 0 0 0 0 0 0 0 0 0 0 0 0 _wannier$8
A 13 2 0 0 0 6 585 0 0 0 13 0 0 0 0 0 0 0 0 0
A 15 2 0 0 0 6 586 0 0 0 15 0 0 0 0 0 0 0 0 0
A 19 2 0 0 0 6 598 0 0 0 19 0 0 0 0 0 0 0 0 0
A 20 2 0 0 0 6 603 0 0 0 20 0 0 0 0 0 0 0 0 0
A 21 1 0 1 0 59 599 0 0 0 0 0 0 0 0 0 0 0 0 0
A 22 10 0 0 0 6 21 1 0 0 0 0 0 0 0 0 0 0 0 0
X 1 20
A 23 2 0 0 0 6 604 0 0 0 23 0 0 0 0 0 0 0 0 0
A 24 10 0 0 22 6 21 4 0 0 0 0 0 0 0 0 0 0 0 0
X 1 23
A 25 4 0 0 0 6 24 0 3 0 0 0 0 2 0 0 0 0 0 0
A 26 4 0 0 0 6 22 0 25 0 0 0 0 1 0 0 0 0 0 0
A 27 2 0 0 0 6 605 0 0 0 27 0 0 0 0 0 0 0 0 0
A 28 10 0 0 24 6 21 7 0 0 0 0 0 0 0 0 0 0 0 0
X 1 27
A 29 2 0 0 0 6 606 0 0 0 29 0 0 0 0 0 0 0 0 0
A 30 10 0 0 28 6 21 10 0 0 0 0 0 0 0 0 0 0 0 0
X 1 29
A 31 4 0 0 0 6 30 0 3 0 0 0 0 2 0 0 0 0 0 0
A 32 4 0 0 0 6 28 0 31 0 0 0 0 1 0 0 0 0 0 0
A 33 2 0 0 0 6 607 0 0 0 33 0 0 0 0 0 0 0 0 0
A 34 10 0 0 30 6 21 13 0 0 0 0 0 0 0 0 0 0 0 0
X 1 33
A 35 2 0 0 0 6 608 0 0 0 35 0 0 0 0 0 0 0 0 0
A 36 10 0 0 34 6 21 16 0 0 0 0 0 0 0 0 0 0 0 0
X 1 35
A 37 2 0 0 0 6 609 0 0 0 37 0 0 0 0 0 0 0 0 0
A 38 10 0 0 36 6 21 19 0 0 0 0 0 0 0 0 0 0 0 0
X 1 37
A 39 10 0 0 38 6 21 22 0 0 0 0 0 0 0 0 0 0 0 0
X 1 13
A 43 2 0 0 0 6 614 0 0 0 43 0 0 0 0 0 0 0 0 0
A 44 1 0 3 0 65 615 0 0 0 0 0 0 0 0 0 0 0 0 0
A 45 10 0 0 0 6 44 1 0 0 0 0 0 0 0 0 0 0 0 0
X 1 20
A 46 10 0 0 45 6 44 4 0 0 0 0 0 0 0 0 0 0 0 0
X 1 23
A 47 4 0 0 0 6 46 0 3 0 0 0 0 2 0 0 0 0 0 0
A 48 4 0 0 0 6 45 0 47 0 0 0 0 1 0 0 0 0 0 0
A 49 10 0 0 46 6 44 7 0 0 0 0 0 0 0 0 0 0 0 0
X 1 27
A 50 10 0 0 49 6 44 10 0 0 0 0 0 0 0 0 0 0 0 0
X 1 29
A 51 4 0 0 0 6 50 0 3 0 0 0 0 2 0 0 0 0 0 0
A 52 4 0 0 0 6 49 0 51 0 0 0 0 1 0 0 0 0 0 0
A 53 2 0 0 0 6 619 0 0 0 53 0 0 0 0 0 0 0 0 0
A 54 10 0 0 50 6 44 25 0 0 0 0 0 0 0 0 0 0 0 0
X 1 53
A 55 2 0 0 0 6 620 0 0 0 55 0 0 0 0 0 0 0 0 0
A 56 10 0 0 54 6 44 28 0 0 0 0 0 0 0 0 0 0 0 0
X 1 55
A 57 4 0 0 0 6 56 0 3 0 0 0 0 2 0 0 0 0 0 0
A 58 4 0 0 0 6 54 0 57 0 0 0 0 1 0 0 0 0 0 0
A 59 10 0 0 56 6 44 13 0 0 0 0 0 0 0 0 0 0 0 0
X 1 33
A 60 10 0 0 59 6 44 16 0 0 0 0 0 0 0 0 0 0 0 0
X 1 35
A 61 2 0 0 0 6 621 0 0 0 61 0 0 0 0 0 0 0 0 0
A 62 10 0 0 60 6 44 31 0 0 0 0 0 0 0 0 0 0 0 0
X 1 61
A 63 10 0 0 62 6 44 19 0 0 0 0 0 0 0 0 0 0 0 0
X 1 37
A 64 10 0 0 63 6 44 22 0 0 0 0 0 0 0 0 0 0 0 0
X 1 13
A 67 1 0 1 0 71 625 0 0 0 0 0 0 0 0 0 0 0 0 0
A 68 10 0 0 0 6 67 1 0 0 0 0 0 0 0 0 0 0 0 0
X 1 20
A 69 10 0 0 68 6 67 4 0 0 0 0 0 0 0 0 0 0 0 0
X 1 23
A 70 4 0 0 0 6 69 0 3 0 0 0 0 2 0 0 0 0 0 0
A 71 4 0 0 33 6 68 0 70 0 0 0 0 1 0 0 0 0 0 0
A 72 10 0 0 69 6 67 7 0 0 0 0 0 0 0 0 0 0 0 0
X 1 27
A 73 10 0 0 72 6 67 10 0 0 0 0 0 0 0 0 0 0 0 0
X 1 29
A 74 4 0 0 0 6 73 0 3 0 0 0 0 2 0 0 0 0 0 0
A 75 4 0 0 0 6 72 0 74 0 0 0 0 1 0 0 0 0 0 0
A 76 10 0 0 73 6 67 13 0 0 0 0 0 0 0 0 0 0 0 0
X 1 33
A 77 10 0 0 76 6 67 16 0 0 0 0 0 0 0 0 0 0 0 0
X 1 35
A 78 10 0 0 77 6 67 19 0 0 0 0 0 0 0 0 0 0 0 0
X 1 37
A 79 10 0 0 78 6 67 22 0 0 0 0 0 0 0 0 0 0 0 0
X 1 13
A 82 1 0 1 0 77 632 0 0 0 0 0 0 0 0 0 0 0 0 0
A 83 10 0 0 12 6 82 1 0 0 0 0 0 0 0 0 0 0 0 0
X 1 20
A 84 10 0 0 83 6 82 4 0 0 0 0 0 0 0 0 0 0 0 0
X 1 23
A 85 4 0 0 0 6 84 0 3 0 0 0 0 2 0 0 0 0 0 0
A 86 4 0 0 0 6 83 0 85 0 0 0 0 1 0 0 0 0 0 0
A 87 10 0 0 84 6 82 7 0 0 0 0 0 0 0 0 0 0 0 0
X 1 27
A 88 10 0 0 87 6 82 10 0 0 0 0 0 0 0 0 0 0 0 0
X 1 29
A 89 4 0 0 0 6 88 0 3 0 0 0 0 2 0 0 0 0 0 0
A 90 4 0 0 79 6 87 0 89 0 0 0 0 1 0 0 0 0 0 0
A 91 10 0 0 88 6 82 13 0 0 0 0 0 0 0 0 0 0 0 0
X 1 33
A 92 10 0 0 91 6 82 16 0 0 0 0 0 0 0 0 0 0 0 0
X 1 35
A 93 10 0 0 92 6 82 19 0 0 0 0 0 0 0 0 0 0 0 0
X 1 37
A 94 10 0 0 93 6 82 22 0 0 0 0 0 0 0 0 0 0 0 0
X 1 13
A 97 1 0 1 0 83 639 0 0 0 0 0 0 0 0 0 0 0 0 0
A 98 10 0 0 0 6 97 1 0 0 0 0 0 0 0 0 0 0 0 0
X 1 20
A 99 10 0 0 98 6 97 4 0 0 0 0 0 0 0 0 0 0 0 0
X 1 23
A 100 4 0 0 0 6 99 0 3 0 0 0 0 2 0 0 0 0 0 0
A 101 4 0 0 0 6 98 0 100 0 0 0 0 1 0 0 0 0 0 0
A 102 10 0 0 99 6 97 7 0 0 0 0 0 0 0 0 0 0 0 0
X 1 27
A 103 10 0 0 102 6 97 10 0 0 0 0 0 0 0 0 0 0 0 0
X 1 29
A 104 4 0 0 0 6 103 0 3 0 0 0 0 2 0 0 0 0 0 0
A 105 4 0 0 0 6 102 0 104 0 0 0 0 1 0 0 0 0 0 0
A 106 10 0 0 103 6 97 13 0 0 0 0 0 0 0 0 0 0 0 0
X 1 33
A 107 10 0 0 106 6 97 16 0 0 0 0 0 0 0 0 0 0 0 0
X 1 35
A 108 10 0 0 107 6 97 19 0 0 0 0 0 0 0 0 0 0 0 0
X 1 37
A 109 10 0 0 108 6 97 22 0 0 0 0 0 0 0 0 0 0 0 0
X 1 13
A 111 2 0 0 0 6 645 0 0 0 111 0 0 0 0 0 0 0 0 0
A 112 1 0 5 0 89 646 0 0 0 0 0 0 0 0 0 0 0 0 0
A 113 10 0 0 0 6 112 1 0 0 0 0 0 0 0 0 0 0 0 0
X 1 20
A 114 10 0 0 113 6 112 4 0 0 0 0 0 0 0 0 0 0 0 0
X 1 23
A 115 4 0 0 20 6 114 0 3 0 0 0 0 2 0 0 0 0 0 0
A 116 4 0 0 115 6 113 0 115 0 0 0 0 1 0 0 0 0 0 0
A 117 10 0 0 114 6 112 13 0 0 0 0 0 0 0 0 0 0 0 0
X 1 33
A 118 10 0 0 117 6 112 19 0 0 0 0 0 0 0 0 0 0 0 0
X 1 37
A 119 10 0 0 118 6 112 22 0 0 0 0 0 0 0 0 0 0 0 0
X 1 13
A 121 1 0 5 0 95 652 0 0 0 0 0 0 0 0 0 0 0 0 0
A 122 10 0 0 0 6 121 1 0 0 0 0 0 0 0 0 0 0 0 0
X 1 20
A 123 10 0 0 122 6 121 4 0 0 0 0 0 0 0 0 0 0 0 0
X 1 23
A 124 4 0 0 0 6 123 0 3 0 0 0 0 2 0 0 0 0 0 0
A 125 4 0 0 0 6 122 0 124 0 0 0 0 1 0 0 0 0 0 0
A 126 10 0 0 123 6 121 13 0 0 0 0 0 0 0 0 0 0 0 0
X 1 33
A 127 10 0 0 126 6 121 19 0 0 0 0 0 0 0 0 0 0 0 0
X 1 37
A 128 10 0 0 127 6 121 22 0 0 0 0 0 0 0 0 0 0 0 0
X 1 13
A 131 1 0 1 0 101 669 0 0 0 0 0 0 0 0 0 0 0 0 0
A 132 10 0 0 0 6 131 1 0 0 0 0 0 0 0 0 0 0 0 0
X 1 20
A 133 10 0 0 132 6 131 4 0 0 0 0 0 0 0 0 0 0 0 0
X 1 23
A 134 4 0 0 0 6 133 0 3 0 0 0 0 2 0 0 0 0 0 0
A 135 4 0 0 0 6 132 0 134 0 0 0 0 1 0 0 0 0 0 0
A 136 10 0 0 133 6 131 7 0 0 0 0 0 0 0 0 0 0 0 0
X 1 27
A 137 10 0 0 136 6 131 10 0 0 0 0 0 0 0 0 0 0 0 0
X 1 29
A 138 4 0 0 0 6 137 0 3 0 0 0 0 2 0 0 0 0 0 0
A 139 4 0 0 0 6 136 0 138 0 0 0 0 1 0 0 0 0 0 0
A 140 10 0 0 137 6 131 13 0 0 0 0 0 0 0 0 0 0 0 0
X 1 33
A 141 10 0 0 140 6 131 16 0 0 0 0 0 0 0 0 0 0 0 0
X 1 35
A 142 10 0 0 141 6 131 19 0 0 0 0 0 0 0 0 0 0 0 0
X 1 37
A 143 10 0 0 142 6 131 22 0 0 0 0 0 0 0 0 0 0 0 0
X 1 13
A 144 2 0 0 0 6 677 0 0 0 144 0 0 0 0 0 0 0 0 0
A 147 1 0 1 0 109 689 0 0 0 0 0 0 0 0 0 0 0 0 0
A 148 10 0 0 0 6 147 1 0 0 0 0 0 0 0 0 0 0 0 0
X 1 20
A 149 10 0 0 148 6 147 4 0 0 0 0 0 0 0 0 0 0 0 0
X 1 23
A 150 4 0 0 0 6 149 0 3 0 0 0 0 2 0 0 0 0 0 0
A 151 4 0 0 0 6 148 0 150 0 0 0 0 1 0 0 0 0 0 0
A 152 10 0 0 149 6 147 7 0 0 0 0 0 0 0 0 0 0 0 0
X 1 27
A 153 10 0 0 152 6 147 10 0 0 0 0 0 0 0 0 0 0 0 0
X 1 29
A 154 4 0 0 0 6 153 0 3 0 0 0 0 2 0 0 0 0 0 0
A 155 4 0 0 0 6 152 0 154 0 0 0 0 1 0 0 0 0 0 0
A 156 10 0 0 153 6 147 13 0 0 0 0 0 0 0 0 0 0 0 0
X 1 33
A 157 10 0 0 156 6 147 16 0 0 0 0 0 0 0 0 0 0 0 0
X 1 35
A 158 10 0 0 157 6 147 19 0 0 0 0 0 0 0 0 0 0 0 0
X 1 37
A 159 10 0 0 158 6 147 22 0 0 0 0 0 0 0 0 0 0 0 0
X 1 13
A 161 1 0 5 0 115 695 0 0 0 0 0 0 0 0 0 0 0 0 0
A 162 10 0 0 0 6 161 1 0 0 0 0 0 0 0 0 0 0 0 0
X 1 20
A 163 10 0 0 162 6 161 4 0 0 0 0 0 0 0 0 0 0 0 0
X 1 23
A 164 4 0 0 0 6 163 0 3 0 0 0 0 2 0 0 0 0 0 0
A 165 4 0 0 61 6 162 0 164 0 0 0 0 1 0 0 0 0 0 0
A 166 10 0 0 163 6 161 13 0 0 0 0 0 0 0 0 0 0 0 0
X 1 33
A 167 10 0 0 166 6 161 19 0 0 0 0 0 0 0 0 0 0 0 0
X 1 37
A 168 10 0 0 167 6 161 22 0 0 0 0 0 0 0 0 0 0 0 0
X 1 13
A 170 1 0 5 0 121 701 0 0 0 0 0 0 0 0 0 0 0 0 0
A 171 10 0 0 0 6 170 1 0 0 0 0 0 0 0 0 0 0 0 0
X 1 20
A 172 10 0 0 171 6 170 4 0 0 0 0 0 0 0 0 0 0 0 0
X 1 23
A 173 4 0 0 0 6 172 0 3 0 0 0 0 2 0 0 0 0 0 0
A 174 4 0 0 0 6 171 0 173 0 0 0 0 1 0 0 0 0 0 0
A 175 10 0 0 172 6 170 13 0 0 0 0 0 0 0 0 0 0 0 0
X 1 33
A 176 10 0 0 175 6 170 19 0 0 0 0 0 0 0 0 0 0 0 0
X 1 37
A 177 10 0 0 176 6 170 22 0 0 0 0 0 0 0 0 0 0 0 0
X 1 13
A 179 1 0 5 164 127 707 0 0 0 0 0 0 0 0 0 0 0 0 0
A 180 10 0 0 11 6 179 1 0 0 0 0 0 0 0 0 0 0 0 0
X 1 20
A 181 10 0 0 180 6 179 4 0 0 0 0 0 0 0 0 0 0 0 0
X 1 23
A 182 4 0 0 0 6 181 0 3 0 0 0 0 2 0 0 0 0 0 0
A 183 4 0 0 0 6 180 0 182 0 0 0 0 1 0 0 0 0 0 0
A 184 10 0 0 181 6 179 13 0 0 0 0 0 0 0 0 0 0 0 0
X 1 33
A 185 10 0 0 184 6 179 19 0 0 0 0 0 0 0 0 0 0 0 0
X 1 37
A 186 10 0 0 185 6 179 22 0 0 0 0 0 0 0 0 0 0 0 0
X 1 13
A 189 1 0 1 0 133 714 0 0 0 0 0 0 0 0 0 0 0 0 0
A 190 10 0 0 160 6 189 1 0 0 0 0 0 0 0 0 0 0 0 0
X 1 20
A 191 10 0 0 190 6 189 4 0 0 0 0 0 0 0 0 0 0 0 0
X 1 23
A 192 4 0 0 0 6 191 0 3 0 0 0 0 2 0 0 0 0 0 0
A 193 4 0 0 0 6 190 0 192 0 0 0 0 1 0 0 0 0 0 0
A 194 10 0 0 191 6 189 7 0 0 0 0 0 0 0 0 0 0 0 0
X 1 27
A 195 10 0 0 194 6 189 10 0 0 0 0 0 0 0 0 0 0 0 0
X 1 29
A 196 4 0 0 0 6 195 0 3 0 0 0 0 2 0 0 0 0 0 0
A 197 4 0 0 0 6 194 0 196 0 0 0 0 1 0 0 0 0 0 0
A 198 10 0 0 195 6 189 13 0 0 0 0 0 0 0 0 0 0 0 0
X 1 33
A 199 10 0 0 198 6 189 16 0 0 0 0 0 0 0 0 0 0 0 0
X 1 35
A 200 10 0 0 199 6 189 19 0 0 0 0 0 0 0 0 0 0 0 0
X 1 37
A 201 10 0 0 200 6 189 22 0 0 0 0 0 0 0 0 0 0 0 0
X 1 13
A 204 1 0 1 40 139 721 0 0 0 0 0 0 0 0 0 0 0 0 0
A 205 10 0 0 0 6 204 1 0 0 0 0 0 0 0 0 0 0 0 0
X 1 20
A 206 10 0 0 205 6 204 4 0 0 0 0 0 0 0 0 0 0 0 0
X 1 23
A 207 4 0 0 0 6 206 0 3 0 0 0 0 2 0 0 0 0 0 0
A 208 4 0 0 29 6 205 0 207 0 0 0 0 1 0 0 0 0 0 0
A 209 10 0 0 206 6 204 7 0 0 0 0 0 0 0 0 0 0 0 0
X 1 27
A 210 10 0 0 209 6 204 10 0 0 0 0 0 0 0 0 0 0 0 0
X 1 29
A 211 4 0 0 0 6 210 0 3 0 0 0 0 2 0 0 0 0 0 0
A 212 4 0 0 0 6 209 0 211 0 0 0 0 1 0 0 0 0 0 0
A 213 10 0 0 210 6 204 13 0 0 0 0 0 0 0 0 0 0 0 0
X 1 33
A 214 10 0 0 213 6 204 16 0 0 0 0 0 0 0 0 0 0 0 0
X 1 35
A 215 10 0 0 214 6 204 19 0 0 0 0 0 0 0 0 0 0 0 0
X 1 37
A 216 10 0 0 215 6 204 22 0 0 0 0 0 0 0 0 0 0 0 0
X 1 13
A 218 1 0 5 0 145 727 0 0 0 0 0 0 0 0 0 0 0 0 0
A 219 10 0 0 0 6 218 1 0 0 0 0 0 0 0 0 0 0 0 0
X 1 20
A 220 10 0 0 219 6 218 4 0 0 0 0 0 0 0 0 0 0 0 0
X 1 23
A 221 4 0 0 0 6 220 0 3 0 0 0 0 2 0 0 0 0 0 0
A 222 4 0 0 0 6 219 0 221 0 0 0 0 1 0 0 0 0 0 0
A 223 10 0 0 220 6 218 13 0 0 0 0 0 0 0 0 0 0 0 0
X 1 33
A 224 10 0 0 223 6 218 19 0 0 0 0 0 0 0 0 0 0 0 0
X 1 37
A 225 10 0 0 224 6 218 22 0 0 0 0 0 0 0 0 0 0 0 0
X 1 13
A 228 1 0 1 0 151 734 0 0 0 0 0 0 0 0 0 0 0 0 0
A 229 10 0 0 227 6 228 1 0 0 0 0 0 0 0 0 0 0 0 0
X 1 20
A 230 10 0 0 229 6 228 4 0 0 0 0 0 0 0 0 0 0 0 0
X 1 23
A 231 4 0 0 0 6 230 0 3 0 0 0 0 2 0 0 0 0 0 0
A 232 4 0 0 0 6 229 0 231 0 0 0 0 1 0 0 0 0 0 0
A 233 10 0 0 230 6 228 7 0 0 0 0 0 0 0 0 0 0 0 0
X 1 27
A 234 10 0 0 233 6 228 10 0 0 0 0 0 0 0 0 0 0 0 0
X 1 29
A 235 4 0 0 0 6 234 0 3 0 0 0 0 2 0 0 0 0 0 0
A 236 4 0 0 0 6 233 0 235 0 0 0 0 1 0 0 0 0 0 0
A 237 10 0 0 234 6 228 13 0 0 0 0 0 0 0 0 0 0 0 0
X 1 33
A 238 10 0 0 237 6 228 16 0 0 0 0 0 0 0 0 0 0 0 0
X 1 35
A 239 10 0 0 238 6 228 19 0 0 0 0 0 0 0 0 0 0 0 0
X 1 37
A 240 10 0 0 239 6 228 22 0 0 0 0 0 0 0 0 0 0 0 0
X 1 13
A 241 2 0 0 232 6 738 0 0 0 241 0 0 0 0 0 0 0 0 0
A 242 2 0 0 0 156 740 0 0 0 242 0 0 0 0 0 0 0 0 0
A 243 1 0 0 0 154 739 0 0 0 0 0 0 0 0 0 0 0 0 0
A 244 2 0 0 242 6 742 0 0 0 244 0 0 0 0 0 0 0 0 0
A 245 2 0 0 0 6 744 0 0 0 245 0 0 0 0 0 0 0 0 0
A 248 1 0 1 0 170 749 0 0 0 0 0 0 0 0 0 0 0 0 0
A 249 10 0 0 0 6 248 1 0 0 0 0 0 0 0 0 0 0 0 0
X 1 20
A 250 10 0 0 249 6 248 4 0 0 0 0 0 0 0 0 0 0 0 0
X 1 23
A 251 4 0 0 0 6 250 0 3 0 0 0 0 2 0 0 0 0 0 0
A 252 4 0 0 0 6 249 0 251 0 0 0 0 1 0 0 0 0 0 0
A 253 10 0 0 250 6 248 7 0 0 0 0 0 0 0 0 0 0 0 0
X 1 27
A 254 10 0 0 253 6 248 10 0 0 0 0 0 0 0 0 0 0 0 0
X 1 29
A 255 4 0 0 0 6 254 0 3 0 0 0 0 2 0 0 0 0 0 0
A 256 4 0 0 112 6 253 0 255 0 0 0 0 1 0 0 0 0 0 0
A 257 10 0 0 254 6 248 13 0 0 0 0 0 0 0 0 0 0 0 0
X 1 33
A 258 10 0 0 257 6 248 16 0 0 0 0 0 0 0 0 0 0 0 0
X 1 35
A 259 10 0 0 258 6 248 19 0 0 0 0 0 0 0 0 0 0 0 0
X 1 37
A 260 10 0 0 259 6 248 22 0 0 0 0 0 0 0 0 0 0 0 0
X 1 13
A 263 1 0 1 170 176 756 0 0 0 0 0 0 0 0 0 0 0 0 0
A 264 10 0 0 0 6 263 1 0 0 0 0 0 0 0 0 0 0 0 0
X 1 20
A 265 10 0 0 264 6 263 4 0 0 0 0 0 0 0 0 0 0 0 0
X 1 23
A 266 4 0 0 0 6 265 0 3 0 0 0 0 2 0 0 0 0 0 0
A 267 4 0 0 0 6 264 0 266 0 0 0 0 1 0 0 0 0 0 0
A 268 10 0 0 265 6 263 7 0 0 0 0 0 0 0 0 0 0 0 0
X 1 27
A 269 10 0 0 268 6 263 10 0 0 0 0 0 0 0 0 0 0 0 0
X 1 29
A 270 4 0 0 0 6 269 0 3 0 0 0 0 2 0 0 0 0 0 0
A 271 4 0 0 0 6 268 0 270 0 0 0 0 1 0 0 0 0 0 0
A 272 10 0 0 269 6 263 13 0 0 0 0 0 0 0 0 0 0 0 0
X 1 33
A 273 10 0 0 272 6 263 16 0 0 0 0 0 0 0 0 0 0 0 0
X 1 35
A 274 10 0 0 273 6 263 19 0 0 0 0 0 0 0 0 0 0 0 0
X 1 37
A 275 10 0 0 274 6 263 22 0 0 0 0 0 0 0 0 0 0 0 0
X 1 13
A 277 1 0 5 0 184 763 0 0 0 0 0 0 0 0 0 0 0 0 0
A 278 10 0 0 182 6 277 1 0 0 0 0 0 0 0 0 0 0 0 0
X 1 20
A 279 10 0 0 278 6 277 4 0 0 0 0 0 0 0 0 0 0 0 0
X 1 23
A 280 4 0 0 0 6 279 0 3 0 0 0 0 2 0 0 0 0 0 0
A 281 4 0 0 0 6 278 0 280 0 0 0 0 1 0 0 0 0 0 0
A 282 10 0 0 279 6 277 13 0 0 0 0 0 0 0 0 0 0 0 0
X 1 33
A 283 10 0 0 282 6 277 19 0 0 0 0 0 0 0 0 0 0 0 0
X 1 37
A 284 10 0 0 283 6 277 22 0 0 0 0 0 0 0 0 0 0 0 0
X 1 13
A 285 2 0 0 0 6 768 0 0 0 285 0 0 0 0 0 0 0 0 0
A 286 1 0 0 0 6 767 0 0 0 0 0 0 0 0 0 0 0 0 0
A 291 2 0 0 0 6 774 0 0 0 291 0 0 0 0 0 0 0 0 0
A 292 1 0 7 0 190 775 0 0 0 0 0 0 0 0 0 0 0 0 0
A 293 10 0 0 0 6 292 1 0 0 0 0 0 0 0 0 0 0 0 0
X 1 20
A 294 10 0 0 293 6 292 4 0 0 0 0 0 0 0 0 0 0 0 0
X 1 23
A 295 4 0 0 291 6 294 0 3 0 0 0 0 2 0 0 0 0 0 0
A 296 4 0 0 0 6 293 0 295 0 0 0 0 1 0 0 0 0 0 0
A 297 10 0 0 294 6 292 7 0 0 0 0 0 0 0 0 0 0 0 0
X 1 27
A 298 10 0 0 297 6 292 10 0 0 0 0 0 0 0 0 0 0 0 0
X 1 29
A 299 4 0 0 0 6 298 0 3 0 0 0 0 2 0 0 0 0 0 0
A 300 4 0 0 187 6 297 0 299 0 0 0 0 1 0 0 0 0 0 0
A 301 10 0 0 298 6 292 25 0 0 0 0 0 0 0 0 0 0 0 0
X 1 53
A 302 10 0 0 301 6 292 28 0 0 0 0 0 0 0 0 0 0 0 0
X 1 55
A 303 4 0 0 0 6 302 0 3 0 0 0 0 2 0 0 0 0 0 0
A 304 4 0 0 134 6 301 0 303 0 0 0 0 1 0 0 0 0 0 0
A 305 2 0 0 0 6 779 0 0 0 305 0 0 0 0 0 0 0 0 0
A 306 10 0 0 302 6 292 34 0 0 0 0 0 0 0 0 0 0 0 0
X 1 305
A 307 2 0 0 0 6 780 0 0 0 307 0 0 0 0 0 0 0 0 0
A 308 10 0 0 306 6 292 37 0 0 0 0 0 0 0 0 0 0 0 0
X 1 307
A 309 4 0 0 0 6 308 0 3 0 0 0 0 2 0 0 0 0 0 0
A 310 4 0 0 0 6 306 0 309 0 0 0 0 1 0 0 0 0 0 0
A 311 10 0 0 308 6 292 13 0 0 0 0 0 0 0 0 0 0 0 0
X 1 33
A 312 10 0 0 311 6 292 16 0 0 0 0 0 0 0 0 0 0 0 0
X 1 35
A 313 10 0 0 312 6 292 31 0 0 0 0 0 0 0 0 0 0 0 0
X 1 61
A 314 2 0 0 0 6 781 0 0 0 314 0 0 0 0 0 0 0 0 0
A 315 10 0 0 313 6 292 40 0 0 0 0 0 0 0 0 0 0 0 0
X 1 314
A 316 10 0 0 315 6 292 19 0 0 0 0 0 0 0 0 0 0 0 0
X 1 37
A 317 10 0 0 316 6 292 22 0 0 0 0 0 0 0 0 0 0 0 0
X 1 13
A 321 1 0 3 0 196 786 0 0 0 0 0 0 0 0 0 0 0 0 0
A 322 10 0 0 0 6 321 1 0 0 0 0 0 0 0 0 0 0 0 0
X 1 20
A 323 10 0 0 322 6 321 4 0 0 0 0 0 0 0 0 0 0 0 0
X 1 23
A 324 4 0 0 0 6 323 0 3 0 0 0 0 2 0 0 0 0 0 0
A 325 4 0 0 0 6 322 0 324 0 0 0 0 1 0 0 0 0 0 0
A 326 10 0 0 323 6 321 7 0 0 0 0 0 0 0 0 0 0 0 0
X 1 27
A 327 10 0 0 326 6 321 10 0 0 0 0 0 0 0 0 0 0 0 0
X 1 29
A 328 4 0 0 0 6 327 0 3 0 0 0 0 2 0 0 0 0 0 0
A 329 4 0 0 0 6 326 0 328 0 0 0 0 1 0 0 0 0 0 0
A 330 10 0 0 327 6 321 25 0 0 0 0 0 0 0 0 0 0 0 0
X 1 53
A 331 10 0 0 330 6 321 28 0 0 0 0 0 0 0 0 0 0 0 0
X 1 55
A 332 4 0 0 0 6 331 0 3 0 0 0 0 2 0 0 0 0 0 0
A 333 4 0 0 120 6 330 0 332 0 0 0 0 1 0 0 0 0 0 0
A 334 10 0 0 331 6 321 13 0 0 0 0 0 0 0 0 0 0 0 0
X 1 33
A 335 10 0 0 334 6 321 16 0 0 0 0 0 0 0 0 0 0 0 0
X 1 35
A 336 10 0 0 335 6 321 31 0 0 0 0 0 0 0 0 0 0 0 0
X 1 61
A 337 10 0 0 336 6 321 19 0 0 0 0 0 0 0 0 0 0 0 0
X 1 37
A 338 10 0 0 337 6 321 22 0 0 0 0 0 0 0 0 0 0 0 0
X 1 13
A 342 1 0 3 329 202 794 0 0 0 0 0 0 0 0 0 0 0 0 0
A 343 10 0 0 9 6 342 1 0 0 0 0 0 0 0 0 0 0 0 0
X 1 20
A 344 10 0 0 343 6 342 4 0 0 0 0 0 0 0 0 0 0 0 0
X 1 23
A 345 4 0 0 0 6 344 0 3 0 0 0 0 2 0 0 0 0 0 0
A 346 4 0 0 0 6 343 0 345 0 0 0 0 1 0 0 0 0 0 0
A 347 10 0 0 344 6 342 7 0 0 0 0 0 0 0 0 0 0 0 0
X 1 27
A 348 10 0 0 347 6 342 10 0 0 0 0 0 0 0 0 0 0 0 0
X 1 29
A 349 4 0 0 0 6 348 0 3 0 0 0 0 2 0 0 0 0 0 0
A 350 4 0 0 0 6 347 0 349 0 0 0 0 1 0 0 0 0 0 0
A 351 10 0 0 348 6 342 25 0 0 0 0 0 0 0 0 0 0 0 0
X 1 53
A 352 10 0 0 351 6 342 28 0 0 0 0 0 0 0 0 0 0 0 0
X 1 55
A 353 4 0 0 0 6 352 0 3 0 0 0 0 2 0 0 0 0 0 0
A 354 4 0 0 0 6 351 0 353 0 0 0 0 1 0 0 0 0 0 0
A 355 10 0 0 352 6 342 13 0 0 0 0 0 0 0 0 0 0 0 0
X 1 33
A 356 10 0 0 355 6 342 16 0 0 0 0 0 0 0 0 0 0 0 0
X 1 35
A 357 10 0 0 356 6 342 31 0 0 0 0 0 0 0 0 0 0 0 0
X 1 61
A 358 10 0 0 357 6 342 19 0 0 0 0 0 0 0 0 0 0 0 0
X 1 37
A 359 10 0 0 358 6 342 22 0 0 0 0 0 0 0 0 0 0 0 0
X 1 13
A 363 1 0 3 0 208 802 0 0 0 0 0 0 0 0 0 0 0 0 0
A 364 10 0 0 281 6 363 1 0 0 0 0 0 0 0 0 0 0 0 0
X 1 20
A 365 10 0 0 364 6 363 4 0 0 0 0 0 0 0 0 0 0 0 0
X 1 23
A 366 4 0 0 7 6 365 0 3 0 0 0 0 2 0 0 0 0 0 0
A 367 4 0 0 131 6 364 0 366 0 0 0 0 1 0 0 0 0 0 0
A 368 10 0 0 365 6 363 7 0 0 0 0 0 0 0 0 0 0 0 0
X 1 27
A 369 10 0 0 368 6 363 10 0 0 0 0 0 0 0 0 0 0 0 0
X 1 29
A 370 4 0 0 0 6 369 0 3 0 0 0 0 2 0 0 0 0 0 0
A 371 4 0 0 0 6 368 0 370 0 0 0 0 1 0 0 0 0 0 0
A 372 10 0 0 369 6 363 25 0 0 0 0 0 0 0 0 0 0 0 0
X 1 53
A 373 10 0 0 372 6 363 28 0 0 0 0 0 0 0 0 0 0 0 0
X 1 55
A 374 4 0 0 346 6 373 0 3 0 0 0 0 2 0 0 0 0 0 0
A 375 4 0 0 0 6 372 0 374 0 0 0 0 1 0 0 0 0 0 0
A 376 10 0 0 373 6 363 13 0 0 0 0 0 0 0 0 0 0 0 0
X 1 33
A 377 10 0 0 376 6 363 16 0 0 0 0 0 0 0 0 0 0 0 0
X 1 35
A 378 10 0 0 377 6 363 31 0 0 0 0 0 0 0 0 0 0 0 0
X 1 61
A 379 10 0 0 378 6 363 19 0 0 0 0 0 0 0 0 0 0 0 0
X 1 37
A 380 10 0 0 379 6 363 22 0 0 0 0 0 0 0 0 0 0 0 0
X 1 13
A 383 1 0 1 0 214 809 0 0 0 0 0 0 0 0 0 0 0 0 0
A 384 10 0 0 0 6 383 1 0 0 0 0 0 0 0 0 0 0 0 0
X 1 20
A 385 10 0 0 384 6 383 4 0 0 0 0 0 0 0 0 0 0 0 0
X 1 23
A 386 4 0 0 0 6 385 0 3 0 0 0 0 2 0 0 0 0 0 0
A 387 4 0 0 0 6 384 0 386 0 0 0 0 1 0 0 0 0 0 0
A 388 10 0 0 385 6 383 7 0 0 0 0 0 0 0 0 0 0 0 0
X 1 27
A 389 10 0 0 388 6 383 10 0 0 0 0 0 0 0 0 0 0 0 0
X 1 29
A 390 4 0 0 0 6 389 0 3 0 0 0 0 2 0 0 0 0 0 0
A 391 4 0 0 0 6 388 0 390 0 0 0 0 1 0 0 0 0 0 0
A 392 10 0 0 389 6 383 13 0 0 0 0 0 0 0 0 0 0 0 0
X 1 33
A 393 10 0 0 392 6 383 16 0 0 0 0 0 0 0 0 0 0 0 0
X 1 35
A 394 10 0 0 393 6 383 19 0 0 0 0 0 0 0 0 0 0 0 0
X 1 37
A 395 10 0 0 394 6 383 22 0 0 0 0 0 0 0 0 0 0 0 0
X 1 13
A 398 1 0 1 0 220 816 0 0 0 0 0 0 0 0 0 0 0 0 0
A 399 10 0 0 0 6 398 1 0 0 0 0 0 0 0 0 0 0 0 0
X 1 20
A 400 10 0 0 399 6 398 4 0 0 0 0 0 0 0 0 0 0 0 0
X 1 23
A 401 4 0 0 0 6 400 0 3 0 0 0 0 2 0 0 0 0 0 0
A 402 4 0 0 287 6 399 0 401 0 0 0 0 1 0 0 0 0 0 0
A 403 10 0 0 400 6 398 7 0 0 0 0 0 0 0 0 0 0 0 0
X 1 27
A 404 10 0 0 403 6 398 10 0 0 0 0 0 0 0 0 0 0 0 0
X 1 29
A 405 4 0 0 0 6 404 0 3 0 0 0 0 2 0 0 0 0 0 0
A 406 4 0 0 340 6 403 0 405 0 0 0 0 1 0 0 0 0 0 0
A 407 10 0 0 404 6 398 13 0 0 0 0 0 0 0 0 0 0 0 0
X 1 33
A 408 10 0 0 407 6 398 16 0 0 0 0 0 0 0 0 0 0 0 0
X 1 35
A 409 10 0 0 408 6 398 19 0 0 0 0 0 0 0 0 0 0 0 0
X 1 37
A 410 10 0 0 409 6 398 22 0 0 0 0 0 0 0 0 0 0 0 0
X 1 13
A 412 1 0 5 0 226 822 0 0 0 0 0 0 0 0 0 0 0 0 0
A 413 10 0 0 0 6 412 1 0 0 0 0 0 0 0 0 0 0 0 0
X 1 20
A 414 10 0 0 413 6 412 4 0 0 0 0 0 0 0 0 0 0 0 0
X 1 23
A 415 4 0 0 0 6 414 0 3 0 0 0 0 2 0 0 0 0 0 0
A 416 4 0 0 359 6 413 0 415 0 0 0 0 1 0 0 0 0 0 0
A 417 10 0 0 414 6 412 13 0 0 0 0 0 0 0 0 0 0 0 0
X 1 33
A 418 10 0 0 417 6 412 19 0 0 0 0 0 0 0 0 0 0 0 0
X 1 37
A 419 10 0 0 418 6 412 22 0 0 0 0 0 0 0 0 0 0 0 0
X 1 13
A 422 1 0 1 0 235 830 0 0 0 0 0 0 0 0 0 0 0 0 0
A 423 10 0 0 0 6 422 1 0 0 0 0 0 0 0 0 0 0 0 0
X 1 20
A 424 10 0 0 423 6 422 4 0 0 0 0 0 0 0 0 0 0 0 0
X 1 23
A 425 4 0 0 125 6 424 0 3 0 0 0 0 2 0 0 0 0 0 0
A 426 4 0 0 0 6 423 0 425 0 0 0 0 1 0 0 0 0 0 0
A 427 10 0 0 424 6 422 7 0 0 0 0 0 0 0 0 0 0 0 0
X 1 27
A 428 10 0 0 427 6 422 10 0 0 0 0 0 0 0 0 0 0 0 0
X 1 29
A 429 4 0 0 243 6 428 0 3 0 0 0 0 2 0 0 0 0 0 0
A 430 4 0 0 0 6 427 0 429 0 0 0 0 1 0 0 0 0 0 0
A 431 10 0 0 428 6 422 13 0 0 0 0 0 0 0 0 0 0 0 0
X 1 33
A 432 10 0 0 431 6 422 16 0 0 0 0 0 0 0 0 0 0 0 0
X 1 35
A 433 10 0 0 432 6 422 19 0 0 0 0 0 0 0 0 0 0 0 0
X 1 37
A 434 10 0 0 433 6 422 22 0 0 0 0 0 0 0 0 0 0 0 0
X 1 13
Z
Z
