V26 wavefunctions_module
17 wavefunctions.F90 S582 0
04/24/2012  15:51:02
use kinds private
use kinds private
enduse
D 56 21 12 2 39 38 0 1 0 0 1
 22 26 34 22 26 24
 28 32 36 28 32 30
D 59 21 6 1 0 19 0 0 0 0 0
 0 19 0 3 19 0
D 62 21 12 1 49 48 0 1 0 0 1
 43 46 47 43 46 44
D 65 21 6 1 0 41 0 0 0 0 0
 0 41 0 3 41 0
D 68 21 12 2 64 63 0 1 0 0 1
 53 56 61 53 56 54
 57 60 62 57 60 58
D 71 21 6 1 0 19 0 0 0 0 0
 0 19 0 3 19 0
D 74 21 12 2 79 78 0 1 0 0 1
 68 71 76 68 71 69
 72 75 77 72 75 73
D 77 21 6 1 0 19 0 0 0 0 0
 0 19 0 3 19 0
D 80 21 12 2 94 93 0 1 0 0 1
 83 86 91 83 86 84
 87 90 92 87 90 88
D 83 21 6 1 0 19 0 0 0 0 0
 0 19 0 3 19 0
D 86 21 12 2 109 108 0 1 0 0 1
 98 101 106 98 101 99
 102 105 107 102 105 103
D 89 21 6 1 0 19 0 0 0 0 0
 0 19 0 3 19 0
S 582 24 0 0 0 9 1 0 4658 10005 0 A 0 0 0 0 0 0 0 0 0 0 0 0 0 0 0 0 0 0 0 0 0 12 0 0 0 0 0 0 wavefunctions_module
S 584 23 0 0 0 9 587 582 4685 4 0 A 0 0 0 0 0 0 0 0 0 0 0 0 0 0 0 0 0 0 0 0 0 0 0 582 0 0 0 0 dp
S 585 3 0 0 0 6 1 1 0 0 0 A 0 0 0 0 0 0 0 0 0 8 0 0 0 0 0 0 0 0 0 0 0 0 0 0 0 0 0 0 6
R 587 16 1 kinds dp
S 594 7 6 0 0 56 1 582 4719 10a00004 59 A 0 0 0 0 0 0 599 0 0 0 601 0 0 0 0 0 0 0 0 598 0 0 600 582 0 0 0 0 evc
S 595 6 4 0 0 6 596 582 4723 40800006 0 A 0 0 0 0 0 0 0 0 0 0 0 0 644 0 0 0 0 0 0 0 0 0 0 582 0 0 0 0 z_b_0
S 596 6 4 0 0 6 610 582 4729 40800006 0 A 0 0 0 0 0 4 0 0 0 0 0 0 644 0 0 0 0 0 0 0 0 0 0 582 0 0 0 0 z_b_1
S 597 3 0 0 0 6 0 1 0 0 0 A 0 0 0 0 0 0 0 0 0 24 0 0 0 0 0 0 0 0 0 0 0 0 0 0 0 0 0 0 6
S 598 8 4 0 0 59 613 582 4735 40822064 1020 A 0 0 0 0 0 0 0 0 0 0 0 0 644 0 0 0 0 0 0 0 0 0 0 582 0 0 0 0 evc$sd
S 599 6 4 0 0 7 600 582 4742 40802061 1020 A 0 0 0 0 0 96 0 0 0 0 0 0 644 0 0 0 0 0 0 0 0 0 0 582 0 0 0 0 evc$p
S 600 6 4 0 0 7 598 582 4748 40802060 1020 A 0 0 0 0 0 104 0 0 0 0 0 0 644 0 0 0 0 0 0 0 0 0 0 582 0 0 0 0 evc$o
S 601 22 1 0 0 9 1 582 4754 40000000 1000 A 0 0 0 0 0 0 0 594 0 0 0 0 598 0 0 0 0 0 0 0 0 0 0 582 0 0 0 0 evc$arrdsc
S 602 3 0 0 0 6 0 1 0 0 0 A 0 0 0 0 0 0 0 0 0 13 0 0 0 0 0 0 0 0 0 0 0 0 0 0 0 0 0 0 6
S 603 3 0 0 0 6 0 1 0 0 0 A 0 0 0 0 0 0 0 0 0 14 0 0 0 0 0 0 0 0 0 0 0 0 0 0 0 0 0 0 6
S 604 3 0 0 0 6 0 1 0 0 0 A 0 0 0 0 0 0 0 0 0 19 0 0 0 0 0 0 0 0 0 0 0 0 0 0 0 0 0 0 6
S 605 3 0 0 0 6 0 1 0 0 0 A 0 0 0 0 0 0 0 0 0 20 0 0 0 0 0 0 0 0 0 0 0 0 0 0 0 0 0 0 6
S 606 3 0 0 0 6 0 1 0 0 0 A 0 0 0 0 0 0 0 0 0 17 0 0 0 0 0 0 0 0 0 0 0 0 0 0 0 0 0 0 6
S 607 3 0 0 0 6 0 1 0 0 0 A 0 0 0 0 0 0 0 0 0 23 0 0 0 0 0 0 0 0 0 0 0 0 0 0 0 0 0 0 6
S 608 3 0 0 0 6 0 1 0 0 0 A 0 0 0 0 0 0 0 0 0 7 0 0 0 0 0 0 0 0 0 0 0 0 0 0 0 0 0 0 6
S 609 7 6 0 0 62 1 582 4765 10a00004 59 A 0 0 0 0 0 0 613 0 0 0 615 0 0 0 0 0 0 0 0 612 0 0 614 582 0 0 0 0 psic
S 610 6 4 0 0 6 617 582 4770 40800006 0 A 0 0 0 0 0 8 0 0 0 0 0 0 644 0 0 0 0 0 0 0 0 0 0 582 0 0 0 0 z_b_2
S 611 3 0 0 0 6 0 1 0 0 0 A 0 0 0 0 0 0 0 0 0 18 0 0 0 0 0 0 0 0 0 0 0 0 0 0 0 0 0 0 6
S 612 8 4 0 0 65 620 582 4776 40822064 1020 A 0 0 0 0 0 112 0 0 0 0 0 0 644 0 0 0 0 0 0 0 0 0 0 582 0 0 0 0 psic$sd
S 613 6 4 0 0 7 614 582 4784 40802061 1020 A 0 0 0 0 0 184 0 0 0 0 0 0 644 0 0 0 0 0 0 0 0 0 0 582 0 0 0 0 psic$p
S 614 6 4 0 0 7 612 582 4791 40802060 1020 A 0 0 0 0 0 192 0 0 0 0 0 0 644 0 0 0 0 0 0 0 0 0 0 582 0 0 0 0 psic$o
S 615 22 1 0 0 9 1 582 4798 40000000 1000 A 0 0 0 0 0 0 0 609 0 0 0 0 612 0 0 0 0 0 0 0 0 0 0 582 0 0 0 0 psic$arrdsc
S 616 7 6 0 0 68 1 582 4810 10a00004 59 A 0 0 0 0 0 0 620 0 0 0 622 0 0 0 0 0 0 0 0 619 0 0 621 582 0 0 0 0 psic_nc
S 617 6 4 0 0 6 618 582 4818 40800006 0 A 0 0 0 0 0 12 0 0 0 0 0 0 644 0 0 0 0 0 0 0 0 0 0 582 0 0 0 0 z_b_3
S 618 6 4 0 0 6 624 582 4824 40800006 0 A 0 0 0 0 0 16 0 0 0 0 0 0 644 0 0 0 0 0 0 0 0 0 0 582 0 0 0 0 z_b_4
S 619 8 4 0 0 71 627 582 4830 40822064 1020 A 0 0 0 0 0 200 0 0 0 0 0 0 644 0 0 0 0 0 0 0 0 0 0 582 0 0 0 0 psic_nc$sd
S 620 6 4 0 0 7 621 582 4841 40802061 1020 A 0 0 0 0 0 296 0 0 0 0 0 0 644 0 0 0 0 0 0 0 0 0 0 582 0 0 0 0 psic_nc$p
S 621 6 4 0 0 7 619 582 4851 40802060 1020 A 0 0 0 0 0 304 0 0 0 0 0 0 644 0 0 0 0 0 0 0 0 0 0 582 0 0 0 0 psic_nc$o
S 622 22 1 0 0 9 1 582 4861 40000000 1000 A 0 0 0 0 0 0 0 616 0 0 0 0 619 0 0 0 0 0 0 0 0 0 0 582 0 0 0 0 psic_nc$arrdsc
S 623 7 6 0 0 74 1 582 4876 10a00004 51 A 0 0 0 0 0 0 627 0 0 0 629 0 0 0 0 0 0 0 0 626 0 0 628 582 0 0 0 0 c0
S 624 6 4 0 0 6 625 582 4879 40800006 0 A 0 0 0 0 0 20 0 0 0 0 0 0 644 0 0 0 0 0 0 0 0 0 0 582 0 0 0 0 z_b_5
S 625 6 4 0 0 6 631 582 4885 40800006 0 A 0 0 0 0 0 24 0 0 0 0 0 0 644 0 0 0 0 0 0 0 0 0 0 582 0 0 0 0 z_b_6
S 626 8 4 0 0 77 634 582 4891 40822064 1020 A 0 0 0 0 0 312 0 0 0 0 0 0 644 0 0 0 0 0 0 0 0 0 0 582 0 0 0 0 c0$sd
S 627 6 4 0 0 7 628 582 4897 40802061 1020 A 0 0 0 0 0 408 0 0 0 0 0 0 644 0 0 0 0 0 0 0 0 0 0 582 0 0 0 0 c0$p
S 628 6 4 0 0 7 626 582 4902 40802060 1020 A 0 0 0 0 0 416 0 0 0 0 0 0 644 0 0 0 0 0 0 0 0 0 0 582 0 0 0 0 c0$o
S 629 22 1 0 0 9 1 582 4907 40000000 1000 A 0 0 0 0 0 0 0 623 0 0 0 0 626 0 0 0 0 0 0 0 0 0 0 582 0 0 0 0 c0$arrdsc
S 630 7 6 0 0 80 1 582 4917 10a00004 51 A 0 0 0 0 0 0 634 0 0 0 636 0 0 0 0 0 0 0 0 633 0 0 635 582 0 0 0 0 cm
S 631 6 4 0 0 6 632 582 4920 40800006 0 A 0 0 0 0 0 28 0 0 0 0 0 0 644 0 0 0 0 0 0 0 0 0 0 582 0 0 0 0 z_b_7
S 632 6 4 0 0 6 638 582 4926 40800006 0 A 0 0 0 0 0 32 0 0 0 0 0 0 644 0 0 0 0 0 0 0 0 0 0 582 0 0 0 0 z_b_8
S 633 8 4 0 0 83 641 582 4932 40822064 1020 A 0 0 0 0 0 424 0 0 0 0 0 0 644 0 0 0 0 0 0 0 0 0 0 582 0 0 0 0 cm$sd
S 634 6 4 0 0 7 635 582 4938 40802061 1020 A 0 0 0 0 0 520 0 0 0 0 0 0 644 0 0 0 0 0 0 0 0 0 0 582 0 0 0 0 cm$p
S 635 6 4 0 0 7 633 582 4943 40802060 1020 A 0 0 0 0 0 528 0 0 0 0 0 0 644 0 0 0 0 0 0 0 0 0 0 582 0 0 0 0 cm$o
S 636 22 1 0 0 9 1 582 4948 40000000 1000 A 0 0 0 0 0 0 0 630 0 0 0 0 633 0 0 0 0 0 0 0 0 0 0 582 0 0 0 0 cm$arrdsc
S 637 7 6 0 0 86 1 582 4958 10a00004 51 A 0 0 0 0 0 0 641 0 0 0 643 0 0 0 0 0 0 0 0 640 0 0 642 582 0 0 0 0 cp
S 638 6 4 0 0 6 639 582 4961 40800006 0 A 0 0 0 0 0 36 0 0 0 0 0 0 644 0 0 0 0 0 0 0 0 0 0 582 0 0 0 0 z_b_9
S 639 6 4 0 0 6 1 582 4967 40800006 0 A 0 0 0 0 0 40 0 0 0 0 0 0 644 0 0 0 0 0 0 0 0 0 0 582 0 0 0 0 z_b_10
S 640 8 4 0 0 89 595 582 4974 40822064 1020 A 0 0 0 0 0 536 0 0 0 0 0 0 644 0 0 0 0 0 0 0 0 0 0 582 0 0 0 0 cp$sd
S 641 6 4 0 0 7 642 582 4980 40802061 1020 A 0 0 0 0 0 632 0 0 0 0 0 0 644 0 0 0 0 0 0 0 0 0 0 582 0 0 0 0 cp$p
S 642 6 4 0 0 7 640 582 4985 40802060 1020 A 0 0 0 0 0 640 0 0 0 0 0 0 644 0 0 0 0 0 0 0 0 0 0 582 0 0 0 0 cp$o
S 643 22 1 0 0 9 1 582 4990 40000000 1000 A 0 0 0 0 0 0 0 637 0 0 0 0 640 0 0 0 0 0 0 0 0 0 0 582 0 0 0 0 cp$arrdsc
S 644 11 0 0 0 9 1 582 5000 40800000 801000 A 0 0 0 0 0 692 0 0 599 639 0 0 0 0 0 0 0 0 0 0 0 0 0 0 0 0 0 0 _wavefunctions_module$0
S 645 23 5 0 0 0 646 582 5024 0 0 A 0 0 0 0 0 0 0 0 0 0 0 0 0 0 0 0 0 0 0 0 0 0 0 0 0 0 0 0 deallocate_wavefunctions
S 646 14 5 0 0 0 1 645 5024 0 400000 A 0 0 0 0 0 0 0 4 0 0 0 0 0 0 0 0 0 0 0 0 0 37 0 582 0 0 0 0 deallocate_wavefunctions
F 646 0
A 13 2 0 0 0 6 585 0 0 0 13 0 0 0 0 0 0 0 0 0
A 19 2 0 0 0 6 597 0 0 0 19 0 0 0 0 0 0 0 0 0
A 20 2 0 0 0 6 602 0 0 0 20 0 0 0 0 0 0 0 0 0
A 21 1 0 1 0 59 598 0 0 0 0 0 0 0 0 0 0 0 0 0
A 22 10 0 0 0 6 21 1 0 0 0 0 0 0 0 0 0 0 0 0
X 1 20
A 23 2 0 0 0 6 603 0 0 0 23 0 0 0 0 0 0 0 0 0
A 24 10 0 0 22 6 21 4 0 0 0 0 0 0 0 0 0 0 0 0
X 1 23
A 25 4 0 0 0 6 24 0 3 0 0 0 0 2 0 0 0 0 0 0
A 26 4 0 0 0 6 22 0 25 0 0 0 0 1 0 0 0 0 0 0
A 27 2 0 0 0 6 604 0 0 0 27 0 0 0 0 0 0 0 0 0
A 28 10 0 0 24 6 21 7 0 0 0 0 0 0 0 0 0 0 0 0
X 1 27
A 29 2 0 0 0 6 605 0 0 0 29 0 0 0 0 0 0 0 0 0
A 30 10 0 0 28 6 21 10 0 0 0 0 0 0 0 0 0 0 0 0
X 1 29
A 31 4 0 0 0 6 30 0 3 0 0 0 0 2 0 0 0 0 0 0
A 32 4 0 0 0 6 28 0 31 0 0 0 0 1 0 0 0 0 0 0
A 33 2 0 0 0 6 606 0 0 0 33 0 0 0 0 0 0 0 0 0
A 34 10 0 0 30 6 21 13 0 0 0 0 0 0 0 0 0 0 0 0
X 1 33
A 35 2 0 0 0 6 607 0 0 0 35 0 0 0 0 0 0 0 0 0
A 36 10 0 0 34 6 21 16 0 0 0 0 0 0 0 0 0 0 0 0
X 1 35
A 37 2 0 0 0 6 608 0 0 0 37 0 0 0 0 0 0 0 0 0
A 38 10 0 0 36 6 21 19 0 0 0 0 0 0 0 0 0 0 0 0
X 1 37
A 39 10 0 0 38 6 21 22 0 0 0 0 0 0 0 0 0 0 0 0
X 1 13
A 41 2 0 0 0 6 611 0 0 0 41 0 0 0 0 0 0 0 0 0
A 42 1 0 3 0 65 612 0 0 0 0 0 0 0 0 0 0 0 0 0
A 43 10 0 0 0 6 42 1 0 0 0 0 0 0 0 0 0 0 0 0
X 1 20
A 44 10 0 0 43 6 42 4 0 0 0 0 0 0 0 0 0 0 0 0
X 1 23
A 45 4 0 0 0 6 44 0 3 0 0 0 0 2 0 0 0 0 0 0
A 46 4 0 0 0 6 43 0 45 0 0 0 0 1 0 0 0 0 0 0
A 47 10 0 0 44 6 42 13 0 0 0 0 0 0 0 0 0 0 0 0
X 1 33
A 48 10 0 0 47 6 42 19 0 0 0 0 0 0 0 0 0 0 0 0
X 1 37
A 49 10 0 0 48 6 42 22 0 0 0 0 0 0 0 0 0 0 0 0
X 1 13
A 52 1 0 1 0 71 619 0 0 0 0 0 0 0 0 0 0 0 0 0
A 53 10 0 0 42 6 52 1 0 0 0 0 0 0 0 0 0 0 0 0
X 1 20
A 54 10 0 0 53 6 52 4 0 0 0 0 0 0 0 0 0 0 0 0
X 1 23
A 55 4 0 0 0 6 54 0 3 0 0 0 0 2 0 0 0 0 0 0
A 56 4 0 0 0 6 53 0 55 0 0 0 0 1 0 0 0 0 0 0
A 57 10 0 0 54 6 52 7 0 0 0 0 0 0 0 0 0 0 0 0
X 1 27
A 58 10 0 0 57 6 52 10 0 0 0 0 0 0 0 0 0 0 0 0
X 1 29
A 59 4 0 0 0 6 58 0 3 0 0 0 0 2 0 0 0 0 0 0
A 60 4 0 0 0 6 57 0 59 0 0 0 0 1 0 0 0 0 0 0
A 61 10 0 0 58 6 52 13 0 0 0 0 0 0 0 0 0 0 0 0
X 1 33
A 62 10 0 0 61 6 52 16 0 0 0 0 0 0 0 0 0 0 0 0
X 1 35
A 63 10 0 0 62 6 52 19 0 0 0 0 0 0 0 0 0 0 0 0
X 1 37
A 64 10 0 0 63 6 52 22 0 0 0 0 0 0 0 0 0 0 0 0
X 1 13
A 67 1 0 1 0 77 626 0 0 0 0 0 0 0 0 0 0 0 0 0
A 68 10 0 0 0 6 67 1 0 0 0 0 0 0 0 0 0 0 0 0
X 1 20
A 69 10 0 0 68 6 67 4 0 0 0 0 0 0 0 0 0 0 0 0
X 1 23
A 70 4 0 0 0 6 69 0 3 0 0 0 0 2 0 0 0 0 0 0
A 71 4 0 0 35 6 68 0 70 0 0 0 0 1 0 0 0 0 0 0
A 72 10 0 0 69 6 67 7 0 0 0 0 0 0 0 0 0 0 0 0
X 1 27
A 73 10 0 0 72 6 67 10 0 0 0 0 0 0 0 0 0 0 0 0
X 1 29
A 74 4 0 0 0 6 73 0 3 0 0 0 0 2 0 0 0 0 0 0
A 75 4 0 0 0 6 72 0 74 0 0 0 0 1 0 0 0 0 0 0
A 76 10 0 0 73 6 67 13 0 0 0 0 0 0 0 0 0 0 0 0
X 1 33
A 77 10 0 0 76 6 67 16 0 0 0 0 0 0 0 0 0 0 0 0
X 1 35
A 78 10 0 0 77 6 67 19 0 0 0 0 0 0 0 0 0 0 0 0
X 1 37
A 79 10 0 0 78 6 67 22 0 0 0 0 0 0 0 0 0 0 0 0
X 1 13
A 82 1 0 1 0 83 633 0 0 0 0 0 0 0 0 0 0 0 0 0
A 83 10 0 0 12 6 82 1 0 0 0 0 0 0 0 0 0 0 0 0
X 1 20
A 84 10 0 0 83 6 82 4 0 0 0 0 0 0 0 0 0 0 0 0
X 1 23
A 85 4 0 0 0 6 84 0 3 0 0 0 0 2 0 0 0 0 0 0
A 86 4 0 0 0 6 83 0 85 0 0 0 0 1 0 0 0 0 0 0
A 87 10 0 0 84 6 82 7 0 0 0 0 0 0 0 0 0 0 0 0
X 1 27
A 88 10 0 0 87 6 82 10 0 0 0 0 0 0 0 0 0 0 0 0
X 1 29
A 89 4 0 0 0 6 88 0 3 0 0 0 0 2 0 0 0 0 0 0
A 90 4 0 0 79 6 87 0 89 0 0 0 0 1 0 0 0 0 0 0
A 91 10 0 0 88 6 82 13 0 0 0 0 0 0 0 0 0 0 0 0
X 1 33
A 92 10 0 0 91 6 82 16 0 0 0 0 0 0 0 0 0 0 0 0
X 1 35
A 93 10 0 0 92 6 82 19 0 0 0 0 0 0 0 0 0 0 0 0
X 1 37
A 94 10 0 0 93 6 82 22 0 0 0 0 0 0 0 0 0 0 0 0
X 1 13
A 97 1 0 1 0 89 640 0 0 0 0 0 0 0 0 0 0 0 0 0
A 98 10 0 0 0 6 97 1 0 0 0 0 0 0 0 0 0 0 0 0
X 1 20
A 99 10 0 0 98 6 97 4 0 0 0 0 0 0 0 0 0 0 0 0
X 1 23
A 100 4 0 0 0 6 99 0 3 0 0 0 0 2 0 0 0 0 0 0
A 101 4 0 0 0 6 98 0 100 0 0 0 0 1 0 0 0 0 0 0
A 102 10 0 0 99 6 97 7 0 0 0 0 0 0 0 0 0 0 0 0
X 1 27
A 103 10 0 0 102 6 97 10 0 0 0 0 0 0 0 0 0 0 0 0
X 1 29
A 104 4 0 0 0 6 103 0 3 0 0 0 0 2 0 0 0 0 0 0
A 105 4 0 0 0 6 102 0 104 0 0 0 0 1 0 0 0 0 0 0
A 106 10 0 0 103 6 97 13 0 0 0 0 0 0 0 0 0 0 0 0
X 1 33
A 107 10 0 0 106 6 97 16 0 0 0 0 0 0 0 0 0 0 0 0
X 1 35
A 108 10 0 0 107 6 97 19 0 0 0 0 0 0 0 0 0 0 0 0
X 1 37
A 109 10 0 0 108 6 97 22 0 0 0 0 0 0 0 0 0 0 0 0
X 1 13
Z
Z
