V26 wave_base
13 wave_base.F90 S582 0
04/24/2012  15:51:15
enduse
D 56 21 12 2 20 26 1 1 0 0 1
 3 21 3 3 21 22
 3 23 24 3 23 25
D 59 21 12 2 27 33 1 1 0 0 1
 3 28 3 3 28 29
 3 30 31 3 30 32
D 62 21 12 2 34 40 1 1 0 0 1
 3 35 3 3 35 36
 3 37 38 3 37 39
D 65 21 12 1 41 44 1 1 0 0 1
 3 42 3 3 42 43
D 68 21 12 1 3 49 0 0 1 0 0
 0 48 3 3 49 49
D 71 21 12 2 51 57 1 1 0 0 1
 3 52 3 3 52 53
 3 54 55 3 54 56
D 74 21 12 1 58 61 1 1 0 0 1
 3 59 3 3 59 60
D 77 21 9 1 3 63 0 0 1 0 0
 0 62 3 3 63 63
D 80 21 12 3 64 73 1 1 0 0 1
 3 65 3 3 65 66
 3 67 68 3 67 69
 3 70 71 3 70 72
D 83 21 12 3 74 83 1 1 0 0 1
 3 75 3 3 75 76
 3 77 78 3 77 79
 3 80 81 3 80 82
D 86 21 9 1 84 87 1 1 0 0 1
 3 85 3 3 85 86
D 89 21 12 1 88 91 1 1 0 0 1
 3 89 3 3 89 90
D 92 21 12 1 92 95 1 1 0 0 1
 3 93 3 3 93 94
D 95 21 12 1 96 99 1 1 0 0 1
 3 97 3 3 97 98
D 98 21 12 1 100 103 1 1 0 0 1
 3 101 3 3 101 102
D 101 21 12 1 104 107 1 1 0 0 1
 3 105 3 3 105 106
D 104 21 12 1 108 111 1 1 0 0 1
 3 109 3 3 109 110
D 107 21 12 1 112 115 1 1 0 0 1
 3 113 3 3 113 114
D 110 21 12 1 116 119 1 1 0 0 1
 3 117 3 3 117 118
D 113 21 12 1 120 123 1 1 0 0 1
 3 121 3 3 121 122
D 116 21 12 1 124 127 1 1 0 0 1
 3 125 3 3 125 126
D 119 21 12 1 128 131 1 1 0 0 1
 3 129 3 3 129 130
D 122 21 12 1 132 135 1 1 0 0 1
 3 133 3 3 133 134
D 125 21 12 2 136 142 1 1 0 0 1
 3 137 3 3 137 138
 3 139 140 3 139 141
D 128 21 12 1 143 146 1 1 0 0 1
 3 144 3 3 144 145
D 131 21 12 1 147 150 1 1 0 0 1
 3 148 3 3 148 149
D 134 21 12 1 151 154 1 1 0 0 1
 3 152 3 3 152 153
D 137 21 12 1 155 158 1 1 0 0 1
 3 156 3 3 156 157
D 140 21 12 1 159 162 1 1 0 0 1
 3 160 3 3 160 161
D 143 21 12 1 163 166 1 1 0 0 1
 3 164 3 3 164 165
D 146 21 12 1 167 170 1 1 0 0 1
 3 168 3 3 168 169
D 149 21 9 1 171 174 1 1 0 0 1
 3 172 3 3 172 173
D 152 21 12 1 175 178 1 1 0 0 1
 3 176 3 3 176 177
D 155 21 12 1 179 182 1 1 0 0 1
 3 180 3 3 180 181
D 158 21 12 1 183 186 1 1 0 0 1
 3 184 3 3 184 185
D 161 21 9 1 187 190 1 1 0 0 1
 3 188 3 3 188 189
D 164 21 12 1 191 194 1 1 0 0 1
 3 192 3 3 192 193
D 167 21 12 1 195 198 1 1 0 0 1
 3 196 3 3 196 197
D 170 21 9 1 199 202 1 1 0 0 1
 3 200 3 3 200 201
S 582 24 0 0 0 9 1 0 4658 10015 0 A 0 0 0 0 0 0 0 0 0 0 0 0 0 0 0 0 0 0 0 0 0 29 0 0 0 0 0 0 wave_base
S 593 6 4 0 0 9 594 582 4708 80000c 0 A 0 0 0 0 0 0 0 0 0 0 0 0 614 0 0 0 0 0 0 0 0 0 0 582 0 0 0 0 frice
S 594 6 4 0 0 9 1 582 4721 80000c 0 A 0 0 0 0 0 8 0 0 0 0 0 0 614 0 0 0 0 0 0 0 0 0 0 582 0 0 0 0 grease
S 595 19 0 0 0 9 1 582 4735 4000 0 A 0 0 0 0 0 0 0 0 0 0 0 0 0 0 0 0 8 4 0 0 0 0 0 582 0 0 0 0 dotp
O 595 4 609 608 607 606
S 596 19 0 0 0 9 1 582 4740 4000 0 A 0 0 0 0 0 0 0 0 0 0 0 0 0 0 0 0 12 2 0 0 0 0 0 582 0 0 0 0 hpsi
O 596 2 611 610
S 597 27 0 0 0 9 799 582 4745 0 0 A 0 0 0 0 0 0 0 0 0 0 0 0 0 0 0 0 0 0 0 0 0 0 0 582 0 0 0 0 rande_base
S 598 27 0 0 0 9 615 582 4756 0 0 A 0 0 0 0 0 0 0 0 0 0 0 0 0 0 0 0 0 0 0 0 0 0 0 582 0 0 0 0 gram_kp_base
S 599 27 0 0 0 9 626 582 4769 0 0 A 0 0 0 0 0 0 0 0 0 0 0 0 0 0 0 0 0 0 0 0 0 0 0 582 0 0 0 0 gram_gamma_base
S 600 19 0 0 0 9 1 582 4785 4000 0 A 0 0 0 0 0 0 0 0 0 0 0 0 0 0 0 0 16 2 0 0 0 0 0 582 0 0 0 0 converg_base
O 600 2 613 612
S 601 27 0 0 0 9 810 582 4798 0 0 A 0 0 0 0 0 0 0 0 0 0 0 0 0 0 0 0 0 0 0 0 0 0 0 582 0 0 0 0 rande_base_s
S 602 27 0 0 0 9 818 582 4811 0 0 A 0 0 0 0 0 0 0 0 0 0 0 0 0 0 0 0 0 0 0 0 0 0 0 582 0 0 0 0 scalw
S 603 27 0 0 0 9 837 582 4817 0 0 A 0 0 0 0 0 0 0 0 0 0 0 0 0 0 0 0 0 0 0 0 0 0 0 582 0 0 0 0 wave_steepest
S 604 27 0 0 0 9 861 582 4831 0 0 A 0 0 0 0 0 0 0 0 0 0 0 0 0 0 0 0 0 0 0 0 0 0 0 582 0 0 0 0 wave_verlet
S 605 27 0 0 0 9 887 582 4843 0 0 A 0 0 0 0 0 0 0 0 0 0 0 0 0 0 0 0 0 0 0 0 0 0 0 582 0 0 0 0 wave_speed2
S 606 27 0 0 0 9 729 582 4855 10010 400000 A 0 0 0 0 0 0 21 0 0 0 0 0 0 0 0 0 0 0 0 0 0 0 0 582 0 0 0 0 dotp_gamma
Q 606 595 0
S 607 27 0 0 0 9 758 582 4866 10010 400000 A 0 0 0 0 0 0 23 0 0 0 0 0 0 0 0 0 0 0 0 0 0 0 0 582 0 0 0 0 dotp_kp
Q 607 595 0
S 608 27 0 0 0 9 744 582 4874 10010 400000 A 0 0 0 0 0 0 22 0 0 0 0 0 0 0 0 0 0 0 0 0 0 0 0 582 0 0 0 0 dotp_gamma_n
Q 608 595 0
S 609 27 0 0 0 9 772 582 4887 10010 400000 A 0 0 0 0 0 0 24 0 0 0 0 0 0 0 0 0 0 0 0 0 0 0 0 582 0 0 0 0 dotp_kp_n
Q 609 595 0
S 610 27 0 0 0 9 657 582 4897 10010 400000 A 0 0 0 0 0 0 18 0 0 0 0 0 0 0 0 0 0 0 0 0 0 0 0 582 0 0 0 0 hpsi_gamma
Q 610 596 0
S 611 27 0 0 0 9 638 582 4908 10010 400000 A 0 0 0 0 0 0 17 0 0 0 0 0 0 0 0 0 0 0 0 0 0 0 0 582 0 0 0 0 hpsi_kp
Q 611 596 0
S 612 27 0 0 0 9 678 582 4916 10010 400000 A 0 0 0 0 0 0 19 0 0 0 0 0 0 0 0 0 0 0 0 0 0 0 0 582 0 0 0 0 converg_base_gamma
Q 612 600 0
S 613 27 0 0 0 9 694 582 4935 10010 400000 A 0 0 0 0 0 0 20 0 0 0 0 0 0 0 0 0 0 0 0 0 0 0 0 582 0 0 0 0 converg_base_kp
Q 613 600 0
S 614 11 0 0 0 9 1 582 4951 40800000 801000 A 0 0 0 0 0 16 0 0 593 594 0 0 0 0 0 0 0 0 0 0 0 0 0 0 0 0 0 0 _wave_base$10
S 615 23 5 0 0 0 618 582 4756 0 0 A 0 0 0 0 0 0 0 0 0 0 0 0 0 0 0 0 0 0 0 0 0 0 0 0 0 0 0 0 gram_kp_base
S 616 7 3 0 0 56 1 615 4965 20000014 10003000 A 0 0 0 0 0 0 0 0 0 0 0 0 0 0 0 0 0 0 0 0 0 0 0 0 0 0 0 0 wf
S 617 1 3 1 0 6 1 615 4968 14 3000 A 0 0 0 0 0 0 0 0 0 0 0 0 0 0 0 0 0 0 0 0 0 0 0 0 0 0 0 0 gid
S 618 14 5 0 0 0 1 615 4756 20000000 400000 A 0 0 0 0 0 0 0 4 2 0 0 0 0 0 0 0 0 0 0 0 0 74 0 582 0 0 0 0 gram_kp_base
F 618 2 616 617
S 619 6 1 0 0 6 1 615 4972 40800016 3000 A 0 0 0 0 0 0 0 0 0 0 0 0 0 0 0 0 0 0 0 0 0 0 0 0 0 0 0 0 z_b_0_1
S 620 6 1 0 0 6 1 615 4980 40800016 3000 A 0 0 0 0 0 0 0 0 0 0 0 0 0 0 0 0 0 0 0 0 0 0 0 0 0 0 0 0 z_b_2
S 621 6 1 0 0 6 1 615 4986 40800016 3000 A 0 0 0 0 0 0 0 0 0 0 0 0 0 0 0 0 0 0 0 0 0 0 0 0 0 0 0 0 z_b_3
S 622 6 1 0 0 6 1 615 4992 40800016 3000 A 0 0 0 0 0 0 0 0 0 0 0 0 0 0 0 0 0 0 0 0 0 0 0 0 0 0 0 0 z_b_5
S 623 6 1 0 0 6 1 615 4998 40800016 3000 A 0 0 0 0 0 0 0 0 0 0 0 0 0 0 0 0 0 0 0 0 0 0 0 0 0 0 0 0 z_b_6
S 624 6 1 0 0 6 1 615 5004 40800016 3000 A 0 0 0 0 0 0 0 0 0 0 0 0 0 0 0 0 0 0 0 0 0 0 0 0 0 0 0 0 z_e_863
S 625 6 1 0 0 6 1 615 5012 40800016 3000 A 0 0 0 0 0 0 0 0 0 0 0 0 0 0 0 0 0 0 0 0 0 0 0 0 0 0 0 0 z_e_866
S 626 23 5 0 0 0 630 582 4769 0 0 A 0 0 0 0 0 0 0 0 0 0 0 0 0 0 0 0 0 0 0 0 0 0 0 0 0 0 0 0 gram_gamma_base
S 627 7 3 3 0 59 1 626 4965 20000014 10003000 A 0 0 0 0 0 0 0 0 0 0 0 0 0 0 0 0 0 0 0 0 0 0 0 0 0 0 0 0 wf
S 628 1 3 1 0 16 1 626 5020 14 3000 A 0 0 0 0 0 0 0 0 0 0 0 0 0 0 0 0 0 0 0 0 0 0 0 0 0 0 0 0 gzero
S 629 1 3 1 0 6 1 626 4968 14 3000 A 0 0 0 0 0 0 0 0 0 0 0 0 0 0 0 0 0 0 0 0 0 0 0 0 0 0 0 0 gid
S 630 14 5 0 0 0 1 626 4769 20000000 400000 A 0 0 0 0 0 0 0 7 3 0 0 0 0 0 0 0 0 0 0 0 0 109 0 582 0 0 0 0 gram_gamma_base
F 630 3 627 628 629
S 631 6 1 0 0 6 1 626 4972 40800016 3000 A 0 0 0 0 0 0 0 0 0 0 0 0 0 0 0 0 0 0 0 0 0 0 0 0 0 0 0 0 z_b_0_1
S 632 6 1 0 0 6 1 626 4980 40800016 3000 A 0 0 0 0 0 0 0 0 0 0 0 0 0 0 0 0 0 0 0 0 0 0 0 0 0 0 0 0 z_b_2
S 633 6 1 0 0 6 1 626 4986 40800016 3000 A 0 0 0 0 0 0 0 0 0 0 0 0 0 0 0 0 0 0 0 0 0 0 0 0 0 0 0 0 z_b_3
S 634 6 1 0 0 6 1 626 4992 40800016 3000 A 0 0 0 0 0 0 0 0 0 0 0 0 0 0 0 0 0 0 0 0 0 0 0 0 0 0 0 0 z_b_5
S 635 6 1 0 0 6 1 626 4998 40800016 3000 A 0 0 0 0 0 0 0 0 0 0 0 0 0 0 0 0 0 0 0 0 0 0 0 0 0 0 0 0 z_b_6
S 636 6 1 0 0 6 1 626 5026 40800016 3000 A 0 0 0 0 0 0 0 0 0 0 0 0 0 0 0 0 0 0 0 0 0 0 0 0 0 0 0 0 z_e_886
S 637 6 1 0 0 6 1 626 5034 40800016 3000 A 0 0 0 0 0 0 0 0 0 0 0 0 0 0 0 0 0 0 0 0 0 0 0 0 0 0 0 0 z_e_889
S 638 23 5 0 0 9 641 582 4908 10 0 A 0 0 0 0 0 0 0 0 0 0 0 0 0 0 0 0 0 0 0 0 0 0 0 0 0 0 0 0 hpsi_kp
S 639 7 3 0 0 62 1 638 5042 20400014 10003000 A 0 0 0 0 0 0 0 0 0 0 0 0 0 0 0 0 0 0 0 0 0 0 0 0 0 0 0 0 c
S 640 7 3 0 0 65 1 638 5044 20000014 10003000 A 0 0 0 0 0 0 0 0 0 0 0 0 0 0 0 0 0 0 0 0 0 0 0 0 0 0 0 0 dc
S 641 14 5 0 0 68 1 638 4908 20000214 400000 A 0 0 0 0 0 0 0 11 2 0 0 642 0 0 0 0 0 0 0 0 0 184 0 582 0 0 0 0 hpsi_kp
F 641 2 639 640
S 642 7 3 0 0 68 1 638 4908 800214 1003000 A 0 0 0 0 0 0 0 0 0 0 0 0 0 0 0 0 0 0 0 0 0 0 0 0 0 0 0 0 hpsi_kp
S 643 6 1 0 0 6 1 638 5047 40800016 3000 A 0 0 0 0 0 0 0 0 0 0 0 0 0 0 0 0 0 0 0 0 0 0 0 0 0 0 0 0 z_b_0
S 644 6 1 0 0 6 1 638 4980 40800016 3000 A 0 0 0 0 0 0 0 0 0 0 0 0 0 0 0 0 0 0 0 0 0 0 0 0 0 0 0 0 z_b_2
S 645 6 1 0 0 6 1 638 4986 40800016 3000 A 0 0 0 0 0 0 0 0 0 0 0 0 0 0 0 0 0 0 0 0 0 0 0 0 0 0 0 0 z_b_3
S 646 6 1 0 0 6 1 638 4992 40800016 3000 A 0 0 0 0 0 0 0 0 0 0 0 0 0 0 0 0 0 0 0 0 0 0 0 0 0 0 0 0 z_b_5
S 647 6 1 0 0 6 1 638 4998 40800016 3000 A 0 0 0 0 0 0 0 0 0 0 0 0 0 0 0 0 0 0 0 0 0 0 0 0 0 0 0 0 z_b_6
S 648 6 1 0 0 6 1 638 5053 40800016 3000 A 0 0 0 0 0 0 0 0 0 0 0 0 0 0 0 0 0 0 0 0 0 0 0 0 0 0 0 0 z_e_42
S 649 6 1 0 0 6 1 638 5060 40800016 3000 A 0 0 0 0 0 0 0 0 0 0 0 0 0 0 0 0 0 0 0 0 0 0 0 0 0 0 0 0 z_e_45
S 650 6 1 0 0 6 1 638 5067 40800016 3000 A 0 0 0 0 0 0 0 0 0 0 0 0 0 0 0 0 0 0 0 0 0 0 0 0 0 0 0 0 z_b_7
S 651 6 1 0 0 6 1 638 5073 40800016 3000 A 0 0 0 0 0 0 0 0 0 0 0 0 0 0 0 0 0 0 0 0 0 0 0 0 0 0 0 0 z_b_9
S 652 6 1 0 0 6 1 638 5079 40800016 3000 A 0 0 0 0 0 0 0 0 0 0 0 0 0 0 0 0 0 0 0 0 0 0 0 0 0 0 0 0 z_b_10
S 653 6 1 0 0 6 1 638 5086 40800016 3000 A 0 0 0 0 0 0 0 0 0 0 0 0 0 0 0 0 0 0 0 0 0 0 0 0 0 0 0 0 z_e_52
S 654 3 0 0 0 6 1 1 0 0 0 A 0 0 0 0 0 0 0 0 0 2 0 0 0 0 0 0 0 0 0 0 0 0 0 0 0 0 0 0 6
S 655 6 1 0 0 6 1 638 5093 40800016 3000 A 0 0 0 0 0 0 0 0 0 0 0 0 0 0 0 0 0 0 0 0 0 0 0 0 0 0 0 0 z_e_58
S 657 23 5 0 0 9 664 582 4897 10 0 A 0 0 0 0 0 0 0 0 0 0 0 0 0 0 0 0 0 0 0 0 0 0 0 0 0 0 0 0 hpsi_gamma
S 658 1 3 1 0 16 1 657 5020 14 3000 A 0 0 0 0 0 0 0 0 0 0 0 0 0 0 0 0 0 0 0 0 0 0 0 0 0 0 0 0 gzero
S 659 7 3 0 0 71 1 657 5042 20000014 10003000 A 0 0 0 0 0 0 0 0 0 0 0 0 0 0 0 0 0 0 0 0 0 0 0 0 0 0 0 0 c
S 660 1 3 1 0 6 1 657 5111 14 3000 A 0 0 0 0 0 0 0 0 0 0 0 0 0 0 0 0 0 0 0 0 0 0 0 0 0 0 0 0 ngw
S 661 7 3 0 0 74 1 657 5044 20000014 10003000 A 0 0 0 0 0 0 0 0 0 0 0 0 0 0 0 0 0 0 0 0 0 0 0 0 0 0 0 0 dc
S 662 6 3 1 0 6 1 657 5115 800014 3000 A 0 0 0 0 0 0 0 0 0 0 0 0 0 0 0 0 0 0 0 0 0 0 0 0 0 0 0 0 n
S 663 1 3 1 0 6 1 657 5117 14 3000 A 0 0 0 0 0 0 0 0 0 0 0 0 0 0 0 0 0 0 0 0 0 0 0 0 0 0 0 0 noff
S 664 14 5 0 0 77 1 657 4897 20000214 400000 A 0 0 0 0 0 0 0 14 6 0 0 665 0 0 0 0 0 0 0 0 0 219 0 582 0 0 0 0 hpsi_gamma
F 664 6 658 659 660 661 662 663
S 665 7 3 0 0 77 1 657 4897 800214 1003000 A 0 0 0 0 0 0 0 0 0 0 0 0 0 0 0 0 0 0 0 0 0 0 0 0 0 0 0 0 hpsi_gamma
S 666 6 1 0 0 6 1 657 5047 40800016 3000 A 0 0 0 0 0 0 0 0 0 0 0 0 0 0 0 0 0 0 0 0 0 0 0 0 0 0 0 0 z_b_0
S 667 6 1 0 0 6 1 657 4980 40800016 3000 A 0 0 0 0 0 0 0 0 0 0 0 0 0 0 0 0 0 0 0 0 0 0 0 0 0 0 0 0 z_b_2
S 668 6 1 0 0 6 1 657 4986 40800016 3000 A 0 0 0 0 0 0 0 0 0 0 0 0 0 0 0 0 0 0 0 0 0 0 0 0 0 0 0 0 z_b_3
S 669 6 1 0 0 6 1 657 4992 40800016 3000 A 0 0 0 0 0 0 0 0 0 0 0 0 0 0 0 0 0 0 0 0 0 0 0 0 0 0 0 0 z_b_5
S 670 6 1 0 0 6 1 657 4998 40800016 3000 A 0 0 0 0 0 0 0 0 0 0 0 0 0 0 0 0 0 0 0 0 0 0 0 0 0 0 0 0 z_b_6
S 671 6 1 0 0 6 1 657 5122 40800016 3000 A 0 0 0 0 0 0 0 0 0 0 0 0 0 0 0 0 0 0 0 0 0 0 0 0 0 0 0 0 z_e_59
S 672 6 1 0 0 6 1 657 5129 40800016 3000 A 0 0 0 0 0 0 0 0 0 0 0 0 0 0 0 0 0 0 0 0 0 0 0 0 0 0 0 0 z_e_62
S 673 6 1 0 0 6 1 657 5067 40800016 3000 A 0 0 0 0 0 0 0 0 0 0 0 0 0 0 0 0 0 0 0 0 0 0 0 0 0 0 0 0 z_b_7
S 674 6 1 0 0 6 1 657 5073 40800016 3000 A 0 0 0 0 0 0 0 0 0 0 0 0 0 0 0 0 0 0 0 0 0 0 0 0 0 0 0 0 z_b_9
S 675 6 1 0 0 6 1 657 5079 40800016 3000 A 0 0 0 0 0 0 0 0 0 0 0 0 0 0 0 0 0 0 0 0 0 0 0 0 0 0 0 0 z_b_10
S 676 6 1 0 0 6 1 657 5136 40800016 3000 A 0 0 0 0 0 0 0 0 0 0 0 0 0 0 0 0 0 0 0 0 0 0 0 0 0 0 0 0 z_e_69
S 677 6 1 0 0 6 1 657 5143 40800016 3000 A 0 0 0 0 0 0 0 0 0 0 0 0 0 0 0 0 0 0 0 0 0 0 0 0 0 0 0 0 z_e_71
S 678 23 5 0 0 0 683 582 4916 10 0 A 0 0 0 0 0 0 0 0 0 0 0 0 0 0 0 0 0 0 0 0 0 0 0 0 0 0 0 0 converg_base_gamma
S 679 1 3 1 0 16 1 678 5020 14 3000 A 0 0 0 0 0 0 0 0 0 0 0 0 0 0 0 0 0 0 0 0 0 0 0 0 0 0 0 0 gzero
S 680 7 3 0 0 80 1 678 5150 20000014 10003000 A 0 0 0 0 0 0 0 0 0 0 0 0 0 0 0 0 0 0 0 0 0 0 0 0 0 0 0 0 cgrad
S 681 1 3 2 0 9 1 678 5156 14 3000 A 0 0 0 0 0 0 0 0 0 0 0 0 0 0 0 0 0 0 0 0 0 0 0 0 0 0 0 0 gemax
S 682 1 3 2 0 9 1 678 5162 14 3000 A 0 0 0 0 0 0 0 0 0 0 0 0 0 0 0 0 0 0 0 0 0 0 0 0 0 0 0 0 cnorm
S 683 14 5 0 0 0 1 678 4916 20000010 400000 A 0 0 0 0 0 0 0 21 4 0 0 0 0 0 0 0 0 0 0 0 0 253 0 582 0 0 0 0 converg_base_gamma
F 683 4 679 680 681 682
S 684 6 1 0 0 6 1 678 4972 40800016 3000 A 0 0 0 0 0 0 0 0 0 0 0 0 0 0 0 0 0 0 0 0 0 0 0 0 0 0 0 0 z_b_0_1
S 685 6 1 0 0 6 1 678 4980 40800016 3000 A 0 0 0 0 0 0 0 0 0 0 0 0 0 0 0 0 0 0 0 0 0 0 0 0 0 0 0 0 z_b_2
S 686 6 1 0 0 6 1 678 4986 40800016 3000 A 0 0 0 0 0 0 0 0 0 0 0 0 0 0 0 0 0 0 0 0 0 0 0 0 0 0 0 0 z_b_3
S 687 6 1 0 0 6 1 678 4992 40800016 3000 A 0 0 0 0 0 0 0 0 0 0 0 0 0 0 0 0 0 0 0 0 0 0 0 0 0 0 0 0 z_b_5
S 688 6 1 0 0 6 1 678 4998 40800016 3000 A 0 0 0 0 0 0 0 0 0 0 0 0 0 0 0 0 0 0 0 0 0 0 0 0 0 0 0 0 z_b_6
S 689 6 1 0 0 6 1 678 5168 40800016 3000 A 0 0 0 0 0 0 0 0 0 0 0 0 0 0 0 0 0 0 0 0 0 0 0 0 0 0 0 0 z_b_8
S 690 6 1 0 0 6 1 678 5073 40800016 3000 A 0 0 0 0 0 0 0 0 0 0 0 0 0 0 0 0 0 0 0 0 0 0 0 0 0 0 0 0 z_b_9
S 691 6 1 0 0 6 1 678 5174 40800016 3000 A 0 0 0 0 0 0 0 0 0 0 0 0 0 0 0 0 0 0 0 0 0 0 0 0 0 0 0 0 z_e_925
S 692 6 1 0 0 6 1 678 5182 40800016 3000 A 0 0 0 0 0 0 0 0 0 0 0 0 0 0 0 0 0 0 0 0 0 0 0 0 0 0 0 0 z_e_928
S 693 6 1 0 0 6 1 678 5190 40800016 3000 A 0 0 0 0 0 0 0 0 0 0 0 0 0 0 0 0 0 0 0 0 0 0 0 0 0 0 0 0 z_e_931
S 694 23 5 0 0 0 699 582 4935 10 0 A 0 0 0 0 0 0 0 0 0 0 0 0 0 0 0 0 0 0 0 0 0 0 0 0 0 0 0 0 converg_base_kp
S 695 7 3 1 0 86 1 694 5198 20000014 10003000 A 0 0 0 0 0 0 0 0 0 0 0 0 0 0 0 0 0 0 0 0 0 0 0 0 0 0 0 0 weight
S 696 7 3 0 0 83 1 694 5150 20000014 10003000 A 0 0 0 0 0 0 0 0 0 0 0 0 0 0 0 0 0 0 0 0 0 0 0 0 0 0 0 0 cgrad
S 697 1 3 2 0 9 1 694 5156 14 3000 A 0 0 0 0 0 0 0 0 0 0 0 0 0 0 0 0 0 0 0 0 0 0 0 0 0 0 0 0 gemax
S 698 1 3 2 0 9 1 694 5162 14 3000 A 0 0 0 0 0 0 0 0 0 0 0 0 0 0 0 0 0 0 0 0 0 0 0 0 0 0 0 0 cnorm
S 699 14 5 0 0 0 1 694 4935 20000010 400000 A 0 0 0 0 0 0 0 26 4 0 0 0 0 0 0 0 0 0 0 0 0 306 0 582 0 0 0 0 converg_base_kp
F 699 4 695 696 697 698
S 700 6 1 0 0 6 1 694 4972 40800016 3000 A 0 0 0 0 0 0 0 0 0 0 0 0 0 0 0 0 0 0 0 0 0 0 0 0 0 0 0 0 z_b_0_1
S 701 6 1 0 0 6 1 694 4980 40800016 3000 A 0 0 0 0 0 0 0 0 0 0 0 0 0 0 0 0 0 0 0 0 0 0 0 0 0 0 0 0 z_b_2
S 702 6 1 0 0 6 1 694 4986 40800016 3000 A 0 0 0 0 0 0 0 0 0 0 0 0 0 0 0 0 0 0 0 0 0 0 0 0 0 0 0 0 z_b_3
S 703 6 1 0 0 6 1 694 4992 40800016 3000 A 0 0 0 0 0 0 0 0 0 0 0 0 0 0 0 0 0 0 0 0 0 0 0 0 0 0 0 0 z_b_5
S 704 6 1 0 0 6 1 694 4998 40800016 3000 A 0 0 0 0 0 0 0 0 0 0 0 0 0 0 0 0 0 0 0 0 0 0 0 0 0 0 0 0 z_b_6
S 705 6 1 0 0 6 1 694 5168 40800016 3000 A 0 0 0 0 0 0 0 0 0 0 0 0 0 0 0 0 0 0 0 0 0 0 0 0 0 0 0 0 z_b_8
S 706 6 1 0 0 6 1 694 5073 40800016 3000 A 0 0 0 0 0 0 0 0 0 0 0 0 0 0 0 0 0 0 0 0 0 0 0 0 0 0 0 0 z_b_9
S 707 6 1 0 0 6 1 694 5205 40800016 3000 A 0 0 0 0 0 0 0 0 0 0 0 0 0 0 0 0 0 0 0 0 0 0 0 0 0 0 0 0 z_e_935
S 708 6 1 0 0 6 1 694 5213 40800016 3000 A 0 0 0 0 0 0 0 0 0 0 0 0 0 0 0 0 0 0 0 0 0 0 0 0 0 0 0 0 z_e_938
S 709 6 1 0 0 6 1 694 5221 40800016 3000 A 0 0 0 0 0 0 0 0 0 0 0 0 0 0 0 0 0 0 0 0 0 0 0 0 0 0 0 0 z_e_941
S 710 6 1 0 0 6 1 694 5079 40800016 3000 A 0 0 0 0 0 0 0 0 0 0 0 0 0 0 0 0 0 0 0 0 0 0 0 0 0 0 0 0 z_b_10
S 711 6 1 0 0 6 1 694 5229 40800016 3000 A 0 0 0 0 0 0 0 0 0 0 0 0 0 0 0 0 0 0 0 0 0 0 0 0 0 0 0 0 z_b_12
S 712 6 1 0 0 6 1 694 5236 40800016 3000 A 0 0 0 0 0 0 0 0 0 0 0 0 0 0 0 0 0 0 0 0 0 0 0 0 0 0 0 0 z_b_13
S 713 6 1 0 0 6 1 694 5243 40800016 3000 A 0 0 0 0 0 0 0 0 0 0 0 0 0 0 0 0 0 0 0 0 0 0 0 0 0 0 0 0 z_e_948
S 714 23 5 0 0 9 719 582 5251 14 0 A 0 0 0 0 0 0 0 0 0 0 0 0 0 0 0 0 0 0 0 0 0 0 0 0 0 0 0 0 wdot_gamma
S 715 1 3 1 0 16 1 714 5020 14 3000 A 0 0 0 0 0 0 0 0 0 0 0 0 0 0 0 0 0 0 0 0 0 0 0 0 0 0 0 0 gzero
S 716 1 3 1 0 6 1 714 5262 80000014 3000 A 0 0 0 0 0 0 0 0 0 0 0 0 0 0 0 0 0 0 0 0 0 0 0 0 0 0 0 0 ng
S 717 7 3 0 0 89 1 714 5265 20000014 10003000 A 0 0 0 0 0 0 0 0 0 0 0 0 0 0 0 0 0 0 0 0 0 0 0 0 0 0 0 0 a
S 718 7 3 0 0 92 1 714 5267 20000014 10003000 A 0 0 0 0 0 0 0 0 0 0 0 0 0 0 0 0 0 0 0 0 0 0 0 0 0 0 0 0 b
S 719 14 5 0 0 9 1 714 5251 20000014 400000 A 0 0 0 0 0 0 0 31 4 0 0 720 0 0 0 0 0 0 0 0 0 369 0 582 0 0 0 0 wdot_gamma
F 719 4 715 716 717 718
S 720 1 3 0 0 9 1 714 5251 14 1003000 A 0 0 0 0 0 0 0 0 0 0 0 0 0 0 0 0 0 0 0 0 0 0 0 0 0 0 0 0 wdot_gamma
S 721 6 1 0 0 6 1 714 5047 40800016 3000 A 0 0 0 0 0 0 0 0 0 0 0 0 0 0 0 0 0 0 0 0 0 0 0 0 0 0 0 0 z_b_0
S 722 6 1 0 0 6 1 714 4980 40800016 3000 A 0 0 0 0 0 0 0 0 0 0 0 0 0 0 0 0 0 0 0 0 0 0 0 0 0 0 0 0 z_b_2
S 723 6 1 0 0 6 1 714 4986 40800016 3000 A 0 0 0 0 0 0 0 0 0 0 0 0 0 0 0 0 0 0 0 0 0 0 0 0 0 0 0 0 z_b_3
S 724 6 1 0 0 6 1 714 5269 40800016 3000 A 0 0 0 0 0 0 0 0 0 0 0 0 0 0 0 0 0 0 0 0 0 0 0 0 0 0 0 0 z_e_93
S 725 6 1 0 0 6 1 714 5276 40800016 3000 A 0 0 0 0 0 0 0 0 0 0 0 0 0 0 0 0 0 0 0 0 0 0 0 0 0 0 0 0 z_b_4
S 726 6 1 0 0 6 1 714 4998 40800016 3000 A 0 0 0 0 0 0 0 0 0 0 0 0 0 0 0 0 0 0 0 0 0 0 0 0 0 0 0 0 z_b_6
S 727 6 1 0 0 6 1 714 5067 40800016 3000 A 0 0 0 0 0 0 0 0 0 0 0 0 0 0 0 0 0 0 0 0 0 0 0 0 0 0 0 0 z_b_7
S 728 6 1 0 0 6 1 714 5282 40800016 3000 A 0 0 0 0 0 0 0 0 0 0 0 0 0 0 0 0 0 0 0 0 0 0 0 0 0 0 0 0 z_e_100
S 729 23 5 0 0 9 734 582 4855 14 0 A 0 0 0 0 0 0 0 0 0 0 0 0 0 0 0 0 0 0 0 0 0 0 0 0 0 0 0 0 dotp_gamma
S 730 1 3 1 0 16 1 729 5020 14 3000 A 0 0 0 0 0 0 0 0 0 0 0 0 0 0 0 0 0 0 0 0 0 0 0 0 0 0 0 0 gzero
S 731 1 3 1 0 6 1 729 5262 14 3000 A 0 0 0 0 0 0 0 0 0 0 0 0 0 0 0 0 0 0 0 0 0 0 0 0 0 0 0 0 ng
S 732 7 3 0 0 95 1 729 5265 20000014 10003000 A 0 0 0 0 0 0 0 0 0 0 0 0 0 0 0 0 0 0 0 0 0 0 0 0 0 0 0 0 a
S 733 7 3 0 0 98 1 729 5267 20000014 10003000 A 0 0 0 0 0 0 0 0 0 0 0 0 0 0 0 0 0 0 0 0 0 0 0 0 0 0 0 0 b
S 734 14 5 0 0 9 1 729 4855 20000014 400000 A 0 0 0 0 0 0 0 36 4 0 0 735 0 0 0 0 0 0 0 0 0 397 0 582 0 0 0 0 dotp_gamma
F 734 4 730 731 732 733
S 735 1 3 0 0 9 1 729 4855 14 1003000 A 0 0 0 0 0 0 0 0 0 0 0 0 0 0 0 0 0 0 0 0 0 0 0 0 0 0 0 0 dotp_gamma
S 736 6 1 0 0 6 1 729 4972 40800016 3000 A 0 0 0 0 0 0 0 0 0 0 0 0 0 0 0 0 0 0 0 0 0 0 0 0 0 0 0 0 z_b_0_1
S 737 6 1 0 0 6 1 729 4980 40800016 3000 A 0 0 0 0 0 0 0 0 0 0 0 0 0 0 0 0 0 0 0 0 0 0 0 0 0 0 0 0 z_b_2
S 738 6 1 0 0 6 1 729 4986 40800016 3000 A 0 0 0 0 0 0 0 0 0 0 0 0 0 0 0 0 0 0 0 0 0 0 0 0 0 0 0 0 z_b_3
S 739 6 1 0 0 6 1 729 5290 40800016 3000 A 0 0 0 0 0 0 0 0 0 0 0 0 0 0 0 0 0 0 0 0 0 0 0 0 0 0 0 0 z_e_951
S 740 6 1 0 0 6 1 729 5276 40800016 3000 A 0 0 0 0 0 0 0 0 0 0 0 0 0 0 0 0 0 0 0 0 0 0 0 0 0 0 0 0 z_b_4
S 741 6 1 0 0 6 1 729 4998 40800016 3000 A 0 0 0 0 0 0 0 0 0 0 0 0 0 0 0 0 0 0 0 0 0 0 0 0 0 0 0 0 z_b_6
S 742 6 1 0 0 6 1 729 5067 40800016 3000 A 0 0 0 0 0 0 0 0 0 0 0 0 0 0 0 0 0 0 0 0 0 0 0 0 0 0 0 0 z_b_7
S 743 6 1 0 0 6 1 729 5298 40800016 3000 A 0 0 0 0 0 0 0 0 0 0 0 0 0 0 0 0 0 0 0 0 0 0 0 0 0 0 0 0 z_e_958
S 744 23 5 0 0 9 748 582 4874 14 0 A 0 0 0 0 0 0 0 0 0 0 0 0 0 0 0 0 0 0 0 0 0 0 0 0 0 0 0 0 dotp_gamma_n
S 745 1 3 1 0 16 1 744 5020 14 3000 A 0 0 0 0 0 0 0 0 0 0 0 0 0 0 0 0 0 0 0 0 0 0 0 0 0 0 0 0 gzero
S 746 7 3 0 0 101 1 744 5265 20000014 10003000 A 0 0 0 0 0 0 0 0 0 0 0 0 0 0 0 0 0 0 0 0 0 0 0 0 0 0 0 0 a
S 747 7 3 0 0 104 1 744 5267 20000014 10003000 A 0 0 0 0 0 0 0 0 0 0 0 0 0 0 0 0 0 0 0 0 0 0 0 0 0 0 0 0 b
S 748 14 5 0 0 9 1 744 4874 20000014 400000 A 0 0 0 0 0 0 0 41 3 0 0 749 0 0 0 0 0 0 0 0 0 444 0 582 0 0 0 0 dotp_gamma_n
F 748 3 745 746 747
S 749 1 3 0 0 9 1 744 4874 14 1003000 A 0 0 0 0 0 0 0 0 0 0 0 0 0 0 0 0 0 0 0 0 0 0 0 0 0 0 0 0 dotp_gamma_n
S 750 6 1 0 0 6 1 744 4972 40800016 3000 A 0 0 0 0 0 0 0 0 0 0 0 0 0 0 0 0 0 0 0 0 0 0 0 0 0 0 0 0 z_b_0_1
S 751 6 1 0 0 6 1 744 4980 40800016 3000 A 0 0 0 0 0 0 0 0 0 0 0 0 0 0 0 0 0 0 0 0 0 0 0 0 0 0 0 0 z_b_2
S 752 6 1 0 0 6 1 744 4986 40800016 3000 A 0 0 0 0 0 0 0 0 0 0 0 0 0 0 0 0 0 0 0 0 0 0 0 0 0 0 0 0 z_b_3
S 753 6 1 0 0 6 1 744 5306 40800016 3000 A 0 0 0 0 0 0 0 0 0 0 0 0 0 0 0 0 0 0 0 0 0 0 0 0 0 0 0 0 z_e_959
S 754 6 1 0 0 6 1 744 5276 40800016 3000 A 0 0 0 0 0 0 0 0 0 0 0 0 0 0 0 0 0 0 0 0 0 0 0 0 0 0 0 0 z_b_4
S 755 6 1 0 0 6 1 744 4998 40800016 3000 A 0 0 0 0 0 0 0 0 0 0 0 0 0 0 0 0 0 0 0 0 0 0 0 0 0 0 0 0 z_b_6
S 756 6 1 0 0 6 1 744 5067 40800016 3000 A 0 0 0 0 0 0 0 0 0 0 0 0 0 0 0 0 0 0 0 0 0 0 0 0 0 0 0 0 z_b_7
S 757 6 1 0 0 6 1 744 5314 40800016 3000 A 0 0 0 0 0 0 0 0 0 0 0 0 0 0 0 0 0 0 0 0 0 0 0 0 0 0 0 0 z_e_966
S 758 23 5 0 0 12 762 582 4866 14 0 A 0 0 0 0 0 0 0 0 0 0 0 0 0 0 0 0 0 0 0 0 0 0 0 0 0 0 0 0 dotp_kp
S 759 1 3 1 0 6 1 758 5262 14 3000 A 0 0 0 0 0 0 0 0 0 0 0 0 0 0 0 0 0 0 0 0 0 0 0 0 0 0 0 0 ng
S 760 7 3 0 0 107 1 758 5265 20000014 10003000 A 0 0 0 0 0 0 0 0 0 0 0 0 0 0 0 0 0 0 0 0 0 0 0 0 0 0 0 0 a
S 761 7 3 0 0 110 1 758 5267 20000014 10003000 A 0 0 0 0 0 0 0 0 0 0 0 0 0 0 0 0 0 0 0 0 0 0 0 0 0 0 0 0 b
S 762 14 5 0 0 12 1 758 4866 20000014 400000 A 0 0 0 0 0 0 0 45 3 0 0 763 0 0 0 0 0 0 0 0 0 473 0 582 0 0 0 0 dotp_kp
F 762 3 759 760 761
S 763 1 3 0 0 12 1 758 4866 14 1003000 A 0 0 0 0 0 0 0 0 0 0 0 0 0 0 0 0 0 0 0 0 0 0 0 0 0 0 0 0 dotp_kp
S 764 6 1 0 0 6 1 758 4972 40800016 3000 A 0 0 0 0 0 0 0 0 0 0 0 0 0 0 0 0 0 0 0 0 0 0 0 0 0 0 0 0 z_b_0_1
S 765 6 1 0 0 6 1 758 4980 40800016 3000 A 0 0 0 0 0 0 0 0 0 0 0 0 0 0 0 0 0 0 0 0 0 0 0 0 0 0 0 0 z_b_2
S 766 6 1 0 0 6 1 758 4986 40800016 3000 A 0 0 0 0 0 0 0 0 0 0 0 0 0 0 0 0 0 0 0 0 0 0 0 0 0 0 0 0 z_b_3
S 767 6 1 0 0 6 1 758 5322 40800016 3000 A 0 0 0 0 0 0 0 0 0 0 0 0 0 0 0 0 0 0 0 0 0 0 0 0 0 0 0 0 z_e_967
S 768 6 1 0 0 6 1 758 5276 40800016 3000 A 0 0 0 0 0 0 0 0 0 0 0 0 0 0 0 0 0 0 0 0 0 0 0 0 0 0 0 0 z_b_4
S 769 6 1 0 0 6 1 758 4998 40800016 3000 A 0 0 0 0 0 0 0 0 0 0 0 0 0 0 0 0 0 0 0 0 0 0 0 0 0 0 0 0 z_b_6
S 770 6 1 0 0 6 1 758 5067 40800016 3000 A 0 0 0 0 0 0 0 0 0 0 0 0 0 0 0 0 0 0 0 0 0 0 0 0 0 0 0 0 z_b_7
S 771 6 1 0 0 6 1 758 5330 40800016 3000 A 0 0 0 0 0 0 0 0 0 0 0 0 0 0 0 0 0 0 0 0 0 0 0 0 0 0 0 0 z_e_974
S 772 23 5 0 0 12 775 582 4887 14 0 A 0 0 0 0 0 0 0 0 0 0 0 0 0 0 0 0 0 0 0 0 0 0 0 0 0 0 0 0 dotp_kp_n
S 773 7 3 1 0 113 1 772 5265 20000014 10003000 A 0 0 0 0 0 0 0 0 0 0 0 0 0 0 0 0 0 0 0 0 0 0 0 0 0 0 0 0 a
S 774 7 3 1 0 116 1 772 5267 20000014 10003000 A 0 0 0 0 0 0 0 0 0 0 0 0 0 0 0 0 0 0 0 0 0 0 0 0 0 0 0 0 b
S 775 14 5 0 0 12 1 772 4887 20000014 400000 A 0 0 0 0 0 0 0 49 2 0 0 776 0 0 0 0 0 0 0 0 0 505 0 582 0 0 0 0 dotp_kp_n
F 775 2 773 774
S 776 1 3 0 0 12 1 772 4887 14 1003000 A 0 0 0 0 0 0 0 0 0 0 0 0 0 0 0 0 0 0 0 0 0 0 0 0 0 0 0 0 dotp_kp_n
S 777 6 1 0 0 6 1 772 4972 40800016 3000 A 0 0 0 0 0 0 0 0 0 0 0 0 0 0 0 0 0 0 0 0 0 0 0 0 0 0 0 0 z_b_0_1
S 778 6 1 0 0 6 1 772 4980 40800016 3000 A 0 0 0 0 0 0 0 0 0 0 0 0 0 0 0 0 0 0 0 0 0 0 0 0 0 0 0 0 z_b_2
S 779 6 1 0 0 6 1 772 4986 40800016 3000 A 0 0 0 0 0 0 0 0 0 0 0 0 0 0 0 0 0 0 0 0 0 0 0 0 0 0 0 0 z_b_3
S 780 6 1 0 0 6 1 772 5338 40800016 3000 A 0 0 0 0 0 0 0 0 0 0 0 0 0 0 0 0 0 0 0 0 0 0 0 0 0 0 0 0 z_e_975
S 781 6 1 0 0 6 1 772 5276 40800016 3000 A 0 0 0 0 0 0 0 0 0 0 0 0 0 0 0 0 0 0 0 0 0 0 0 0 0 0 0 0 z_b_4
S 782 6 1 0 0 6 1 772 4998 40800016 3000 A 0 0 0 0 0 0 0 0 0 0 0 0 0 0 0 0 0 0 0 0 0 0 0 0 0 0 0 0 z_b_6
S 783 6 1 0 0 6 1 772 5067 40800016 3000 A 0 0 0 0 0 0 0 0 0 0 0 0 0 0 0 0 0 0 0 0 0 0 0 0 0 0 0 0 z_b_7
S 784 6 1 0 0 6 1 772 5346 40800016 3000 A 0 0 0 0 0 0 0 0 0 0 0 0 0 0 0 0 0 0 0 0 0 0 0 0 0 0 0 0 z_e_982
S 785 23 5 0 0 12 789 582 5354 14 0 A 0 0 0 0 0 0 0 0 0 0 0 0 0 0 0 0 0 0 0 0 0 0 0 0 0 0 0 0 wdot_kp
S 786 1 3 1 0 6 1 785 5262 80000014 3000 A 0 0 0 0 0 0 0 0 0 0 0 0 0 0 0 0 0 0 0 0 0 0 0 0 0 0 0 0 ng
S 787 7 3 0 0 119 1 785 5265 20000014 10003000 A 0 0 0 0 0 0 0 0 0 0 0 0 0 0 0 0 0 0 0 0 0 0 0 0 0 0 0 0 a
S 788 7 3 0 0 122 1 785 5267 20000014 10003000 A 0 0 0 0 0 0 0 0 0 0 0 0 0 0 0 0 0 0 0 0 0 0 0 0 0 0 0 0 b
S 789 14 5 0 0 12 1 785 5354 20000014 400000 A 0 0 0 0 0 0 0 52 3 0 0 790 0 0 0 0 0 0 0 0 0 535 0 582 0 0 0 0 wdot_kp
F 789 3 786 787 788
S 790 1 3 0 0 12 1 785 5354 14 1003000 A 0 0 0 0 0 0 0 0 0 0 0 0 0 0 0 0 0 0 0 0 0 0 0 0 0 0 0 0 wdot_kp
S 791 6 1 0 0 6 1 785 5047 40800016 3000 A 0 0 0 0 0 0 0 0 0 0 0 0 0 0 0 0 0 0 0 0 0 0 0 0 0 0 0 0 z_b_0
S 792 6 1 0 0 6 1 785 4980 40800016 3000 A 0 0 0 0 0 0 0 0 0 0 0 0 0 0 0 0 0 0 0 0 0 0 0 0 0 0 0 0 z_b_2
S 793 6 1 0 0 6 1 785 4986 40800016 3000 A 0 0 0 0 0 0 0 0 0 0 0 0 0 0 0 0 0 0 0 0 0 0 0 0 0 0 0 0 z_b_3
S 794 6 1 0 0 6 1 785 5362 40800016 3000 A 0 0 0 0 0 0 0 0 0 0 0 0 0 0 0 0 0 0 0 0 0 0 0 0 0 0 0 0 z_e_133
S 795 6 1 0 0 6 1 785 5276 40800016 3000 A 0 0 0 0 0 0 0 0 0 0 0 0 0 0 0 0 0 0 0 0 0 0 0 0 0 0 0 0 z_b_4
S 796 6 1 0 0 6 1 785 4998 40800016 3000 A 0 0 0 0 0 0 0 0 0 0 0 0 0 0 0 0 0 0 0 0 0 0 0 0 0 0 0 0 z_b_6
S 797 6 1 0 0 6 1 785 5067 40800016 3000 A 0 0 0 0 0 0 0 0 0 0 0 0 0 0 0 0 0 0 0 0 0 0 0 0 0 0 0 0 z_b_7
S 798 6 1 0 0 6 1 785 5370 40800016 3000 A 0 0 0 0 0 0 0 0 0 0 0 0 0 0 0 0 0 0 0 0 0 0 0 0 0 0 0 0 z_e_140
S 799 23 5 0 0 0 802 582 4745 0 0 A 0 0 0 0 0 0 0 0 0 0 0 0 0 0 0 0 0 0 0 0 0 0 0 0 0 0 0 0 rande_base
S 800 7 3 0 0 125 1 799 4965 20000014 10003000 A 0 0 0 0 0 0 0 0 0 0 0 0 0 0 0 0 0 0 0 0 0 0 0 0 0 0 0 0 wf
S 801 1 3 1 0 9 1 799 5378 14 3000 A 0 0 0 0 0 0 0 0 0 0 0 0 0 0 0 0 0 0 0 0 0 0 0 0 0 0 0 0 ampre
S 802 14 5 0 0 0 1 799 4745 20000000 400000 A 0 0 0 0 0 0 0 56 2 0 0 0 0 0 0 0 0 0 0 0 0 561 0 582 0 0 0 0 rande_base
F 802 2 800 801
S 803 6 1 0 0 6 1 799 5047 40800016 3000 A 0 0 0 0 0 0 0 0 0 0 0 0 0 0 0 0 0 0 0 0 0 0 0 0 0 0 0 0 z_b_0
S 804 6 1 0 0 6 1 799 4980 40800016 3000 A 0 0 0 0 0 0 0 0 0 0 0 0 0 0 0 0 0 0 0 0 0 0 0 0 0 0 0 0 z_b_2
S 805 6 1 0 0 6 1 799 4986 40800016 3000 A 0 0 0 0 0 0 0 0 0 0 0 0 0 0 0 0 0 0 0 0 0 0 0 0 0 0 0 0 z_b_3
S 806 6 1 0 0 6 1 799 4992 40800016 3000 A 0 0 0 0 0 0 0 0 0 0 0 0 0 0 0 0 0 0 0 0 0 0 0 0 0 0 0 0 z_b_5
S 807 6 1 0 0 6 1 799 4998 40800016 3000 A 0 0 0 0 0 0 0 0 0 0 0 0 0 0 0 0 0 0 0 0 0 0 0 0 0 0 0 0 z_b_6
S 808 6 1 0 0 6 1 799 5384 40800016 3000 A 0 0 0 0 0 0 0 0 0 0 0 0 0 0 0 0 0 0 0 0 0 0 0 0 0 0 0 0 z_e_146
S 809 6 1 0 0 6 1 799 5392 40800016 3000 A 0 0 0 0 0 0 0 0 0 0 0 0 0 0 0 0 0 0 0 0 0 0 0 0 0 0 0 0 z_e_149
S 810 23 5 0 0 0 813 582 4798 0 0 A 0 0 0 0 0 0 0 0 0 0 0 0 0 0 0 0 0 0 0 0 0 0 0 0 0 0 0 0 rande_base_s
S 811 7 3 0 0 128 1 810 4965 20000014 10003000 A 0 0 0 0 0 0 0 0 0 0 0 0 0 0 0 0 0 0 0 0 0 0 0 0 0 0 0 0 wf
S 812 1 3 1 0 9 1 810 5378 14 3000 A 0 0 0 0 0 0 0 0 0 0 0 0 0 0 0 0 0 0 0 0 0 0 0 0 0 0 0 0 ampre
S 813 14 5 0 0 0 1 810 4798 20000000 400000 A 0 0 0 0 0 0 0 59 2 0 0 0 0 0 0 0 0 0 0 0 0 588 0 582 0 0 0 0 rande_base_s
F 813 2 811 812
S 814 6 1 0 0 6 1 810 5047 40800016 3000 A 0 0 0 0 0 0 0 0 0 0 0 0 0 0 0 0 0 0 0 0 0 0 0 0 0 0 0 0 z_b_0
S 815 6 1 0 0 6 1 810 4980 40800016 3000 A 0 0 0 0 0 0 0 0 0 0 0 0 0 0 0 0 0 0 0 0 0 0 0 0 0 0 0 0 z_b_2
S 816 6 1 0 0 6 1 810 4986 40800016 3000 A 0 0 0 0 0 0 0 0 0 0 0 0 0 0 0 0 0 0 0 0 0 0 0 0 0 0 0 0 z_b_3
S 817 6 1 0 0 6 1 810 5400 40800016 3000 A 0 0 0 0 0 0 0 0 0 0 0 0 0 0 0 0 0 0 0 0 0 0 0 0 0 0 0 0 z_e_150
S 818 23 5 0 0 9 823 582 4811 4 0 A 0 0 0 0 0 0 0 0 0 0 0 0 0 0 0 0 0 0 0 0 0 0 0 0 0 0 0 0 scalw
S 819 1 3 1 0 16 1 818 5020 14 3000 A 0 0 0 0 0 0 0 0 0 0 0 0 0 0 0 0 0 0 0 0 0 0 0 0 0 0 0 0 gzero
S 820 7 3 1 0 131 1 818 5408 20000014 10003000 A 0 0 0 0 0 0 0 0 0 0 0 0 0 0 0 0 0 0 0 0 0 0 0 0 0 0 0 0 rr1
S 821 7 3 1 0 134 1 818 5412 20000014 10003000 A 0 0 0 0 0 0 0 0 0 0 0 0 0 0 0 0 0 0 0 0 0 0 0 0 0 0 0 0 rr2
S 822 7 3 1 0 137 1 818 5416 20000014 10003000 A 0 0 0 0 0 0 0 0 0 0 0 0 0 0 0 0 0 0 0 0 0 0 0 0 0 0 0 0 metric
S 823 14 5 0 0 9 1 818 4811 20000004 400000 A 0 0 0 0 0 0 0 62 4 0 0 824 0 0 0 0 0 0 0 0 0 614 0 582 0 0 0 0 scalw
F 823 4 819 820 821 822
S 824 1 3 0 0 9 1 818 4811 14 1003000 A 0 0 0 0 0 0 0 0 0 0 0 0 0 0 0 0 0 0 0 0 0 0 0 0 0 0 0 0 scalw
S 825 6 1 0 0 6 1 818 4972 40800016 3000 A 0 0 0 0 0 0 0 0 0 0 0 0 0 0 0 0 0 0 0 0 0 0 0 0 0 0 0 0 z_b_0_1
S 826 6 1 0 0 6 1 818 4980 40800016 3000 A 0 0 0 0 0 0 0 0 0 0 0 0 0 0 0 0 0 0 0 0 0 0 0 0 0 0 0 0 z_b_2
S 827 6 1 0 0 6 1 818 4986 40800016 3000 A 0 0 0 0 0 0 0 0 0 0 0 0 0 0 0 0 0 0 0 0 0 0 0 0 0 0 0 0 z_b_3
S 828 6 1 0 0 6 1 818 5423 40800016 3000 A 0 0 0 0 0 0 0 0 0 0 0 0 0 0 0 0 0 0 0 0 0 0 0 0 0 0 0 0 z_e_1002
S 829 6 1 0 0 6 1 818 5276 40800016 3000 A 0 0 0 0 0 0 0 0 0 0 0 0 0 0 0 0 0 0 0 0 0 0 0 0 0 0 0 0 z_b_4
S 830 6 1 0 0 6 1 818 4998 40800016 3000 A 0 0 0 0 0 0 0 0 0 0 0 0 0 0 0 0 0 0 0 0 0 0 0 0 0 0 0 0 z_b_6
S 831 6 1 0 0 6 1 818 5067 40800016 3000 A 0 0 0 0 0 0 0 0 0 0 0 0 0 0 0 0 0 0 0 0 0 0 0 0 0 0 0 0 z_b_7
S 832 6 1 0 0 6 1 818 5432 40800016 3000 A 0 0 0 0 0 0 0 0 0 0 0 0 0 0 0 0 0 0 0 0 0 0 0 0 0 0 0 0 z_e_1009
S 833 6 1 0 0 6 1 818 5168 40800016 3000 A 0 0 0 0 0 0 0 0 0 0 0 0 0 0 0 0 0 0 0 0 0 0 0 0 0 0 0 0 z_b_8
S 834 6 1 0 0 6 1 818 5079 40800016 3000 A 0 0 0 0 0 0 0 0 0 0 0 0 0 0 0 0 0 0 0 0 0 0 0 0 0 0 0 0 z_b_10
S 835 6 1 0 0 6 1 818 5441 40800016 3000 A 0 0 0 0 0 0 0 0 0 0 0 0 0 0 0 0 0 0 0 0 0 0 0 0 0 0 0 0 z_b_11
S 836 6 1 0 0 6 1 818 5448 40800016 3000 A 0 0 0 0 0 0 0 0 0 0 0 0 0 0 0 0 0 0 0 0 0 0 0 0 0 0 0 0 z_e_1016
S 837 23 5 0 0 0 844 582 4817 0 0 A 0 0 0 0 0 0 0 0 0 0 0 0 0 0 0 0 0 0 0 0 0 0 0 0 0 0 0 0 wave_steepest
S 838 7 3 2 0 140 1 837 5457 20000014 10003000 A 0 0 0 0 0 0 0 0 0 0 0 0 0 0 0 0 0 0 0 0 0 0 0 0 0 0 0 0 cp
S 839 7 3 1 0 143 1 837 5460 20000014 10003000 A 0 0 0 0 0 0 0 0 0 0 0 0 0 0 0 0 0 0 0 0 0 0 0 0 0 0 0 0 c0
S 840 7 3 1 0 149 1 837 5463 20000014 10003000 A 0 0 0 0 0 0 0 0 0 0 0 0 0 0 0 0 0 0 0 0 0 0 0 0 0 0 0 0 dt2m
S 841 7 3 1 0 146 1 837 5468 20000014 10003000 A 0 0 0 0 0 0 0 0 0 0 0 0 0 0 0 0 0 0 0 0 0 0 0 0 0 0 0 0 grad
S 842 1 3 1 0 6 1 837 5111 80000014 3000 A 0 0 0 0 0 0 0 0 0 0 0 0 0 0 0 0 0 0 0 0 0 0 0 0 0 0 0 0 ngw
S 843 1 3 1 0 6 1 837 5473 80000014 3000 A 0 0 0 0 0 0 0 0 0 0 0 0 0 0 0 0 0 0 0 0 0 0 0 0 0 0 0 0 idx
S 844 14 5 0 0 0 1 837 4817 20000000 400000 A 0 0 0 0 0 0 0 67 6 0 0 0 0 0 0 0 0 0 0 0 0 646 0 582 0 0 0 0 wave_steepest
F 844 6 838 839 840 841 842 843
S 845 6 1 0 0 6 1 837 5047 40800016 3000 A 0 0 0 0 0 0 0 0 0 0 0 0 0 0 0 0 0 0 0 0 0 0 0 0 0 0 0 0 z_b_0
S 846 6 1 0 0 6 1 837 4980 40800016 3000 A 0 0 0 0 0 0 0 0 0 0 0 0 0 0 0 0 0 0 0 0 0 0 0 0 0 0 0 0 z_b_2
S 847 6 1 0 0 6 1 837 4986 40800016 3000 A 0 0 0 0 0 0 0 0 0 0 0 0 0 0 0 0 0 0 0 0 0 0 0 0 0 0 0 0 z_b_3
S 848 6 1 0 0 6 1 837 5477 40800016 3000 A 0 0 0 0 0 0 0 0 0 0 0 0 0 0 0 0 0 0 0 0 0 0 0 0 0 0 0 0 z_e_164
S 849 6 1 0 0 6 1 837 5276 40800016 3000 A 0 0 0 0 0 0 0 0 0 0 0 0 0 0 0 0 0 0 0 0 0 0 0 0 0 0 0 0 z_b_4
S 850 6 1 0 0 6 1 837 4998 40800016 3000 A 0 0 0 0 0 0 0 0 0 0 0 0 0 0 0 0 0 0 0 0 0 0 0 0 0 0 0 0 z_b_6
S 851 6 1 0 0 6 1 837 5067 40800016 3000 A 0 0 0 0 0 0 0 0 0 0 0 0 0 0 0 0 0 0 0 0 0 0 0 0 0 0 0 0 z_b_7
S 852 6 1 0 0 6 1 837 5485 40800016 3000 A 0 0 0 0 0 0 0 0 0 0 0 0 0 0 0 0 0 0 0 0 0 0 0 0 0 0 0 0 z_e_171
S 853 6 1 0 0 6 1 837 5168 40800016 3000 A 0 0 0 0 0 0 0 0 0 0 0 0 0 0 0 0 0 0 0 0 0 0 0 0 0 0 0 0 z_b_8
S 854 6 1 0 0 6 1 837 5079 40800016 3000 A 0 0 0 0 0 0 0 0 0 0 0 0 0 0 0 0 0 0 0 0 0 0 0 0 0 0 0 0 z_b_10
S 855 6 1 0 0 6 1 837 5441 40800016 3000 A 0 0 0 0 0 0 0 0 0 0 0 0 0 0 0 0 0 0 0 0 0 0 0 0 0 0 0 0 z_b_11
S 856 6 1 0 0 6 1 837 5493 40800016 3000 A 0 0 0 0 0 0 0 0 0 0 0 0 0 0 0 0 0 0 0 0 0 0 0 0 0 0 0 0 z_e_178
S 857 6 1 0 0 6 1 837 5229 40800016 3000 A 0 0 0 0 0 0 0 0 0 0 0 0 0 0 0 0 0 0 0 0 0 0 0 0 0 0 0 0 z_b_12
S 858 6 1 0 0 6 1 837 5501 40800016 3000 A 0 0 0 0 0 0 0 0 0 0 0 0 0 0 0 0 0 0 0 0 0 0 0 0 0 0 0 0 z_b_14
S 859 6 1 0 0 6 1 837 5508 40800016 3000 A 0 0 0 0 0 0 0 0 0 0 0 0 0 0 0 0 0 0 0 0 0 0 0 0 0 0 0 0 z_b_15
S 860 6 1 0 0 6 1 837 5515 40800016 3000 A 0 0 0 0 0 0 0 0 0 0 0 0 0 0 0 0 0 0 0 0 0 0 0 0 0 0 0 0 z_e_185
S 861 23 5 0 0 0 870 582 4831 0 0 A 0 0 0 0 0 0 0 0 0 0 0 0 0 0 0 0 0 0 0 0 0 0 0 0 0 0 0 0 wave_verlet
S 862 7 3 3 0 152 1 861 5523 20000014 10003000 A 0 0 0 0 0 0 0 0 0 0 0 0 0 0 0 0 0 0 0 0 0 0 0 0 0 0 0 0 cm
S 863 7 3 1 0 155 1 861 5460 20000014 10003000 A 0 0 0 0 0 0 0 0 0 0 0 0 0 0 0 0 0 0 0 0 0 0 0 0 0 0 0 0 c0
S 864 1 3 1 0 9 1 861 5526 14 3000 A 0 0 0 0 0 0 0 0 0 0 0 0 0 0 0 0 0 0 0 0 0 0 0 0 0 0 0 0 ver1
S 865 1 3 1 0 9 1 861 5531 14 3000 A 0 0 0 0 0 0 0 0 0 0 0 0 0 0 0 0 0 0 0 0 0 0 0 0 0 0 0 0 ver2
S 866 7 3 1 0 161 1 861 5536 20000014 10003000 A 0 0 0 0 0 0 0 0 0 0 0 0 0 0 0 0 0 0 0 0 0 0 0 0 0 0 0 0 ver3
S 867 7 3 1 0 158 1 861 5468 20000014 10003000 A 0 0 0 0 0 0 0 0 0 0 0 0 0 0 0 0 0 0 0 0 0 0 0 0 0 0 0 0 grad
S 868 1 3 1 0 6 1 861 5111 80000014 3000 A 0 0 0 0 0 0 0 0 0 0 0 0 0 0 0 0 0 0 0 0 0 0 0 0 0 0 0 0 ngw
S 869 1 3 1 0 6 1 861 5473 80000014 3000 A 0 0 0 0 0 0 0 0 0 0 0 0 0 0 0 0 0 0 0 0 0 0 0 0 0 0 0 0 idx
S 870 14 5 0 0 0 1 861 4831 20000000 400000 A 0 0 0 0 0 0 0 74 8 0 0 0 0 0 0 0 0 0 0 0 0 666 0 582 0 0 0 0 wave_verlet
F 870 8 862 863 864 865 866 867 868 869
S 871 6 1 0 0 6 1 861 5047 40800016 3000 A 0 0 0 0 0 0 0 0 0 0 0 0 0 0 0 0 0 0 0 0 0 0 0 0 0 0 0 0 z_b_0
S 872 6 1 0 0 6 1 861 4980 40800016 3000 A 0 0 0 0 0 0 0 0 0 0 0 0 0 0 0 0 0 0 0 0 0 0 0 0 0 0 0 0 z_b_2
S 873 6 1 0 0 6 1 861 4986 40800016 3000 A 0 0 0 0 0 0 0 0 0 0 0 0 0 0 0 0 0 0 0 0 0 0 0 0 0 0 0 0 z_b_3
S 874 6 1 0 0 6 1 861 5541 40800016 3000 A 0 0 0 0 0 0 0 0 0 0 0 0 0 0 0 0 0 0 0 0 0 0 0 0 0 0 0 0 z_e_180
S 875 6 1 0 0 6 1 861 5276 40800016 3000 A 0 0 0 0 0 0 0 0 0 0 0 0 0 0 0 0 0 0 0 0 0 0 0 0 0 0 0 0 z_b_4
S 876 6 1 0 0 6 1 861 4998 40800016 3000 A 0 0 0 0 0 0 0 0 0 0 0 0 0 0 0 0 0 0 0 0 0 0 0 0 0 0 0 0 z_b_6
S 877 6 1 0 0 6 1 861 5067 40800016 3000 A 0 0 0 0 0 0 0 0 0 0 0 0 0 0 0 0 0 0 0 0 0 0 0 0 0 0 0 0 z_b_7
S 878 6 1 0 0 6 1 861 5549 40800016 3000 A 0 0 0 0 0 0 0 0 0 0 0 0 0 0 0 0 0 0 0 0 0 0 0 0 0 0 0 0 z_e_187
S 879 6 1 0 0 6 1 861 5168 40800016 3000 A 0 0 0 0 0 0 0 0 0 0 0 0 0 0 0 0 0 0 0 0 0 0 0 0 0 0 0 0 z_b_8
S 880 6 1 0 0 6 1 861 5079 40800016 3000 A 0 0 0 0 0 0 0 0 0 0 0 0 0 0 0 0 0 0 0 0 0 0 0 0 0 0 0 0 z_b_10
S 881 6 1 0 0 6 1 861 5441 40800016 3000 A 0 0 0 0 0 0 0 0 0 0 0 0 0 0 0 0 0 0 0 0 0 0 0 0 0 0 0 0 z_b_11
S 882 6 1 0 0 6 1 861 5557 40800016 3000 A 0 0 0 0 0 0 0 0 0 0 0 0 0 0 0 0 0 0 0 0 0 0 0 0 0 0 0 0 z_e_194
S 883 6 1 0 0 6 1 861 5229 40800016 3000 A 0 0 0 0 0 0 0 0 0 0 0 0 0 0 0 0 0 0 0 0 0 0 0 0 0 0 0 0 z_b_12
S 884 6 1 0 0 6 1 861 5501 40800016 3000 A 0 0 0 0 0 0 0 0 0 0 0 0 0 0 0 0 0 0 0 0 0 0 0 0 0 0 0 0 z_b_14
S 885 6 1 0 0 6 1 861 5508 40800016 3000 A 0 0 0 0 0 0 0 0 0 0 0 0 0 0 0 0 0 0 0 0 0 0 0 0 0 0 0 0 z_b_15
S 886 6 1 0 0 6 1 861 5565 40800016 3000 A 0 0 0 0 0 0 0 0 0 0 0 0 0 0 0 0 0 0 0 0 0 0 0 0 0 0 0 0 z_e_201
S 887 23 5 0 0 9 892 582 4843 0 0 A 0 0 0 0 0 0 0 0 0 0 0 0 0 0 0 0 0 0 0 0 0 0 0 0 0 0 0 0 wave_speed2
S 888 7 3 1 0 164 1 887 5457 20000014 10003000 A 0 0 0 0 0 0 0 0 0 0 0 0 0 0 0 0 0 0 0 0 0 0 0 0 0 0 0 0 cp
S 889 7 3 1 0 167 1 887 5523 20000014 10003000 A 0 0 0 0 0 0 0 0 0 0 0 0 0 0 0 0 0 0 0 0 0 0 0 0 0 0 0 0 cm
S 890 7 3 0 0 170 1 887 5573 20000014 10003000 A 0 0 0 0 0 0 0 0 0 0 0 0 0 0 0 0 0 0 0 0 0 0 0 0 0 0 0 0 wmss
S 891 1 3 0 0 9 1 887 5578 14 3000 A 0 0 0 0 0 0 0 0 0 0 0 0 0 0 0 0 0 0 0 0 0 0 0 0 0 0 0 0 fact
S 892 14 5 0 0 9 1 887 4843 20000004 400000 A 0 0 0 0 0 0 0 83 4 0 0 893 0 0 0 0 0 0 0 0 0 686 0 582 0 0 0 0 wave_speed2
F 892 4 888 889 890 891
S 893 1 3 0 0 9 1 887 4843 14 1003000 A 0 0 0 0 0 0 0 0 0 0 0 0 0 0 0 0 0 0 0 0 0 0 0 0 0 0 0 0 wave_speed2
S 894 6 1 0 0 6 1 887 5047 40800016 3000 A 0 0 0 0 0 0 0 0 0 0 0 0 0 0 0 0 0 0 0 0 0 0 0 0 0 0 0 0 z_b_0
S 895 6 1 0 0 6 1 887 4980 40800016 3000 A 0 0 0 0 0 0 0 0 0 0 0 0 0 0 0 0 0 0 0 0 0 0 0 0 0 0 0 0 z_b_2
S 896 6 1 0 0 6 1 887 4986 40800016 3000 A 0 0 0 0 0 0 0 0 0 0 0 0 0 0 0 0 0 0 0 0 0 0 0 0 0 0 0 0 z_b_3
S 897 6 1 0 0 6 1 887 5583 40800016 3000 A 0 0 0 0 0 0 0 0 0 0 0 0 0 0 0 0 0 0 0 0 0 0 0 0 0 0 0 0 z_e_196
S 898 6 1 0 0 6 1 887 5276 40800016 3000 A 0 0 0 0 0 0 0 0 0 0 0 0 0 0 0 0 0 0 0 0 0 0 0 0 0 0 0 0 z_b_4
S 899 6 1 0 0 6 1 887 4998 40800016 3000 A 0 0 0 0 0 0 0 0 0 0 0 0 0 0 0 0 0 0 0 0 0 0 0 0 0 0 0 0 z_b_6
S 900 6 1 0 0 6 1 887 5067 40800016 3000 A 0 0 0 0 0 0 0 0 0 0 0 0 0 0 0 0 0 0 0 0 0 0 0 0 0 0 0 0 z_b_7
S 901 6 1 0 0 6 1 887 5591 40800016 3000 A 0 0 0 0 0 0 0 0 0 0 0 0 0 0 0 0 0 0 0 0 0 0 0 0 0 0 0 0 z_e_203
S 902 6 1 0 0 6 1 887 5168 40800016 3000 A 0 0 0 0 0 0 0 0 0 0 0 0 0 0 0 0 0 0 0 0 0 0 0 0 0 0 0 0 z_b_8
S 903 6 1 0 0 6 1 887 5079 40800016 3000 A 0 0 0 0 0 0 0 0 0 0 0 0 0 0 0 0 0 0 0 0 0 0 0 0 0 0 0 0 z_b_10
S 904 6 1 0 0 6 1 887 5441 40800016 3000 A 0 0 0 0 0 0 0 0 0 0 0 0 0 0 0 0 0 0 0 0 0 0 0 0 0 0 0 0 z_b_11
S 905 6 1 0 0 6 1 887 5599 40800016 3000 A 0 0 0 0 0 0 0 0 0 0 0 0 0 0 0 0 0 0 0 0 0 0 0 0 0 0 0 0 z_e_210
A 20 1 0 0 0 6 623 0 0 0 0 0 0 0 0 0 0 0 0 0
A 21 1 0 0 0 6 619 0 0 0 0 0 0 0 0 0 0 0 0 0
A 22 1 0 0 0 6 624 0 0 0 0 0 0 0 0 0 0 0 0 0
A 23 1 0 0 0 6 621 0 0 0 0 0 0 0 0 0 0 0 0 0
A 24 1 0 0 0 6 620 0 0 0 0 0 0 0 0 0 0 0 0 0
A 25 1 0 0 0 6 625 0 0 0 0 0 0 0 0 0 0 0 0 0
A 26 1 0 0 0 6 622 0 0 0 0 0 0 0 0 0 0 0 0 0
A 27 1 0 0 0 6 635 0 0 0 0 0 0 0 0 0 0 0 0 0
A 28 1 0 0 0 6 631 0 0 0 0 0 0 0 0 0 0 0 0 0
A 29 1 0 0 0 6 636 0 0 0 0 0 0 0 0 0 0 0 0 0
A 30 1 0 0 0 6 633 0 0 0 0 0 0 0 0 0 0 0 0 0
A 31 1 0 0 0 6 632 0 0 0 0 0 0 0 0 0 0 0 0 0
A 32 1 0 0 0 6 637 0 0 0 0 0 0 0 0 0 0 0 0 0
A 33 1 0 0 0 6 634 0 0 0 0 0 0 0 0 0 0 0 0 0
A 34 1 0 0 0 6 647 0 0 0 0 0 0 0 0 0 0 0 0 0
A 35 1 0 0 0 6 643 0 0 0 0 0 0 0 0 0 0 0 0 0
A 36 1 0 0 0 6 648 0 0 0 0 0 0 0 0 0 0 0 0 0
A 37 1 0 0 0 6 645 0 0 0 0 0 0 0 0 0 0 0 0 0
A 38 1 0 0 0 6 644 0 0 0 0 0 0 0 0 0 0 0 0 0
A 39 1 0 0 0 6 649 0 0 0 0 0 0 0 0 0 0 0 0 0
A 40 1 0 0 0 6 646 0 0 0 0 0 0 0 0 0 0 0 0 0
A 41 1 0 0 0 6 652 0 0 0 0 0 0 0 0 0 0 0 0 0
A 42 1 0 0 0 6 650 0 0 0 0 0 0 0 0 0 0 0 0 0
A 43 1 0 0 0 6 653 0 0 0 0 0 0 0 0 0 0 0 0 0
A 44 1 0 0 0 6 651 0 0 0 0 0 0 0 0 0 0 0 0 0
A 45 1 0 0 0 0 426 0 0 0 0 0 0 0 0 0 0 0 0 0
A 46 1 0 1 0 62 639 0 0 0 0 0 0 0 0 0 0 0 0 0
A 47 2 0 0 0 6 654 0 0 0 47 0 0 0 0 0 0 0 0 0
A 48 14 0 0 0 6 45 0 0 0 0 0 0 243 2 1 0 0 0 0
W 2 46 47
A 49 1 0 0 0 6 655 0 0 0 0 0 0 0 0 0 0 0 0 0
A 51 1 0 0 0 6 670 0 0 0 0 0 0 0 0 0 0 0 0 0
A 52 1 0 0 0 6 666 0 0 0 0 0 0 0 0 0 0 0 0 0
A 53 1 0 0 0 6 671 0 0 0 0 0 0 0 0 0 0 0 0 0
A 54 1 0 0 0 6 668 0 0 0 0 0 0 0 0 0 0 0 0 0
A 55 1 0 0 0 6 667 0 0 0 0 0 0 0 0 0 0 0 0 0
A 56 1 0 0 0 6 672 0 0 0 0 0 0 0 0 0 0 0 0 0
A 57 1 0 0 0 6 669 0 0 0 0 0 0 0 0 0 0 0 0 0
A 58 1 0 0 0 6 675 0 0 0 0 0 0 0 0 0 0 0 0 0
A 59 1 0 0 0 6 673 0 0 0 0 0 0 0 0 0 0 0 0 0
A 60 1 0 0 0 6 676 0 0 0 0 0 0 0 0 0 0 0 0 0
A 61 1 0 0 0 6 674 0 0 0 0 0 0 0 0 0 0 0 0 0
A 62 1 0 0 0 6 662 0 0 0 0 0 0 0 0 0 0 0 0 0
A 63 1 0 0 0 6 677 0 0 0 0 0 0 0 0 0 0 0 0 0
A 64 1 0 0 0 6 690 0 0 0 0 0 0 0 0 0 0 0 0 0
A 65 1 0 0 11 6 684 0 0 0 0 0 0 0 0 0 0 0 0 0
A 66 1 0 0 0 6 691 0 0 0 0 0 0 0 0 0 0 0 0 0
A 67 1 0 0 0 6 686 0 0 0 0 0 0 0 0 0 0 0 0 0
A 68 1 0 0 0 6 685 0 0 0 0 0 0 0 0 0 0 0 0 0
A 69 1 0 0 0 6 692 0 0 0 0 0 0 0 0 0 0 0 0 0
A 70 1 0 0 0 6 688 0 0 0 0 0 0 0 0 0 0 0 0 0
A 71 1 0 0 0 6 687 0 0 0 0 0 0 0 0 0 0 0 0 0
A 72 1 0 0 0 6 693 0 0 0 0 0 0 0 0 0 0 0 0 0
A 73 1 0 0 17 6 689 0 0 0 0 0 0 0 0 0 0 0 0 0
A 74 1 0 0 0 6 706 0 0 0 0 0 0 0 0 0 0 0 0 0
A 75 1 0 0 0 6 700 0 0 0 0 0 0 0 0 0 0 0 0 0
A 76 1 0 0 0 6 707 0 0 0 0 0 0 0 0 0 0 0 0 0
A 77 1 0 0 0 6 702 0 0 0 0 0 0 0 0 0 0 0 0 0
A 78 1 0 0 0 6 701 0 0 0 0 0 0 0 0 0 0 0 0 0
A 79 1 0 0 0 6 708 0 0 0 0 0 0 0 0 0 0 0 0 0
A 80 1 0 0 0 6 704 0 0 0 0 0 0 0 0 0 0 0 0 0
A 81 1 0 0 0 6 703 0 0 0 0 0 0 0 0 0 0 0 0 0
A 82 1 0 0 0 6 709 0 0 0 0 0 0 0 0 0 0 0 0 0
A 83 1 0 0 0 6 705 0 0 0 0 0 0 0 0 0 0 0 0 0
A 84 1 0 0 0 6 712 0 0 0 0 0 0 0 0 0 0 0 0 0
A 85 1 0 0 0 6 710 0 0 0 0 0 0 0 0 0 0 0 0 0
A 86 1 0 0 0 6 713 0 0 0 0 0 0 0 0 0 0 0 0 0
A 87 1 0 0 0 6 711 0 0 0 0 0 0 0 0 0 0 0 0 0
A 88 1 0 0 0 6 723 0 0 0 0 0 0 0 0 0 0 0 0 0
A 89 1 0 0 0 6 721 0 0 0 0 0 0 0 0 0 0 0 0 0
A 90 1 0 0 0 6 724 0 0 0 0 0 0 0 0 0 0 0 0 0
A 91 1 0 0 0 6 722 0 0 0 0 0 0 0 0 0 0 0 0 0
A 92 1 0 0 0 6 727 0 0 0 0 0 0 0 0 0 0 0 0 0
A 93 1 0 0 0 6 725 0 0 0 0 0 0 0 0 0 0 0 0 0
A 94 1 0 0 0 6 728 0 0 0 0 0 0 0 0 0 0 0 0 0
A 95 1 0 0 0 6 726 0 0 0 0 0 0 0 0 0 0 0 0 0
A 96 1 0 0 0 6 738 0 0 0 0 0 0 0 0 0 0 0 0 0
A 97 1 0 0 0 6 736 0 0 0 0 0 0 0 0 0 0 0 0 0
A 98 1 0 0 0 6 739 0 0 0 0 0 0 0 0 0 0 0 0 0
A 99 1 0 0 0 6 737 0 0 0 0 0 0 0 0 0 0 0 0 0
A 100 1 0 0 0 6 742 0 0 0 0 0 0 0 0 0 0 0 0 0
A 101 1 0 0 0 6 740 0 0 0 0 0 0 0 0 0 0 0 0 0
A 102 1 0 0 0 6 743 0 0 0 0 0 0 0 0 0 0 0 0 0
A 103 1 0 0 0 6 741 0 0 0 0 0 0 0 0 0 0 0 0 0
A 104 1 0 0 0 6 752 0 0 0 0 0 0 0 0 0 0 0 0 0
A 105 1 0 0 0 6 750 0 0 0 0 0 0 0 0 0 0 0 0 0
A 106 1 0 0 0 6 753 0 0 0 0 0 0 0 0 0 0 0 0 0
A 107 1 0 0 46 6 751 0 0 0 0 0 0 0 0 0 0 0 0 0
A 108 1 0 0 0 6 756 0 0 0 0 0 0 0 0 0 0 0 0 0
A 109 1 0 0 0 6 754 0 0 0 0 0 0 0 0 0 0 0 0 0
A 110 1 0 0 0 6 757 0 0 0 0 0 0 0 0 0 0 0 0 0
A 111 1 0 0 0 6 755 0 0 0 0 0 0 0 0 0 0 0 0 0
A 112 1 0 0 47 6 766 0 0 0 0 0 0 0 0 0 0 0 0 0
A 113 1 0 0 0 6 764 0 0 0 0 0 0 0 0 0 0 0 0 0
A 114 1 0 0 0 6 767 0 0 0 0 0 0 0 0 0 0 0 0 0
A 115 1 0 0 0 6 765 0 0 0 0 0 0 0 0 0 0 0 0 0
A 116 1 0 0 0 6 770 0 0 0 0 0 0 0 0 0 0 0 0 0
A 117 1 0 0 0 6 768 0 0 0 0 0 0 0 0 0 0 0 0 0
A 118 1 0 0 0 6 771 0 0 0 0 0 0 0 0 0 0 0 0 0
A 119 1 0 0 0 6 769 0 0 0 0 0 0 0 0 0 0 0 0 0
A 120 1 0 0 0 6 779 0 0 0 0 0 0 0 0 0 0 0 0 0
A 121 1 0 0 0 6 777 0 0 0 0 0 0 0 0 0 0 0 0 0
A 122 1 0 0 0 6 780 0 0 0 0 0 0 0 0 0 0 0 0 0
A 123 1 0 0 0 6 778 0 0 0 0 0 0 0 0 0 0 0 0 0
A 124 1 0 0 0 6 783 0 0 0 0 0 0 0 0 0 0 0 0 0
A 125 1 0 0 0 6 781 0 0 0 0 0 0 0 0 0 0 0 0 0
A 126 1 0 0 0 6 784 0 0 0 0 0 0 0 0 0 0 0 0 0
A 127 1 0 0 0 6 782 0 0 0 0 0 0 0 0 0 0 0 0 0
A 128 1 0 0 0 6 793 0 0 0 0 0 0 0 0 0 0 0 0 0
A 129 1 0 0 0 6 791 0 0 0 0 0 0 0 0 0 0 0 0 0
A 130 1 0 0 0 6 794 0 0 0 0 0 0 0 0 0 0 0 0 0
A 131 1 0 0 0 6 792 0 0 0 0 0 0 0 0 0 0 0 0 0
A 132 1 0 0 0 6 797 0 0 0 0 0 0 0 0 0 0 0 0 0
A 133 1 0 0 0 6 795 0 0 0 0 0 0 0 0 0 0 0 0 0
A 134 1 0 0 0 6 798 0 0 0 0 0 0 0 0 0 0 0 0 0
A 135 1 0 0 0 6 796 0 0 0 0 0 0 0 0 0 0 0 0 0
A 136 1 0 0 0 6 807 0 0 0 0 0 0 0 0 0 0 0 0 0
A 137 1 0 0 0 6 803 0 0 0 0 0 0 0 0 0 0 0 0 0
A 138 1 0 0 0 6 808 0 0 0 0 0 0 0 0 0 0 0 0 0
A 139 1 0 0 0 6 805 0 0 0 0 0 0 0 0 0 0 0 0 0
A 140 1 0 0 0 6 804 0 0 0 0 0 0 0 0 0 0 0 0 0
A 141 1 0 0 0 6 809 0 0 0 0 0 0 0 0 0 0 0 0 0
A 142 1 0 0 0 6 806 0 0 0 0 0 0 0 0 0 0 0 0 0
A 143 1 0 0 0 6 816 0 0 0 0 0 0 0 0 0 0 0 0 0
A 144 1 0 0 0 6 814 0 0 0 0 0 0 0 0 0 0 0 0 0
A 145 1 0 0 0 6 817 0 0 0 0 0 0 0 0 0 0 0 0 0
A 146 1 0 0 0 6 815 0 0 0 0 0 0 0 0 0 0 0 0 0
A 147 1 0 0 0 6 827 0 0 0 0 0 0 0 0 0 0 0 0 0
A 148 1 0 0 0 6 825 0 0 0 0 0 0 0 0 0 0 0 0 0
A 149 1 0 0 0 6 828 0 0 0 0 0 0 0 0 0 0 0 0 0
A 150 1 0 0 0 6 826 0 0 0 0 0 0 0 0 0 0 0 0 0
A 151 1 0 0 0 6 831 0 0 0 0 0 0 0 0 0 0 0 0 0
A 152 1 0 0 0 6 829 0 0 0 0 0 0 0 0 0 0 0 0 0
A 153 1 0 0 0 6 832 0 0 0 0 0 0 0 0 0 0 0 0 0
A 154 1 0 0 0 6 830 0 0 0 0 0 0 0 0 0 0 0 0 0
A 155 1 0 0 0 6 835 0 0 0 0 0 0 0 0 0 0 0 0 0
A 156 1 0 0 0 6 833 0 0 0 0 0 0 0 0 0 0 0 0 0
A 157 1 0 0 0 6 836 0 0 0 0 0 0 0 0 0 0 0 0 0
A 158 1 0 0 0 6 834 0 0 0 0 0 0 0 0 0 0 0 0 0
A 159 1 0 0 9 6 847 0 0 0 0 0 0 0 0 0 0 0 0 0
A 160 1 0 0 0 6 845 0 0 0 0 0 0 0 0 0 0 0 0 0
A 161 1 0 0 0 6 848 0 0 0 0 0 0 0 0 0 0 0 0 0
A 162 1 0 0 0 6 846 0 0 0 0 0 0 0 0 0 0 0 0 0
A 163 1 0 0 0 6 851 0 0 0 0 0 0 0 0 0 0 0 0 0
A 164 1 0 0 0 6 849 0 0 0 0 0 0 0 0 0 0 0 0 0
A 165 1 0 0 0 6 852 0 0 0 0 0 0 0 0 0 0 0 0 0
A 166 1 0 0 0 6 850 0 0 0 0 0 0 0 0 0 0 0 0 0
A 167 1 0 0 0 6 855 0 0 0 0 0 0 0 0 0 0 0 0 0
A 168 1 0 0 0 6 853 0 0 0 0 0 0 0 0 0 0 0 0 0
A 169 1 0 0 0 6 856 0 0 0 0 0 0 0 0 0 0 0 0 0
A 170 1 0 0 0 6 854 0 0 0 0 0 0 0 0 0 0 0 0 0
A 171 1 0 0 0 6 859 0 0 0 0 0 0 0 0 0 0 0 0 0
A 172 1 0 0 0 6 857 0 0 0 0 0 0 0 0 0 0 0 0 0
A 173 1 0 0 0 6 860 0 0 0 0 0 0 0 0 0 0 0 0 0
A 174 1 0 0 0 6 858 0 0 0 0 0 0 0 0 0 0 0 0 0
A 175 1 0 0 0 6 873 0 0 0 0 0 0 0 0 0 0 0 0 0
A 176 1 0 0 0 6 871 0 0 0 0 0 0 0 0 0 0 0 0 0
A 177 1 0 0 0 6 874 0 0 0 0 0 0 0 0 0 0 0 0 0
A 178 1 0 0 0 6 872 0 0 0 0 0 0 0 0 0 0 0 0 0
A 179 1 0 0 0 6 877 0 0 0 0 0 0 0 0 0 0 0 0 0
A 180 1 0 0 0 6 875 0 0 0 0 0 0 0 0 0 0 0 0 0
A 181 1 0 0 0 6 878 0 0 0 0 0 0 0 0 0 0 0 0 0
A 182 1 0 0 0 6 876 0 0 0 0 0 0 0 0 0 0 0 0 0
A 183 1 0 0 0 6 881 0 0 0 0 0 0 0 0 0 0 0 0 0
A 184 1 0 0 0 6 879 0 0 0 0 0 0 0 0 0 0 0 0 0
A 185 1 0 0 0 6 882 0 0 0 0 0 0 0 0 0 0 0 0 0
A 186 1 0 0 0 6 880 0 0 0 0 0 0 0 0 0 0 0 0 0
A 187 1 0 0 0 6 885 0 0 0 0 0 0 0 0 0 0 0 0 0
A 188 1 0 0 0 6 883 0 0 0 0 0 0 0 0 0 0 0 0 0
A 189 1 0 0 0 6 886 0 0 0 0 0 0 0 0 0 0 0 0 0
A 190 1 0 0 0 6 884 0 0 0 0 0 0 0 0 0 0 0 0 0
A 191 1 0 0 0 6 896 0 0 0 0 0 0 0 0 0 0 0 0 0
A 192 1 0 0 0 6 894 0 0 0 0 0 0 0 0 0 0 0 0 0
A 193 1 0 0 0 6 897 0 0 0 0 0 0 0 0 0 0 0 0 0
A 194 1 0 0 0 6 895 0 0 0 0 0 0 0 0 0 0 0 0 0
A 195 1 0 0 0 6 900 0 0 0 0 0 0 0 0 0 0 0 0 0
A 196 1 0 0 0 6 898 0 0 0 0 0 0 0 0 0 0 0 0 0
A 197 1 0 0 0 6 901 0 0 0 0 0 0 0 0 0 0 0 0 0
A 198 1 0 0 0 6 899 0 0 0 0 0 0 0 0 0 0 0 0 0
A 199 1 0 0 0 6 904 0 0 0 0 0 0 0 0 0 0 0 0 0
A 200 1 0 0 0 6 902 0 0 0 0 0 0 0 0 0 0 0 0 0
A 201 1 0 0 0 6 905 0 0 0 0 0 0 0 0 0 0 0 0 0
A 202 1 0 0 0 6 903 0 0 0 0 0 0 0 0 0 0 0 0 0
Z
Z
