V26 write_upf_v2_module
16 write_upf_v2.F90 S582 0
04/24/2012  15:51:12
use radial_grids private
use pseudo_types private
use kinds private
use radial_grids private
use pseudo_types private
use kinds private
enduse
D 178 24 794 5360 793 7
D 184 18 2
D 1159 24 3469 656 3467 7
D 1165 18 409
D 1167 18 174
D 1169 21 1167 1 1135 1134 0 1 0 0 1
 1129 1132 1133 1129 1132 1130
D 1172 21 6 1 0 19 0 0 0 0 0
 0 19 0 3 19 0
D 1175 21 6 1 1144 1143 0 1 0 0 1
 1138 1141 1142 1138 1141 1139
D 1178 21 6 1 0 19 0 0 0 0 0
 0 19 0 3 19 0
D 1181 21 6 1 1153 1152 0 1 0 0 1
 1147 1150 1151 1147 1150 1148
D 1184 21 6 1 0 19 0 0 0 0 0
 0 19 0 3 19 0
D 1187 21 9 1 1162 1161 0 1 0 0 1
 1156 1159 1160 1156 1159 1157
D 1190 21 6 1 0 19 0 0 0 0 0
 0 19 0 3 19 0
D 1193 21 9 1 1171 1170 0 1 0 0 1
 1165 1168 1169 1165 1168 1166
D 1196 21 6 1 0 19 0 0 0 0 0
 0 19 0 3 19 0
D 1199 21 9 1 1180 1179 0 1 0 0 1
 1174 1177 1178 1174 1177 1175
D 1202 21 6 1 0 19 0 0 0 0 0
 0 19 0 3 19 0
D 1205 21 9 1 1189 1188 0 1 0 0 1
 1183 1186 1187 1183 1186 1184
D 1208 21 6 1 0 19 0 0 0 0 0
 0 19 0 3 19 0
D 1211 21 6 1 0 3 0 0 0 0 0
 0 3 0 3 3 0
S 582 24 0 0 0 9 1 0 4658 10015 0 A 0 0 0 0 0 0 0 0 0 0 0 0 0 0 0 0 0 0 0 0 0 11 0 0 0 0 0 0 write_upf_v2_module
S 584 23 0 0 0 9 592 582 4684 14 0 A 0 0 0 0 0 0 0 0 0 0 0 0 0 0 0 0 0 0 0 0 0 0 0 582 0 0 0 0 dp
S 586 23 0 0 0 9 793 582 4700 14 0 A 0 0 0 0 0 0 0 0 0 0 0 0 0 0 0 0 0 0 0 0 0 0 0 582 0 0 0 0 pseudo_upf
S 588 23 0 0 0 9 608 582 4724 14 0 A 0 0 0 0 0 0 0 0 0 0 0 0 0 0 0 0 0 0 0 0 0 0 0 582 0 0 0 0 radial_grid_type
S 590 3 0 0 0 6 1 1 0 0 0 A 0 0 0 0 0 0 0 0 0 8 0 0 0 0 0 0 0 0 0 0 0 0 0 0 0 0 0 0 6
R 592 16 1 kinds dp
S 600 3 0 0 0 6 1 1 0 0 0 A 0 0 0 0 0 0 0 0 0 18 0 0 0 0 0 0 0 0 0 0 0 0 0 0 0 0 0 0 6
S 601 3 0 0 0 6 1 1 0 0 0 A 0 0 0 0 0 0 0 0 0 13 0 0 0 0 0 0 0 0 0 0 0 0 0 0 0 0 0 0 6
S 602 3 0 0 0 6 1 1 0 0 0 A 0 0 0 0 0 0 0 0 0 14 0 0 0 0 0 0 0 0 0 0 0 0 0 0 0 0 0 0 6
S 603 3 0 0 0 6 1 1 0 0 0 A 0 0 0 0 0 0 0 0 0 17 0 0 0 0 0 0 0 0 0 0 0 0 0 0 0 0 0 0 6
S 604 3 0 0 0 6 1 1 0 0 0 A 0 0 0 0 0 0 0 0 0 7 0 0 0 0 0 0 0 0 0 0 0 0 0 0 0 0 0 0 6
R 608 25 3 radial_grids radial_grid_type
S 733 3 0 0 0 20 1 1 0 0 0 A 0 0 0 0 0 0 0 0 5404 0 0 0 0 0 0 0 0 0 0 0 0 0 0 0 0 0 0 0 18 1 0
S 735 3 0 0 0 6 1 1 0 0 0 A 0 0 0 0 0 0 0 0 0 2 0 0 0 0 0 0 0 0 0 0 0 0 0 0 0 0 0 0 6
S 741 3 0 0 0 6 1 1 0 0 0 A 0 0 0 0 0 0 0 0 0 32 0 0 0 0 0 0 0 0 0 0 0 0 0 0 0 0 0 0 6
R 793 25 51 pseudo_types pseudo_upf
R 794 5 52 pseudo_types generated pseudo_upf
R 795 5 53 pseudo_types author pseudo_upf
R 796 5 54 pseudo_types date pseudo_upf
R 797 5 55 pseudo_types comment pseudo_upf
R 798 5 56 pseudo_types psd pseudo_upf
R 799 5 57 pseudo_types typ pseudo_upf
R 800 5 58 pseudo_types rel pseudo_upf
R 801 5 59 pseudo_types tvanp pseudo_upf
R 802 5 60 pseudo_types tcoulombp pseudo_upf
R 803 5 61 pseudo_types nlcc pseudo_upf
R 804 5 62 pseudo_types dft pseudo_upf
R 805 5 63 pseudo_types zp pseudo_upf
R 806 5 64 pseudo_types etotps pseudo_upf
R 807 5 65 pseudo_types ecutwfc pseudo_upf
R 808 5 66 pseudo_types ecutrho pseudo_upf
R 809 5 67 pseudo_types nv pseudo_upf
R 810 5 68 pseudo_types lmax pseudo_upf
R 811 5 69 pseudo_types lmax_rho pseudo_upf
R 812 5 70 pseudo_types nwfc pseudo_upf
R 813 5 71 pseudo_types nbeta pseudo_upf
R 814 5 72 pseudo_types kbeta pseudo_upf
R 816 5 74 pseudo_types kbeta$sd pseudo_upf
R 817 5 75 pseudo_types kbeta$p pseudo_upf
R 818 5 76 pseudo_types kbeta$o pseudo_upf
R 820 5 78 pseudo_types kkbeta pseudo_upf
R 821 5 79 pseudo_types lll pseudo_upf
R 823 5 81 pseudo_types lll$sd pseudo_upf
R 824 5 82 pseudo_types lll$p pseudo_upf
R 825 5 83 pseudo_types lll$o pseudo_upf
R 827 5 85 pseudo_types beta pseudo_upf
R 830 5 88 pseudo_types beta$sd pseudo_upf
R 831 5 89 pseudo_types beta$p pseudo_upf
R 832 5 90 pseudo_types beta$o pseudo_upf
R 834 5 92 pseudo_types els pseudo_upf
R 836 5 94 pseudo_types els$sd pseudo_upf
R 837 5 95 pseudo_types els$p pseudo_upf
R 838 5 96 pseudo_types els$o pseudo_upf
R 840 5 98 pseudo_types els_beta pseudo_upf
R 842 5 100 pseudo_types els_beta$sd pseudo_upf
R 843 5 101 pseudo_types els_beta$p pseudo_upf
R 844 5 102 pseudo_types els_beta$o pseudo_upf
R 846 5 104 pseudo_types nchi pseudo_upf
R 848 5 106 pseudo_types nchi$sd pseudo_upf
R 849 5 107 pseudo_types nchi$p pseudo_upf
R 850 5 108 pseudo_types nchi$o pseudo_upf
R 852 5 110 pseudo_types lchi pseudo_upf
R 854 5 112 pseudo_types lchi$sd pseudo_upf
R 855 5 113 pseudo_types lchi$p pseudo_upf
R 856 5 114 pseudo_types lchi$o pseudo_upf
R 859 5 117 pseudo_types oc pseudo_upf
R 860 5 118 pseudo_types oc$sd pseudo_upf
R 861 5 119 pseudo_types oc$p pseudo_upf
R 862 5 120 pseudo_types oc$o pseudo_upf
R 864 5 122 pseudo_types epseu pseudo_upf
R 866 5 124 pseudo_types epseu$sd pseudo_upf
R 867 5 125 pseudo_types epseu$p pseudo_upf
R 868 5 126 pseudo_types epseu$o pseudo_upf
R 870 5 128 pseudo_types rcut_chi pseudo_upf
R 872 5 130 pseudo_types rcut_chi$sd pseudo_upf
R 873 5 131 pseudo_types rcut_chi$p pseudo_upf
R 874 5 132 pseudo_types rcut_chi$o pseudo_upf
R 876 5 134 pseudo_types rcutus_chi pseudo_upf
R 878 5 136 pseudo_types rcutus_chi$sd pseudo_upf
R 879 5 137 pseudo_types rcutus_chi$p pseudo_upf
R 880 5 138 pseudo_types rcutus_chi$o pseudo_upf
R 882 5 140 pseudo_types chi pseudo_upf
R 885 5 143 pseudo_types chi$sd pseudo_upf
R 886 5 144 pseudo_types chi$p pseudo_upf
R 887 5 145 pseudo_types chi$o pseudo_upf
R 889 5 147 pseudo_types rho_at pseudo_upf
R 891 5 149 pseudo_types rho_at$sd pseudo_upf
R 892 5 150 pseudo_types rho_at$p pseudo_upf
R 893 5 151 pseudo_types rho_at$o pseudo_upf
R 895 5 153 pseudo_types mesh pseudo_upf
R 896 5 154 pseudo_types xmin pseudo_upf
R 897 5 155 pseudo_types rmax pseudo_upf
R 898 5 156 pseudo_types zmesh pseudo_upf
R 899 5 157 pseudo_types dx pseudo_upf
R 901 5 159 pseudo_types r pseudo_upf
R 902 5 160 pseudo_types r$sd pseudo_upf
R 903 5 161 pseudo_types r$p pseudo_upf
R 904 5 162 pseudo_types r$o pseudo_upf
R 907 5 165 pseudo_types rab pseudo_upf
R 908 5 166 pseudo_types rab$sd pseudo_upf
R 909 5 167 pseudo_types rab$p pseudo_upf
R 910 5 168 pseudo_types rab$o pseudo_upf
R 912 5 170 pseudo_types rho_atc pseudo_upf
R 914 5 172 pseudo_types rho_atc$sd pseudo_upf
R 915 5 173 pseudo_types rho_atc$p pseudo_upf
R 916 5 174 pseudo_types rho_atc$o pseudo_upf
R 918 5 176 pseudo_types lloc pseudo_upf
R 919 5 177 pseudo_types rcloc pseudo_upf
R 920 5 178 pseudo_types vloc pseudo_upf
R 922 5 180 pseudo_types vloc$sd pseudo_upf
R 923 5 181 pseudo_types vloc$p pseudo_upf
R 924 5 182 pseudo_types vloc$o pseudo_upf
R 926 5 184 pseudo_types dion pseudo_upf
R 929 5 187 pseudo_types dion$sd pseudo_upf
R 930 5 188 pseudo_types dion$p pseudo_upf
R 931 5 189 pseudo_types dion$o pseudo_upf
R 933 5 191 pseudo_types q_with_l pseudo_upf
R 934 5 192 pseudo_types nqf pseudo_upf
R 935 5 193 pseudo_types nqlc pseudo_upf
R 936 5 194 pseudo_types qqq_eps pseudo_upf
R 937 5 195 pseudo_types rinner pseudo_upf
R 939 5 197 pseudo_types rinner$sd pseudo_upf
R 940 5 198 pseudo_types rinner$p pseudo_upf
R 941 5 199 pseudo_types rinner$o pseudo_upf
R 943 5 201 pseudo_types qqq pseudo_upf
R 946 5 204 pseudo_types qqq$sd pseudo_upf
R 947 5 205 pseudo_types qqq$p pseudo_upf
R 948 5 206 pseudo_types qqq$o pseudo_upf
R 950 5 208 pseudo_types qfunc pseudo_upf
R 953 5 211 pseudo_types qfunc$sd pseudo_upf
R 954 5 212 pseudo_types qfunc$p pseudo_upf
R 955 5 213 pseudo_types qfunc$o pseudo_upf
R 957 5 215 pseudo_types qfuncl pseudo_upf
R 961 5 219 pseudo_types qfuncl$sd pseudo_upf
R 962 5 220 pseudo_types qfuncl$p pseudo_upf
R 963 5 221 pseudo_types qfuncl$o pseudo_upf
R 965 5 223 pseudo_types qfcoef pseudo_upf
R 970 5 228 pseudo_types qfcoef$sd pseudo_upf
R 971 5 229 pseudo_types qfcoef$p pseudo_upf
R 972 5 230 pseudo_types qfcoef$o pseudo_upf
R 974 5 232 pseudo_types has_wfc pseudo_upf
R 975 5 233 pseudo_types aewfc pseudo_upf
R 978 5 236 pseudo_types aewfc$sd pseudo_upf
R 979 5 237 pseudo_types aewfc$p pseudo_upf
R 980 5 238 pseudo_types aewfc$o pseudo_upf
R 982 5 240 pseudo_types pswfc pseudo_upf
R 985 5 243 pseudo_types pswfc$sd pseudo_upf
R 986 5 244 pseudo_types pswfc$p pseudo_upf
R 987 5 245 pseudo_types pswfc$o pseudo_upf
R 989 5 247 pseudo_types has_so pseudo_upf
R 990 5 248 pseudo_types nn pseudo_upf
R 992 5 250 pseudo_types nn$sd pseudo_upf
R 993 5 251 pseudo_types nn$p pseudo_upf
R 994 5 252 pseudo_types nn$o pseudo_upf
R 996 5 254 pseudo_types rcut pseudo_upf
R 998 5 256 pseudo_types rcut$sd pseudo_upf
R 999 5 257 pseudo_types rcut$p pseudo_upf
R 1000 5 258 pseudo_types rcut$o pseudo_upf
R 1002 5 260 pseudo_types rcutus pseudo_upf
R 1004 5 262 pseudo_types rcutus$sd pseudo_upf
R 1005 5 263 pseudo_types rcutus$p pseudo_upf
R 1006 5 264 pseudo_types rcutus$o pseudo_upf
R 1008 5 266 pseudo_types jchi pseudo_upf
R 1010 5 268 pseudo_types jchi$sd pseudo_upf
R 1011 5 269 pseudo_types jchi$p pseudo_upf
R 1012 5 270 pseudo_types jchi$o pseudo_upf
R 1014 5 272 pseudo_types jjj pseudo_upf
R 1016 5 274 pseudo_types jjj$sd pseudo_upf
R 1017 5 275 pseudo_types jjj$p pseudo_upf
R 1018 5 276 pseudo_types jjj$o pseudo_upf
R 1020 5 278 pseudo_types paw_data_format pseudo_upf
R 1021 5 279 pseudo_types tpawp pseudo_upf
R 1022 5 280 pseudo_types paw pseudo_upf
R 1023 5 281 pseudo_types grid pseudo_upf
R 1025 5 283 pseudo_types grid$p pseudo_upf
R 1027 5 285 pseudo_types has_gipaw pseudo_upf
R 1028 5 286 pseudo_types gipaw_data_format pseudo_upf
R 1029 5 287 pseudo_types gipaw_ncore_orbitals pseudo_upf
R 1030 5 288 pseudo_types gipaw_core_orbital_n pseudo_upf
R 1032 5 290 pseudo_types gipaw_core_orbital_n$sd pseudo_upf
R 1033 5 291 pseudo_types gipaw_core_orbital_n$p pseudo_upf
R 1034 5 292 pseudo_types gipaw_core_orbital_n$o pseudo_upf
R 1036 5 294 pseudo_types gipaw_core_orbital_l pseudo_upf
R 1038 5 296 pseudo_types gipaw_core_orbital_l$sd pseudo_upf
R 1039 5 297 pseudo_types gipaw_core_orbital_l$p pseudo_upf
R 1040 5 298 pseudo_types gipaw_core_orbital_l$o pseudo_upf
R 1042 5 300 pseudo_types gipaw_core_orbital_el pseudo_upf
R 1044 5 302 pseudo_types gipaw_core_orbital_el$sd pseudo_upf
R 1045 5 303 pseudo_types gipaw_core_orbital_el$p pseudo_upf
R 1046 5 304 pseudo_types gipaw_core_orbital_el$o pseudo_upf
R 1048 5 306 pseudo_types gipaw_core_orbital pseudo_upf
R 1051 5 309 pseudo_types gipaw_core_orbital$sd pseudo_upf
R 1052 5 310 pseudo_types gipaw_core_orbital$p pseudo_upf
R 1053 5 311 pseudo_types gipaw_core_orbital$o pseudo_upf
R 1055 5 313 pseudo_types gipaw_vlocal_ae pseudo_upf
R 1057 5 315 pseudo_types gipaw_vlocal_ae$sd pseudo_upf
R 1058 5 316 pseudo_types gipaw_vlocal_ae$p pseudo_upf
R 1059 5 317 pseudo_types gipaw_vlocal_ae$o pseudo_upf
R 1061 5 319 pseudo_types gipaw_vlocal_ps pseudo_upf
R 1063 5 321 pseudo_types gipaw_vlocal_ps$sd pseudo_upf
R 1064 5 322 pseudo_types gipaw_vlocal_ps$p pseudo_upf
R 1065 5 323 pseudo_types gipaw_vlocal_ps$o pseudo_upf
R 1067 5 325 pseudo_types gipaw_wfs_nchannels pseudo_upf
R 1068 5 326 pseudo_types gipaw_wfs_el pseudo_upf
R 1070 5 328 pseudo_types gipaw_wfs_el$sd pseudo_upf
R 1071 5 329 pseudo_types gipaw_wfs_el$p pseudo_upf
R 1072 5 330 pseudo_types gipaw_wfs_el$o pseudo_upf
R 1074 5 332 pseudo_types gipaw_wfs_ll pseudo_upf
R 1076 5 334 pseudo_types gipaw_wfs_ll$sd pseudo_upf
R 1077 5 335 pseudo_types gipaw_wfs_ll$p pseudo_upf
R 1078 5 336 pseudo_types gipaw_wfs_ll$o pseudo_upf
R 1080 5 338 pseudo_types gipaw_wfs_ae pseudo_upf
R 1083 5 341 pseudo_types gipaw_wfs_ae$sd pseudo_upf
R 1084 5 342 pseudo_types gipaw_wfs_ae$p pseudo_upf
R 1085 5 343 pseudo_types gipaw_wfs_ae$o pseudo_upf
R 1087 5 345 pseudo_types gipaw_wfs_rcut pseudo_upf
R 1089 5 347 pseudo_types gipaw_wfs_rcut$sd pseudo_upf
R 1090 5 348 pseudo_types gipaw_wfs_rcut$p pseudo_upf
R 1091 5 349 pseudo_types gipaw_wfs_rcut$o pseudo_upf
R 1093 5 351 pseudo_types gipaw_wfs_rcutus pseudo_upf
R 1095 5 353 pseudo_types gipaw_wfs_rcutus$sd pseudo_upf
R 1096 5 354 pseudo_types gipaw_wfs_rcutus$p pseudo_upf
R 1097 5 355 pseudo_types gipaw_wfs_rcutus$o pseudo_upf
R 1099 5 357 pseudo_types gipaw_wfs_ps pseudo_upf
R 1102 5 360 pseudo_types gipaw_wfs_ps$sd pseudo_upf
R 1103 5 361 pseudo_types gipaw_wfs_ps$p pseudo_upf
R 1104 5 362 pseudo_types gipaw_wfs_ps$o pseudo_upf
S 3466 27 0 0 0 9 3515 582 18766 0 0 A 0 0 0 0 0 0 0 0 0 0 0 0 0 0 0 0 0 0 0 0 0 0 0 582 0 0 0 0 write_upf_v2
S 3467 25 0 0 0 1159 1 582 18779 10000004 800014 A 0 0 0 0 0 0 0 0 0 0 0 0 0 0 0 0 0 0 0 3513 0 0 0 582 0 0 0 0 pseudo_config
S 3468 27 0 0 0 9 3520 582 18793 0 0 A 0 0 0 0 0 0 0 0 0 0 0 0 0 0 0 0 0 0 0 0 0 0 0 582 0 0 0 0 deallocate_pseudo_config
S 3469 5 0 0 0 6 3470 582 18818 800004 0 A 0 0 0 0 0 0 0 0 1159 0 0 0 0 0 0 0 0 0 0 0 1 3469 0 582 0 0 0 0 nwfs
S 3470 5 0 0 0 1165 3472 582 18823 800004 0 A 0 0 0 0 0 4 0 0 1159 0 0 0 0 0 0 0 0 0 0 0 3469 3470 0 582 0 0 0 0 pseud
S 3471 6 4 0 0 6 3478 582 18829 40800016 0 A 0 0 0 0 0 0 0 0 0 0 0 0 3514 0 0 0 0 0 0 0 0 0 0 582 0 0 0 0 z_b_0_2
S 3472 5 6 0 0 1169 3474 582 6083 10a00004 14 A 0 0 0 0 0 40 3474 0 1159 0 3476 0 0 0 0 0 0 0 0 3473 3470 3472 3475 582 0 0 0 0 els
S 3473 5 0 0 0 1172 3477 582 6094 40822004 1020 A 0 0 0 0 0 56 0 0 1159 0 0 0 0 0 0 0 0 0 0 0 3475 3473 0 582 0 0 0 0 els$sd
S 3474 5 0 0 0 7 3475 582 6101 40802001 1020 A 0 0 0 0 0 40 0 0 1159 0 0 0 0 0 0 0 0 0 0 0 3472 3474 0 582 0 0 0 0 els$p
S 3475 5 0 0 0 7 3473 582 6107 40802000 1020 A 0 0 0 0 0 48 0 0 1159 0 0 0 0 0 0 0 0 0 0 0 3474 3475 0 582 0 0 0 0 els$o
S 3476 22 1 0 0 9 1 582 18837 40000000 1000 A 0 0 0 0 0 0 0 3472 0 0 0 0 3473 0 0 0 0 0 0 0 0 0 0 582 0 0 0 0 els$arrdsc1
S 3477 5 6 0 0 1175 3480 582 18849 10a00004 14 A 0 0 0 0 0 128 3480 0 1159 0 3482 0 0 0 0 0 0 0 0 3479 3472 3477 3481 582 0 0 0 0 nns
S 3478 6 4 0 0 6 3484 582 18853 40800016 0 A 0 0 0 0 0 4 0 0 0 0 0 0 3514 0 0 0 0 0 0 0 0 0 0 582 0 0 0 0 z_b_1_2
S 3479 5 0 0 0 1178 3483 582 18861 40822004 1020 A 0 0 0 0 0 144 0 0 1159 0 0 0 0 0 0 0 0 0 0 0 3481 3479 0 582 0 0 0 0 nns$sd
S 3480 5 0 0 0 7 3481 582 18868 40802001 1020 A 0 0 0 0 0 128 0 0 1159 0 0 0 0 0 0 0 0 0 0 0 3477 3480 0 582 0 0 0 0 nns$p
S 3481 5 0 0 0 7 3479 582 18874 40802000 1020 A 0 0 0 0 0 136 0 0 1159 0 0 0 0 0 0 0 0 0 0 0 3480 3481 0 582 0 0 0 0 nns$o
S 3482 22 1 0 0 6 1 582 18880 40000000 1000 A 0 0 0 0 0 0 0 3477 0 0 0 0 3479 0 0 0 0 0 0 0 0 0 0 582 0 0 0 0 nns$arrdsc
S 3483 5 6 0 0 1181 3486 582 18891 10a00004 14 A 0 0 0 0 0 216 3486 0 1159 0 3488 0 0 0 0 0 0 0 0 3485 3477 3483 3487 582 0 0 0 0 lls
S 3484 6 4 0 0 6 3490 582 18895 40800016 0 A 0 0 0 0 0 8 0 0 0 0 0 0 3514 0 0 0 0 0 0 0 0 0 0 582 0 0 0 0 z_b_2_2
S 3485 5 0 0 0 1184 3489 582 18903 40822004 1020 A 0 0 0 0 0 232 0 0 1159 0 0 0 0 0 0 0 0 0 0 0 3487 3485 0 582 0 0 0 0 lls$sd
S 3486 5 0 0 0 7 3487 582 18910 40802001 1020 A 0 0 0 0 0 216 0 0 1159 0 0 0 0 0 0 0 0 0 0 0 3483 3486 0 582 0 0 0 0 lls$p
S 3487 5 0 0 0 7 3485 582 18916 40802000 1020 A 0 0 0 0 0 224 0 0 1159 0 0 0 0 0 0 0 0 0 0 0 3486 3487 0 582 0 0 0 0 lls$o
S 3488 22 1 0 0 6 1 582 18922 40000000 1000 A 0 0 0 0 0 0 0 3483 0 0 0 0 3485 0 0 0 0 0 0 0 0 0 0 582 0 0 0 0 lls$arrdsc
S 3489 5 6 0 0 1187 3492 582 18933 10a00004 14 A 0 0 0 0 0 304 3492 0 1159 0 3494 0 0 0 0 0 0 0 0 3491 3483 3489 3493 582 0 0 0 0 ocs
S 3490 6 4 0 0 6 3495 582 18937 40800016 0 A 0 0 0 0 0 12 0 0 0 0 0 0 3514 0 0 0 0 0 0 0 0 0 0 582 0 0 0 0 z_b_3_2
S 3491 5 0 0 0 1190 3496 582 18945 40822004 1020 A 0 0 0 0 0 320 0 0 1159 0 0 0 0 0 0 0 0 0 0 0 3493 3491 0 582 0 0 0 0 ocs$sd
S 3492 5 0 0 0 7 3493 582 18952 40802001 1020 A 0 0 0 0 0 304 0 0 1159 0 0 0 0 0 0 0 0 0 0 0 3489 3492 0 582 0 0 0 0 ocs$p
S 3493 5 0 0 0 7 3491 582 18958 40802000 1020 A 0 0 0 0 0 312 0 0 1159 0 0 0 0 0 0 0 0 0 0 0 3492 3493 0 582 0 0 0 0 ocs$o
S 3494 22 1 0 0 9 1 582 18964 40000000 1000 A 0 0 0 0 0 0 0 3489 0 0 0 0 3491 0 0 0 0 0 0 0 0 0 0 582 0 0 0 0 ocs$arrdsc
S 3495 6 4 0 0 6 3501 582 18975 40800016 0 A 0 0 0 0 0 16 0 0 0 0 0 0 3514 0 0 0 0 0 0 0 0 0 0 582 0 0 0 0 z_b_4_2
S 3496 5 6 0 0 1193 3498 582 7306 10a00004 14 A 0 0 0 0 0 392 3498 0 1159 0 3500 0 0 0 0 0 0 0 0 3497 3489 3496 3499 582 0 0 0 0 rcut
S 3497 5 0 0 0 1196 3502 582 7318 40822004 1020 A 0 0 0 0 0 408 0 0 1159 0 0 0 0 0 0 0 0 0 0 0 3499 3497 0 582 0 0 0 0 rcut$sd
S 3498 5 0 0 0 7 3499 582 7326 40802001 1020 A 0 0 0 0 0 392 0 0 1159 0 0 0 0 0 0 0 0 0 0 0 3496 3498 0 582 0 0 0 0 rcut$p
S 3499 5 0 0 0 7 3497 582 7333 40802000 1020 A 0 0 0 0 0 400 0 0 1159 0 0 0 0 0 0 0 0 0 0 0 3498 3499 0 582 0 0 0 0 rcut$o
S 3500 22 1 0 0 9 1 582 18983 40000000 1000 A 0 0 0 0 0 0 0 3496 0 0 0 0 3497 0 0 0 0 0 0 0 0 0 0 582 0 0 0 0 rcut$arrdsc2
S 3501 6 4 0 0 6 3508 582 18996 40800016 0 A 0 0 0 0 0 20 0 0 0 0 0 0 3514 0 0 0 0 0 0 0 0 0 0 582 0 0 0 0 z_b_5_2
S 3502 5 6 0 0 1199 3504 582 7352 10a00004 14 A 0 0 0 0 0 480 3504 0 1159 0 3506 0 0 0 0 0 0 0 0 3503 3496 3502 3505 582 0 0 0 0 rcutus
S 3503 5 0 0 0 1202 3507 582 7366 40822004 1020 A 0 0 0 0 0 496 0 0 1159 0 0 0 0 0 0 0 0 0 0 0 3505 3503 0 582 0 0 0 0 rcutus$sd
S 3504 5 0 0 0 7 3505 582 7376 40802001 1020 A 0 0 0 0 0 480 0 0 1159 0 0 0 0 0 0 0 0 0 0 0 3502 3504 0 582 0 0 0 0 rcutus$p
S 3505 5 0 0 0 7 3503 582 7385 40802000 1020 A 0 0 0 0 0 488 0 0 1159 0 0 0 0 0 0 0 0 0 0 0 3504 3505 0 582 0 0 0 0 rcutus$o
S 3506 22 1 0 0 9 1 582 19004 40000000 1000 A 0 0 0 0 0 0 0 3502 0 0 0 0 3503 0 0 0 0 0 0 0 0 0 0 582 0 0 0 0 rcutus$arrdsc3
S 3507 5 6 0 0 1205 3510 582 19019 10a00004 14 A 0 0 0 0 0 568 3510 0 1159 0 3512 0 0 0 0 0 0 0 0 3509 3502 3507 3511 582 0 0 0 0 enls
S 3508 6 4 0 0 6 1 582 19024 40800016 0 A 0 0 0 0 0 24 0 0 0 0 0 0 3514 0 0 0 0 0 0 0 0 0 0 582 0 0 0 0 z_b_6_2
S 3509 5 0 0 0 1208 1 582 19032 40822004 1020 A 0 0 0 0 0 584 0 0 1159 0 0 0 0 0 0 0 0 0 0 0 3511 3509 0 582 0 0 0 0 enls$sd
S 3510 5 0 0 0 7 3511 582 19040 40802001 1020 A 0 0 0 0 0 568 0 0 1159 0 0 0 0 0 0 0 0 0 0 0 3507 3510 0 582 0 0 0 0 enls$p
S 3511 5 0 0 0 7 3509 582 19047 40802000 1020 A 0 0 0 0 0 576 0 0 1159 0 0 0 0 0 0 0 0 0 0 0 3510 3511 0 582 0 0 0 0 enls$o
S 3512 22 1 0 0 9 1 582 19054 40000000 1000 A 0 0 0 0 0 0 0 3507 0 0 0 0 3509 0 0 0 0 0 0 0 0 0 0 582 0 0 0 0 enls$arrdsc
S 3513 8 5 0 0 1211 1 582 19066 40022004 1220 A 0 0 0 0 0 0 0 1159 0 0 0 0 0 0 0 0 0 0 0 0 0 0 0 582 0 0 0 0 write_upf_v2_module$pseudo_config$td
S 3514 11 0 0 0 9 1243 582 19103 40800010 801000 A 0 0 0 0 0 28 0 0 3471 3508 0 0 0 0 0 0 0 0 0 0 0 0 0 0 0 0 0 0 _write_upf_v2_module$4
S 3515 23 5 0 0 0 3519 582 18766 0 0 A 0 0 0 0 0 0 0 0 0 0 0 0 0 0 0 0 0 0 0 0 0 0 0 0 0 0 0 0 write_upf_v2
S 3516 1 3 1 0 6 1 3515 19126 14 3000 A 0 0 0 0 0 0 0 0 0 0 0 0 0 0 0 0 0 0 0 0 0 0 0 0 0 0 0 0 u
S 3517 1 3 1 0 178 1 3515 9010 14 3000 A 0 0 0 0 0 0 0 0 0 0 0 0 0 0 0 0 0 0 0 0 0 0 0 0 0 0 0 0 upf
S 3518 1 3 1 0 1159 1 3515 19128 80000014 3000 A 0 0 0 0 0 0 0 0 0 0 0 0 0 0 0 0 0 0 0 0 0 0 0 0 0 0 0 0 conf
S 3519 14 5 0 0 0 1 3515 18766 0 400000 A 0 0 0 0 0 0 0 1711 3 0 0 0 0 0 0 0 0 0 0 0 0 41 0 582 0 0 0 0 write_upf_v2
F 3519 3 3516 3517 3518
S 3520 23 5 0 0 0 3522 582 18793 0 0 A 0 0 0 0 0 0 0 0 0 0 0 0 0 0 0 0 0 0 0 0 0 0 0 0 0 0 0 0 deallocate_pseudo_config
S 3521 1 3 3 0 1159 1 3520 19128 14 3000 A 0 0 0 0 0 0 0 0 0 0 0 0 0 0 0 0 0 0 0 0 0 0 0 0 0 0 0 0 conf
S 3522 14 5 0 0 0 1 3520 18793 0 400000 A 0 0 0 0 0 0 0 1715 1 0 0 0 0 0 0 0 0 0 0 0 0 598 0 582 0 0 0 0 deallocate_pseudo_config
F 3522 1 3521
A 13 2 0 0 0 6 590 0 0 0 13 0 0 0 0 0 0 0 0 0
A 19 2 0 0 0 6 600 0 0 0 19 0 0 0 0 0 0 0 0 0
A 22 2 0 0 0 6 601 0 0 0 22 0 0 0 0 0 0 0 0 0
A 24 2 0 0 0 6 602 0 0 0 24 0 0 0 0 0 0 0 0 0
A 28 2 0 0 0 6 603 0 0 0 28 0 0 0 0 0 0 0 0 0
A 30 2 0 0 0 6 604 0 0 0 30 0 0 0 0 0 0 0 0 0
A 174 2 0 0 9 6 735 0 0 0 174 0 0 0 0 0 0 0 0 0
A 409 2 0 0 0 6 741 0 0 0 409 0 0 0 0 0 0 0 0 0
A 593 2 0 0 0 184 733 0 0 0 593 0 0 0 0 0 0 0 0 0
A 1128 1 0 1 646 1172 3473 0 0 0 0 0 0 0 0 0 0 0 0 0
A 1129 10 0 0 748 6 1128 4 0 0 0 0 0 0 0 0 0 0 0 0
X 1 22
A 1130 10 0 0 1129 6 1128 7 0 0 0 0 0 0 0 0 0 0 0 0
X 1 24
A 1131 4 0 0 689 6 1130 0 3 0 0 0 0 2 0 0 0 0 0 0
A 1132 4 0 0 0 6 1129 0 1131 0 0 0 0 1 0 0 0 0 0 0
A 1133 10 0 0 1130 6 1128 10 0 0 0 0 0 0 0 0 0 0 0 0
X 1 28
A 1134 10 0 0 1133 6 1128 13 0 0 0 0 0 0 0 0 0 0 0 0
X 1 30
A 1135 10 0 0 1134 6 1128 1 0 0 0 0 0 0 0 0 0 0 0 0
X 1 13
A 1137 1 0 1 281 1178 3479 0 0 0 0 0 0 0 0 0 0 0 0 0
A 1138 10 0 0 972 6 1137 4 0 0 0 0 0 0 0 0 0 0 0 0
X 1 22
A 1139 10 0 0 1138 6 1137 7 0 0 0 0 0 0 0 0 0 0 0 0
X 1 24
A 1140 4 0 0 768 6 1139 0 3 0 0 0 0 2 0 0 0 0 0 0
A 1141 4 0 0 37 6 1138 0 1140 0 0 0 0 1 0 0 0 0 0 0
A 1142 10 0 0 1139 6 1137 10 0 0 0 0 0 0 0 0 0 0 0 0
X 1 28
A 1143 10 0 0 1142 6 1137 13 0 0 0 0 0 0 0 0 0 0 0 0
X 1 30
A 1144 10 0 0 1143 6 1137 1 0 0 0 0 0 0 0 0 0 0 0 0
X 1 13
A 1146 1 0 1 107 1184 3485 0 0 0 0 0 0 0 0 0 0 0 0 0
A 1147 10 0 0 0 6 1146 4 0 0 0 0 0 0 0 0 0 0 0 0
X 1 22
A 1148 10 0 0 1147 6 1146 7 0 0 0 0 0 0 0 0 0 0 0 0
X 1 24
A 1149 4 0 0 995 6 1148 0 3 0 0 0 0 2 0 0 0 0 0 0
A 1150 4 0 0 804 6 1147 0 1149 0 0 0 0 1 0 0 0 0 0 0
A 1151 10 0 0 1148 6 1146 10 0 0 0 0 0 0 0 0 0 0 0 0
X 1 28
A 1152 10 0 0 1151 6 1146 13 0 0 0 0 0 0 0 0 0 0 0 0
X 1 30
A 1153 10 0 0 1152 6 1146 1 0 0 0 0 0 0 0 0 0 0 0 0
X 1 13
A 1155 1 0 1 659 1190 3491 0 0 0 0 0 0 0 0 0 0 0 0 0
A 1156 10 0 0 903 6 1155 4 0 0 0 0 0 0 0 0 0 0 0 0
X 1 22
A 1157 10 0 0 1156 6 1155 7 0 0 0 0 0 0 0 0 0 0 0 0
X 1 24
A 1158 4 0 0 599 6 1157 0 3 0 0 0 0 2 0 0 0 0 0 0
A 1159 4 0 0 0 6 1156 0 1158 0 0 0 0 1 0 0 0 0 0 0
A 1160 10 0 0 1157 6 1155 10 0 0 0 0 0 0 0 0 0 0 0 0
X 1 28
A 1161 10 0 0 1160 6 1155 13 0 0 0 0 0 0 0 0 0 0 0 0
X 1 30
A 1162 10 0 0 1161 6 1155 1 0 0 0 0 0 0 0 0 0 0 0 0
X 1 13
A 1164 1 0 1 686 1196 3497 0 0 0 0 0 0 0 0 0 0 0 0 0
A 1165 10 0 0 905 6 1164 4 0 0 0 0 0 0 0 0 0 0 0 0
X 1 22
A 1166 10 0 0 1165 6 1164 7 0 0 0 0 0 0 0 0 0 0 0 0
X 1 24
A 1167 4 0 0 1004 6 1166 0 3 0 0 0 0 2 0 0 0 0 0 0
A 1168 4 0 0 341 6 1165 0 1167 0 0 0 0 1 0 0 0 0 0 0
A 1169 10 0 0 1166 6 1164 10 0 0 0 0 0 0 0 0 0 0 0 0
X 1 28
A 1170 10 0 0 1169 6 1164 13 0 0 0 0 0 0 0 0 0 0 0 0
X 1 30
A 1171 10 0 0 1170 6 1164 1 0 0 0 0 0 0 0 0 0 0 0 0
X 1 13
A 1173 1 0 1 0 1202 3503 0 0 0 0 0 0 0 0 0 0 0 0 0
A 1174 10 0 0 0 6 1173 4 0 0 0 0 0 0 0 0 0 0 0 0
X 1 22
A 1175 10 0 0 1174 6 1173 7 0 0 0 0 0 0 0 0 0 0 0 0
X 1 24
A 1176 4 0 0 1132 6 1175 0 3 0 0 0 0 2 0 0 0 0 0 0
A 1177 4 0 0 782 6 1174 0 1176 0 0 0 0 1 0 0 0 0 0 0
A 1178 10 0 0 1175 6 1173 10 0 0 0 0 0 0 0 0 0 0 0 0
X 1 28
A 1179 10 0 0 1178 6 1173 13 0 0 0 0 0 0 0 0 0 0 0 0
X 1 30
A 1180 10 0 0 1179 6 1173 1 0 0 0 0 0 0 0 0 0 0 0 0
X 1 13
A 1182 1 0 1 190 1208 3509 0 0 0 0 0 0 0 0 0 0 0 0 0
A 1183 10 0 0 2 6 1182 4 0 0 0 0 0 0 0 0 0 0 0 0
X 1 22
A 1184 10 0 0 1183 6 1182 7 0 0 0 0 0 0 0 0 0 0 0 0
X 1 24
A 1185 4 0 0 1108 6 1184 0 3 0 0 0 0 2 0 0 0 0 0 0
A 1186 4 0 0 1094 6 1183 0 1185 0 0 0 0 1 0 0 0 0 0 0
A 1187 10 0 0 1184 6 1182 10 0 0 0 0 0 0 0 0 0 0 0 0
X 1 28
A 1188 10 0 0 1187 6 1182 13 0 0 0 0 0 0 0 0 0 0 0 0
X 1 30
A 1189 10 0 0 1188 6 1182 1 0 0 0 0 0 0 0 0 0 0 0 0
X 1 13
Z
T 793 178 0 3 0 0
A 794 184 0 0 1 593 1
A 795 184 0 0 1 593 1
A 796 184 0 0 1 593 1
A 797 184 0 0 1 593 1
A 798 184 0 0 1 593 1
A 799 184 0 0 1 593 1
A 800 184 0 0 1 593 0
Z
