V26 xml_input
13 xml_input.F90 S582 0
04/24/2012  15:51:50
enduse
D 1175 21 28 1 1597 1600 1 1 0 0 1
 3 1598 3 3 1598 1599
S 582 24 0 0 0 9 1 0 4658 10015 0 A 0 0 0 0 0 0 0 0 0 0 0 0 0 0 0 0 0 0 0 0 0 13 0 0 0 0 0 0 xml_input
S 4932 27 0 0 0 9 4936 582 24519 0 0 A 0 0 0 0 0 0 0 0 0 0 0 0 0 0 0 0 0 0 0 0 0 0 0 582 0 0 0 0 xml_input_dump
S 4933 19 0 0 0 9 1 582 24534 4010 0 A 0 0 0 0 0 0 0 0 0 0 0 0 0 0 0 0 373 2 0 0 0 0 0 582 0 0 0 0 dump_keyword
O 4933 2 4935 4934
S 4934 27 0 0 0 9 4938 582 24547 10010 400000 A 0 0 0 0 0 0 374 0 0 0 0 0 0 0 0 0 0 0 0 0 0 0 0 582 0 0 0 0 dump_keyword_str
Q 4934 4933 0
S 4935 27 0 0 0 9 4949 582 24564 10010 400000 A 0 0 0 0 0 0 375 0 0 0 0 0 0 0 0 0 0 0 0 0 0 0 0 582 0 0 0 0 dump_keyword_i
Q 4935 4933 0
S 4936 23 5 0 0 0 4937 582 24519 0 0 A 0 0 0 0 0 0 0 0 0 0 0 0 0 0 0 0 0 0 0 0 0 0 0 0 0 0 0 0 xml_input_dump
S 4937 14 5 0 0 0 1 4936 24519 0 400000 A 0 0 0 0 0 0 0 2228 0 0 0 0 0 0 0 0 0 0 0 0 0 30 0 582 0 0 0 0 xml_input_dump
F 4937 0
S 4938 23 5 0 0 0 4944 582 24547 10 0 A 0 0 0 0 0 0 0 0 0 0 0 0 0 0 0 0 0 0 0 0 0 0 0 0 0 0 0 0 dump_keyword_str
S 4939 1 3 0 0 28 1 4938 24579 14 43000 A 0 0 0 0 0 0 0 0 0 0 0 0 0 0 0 0 0 0 0 0 0 0 0 0 0 0 0 0 kname
S 4940 1 3 0 0 28 1 4938 24585 14 43000 A 0 0 0 0 0 0 0 0 0 0 0 0 0 0 0 0 0 0 0 0 0 0 0 0 0 0 0 0 defval
S 4941 1 3 0 0 28 1 4938 24592 14 43000 A 0 0 0 0 0 0 0 0 0 0 0 0 0 0 0 0 0 0 0 0 0 0 0 0 0 0 0 0 usage
S 4942 1 3 0 0 28 1 4938 24598 14 43000 A 0 0 0 0 0 0 0 0 0 0 0 0 0 0 0 0 0 0 0 0 0 0 0 0 0 0 0 0 descr
S 4943 7 3 0 0 1175 1 4938 24604 a0000014 10043000 A 0 0 0 0 0 0 0 0 0 0 0 0 0 0 0 0 0 0 0 0 0 0 0 0 0 0 0 0 allowed
S 4944 14 5 0 0 0 1 4938 24547 20000010 400000 A 0 0 0 0 0 0 0 2229 5 0 0 0 0 0 0 0 0 0 0 0 0 112 0 582 0 0 0 0 dump_keyword_str
F 4944 5 4939 4940 4941 4942 4943
S 4945 6 1 0 0 6 1 4938 10357 40800016 3000 A 0 0 0 0 0 0 0 0 0 0 0 0 0 0 0 0 0 0 0 0 0 0 0 0 0 0 0 0 z_b_0_1
S 4946 6 1 0 0 6 1 4938 10365 40800016 3000 A 0 0 0 0 0 0 0 0 0 0 0 0 0 0 0 0 0 0 0 0 0 0 0 0 0 0 0 0 z_b_2
S 4947 6 1 0 0 6 1 4938 10371 40800016 3000 A 0 0 0 0 0 0 0 0 0 0 0 0 0 0 0 0 0 0 0 0 0 0 0 0 0 0 0 0 z_b_3
S 4948 6 1 0 0 6 1 4938 24612 40800016 3000 A 0 0 0 0 0 0 0 0 0 0 0 0 0 0 0 0 0 0 0 0 0 0 0 0 0 0 0 0 z_e_1602
S 4949 23 5 0 0 0 4956 582 24564 10 0 A 0 0 0 0 0 0 0 0 0 0 0 0 0 0 0 0 0 0 0 0 0 0 0 0 0 0 0 0 dump_keyword_i
S 4950 1 3 0 0 28 1 4949 24579 14 43000 A 0 0 0 0 0 0 0 0 0 0 0 0 0 0 0 0 0 0 0 0 0 0 0 0 0 0 0 0 kname
S 4951 1 3 0 0 6 1 4949 24585 14 3000 A 0 0 0 0 0 0 0 0 0 0 0 0 0 0 0 0 0 0 0 0 0 0 0 0 0 0 0 0 defval
S 4952 1 3 0 0 28 1 4949 24592 14 43000 A 0 0 0 0 0 0 0 0 0 0 0 0 0 0 0 0 0 0 0 0 0 0 0 0 0 0 0 0 usage
S 4953 1 3 0 0 28 1 4949 24598 14 43000 A 0 0 0 0 0 0 0 0 0 0 0 0 0 0 0 0 0 0 0 0 0 0 0 0 0 0 0 0 descr
S 4954 1 3 0 0 6 1 4949 24621 80000014 3000 A 0 0 0 0 0 0 0 0 0 0 0 0 0 0 0 0 0 0 0 0 0 0 0 0 0 0 0 0 min_value
S 4955 1 3 0 0 6 1 4949 24631 80000014 3000 A 0 0 0 0 0 0 0 0 0 0 0 0 0 0 0 0 0 0 0 0 0 0 0 0 0 0 0 0 max_value
S 4956 14 5 0 0 0 1 4949 24564 10 400000 A 0 0 0 0 0 0 0 2235 6 0 0 0 0 0 0 0 0 0 0 0 0 142 0 582 0 0 0 0 dump_keyword_i
F 4956 6 4950 4951 4952 4953 4954 4955
A 1597 1 0 0 1194 6 4947 0 0 0 0 0 0 0 0 0 0 0 0 0
A 1598 1 0 0 1192 6 4945 0 0 0 0 0 0 0 0 0 0 0 0 0
A 1599 1 0 0 1406 6 4948 0 0 0 0 0 0 0 0 0 0 0 0 0
A 1600 1 0 0 1193 6 4946 0 0 0 0 0 0 0 0 0 0 0 0 0
Z
Z
