V26 xml_io_base
15 xml_io_base.F90 S582 0
04/24/2012  15:51:33
use parser private
use mp private
use io_global private
use io_files private
use kinds private
use parser private
use mp private
use io_global private
use io_files private
use kinds private
enduse
D 803 18 574
D 1021 18 58
D 1023 18 56
D 1025 18 56
D 1027 18 56
D 1029 21 6 1 1422 1425 1 1 0 0 1
 3 1423 3 3 1423 1424
D 1032 21 6 1 1426 1429 1 1 0 0 1
 3 1427 3 3 1427 1428
D 1035 21 9 1 3 92 0 0 0 0 0
 0 92 3 3 92 92
D 1038 21 9 1 3 13 0 0 0 0 0
 0 13 3 3 13 13
D 1041 21 9 1 3 13 0 0 0 0 0
 0 13 3 3 13 13
D 1044 21 9 1 3 13 0 0 0 0 0
 0 13 3 3 13 13
D 1047 21 9 1 3 13 0 0 0 0 0
 0 13 3 3 13 13
D 1050 21 9 1 3 13 0 0 0 0 0
 0 13 3 3 13 13
D 1053 21 9 1 3 13 0 0 0 0 0
 0 13 3 3 13 13
D 1056 21 6 1 1430 1433 1 1 0 0 1
 3 1431 3 3 1431 1432
D 1059 21 28 1 1434 1437 1 1 0 0 1
 3 1435 3 3 1435 1436
D 1062 21 28 1 1438 1441 1 1 0 0 1
 3 1439 3 3 1439 1440
D 1065 21 9 1 1442 1445 1 1 0 0 1
 3 1443 3 3 1443 1444
D 1068 21 9 2 1446 1452 1 1 0 0 1
 3 1447 3 3 1447 1448
 3 1449 1450 3 1449 1451
D 1071 21 6 2 1453 1459 1 1 0 0 1
 3 1454 3 3 1454 1455
 3 1456 1457 3 1456 1458
D 1074 21 6 3 1460 1469 1 1 0 0 1
 3 1461 3 3 1461 1462
 3 1463 1464 3 1463 1465
 3 1466 1467 3 1466 1468
D 1077 21 6 2 1470 1476 1 1 0 0 1
 3 1471 3 3 1471 1472
 3 1473 1474 3 1473 1475
D 1080 21 28 1 1477 1480 1 1 0 0 1
 3 1478 3 3 1478 1479
D 1083 21 6 2 1481 1487 1 1 0 0 1
 3 1482 3 3 1482 1483
 3 1484 1485 3 1484 1486
D 1086 21 6 1 1488 1491 1 1 0 0 1
 3 1489 3 3 1489 1490
D 1089 21 6 2 1492 1498 1 1 0 0 1
 3 1493 3 3 1493 1494
 3 1495 1496 3 1495 1497
D 1092 21 9 1 3 1500 0 0 1 0 0
 0 1499 3 3 1500 1500
D 1095 21 9 1 3 1500 0 0 1 0 0
 0 1499 3 3 1500 1500
D 1098 21 9 1 3 1500 0 0 1 0 0
 0 1499 3 3 1500 1500
D 1101 21 9 2 32 1501 0 0 1 0 0
 0 13 3 3 13 13
 0 1499 13 3 1500 1500
D 1104 21 9 1 3 13 0 0 0 0 0
 0 13 3 3 13 13
D 1107 21 6 1 1502 1505 1 1 0 0 1
 3 1503 3 3 1503 1504
D 1110 21 9 1 1506 1509 1 1 0 0 1
 3 1507 3 3 1507 1508
D 1113 21 9 1 1510 1513 1 1 0 0 1
 3 1511 3 3 1511 1512
D 1116 21 6 2 1514 1520 1 1 0 0 1
 3 1515 3 3 1515 1516
 3 1517 1518 3 1517 1519
D 1119 21 9 2 1521 1527 1 1 0 0 1
 3 1522 3 3 1522 1523
 3 1524 1525 3 1524 1526
D 1122 21 9 2 1528 1534 1 1 0 0 1
 3 1529 3 3 1529 1530
 3 1531 1532 3 1531 1533
D 1125 21 9 1 1535 1538 1 1 0 0 1
 3 1536 3 3 1536 1537
D 1128 21 9 1 1539 1542 1 1 0 0 1
 3 1540 3 3 1540 1541
D 1131 21 9 1 1543 1546 1 1 0 0 1
 3 1544 3 3 1544 1545
D 1134 21 6 1 1547 1550 1 1 0 0 1
 3 1548 3 3 1548 1549
D 1137 21 6 1 1551 1554 1 1 0 0 1
 3 1552 3 3 1552 1553
D 1140 21 9 1 1555 1558 1 1 0 0 1
 3 1556 3 3 1556 1557
D 1143 21 6 1 1559 1562 1 1 0 0 1
 3 1560 3 3 1560 1561
D 1146 21 6 1 1563 1566 1 1 0 0 1
 3 1564 3 3 1564 1565
D 1149 21 12 2 1567 1573 1 1 0 0 1
 3 1568 3 3 1568 1569
 3 1570 1571 3 1570 1572
D 1152 21 6 1 1574 1577 1 1 0 0 1
 3 1575 3 3 1575 1576
D 1155 18 56
D 1157 21 12 2 1578 1584 1 1 0 0 1
 3 1579 3 3 1579 1580
 3 1581 1582 3 1581 1583
D 1160 21 6 1 1585 1588 1 1 0 0 1
 3 1586 3 3 1586 1587
D 1163 18 56
D 1165 21 9 1 1589 1592 1 1 0 0 1
 3 1590 3 3 1590 1591
D 1168 21 9 1 1593 1596 1 1 0 0 1
 3 1594 3 3 1594 1595
D 1171 18 56
S 582 24 0 0 0 9 1 0 4658 10015 0 A 0 0 0 0 0 0 0 0 0 0 0 0 0 0 0 0 0 0 0 0 0 11 0 0 0 0 0 0 xml_io_base
S 585 23 0 0 0 9 2959 582 4688 14 0 A 0 0 0 0 0 0 0 0 0 0 0 0 0 0 0 0 0 0 0 0 0 0 0 582 0 0 0 0 dp
S 587 23 0 0 0 9 2999 582 4700 14 0 A 0 0 0 0 0 0 0 0 0 0 0 0 0 0 0 0 0 0 0 0 0 0 0 582 0 0 0 0 tmp_dir
S 588 23 0 0 0 9 3001 582 4708 14 0 A 0 0 0 0 0 0 0 0 0 0 0 0 0 0 0 0 0 0 0 0 0 0 0 582 0 0 0 0 prefix
S 589 23 0 0 0 6 3051 582 4715 14 0 A 0 0 0 0 0 0 0 0 0 0 0 0 0 0 0 0 0 0 0 0 0 0 0 582 0 0 0 0 iunpun
S 590 23 0 0 0 9 3039 582 4722 14 0 A 0 0 0 0 0 0 0 0 0 0 0 0 0 0 0 0 0 0 0 0 0 0 0 582 0 0 0 0 xmlpun
S 591 23 0 0 0 9 3007 582 4729 0 0 A 0 0 0 0 0 0 0 0 0 0 0 0 0 0 0 0 0 0 0 0 0 0 0 582 0 0 0 0 current_fmt_version
S 594 23 0 0 0 6 3100 582 4773 14 0 A 0 0 0 0 0 0 0 0 0 0 0 0 0 0 0 0 0 0 0 0 0 0 0 582 0 0 0 0 ionode
S 595 23 0 0 0 6 3101 582 4780 14 0 A 0 0 0 0 0 0 0 0 0 0 0 0 0 0 0 0 0 0 0 0 0 0 0 582 0 0 0 0 ionode_id
S 596 23 0 0 0 9 3099 582 4790 14 0 A 0 0 0 0 0 0 0 0 0 0 0 0 0 0 0 0 0 0 0 0 0 0 0 582 0 0 0 0 stdout
S 598 19 0 0 0 6 1 582 4800 14 0 A 0 0 0 0 0 0 0 0 0 0 0 0 0 0 0 0 378 20 0 0 0 0 0 582 0 0 0 0 mp_bcast
O 598 20 3862 3847 3800 3782 3894 3885 3767 3726 3714 3835 3755 3880 3826 3746 3705 3911 3906 3821 3741 3700
S 600 23 0 0 0 9 4452 582 4816 14 0 A 0 0 0 0 0 0 0 0 0 0 0 0 0 0 0 0 0 0 0 0 0 0 0 582 0 0 0 0 version_compare
S 604 3 0 0 0 6 1 1 0 0 0 A 0 0 0 0 0 0 0 0 0 3 0 0 0 0 0 0 0 0 0 0 0 0 0 0 0 0 0 0 6
S 607 3 0 0 0 6 1 1 0 0 0 A 0 0 0 0 0 0 0 0 0 4 0 0 0 0 0 0 0 0 0 0 0 0 0 0 0 0 0 0 6
S 614 3 0 0 0 6 1 1 0 0 0 A 0 0 0 0 0 0 0 0 0 256 0 0 0 0 0 0 0 0 0 0 0 0 0 0 0 0 0 0 6
S 615 3 0 0 0 6 1 1 0 0 0 A 0 0 0 0 0 0 0 0 0 65278 0 0 0 0 0 0 0 0 0 0 0 0 0 0 0 0 0 0 6
S 642 3 0 0 0 6 1 1 0 0 0 A 0 0 0 0 0 0 0 0 0 6 0 0 0 0 0 0 0 0 0 0 0 0 0 0 0 0 0 0 6
R 2959 16 1 kinds dp
S 2989 3 0 0 0 6 1 1 0 0 0 A 0 0 0 0 0 0 0 0 0 5 0 0 0 0 0 0 0 0 0 0 0 0 0 0 0 0 0 0 6
R 2999 6 2 io_files tmp_dir
R 3001 6 4 io_files prefix
R 3007 6 10 io_files qexml_version
R 3039 16 42 io_files xmlpun
R 3051 6 54 io_files iunpun
R 3099 6 4 io_global stdout
R 3100 6 5 io_global ionode
R 3101 6 6 io_global ionode_id
S 3271 3 0 0 0 16 1 1 0 0 0 A 0 0 0 0 0 0 0 0 -1 -1 0 0 0 0 0 0 0 0 0 0 0 0 0 0 0 0 0 0 16
R 3700 14 162 mp mp_bcast_i1
R 3705 14 167 mp mp_bcast_iv
R 3714 14 176 mp mp_bcast_im
R 3726 14 188 mp mp_bcast_it
R 3741 14 203 mp mp_bcast_r1
R 3746 14 208 mp mp_bcast_rv
R 3755 14 217 mp mp_bcast_rm
R 3767 14 229 mp mp_bcast_rt
R 3782 14 244 mp mp_bcast_r4d
R 3800 14 262 mp mp_bcast_r5d
R 3821 14 283 mp mp_bcast_c1
R 3826 14 288 mp mp_bcast_cv
R 3835 14 297 mp mp_bcast_cm
R 3847 14 309 mp mp_bcast_ct
R 3862 14 324 mp mp_bcast_c4d
R 3880 14 342 mp mp_bcast_l
R 3885 14 347 mp mp_bcast_lv
R 3894 14 356 mp mp_bcast_lm
R 3906 14 368 mp mp_bcast_z
R 3911 14 373 mp mp_bcast_zv
R 4452 14 40 parser version_compare
S 4454 3 0 0 0 803 0 1 0 0 0 A 0 0 0 0 0 0 0 0 22723 0 0 0 0 0 0 0 0 0 0 0 0 0 0 0 0 0 0 0 18 5 51 45 58 4d 4c
S 4455 16 0 0 0 803 1 582 22729 4 400000 A 0 0 0 0 0 0 0 0 4454 1417 0 0 0 0 0 0 0 0 0 0 0 0 0 582 0 0 0 0 fmt_name
S 4456 3 0 0 0 803 0 1 0 0 0 A 0 0 0 0 0 0 0 0 22738 0 0 0 0 0 0 0 0 0 0 0 0 0 0 0 0 0 0 0 18 5 31 2e 34 2e 30
S 4457 16 0 0 0 803 1 582 22744 4 400000 A 0 0 0 0 0 0 0 0 4456 1419 0 0 0 0 0 0 0 0 0 0 0 0 0 582 0 0 0 0 fmt_version
S 4458 16 0 0 0 16 1 582 22756 4 400000 A 0 0 0 0 0 0 0 0 -1 992 0 0 0 0 0 0 0 0 0 0 0 0 0 582 0 0 0 0 rho_binary
S 4459 6 4 0 0 1021 1 582 6673 4 0 A 0 0 0 0 0 0 0 0 0 0 0 0 4490 0 0 0 0 0 0 0 0 0 0 582 0 0 0 0 attr
S 4460 27 0 0 0 9 4491 582 22767 0 0 A 0 0 0 0 0 0 0 0 0 0 0 0 0 0 0 0 0 0 0 0 0 0 0 582 0 0 0 0 create_directory
S 4461 27 0 0 0 6 4494 582 22784 0 0 A 0 0 0 0 0 0 0 0 0 0 0 0 0 0 0 0 0 0 0 0 0 0 0 582 0 0 0 0 kpoint_dir
S 4462 27 0 0 0 9 4499 582 22795 0 0 A 0 0 0 0 0 0 0 0 0 0 0 0 0 0 0 0 0 0 0 0 0 0 0 582 0 0 0 0 wfc_filename
S 4463 27 0 0 0 9 4509 582 22808 0 0 A 0 0 0 0 0 0 0 0 0 0 0 0 0 0 0 0 0 0 0 0 0 0 0 582 0 0 0 0 copy_file
S 4464 27 0 0 0 9 4513 582 22818 0 0 A 0 0 0 0 0 0 0 0 0 0 0 0 0 0 0 0 0 0 0 0 0 0 0 582 0 0 0 0 restart_dir
S 4465 27 0 0 0 9 4518 582 22830 0 0 A 0 0 0 0 0 0 0 0 0 0 0 0 0 0 0 0 0 0 0 0 0 0 0 582 0 0 0 0 check_restartfile
S 4466 27 0 0 0 9 4523 582 22848 0 0 A 0 0 0 0 0 0 0 0 0 0 0 0 0 0 0 0 0 0 0 0 0 0 0 582 0 0 0 0 check_file_exst
S 4467 27 0 0 0 9 4527 582 22864 0 0 A 0 0 0 0 0 0 0 0 0 0 0 0 0 0 0 0 0 0 0 0 0 0 0 582 0 0 0 0 pp_check_file
S 4468 27 0 0 0 9 4530 582 22878 0 0 A 0 0 0 0 0 0 0 0 0 0 0 0 0 0 0 0 0 0 0 0 0 0 0 582 0 0 0 0 save_history
S 4469 27 0 0 0 9 4534 582 22891 0 0 A 0 0 0 0 0 0 0 0 0 0 0 0 0 0 0 0 0 0 0 0 0 0 0 582 0 0 0 0 save_print_counter
S 4470 27 0 0 0 9 4539 582 22910 0 0 A 0 0 0 0 0 0 0 0 0 0 0 0 0 0 0 0 0 0 0 0 0 0 0 582 0 0 0 0 read_print_counter
S 4471 27 0 0 0 9 4544 582 22929 0 0 A 0 0 0 0 0 0 0 0 0 0 0 0 0 0 0 0 0 0 0 0 0 0 0 582 0 0 0 0 set_kpoints_vars
S 4472 27 0 0 0 9 4566 582 22946 0 0 A 0 0 0 0 0 0 0 0 0 0 0 0 0 0 0 0 0 0 0 0 0 0 0 582 0 0 0 0 write_header
S 4473 27 0 0 0 9 4570 582 22959 0 0 A 0 0 0 0 0 0 0 0 0 0 0 0 0 0 0 0 0 0 0 0 0 0 0 582 0 0 0 0 write_control
S 4474 27 0 0 0 9 4575 582 22973 0 0 A 0 0 0 0 0 0 0 0 0 0 0 0 0 0 0 0 0 0 0 0 0 0 0 582 0 0 0 0 write_cell
S 4475 27 0 0 0 9 4587 582 22984 0 0 A 0 0 0 0 0 0 0 0 0 0 0 0 0 0 0 0 0 0 0 0 0 0 0 582 0 0 0 0 write_ions
S 4476 27 0 0 0 9 4630 582 22995 0 0 A 0 0 0 0 0 0 0 0 0 0 0 0 0 0 0 0 0 0 0 0 0 0 0 582 0 0 0 0 write_symmetry
S 4477 27 0 0 0 9 4685 582 23010 0 0 A 0 0 0 0 0 0 0 0 0 0 0 0 0 0 0 0 0 0 0 0 0 0 0 582 0 0 0 0 write_planewaves
S 4478 27 0 0 0 9 4677 582 23027 0 0 A 0 0 0 0 0 0 0 0 0 0 0 0 0 0 0 0 0 0 0 0 0 0 0 582 0 0 0 0 write_efield
S 4479 27 0 0 0 9 4711 582 23040 0 0 A 0 0 0 0 0 0 0 0 0 0 0 0 0 0 0 0 0 0 0 0 0 0 0 582 0 0 0 0 write_spin
S 4480 27 0 0 0 9 4718 582 23051 0 0 A 0 0 0 0 0 0 0 0 0 0 0 0 0 0 0 0 0 0 0 0 0 0 0 582 0 0 0 0 write_magnetization
S 4481 27 0 0 0 9 4735 582 23071 0 0 A 0 0 0 0 0 0 0 0 0 0 0 0 0 0 0 0 0 0 0 0 0 0 0 582 0 0 0 0 write_xc
S 4482 27 0 0 0 9 4756 582 23080 0 0 A 0 0 0 0 0 0 0 0 0 0 0 0 0 0 0 0 0 0 0 0 0 0 0 582 0 0 0 0 write_occ
S 4483 27 0 0 0 9 4783 582 23090 0 0 A 0 0 0 0 0 0 0 0 0 0 0 0 0 0 0 0 0 0 0 0 0 0 0 582 0 0 0 0 write_bz
S 4484 27 0 0 0 9 4805 582 23099 0 0 A 0 0 0 0 0 0 0 0 0 0 0 0 0 0 0 0 0 0 0 0 0 0 0 582 0 0 0 0 write_phonon
S 4485 27 0 0 0 9 4813 582 23112 0 0 A 0 0 0 0 0 0 0 0 0 0 0 0 0 0 0 0 0 0 0 0 0 0 0 582 0 0 0 0 write_rho_xml
S 4486 27 0 0 0 9 4859 582 23126 0 0 A 0 0 0 0 0 0 0 0 0 0 0 0 0 0 0 0 0 0 0 0 0 0 0 582 0 0 0 0 write_wfc
S 4487 27 0 0 0 9 4913 582 23136 0 0 A 0 0 0 0 0 0 0 0 0 0 0 0 0 0 0 0 0 0 0 0 0 0 0 582 0 0 0 0 write_eig
S 4488 27 0 0 0 9 4886 582 23146 0 0 A 0 0 0 0 0 0 0 0 0 0 0 0 0 0 0 0 0 0 0 0 0 0 0 582 0 0 0 0 read_wfc
S 4489 27 0 0 0 9 4836 582 23155 0 0 A 0 0 0 0 0 0 0 0 0 0 0 0 0 0 0 0 0 0 0 0 0 0 0 582 0 0 0 0 read_rho_xml
S 4490 11 0 0 0 9 4420 582 23168 40800000 801000 A 0 0 0 0 0 65278 0 0 4459 4459 0 0 0 0 0 0 0 0 0 0 0 0 0 0 0 0 0 0 _xml_io_base$1
S 4491 23 5 0 0 0 4493 582 22767 0 0 A 0 0 0 0 0 0 0 0 0 0 0 0 0 0 0 0 0 0 0 0 0 0 0 0 0 0 0 0 create_directory
S 4492 1 3 1 0 28 1 4491 23183 14 43000 A 0 0 0 0 0 0 0 0 0 0 0 0 0 0 0 0 0 0 0 0 0 0 0 0 0 0 0 0 dirname
S 4493 14 5 0 0 0 1 4491 22767 0 400000 A 0 0 0 0 0 0 0 1997 1 0 0 0 0 0 0 0 0 0 0 0 0 60 0 582 0 0 0 0 create_directory
F 4493 1 4492
S 4494 23 5 0 0 6 4497 582 22784 0 0 A 0 0 0 0 0 0 0 0 0 0 0 0 0 0 0 0 0 0 0 0 0 0 0 0 0 0 0 0 kpoint_dir
S 4495 1 3 1 0 28 1 4494 23191 14 43000 A 0 0 0 0 0 0 0 0 0 0 0 0 0 0 0 0 0 0 0 0 0 0 0 0 0 0 0 0 basedir
S 4496 1 3 1 0 6 1 4494 23199 14 3000 A 0 0 0 0 0 0 0 0 0 0 0 0 0 0 0 0 0 0 0 0 0 0 0 0 0 0 0 0 ik
S 4497 14 5 0 0 1023 1 4494 22784 4 400000 A 0 0 0 0 0 0 0 1999 2 0 0 4498 0 0 0 0 0 0 0 0 0 104 0 582 0 0 0 0 kpoint_dir
F 4497 2 4495 4496
S 4498 1 3 0 0 1023 1 4494 22784 14 1003000 A 0 0 0 0 0 0 0 0 0 0 0 0 0 0 0 0 0 0 0 0 0 0 0 0 0 0 0 0 kpoint_dir
S 4499 23 5 0 0 9 4507 582 22795 0 0 A 0 0 0 0 0 0 0 0 0 0 0 0 0 0 0 0 0 0 0 0 0 0 0 0 0 0 0 0 wfc_filename
S 4500 1 3 1 0 28 1 4499 23191 14 43000 A 0 0 0 0 0 0 0 0 0 0 0 0 0 0 0 0 0 0 0 0 0 0 0 0 0 0 0 0 basedir
S 4501 1 3 1 0 28 1 4499 6668 14 43000 A 0 0 0 0 0 0 0 0 0 0 0 0 0 0 0 0 0 0 0 0 0 0 0 0 0 0 0 0 name
S 4502 1 3 1 0 6 1 4499 23199 14 3000 A 0 0 0 0 0 0 0 0 0 0 0 0 0 0 0 0 0 0 0 0 0 0 0 0 0 0 0 0 ik
S 4503 1 3 1 0 6 1 4499 23202 80000014 3000 A 0 0 0 0 0 0 0 0 0 0 0 0 0 0 0 0 0 0 0 0 0 0 0 0 0 0 0 0 ipol
S 4504 1 3 1 0 28 1 4499 6786 80000014 43000 A 0 0 0 0 0 0 0 0 0 0 0 0 0 0 0 0 0 0 0 0 0 0 0 0 0 0 0 0 tag
S 4505 1 3 1 0 28 1 4499 23207 80000014 43000 A 0 0 0 0 0 0 0 0 0 0 0 0 0 0 0 0 0 0 0 0 0 0 0 0 0 0 0 0 extension
S 4506 1 3 1 0 16 1 4499 23217 80000014 3000 A 0 0 0 0 0 0 0 0 0 0 0 0 0 0 0 0 0 0 0 0 0 0 0 0 0 0 0 0 dir
S 4507 14 5 0 0 1025 1 4499 22795 4 400000 A 0 0 0 0 0 0 0 2002 7 0 0 4508 0 0 0 0 0 0 0 0 0 132 0 582 0 0 0 0 wfc_filename
F 4507 7 4500 4501 4502 4503 4504 4505 4506
S 4508 1 3 0 0 1025 1 4499 22795 14 1003000 A 0 0 0 0 0 0 0 0 0 0 0 0 0 0 0 0 0 0 0 0 0 0 0 0 0 0 0 0 wfc_filename
S 4509 23 5 0 0 0 4512 582 22808 0 0 A 0 0 0 0 0 0 0 0 0 0 0 0 0 0 0 0 0 0 0 0 0 0 0 0 0 0 0 0 copy_file
S 4510 1 3 1 0 28 1 4509 23221 14 43000 A 0 0 0 0 0 0 0 0 0 0 0 0 0 0 0 0 0 0 0 0 0 0 0 0 0 0 0 0 file_in
S 4511 1 3 1 0 28 1 4509 23229 14 43000 A 0 0 0 0 0 0 0 0 0 0 0 0 0 0 0 0 0 0 0 0 0 0 0 0 0 0 0 0 file_out
S 4512 14 5 0 0 0 1 4509 22808 0 400000 A 0 0 0 0 0 0 0 2010 2 0 0 0 0 0 0 0 0 0 0 0 0 178 0 582 0 0 0 0 copy_file
F 4512 2 4510 4511
S 4513 23 5 0 0 9 4516 582 22818 0 0 A 0 0 0 0 0 0 0 0 0 0 0 0 0 0 0 0 0 0 0 0 0 0 0 0 0 0 0 0 restart_dir
S 4514 1 3 1 0 28 1 4513 15349 14 43000 A 0 0 0 0 0 0 0 0 0 0 0 0 0 0 0 0 0 0 0 0 0 0 0 0 0 0 0 0 outdir
S 4515 1 3 1 0 6 1 4513 23238 14 3000 A 0 0 0 0 0 0 0 0 0 0 0 0 0 0 0 0 0 0 0 0 0 0 0 0 0 0 0 0 runit
S 4516 14 5 0 0 1027 1 4513 22818 4 400000 A 0 0 0 0 0 0 0 2013 2 0 0 4517 0 0 0 0 0 0 0 0 0 215 0 582 0 0 0 0 restart_dir
F 4516 2 4514 4515
S 4517 1 3 0 0 1027 1 4513 22818 14 1003000 A 0 0 0 0 0 0 0 0 0 0 0 0 0 0 0 0 0 0 0 0 0 0 0 0 0 0 0 0 restart_dir
S 4518 23 5 0 0 9 4521 582 22830 0 0 A 0 0 0 0 0 0 0 0 0 0 0 0 0 0 0 0 0 0 0 0 0 0 0 0 0 0 0 0 check_restartfile
S 4519 1 3 1 0 28 1 4518 15349 14 43000 A 0 0 0 0 0 0 0 0 0 0 0 0 0 0 0 0 0 0 0 0 0 0 0 0 0 0 0 0 outdir
S 4520 1 3 1 0 6 1 4518 23244 14 3000 A 0 0 0 0 0 0 0 0 0 0 0 0 0 0 0 0 0 0 0 0 0 0 0 0 0 0 0 0 ndr
S 4521 14 5 0 0 16 1 4518 22830 4 400000 A 0 0 0 0 0 0 0 2016 2 0 0 4522 0 0 0 0 0 0 0 0 0 249 0 582 0 0 0 0 check_restartfile
F 4521 2 4519 4520
S 4522 1 3 0 0 16 1 4518 22830 14 1003000 A 0 0 0 0 0 0 0 0 0 0 0 0 0 0 0 0 0 0 0 0 0 0 0 0 0 0 0 0 check_restartfile
S 4523 23 5 0 0 9 4525 582 22848 0 0 A 0 0 0 0 0 0 0 0 0 0 0 0 0 0 0 0 0 0 0 0 0 0 0 0 0 0 0 0 check_file_exst
S 4524 1 3 0 0 28 1 4523 16122 14 43000 A 0 0 0 0 0 0 0 0 0 0 0 0 0 0 0 0 0 0 0 0 0 0 0 0 0 0 0 0 filename
S 4525 14 5 0 0 16 1 4523 22848 4 400000 A 0 0 0 0 0 0 0 2019 1 0 0 4526 0 0 0 0 0 0 0 0 0 283 0 582 0 0 0 0 check_file_exst
F 4525 1 4524
S 4526 1 3 0 0 16 1 4523 22848 14 1003000 A 0 0 0 0 0 0 0 0 0 0 0 0 0 0 0 0 0 0 0 0 0 0 0 0 0 0 0 0 check_file_exst
S 4527 23 5 0 0 9 4528 582 22864 0 0 A 0 0 0 0 0 0 0 0 0 0 0 0 0 0 0 0 0 0 0 0 0 0 0 0 0 0 0 0 pp_check_file
S 4528 14 5 0 0 16 1 4527 22864 4 400000 A 0 0 0 0 0 0 0 2021 0 0 0 4529 0 0 0 0 0 0 0 0 0 310 0 582 0 0 0 0 pp_check_file
F 4528 0
S 4529 1 3 0 0 16 1 4527 22864 14 1003000 A 0 0 0 0 0 0 0 0 0 0 0 0 0 0 0 0 0 0 0 0 0 0 0 0 0 0 0 0 pp_check_file
S 4530 23 5 0 0 0 4533 582 22878 0 0 A 0 0 0 0 0 0 0 0 0 0 0 0 0 0 0 0 0 0 0 0 0 0 0 0 0 0 0 0 save_history
S 4531 1 3 1 0 28 1 4530 23183 14 43000 A 0 0 0 0 0 0 0 0 0 0 0 0 0 0 0 0 0 0 0 0 0 0 0 0 0 0 0 0 dirname
S 4532 1 3 1 0 6 1 4530 23248 14 3000 A 0 0 0 0 0 0 0 0 0 0 0 0 0 0 0 0 0 0 0 0 0 0 0 0 0 0 0 0 iter
S 4533 14 5 0 0 0 1 4530 22878 0 400000 A 0 0 0 0 0 0 0 2022 2 0 0 0 0 0 0 0 0 0 0 0 0 388 0 582 0 0 0 0 save_history
F 4533 2 4531 4532
S 4534 23 5 0 0 0 4538 582 22891 0 0 A 0 0 0 0 0 0 0 0 0 0 0 0 0 0 0 0 0 0 0 0 0 0 0 0 0 0 0 0 save_print_counter
S 4535 1 3 1 0 6 1 4534 23248 14 3000 A 0 0 0 0 0 0 0 0 0 0 0 0 0 0 0 0 0 0 0 0 0 0 0 0 0 0 0 0 iter
S 4536 1 3 1 0 28 1 4534 15349 14 43000 A 0 0 0 0 0 0 0 0 0 0 0 0 0 0 0 0 0 0 0 0 0 0 0 0 0 0 0 0 outdir
S 4537 1 3 1 0 6 1 4534 23253 14 3000 A 0 0 0 0 0 0 0 0 0 0 0 0 0 0 0 0 0 0 0 0 0 0 0 0 0 0 0 0 wunit
S 4538 14 5 0 0 0 1 4534 22891 0 400000 A 0 0 0 0 0 0 0 2025 3 0 0 0 0 0 0 0 0 0 0 0 0 407 0 582 0 0 0 0 save_print_counter
F 4538 3 4535 4536 4537
S 4539 23 5 0 0 0 4543 582 22910 0 0 A 0 0 0 0 0 0 0 0 0 0 0 0 0 0 0 0 0 0 0 0 0 0 0 0 0 0 0 0 read_print_counter
S 4540 1 3 2 0 6 1 4539 23259 14 3000 A 0 0 0 0 0 0 0 0 0 0 0 0 0 0 0 0 0 0 0 0 0 0 0 0 0 0 0 0 nprint_nfi
S 4541 1 3 1 0 28 1 4539 15349 14 43000 A 0 0 0 0 0 0 0 0 0 0 0 0 0 0 0 0 0 0 0 0 0 0 0 0 0 0 0 0 outdir
S 4542 1 3 1 0 6 1 4539 23238 14 3000 A 0 0 0 0 0 0 0 0 0 0 0 0 0 0 0 0 0 0 0 0 0 0 0 0 0 0 0 0 runit
S 4543 14 5 0 0 0 1 4539 22910 0 400000 A 0 0 0 0 0 0 0 2029 3 0 0 0 0 0 0 0 0 0 0 0 0 459 0 582 0 0 0 0 read_print_counter
F 4543 3 4540 4541 4542
S 4544 23 5 0 0 0 4557 582 22929 0 0 A 0 0 0 0 0 0 0 0 0 0 0 0 0 0 0 0 0 0 0 0 0 0 0 0 0 0 0 0 set_kpoints_vars
S 4545 1 3 1 0 6 1 4544 23199 14 3000 A 0 0 0 0 0 0 0 0 0 0 0 0 0 0 0 0 0 0 0 0 0 0 0 0 0 0 0 0 ik
S 4546 1 3 1 0 6 1 4544 23270 14 3000 A 0 0 0 0 0 0 0 0 0 0 0 0 0 0 0 0 0 0 0 0 0 0 0 0 0 0 0 0 nk
S 4547 1 3 1 0 6 1 4544 23273 14 3000 A 0 0 0 0 0 0 0 0 0 0 0 0 0 0 0 0 0 0 0 0 0 0 0 0 0 0 0 0 kunit
S 4548 1 3 1 0 6 1 4544 23279 14 3000 A 0 0 0 0 0 0 0 0 0 0 0 0 0 0 0 0 0 0 0 0 0 0 0 0 0 0 0 0 ngwl
S 4549 7 3 1 0 1029 1 4544 23284 20000014 10003000 A 0 0 0 0 0 0 0 0 0 0 0 0 0 0 0 0 0 0 0 0 0 0 0 0 0 0 0 0 igl
S 4550 1 3 2 0 6 1 4544 23288 14 3000 A 0 0 0 0 0 0 0 0 0 0 0 0 0 0 0 0 0 0 0 0 0 0 0 0 0 0 0 0 npool
S 4551 1 3 2 0 6 1 4544 23294 14 3000 A 0 0 0 0 0 0 0 0 0 0 0 0 0 0 0 0 0 0 0 0 0 0 0 0 0 0 0 0 ikt
S 4552 1 3 2 0 6 1 4544 23298 14 3000 A 0 0 0 0 0 0 0 0 0 0 0 0 0 0 0 0 0 0 0 0 0 0 0 0 0 0 0 0 iks
S 4553 1 3 2 0 6 1 4544 23302 14 3000 A 0 0 0 0 0 0 0 0 0 0 0 0 0 0 0 0 0 0 0 0 0 0 0 0 0 0 0 0 ike
S 4554 1 3 2 0 6 1 4544 23306 14 3000 A 0 0 0 0 0 0 0 0 0 0 0 0 0 0 0 0 0 0 0 0 0 0 0 0 0 0 0 0 igwx
S 4555 7 3 2 0 1032 1 4544 23311 20000014 10003000 A 0 0 0 0 0 0 0 0 0 0 0 0 0 0 0 0 0 0 0 0 0 0 0 0 0 0 0 0 ipmask
S 4556 1 3 2 0 6 1 4544 23318 14 3000 A 0 0 0 0 0 0 0 0 0 0 0 0 0 0 0 0 0 0 0 0 0 0 0 0 0 0 0 0 ipsour
S 4557 14 5 0 0 0 1 4544 22929 20000000 400000 A 0 0 0 0 0 0 0 2033 12 0 0 0 0 0 0 0 0 0 0 0 0 510 0 582 0 0 0 0 set_kpoints_vars
F 4557 12 4545 4546 4547 4548 4549 4550 4551 4552 4553 4554 4555 4556
S 4558 6 1 0 0 6 1 4544 6939 40800016 3000 A 0 0 0 0 0 0 0 0 0 0 0 0 0 0 0 0 0 0 0 0 0 0 0 0 0 0 0 0 z_b_0_1
S 4559 6 1 0 0 6 1 4544 6979 40800016 3000 A 0 0 0 0 0 0 0 0 0 0 0 0 0 0 0 0 0 0 0 0 0 0 0 0 0 0 0 0 z_b_2
S 4560 6 1 0 0 6 1 4544 7011 40800016 3000 A 0 0 0 0 0 0 0 0 0 0 0 0 0 0 0 0 0 0 0 0 0 0 0 0 0 0 0 0 z_b_3
S 4561 6 1 0 0 6 1 4544 23325 40800016 3000 A 0 0 0 0 0 0 0 0 0 0 0 0 0 0 0 0 0 0 0 0 0 0 0 0 0 0 0 0 z_e_1443
S 4562 6 1 0 0 6 1 4544 7017 40800016 3000 A 0 0 0 0 0 0 0 0 0 0 0 0 0 0 0 0 0 0 0 0 0 0 0 0 0 0 0 0 z_b_4
S 4563 6 1 0 0 6 1 4544 7055 40800016 3000 A 0 0 0 0 0 0 0 0 0 0 0 0 0 0 0 0 0 0 0 0 0 0 0 0 0 0 0 0 z_b_6
S 4564 6 1 0 0 6 1 4544 7061 40800016 3000 A 0 0 0 0 0 0 0 0 0 0 0 0 0 0 0 0 0 0 0 0 0 0 0 0 0 0 0 0 z_b_7
S 4565 6 1 0 0 6 1 4544 23334 40800016 3000 A 0 0 0 0 0 0 0 0 0 0 0 0 0 0 0 0 0 0 0 0 0 0 0 0 0 0 0 0 z_e_1450
S 4566 23 5 0 0 0 4569 582 22946 0 0 A 0 0 0 0 0 0 0 0 0 0 0 0 0 0 0 0 0 0 0 0 0 0 0 0 0 0 0 0 write_header
S 4567 1 3 1 0 28 1 4566 23343 14 43000 A 0 0 0 0 0 0 0 0 0 0 0 0 0 0 0 0 0 0 0 0 0 0 0 0 0 0 0 0 creator_name
S 4568 1 3 1 0 28 1 4566 23356 14 43000 A 0 0 0 0 0 0 0 0 0 0 0 0 0 0 0 0 0 0 0 0 0 0 0 0 0 0 0 0 creator_version
S 4569 14 5 0 0 0 1 4566 22946 0 400000 A 0 0 0 0 0 0 0 2046 2 0 0 0 0 0 0 0 0 0 0 0 0 632 0 582 0 0 0 0 write_header
F 4569 2 4567 4568
S 4570 23 5 0 0 0 4574 582 22959 0 0 A 0 0 0 0 0 0 0 0 0 0 0 0 0 0 0 0 0 0 0 0 0 0 0 0 0 0 0 0 write_control
S 4571 1 3 1 0 16 1 4570 23372 80000014 3000 A 0 0 0 0 0 0 0 0 0 0 0 0 0 0 0 0 0 0 0 0 0 0 0 0 0 0 0 0 pp_check_flag
S 4572 1 3 1 0 16 1 4570 23386 80000014 3000 A 0 0 0 0 0 0 0 0 0 0 0 0 0 0 0 0 0 0 0 0 0 0 0 0 0 0 0 0 lkpoint_dir
S 4573 1 3 1 0 16 1 4570 23398 80000014 3000 A 0 0 0 0 0 0 0 0 0 0 0 0 0 0 0 0 0 0 0 0 0 0 0 0 0 0 0 0 q_real_space
S 4574 14 5 0 0 0 1 4570 22959 0 400000 A 0 0 0 0 0 0 0 2049 3 0 0 0 0 0 0 0 0 0 0 0 0 655 0 582 0 0 0 0 write_control
F 4574 3 4571 4572 4573
S 4575 23 5 0 0 0 4586 582 22973 0 0 A 0 0 0 0 0 0 0 0 0 0 0 0 0 0 0 0 0 0 0 0 0 0 0 0 0 0 0 0 write_cell
S 4576 1 3 1 0 6 1 4575 23411 14 3000 A 0 0 0 0 0 0 0 0 0 0 0 0 0 0 0 0 0 0 0 0 0 0 0 0 0 0 0 0 ibrav
S 4577 1 3 1 0 28 1 4575 23417 14 43000 A 0 0 0 0 0 0 0 0 0 0 0 0 0 0 0 0 0 0 0 0 0 0 0 0 0 0 0 0 symm_type
S 4578 7 3 1 0 1035 1 4575 23427 800014 3000 A 0 0 0 0 0 0 0 0 0 0 0 0 0 0 0 0 0 0 0 0 0 0 0 0 0 0 0 0 celldm
S 4579 1 3 1 0 9 1 4575 23434 14 3000 A 0 0 0 0 0 0 0 0 0 0 0 0 0 0 0 0 0 0 0 0 0 0 0 0 0 0 0 0 alat
S 4580 7 3 1 0 1038 1 4575 23439 800014 3000 A 0 0 0 0 0 0 0 0 0 0 0 0 0 0 0 0 0 0 0 0 0 0 0 0 0 0 0 0 a1
S 4581 7 3 1 0 1041 1 4575 23442 800014 3000 A 0 0 0 0 0 0 0 0 0 0 0 0 0 0 0 0 0 0 0 0 0 0 0 0 0 0 0 0 a2
S 4582 7 3 1 0 1044 1 4575 23445 800014 3000 A 0 0 0 0 0 0 0 0 0 0 0 0 0 0 0 0 0 0 0 0 0 0 0 0 0 0 0 0 a3
S 4583 7 3 1 0 1047 1 4575 23448 800014 3000 A 0 0 0 0 0 0 0 0 0 0 0 0 0 0 0 0 0 0 0 0 0 0 0 0 0 0 0 0 b1
S 4584 7 3 1 0 1050 1 4575 23451 800014 3000 A 0 0 0 0 0 0 0 0 0 0 0 0 0 0 0 0 0 0 0 0 0 0 0 0 0 0 0 0 b2
S 4585 7 3 1 0 1053 1 4575 23454 800014 3000 A 0 0 0 0 0 0 0 0 0 0 0 0 0 0 0 0 0 0 0 0 0 0 0 0 0 0 0 0 b3
S 4586 14 5 0 0 0 1 4575 22973 0 400000 A 0 0 0 0 0 0 0 2053 10 0 0 0 0 0 0 0 0 0 0 0 0 682 0 582 0 0 0 0 write_cell
F 4586 10 4576 4577 4578 4579 4580 4581 4582 4583 4584 4585
S 4587 23 5 0 0 0 4599 582 22984 0 0 A 0 0 0 0 0 0 0 0 0 0 0 0 0 0 0 0 0 0 0 0 0 0 0 0 0 0 0 0 write_ions
S 4588 1 3 1 0 6 1 4587 23457 14 3000 A 0 0 0 0 0 0 0 0 0 0 0 0 0 0 0 0 0 0 0 0 0 0 0 0 0 0 0 0 nsp
S 4589 1 3 1 0 6 1 4587 23461 14 3000 A 0 0 0 0 0 0 0 0 0 0 0 0 0 0 0 0 0 0 0 0 0 0 0 0 0 0 0 0 nat
S 4590 7 3 1 0 1059 1 4587 23465 20000014 10043000 A 0 0 0 0 0 0 0 0 0 0 0 0 0 0 0 0 0 0 0 0 0 0 0 0 0 0 0 0 atm
S 4591 7 3 1 0 1056 1 4587 23469 20000014 10003000 A 0 0 0 0 0 0 0 0 0 0 0 0 0 0 0 0 0 0 0 0 0 0 0 0 0 0 0 0 ityp
S 4592 7 3 1 0 1062 1 4587 15334 20000014 10043000 A 0 0 0 0 0 0 0 0 0 0 0 0 0 0 0 0 0 0 0 0 0 0 0 0 0 0 0 0 psfile
S 4593 1 3 1 0 28 1 4587 15323 14 43000 A 0 0 0 0 0 0 0 0 0 0 0 0 0 0 0 0 0 0 0 0 0 0 0 0 0 0 0 0 pseudo_dir
S 4594 7 3 1 0 1065 1 4587 23474 20000014 10003000 A 0 0 0 0 0 0 0 0 0 0 0 0 0 0 0 0 0 0 0 0 0 0 0 0 0 0 0 0 amass
S 4595 7 3 1 0 1068 1 4587 23480 20000014 10003000 A 0 0 0 0 0 0 0 0 0 0 0 0 0 0 0 0 0 0 0 0 0 0 0 0 0 0 0 0 tau
S 4596 7 3 1 0 1071 1 4587 23484 20000014 10003000 A 0 0 0 0 0 0 0 0 0 0 0 0 0 0 0 0 0 0 0 0 0 0 0 0 0 0 0 0 if_pos
S 4597 1 3 1 0 28 1 4587 23183 14 43000 A 0 0 0 0 0 0 0 0 0 0 0 0 0 0 0 0 0 0 0 0 0 0 0 0 0 0 0 0 dirname
S 4598 1 3 1 0 9 1 4587 23491 14 3000 A 0 0 0 0 0 0 0 0 0 0 0 0 0 0 0 0 0 0 0 0 0 0 0 0 0 0 0 0 pos_unit
S 4599 14 5 0 0 0 1 4587 22984 20000000 400000 A 0 0 0 0 0 0 0 2064 11 0 0 0 0 0 0 0 0 0 0 0 0 759 0 582 0 0 0 0 write_ions
F 4599 11 4588 4589 4590 4591 4592 4593 4594 4595 4596 4597 4598
S 4600 6 1 0 0 6 1 4587 6939 40800016 3000 A 0 0 0 0 0 0 0 0 0 0 0 0 0 0 0 0 0 0 0 0 0 0 0 0 0 0 0 0 z_b_0_1
S 4601 6 1 0 0 6 1 4587 6979 40800016 3000 A 0 0 0 0 0 0 0 0 0 0 0 0 0 0 0 0 0 0 0 0 0 0 0 0 0 0 0 0 z_b_2
S 4602 6 1 0 0 6 1 4587 7011 40800016 3000 A 0 0 0 0 0 0 0 0 0 0 0 0 0 0 0 0 0 0 0 0 0 0 0 0 0 0 0 0 z_b_3
S 4603 6 1 0 0 6 1 4587 23500 40800016 3000 A 0 0 0 0 0 0 0 0 0 0 0 0 0 0 0 0 0 0 0 0 0 0 0 0 0 0 0 0 z_e_1435
S 4604 6 1 0 0 6 1 4587 7017 40800016 3000 A 0 0 0 0 0 0 0 0 0 0 0 0 0 0 0 0 0 0 0 0 0 0 0 0 0 0 0 0 z_b_4
S 4605 6 1 0 0 6 1 4587 7055 40800016 3000 A 0 0 0 0 0 0 0 0 0 0 0 0 0 0 0 0 0 0 0 0 0 0 0 0 0 0 0 0 z_b_6
S 4606 6 1 0 0 6 1 4587 7061 40800016 3000 A 0 0 0 0 0 0 0 0 0 0 0 0 0 0 0 0 0 0 0 0 0 0 0 0 0 0 0 0 z_b_7
S 4607 6 1 0 0 6 1 4587 23509 40800016 3000 A 0 0 0 0 0 0 0 0 0 0 0 0 0 0 0 0 0 0 0 0 0 0 0 0 0 0 0 0 z_e_1442
S 4608 6 1 0 0 6 1 4587 7067 40800016 3000 A 0 0 0 0 0 0 0 0 0 0 0 0 0 0 0 0 0 0 0 0 0 0 0 0 0 0 0 0 z_b_8
S 4609 6 1 0 0 6 1 4587 7131 40800016 3000 A 0 0 0 0 0 0 0 0 0 0 0 0 0 0 0 0 0 0 0 0 0 0 0 0 0 0 0 0 z_b_10
S 4610 6 1 0 0 6 1 4587 7164 40800016 3000 A 0 0 0 0 0 0 0 0 0 0 0 0 0 0 0 0 0 0 0 0 0 0 0 0 0 0 0 0 z_b_11
S 4611 6 1 0 0 6 1 4587 23518 40800016 3000 A 0 0 0 0 0 0 0 0 0 0 0 0 0 0 0 0 0 0 0 0 0 0 0 0 0 0 0 0 z_e_1449
S 4612 6 1 0 0 6 1 4587 7171 40800016 3000 A 0 0 0 0 0 0 0 0 0 0 0 0 0 0 0 0 0 0 0 0 0 0 0 0 0 0 0 0 z_b_12
S 4613 6 1 0 0 6 1 4587 7211 40800016 3000 A 0 0 0 0 0 0 0 0 0 0 0 0 0 0 0 0 0 0 0 0 0 0 0 0 0 0 0 0 z_b_14
S 4614 6 1 0 0 6 1 4587 7218 40800016 3000 A 0 0 0 0 0 0 0 0 0 0 0 0 0 0 0 0 0 0 0 0 0 0 0 0 0 0 0 0 z_b_15
S 4615 6 1 0 0 6 1 4587 23527 40800016 3000 A 0 0 0 0 0 0 0 0 0 0 0 0 0 0 0 0 0 0 0 0 0 0 0 0 0 0 0 0 z_e_1456
S 4616 6 1 0 0 6 1 4587 7251 40800016 3000 A 0 0 0 0 0 0 0 0 0 0 0 0 0 0 0 0 0 0 0 0 0 0 0 0 0 0 0 0 z_b_16
S 4617 6 1 0 0 6 1 4587 7265 40800016 3000 A 0 0 0 0 0 0 0 0 0 0 0 0 0 0 0 0 0 0 0 0 0 0 0 0 0 0 0 0 z_b_18
S 4618 6 1 0 0 6 1 4587 7272 40800016 3000 A 0 0 0 0 0 0 0 0 0 0 0 0 0 0 0 0 0 0 0 0 0 0 0 0 0 0 0 0 z_b_19
S 4619 6 1 0 0 6 1 4587 7355 40800016 3000 A 0 0 0 0 0 0 0 0 0 0 0 0 0 0 0 0 0 0 0 0 0 0 0 0 0 0 0 0 z_b_21
S 4620 6 1 0 0 6 1 4587 7362 40800016 3000 A 0 0 0 0 0 0 0 0 0 0 0 0 0 0 0 0 0 0 0 0 0 0 0 0 0 0 0 0 z_b_22
S 4621 6 1 0 0 6 1 4587 23536 40800016 3000 A 0 0 0 0 0 0 0 0 0 0 0 0 0 0 0 0 0 0 0 0 0 0 0 0 0 0 0 0 z_e_1466
S 4622 6 1 0 0 6 1 4587 23545 40800016 3000 A 0 0 0 0 0 0 0 0 0 0 0 0 0 0 0 0 0 0 0 0 0 0 0 0 0 0 0 0 z_e_1469
S 4623 6 1 0 0 6 1 4587 7392 40800016 3000 A 0 0 0 0 0 0 0 0 0 0 0 0 0 0 0 0 0 0 0 0 0 0 0 0 0 0 0 0 z_b_23
S 4624 6 1 0 0 6 1 4587 7406 40800016 3000 A 0 0 0 0 0 0 0 0 0 0 0 0 0 0 0 0 0 0 0 0 0 0 0 0 0 0 0 0 z_b_25
S 4625 6 1 0 0 6 1 4587 7436 40800016 3000 A 0 0 0 0 0 0 0 0 0 0 0 0 0 0 0 0 0 0 0 0 0 0 0 0 0 0 0 0 z_b_26
S 4626 6 1 0 0 6 1 4587 7450 40800016 3000 A 0 0 0 0 0 0 0 0 0 0 0 0 0 0 0 0 0 0 0 0 0 0 0 0 0 0 0 0 z_b_28
S 4627 6 1 0 0 6 1 4587 7457 40800016 3000 A 0 0 0 0 0 0 0 0 0 0 0 0 0 0 0 0 0 0 0 0 0 0 0 0 0 0 0 0 z_b_29
S 4628 6 1 0 0 6 1 4587 23554 40800016 3000 A 0 0 0 0 0 0 0 0 0 0 0 0 0 0 0 0 0 0 0 0 0 0 0 0 0 0 0 0 z_e_1479
S 4629 6 1 0 0 6 1 4587 23563 40800016 3000 A 0 0 0 0 0 0 0 0 0 0 0 0 0 0 0 0 0 0 0 0 0 0 0 0 0 0 0 0 z_e_1482
S 4630 23 5 0 0 0 4644 582 22995 0 0 A 0 0 0 0 0 0 0 0 0 0 0 0 0 0 0 0 0 0 0 0 0 0 0 0 0 0 0 0 write_symmetry
S 4631 1 3 1 0 6 1 4630 23411 14 3000 A 0 0 0 0 0 0 0 0 0 0 0 0 0 0 0 0 0 0 0 0 0 0 0 0 0 0 0 0 ibrav
S 4632 1 3 1 0 28 1 4630 23417 14 43000 A 0 0 0 0 0 0 0 0 0 0 0 0 0 0 0 0 0 0 0 0 0 0 0 0 0 0 0 0 symm_type
S 4633 1 3 1 0 6 1 4630 23572 14 3000 A 0 0 0 0 0 0 0 0 0 0 0 0 0 0 0 0 0 0 0 0 0 0 0 0 0 0 0 0 nsym
S 4634 1 3 1 0 16 1 4630 23577 14 3000 A 0 0 0 0 0 0 0 0 0 0 0 0 0 0 0 0 0 0 0 0 0 0 0 0 0 0 0 0 invsym
S 4635 1 3 1 0 6 1 4630 23584 14 3000 A 0 0 0 0 0 0 0 0 0 0 0 0 0 0 0 0 0 0 0 0 0 0 0 0 0 0 0 0 nr1
S 4636 1 3 1 0 6 1 4630 23588 14 3000 A 0 0 0 0 0 0 0 0 0 0 0 0 0 0 0 0 0 0 0 0 0 0 0 0 0 0 0 0 nr2
S 4637 1 3 1 0 6 1 4630 23592 14 3000 A 0 0 0 0 0 0 0 0 0 0 0 0 0 0 0 0 0 0 0 0 0 0 0 0 0 0 0 0 nr3
S 4638 7 3 1 0 1077 1 4630 23596 20000014 10003000 A 0 0 0 0 0 0 0 0 0 0 0 0 0 0 0 0 0 0 0 0 0 0 0 0 0 0 0 0 ftau
S 4639 7 3 1 0 1074 1 4630 23601 20000014 10003000 A 0 0 0 0 0 0 0 0 0 0 0 0 0 0 0 0 0 0 0 0 0 0 0 0 0 0 0 0 s
S 4640 7 3 1 0 1080 1 4630 23603 20000014 10043000 A 0 0 0 0 0 0 0 0 0 0 0 0 0 0 0 0 0 0 0 0 0 0 0 0 0 0 0 0 sname
S 4641 7 3 1 0 1083 1 4630 23609 20000014 10003000 A 0 0 0 0 0 0 0 0 0 0 0 0 0 0 0 0 0 0 0 0 0 0 0 0 0 0 0 0 irt
S 4642 1 3 1 0 6 1 4630 23461 14 3000 A 0 0 0 0 0 0 0 0 0 0 0 0 0 0 0 0 0 0 0 0 0 0 0 0 0 0 0 0 nat
S 4643 7 3 1 0 1086 1 4630 23613 20000014 10003000 A 0 0 0 0 0 0 0 0 0 0 0 0 0 0 0 0 0 0 0 0 0 0 0 0 0 0 0 0 t_rev
S 4644 14 5 0 0 0 1 4630 22995 20000000 400000 A 0 0 0 0 0 0 0 2076 13 0 0 0 0 0 0 0 0 0 0 0 0 848 0 582 0 0 0 0 write_symmetry
F 4644 13 4631 4632 4633 4634 4635 4636 4637 4638 4639 4640 4641 4642 4643
S 4645 6 1 0 0 6 1 4630 6939 40800016 3000 A 0 0 0 0 0 0 0 0 0 0 0 0 0 0 0 0 0 0 0 0 0 0 0 0 0 0 0 0 z_b_0_1
S 4646 6 1 0 0 6 1 4630 6979 40800016 3000 A 0 0 0 0 0 0 0 0 0 0 0 0 0 0 0 0 0 0 0 0 0 0 0 0 0 0 0 0 z_b_2
S 4647 6 1 0 0 6 1 4630 7011 40800016 3000 A 0 0 0 0 0 0 0 0 0 0 0 0 0 0 0 0 0 0 0 0 0 0 0 0 0 0 0 0 z_b_3
S 4648 6 1 0 0 6 1 4630 7023 40800016 3000 A 0 0 0 0 0 0 0 0 0 0 0 0 0 0 0 0 0 0 0 0 0 0 0 0 0 0 0 0 z_b_5
S 4649 6 1 0 0 6 1 4630 7055 40800016 3000 A 0 0 0 0 0 0 0 0 0 0 0 0 0 0 0 0 0 0 0 0 0 0 0 0 0 0 0 0 z_b_6
S 4650 6 1 0 0 6 1 4630 7067 40800016 3000 A 0 0 0 0 0 0 0 0 0 0 0 0 0 0 0 0 0 0 0 0 0 0 0 0 0 0 0 0 z_b_8
S 4651 6 1 0 0 6 1 4630 7073 40800016 3000 A 0 0 0 0 0 0 0 0 0 0 0 0 0 0 0 0 0 0 0 0 0 0 0 0 0 0 0 0 z_b_9
S 4652 6 1 0 0 6 1 4630 23619 40800016 3000 A 0 0 0 0 0 0 0 0 0 0 0 0 0 0 0 0 0 0 0 0 0 0 0 0 0 0 0 0 z_e_1471
S 4653 6 1 0 0 6 1 4630 23628 40800016 3000 A 0 0 0 0 0 0 0 0 0 0 0 0 0 0 0 0 0 0 0 0 0 0 0 0 0 0 0 0 z_e_1474
S 4654 6 1 0 0 6 1 4630 23637 40800016 3000 A 0 0 0 0 0 0 0 0 0 0 0 0 0 0 0 0 0 0 0 0 0 0 0 0 0 0 0 0 z_e_1477
S 4655 6 1 0 0 6 1 4630 7131 40800016 3000 A 0 0 0 0 0 0 0 0 0 0 0 0 0 0 0 0 0 0 0 0 0 0 0 0 0 0 0 0 z_b_10
S 4656 6 1 0 0 6 1 4630 7171 40800016 3000 A 0 0 0 0 0 0 0 0 0 0 0 0 0 0 0 0 0 0 0 0 0 0 0 0 0 0 0 0 z_b_12
S 4657 6 1 0 0 6 1 4630 7204 40800016 3000 A 0 0 0 0 0 0 0 0 0 0 0 0 0 0 0 0 0 0 0 0 0 0 0 0 0 0 0 0 z_b_13
S 4658 6 1 0 0 6 1 4630 7218 40800016 3000 A 0 0 0 0 0 0 0 0 0 0 0 0 0 0 0 0 0 0 0 0 0 0 0 0 0 0 0 0 z_b_15
S 4659 6 1 0 0 6 1 4630 7251 40800016 3000 A 0 0 0 0 0 0 0 0 0 0 0 0 0 0 0 0 0 0 0 0 0 0 0 0 0 0 0 0 z_b_16
S 4660 6 1 0 0 6 1 4630 23646 40800016 3000 A 0 0 0 0 0 0 0 0 0 0 0 0 0 0 0 0 0 0 0 0 0 0 0 0 0 0 0 0 z_e_1487
S 4661 6 1 0 0 6 1 4630 23655 40800016 3000 A 0 0 0 0 0 0 0 0 0 0 0 0 0 0 0 0 0 0 0 0 0 0 0 0 0 0 0 0 z_e_1490
S 4662 6 1 0 0 6 1 4630 7258 40800016 3000 A 0 0 0 0 0 0 0 0 0 0 0 0 0 0 0 0 0 0 0 0 0 0 0 0 0 0 0 0 z_b_17
S 4663 6 1 0 0 6 1 4630 7272 40800016 3000 A 0 0 0 0 0 0 0 0 0 0 0 0 0 0 0 0 0 0 0 0 0 0 0 0 0 0 0 0 z_b_19
S 4664 6 1 0 0 6 1 4630 7325 40800016 3000 A 0 0 0 0 0 0 0 0 0 0 0 0 0 0 0 0 0 0 0 0 0 0 0 0 0 0 0 0 z_b_20
S 4665 6 1 0 0 6 1 4630 23664 40800016 3000 A 0 0 0 0 0 0 0 0 0 0 0 0 0 0 0 0 0 0 0 0 0 0 0 0 0 0 0 0 z_e_1497
S 4666 6 1 0 0 6 1 4630 7355 40800016 3000 A 0 0 0 0 0 0 0 0 0 0 0 0 0 0 0 0 0 0 0 0 0 0 0 0 0 0 0 0 z_b_21
S 4667 6 1 0 0 6 1 4630 7392 40800016 3000 A 0 0 0 0 0 0 0 0 0 0 0 0 0 0 0 0 0 0 0 0 0 0 0 0 0 0 0 0 z_b_23
S 4668 6 1 0 0 6 1 4630 7399 40800016 3000 A 0 0 0 0 0 0 0 0 0 0 0 0 0 0 0 0 0 0 0 0 0 0 0 0 0 0 0 0 z_b_24
S 4669 6 1 0 0 6 1 4630 7436 40800016 3000 A 0 0 0 0 0 0 0 0 0 0 0 0 0 0 0 0 0 0 0 0 0 0 0 0 0 0 0 0 z_b_26
S 4670 6 1 0 0 6 1 4630 7443 40800016 3000 A 0 0 0 0 0 0 0 0 0 0 0 0 0 0 0 0 0 0 0 0 0 0 0 0 0 0 0 0 z_b_27
S 4671 6 1 0 0 6 1 4630 23673 40800016 3000 A 0 0 0 0 0 0 0 0 0 0 0 0 0 0 0 0 0 0 0 0 0 0 0 0 0 0 0 0 z_e_1507
S 4672 6 1 0 0 6 1 4630 23682 40800016 3000 A 0 0 0 0 0 0 0 0 0 0 0 0 0 0 0 0 0 0 0 0 0 0 0 0 0 0 0 0 z_e_1510
S 4673 6 1 0 0 6 1 4630 7450 40800016 3000 A 0 0 0 0 0 0 0 0 0 0 0 0 0 0 0 0 0 0 0 0 0 0 0 0 0 0 0 0 z_b_28
S 4674 6 1 0 0 6 1 4630 7510 40800016 3000 A 0 0 0 0 0 0 0 0 0 0 0 0 0 0 0 0 0 0 0 0 0 0 0 0 0 0 0 0 z_b_30
S 4675 6 1 0 0 6 1 4630 7540 40800016 3000 A 0 0 0 0 0 0 0 0 0 0 0 0 0 0 0 0 0 0 0 0 0 0 0 0 0 0 0 0 z_b_31
S 4676 6 1 0 0 6 1 4630 23691 40800016 3000 A 0 0 0 0 0 0 0 0 0 0 0 0 0 0 0 0 0 0 0 0 0 0 0 0 0 0 0 0 z_e_1517
S 4677 23 5 0 0 0 4684 582 23027 0 0 A 0 0 0 0 0 0 0 0 0 0 0 0 0 0 0 0 0 0 0 0 0 0 0 0 0 0 0 0 write_efield
S 4678 1 3 1 0 16 1 4677 23700 14 3000 A 0 0 0 0 0 0 0 0 0 0 0 0 0 0 0 0 0 0 0 0 0 0 0 0 0 0 0 0 tefield
S 4679 1 3 1 0 16 1 4677 23708 14 3000 A 0 0 0 0 0 0 0 0 0 0 0 0 0 0 0 0 0 0 0 0 0 0 0 0 0 0 0 0 dipfield
S 4680 1 3 1 0 6 1 4677 23717 14 3000 A 0 0 0 0 0 0 0 0 0 0 0 0 0 0 0 0 0 0 0 0 0 0 0 0 0 0 0 0 edir
S 4681 1 3 1 0 9 1 4677 23722 14 3000 A 0 0 0 0 0 0 0 0 0 0 0 0 0 0 0 0 0 0 0 0 0 0 0 0 0 0 0 0 emaxpos
S 4682 1 3 1 0 9 1 4677 23730 14 3000 A 0 0 0 0 0 0 0 0 0 0 0 0 0 0 0 0 0 0 0 0 0 0 0 0 0 0 0 0 eopreg
S 4683 1 3 1 0 9 1 4677 23737 14 3000 A 0 0 0 0 0 0 0 0 0 0 0 0 0 0 0 0 0 0 0 0 0 0 0 0 0 0 0 0 eamp
S 4684 14 5 0 0 0 1 4677 23027 0 400000 A 0 0 0 0 0 0 0 2090 6 0 0 0 0 0 0 0 0 0 0 0 0 902 0 582 0 0 0 0 write_efield
F 4684 6 4678 4679 4680 4681 4682 4683
S 4685 23 5 0 0 0 4703 582 23010 0 0 A 0 0 0 0 0 0 0 0 0 0 0 0 0 0 0 0 0 0 0 0 0 0 0 0 0 0 0 0 write_planewaves
S 4686 1 3 1 0 9 1 4685 23742 14 3000 A 0 0 0 0 0 0 0 0 0 0 0 0 0 0 0 0 0 0 0 0 0 0 0 0 0 0 0 0 ecutwfc
S 4687 1 3 1 0 9 1 4685 23750 14 3000 A 0 0 0 0 0 0 0 0 0 0 0 0 0 0 0 0 0 0 0 0 0 0 0 0 0 0 0 0 dual
S 4688 1 3 1 0 6 1 4685 23755 14 3000 A 0 0 0 0 0 0 0 0 0 0 0 0 0 0 0 0 0 0 0 0 0 0 0 0 0 0 0 0 npwx
S 4689 1 3 1 0 16 1 4685 23760 14 3000 A 0 0 0 0 0 0 0 0 0 0 0 0 0 0 0 0 0 0 0 0 0 0 0 0 0 0 0 0 gamma_only
S 4690 1 3 1 0 6 1 4685 23584 14 3000 A 0 0 0 0 0 0 0 0 0 0 0 0 0 0 0 0 0 0 0 0 0 0 0 0 0 0 0 0 nr1
S 4691 1 3 1 0 6 1 4685 23588 14 3000 A 0 0 0 0 0 0 0 0 0 0 0 0 0 0 0 0 0 0 0 0 0 0 0 0 0 0 0 0 nr2
S 4692 1 3 1 0 6 1 4685 23592 14 3000 A 0 0 0 0 0 0 0 0 0 0 0 0 0 0 0 0 0 0 0 0 0 0 0 0 0 0 0 0 nr3
S 4693 1 3 1 0 6 1 4685 23771 14 3000 A 0 0 0 0 0 0 0 0 0 0 0 0 0 0 0 0 0 0 0 0 0 0 0 0 0 0 0 0 ngm_g
S 4694 1 3 1 0 6 1 4685 23777 14 3000 A 0 0 0 0 0 0 0 0 0 0 0 0 0 0 0 0 0 0 0 0 0 0 0 0 0 0 0 0 nr1s
S 4695 1 3 1 0 6 1 4685 23782 14 3000 A 0 0 0 0 0 0 0 0 0 0 0 0 0 0 0 0 0 0 0 0 0 0 0 0 0 0 0 0 nr2s
S 4696 1 3 1 0 6 1 4685 23787 14 3000 A 0 0 0 0 0 0 0 0 0 0 0 0 0 0 0 0 0 0 0 0 0 0 0 0 0 0 0 0 nr3s
S 4697 1 3 1 0 6 1 4685 23792 14 3000 A 0 0 0 0 0 0 0 0 0 0 0 0 0 0 0 0 0 0 0 0 0 0 0 0 0 0 0 0 ngms_g
S 4698 1 3 1 0 6 1 4685 23799 14 3000 A 0 0 0 0 0 0 0 0 0 0 0 0 0 0 0 0 0 0 0 0 0 0 0 0 0 0 0 0 nr1b
S 4699 1 3 1 0 6 1 4685 23804 14 3000 A 0 0 0 0 0 0 0 0 0 0 0 0 0 0 0 0 0 0 0 0 0 0 0 0 0 0 0 0 nr2b
S 4700 1 3 1 0 6 1 4685 23809 14 3000 A 0 0 0 0 0 0 0 0 0 0 0 0 0 0 0 0 0 0 0 0 0 0 0 0 0 0 0 0 nr3b
S 4701 7 3 1 0 1089 1 4685 23814 20000014 10003000 A 0 0 0 0 0 0 0 0 0 0 0 0 0 0 0 0 0 0 0 0 0 0 0 0 0 0 0 0 itmp
S 4702 1 3 1 0 16 1 4685 23819 14 3000 A 0 0 0 0 0 0 0 0 0 0 0 0 0 0 0 0 0 0 0 0 0 0 0 0 0 0 0 0 lgvec
S 4703 14 5 0 0 0 1 4685 23010 20000000 400000 A 0 0 0 0 0 0 0 2097 17 0 0 0 0 0 0 0 0 0 0 0 0 936 0 582 0 0 0 0 write_planewaves
F 4703 17 4686 4687 4688 4689 4690 4691 4692 4693 4694 4695 4696 4697 4698 4699 4700 4701 4702
S 4704 6 1 0 0 6 1 4685 6939 40800016 3000 A 0 0 0 0 0 0 0 0 0 0 0 0 0 0 0 0 0 0 0 0 0 0 0 0 0 0 0 0 z_b_0_1
S 4705 6 1 0 0 6 1 4685 6979 40800016 3000 A 0 0 0 0 0 0 0 0 0 0 0 0 0 0 0 0 0 0 0 0 0 0 0 0 0 0 0 0 z_b_2
S 4706 6 1 0 0 6 1 4685 7011 40800016 3000 A 0 0 0 0 0 0 0 0 0 0 0 0 0 0 0 0 0 0 0 0 0 0 0 0 0 0 0 0 z_b_3
S 4707 6 1 0 0 6 1 4685 7023 40800016 3000 A 0 0 0 0 0 0 0 0 0 0 0 0 0 0 0 0 0 0 0 0 0 0 0 0 0 0 0 0 z_b_5
S 4708 6 1 0 0 6 1 4685 7055 40800016 3000 A 0 0 0 0 0 0 0 0 0 0 0 0 0 0 0 0 0 0 0 0 0 0 0 0 0 0 0 0 z_b_6
S 4709 6 1 0 0 6 1 4685 23825 40800016 3000 A 0 0 0 0 0 0 0 0 0 0 0 0 0 0 0 0 0 0 0 0 0 0 0 0 0 0 0 0 z_e_1593
S 4710 6 1 0 0 6 1 4685 23834 40800016 3000 A 0 0 0 0 0 0 0 0 0 0 0 0 0 0 0 0 0 0 0 0 0 0 0 0 0 0 0 0 z_e_1596
S 4711 23 5 0 0 0 4717 582 23040 0 0 A 0 0 0 0 0 0 0 0 0 0 0 0 0 0 0 0 0 0 0 0 0 0 0 0 0 0 0 0 write_spin
S 4712 1 3 1 0 16 1 4711 23843 14 3000 A 0 0 0 0 0 0 0 0 0 0 0 0 0 0 0 0 0 0 0 0 0 0 0 0 0 0 0 0 lsda
S 4713 1 3 1 0 16 1 4711 23848 14 3000 A 0 0 0 0 0 0 0 0 0 0 0 0 0 0 0 0 0 0 0 0 0 0 0 0 0 0 0 0 noncolin
S 4714 1 3 1 0 6 1 4711 23857 14 3000 A 0 0 0 0 0 0 0 0 0 0 0 0 0 0 0 0 0 0 0 0 0 0 0 0 0 0 0 0 npol
S 4715 1 3 1 0 16 1 4711 23862 14 3000 A 0 0 0 0 0 0 0 0 0 0 0 0 0 0 0 0 0 0 0 0 0 0 0 0 0 0 0 0 lspinorb
S 4716 1 3 1 0 16 1 4711 23871 14 3000 A 0 0 0 0 0 0 0 0 0 0 0 0 0 0 0 0 0 0 0 0 0 0 0 0 0 0 0 0 domag
S 4717 14 5 0 0 0 1 4711 23040 0 400000 A 0 0 0 0 0 0 0 2115 5 0 0 0 0 0 0 0 0 0 0 0 0 1009 0 582 0 0 0 0 write_spin
F 4717 5 4712 4713 4714 4715 4716
S 4718 23 5 0 0 0 4732 582 23051 0 0 A 0 0 0 0 0 0 0 0 0 0 0 0 0 0 0 0 0 0 0 0 0 0 0 0 0 0 0 0 write_magnetization
S 4719 7 3 1 0 1092 1 4718 23877 800214 3000 A 0 0 0 0 0 0 0 0 0 0 0 0 0 0 0 0 0 0 0 0 0 0 0 0 0 0 0 0 starting_magnetization
S 4720 7 3 1 0 1095 1 4718 23900 800214 3000 A 0 0 0 0 0 0 0 0 0 0 0 0 0 0 0 0 0 0 0 0 0 0 0 0 0 0 0 0 angle1
S 4721 7 3 1 0 1098 1 4718 23907 800214 3000 A 0 0 0 0 0 0 0 0 0 0 0 0 0 0 0 0 0 0 0 0 0 0 0 0 0 0 0 0 angle2
S 4722 6 3 1 0 6 1 4718 23457 800014 3000 A 0 0 0 0 0 0 0 0 0 0 0 0 0 0 0 0 0 0 0 0 0 0 0 0 0 0 0 0 nsp
S 4723 1 3 1 0 16 1 4718 23914 14 3000 A 0 0 0 0 0 0 0 0 0 0 0 0 0 0 0 0 0 0 0 0 0 0 0 0 0 0 0 0 two_fermi_energies
S 4724 1 3 1 0 6 1 4718 23933 14 3000 A 0 0 0 0 0 0 0 0 0 0 0 0 0 0 0 0 0 0 0 0 0 0 0 0 0 0 0 0 i_cons
S 4725 7 3 1 0 1101 1 4718 23940 800214 3000 A 0 0 0 0 0 0 0 0 0 0 0 0 0 0 0 0 0 0 0 0 0 0 0 0 0 0 0 0 mcons
S 4726 7 3 1 0 1104 1 4718 23946 800014 3000 A 0 0 0 0 0 0 0 0 0 0 0 0 0 0 0 0 0 0 0 0 0 0 0 0 0 0 0 0 bfield
S 4727 1 3 1 0 9 1 4718 23953 14 3000 A 0 0 0 0 0 0 0 0 0 0 0 0 0 0 0 0 0 0 0 0 0 0 0 0 0 0 0 0 ef_up
S 4728 1 3 1 0 9 1 4718 23959 14 3000 A 0 0 0 0 0 0 0 0 0 0 0 0 0 0 0 0 0 0 0 0 0 0 0 0 0 0 0 0 ef_dw
S 4729 1 3 1 0 9 1 4718 23965 14 3000 A 0 0 0 0 0 0 0 0 0 0 0 0 0 0 0 0 0 0 0 0 0 0 0 0 0 0 0 0 nelup
S 4730 1 3 1 0 9 1 4718 23971 14 3000 A 0 0 0 0 0 0 0 0 0 0 0 0 0 0 0 0 0 0 0 0 0 0 0 0 0 0 0 0 neldw
S 4731 1 3 1 0 9 1 4718 23977 14 3000 A 0 0 0 0 0 0 0 0 0 0 0 0 0 0 0 0 0 0 0 0 0 0 0 0 0 0 0 0 lambda
S 4732 14 5 0 0 0 1 4718 23051 200 400000 A 0 0 0 0 0 0 0 2121 13 0 0 0 0 0 0 0 0 0 0 0 0 1033 0 582 0 0 0 0 write_magnetization
F 4732 13 4719 4720 4721 4722 4723 4724 4725 4726 4727 4728 4729 4730 4731
S 4733 6 1 0 0 6 1 4718 23984 40800016 3000 A 0 0 0 0 0 0 0 0 0 0 0 0 0 0 0 0 0 0 0 0 0 0 0 0 0 0 0 0 z_e_1592
S 4734 6 1 0 0 6 1 4718 23993 40800016 3000 A 0 0 0 0 0 0 0 0 0 0 0 0 0 0 0 0 0 0 0 0 0 0 0 0 0 0 0 0 z_e_1594
S 4735 23 5 0 0 0 4743 582 23071 0 0 A 0 0 0 0 0 0 0 0 0 0 0 0 0 0 0 0 0 0 0 0 0 0 0 0 0 0 0 0 write_xc
S 4736 1 3 1 0 28 1 4735 24002 14 43000 A 0 0 0 0 0 0 0 0 0 0 0 0 0 0 0 0 0 0 0 0 0 0 0 0 0 0 0 0 dft
S 4737 1 3 1 0 6 1 4735 23457 80000014 3000 A 0 0 0 0 0 0 0 0 0 0 0 0 0 0 0 0 0 0 0 0 0 0 0 0 0 0 0 0 nsp
S 4738 1 3 1 0 16 1 4735 24006 14 3000 A 0 0 0 0 0 0 0 0 0 0 0 0 0 0 0 0 0 0 0 0 0 0 0 0 0 0 0 0 lda_plus_u
S 4739 1 3 1 0 6 1 4735 24017 80000014 3000 A 0 0 0 0 0 0 0 0 0 0 0 0 0 0 0 0 0 0 0 0 0 0 0 0 0 0 0 0 hubbard_lmax
S 4740 7 3 1 0 1107 1 4735 24030 a0000014 10003000 A 0 0 0 0 0 0 0 0 0 0 0 0 0 0 0 0 0 0 0 0 0 0 0 0 0 0 0 0 hubbard_l
S 4741 7 3 1 0 1110 1 4735 24040 a0000014 10003000 A 0 0 0 0 0 0 0 0 0 0 0 0 0 0 0 0 0 0 0 0 0 0 0 0 0 0 0 0 hubbard_u
S 4742 7 3 1 0 1113 1 4735 24050 a0000014 10003000 A 0 0 0 0 0 0 0 0 0 0 0 0 0 0 0 0 0 0 0 0 0 0 0 0 0 0 0 0 hubbard_alpha
S 4743 14 5 0 0 0 1 4735 23071 20000000 400000 A 0 0 0 0 0 0 0 2135 7 0 0 0 0 0 0 0 0 0 0 0 0 1110 0 582 0 0 0 0 write_xc
F 4743 7 4736 4737 4738 4739 4740 4741 4742
S 4744 6 1 0 0 6 1 4735 6939 40800016 3000 A 0 0 0 0 0 0 0 0 0 0 0 0 0 0 0 0 0 0 0 0 0 0 0 0 0 0 0 0 z_b_0_1
S 4745 6 1 0 0 6 1 4735 6979 40800016 3000 A 0 0 0 0 0 0 0 0 0 0 0 0 0 0 0 0 0 0 0 0 0 0 0 0 0 0 0 0 z_b_2
S 4746 6 1 0 0 6 1 4735 7011 40800016 3000 A 0 0 0 0 0 0 0 0 0 0 0 0 0 0 0 0 0 0 0 0 0 0 0 0 0 0 0 0 z_b_3
S 4747 6 1 0 0 6 1 4735 23673 40800016 3000 A 0 0 0 0 0 0 0 0 0 0 0 0 0 0 0 0 0 0 0 0 0 0 0 0 0 0 0 0 z_e_1507
S 4748 6 1 0 0 6 1 4735 7017 40800016 3000 A 0 0 0 0 0 0 0 0 0 0 0 0 0 0 0 0 0 0 0 0 0 0 0 0 0 0 0 0 z_b_4
S 4749 6 1 0 0 6 1 4735 7055 40800016 3000 A 0 0 0 0 0 0 0 0 0 0 0 0 0 0 0 0 0 0 0 0 0 0 0 0 0 0 0 0 z_b_6
S 4750 6 1 0 0 6 1 4735 7061 40800016 3000 A 0 0 0 0 0 0 0 0 0 0 0 0 0 0 0 0 0 0 0 0 0 0 0 0 0 0 0 0 z_b_7
S 4751 6 1 0 0 6 1 4735 24064 40800016 3000 A 0 0 0 0 0 0 0 0 0 0 0 0 0 0 0 0 0 0 0 0 0 0 0 0 0 0 0 0 z_e_1514
S 4752 6 1 0 0 6 1 4735 7067 40800016 3000 A 0 0 0 0 0 0 0 0 0 0 0 0 0 0 0 0 0 0 0 0 0 0 0 0 0 0 0 0 z_b_8
S 4753 6 1 0 0 6 1 4735 7131 40800016 3000 A 0 0 0 0 0 0 0 0 0 0 0 0 0 0 0 0 0 0 0 0 0 0 0 0 0 0 0 0 z_b_10
S 4754 6 1 0 0 6 1 4735 7164 40800016 3000 A 0 0 0 0 0 0 0 0 0 0 0 0 0 0 0 0 0 0 0 0 0 0 0 0 0 0 0 0 z_b_11
S 4755 6 1 0 0 6 1 4735 24073 40800016 3000 A 0 0 0 0 0 0 0 0 0 0 0 0 0 0 0 0 0 0 0 0 0 0 0 0 0 0 0 0 z_e_1521
S 4756 23 5 0 0 0 4768 582 23080 0 0 A 0 0 0 0 0 0 0 0 0 0 0 0 0 0 0 0 0 0 0 0 0 0 0 0 0 0 0 0 write_occ
S 4757 1 3 1 0 16 1 4756 24082 14 3000 A 0 0 0 0 0 0 0 0 0 0 0 0 0 0 0 0 0 0 0 0 0 0 0 0 0 0 0 0 lgauss
S 4758 1 3 1 0 6 1 4756 24089 80000014 3000 A 0 0 0 0 0 0 0 0 0 0 0 0 0 0 0 0 0 0 0 0 0 0 0 0 0 0 0 0 ngauss
S 4759 1 3 1 0 9 1 4756 24096 80000014 3000 A 0 0 0 0 0 0 0 0 0 0 0 0 0 0 0 0 0 0 0 0 0 0 0 0 0 0 0 0 degauss
S 4760 1 3 1 0 16 1 4756 24104 14 3000 A 0 0 0 0 0 0 0 0 0 0 0 0 0 0 0 0 0 0 0 0 0 0 0 0 0 0 0 0 ltetra
S 4761 1 3 1 0 6 1 4756 24111 80000014 3000 A 0 0 0 0 0 0 0 0 0 0 0 0 0 0 0 0 0 0 0 0 0 0 0 0 0 0 0 0 ntetra
S 4762 7 3 1 0 1116 1 4756 24118 a0000014 10003000 A 0 0 0 0 0 0 0 0 0 0 0 0 0 0 0 0 0 0 0 0 0 0 0 0 0 0 0 0 tetra
S 4763 1 3 1 0 16 1 4756 24124 14 3000 A 0 0 0 0 0 0 0 0 0 0 0 0 0 0 0 0 0 0 0 0 0 0 0 0 0 0 0 0 tfixed_occ
S 4764 1 3 1 0 16 1 4756 23843 14 3000 A 0 0 0 0 0 0 0 0 0 0 0 0 0 0 0 0 0 0 0 0 0 0 0 0 0 0 0 0 lsda
S 4765 1 3 1 0 6 1 4756 24135 80000014 3000 A 0 0 0 0 0 0 0 0 0 0 0 0 0 0 0 0 0 0 0 0 0 0 0 0 0 0 0 0 nstates_up
S 4766 1 3 1 0 6 1 4756 24146 80000014 3000 A 0 0 0 0 0 0 0 0 0 0 0 0 0 0 0 0 0 0 0 0 0 0 0 0 0 0 0 0 nstates_down
S 4767 7 3 1 0 1119 1 4756 24159 a0000014 10003000 A 0 0 0 0 0 0 0 0 0 0 0 0 0 0 0 0 0 0 0 0 0 0 0 0 0 0 0 0 f_inp
S 4768 14 5 0 0 0 1 4756 23080 20000000 400000 A 0 0 0 0 0 0 0 2143 11 0 0 0 0 0 0 0 0 0 0 0 0 1156 0 582 0 0 0 0 write_occ
F 4768 11 4757 4758 4759 4760 4761 4762 4763 4764 4765 4766 4767
S 4769 6 1 0 0 6 1 4756 6939 40800016 3000 A 0 0 0 0 0 0 0 0 0 0 0 0 0 0 0 0 0 0 0 0 0 0 0 0 0 0 0 0 z_b_0_1
S 4770 6 1 0 0 6 1 4756 6979 40800016 3000 A 0 0 0 0 0 0 0 0 0 0 0 0 0 0 0 0 0 0 0 0 0 0 0 0 0 0 0 0 z_b_2
S 4771 6 1 0 0 6 1 4756 7011 40800016 3000 A 0 0 0 0 0 0 0 0 0 0 0 0 0 0 0 0 0 0 0 0 0 0 0 0 0 0 0 0 z_b_3
S 4772 6 1 0 0 6 1 4756 7023 40800016 3000 A 0 0 0 0 0 0 0 0 0 0 0 0 0 0 0 0 0 0 0 0 0 0 0 0 0 0 0 0 z_b_5
S 4773 6 1 0 0 6 1 4756 7055 40800016 3000 A 0 0 0 0 0 0 0 0 0 0 0 0 0 0 0 0 0 0 0 0 0 0 0 0 0 0 0 0 z_b_6
S 4774 6 1 0 0 6 1 4756 24165 40800016 3000 A 0 0 0 0 0 0 0 0 0 0 0 0 0 0 0 0 0 0 0 0 0 0 0 0 0 0 0 0 z_e_1615
S 4775 6 1 0 0 6 1 4756 24174 40800016 3000 A 0 0 0 0 0 0 0 0 0 0 0 0 0 0 0 0 0 0 0 0 0 0 0 0 0 0 0 0 z_e_1618
S 4776 6 1 0 0 6 1 4756 7061 40800016 3000 A 0 0 0 0 0 0 0 0 0 0 0 0 0 0 0 0 0 0 0 0 0 0 0 0 0 0 0 0 z_b_7
S 4777 6 1 0 0 6 1 4756 7073 40800016 3000 A 0 0 0 0 0 0 0 0 0 0 0 0 0 0 0 0 0 0 0 0 0 0 0 0 0 0 0 0 z_b_9
S 4778 6 1 0 0 6 1 4756 7131 40800016 3000 A 0 0 0 0 0 0 0 0 0 0 0 0 0 0 0 0 0 0 0 0 0 0 0 0 0 0 0 0 z_b_10
S 4779 6 1 0 0 6 1 4756 7171 40800016 3000 A 0 0 0 0 0 0 0 0 0 0 0 0 0 0 0 0 0 0 0 0 0 0 0 0 0 0 0 0 z_b_12
S 4780 6 1 0 0 6 1 4756 7204 40800016 3000 A 0 0 0 0 0 0 0 0 0 0 0 0 0 0 0 0 0 0 0 0 0 0 0 0 0 0 0 0 z_b_13
S 4781 6 1 0 0 6 1 4756 24183 40800016 3000 A 0 0 0 0 0 0 0 0 0 0 0 0 0 0 0 0 0 0 0 0 0 0 0 0 0 0 0 0 z_e_1628
S 4782 6 1 0 0 6 1 4756 24192 40800016 3000 A 0 0 0 0 0 0 0 0 0 0 0 0 0 0 0 0 0 0 0 0 0 0 0 0 0 0 0 0 z_e_1631
S 4783 23 5 0 0 0 4793 582 23090 0 0 A 0 0 0 0 0 0 0 0 0 0 0 0 0 0 0 0 0 0 0 0 0 0 0 0 0 0 0 0 write_bz
S 4784 1 3 1 0 6 1 4783 24201 14 3000 A 0 0 0 0 0 0 0 0 0 0 0 0 0 0 0 0 0 0 0 0 0 0 0 0 0 0 0 0 num_k_points
S 4785 7 3 1 0 1122 1 4783 24214 20000014 10003000 A 0 0 0 0 0 0 0 0 0 0 0 0 0 0 0 0 0 0 0 0 0 0 0 0 0 0 0 0 xk
S 4786 7 3 1 0 1125 1 4783 24217 20000014 10003000 A 0 0 0 0 0 0 0 0 0 0 0 0 0 0 0 0 0 0 0 0 0 0 0 0 0 0 0 0 wk
S 4787 1 3 1 0 6 1 4783 24220 14 3000 A 0 0 0 0 0 0 0 0 0 0 0 0 0 0 0 0 0 0 0 0 0 0 0 0 0 0 0 0 k1
S 4788 1 3 1 0 6 1 4783 24223 14 3000 A 0 0 0 0 0 0 0 0 0 0 0 0 0 0 0 0 0 0 0 0 0 0 0 0 0 0 0 0 k2
S 4789 1 3 1 0 6 1 4783 24226 14 3000 A 0 0 0 0 0 0 0 0 0 0 0 0 0 0 0 0 0 0 0 0 0 0 0 0 0 0 0 0 k3
S 4790 1 3 1 0 6 1 4783 24229 14 3000 A 0 0 0 0 0 0 0 0 0 0 0 0 0 0 0 0 0 0 0 0 0 0 0 0 0 0 0 0 nk1
S 4791 1 3 1 0 6 1 4783 24233 14 3000 A 0 0 0 0 0 0 0 0 0 0 0 0 0 0 0 0 0 0 0 0 0 0 0 0 0 0 0 0 nk2
S 4792 1 3 1 0 6 1 4783 24237 14 3000 A 0 0 0 0 0 0 0 0 0 0 0 0 0 0 0 0 0 0 0 0 0 0 0 0 0 0 0 0 nk3
S 4793 14 5 0 0 0 1 4783 23090 20000000 400000 A 0 0 0 0 0 0 0 2155 9 0 0 0 0 0 0 0 0 0 0 0 0 1222 0 582 0 0 0 0 write_bz
F 4793 9 4784 4785 4786 4787 4788 4789 4790 4791 4792
S 4794 6 1 0 0 6 1 4783 6939 40800016 3000 A 0 0 0 0 0 0 0 0 0 0 0 0 0 0 0 0 0 0 0 0 0 0 0 0 0 0 0 0 z_b_0_1
S 4795 6 1 0 0 6 1 4783 6979 40800016 3000 A 0 0 0 0 0 0 0 0 0 0 0 0 0 0 0 0 0 0 0 0 0 0 0 0 0 0 0 0 z_b_2
S 4796 6 1 0 0 6 1 4783 7011 40800016 3000 A 0 0 0 0 0 0 0 0 0 0 0 0 0 0 0 0 0 0 0 0 0 0 0 0 0 0 0 0 z_b_3
S 4797 6 1 0 0 6 1 4783 7023 40800016 3000 A 0 0 0 0 0 0 0 0 0 0 0 0 0 0 0 0 0 0 0 0 0 0 0 0 0 0 0 0 z_b_5
S 4798 6 1 0 0 6 1 4783 7055 40800016 3000 A 0 0 0 0 0 0 0 0 0 0 0 0 0 0 0 0 0 0 0 0 0 0 0 0 0 0 0 0 z_b_6
S 4799 6 1 0 0 6 1 4783 24241 40800016 3000 A 0 0 0 0 0 0 0 0 0 0 0 0 0 0 0 0 0 0 0 0 0 0 0 0 0 0 0 0 z_e_1536
S 4800 6 1 0 0 6 1 4783 24250 40800016 3000 A 0 0 0 0 0 0 0 0 0 0 0 0 0 0 0 0 0 0 0 0 0 0 0 0 0 0 0 0 z_e_1539
S 4801 6 1 0 0 6 1 4783 7061 40800016 3000 A 0 0 0 0 0 0 0 0 0 0 0 0 0 0 0 0 0 0 0 0 0 0 0 0 0 0 0 0 z_b_7
S 4802 6 1 0 0 6 1 4783 7073 40800016 3000 A 0 0 0 0 0 0 0 0 0 0 0 0 0 0 0 0 0 0 0 0 0 0 0 0 0 0 0 0 z_b_9
S 4803 6 1 0 0 6 1 4783 7131 40800016 3000 A 0 0 0 0 0 0 0 0 0 0 0 0 0 0 0 0 0 0 0 0 0 0 0 0 0 0 0 0 z_b_10
S 4804 6 1 0 0 6 1 4783 24259 40800016 3000 A 0 0 0 0 0 0 0 0 0 0 0 0 0 0 0 0 0 0 0 0 0 0 0 0 0 0 0 0 z_e_1546
S 4805 23 5 0 0 0 4808 582 23099 0 0 A 0 0 0 0 0 0 0 0 0 0 0 0 0 0 0 0 0 0 0 0 0 0 0 0 0 0 0 0 write_phonon
S 4806 1 3 1 0 6 1 4805 24268 14 3000 A 0 0 0 0 0 0 0 0 0 0 0 0 0 0 0 0 0 0 0 0 0 0 0 0 0 0 0 0 modenum
S 4807 7 3 1 0 1128 1 4805 24276 20000014 10003000 A 0 0 0 0 0 0 0 0 0 0 0 0 0 0 0 0 0 0 0 0 0 0 0 0 0 0 0 0 xqq
S 4808 14 5 0 0 0 1 4805 23099 20000000 400000 A 0 0 0 0 0 0 0 2165 2 0 0 0 0 0 0 0 0 0 0 0 0 1263 0 582 0 0 0 0 write_phonon
F 4808 2 4806 4807
S 4809 6 1 0 0 6 1 4805 6939 40800016 3000 A 0 0 0 0 0 0 0 0 0 0 0 0 0 0 0 0 0 0 0 0 0 0 0 0 0 0 0 0 z_b_0_1
S 4810 6 1 0 0 6 1 4805 6979 40800016 3000 A 0 0 0 0 0 0 0 0 0 0 0 0 0 0 0 0 0 0 0 0 0 0 0 0 0 0 0 0 z_b_2
S 4811 6 1 0 0 6 1 4805 7011 40800016 3000 A 0 0 0 0 0 0 0 0 0 0 0 0 0 0 0 0 0 0 0 0 0 0 0 0 0 0 0 0 z_b_3
S 4812 6 1 0 0 6 1 4805 24280 40800016 3000 A 0 0 0 0 0 0 0 0 0 0 0 0 0 0 0 0 0 0 0 0 0 0 0 0 0 0 0 0 z_e_1544
S 4813 23 5 0 0 0 4823 582 23112 0 0 A 0 0 0 0 0 0 0 0 0 0 0 0 0 0 0 0 0 0 0 0 0 0 0 0 0 0 0 0 write_rho_xml
S 4814 1 3 1 0 28 1 4813 24289 14 43000 A 0 0 0 0 0 0 0 0 0 0 0 0 0 0 0 0 0 0 0 0 0 0 0 0 0 0 0 0 rho_file_base
S 4815 7 3 1 0 1131 1 4813 24303 20000014 10003000 A 0 0 0 0 0 0 0 0 0 0 0 0 0 0 0 0 0 0 0 0 0 0 0 0 0 0 0 0 rho
S 4816 1 3 1 0 6 1 4813 23584 14 3000 A 0 0 0 0 0 0 0 0 0 0 0 0 0 0 0 0 0 0 0 0 0 0 0 0 0 0 0 0 nr1
S 4817 1 3 1 0 6 1 4813 23588 14 3000 A 0 0 0 0 0 0 0 0 0 0 0 0 0 0 0 0 0 0 0 0 0 0 0 0 0 0 0 0 nr2
S 4818 1 3 1 0 6 1 4813 23592 14 3000 A 0 0 0 0 0 0 0 0 0 0 0 0 0 0 0 0 0 0 0 0 0 0 0 0 0 0 0 0 nr3
S 4819 1 3 1 0 6 1 4813 24307 14 3000 A 0 0 0 0 0 0 0 0 0 0 0 0 0 0 0 0 0 0 0 0 0 0 0 0 0 0 0 0 nr1x
S 4820 1 3 1 0 6 1 4813 24312 14 3000 A 0 0 0 0 0 0 0 0 0 0 0 0 0 0 0 0 0 0 0 0 0 0 0 0 0 0 0 0 nr2x
S 4821 7 3 1 0 1134 1 4813 24317 a0000014 10003000 A 0 0 0 0 0 0 0 0 0 0 0 0 0 0 0 0 0 0 0 0 0 0 0 0 0 0 0 0 ipp
S 4822 7 3 1 0 1137 1 4813 24321 a0000014 10003000 A 0 0 0 0 0 0 0 0 0 0 0 0 0 0 0 0 0 0 0 0 0 0 0 0 0 0 0 0 npp
S 4823 14 5 0 0 0 1 4813 23112 20000000 400000 A 0 0 0 0 0 0 0 2168 9 0 0 0 0 0 0 0 0 0 0 0 0 1286 0 582 0 0 0 0 write_rho_xml
F 4823 9 4814 4815 4816 4817 4818 4819 4820 4821 4822
S 4824 6 1 0 0 6 1 4813 6939 40800016 3000 A 0 0 0 0 0 0 0 0 0 0 0 0 0 0 0 0 0 0 0 0 0 0 0 0 0 0 0 0 z_b_0_1
S 4825 6 1 0 0 6 1 4813 6979 40800016 3000 A 0 0 0 0 0 0 0 0 0 0 0 0 0 0 0 0 0 0 0 0 0 0 0 0 0 0 0 0 z_b_2
S 4826 6 1 0 0 6 1 4813 7011 40800016 3000 A 0 0 0 0 0 0 0 0 0 0 0 0 0 0 0 0 0 0 0 0 0 0 0 0 0 0 0 0 z_b_3
S 4827 6 1 0 0 6 1 4813 24325 40800016 3000 A 0 0 0 0 0 0 0 0 0 0 0 0 0 0 0 0 0 0 0 0 0 0 0 0 0 0 0 0 z_e_1564
S 4828 6 1 0 0 6 1 4813 7017 40800016 3000 A 0 0 0 0 0 0 0 0 0 0 0 0 0 0 0 0 0 0 0 0 0 0 0 0 0 0 0 0 z_b_4
S 4829 6 1 0 0 6 1 4813 7055 40800016 3000 A 0 0 0 0 0 0 0 0 0 0 0 0 0 0 0 0 0 0 0 0 0 0 0 0 0 0 0 0 z_b_6
S 4830 6 1 0 0 6 1 4813 7061 40800016 3000 A 0 0 0 0 0 0 0 0 0 0 0 0 0 0 0 0 0 0 0 0 0 0 0 0 0 0 0 0 z_b_7
S 4831 6 1 0 0 6 1 4813 24334 40800016 3000 A 0 0 0 0 0 0 0 0 0 0 0 0 0 0 0 0 0 0 0 0 0 0 0 0 0 0 0 0 z_e_1571
S 4832 6 1 0 0 6 1 4813 7067 40800016 3000 A 0 0 0 0 0 0 0 0 0 0 0 0 0 0 0 0 0 0 0 0 0 0 0 0 0 0 0 0 z_b_8
S 4833 6 1 0 0 6 1 4813 7131 40800016 3000 A 0 0 0 0 0 0 0 0 0 0 0 0 0 0 0 0 0 0 0 0 0 0 0 0 0 0 0 0 z_b_10
S 4834 6 1 0 0 6 1 4813 7164 40800016 3000 A 0 0 0 0 0 0 0 0 0 0 0 0 0 0 0 0 0 0 0 0 0 0 0 0 0 0 0 0 z_b_11
S 4835 6 1 0 0 6 1 4813 24343 40800016 3000 A 0 0 0 0 0 0 0 0 0 0 0 0 0 0 0 0 0 0 0 0 0 0 0 0 0 0 0 0 z_e_1578
S 4836 23 5 0 0 0 4846 582 23155 0 0 A 0 0 0 0 0 0 0 0 0 0 0 0 0 0 0 0 0 0 0 0 0 0 0 0 0 0 0 0 read_rho_xml
S 4837 1 3 1 0 28 1 4836 24289 14 43000 A 0 0 0 0 0 0 0 0 0 0 0 0 0 0 0 0 0 0 0 0 0 0 0 0 0 0 0 0 rho_file_base
S 4838 7 3 2 0 1140 1 4836 24303 20000014 10003000 A 0 0 0 0 0 0 0 0 0 0 0 0 0 0 0 0 0 0 0 0 0 0 0 0 0 0 0 0 rho
S 4839 1 3 1 0 6 1 4836 23584 14 3000 A 0 0 0 0 0 0 0 0 0 0 0 0 0 0 0 0 0 0 0 0 0 0 0 0 0 0 0 0 nr1
S 4840 1 3 1 0 6 1 4836 23588 14 3000 A 0 0 0 0 0 0 0 0 0 0 0 0 0 0 0 0 0 0 0 0 0 0 0 0 0 0 0 0 nr2
S 4841 1 3 1 0 6 1 4836 23592 14 3000 A 0 0 0 0 0 0 0 0 0 0 0 0 0 0 0 0 0 0 0 0 0 0 0 0 0 0 0 0 nr3
S 4842 1 3 1 0 6 1 4836 24307 14 3000 A 0 0 0 0 0 0 0 0 0 0 0 0 0 0 0 0 0 0 0 0 0 0 0 0 0 0 0 0 nr1x
S 4843 1 3 1 0 6 1 4836 24312 14 3000 A 0 0 0 0 0 0 0 0 0 0 0 0 0 0 0 0 0 0 0 0 0 0 0 0 0 0 0 0 nr2x
S 4844 7 3 1 0 1143 1 4836 24317 a0000014 10003000 A 0 0 0 0 0 0 0 0 0 0 0 0 0 0 0 0 0 0 0 0 0 0 0 0 0 0 0 0 ipp
S 4845 7 3 1 0 1146 1 4836 24321 a0000014 10003000 A 0 0 0 0 0 0 0 0 0 0 0 0 0 0 0 0 0 0 0 0 0 0 0 0 0 0 0 0 npp
S 4846 14 5 0 0 0 1 4836 23155 20000000 400000 A 0 0 0 0 0 0 0 2178 9 0 0 0 0 0 0 0 0 0 0 0 0 1422 0 582 0 0 0 0 read_rho_xml
F 4846 9 4837 4838 4839 4840 4841 4842 4843 4844 4845
S 4847 6 1 0 0 6 1 4836 6939 40800016 3000 A 0 0 0 0 0 0 0 0 0 0 0 0 0 0 0 0 0 0 0 0 0 0 0 0 0 0 0 0 z_b_0_1
S 4848 6 1 0 0 6 1 4836 6979 40800016 3000 A 0 0 0 0 0 0 0 0 0 0 0 0 0 0 0 0 0 0 0 0 0 0 0 0 0 0 0 0 z_b_2
S 4849 6 1 0 0 6 1 4836 7011 40800016 3000 A 0 0 0 0 0 0 0 0 0 0 0 0 0 0 0 0 0 0 0 0 0 0 0 0 0 0 0 0 z_b_3
S 4850 6 1 0 0 6 1 4836 24352 40800016 3000 A 0 0 0 0 0 0 0 0 0 0 0 0 0 0 0 0 0 0 0 0 0 0 0 0 0 0 0 0 z_e_1576
S 4851 6 1 0 0 6 1 4836 7017 40800016 3000 A 0 0 0 0 0 0 0 0 0 0 0 0 0 0 0 0 0 0 0 0 0 0 0 0 0 0 0 0 z_b_4
S 4852 6 1 0 0 6 1 4836 7055 40800016 3000 A 0 0 0 0 0 0 0 0 0 0 0 0 0 0 0 0 0 0 0 0 0 0 0 0 0 0 0 0 z_b_6
S 4853 6 1 0 0 6 1 4836 7061 40800016 3000 A 0 0 0 0 0 0 0 0 0 0 0 0 0 0 0 0 0 0 0 0 0 0 0 0 0 0 0 0 z_b_7
S 4854 6 1 0 0 6 1 4836 24361 40800016 3000 A 0 0 0 0 0 0 0 0 0 0 0 0 0 0 0 0 0 0 0 0 0 0 0 0 0 0 0 0 z_e_1583
S 4855 6 1 0 0 6 1 4836 7067 40800016 3000 A 0 0 0 0 0 0 0 0 0 0 0 0 0 0 0 0 0 0 0 0 0 0 0 0 0 0 0 0 z_b_8
S 4856 6 1 0 0 6 1 4836 7131 40800016 3000 A 0 0 0 0 0 0 0 0 0 0 0 0 0 0 0 0 0 0 0 0 0 0 0 0 0 0 0 0 z_b_10
S 4857 6 1 0 0 6 1 4836 7164 40800016 3000 A 0 0 0 0 0 0 0 0 0 0 0 0 0 0 0 0 0 0 0 0 0 0 0 0 0 0 0 0 z_b_11
S 4858 6 1 0 0 6 1 4836 24370 40800016 3000 A 0 0 0 0 0 0 0 0 0 0 0 0 0 0 0 0 0 0 0 0 0 0 0 0 0 0 0 0 z_e_1590
S 4859 23 5 0 0 0 4874 582 23126 0 0 A 0 0 0 0 0 0 0 0 0 0 0 0 0 0 0 0 0 0 0 0 0 0 0 0 0 0 0 0 write_wfc
S 4860 1 3 1 0 6 1 4859 24379 14 3000 A 0 0 0 0 0 0 0 0 0 0 0 0 0 0 0 0 0 0 0 0 0 0 0 0 0 0 0 0 iuni
S 4861 1 3 1 0 6 1 4859 23199 14 3000 A 0 0 0 0 0 0 0 0 0 0 0 0 0 0 0 0 0 0 0 0 0 0 0 0 0 0 0 0 ik
S 4862 1 3 1 0 6 1 4859 23270 14 3000 A 0 0 0 0 0 0 0 0 0 0 0 0 0 0 0 0 0 0 0 0 0 0 0 0 0 0 0 0 nk
S 4863 1 3 1 0 6 1 4859 23273 14 3000 A 0 0 0 0 0 0 0 0 0 0 0 0 0 0 0 0 0 0 0 0 0 0 0 0 0 0 0 0 kunit
S 4864 1 3 1 0 6 1 4859 24384 14 3000 A 0 0 0 0 0 0 0 0 0 0 0 0 0 0 0 0 0 0 0 0 0 0 0 0 0 0 0 0 ispin
S 4865 1 3 1 0 6 1 4859 24390 14 3000 A 0 0 0 0 0 0 0 0 0 0 0 0 0 0 0 0 0 0 0 0 0 0 0 0 0 0 0 0 nspin
S 4866 7 3 1 0 1149 1 4859 24396 20000014 10003000 A 0 0 0 0 0 0 0 0 0 0 0 0 0 0 0 0 0 0 0 0 0 0 0 0 0 0 0 0 wf0
S 4867 1 3 1 0 6 1 4859 24400 14 3000 A 0 0 0 0 0 0 0 0 0 0 0 0 0 0 0 0 0 0 0 0 0 0 0 0 0 0 0 0 ngw
S 4868 1 3 1 0 16 1 4859 23760 14 3000 A 0 0 0 0 0 0 0 0 0 0 0 0 0 0 0 0 0 0 0 0 0 0 0 0 0 0 0 0 gamma_only
S 4869 1 3 1 0 6 1 4859 24404 14 3000 A 0 0 0 0 0 0 0 0 0 0 0 0 0 0 0 0 0 0 0 0 0 0 0 0 0 0 0 0 nbnd
S 4870 7 3 1 0 1152 1 4859 23284 20000014 10003000 A 0 0 0 0 0 0 0 0 0 0 0 0 0 0 0 0 0 0 0 0 0 0 0 0 0 0 0 0 igl
S 4871 1 3 1 0 6 1 4859 23279 14 3000 A 0 0 0 0 0 0 0 0 0 0 0 0 0 0 0 0 0 0 0 0 0 0 0 0 0 0 0 0 ngwl
S 4872 1 3 1 0 1155 1 4859 16122 14 3000 A 0 0 0 0 0 0 0 0 0 0 0 0 0 0 0 0 0 0 0 0 0 0 0 0 0 0 0 0 filename
S 4873 1 3 1 0 9 1 4859 24409 14 3000 A 0 0 0 0 0 0 0 0 0 0 0 0 0 0 0 0 0 0 0 0 0 0 0 0 0 0 0 0 scalef
S 4874 14 5 0 0 0 1 4859 23126 20000000 400000 A 0 0 0 0 0 0 0 2188 14 0 0 0 0 0 0 0 0 0 0 0 0 1594 0 582 0 0 0 0 write_wfc
F 4874 14 4860 4861 4862 4863 4864 4865 4866 4867 4868 4869 4870 4871 4872 4873
S 4875 6 1 0 0 6 1 4859 6939 40800016 3000 A 0 0 0 0 0 0 0 0 0 0 0 0 0 0 0 0 0 0 0 0 0 0 0 0 0 0 0 0 z_b_0_1
S 4876 6 1 0 0 6 1 4859 6979 40800016 3000 A 0 0 0 0 0 0 0 0 0 0 0 0 0 0 0 0 0 0 0 0 0 0 0 0 0 0 0 0 z_b_2
S 4877 6 1 0 0 6 1 4859 7011 40800016 3000 A 0 0 0 0 0 0 0 0 0 0 0 0 0 0 0 0 0 0 0 0 0 0 0 0 0 0 0 0 z_b_3
S 4878 6 1 0 0 6 1 4859 7023 40800016 3000 A 0 0 0 0 0 0 0 0 0 0 0 0 0 0 0 0 0 0 0 0 0 0 0 0 0 0 0 0 z_b_5
S 4879 6 1 0 0 6 1 4859 7055 40800016 3000 A 0 0 0 0 0 0 0 0 0 0 0 0 0 0 0 0 0 0 0 0 0 0 0 0 0 0 0 0 z_b_6
S 4880 6 1 0 0 6 1 4859 24416 40800016 3000 A 0 0 0 0 0 0 0 0 0 0 0 0 0 0 0 0 0 0 0 0 0 0 0 0 0 0 0 0 z_e_1675
S 4881 6 1 0 0 6 1 4859 24425 40800016 3000 A 0 0 0 0 0 0 0 0 0 0 0 0 0 0 0 0 0 0 0 0 0 0 0 0 0 0 0 0 z_e_1678
S 4882 6 1 0 0 6 1 4859 7061 40800016 3000 A 0 0 0 0 0 0 0 0 0 0 0 0 0 0 0 0 0 0 0 0 0 0 0 0 0 0 0 0 z_b_7
S 4883 6 1 0 0 6 1 4859 7073 40800016 3000 A 0 0 0 0 0 0 0 0 0 0 0 0 0 0 0 0 0 0 0 0 0 0 0 0 0 0 0 0 z_b_9
S 4884 6 1 0 0 6 1 4859 7131 40800016 3000 A 0 0 0 0 0 0 0 0 0 0 0 0 0 0 0 0 0 0 0 0 0 0 0 0 0 0 0 0 z_b_10
S 4885 6 1 0 0 6 1 4859 24434 40800016 3000 A 0 0 0 0 0 0 0 0 0 0 0 0 0 0 0 0 0 0 0 0 0 0 0 0 0 0 0 0 z_e_1685
S 4886 23 5 0 0 0 4901 582 23146 0 0 A 0 0 0 0 0 0 0 0 0 0 0 0 0 0 0 0 0 0 0 0 0 0 0 0 0 0 0 0 read_wfc
S 4887 1 3 1 0 6 1 4886 24379 14 3000 A 0 0 0 0 0 0 0 0 0 0 0 0 0 0 0 0 0 0 0 0 0 0 0 0 0 0 0 0 iuni
S 4888 1 3 1 0 6 1 4886 23199 14 3000 A 0 0 0 0 0 0 0 0 0 0 0 0 0 0 0 0 0 0 0 0 0 0 0 0 0 0 0 0 ik
S 4889 1 3 1 0 6 1 4886 23270 14 3000 A 0 0 0 0 0 0 0 0 0 0 0 0 0 0 0 0 0 0 0 0 0 0 0 0 0 0 0 0 nk
S 4890 1 3 1 0 6 1 4886 23273 14 3000 A 0 0 0 0 0 0 0 0 0 0 0 0 0 0 0 0 0 0 0 0 0 0 0 0 0 0 0 0 kunit
S 4891 1 3 3 0 6 1 4886 24384 14 3000 A 0 0 0 0 0 0 0 0 0 0 0 0 0 0 0 0 0 0 0 0 0 0 0 0 0 0 0 0 ispin
S 4892 1 3 3 0 6 1 4886 24390 14 3000 A 0 0 0 0 0 0 0 0 0 0 0 0 0 0 0 0 0 0 0 0 0 0 0 0 0 0 0 0 nspin
S 4893 7 3 2 0 1157 1 4886 24443 20000014 10003000 A 0 0 0 0 0 0 0 0 0 0 0 0 0 0 0 0 0 0 0 0 0 0 0 0 0 0 0 0 wf
S 4894 1 3 3 0 6 1 4886 24400 14 3000 A 0 0 0 0 0 0 0 0 0 0 0 0 0 0 0 0 0 0 0 0 0 0 0 0 0 0 0 0 ngw
S 4895 1 3 3 0 6 1 4886 24404 14 3000 A 0 0 0 0 0 0 0 0 0 0 0 0 0 0 0 0 0 0 0 0 0 0 0 0 0 0 0 0 nbnd
S 4896 7 3 1 0 1160 1 4886 23284 20000014 10003000 A 0 0 0 0 0 0 0 0 0 0 0 0 0 0 0 0 0 0 0 0 0 0 0 0 0 0 0 0 igl
S 4897 1 3 1 0 6 1 4886 23279 14 3000 A 0 0 0 0 0 0 0 0 0 0 0 0 0 0 0 0 0 0 0 0 0 0 0 0 0 0 0 0 ngwl
S 4898 1 3 1 0 1163 1 4886 16122 14 3000 A 0 0 0 0 0 0 0 0 0 0 0 0 0 0 0 0 0 0 0 0 0 0 0 0 0 0 0 0 filename
S 4899 1 3 2 0 9 1 4886 24409 14 3000 A 0 0 0 0 0 0 0 0 0 0 0 0 0 0 0 0 0 0 0 0 0 0 0 0 0 0 0 0 scalef
S 4900 1 3 1 0 16 1 4886 24446 80000014 3000 A 0 0 0 0 0 0 0 0 0 0 0 0 0 0 0 0 0 0 0 0 0 0 0 0 0 0 0 0 flink
S 4901 14 5 0 0 0 1 4886 23146 20000000 400000 A 0 0 0 0 0 0 0 2203 14 0 0 0 0 0 0 0 0 0 0 0 0 1682 0 582 0 0 0 0 read_wfc
F 4901 14 4887 4888 4889 4890 4891 4892 4893 4894 4895 4896 4897 4898 4899 4900
S 4902 6 1 0 0 6 1 4886 6939 40800016 3000 A 0 0 0 0 0 0 0 0 0 0 0 0 0 0 0 0 0 0 0 0 0 0 0 0 0 0 0 0 z_b_0_1
S 4903 6 1 0 0 6 1 4886 6979 40800016 3000 A 0 0 0 0 0 0 0 0 0 0 0 0 0 0 0 0 0 0 0 0 0 0 0 0 0 0 0 0 z_b_2
S 4904 6 1 0 0 6 1 4886 7011 40800016 3000 A 0 0 0 0 0 0 0 0 0 0 0 0 0 0 0 0 0 0 0 0 0 0 0 0 0 0 0 0 z_b_3
S 4905 6 1 0 0 6 1 4886 7023 40800016 3000 A 0 0 0 0 0 0 0 0 0 0 0 0 0 0 0 0 0 0 0 0 0 0 0 0 0 0 0 0 z_b_5
S 4906 6 1 0 0 6 1 4886 7055 40800016 3000 A 0 0 0 0 0 0 0 0 0 0 0 0 0 0 0 0 0 0 0 0 0 0 0 0 0 0 0 0 z_b_6
S 4907 6 1 0 0 6 1 4886 24452 40800016 3000 A 0 0 0 0 0 0 0 0 0 0 0 0 0 0 0 0 0 0 0 0 0 0 0 0 0 0 0 0 z_e_1686
S 4908 6 1 0 0 6 1 4886 24461 40800016 3000 A 0 0 0 0 0 0 0 0 0 0 0 0 0 0 0 0 0 0 0 0 0 0 0 0 0 0 0 0 z_e_1689
S 4909 6 1 0 0 6 1 4886 7061 40800016 3000 A 0 0 0 0 0 0 0 0 0 0 0 0 0 0 0 0 0 0 0 0 0 0 0 0 0 0 0 0 z_b_7
S 4910 6 1 0 0 6 1 4886 7073 40800016 3000 A 0 0 0 0 0 0 0 0 0 0 0 0 0 0 0 0 0 0 0 0 0 0 0 0 0 0 0 0 z_b_9
S 4911 6 1 0 0 6 1 4886 7131 40800016 3000 A 0 0 0 0 0 0 0 0 0 0 0 0 0 0 0 0 0 0 0 0 0 0 0 0 0 0 0 0 z_b_10
S 4912 6 1 0 0 6 1 4886 24470 40800016 3000 A 0 0 0 0 0 0 0 0 0 0 0 0 0 0 0 0 0 0 0 0 0 0 0 0 0 0 0 0 z_e_1696
S 4913 23 5 0 0 0 4923 582 23136 0 0 A 0 0 0 0 0 0 0 0 0 0 0 0 0 0 0 0 0 0 0 0 0 0 0 0 0 0 0 0 write_eig
S 4914 1 3 1 0 6 1 4913 24379 14 3000 A 0 0 0 0 0 0 0 0 0 0 0 0 0 0 0 0 0 0 0 0 0 0 0 0 0 0 0 0 iuni
S 4915 1 3 1 0 1171 1 4913 16122 14 3000 A 0 0 0 0 0 0 0 0 0 0 0 0 0 0 0 0 0 0 0 0 0 0 0 0 0 0 0 0 filename
S 4916 1 3 1 0 6 1 4913 24404 14 3000 A 0 0 0 0 0 0 0 0 0 0 0 0 0 0 0 0 0 0 0 0 0 0 0 0 0 0 0 0 nbnd
S 4917 7 3 1 0 1165 1 4913 24479 20000014 10003000 A 0 0 0 0 0 0 0 0 0 0 0 0 0 0 0 0 0 0 0 0 0 0 0 0 0 0 0 0 eig
S 4918 1 3 1 0 28 1 4913 24483 14 43000 A 0 0 0 0 0 0 0 0 0 0 0 0 0 0 0 0 0 0 0 0 0 0 0 0 0 0 0 0 energy_units
S 4919 7 3 1 0 1168 1 4913 24496 a0000014 10003000 A 0 0 0 0 0 0 0 0 0 0 0 0 0 0 0 0 0 0 0 0 0 0 0 0 0 0 0 0 occ
S 4920 1 3 1 0 6 1 4913 23199 80000014 3000 A 0 0 0 0 0 0 0 0 0 0 0 0 0 0 0 0 0 0 0 0 0 0 0 0 0 0 0 0 ik
S 4921 1 3 1 0 6 1 4913 24384 80000014 3000 A 0 0 0 0 0 0 0 0 0 0 0 0 0 0 0 0 0 0 0 0 0 0 0 0 0 0 0 0 ispin
S 4922 1 3 1 0 16 1 4913 23386 80000014 3000 A 0 0 0 0 0 0 0 0 0 0 0 0 0 0 0 0 0 0 0 0 0 0 0 0 0 0 0 0 lkpoint_dir
S 4923 14 5 0 0 0 1 4913 23136 20000000 400000 A 0 0 0 0 0 0 0 2218 9 0 0 0 0 0 0 0 0 0 0 0 0 1804 0 582 0 0 0 0 write_eig
F 4923 9 4914 4915 4916 4917 4918 4919 4920 4921 4922
S 4924 6 1 0 0 6 1 4913 6939 40800016 3000 A 0 0 0 0 0 0 0 0 0 0 0 0 0 0 0 0 0 0 0 0 0 0 0 0 0 0 0 0 z_b_0_1
S 4925 6 1 0 0 6 1 4913 6979 40800016 3000 A 0 0 0 0 0 0 0 0 0 0 0 0 0 0 0 0 0 0 0 0 0 0 0 0 0 0 0 0 z_b_2
S 4926 6 1 0 0 6 1 4913 7011 40800016 3000 A 0 0 0 0 0 0 0 0 0 0 0 0 0 0 0 0 0 0 0 0 0 0 0 0 0 0 0 0 z_b_3
S 4927 6 1 0 0 6 1 4913 23993 40800016 3000 A 0 0 0 0 0 0 0 0 0 0 0 0 0 0 0 0 0 0 0 0 0 0 0 0 0 0 0 0 z_e_1594
S 4928 6 1 0 0 6 1 4913 7017 40800016 3000 A 0 0 0 0 0 0 0 0 0 0 0 0 0 0 0 0 0 0 0 0 0 0 0 0 0 0 0 0 z_b_4
S 4929 6 1 0 0 6 1 4913 7055 40800016 3000 A 0 0 0 0 0 0 0 0 0 0 0 0 0 0 0 0 0 0 0 0 0 0 0 0 0 0 0 0 z_b_6
S 4930 6 1 0 0 6 1 4913 7061 40800016 3000 A 0 0 0 0 0 0 0 0 0 0 0 0 0 0 0 0 0 0 0 0 0 0 0 0 0 0 0 0 z_b_7
S 4931 6 1 0 0 6 1 4913 24500 40800016 3000 A 0 0 0 0 0 0 0 0 0 0 0 0 0 0 0 0 0 0 0 0 0 0 0 0 0 0 0 0 z_e_1601
A 13 2 0 0 0 6 604 0 0 0 13 0 0 0 0 0 0 0 0 0
A 32 2 0 0 0 6 607 0 0 0 32 0 0 0 0 0 0 0 0 0
A 56 2 0 0 0 6 614 0 0 0 56 0 0 0 0 0 0 0 0 0
A 58 2 0 0 0 6 615 0 0 0 58 0 0 0 0 0 0 0 0 0
A 92 2 0 0 0 6 642 0 0 0 92 0 0 0 0 0 0 0 0 0
A 574 2 0 0 314 6 2989 0 0 0 574 0 0 0 0 0 0 0 0 0
A 992 2 0 0 962 16 3271 0 0 0 992 0 0 0 0 0 0 0 0 0
A 1417 2 0 0 1024 803 4454 0 0 0 1417 0 0 0 0 0 0 0 0 0
A 1419 2 0 0 1023 803 4456 0 0 0 1419 0 0 0 0 0 0 0 0 0
A 1422 1 0 0 1204 6 4560 0 0 0 0 0 0 0 0 0 0 0 0 0
A 1423 1 0 0 1199 6 4558 0 0 0 0 0 0 0 0 0 0 0 0 0
A 1424 1 0 0 1207 6 4561 0 0 0 0 0 0 0 0 0 0 0 0 0
A 1425 1 0 0 1201 6 4559 0 0 0 0 0 0 0 0 0 0 0 0 0
A 1426 1 0 0 1212 6 4564 0 0 0 0 0 0 0 0 0 0 0 0 0
A 1427 1 0 0 1210 6 4562 0 0 0 0 0 0 0 0 0 0 0 0 0
A 1428 1 0 0 1206 6 4565 0 0 0 0 0 0 0 0 0 0 0 0 0
A 1429 1 0 0 1209 6 4563 0 0 0 0 0 0 0 0 0 0 0 0 0
A 1430 1 0 0 533 6 4602 0 0 0 0 0 0 0 0 0 0 0 0 0
A 1431 1 0 0 575 6 4600 0 0 0 0 0 0 0 0 0 0 0 0 0
A 1432 1 0 0 534 6 4603 0 0 0 0 0 0 0 0 0 0 0 0 0
A 1433 1 0 0 572 6 4601 0 0 0 0 0 0 0 0 0 0 0 0 0
A 1434 1 0 0 1228 6 4606 0 0 0 0 0 0 0 0 0 0 0 0 0
A 1435 1 0 0 1226 6 4604 0 0 0 0 0 0 0 0 0 0 0 0 0
A 1436 1 0 0 1231 6 4607 0 0 0 0 0 0 0 0 0 0 0 0 0
A 1437 1 0 0 1229 6 4605 0 0 0 0 0 0 0 0 0 0 0 0 0
A 1438 1 0 0 1230 6 4610 0 0 0 0 0 0 0 0 0 0 0 0 0
A 1439 1 0 0 1225 6 4608 0 0 0 0 0 0 0 0 0 0 0 0 0
A 1440 1 0 0 550 6 4611 0 0 0 0 0 0 0 0 0 0 0 0 0
A 1441 1 0 0 1227 6 4609 0 0 0 0 0 0 0 0 0 0 0 0 0
A 1442 1 0 0 0 6 4614 0 0 0 0 0 0 0 0 0 0 0 0 0
A 1443 1 0 0 0 6 4612 0 0 0 0 0 0 0 0 0 0 0 0 0
A 1444 1 0 0 1233 6 4615 0 0 0 0 0 0 0 0 0 0 0 0 0
A 1445 1 0 0 0 6 4613 0 0 0 0 0 0 0 0 0 0 0 0 0
A 1446 1 0 0 1241 6 4620 0 0 0 0 0 0 0 0 0 0 0 0 0
A 1447 1 0 0 1236 6 4616 0 0 0 0 0 0 0 0 0 0 0 0 0
A 1448 1 0 0 1232 6 4621 0 0 0 0 0 0 0 0 0 0 0 0 0
A 1449 1 0 0 1239 6 4618 0 0 0 0 0 0 0 0 0 0 0 0 0
A 1450 1 0 0 1235 6 4617 0 0 0 0 0 0 0 0 0 0 0 0 0
A 1451 1 0 0 1234 6 4622 0 0 0 0 0 0 0 0 0 0 0 0 0
A 1452 1 0 0 1238 6 4619 0 0 0 0 0 0 0 0 0 0 0 0 0
A 1453 1 0 0 556 6 4627 0 0 0 0 0 0 0 0 0 0 0 0 0
A 1454 1 0 0 1237 6 4623 0 0 0 0 0 0 0 0 0 0 0 0 0
A 1455 1 0 0 0 6 4628 0 0 0 0 0 0 0 0 0 0 0 0 0
A 1456 1 0 0 395 6 4625 0 0 0 0 0 0 0 0 0 0 0 0 0
A 1457 1 0 0 1240 6 4624 0 0 0 0 0 0 0 0 0 0 0 0 0
A 1458 1 0 0 315 6 4629 0 0 0 0 0 0 0 0 0 0 0 0 0
A 1459 1 0 0 0 6 4626 0 0 0 0 0 0 0 0 0 0 0 0 0
A 1460 1 0 0 1011 6 4651 0 0 0 0 0 0 0 0 0 0 0 0 0
A 1461 1 0 0 1246 6 4645 0 0 0 0 0 0 0 0 0 0 0 0 0
A 1462 1 0 0 1013 6 4652 0 0 0 0 0 0 0 0 0 0 0 0 0
A 1463 1 0 0 1251 6 4647 0 0 0 0 0 0 0 0 0 0 0 0 0
A 1464 1 0 0 1248 6 4646 0 0 0 0 0 0 0 0 0 0 0 0 0
A 1465 1 0 0 1010 6 4653 0 0 0 0 0 0 0 0 0 0 0 0 0
A 1466 1 0 0 180 6 4649 0 0 0 0 0 0 0 0 0 0 0 0 0
A 1467 1 0 0 179 6 4648 0 0 0 0 0 0 0 0 0 0 0 0 0
A 1468 1 0 0 1254 6 4654 0 0 0 0 0 0 0 0 0 0 0 0 0
A 1469 1 0 0 74 6 4650 0 0 0 0 0 0 0 0 0 0 0 0 0
A 1470 1 0 0 1255 6 4659 0 0 0 0 0 0 0 0 0 0 0 0 0
A 1471 1 0 0 1257 6 4655 0 0 0 0 0 0 0 0 0 0 0 0 0
A 1472 1 0 0 1258 6 4660 0 0 0 0 0 0 0 0 0 0 0 0 0
A 1473 1 0 0 1259 6 4657 0 0 0 0 0 0 0 0 0 0 0 0 0
A 1474 1 0 0 1256 6 4656 0 0 0 0 0 0 0 0 0 0 0 0 0
A 1475 1 0 0 1261 6 4661 0 0 0 0 0 0 0 0 0 0 0 0 0
A 1476 1 0 0 1253 6 4658 0 0 0 0 0 0 0 0 0 0 0 0 0
A 1477 1 0 0 1266 6 4664 0 0 0 0 0 0 0 0 0 0 0 0 0
A 1478 1 0 0 1264 6 4662 0 0 0 0 0 0 0 0 0 0 0 0 0
A 1479 1 0 0 1260 6 4665 0 0 0 0 0 0 0 0 0 0 0 0 0
A 1480 1 0 0 1263 6 4663 0 0 0 0 0 0 0 0 0 0 0 0 0
A 1481 1 0 0 329 6 4670 0 0 0 0 0 0 0 0 0 0 0 0 0
A 1482 1 0 0 1262 6 4666 0 0 0 0 0 0 0 0 0 0 0 0 0
A 1483 1 0 0 330 6 4671 0 0 0 0 0 0 0 0 0 0 0 0 0
A 1484 1 0 0 327 6 4668 0 0 0 0 0 0 0 0 0 0 0 0 0
A 1485 1 0 0 1265 6 4667 0 0 0 0 0 0 0 0 0 0 0 0 0
A 1486 1 0 0 331 6 4672 0 0 0 0 0 0 0 0 0 0 0 0 0
A 1487 1 0 0 991 6 4669 0 0 0 0 0 0 0 0 0 0 0 0 0
A 1488 1 0 0 1271 6 4675 0 0 0 0 0 0 0 0 0 0 0 0 0
A 1489 1 0 0 332 6 4673 0 0 0 0 0 0 0 0 0 0 0 0 0
A 1490 1 0 0 1270 6 4676 0 0 0 0 0 0 0 0 0 0 0 0 0
A 1491 1 0 0 1268 6 4674 0 0 0 0 0 0 0 0 0 0 0 0 0
A 1492 1 0 0 414 6 4708 0 0 0 0 0 0 0 0 0 0 0 0 0
A 1493 1 0 0 1294 6 4704 0 0 0 0 0 0 0 0 0 0 0 0 0
A 1494 1 0 0 190 6 4709 0 0 0 0 0 0 0 0 0 0 0 0 0
A 1495 1 0 0 1290 6 4706 0 0 0 0 0 0 0 0 0 0 0 0 0
A 1496 1 0 0 1288 6 4705 0 0 0 0 0 0 0 0 0 0 0 0 0
A 1497 1 0 0 0 6 4710 0 0 0 0 0 0 0 0 0 0 0 0 0
A 1498 1 0 0 1293 6 4707 0 0 0 0 0 0 0 0 0 0 0 0 0
A 1499 1 0 0 1033 6 4722 0 0 0 0 0 0 0 0 0 0 0 0 0
A 1500 1 0 0 1317 6 4733 0 0 0 0 0 0 0 0 0 0 0 0 0
A 1501 1 0 0 1305 6 4734 0 0 0 0 0 0 0 0 0 0 0 0 0
A 1502 1 0 0 624 6 4746 0 0 0 0 0 0 0 0 0 0 0 0 0
A 1503 1 0 0 619 6 4744 0 0 0 0 0 0 0 0 0 0 0 0 0
A 1504 1 0 0 1319 6 4747 0 0 0 0 0 0 0 0 0 0 0 0 0
A 1505 1 0 0 621 6 4745 0 0 0 0 0 0 0 0 0 0 0 0 0
A 1506 1 0 0 1320 6 4750 0 0 0 0 0 0 0 0 0 0 0 0 0
A 1507 1 0 0 1321 6 4748 0 0 0 0 0 0 0 0 0 0 0 0 0
A 1508 1 0 0 637 6 4751 0 0 0 0 0 0 0 0 0 0 0 0 0
A 1509 1 0 0 1318 6 4749 0 0 0 0 0 0 0 0 0 0 0 0 0
A 1510 1 0 0 1049 6 4754 0 0 0 0 0 0 0 0 0 0 0 0 0
A 1511 1 0 0 639 6 4752 0 0 0 0 0 0 0 0 0 0 0 0 0
A 1512 1 0 0 1323 6 4755 0 0 0 0 0 0 0 0 0 0 0 0 0
A 1513 1 0 0 1047 6 4753 0 0 0 0 0 0 0 0 0 0 0 0 0
A 1514 1 0 0 1334 6 4773 0 0 0 0 0 0 0 0 0 0 0 0 0
A 1515 1 0 0 1332 6 4769 0 0 0 0 0 0 0 0 0 0 0 0 0
A 1516 1 0 0 1337 6 4774 0 0 0 0 0 0 0 0 0 0 0 0 0
A 1517 1 0 0 1329 6 4771 0 0 0 0 0 0 0 0 0 0 0 0 0
A 1518 1 0 0 1335 6 4770 0 0 0 0 0 0 0 0 0 0 0 0 0
A 1519 1 0 0 1340 6 4775 0 0 0 0 0 0 0 0 0 0 0 0 0
A 1520 1 0 0 1331 6 4772 0 0 0 0 0 0 0 0 0 0 0 0 0
A 1521 1 0 0 1341 6 4780 0 0 0 0 0 0 0 0 0 0 0 0 0
A 1522 1 0 0 1339 6 4776 0 0 0 0 0 0 0 0 0 0 0 0 0
A 1523 1 0 0 1059 6 4781 0 0 0 0 0 0 0 0 0 0 0 0 0
A 1524 1 0 0 1336 6 4778 0 0 0 0 0 0 0 0 0 0 0 0 0
A 1525 1 0 0 1342 6 4777 0 0 0 0 0 0 0 0 0 0 0 0 0
A 1526 1 0 0 1062 6 4782 0 0 0 0 0 0 0 0 0 0 0 0 0
A 1527 1 0 0 1338 6 4779 0 0 0 0 0 0 0 0 0 0 0 0 0
A 1528 1 0 0 1069 6 4798 0 0 0 0 0 0 0 0 0 0 0 0 0
A 1529 1 0 0 1351 6 4794 0 0 0 0 0 0 0 0 0 0 0 0 0
A 1530 1 0 0 1354 6 4799 0 0 0 0 0 0 0 0 0 0 0 0 0
A 1531 1 0 0 1079 6 4796 0 0 0 0 0 0 0 0 0 0 0 0 0
A 1532 1 0 0 1076 6 4795 0 0 0 0 0 0 0 0 0 0 0 0 0
A 1533 1 0 0 1357 6 4800 0 0 0 0 0 0 0 0 0 0 0 0 0
A 1534 1 0 0 1067 6 4797 0 0 0 0 0 0 0 0 0 0 0 0 0
A 1535 1 0 0 1359 6 4803 0 0 0 0 0 0 0 0 0 0 0 0 0
A 1536 1 0 0 1356 6 4801 0 0 0 0 0 0 0 0 0 0 0 0 0
A 1537 1 0 0 1363 6 4804 0 0 0 0 0 0 0 0 0 0 0 0 0
A 1538 1 0 0 1360 6 4802 0 0 0 0 0 0 0 0 0 0 0 0 0
A 1539 1 0 0 1364 6 4811 0 0 0 0 0 0 0 0 0 0 0 0 0
A 1540 1 0 0 1358 6 4809 0 0 0 0 0 0 0 0 0 0 0 0 0
A 1541 1 0 0 1090 6 4812 0 0 0 0 0 0 0 0 0 0 0 0 0
A 1542 1 0 0 1361 6 4810 0 0 0 0 0 0 0 0 0 0 0 0 0
A 1543 1 0 0 1366 6 4826 0 0 0 0 0 0 0 0 0 0 0 0 0
A 1544 1 0 0 1378 6 4824 0 0 0 0 0 0 0 0 0 0 0 0 0
A 1545 1 0 0 1368 6 4827 0 0 0 0 0 0 0 0 0 0 0 0 0
A 1546 1 0 0 1381 6 4825 0 0 0 0 0 0 0 0 0 0 0 0 0
A 1547 1 0 0 1377 6 4830 0 0 0 0 0 0 0 0 0 0 0 0 0
A 1548 1 0 0 1371 6 4828 0 0 0 0 0 0 0 0 0 0 0 0 0
A 1549 1 0 0 1380 6 4831 0 0 0 0 0 0 0 0 0 0 0 0 0
A 1550 1 0 0 1374 6 4829 0 0 0 0 0 0 0 0 0 0 0 0 0
A 1551 1 0 0 1099 6 4834 0 0 0 0 0 0 0 0 0 0 0 0 0
A 1552 1 0 0 828 6 4832 0 0 0 0 0 0 0 0 0 0 0 0 0
A 1553 1 0 0 1096 6 4835 0 0 0 0 0 0 0 0 0 0 0 0 0
A 1554 1 0 0 1097 6 4833 0 0 0 0 0 0 0 0 0 0 0 0 0
A 1555 1 0 0 1421 6 4849 0 0 0 0 0 0 0 0 0 0 0 0 0
A 1556 1 0 0 1400 6 4847 0 0 0 0 0 0 0 0 0 0 0 0 0
A 1557 1 0 0 1387 6 4850 0 0 0 0 0 0 0 0 0 0 0 0 0
A 1558 1 0 0 1382 6 4848 0 0 0 0 0 0 0 0 0 0 0 0 0
A 1559 1 0 0 1396 6 4853 0 0 0 0 0 0 0 0 0 0 0 0 0
A 1560 1 0 0 1390 6 4851 0 0 0 0 0 0 0 0 0 0 0 0 0
A 1561 1 0 0 1399 6 4854 0 0 0 0 0 0 0 0 0 0 0 0 0
A 1562 1 0 0 1393 6 4852 0 0 0 0 0 0 0 0 0 0 0 0 0
A 1563 1 0 0 1114 6 4857 0 0 0 0 0 0 0 0 0 0 0 0 0
A 1564 1 0 0 1111 6 4855 0 0 0 0 0 0 0 0 0 0 0 0 0
A 1565 1 0 0 1113 6 4858 0 0 0 0 0 0 0 0 0 0 0 0 0
A 1566 1 0 0 1110 6 4856 0 0 0 0 0 0 0 0 0 0 0 0 0
A 1567 1 0 0 1122 6 4879 0 0 0 0 0 0 0 0 0 0 0 0 0
A 1568 1 0 0 1406 6 4875 0 0 0 0 0 0 0 0 0 0 0 0 0
A 1569 1 0 0 1125 6 4880 0 0 0 0 0 0 0 0 0 0 0 0 0
A 1570 1 0 0 1405 6 4877 0 0 0 0 0 0 0 0 0 0 0 0 0
A 1571 1 0 0 1408 6 4876 0 0 0 0 0 0 0 0 0 0 0 0 0
A 1572 1 0 0 1128 6 4881 0 0 0 0 0 0 0 0 0 0 0 0 0
A 1573 1 0 0 1407 6 4878 0 0 0 0 0 0 0 0 0 0 0 0 0
A 1574 1 0 0 976 6 4884 0 0 0 0 0 0 0 0 0 0 0 0 0
A 1575 1 0 0 972 6 4882 0 0 0 0 0 0 0 0 0 0 0 0 0
A 1576 1 0 0 978 6 4885 0 0 0 0 0 0 0 0 0 0 0 0 0
A 1577 1 0 0 974 6 4883 0 0 0 0 0 0 0 0 0 0 0 0 0
A 1578 1 0 0 1136 6 4906 0 0 0 0 0 0 0 0 0 0 0 0 0
A 1579 1 0 0 1415 6 4902 0 0 0 0 0 0 0 0 0 0 0 0 0
A 1580 1 0 0 1139 6 4907 0 0 0 0 0 0 0 0 0 0 0 0 0
A 1581 1 0 0 1140 6 4904 0 0 0 0 0 0 0 0 0 0 0 0 0
A 1582 1 0 0 1137 6 4903 0 0 0 0 0 0 0 0 0 0 0 0 0
A 1583 1 0 0 807 6 4908 0 0 0 0 0 0 0 0 0 0 0 0 0
A 1584 1 0 0 1134 6 4905 0 0 0 0 0 0 0 0 0 0 0 0 0
A 1585 1 0 0 813 6 4911 0 0 0 0 0 0 0 0 0 0 0 0 0
A 1586 1 0 0 809 6 4909 0 0 0 0 0 0 0 0 0 0 0 0 0
A 1587 1 0 0 815 6 4912 0 0 0 0 0 0 0 0 0 0 0 0 0
A 1588 1 0 0 811 6 4910 0 0 0 0 0 0 0 0 0 0 0 0 0
A 1589 1 0 0 843 6 4926 0 0 0 0 0 0 0 0 0 0 0 0 0
A 1590 1 0 0 839 6 4924 0 0 0 0 0 0 0 0 0 0 0 0 0
A 1591 1 0 0 845 6 4927 0 0 0 0 0 0 0 0 0 0 0 0 0
A 1592 1 0 0 841 6 4925 0 0 0 0 0 0 0 0 0 0 0 0 0
A 1593 1 0 0 850 6 4930 0 0 0 0 0 0 0 0 0 0 0 0 0
A 1594 1 0 0 1001 6 4928 0 0 0 0 0 0 0 0 0 0 0 0 0
A 1595 1 0 0 851 6 4931 0 0 0 0 0 0 0 0 0 0 0 0 0
A 1596 1 0 0 848 6 4929 0 0 0 0 0 0 0 0 0 0 0 0 0
Z
Z
