V26 zhpev_module
13 zhpev_drv.F90 S582 0
04/24/2012  15:51:03
enduse
D 56 21 9 1 3 0 0 0 0 1 0
 0 0 3 3 0 12
D 59 21 9 1 3 0 0 0 0 1 0
 0 0 3 3 0 13
D 62 21 12 2 14 0 0 0 1 1 0
 0 15 3 3 16 16
 0 0 16 3 0 17
D 65 21 12 1 3 0 0 0 0 1 0
 0 0 3 3 0 18
D 68 21 12 2 19 0 0 0 1 1 0
 0 20 3 3 21 21
 0 0 21 3 0 22
D 71 21 12 2 23 0 0 0 1 1 0
 0 24 3 3 25 25
 0 0 25 3 0 26
D 74 21 12 1 3 0 0 0 0 1 0
 0 0 3 3 0 27
D 77 21 9 1 3 0 0 0 0 1 0
 0 0 3 3 0 28
D 80 21 9 1 3 0 0 0 0 1 0
 0 0 3 3 0 29
D 83 21 12 2 30 0 0 0 1 1 0
 0 31 3 3 32 32
 0 0 32 3 0 33
D 86 21 12 1 3 0 0 0 0 1 0
 0 0 3 3 0 34
D 89 21 12 2 35 0 0 0 1 1 0
 0 36 3 3 37 37
 0 0 37 3 0 38
D 92 21 9 1 3 0 0 0 0 1 0
 0 0 3 3 0 39
D 95 21 12 2 40 0 0 0 1 1 0
 0 41 3 3 42 42
 0 0 42 3 0 43
D 98 21 12 2 44 0 0 0 1 1 0
 0 45 3 3 46 46
 0 0 46 3 0 47
D 101 21 9 1 3 0 0 0 0 1 0
 0 0 3 3 0 48
S 582 24 0 0 0 9 1 0 4658 10015 0 A 0 0 0 0 0 0 0 0 0 0 0 0 0 0 0 0 0 0 0 0 0 26 0 0 0 0 0 0 zhpev_module
S 583 27 0 0 0 9 653 582 4671 0 0 A 0 0 0 0 0 0 0 0 0 0 0 0 0 0 0 0 0 0 0 0 0 0 0 582 0 0 0 0 pzhpev_drv
S 584 27 0 0 0 9 639 582 4682 0 0 A 0 0 0 0 0 0 0 0 0 0 0 0 0 0 0 0 0 0 0 0 0 0 0 582 0 0 0 0 zhpev_drv
S 585 23 5 0 0 0 596 582 4692 10 0 A 0 0 0 0 0 0 0 0 0 0 0 0 0 0 0 0 0 0 0 0 0 0 0 0 0 0 0 0 pzhptrd
S 586 6 3 0 0 6 1 585 4700 800014 3000 A 0 0 0 0 0 0 0 0 0 0 0 0 0 0 0 0 0 0 0 0 0 0 0 0 0 0 0 0 n
S 587 1 3 0 0 6 1 585 4702 14 3000 A 0 0 0 0 0 0 0 0 0 0 0 0 0 0 0 0 0 0 0 0 0 0 0 0 0 0 0 0 nrl
S 588 7 3 0 0 62 1 585 4706 800314 3000 A 0 0 0 0 0 0 0 0 0 0 0 0 0 0 0 0 0 0 0 0 0 0 0 0 0 0 0 0 ap
S 589 6 3 0 0 6 1 585 4709 800014 3000 A 0 0 0 0 0 0 0 0 0 0 0 0 0 0 0 0 0 0 0 0 0 0 0 0 0 0 0 0 lda
S 590 7 3 0 0 56 1 585 4713 800114 3000 A 0 0 0 0 0 0 0 0 0 0 0 0 0 0 0 0 0 0 0 0 0 0 0 0 0 0 0 0 d
S 591 7 3 0 0 59 1 585 4715 800114 3000 A 0 0 0 0 0 0 0 0 0 0 0 0 0 0 0 0 0 0 0 0 0 0 0 0 0 0 0 0 e
S 592 7 3 0 0 65 1 585 4717 800114 3000 A 0 0 0 0 0 0 0 0 0 0 0 0 0 0 0 0 0 0 0 0 0 0 0 0 0 0 0 0 tau
S 593 1 3 0 0 6 1 585 4721 14 3000 A 0 0 0 0 0 0 0 0 0 0 0 0 0 0 0 0 0 0 0 0 0 0 0 0 0 0 0 0 nproc
S 594 1 3 0 0 6 1 585 4727 14 3000 A 0 0 0 0 0 0 0 0 0 0 0 0 0 0 0 0 0 0 0 0 0 0 0 0 0 0 0 0 me
S 595 1 3 0 0 6 1 585 4730 14 3000 A 0 0 0 0 0 0 0 0 0 0 0 0 0 0 0 0 0 0 0 0 0 0 0 0 0 0 0 0 comm
S 596 14 5 0 0 0 1 585 4692 310 400000 A 0 0 0 0 0 0 0 2 10 0 0 0 0 0 0 0 0 0 0 0 0 38 0 582 0 0 0 0 pzhptrd
F 596 10 586 587 588 589 590 591 592 593 594 595
S 597 6 1 0 0 6 1 585 4735 40800016 3000 A 0 0 0 0 0 0 0 0 0 0 0 0 0 0 0 0 0 0 0 0 0 0 0 0 0 0 0 0 z_b_0
S 598 6 1 0 0 6 1 585 4741 40800016 3000 A 0 0 0 0 0 0 0 0 0 0 0 0 0 0 0 0 0 0 0 0 0 0 0 0 0 0 0 0 z_b_1
S 599 6 1 0 0 6 1 585 4747 40800016 3000 A 0 0 0 0 0 0 0 0 0 0 0 0 0 0 0 0 0 0 0 0 0 0 0 0 0 0 0 0 z_e_430
S 600 6 1 0 0 6 1 585 4755 40800016 3000 A 0 0 0 0 0 0 0 0 0 0 0 0 0 0 0 0 0 0 0 0 0 0 0 0 0 0 0 0 z_b_2
S 601 6 1 0 0 6 1 585 4761 40800016 3000 A 0 0 0 0 0 0 0 0 0 0 0 0 0 0 0 0 0 0 0 0 0 0 0 0 0 0 0 0 z_e_433
S 602 6 1 0 0 6 1 585 4769 40800016 3000 A 0 0 0 0 0 0 0 0 0 0 0 0 0 0 0 0 0 0 0 0 0 0 0 0 0 0 0 0 z_b_3
S 603 23 5 0 0 0 614 582 4775 10 0 A 0 0 0 0 0 0 0 0 0 0 0 0 0 0 0 0 0 0 0 0 0 0 0 0 0 0 0 0 pzupgtr
S 604 6 3 0 0 6 1 603 4700 800014 3000 A 0 0 0 0 0 0 0 0 0 0 0 0 0 0 0 0 0 0 0 0 0 0 0 0 0 0 0 0 n
S 605 1 3 0 0 6 1 603 4702 14 3000 A 0 0 0 0 0 0 0 0 0 0 0 0 0 0 0 0 0 0 0 0 0 0 0 0 0 0 0 0 nrl
S 606 7 3 0 0 68 1 603 4706 800314 3000 A 0 0 0 0 0 0 0 0 0 0 0 0 0 0 0 0 0 0 0 0 0 0 0 0 0 0 0 0 ap
S 607 6 3 0 0 6 1 603 4709 800014 3000 A 0 0 0 0 0 0 0 0 0 0 0 0 0 0 0 0 0 0 0 0 0 0 0 0 0 0 0 0 lda
S 608 7 3 0 0 74 1 603 4717 800114 3000 A 0 0 0 0 0 0 0 0 0 0 0 0 0 0 0 0 0 0 0 0 0 0 0 0 0 0 0 0 tau
S 609 7 3 0 0 71 1 603 4783 800314 3000 A 0 0 0 0 0 0 0 0 0 0 0 0 0 0 0 0 0 0 0 0 0 0 0 0 0 0 0 0 q
S 610 6 3 0 0 6 1 603 4785 800014 3000 A 0 0 0 0 0 0 0 0 0 0 0 0 0 0 0 0 0 0 0 0 0 0 0 0 0 0 0 0 ldq
S 611 1 3 0 0 6 1 603 4721 14 3000 A 0 0 0 0 0 0 0 0 0 0 0 0 0 0 0 0 0 0 0 0 0 0 0 0 0 0 0 0 nproc
S 612 1 3 0 0 6 1 603 4727 14 3000 A 0 0 0 0 0 0 0 0 0 0 0 0 0 0 0 0 0 0 0 0 0 0 0 0 0 0 0 0 me
S 613 1 3 0 0 6 1 603 4730 14 3000 A 0 0 0 0 0 0 0 0 0 0 0 0 0 0 0 0 0 0 0 0 0 0 0 0 0 0 0 0 comm
S 614 14 5 0 0 0 1 603 4775 310 400000 A 0 0 0 0 0 0 0 13 10 0 0 0 0 0 0 0 0 0 0 0 0 495 0 582 0 0 0 0 pzupgtr
F 614 10 604 605 606 607 608 609 610 611 612 613
S 615 6 1 0 0 6 1 603 4789 40800016 3000 A 0 0 0 0 0 0 0 0 0 0 0 0 0 0 0 0 0 0 0 0 0 0 0 0 0 0 0 0 z_e_435
S 616 6 1 0 0 6 1 603 4735 40800016 3000 A 0 0 0 0 0 0 0 0 0 0 0 0 0 0 0 0 0 0 0 0 0 0 0 0 0 0 0 0 z_b_0
S 617 6 1 0 0 6 1 603 4797 40800016 3000 A 0 0 0 0 0 0 0 0 0 0 0 0 0 0 0 0 0 0 0 0 0 0 0 0 0 0 0 0 z_e_438
S 618 6 1 0 0 6 1 603 4805 40800016 3000 A 0 0 0 0 0 0 0 0 0 0 0 0 0 0 0 0 0 0 0 0 0 0 0 0 0 0 0 0 z_e_440
S 619 6 1 0 0 6 1 603 4741 40800016 3000 A 0 0 0 0 0 0 0 0 0 0 0 0 0 0 0 0 0 0 0 0 0 0 0 0 0 0 0 0 z_b_1
S 620 6 1 0 0 6 1 603 4813 40800016 3000 A 0 0 0 0 0 0 0 0 0 0 0 0 0 0 0 0 0 0 0 0 0 0 0 0 0 0 0 0 z_e_443
S 621 6 1 0 0 6 1 603 4755 40800016 3000 A 0 0 0 0 0 0 0 0 0 0 0 0 0 0 0 0 0 0 0 0 0 0 0 0 0 0 0 0 z_b_2
S 622 23 5 0 0 0 633 582 4821 10 0 A 0 0 0 0 0 0 0 0 0 0 0 0 0 0 0 0 0 0 0 0 0 0 0 0 0 0 0 0 pzsteqr
S 623 1 3 0 0 20 1 622 4829 14 3000 A 0 0 0 0 0 0 0 0 0 0 0 0 0 0 0 0 0 0 0 0 0 0 0 0 0 0 0 0 compz
S 624 6 3 0 0 6 1 622 4700 800014 3000 A 0 0 0 0 0 0 0 0 0 0 0 0 0 0 0 0 0 0 0 0 0 0 0 0 0 0 0 0 n
S 625 1 3 0 0 6 1 622 4702 14 3000 A 0 0 0 0 0 0 0 0 0 0 0 0 0 0 0 0 0 0 0 0 0 0 0 0 0 0 0 0 nrl
S 626 7 3 0 0 77 1 622 4713 800114 3000 A 0 0 0 0 0 0 0 0 0 0 0 0 0 0 0 0 0 0 0 0 0 0 0 0 0 0 0 0 d
S 627 7 3 0 0 80 1 622 4715 800114 3000 A 0 0 0 0 0 0 0 0 0 0 0 0 0 0 0 0 0 0 0 0 0 0 0 0 0 0 0 0 e
S 628 7 3 0 0 83 1 622 4835 800314 3000 A 0 0 0 0 0 0 0 0 0 0 0 0 0 0 0 0 0 0 0 0 0 0 0 0 0 0 0 0 z
S 629 6 3 0 0 6 1 622 4837 800014 3000 A 0 0 0 0 0 0 0 0 0 0 0 0 0 0 0 0 0 0 0 0 0 0 0 0 0 0 0 0 ldz
S 630 1 3 0 0 6 1 622 4721 14 3000 A 0 0 0 0 0 0 0 0 0 0 0 0 0 0 0 0 0 0 0 0 0 0 0 0 0 0 0 0 nproc
S 631 1 3 0 0 6 1 622 4727 14 3000 A 0 0 0 0 0 0 0 0 0 0 0 0 0 0 0 0 0 0 0 0 0 0 0 0 0 0 0 0 me
S 632 1 3 0 0 6 1 622 4730 14 3000 A 0 0 0 0 0 0 0 0 0 0 0 0 0 0 0 0 0 0 0 0 0 0 0 0 0 0 0 0 comm
S 633 14 5 0 0 0 1 622 4821 310 400000 A 0 0 0 0 0 0 0 24 10 0 0 0 0 0 0 0 0 0 0 0 0 768 0 582 0 0 0 0 pzsteqr
F 633 10 623 624 625 626 627 628 629 630 631 632
S 634 6 1 0 0 6 1 622 4735 40800016 3000 A 0 0 0 0 0 0 0 0 0 0 0 0 0 0 0 0 0 0 0 0 0 0 0 0 0 0 0 0 z_b_0
S 635 6 1 0 0 6 1 622 4741 40800016 3000 A 0 0 0 0 0 0 0 0 0 0 0 0 0 0 0 0 0 0 0 0 0 0 0 0 0 0 0 0 z_b_1
S 636 6 1 0 0 6 1 622 4841 40800016 3000 A 0 0 0 0 0 0 0 0 0 0 0 0 0 0 0 0 0 0 0 0 0 0 0 0 0 0 0 0 z_e_446
S 637 6 1 0 0 6 1 622 4755 40800016 3000 A 0 0 0 0 0 0 0 0 0 0 0 0 0 0 0 0 0 0 0 0 0 0 0 0 0 0 0 0 z_b_2
S 638 6 1 0 0 6 1 622 4849 40800016 3000 A 0 0 0 0 0 0 0 0 0 0 0 0 0 0 0 0 0 0 0 0 0 0 0 0 0 0 0 0 z_e_449
S 639 23 5 0 0 0 647 582 4682 0 0 A 0 0 0 0 0 0 0 0 0 0 0 0 0 0 0 0 0 0 0 0 0 0 0 0 0 0 0 0 zhpev_drv
S 640 1 3 0 0 20 1 639 4857 14 3000 A 0 0 0 0 0 0 0 0 0 0 0 0 0 0 0 0 0 0 0 0 0 0 0 0 0 0 0 0 jobz
S 641 1 3 0 0 20 1 639 4862 14 3000 A 0 0 0 0 0 0 0 0 0 0 0 0 0 0 0 0 0 0 0 0 0 0 0 0 0 0 0 0 uplo
S 642 1 3 0 0 6 1 639 4700 14 3000 A 0 0 0 0 0 0 0 0 0 0 0 0 0 0 0 0 0 0 0 0 0 0 0 0 0 0 0 0 n
S 643 7 3 0 0 86 1 639 4706 800114 3000 A 0 0 0 0 0 0 0 0 0 0 0 0 0 0 0 0 0 0 0 0 0 0 0 0 0 0 0 0 ap
S 644 7 3 0 0 92 1 639 4867 800114 3000 A 0 0 0 0 0 0 0 0 0 0 0 0 0 0 0 0 0 0 0 0 0 0 0 0 0 0 0 0 w
S 645 7 3 0 0 89 1 639 4835 800314 3000 A 0 0 0 0 0 0 0 0 0 0 0 0 0 0 0 0 0 0 0 0 0 0 0 0 0 0 0 0 z
S 646 6 3 0 0 6 1 639 4837 800014 3000 A 0 0 0 0 0 0 0 0 0 0 0 0 0 0 0 0 0 0 0 0 0 0 0 0 0 0 0 0 ldz
S 647 14 5 0 0 0 1 639 4682 300 400000 A 0 0 0 0 0 0 0 35 7 0 0 0 0 0 0 0 0 0 0 0 0 1388 0 582 0 0 0 0 zhpev_drv
F 647 7 640 641 642 643 644 645 646
S 648 6 1 0 0 6 1 639 4735 40800016 3000 A 0 0 0 0 0 0 0 0 0 0 0 0 0 0 0 0 0 0 0 0 0 0 0 0 0 0 0 0 z_b_0
S 649 6 1 0 0 6 1 639 4869 40800016 3000 A 0 0 0 0 0 0 0 0 0 0 0 0 0 0 0 0 0 0 0 0 0 0 0 0 0 0 0 0 z_e_451
S 650 6 1 0 0 6 1 639 4741 40800016 3000 A 0 0 0 0 0 0 0 0 0 0 0 0 0 0 0 0 0 0 0 0 0 0 0 0 0 0 0 0 z_b_1
S 651 6 1 0 0 6 1 639 4877 40800016 3000 A 0 0 0 0 0 0 0 0 0 0 0 0 0 0 0 0 0 0 0 0 0 0 0 0 0 0 0 0 z_e_454
S 652 6 1 0 0 6 1 639 4755 40800016 3000 A 0 0 0 0 0 0 0 0 0 0 0 0 0 0 0 0 0 0 0 0 0 0 0 0 0 0 0 0 z_b_2
S 653 23 5 0 0 0 665 582 4671 0 0 A 0 0 0 0 0 0 0 0 0 0 0 0 0 0 0 0 0 0 0 0 0 0 0 0 0 0 0 0 pzhpev_drv
S 654 1 3 0 0 20 1 653 4857 14 3000 A 0 0 0 0 0 0 0 0 0 0 0 0 0 0 0 0 0 0 0 0 0 0 0 0 0 0 0 0 jobz
S 655 7 3 0 0 95 1 653 4706 800314 3000 A 0 0 0 0 0 0 0 0 0 0 0 0 0 0 0 0 0 0 0 0 0 0 0 0 0 0 0 0 ap
S 656 6 3 1 0 6 1 653 4709 800014 3000 A 0 0 0 0 0 0 0 0 0 0 0 0 0 0 0 0 0 0 0 0 0 0 0 0 0 0 0 0 lda
S 657 7 3 0 0 101 1 653 4867 800114 3000 A 0 0 0 0 0 0 0 0 0 0 0 0 0 0 0 0 0 0 0 0 0 0 0 0 0 0 0 0 w
S 658 7 3 0 0 98 1 653 4835 800314 3000 A 0 0 0 0 0 0 0 0 0 0 0 0 0 0 0 0 0 0 0 0 0 0 0 0 0 0 0 0 z
S 659 6 3 1 0 6 1 653 4837 800014 3000 A 0 0 0 0 0 0 0 0 0 0 0 0 0 0 0 0 0 0 0 0 0 0 0 0 0 0 0 0 ldz
S 660 1 3 1 0 6 1 653 4702 14 3000 A 0 0 0 0 0 0 0 0 0 0 0 0 0 0 0 0 0 0 0 0 0 0 0 0 0 0 0 0 nrl
S 661 6 3 1 0 6 1 653 4700 800014 3000 A 0 0 0 0 0 0 0 0 0 0 0 0 0 0 0 0 0 0 0 0 0 0 0 0 0 0 0 0 n
S 662 1 3 1 0 6 1 653 4721 14 3000 A 0 0 0 0 0 0 0 0 0 0 0 0 0 0 0 0 0 0 0 0 0 0 0 0 0 0 0 0 nproc
S 663 1 3 1 0 6 1 653 4885 14 3000 A 0 0 0 0 0 0 0 0 0 0 0 0 0 0 0 0 0 0 0 0 0 0 0 0 0 0 0 0 mpime
S 664 1 3 1 0 6 1 653 4730 14 3000 A 0 0 0 0 0 0 0 0 0 0 0 0 0 0 0 0 0 0 0 0 0 0 0 0 0 0 0 0 comm
S 665 14 5 0 0 0 1 653 4671 300 400000 A 0 0 0 0 0 0 0 43 11 0 0 0 0 0 0 0 0 0 0 0 0 1414 0 582 0 0 0 0 pzhpev_drv
F 665 11 654 655 656 657 658 659 660 661 662 663 664
S 666 6 1 0 0 6 1 653 4891 40800016 3000 A 0 0 0 0 0 0 0 0 0 0 0 0 0 0 0 0 0 0 0 0 0 0 0 0 0 0 0 0 z_e_456
S 667 6 1 0 0 6 1 653 4735 40800016 3000 A 0 0 0 0 0 0 0 0 0 0 0 0 0 0 0 0 0 0 0 0 0 0 0 0 0 0 0 0 z_b_0
S 668 6 1 0 0 6 1 653 4899 40800016 3000 A 0 0 0 0 0 0 0 0 0 0 0 0 0 0 0 0 0 0 0 0 0 0 0 0 0 0 0 0 z_e_459
S 669 6 1 0 0 6 1 653 4907 40800016 3000 A 0 0 0 0 0 0 0 0 0 0 0 0 0 0 0 0 0 0 0 0 0 0 0 0 0 0 0 0 z_e_461
S 670 6 1 0 0 6 1 653 4741 40800016 3000 A 0 0 0 0 0 0 0 0 0 0 0 0 0 0 0 0 0 0 0 0 0 0 0 0 0 0 0 0 z_b_1
S 671 6 1 0 0 6 1 653 4915 40800016 3000 A 0 0 0 0 0 0 0 0 0 0 0 0 0 0 0 0 0 0 0 0 0 0 0 0 0 0 0 0 z_e_464
S 672 6 1 0 0 6 1 653 4755 40800016 3000 A 0 0 0 0 0 0 0 0 0 0 0 0 0 0 0 0 0 0 0 0 0 0 0 0 0 0 0 0 z_b_2
A 12 1 0 0 0 6 597 0 0 0 0 0 0 0 0 0 0 0 0 0
A 13 1 0 0 0 6 598 0 0 0 0 0 0 0 0 0 0 0 0 0
A 14 1 0 0 0 6 601 0 0 0 0 0 0 0 0 0 0 0 0 0
A 15 1 0 0 0 6 589 0 0 0 0 0 0 0 0 0 0 0 0 0
A 16 1 0 0 0 6 599 0 0 0 0 0 0 0 0 0 0 0 0 0
A 17 1 0 0 0 6 600 0 0 0 0 0 0 0 0 0 0 0 0 0
A 18 1 0 0 0 6 602 0 0 0 0 0 0 0 0 0 0 0 0 0
A 19 1 0 0 0 6 617 0 0 0 0 0 0 0 0 0 0 0 0 0
A 20 1 0 0 0 6 607 0 0 0 0 0 0 0 0 0 0 0 0 0
A 21 1 0 0 0 6 615 0 0 0 0 0 0 0 0 0 0 0 0 0
A 22 1 0 0 0 6 616 0 0 0 0 0 0 0 0 0 0 0 0 0
A 23 1 0 0 0 6 620 0 0 0 0 0 0 0 0 0 0 0 0 0
A 24 1 0 0 0 6 610 0 0 0 0 0 0 0 0 0 0 0 0 0
A 25 1 0 0 0 6 618 0 0 0 0 0 0 0 0 0 0 0 0 0
A 26 1 0 0 0 6 619 0 0 0 0 0 0 0 0 0 0 0 0 0
A 27 1 0 0 0 6 621 0 0 0 0 0 0 0 0 0 0 0 0 0
A 28 1 0 0 0 6 634 0 0 0 0 0 0 0 0 0 0 0 0 0
A 29 1 0 0 0 6 635 0 0 0 0 0 0 0 0 0 0 0 0 0
A 30 1 0 0 0 6 638 0 0 0 0 0 0 0 0 0 0 0 0 0
A 31 1 0 0 0 6 629 0 0 0 0 0 0 0 0 0 0 0 0 0
A 32 1 0 0 0 6 636 0 0 0 0 0 0 0 0 0 0 0 0 0
A 33 1 0 0 0 6 637 0 0 0 0 0 0 0 0 0 0 0 0 0
A 34 1 0 0 0 6 648 0 0 0 0 0 0 0 0 0 0 0 0 0
A 35 1 0 0 0 6 651 0 0 0 0 0 0 0 0 0 0 0 0 0
A 36 1 0 0 0 6 646 0 0 0 0 0 0 0 0 0 0 0 0 0
A 37 1 0 0 0 6 649 0 0 0 0 0 0 0 0 0 0 0 0 0
A 38 1 0 0 0 6 650 0 0 0 0 0 0 0 0 0 0 0 0 0
A 39 1 0 0 0 6 652 0 0 0 0 0 0 0 0 0 0 0 0 0
A 40 1 0 0 0 6 668 0 0 0 0 0 0 0 0 0 0 0 0 0
A 41 1 0 0 0 6 656 0 0 0 0 0 0 0 0 0 0 0 0 0
A 42 1 0 0 0 6 666 0 0 0 0 0 0 0 0 0 0 0 0 0
A 43 1 0 0 0 6 667 0 0 0 0 0 0 0 0 0 0 0 0 0
A 44 1 0 0 0 6 671 0 0 0 0 0 0 0 0 0 0 0 0 0
A 45 1 0 0 0 6 659 0 0 0 0 0 0 0 0 0 0 0 0 0
A 46 1 0 0 0 6 669 0 0 0 0 0 0 0 0 0 0 0 0 0
A 47 1 0 0 0 6 670 0 0 0 0 0 0 0 0 0 0 0 0 0
A 48 1 0 0 0 6 672 0 0 0 0 0 0 0 0 0 0 0 0 0
Z
Z
