V26 iotk_misc_interf
20 iotk_misc_interf.F90 S582 0
04/24/2012  15:45:23
use iotk_base private
use iotk_base private
enduse
D 86 24 704 4 703 3
D 140 18 58
D 142 18 99
D 144 21 6 1 0 0 1 1 0 0 1
 0 0 0 0 0 126
D 147 18 130
D 149 18 54
D 151 18 56
D 153 18 136
D 155 21 28 1 0 0 1 1 0 0 1
 0 0 0 0 0 137
S 582 24 0 0 0 6 1 0 4658 15 0 A 0 0 0 0 0 0 0 0 0 0 0 0 323 0 0 0 0 0 0 0 0 123 0 0 0 0 0 0 iotk_misc_interf
S 583 19 0 0 0 6 1 582 4675 4000 0 A 0 0 0 0 0 0 0 0 0 0 0 0 0 0 0 0 1 1 0 0 0 0 0 582 0 0 0 0 iotk_copy_tag
O 583 1 598
S 584 19 0 0 0 6 1 582 4689 4000 0 A 0 0 0 0 0 0 0 0 0 0 0 0 0 0 0 0 2 1 0 0 0 0 0 582 0 0 0 0 iotk_parse_dat
O 584 1 740
S 585 19 0 0 0 6 1 582 4704 4000 0 A 0 0 0 0 0 0 0 0 0 0 0 0 0 0 0 0 3 1 0 0 0 0 0 582 0 0 0 0 iotk_set
O 585 1 749
S 586 19 0 0 0 6 1 582 4713 4000 0 A 0 0 0 0 0 0 0 0 0 0 0 0 0 0 0 0 4 1 0 0 0 0 0 582 0 0 0 0 iotk_get
O 586 1 761
S 587 19 0 0 0 6 1 582 4722 4000 0 A 0 0 0 0 0 0 0 0 0 0 0 0 0 0 0 0 5 1 0 0 0 0 0 582 0 0 0 0 iotk_copy_dat_aux
O 587 1 772
S 588 19 0 0 0 6 1 582 4740 4000 0 A 0 0 0 0 0 0 0 0 0 0 0 0 0 0 0 0 6 1 0 0 0 0 0 582 0 0 0 0 iotk_copy_dat
O 588 1 786
S 589 19 0 0 0 6 1 582 4754 4000 0 A 0 0 0 0 0 0 0 0 0 0 0 0 0 0 0 0 7 1 0 0 0 0 0 582 0 0 0 0 iotk_print_kinds
O 589 1 795
S 590 19 0 0 0 6 1 582 4771 4000 0 A 0 0 0 0 0 0 0 0 0 0 0 0 0 0 0 0 8 1 0 0 0 0 0 582 0 0 0 0 iotk_check_iotk_attr
O 590 1 796
S 591 19 0 0 0 6 1 582 4792 4000 0 A 0 0 0 0 0 0 0 0 0 0 0 0 0 0 0 0 10 2 0 0 0 0 0 582 0 0 0 0 iotk_index
O 591 2 804 800
S 592 19 0 0 0 6 1 582 4803 4000 0 A 0 0 0 0 0 0 0 0 0 0 0 0 0 0 0 0 13 1 0 0 0 0 0 582 0 0 0 0 iotk_check_name
O 592 1 818
S 593 19 0 0 0 6 1 582 4819 4000 0 A 0 0 0 0 0 0 0 0 0 0 0 0 0 0 0 0 11 1 0 0 0 0 0 582 0 0 0 0 iotk_tag_parse
O 593 1 809
S 594 19 0 0 0 6 1 582 4834 4000 0 A 0 0 0 0 0 0 0 0 0 0 0 0 0 0 0 0 12 1 0 0 0 0 0 582 0 0 0 0 iotk_complete_filepath
O 594 1 814
S 595 19 0 0 0 6 1 582 4857 4000 0 A 0 0 0 0 0 0 0 0 0 0 0 0 0 0 0 0 14 1 0 0 0 0 0 582 0 0 0 0 iotk_delete_attr
O 595 1 821
S 596 19 0 0 0 6 1 582 4874 4000 0 A 0 0 0 0 0 0 0 0 0 0 0 0 0 0 0 0 15 1 0 0 0 0 0 582 0 0 0 0 iotk_readcmdline
O 596 1 825
S 597 19 0 0 0 6 1 582 4891 4000 0 A 0 0 0 0 0 0 0 0 0 0 0 0 0 0 0 0 16 1 0 0 0 0 0 582 0 0 0 0 iotk_init_static_vars
O 597 1 831
S 598 14 5 0 0 0 1 582 4913 10 0 A 0 0 0 0 0 0 0 1 5 0 0 0 0 0 0 0 0 0 0 0 0 146 0 582 0 0 0 0 iotk_copy_tag_x
F 598 5 599 600 601 602 603
S 599 1 3 1 0 6 1 598 4929 2014 2000 A 0 0 0 0 0 0 0 0 0 0 0 0 0 0 0 0 0 0 0 0 0 0 0 0 0 0 0 0 source
S 600 1 3 1 0 6 1 598 4936 2014 2000 A 0 0 0 0 0 0 0 0 0 0 0 0 0 0 0 0 0 0 0 0 0 0 0 0 0 0 0 0 dest
S 601 1 3 0 0 86 1 598 4941 80002014 2000 A 0 0 0 0 0 0 0 0 0 0 0 0 0 0 0 0 0 0 0 0 0 0 0 0 0 0 0 0 dummy
S 602 1 3 1 0 6 1 598 4947 80002014 2000 A 0 0 0 0 0 0 0 0 0 0 0 0 0 0 0 0 0 0 0 0 0 0 0 0 0 0 0 0 maxsize
S 603 1 3 2 0 6 1 598 4955 80002014 2000 A 0 0 0 0 0 0 0 0 0 0 0 0 0 0 0 0 0 0 0 0 0 0 0 0 0 0 0 0 ierr
S 616 3 0 0 0 6 1 1 0 0 0 A 0 0 0 0 0 0 0 0 0 65535 0 0 0 0 0 0 0 0 0 0 0 0 0 0 0 0 0 0 6
S 617 3 0 0 0 6 1 1 0 0 0 A 0 0 0 0 0 0 0 0 0 256 0 0 0 0 0 0 0 0 0 0 0 0 0 0 0 0 0 0 6
S 618 3 0 0 0 6 1 1 0 0 0 A 0 0 0 0 0 0 0 0 0 65278 0 0 0 0 0 0 0 0 0 0 0 0 0 0 0 0 0 0 6
S 647 3 0 0 0 6 1 1 0 0 0 A 0 0 0 0 0 0 0 0 0 12 0 0 0 0 0 0 0 0 0 0 0 0 0 0 0 0 0 0 6
R 703 25 56 iotk_base iotk_dummytype
R 704 5 57 iotk_base dummy iotk_dummytype
S 740 14 5 0 0 0 1 582 6656 10 0 A 0 0 0 0 0 0 0 6 8 0 0 0 0 0 0 0 0 0 0 0 0 158 0 582 0 0 0 0 iotk_parse_dat_x
F 740 8 741 742 743 744 745 746 747 748
S 741 1 3 1 0 28 1 740 6673 2014 42000 A 0 0 0 0 0 0 0 0 0 0 0 0 0 0 0 0 0 0 0 0 0 0 0 0 0 0 0 0 attr
S 742 1 3 2 0 28 1 740 6678 2014 42000 A 0 0 0 0 0 0 0 0 0 0 0 0 0 0 0 0 0 0 0 0 0 0 0 0 0 0 0 0 type
S 743 1 3 2 0 6 1 740 2960 2014 2000 A 0 0 0 0 0 0 0 0 0 0 0 0 0 0 0 0 0 0 0 0 0 0 0 0 0 0 0 0 kind
S 744 1 3 2 0 6 1 740 6683 2014 2000 A 0 0 0 0 0 0 0 0 0 0 0 0 0 0 0 0 0 0 0 0 0 0 0 0 0 0 0 0 isize
S 745 1 3 2 0 6 1 740 3282 2014 2000 A 0 0 0 0 0 0 0 0 0 0 0 0 0 0 0 0 0 0 0 0 0 0 0 0 0 0 0 0 len
S 746 1 3 2 0 28 1 740 6689 2014 42000 A 0 0 0 0 0 0 0 0 0 0 0 0 0 0 0 0 0 0 0 0 0 0 0 0 0 0 0 0 fmt
S 747 1 3 2 0 6 1 740 6693 2014 2000 A 0 0 0 0 0 0 0 0 0 0 0 0 0 0 0 0 0 0 0 0 0 0 0 0 0 0 0 0 columns
S 748 1 3 2 0 6 1 740 4955 2014 2000 A 0 0 0 0 0 0 0 0 0 0 0 0 0 0 0 0 0 0 0 0 0 0 0 0 0 0 0 0 ierr
S 749 14 5 0 0 0 1 582 6701 10 0 A 0 0 0 0 0 0 0 14 11 0 0 0 0 0 0 0 0 0 0 0 0 172 0 582 0 0 0 0 iotk_set_x
F 749 11 750 751 752 753 754 755 756 757 758 759 760
S 750 1 3 0 0 86 1 749 4941 80002014 2000 A 0 0 0 0 0 0 0 0 0 0 0 0 0 0 0 0 0 0 0 0 0 0 0 0 0 0 0 0 dummy
S 751 1 3 1 0 6 1 749 6712 80002014 2000 A 0 0 0 0 0 0 0 0 0 0 0 0 0 0 0 0 0 0 0 0 0 0 0 0 0 0 0 0 unitmin
S 752 1 3 1 0 6 1 749 6720 80002014 2000 A 0 0 0 0 0 0 0 0 0 0 0 0 0 0 0 0 0 0 0 0 0 0 0 0 0 0 0 0 unitmax
S 753 1 3 1 0 6 1 749 6728 80002014 2000 A 0 0 0 0 0 0 0 0 0 0 0 0 0 0 0 0 0 0 0 0 0 0 0 0 0 0 0 0 getline_buffer
S 754 1 3 1 0 16 1 749 6743 80002014 2000 A 0 0 0 0 0 0 0 0 0 0 0 0 0 0 0 0 0 0 0 0 0 0 0 0 0 0 0 0 error_warn_overflow
S 755 1 3 1 0 6 1 749 6763 80002014 2000 A 0 0 0 0 0 0 0 0 0 0 0 0 0 0 0 0 0 0 0 0 0 0 0 0 0 0 0 0 linlen
S 756 1 3 1 0 6 1 749 6770 80002014 2000 A 0 0 0 0 0 0 0 0 0 0 0 0 0 0 0 0 0 0 0 0 0 0 0 0 0 0 0 0 indent
S 757 1 3 1 0 6 1 749 6777 80002014 2000 A 0 0 0 0 0 0 0 0 0 0 0 0 0 0 0 0 0 0 0 0 0 0 0 0 0 0 0 0 maxindent
S 758 1 3 1 0 6 1 749 6787 80002014 2000 A 0 0 0 0 0 0 0 0 0 0 0 0 0 0 0 0 0 0 0 0 0 0 0 0 0 0 0 0 error_unit
S 759 1 3 1 0 6 1 749 6798 80002014 2000 A 0 0 0 0 0 0 0 0 0 0 0 0 0 0 0 0 0 0 0 0 0 0 0 0 0 0 0 0 output_unit
S 760 1 3 2 0 6 1 749 4955 80002014 2000 A 0 0 0 0 0 0 0 0 0 0 0 0 0 0 0 0 0 0 0 0 0 0 0 0 0 0 0 0 ierr
S 761 14 5 0 0 0 1 582 6810 10 0 A 0 0 0 0 0 0 0 25 10 0 0 0 0 0 0 0 0 0 0 0 0 191 0 582 0 0 0 0 iotk_get_x
F 761 10 762 763 764 765 766 767 768 769 770 771
S 762 1 3 0 0 86 1 761 4941 80002014 2000 A 0 0 0 0 0 0 0 0 0 0 0 0 0 0 0 0 0 0 0 0 0 0 0 0 0 0 0 0 dummy
S 763 1 3 2 0 6 1 761 6712 80002014 2000 A 0 0 0 0 0 0 0 0 0 0 0 0 0 0 0 0 0 0 0 0 0 0 0 0 0 0 0 0 unitmin
S 764 1 3 2 0 6 1 761 6720 80002014 2000 A 0 0 0 0 0 0 0 0 0 0 0 0 0 0 0 0 0 0 0 0 0 0 0 0 0 0 0 0 unitmax
S 765 1 3 2 0 6 1 761 6728 80002014 2000 A 0 0 0 0 0 0 0 0 0 0 0 0 0 0 0 0 0 0 0 0 0 0 0 0 0 0 0 0 getline_buffer
S 766 1 3 2 0 16 1 761 6743 80002014 2000 A 0 0 0 0 0 0 0 0 0 0 0 0 0 0 0 0 0 0 0 0 0 0 0 0 0 0 0 0 error_warn_overflow
S 767 1 3 2 0 6 1 761 6763 80002014 2000 A 0 0 0 0 0 0 0 0 0 0 0 0 0 0 0 0 0 0 0 0 0 0 0 0 0 0 0 0 linlen
S 768 1 3 2 0 6 1 761 6770 80002014 2000 A 0 0 0 0 0 0 0 0 0 0 0 0 0 0 0 0 0 0 0 0 0 0 0 0 0 0 0 0 indent
S 769 1 3 2 0 6 1 761 6777 80002014 2000 A 0 0 0 0 0 0 0 0 0 0 0 0 0 0 0 0 0 0 0 0 0 0 0 0 0 0 0 0 maxindent
S 770 1 3 2 0 6 1 761 6787 80002014 2000 A 0 0 0 0 0 0 0 0 0 0 0 0 0 0 0 0 0 0 0 0 0 0 0 0 0 0 0 0 error_unit
S 771 1 3 2 0 6 1 761 6798 80002014 2000 A 0 0 0 0 0 0 0 0 0 0 0 0 0 0 0 0 0 0 0 0 0 0 0 0 0 0 0 0 output_unit
S 772 14 5 0 0 0 1 582 6821 10 0 A 0 0 0 0 0 0 0 35 13 0 0 0 0 0 0 0 0 0 0 0 0 209 0 582 0 0 0 0 iotk_copy_dat_aux_x
F 772 13 773 774 775 776 777 778 779 780 781 782 783 784 785
S 773 1 3 1 0 6 1 772 4929 2014 2000 A 0 0 0 0 0 0 0 0 0 0 0 0 0 0 0 0 0 0 0 0 0 0 0 0 0 0 0 0 source
S 774 1 3 1 0 6 1 772 4936 2014 2000 A 0 0 0 0 0 0 0 0 0 0 0 0 0 0 0 0 0 0 0 0 0 0 0 0 0 0 0 0 dest
S 775 1 3 1 0 16 1 772 6841 2014 2000 A 0 0 0 0 0 0 0 0 0 0 0 0 0 0 0 0 0 0 0 0 0 0 0 0 0 0 0 0 source_binary
S 776 1 3 1 0 16 1 772 6855 2014 2000 A 0 0 0 0 0 0 0 0 0 0 0 0 0 0 0 0 0 0 0 0 0 0 0 0 0 0 0 0 dest_binary
S 777 1 3 1 0 28 1 772 6867 2014 42000 A 0 0 0 0 0 0 0 0 0 0 0 0 0 0 0 0 0 0 0 0 0 0 0 0 0 0 0 0 name
S 778 1 3 1 0 28 1 772 6678 2014 42000 A 0 0 0 0 0 0 0 0 0 0 0 0 0 0 0 0 0 0 0 0 0 0 0 0 0 0 0 0 type
S 779 1 3 1 0 6 1 772 6872 2014 2000 A 0 0 0 0 0 0 0 0 0 0 0 0 0 0 0 0 0 0 0 0 0 0 0 0 0 0 0 0 ikind
S 780 1 3 1 0 6 1 772 6683 2014 2000 A 0 0 0 0 0 0 0 0 0 0 0 0 0 0 0 0 0 0 0 0 0 0 0 0 0 0 0 0 isize
S 781 1 3 1 0 6 1 772 3282 2014 2000 A 0 0 0 0 0 0 0 0 0 0 0 0 0 0 0 0 0 0 0 0 0 0 0 0 0 0 0 0 len
S 782 1 3 1 0 28 1 772 6689 2014 42000 A 0 0 0 0 0 0 0 0 0 0 0 0 0 0 0 0 0 0 0 0 0 0 0 0 0 0 0 0 fmt
S 783 1 3 1 0 6 1 772 6693 2014 2000 A 0 0 0 0 0 0 0 0 0 0 0 0 0 0 0 0 0 0 0 0 0 0 0 0 0 0 0 0 columns
S 784 1 3 1 0 28 1 772 6673 2014 42000 A 0 0 0 0 0 0 0 0 0 0 0 0 0 0 0 0 0 0 0 0 0 0 0 0 0 0 0 0 attr
S 785 1 3 2 0 6 1 772 4955 2014 2000 A 0 0 0 0 0 0 0 0 0 0 0 0 0 0 0 0 0 0 0 0 0 0 0 0 0 0 0 0 ierr
S 786 14 5 0 0 0 1 582 6878 10 0 A 0 0 0 0 0 0 0 48 8 0 0 0 0 0 0 0 0 0 0 0 0 229 0 582 0 0 0 0 iotk_copy_dat_x
F 786 8 787 788 789 790 791 792 793 794
S 787 1 3 1 0 6 1 786 4929 2014 2000 A 0 0 0 0 0 0 0 0 0 0 0 0 0 0 0 0 0 0 0 0 0 0 0 0 0 0 0 0 source
S 788 1 3 1 0 6 1 786 4936 2014 2000 A 0 0 0 0 0 0 0 0 0 0 0 0 0 0 0 0 0 0 0 0 0 0 0 0 0 0 0 0 dest
S 789 1 3 1 0 16 1 786 6841 2014 2000 A 0 0 0 0 0 0 0 0 0 0 0 0 0 0 0 0 0 0 0 0 0 0 0 0 0 0 0 0 source_binary
S 790 1 3 1 0 16 1 786 6855 2014 2000 A 0 0 0 0 0 0 0 0 0 0 0 0 0 0 0 0 0 0 0 0 0 0 0 0 0 0 0 0 dest_binary
S 791 1 3 1 0 28 1 786 6867 2014 42000 A 0 0 0 0 0 0 0 0 0 0 0 0 0 0 0 0 0 0 0 0 0 0 0 0 0 0 0 0 name
S 792 1 3 1 0 28 1 786 6673 2014 42000 A 0 0 0 0 0 0 0 0 0 0 0 0 0 0 0 0 0 0 0 0 0 0 0 0 0 0 0 0 attr
S 793 1 3 1 0 6 1 786 4947 2014 2000 A 0 0 0 0 0 0 0 0 0 0 0 0 0 0 0 0 0 0 0 0 0 0 0 0 0 0 0 0 maxsize
S 794 1 3 2 0 6 1 786 4955 2014 2000 A 0 0 0 0 0 0 0 0 0 0 0 0 0 0 0 0 0 0 0 0 0 0 0 0 0 0 0 0 ierr
S 795 14 5 0 0 0 1 582 6894 10 0 A 0 0 0 0 0 0 0 56 0 0 0 0 0 0 0 0 0 0 0 0 0 243 0 582 0 0 0 0 iotk_print_kinds_x
F 795 0
S 796 14 5 0 0 0 1 582 6913 10 0 A 0 0 0 0 0 0 0 56 3 0 0 0 0 0 0 0 0 0 0 0 0 248 0 582 0 0 0 0 iotk_check_iotk_attr_x
F 796 3 797 798 799
S 797 1 3 1 0 6 1 796 3864 2014 2000 A 0 0 0 0 0 0 0 0 0 0 0 0 0 0 0 0 0 0 0 0 0 0 0 0 0 0 0 0 unit
S 798 1 3 1 0 140 1 796 6673 2014 2000 A 0 0 0 0 0 0 0 0 0 0 0 0 0 0 0 0 0 0 0 0 0 0 0 0 0 0 0 0 attr
S 799 1 3 2 0 6 1 796 4955 2014 2000 A 0 0 0 0 0 0 0 0 0 0 0 0 0 0 0 0 0 0 0 0 0 0 0 0 0 0 0 0 ierr
S 800 14 5 0 0 142 1 582 6936 14 0 A 0 0 0 0 0 0 0 60 1 0 0 802 0 0 0 0 0 0 0 0 0 259 0 582 0 0 0 0 iotk_index_scal
F 800 1 801
S 801 1 3 1 0 6 1 800 3107 2014 2000 A 0 0 0 0 0 0 0 0 0 0 0 0 0 0 0 0 0 0 0 0 0 0 0 0 0 0 0 0 index
S 802 1 3 0 0 142 1 800 6936 2014 1002000 A 0 0 0 0 0 0 0 0 0 0 0 0 0 0 0 0 0 0 0 0 0 0 0 0 0 0 0 0 iotk_index_scal
S 804 14 5 0 0 147 1 582 6952 14 80000 A 0 0 0 0 0 0 0 62 1 0 0 806 0 0 0 0 0 0 0 0 0 264 0 582 0 0 0 0 iotk_index_vec
F 804 1 805
S 805 7 3 1 0 144 1 804 3107 20402014 10002000 A 0 0 0 0 0 0 0 0 0 0 0 0 0 0 0 0 0 0 0 0 0 0 0 0 0 0 0 0 index
S 806 1 3 0 0 147 1 804 6952 2014 1082000 A 0 0 0 0 0 0 0 0 0 0 0 0 0 0 0 0 0 0 0 0 0 0 0 0 0 0 0 0 iotk_index_vec
S 807 6 1 0 0 6 1 804 6967 40800016 2000 A 0 0 0 0 0 0 0 0 0 0 0 0 0 0 0 0 0 0 0 0 0 0 0 0 0 0 0 0 z_b_0_1
S 809 14 5 0 0 0 1 582 6986 10 0 A 0 0 0 0 0 0 0 63 4 0 0 0 0 0 0 0 0 0 0 0 0 272 0 582 0 0 0 0 iotk_tag_parse_x
F 809 4 810 811 812 813
S 810 1 3 1 0 149 1 809 7003 2014 2000 A 0 0 0 0 0 0 0 0 0 0 0 0 0 0 0 0 0 0 0 0 0 0 0 0 0 0 0 0 tag
S 811 1 3 2 0 151 1 809 6867 2014 2000 A 0 0 0 0 0 0 0 0 0 0 0 0 0 0 0 0 0 0 0 0 0 0 0 0 0 0 0 0 name
S 812 1 3 2 0 140 1 809 6673 2014 2000 A 0 0 0 0 0 0 0 0 0 0 0 0 0 0 0 0 0 0 0 0 0 0 0 0 0 0 0 0 attr
S 813 1 3 2 0 6 1 809 4955 2014 2000 A 0 0 0 0 0 0 0 0 0 0 0 0 0 0 0 0 0 0 0 0 0 0 0 0 0 0 0 0 ierr
S 814 14 5 0 0 153 1 582 7007 14 80000 A 0 0 0 0 0 0 0 68 2 0 0 817 0 0 0 0 0 0 0 0 0 283 0 582 0 0 0 0 iotk_complete_filepath_x
F 814 2 815 816
S 815 6 3 1 0 28 1 814 7032 802014 42000 A 0 0 0 0 0 0 0 0 0 0 0 0 0 0 0 0 0 0 0 0 0 0 0 0 0 0 0 0 newfile
S 816 6 3 1 0 28 1 814 7040 802014 42000 A 0 0 0 0 0 0 0 0 0 0 0 0 0 0 0 0 0 0 0 0 0 0 0 0 0 0 0 0 oldfile
S 817 1 3 0 0 153 1 814 7007 2014 1082000 A 0 0 0 0 0 0 0 0 0 0 0 0 0 0 0 0 0 0 0 0 0 0 0 0 0 0 0 0 iotk_complete_filepath_x
S 818 14 5 0 0 16 1 582 7048 14 0 A 0 0 0 0 0 0 0 71 1 0 0 820 0 0 0 0 0 0 0 0 0 292 0 582 0 0 0 0 iotk_check_name_x
F 818 1 819
S 819 1 3 1 0 28 1 818 6867 2014 42000 A 0 0 0 0 0 0 0 0 0 0 0 0 0 0 0 0 0 0 0 0 0 0 0 0 0 0 0 0 name
S 820 1 3 0 0 16 1 818 7048 2014 1002000 A 0 0 0 0 0 0 0 0 0 0 0 0 0 0 0 0 0 0 0 0 0 0 0 0 0 0 0 0 iotk_check_name_x
S 821 14 5 0 0 0 1 582 7066 10 0 A 0 0 0 0 0 0 0 72 3 0 0 0 0 0 0 0 0 0 0 0 0 300 0 582 0 0 0 0 iotk_delete_attr_x
F 821 3 822 823 824
S 822 1 3 3 0 28 1 821 6673 2014 42000 A 0 0 0 0 0 0 0 0 0 0 0 0 0 0 0 0 0 0 0 0 0 0 0 0 0 0 0 0 attr
S 823 1 3 1 0 28 1 821 6867 2014 42000 A 0 0 0 0 0 0 0 0 0 0 0 0 0 0 0 0 0 0 0 0 0 0 0 0 0 0 0 0 name
S 824 1 3 2 0 6 1 821 4955 2014 2000 A 0 0 0 0 0 0 0 0 0 0 0 0 0 0 0 0 0 0 0 0 0 0 0 0 0 0 0 0 ierr
S 825 14 5 0 0 0 1 582 7085 10 0 A 0 0 0 0 0 0 0 75 4 0 0 0 0 0 0 0 0 0 0 0 0 309 0 582 0 0 0 0 iotk_readcmdline_x
F 825 4 826 827 828 829
S 826 7 3 2 0 155 1 825 7104 20002014 10042000 A 0 0 0 0 0 0 0 0 0 0 0 0 0 0 0 0 0 0 0 0 0 0 0 0 0 0 0 0 args
S 827 1 3 2 0 6 1 825 7109 2014 2000 A 0 0 0 0 0 0 0 0 0 0 0 0 0 0 0 0 0 0 0 0 0 0 0 0 0 0 0 0 nargs
S 828 1 3 1 0 16 1 825 7115 80002014 2000 A 0 0 0 0 0 0 0 0 0 0 0 0 0 0 0 0 0 0 0 0 0 0 0 0 0 0 0 0 eos
S 829 1 3 2 0 6 1 825 4955 80002014 2000 A 0 0 0 0 0 0 0 0 0 0 0 0 0 0 0 0 0 0 0 0 0 0 0 0 0 0 0 0 ierr
S 830 6 1 0 0 6 1 825 7119 40800016 2000 A 0 0 0 0 0 0 0 0 0 0 0 0 0 0 0 0 0 0 0 0 0 0 0 0 0 0 0 0 z_b_1
S 831 14 5 0 0 0 1 582 7125 10 0 A 0 0 0 0 0 0 0 79 0 0 0 0 0 0 0 0 0 0 0 0 0 319 0 582 0 0 0 0 iotk_init_static_vars_x
F 831 0
A 54 2 0 0 0 6 616 0 0 0 54 0 0 0 0 0 0 0 0 0
A 56 2 0 0 0 6 617 0 0 0 56 0 0 0 0 0 0 0 0 0
A 58 2 0 0 0 6 618 0 0 0 58 0 0 0 0 0 0 0 0 0
A 99 2 0 0 0 6 647 0 0 0 99 0 0 0 0 0 0 0 0 0
A 126 1 0 0 0 6 807 0 0 0 0 0 0 0 0 0 0 0 0 0
A 127 1 0 5 0 144 805 0 0 0 0 0 0 0 0 0 0 0 0 0
A 128 1 0 0 0 6 426 0 0 0 0 0 0 0 0 0 0 0 0 0
A 129 14 0 0 0 6 128 0 0 0 0 0 0 243 2 1 0 0 0 0
W 2 127 5
A 130 4 0 0 35 6 129 0 99 0 0 0 0 3 0 0 0 0 0 0
A 131 1 0 0 0 28 815 0 0 0 0 0 0 0 0 0 0 0 0 0
A 132 1 0 0 0 6 470 0 0 0 0 0 0 0 0 0 0 0 0 0
A 133 14 0 0 0 6 132 0 0 0 0 0 0 287 1 4 0 0 0 0
W 1 131
A 134 1 0 0 0 28 816 0 0 0 0 0 0 0 0 0 0 0 0 0
A 135 14 0 0 0 6 132 0 0 0 0 0 0 287 1 6 0 0 0 0
W 1 134
A 136 4 0 0 0 6 133 0 135 0 0 0 0 1 0 0 0 0 0 0
A 137 1 0 0 0 6 830 0 0 0 0 0 0 0 0 0 0 0 0 0
Z
Z
