V26 iotk_files_interf
21 iotk_files_interf.F90 S582 0
04/24/2012  15:45:23
use iotk_base private
use iotk_base private
enduse
D 86 24 683 4 682 3
S 582 24 0 0 0 6 1 0 4658 15 0 A 0 0 0 0 0 0 0 0 0 0 0 0 226 0 0 0 0 0 0 0 0 123 0 0 0 0 0 0 iotk_files_interf
R 682 25 56 iotk_base iotk_dummytype
R 683 5 57 iotk_base dummy iotk_dummytype
S 719 19 0 0 0 6 1 582 6378 4000 0 A 0 0 0 0 0 0 0 0 0 0 0 0 0 0 0 0 1 1 0 0 0 0 0 582 0 0 0 0 iotk_copyfile
O 719 1 726
S 720 19 0 0 0 6 1 582 6392 4000 0 A 0 0 0 0 0 0 0 0 0 0 0 0 0 0 0 0 2 1 0 0 0 0 0 582 0 0 0 0 iotk_link
O 720 1 733
S 721 19 0 0 0 6 1 582 6402 4000 0 A 0 0 0 0 0 0 0 0 0 0 0 0 0 0 0 0 3 1 0 0 0 0 0 582 0 0 0 0 iotk_open_write
O 721 1 742
S 722 19 0 0 0 6 1 582 6418 4000 0 A 0 0 0 0 0 0 0 0 0 0 0 0 0 0 0 0 4 1 0 0 0 0 0 582 0 0 0 0 iotk_close_write
O 722 1 754
S 723 19 0 0 0 6 1 582 6435 4000 0 A 0 0 0 0 0 0 0 0 0 0 0 0 0 0 0 0 5 1 0 0 0 0 0 582 0 0 0 0 iotk_open_read
O 723 1 758
S 724 19 0 0 0 6 1 582 6450 4000 0 A 0 0 0 0 0 0 0 0 0 0 0 0 0 0 0 0 6 1 0 0 0 0 0 582 0 0 0 0 iotk_close_read
O 724 1 768
S 725 19 0 0 0 6 1 582 6466 4000 0 A 0 0 0 0 0 0 0 0 0 0 0 0 0 0 0 0 7 1 0 0 0 0 0 582 0 0 0 0 iotk_magic
O 725 1 772
S 726 14 5 0 0 0 1 582 6477 10 0 A 0 0 0 0 0 0 0 1 6 0 0 0 0 0 0 0 0 0 0 0 0 137 0 582 0 0 0 0 iotk_copyfile_x
F 726 6 727 728 729 730 731 732
S 727 1 3 0 0 86 1 726 5796 80002014 2000 A 0 0 0 0 0 0 0 0 0 0 0 0 0 0 0 0 0 0 0 0 0 0 0 0 0 0 0 0 dummy
S 728 1 3 1 0 28 1 726 6493 80002014 42000 A 0 0 0 0 0 0 0 0 0 0 0 0 0 0 0 0 0 0 0 0 0 0 0 0 0 0 0 0 source
S 729 1 3 1 0 28 1 726 6500 80002014 42000 A 0 0 0 0 0 0 0 0 0 0 0 0 0 0 0 0 0 0 0 0 0 0 0 0 0 0 0 0 dest
S 730 1 3 1 0 6 1 726 6505 80002014 2000 A 0 0 0 0 0 0 0 0 0 0 0 0 0 0 0 0 0 0 0 0 0 0 0 0 0 0 0 0 source_unit
S 731 1 3 1 0 6 1 726 6517 80002014 2000 A 0 0 0 0 0 0 0 0 0 0 0 0 0 0 0 0 0 0 0 0 0 0 0 0 0 0 0 0 dest_unit
S 732 1 3 2 0 6 1 726 6527 80002014 2000 A 0 0 0 0 0 0 0 0 0 0 0 0 0 0 0 0 0 0 0 0 0 0 0 0 0 0 0 0 ierr
S 733 14 5 0 0 0 1 582 6532 10 0 A 0 0 0 0 0 0 0 7 8 0 0 0 0 0 0 0 0 0 0 0 0 150 0 582 0 0 0 0 iotk_link_x
F 733 8 734 735 736 737 738 739 740 741
S 734 1 3 1 0 6 1 733 3864 2014 2000 A 0 0 0 0 0 0 0 0 0 0 0 0 0 0 0 0 0 0 0 0 0 0 0 0 0 0 0 0 unit
S 735 1 3 1 0 28 1 733 6544 2014 42000 A 0 0 0 0 0 0 0 0 0 0 0 0 0 0 0 0 0 0 0 0 0 0 0 0 0 0 0 0 name
S 736 1 3 1 0 28 1 733 6549 2014 42000 A 0 0 0 0 0 0 0 0 0 0 0 0 0 0 0 0 0 0 0 0 0 0 0 0 0 0 0 0 file
S 737 1 3 0 0 86 1 733 5796 80002014 2000 A 0 0 0 0 0 0 0 0 0 0 0 0 0 0 0 0 0 0 0 0 0 0 0 0 0 0 0 0 dummy
S 738 1 3 1 0 16 1 733 6554 80002014 2000 A 0 0 0 0 0 0 0 0 0 0 0 0 0 0 0 0 0 0 0 0 0 0 0 0 0 0 0 0 binary
S 739 1 3 1 0 16 1 733 5700 80002014 2000 A 0 0 0 0 0 0 0 0 0 0 0 0 0 0 0 0 0 0 0 0 0 0 0 0 0 0 0 0 raw
S 740 1 3 1 0 16 1 733 6561 80002014 2000 A 0 0 0 0 0 0 0 0 0 0 0 0 0 0 0 0 0 0 0 0 0 0 0 0 0 0 0 0 create
S 741 1 3 2 0 6 1 733 6527 80002014 2000 A 0 0 0 0 0 0 0 0 0 0 0 0 0 0 0 0 0 0 0 0 0 0 0 0 0 0 0 0 ierr
S 742 14 5 0 0 0 1 582 6568 10 0 A 0 0 0 0 0 0 0 15 11 0 0 0 0 0 0 0 0 0 0 0 0 165 0 582 0 0 0 0 iotk_open_write_x
F 742 11 743 744 745 746 747 748 749 750 751 752 753
S 743 1 3 1 0 6 1 742 3864 2014 2000 A 0 0 0 0 0 0 0 0 0 0 0 0 0 0 0 0 0 0 0 0 0 0 0 0 0 0 0 0 unit
S 744 1 3 1 0 28 1 742 6549 80002014 42000 A 0 0 0 0 0 0 0 0 0 0 0 0 0 0 0 0 0 0 0 0 0 0 0 0 0 0 0 0 file
S 745 1 3 0 0 86 1 742 5796 80002014 2000 A 0 0 0 0 0 0 0 0 0 0 0 0 0 0 0 0 0 0 0 0 0 0 0 0 0 0 0 0 dummy
S 746 1 3 1 0 28 1 742 6586 80002014 42000 A 0 0 0 0 0 0 0 0 0 0 0 0 0 0 0 0 0 0 0 0 0 0 0 0 0 0 0 0 attr
S 747 1 3 1 0 16 1 742 6554 80002014 2000 A 0 0 0 0 0 0 0 0 0 0 0 0 0 0 0 0 0 0 0 0 0 0 0 0 0 0 0 0 binary
S 748 1 3 1 0 16 1 742 6591 80002014 2000 A 0 0 0 0 0 0 0 0 0 0 0 0 0 0 0 0 0 0 0 0 0 0 0 0 0 0 0 0 new
S 749 1 3 1 0 16 1 742 5700 80002014 2000 A 0 0 0 0 0 0 0 0 0 0 0 0 0 0 0 0 0 0 0 0 0 0 0 0 0 0 0 0 raw
S 750 1 3 1 0 28 1 742 5685 80002014 42000 A 0 0 0 0 0 0 0 0 0 0 0 0 0 0 0 0 0 0 0 0 0 0 0 0 0 0 0 0 root
S 751 1 3 1 0 16 1 742 5690 80002014 2000 A 0 0 0 0 0 0 0 0 0 0 0 0 0 0 0 0 0 0 0 0 0 0 0 0 0 0 0 0 skip_root
S 752 1 3 1 0 16 1 742 6595 80002014 2000 A 0 0 0 0 0 0 0 0 0 0 0 0 0 0 0 0 0 0 0 0 0 0 0 0 0 0 0 0 skip_head
S 753 1 3 2 0 6 1 742 6527 80002014 2000 A 0 0 0 0 0 0 0 0 0 0 0 0 0 0 0 0 0 0 0 0 0 0 0 0 0 0 0 0 ierr
S 754 14 5 0 0 0 1 582 6605 10 0 A 0 0 0 0 0 0 0 26 3 0 0 0 0 0 0 0 0 0 0 0 0 183 0 582 0 0 0 0 iotk_close_write_x
F 754 3 755 756 757
S 755 1 3 1 0 6 1 754 3864 2014 2000 A 0 0 0 0 0 0 0 0 0 0 0 0 0 0 0 0 0 0 0 0 0 0 0 0 0 0 0 0 unit
S 756 1 3 0 0 86 1 754 5796 80002014 2000 A 0 0 0 0 0 0 0 0 0 0 0 0 0 0 0 0 0 0 0 0 0 0 0 0 0 0 0 0 dummy
S 757 1 3 2 0 6 1 754 6527 80002014 2000 A 0 0 0 0 0 0 0 0 0 0 0 0 0 0 0 0 0 0 0 0 0 0 0 0 0 0 0 0 ierr
S 758 14 5 0 0 0 1 582 6624 10 0 A 0 0 0 0 0 0 0 29 9 0 0 0 0 0 0 0 0 0 0 0 0 193 0 582 0 0 0 0 iotk_open_read_x
F 758 9 759 760 761 762 763 764 765 766 767
S 759 1 3 1 0 6 1 758 3864 2014 2000 A 0 0 0 0 0 0 0 0 0 0 0 0 0 0 0 0 0 0 0 0 0 0 0 0 0 0 0 0 unit
S 760 1 3 1 0 28 1 758 6549 80002014 42000 A 0 0 0 0 0 0 0 0 0 0 0 0 0 0 0 0 0 0 0 0 0 0 0 0 0 0 0 0 file
S 761 1 3 0 0 86 1 758 5796 80002014 2000 A 0 0 0 0 0 0 0 0 0 0 0 0 0 0 0 0 0 0 0 0 0 0 0 0 0 0 0 0 dummy
S 762 1 3 2 0 28 1 758 6586 80002014 42000 A 0 0 0 0 0 0 0 0 0 0 0 0 0 0 0 0 0 0 0 0 0 0 0 0 0 0 0 0 attr
S 763 1 3 1 0 16 1 758 6554 80002014 2000 A 0 0 0 0 0 0 0 0 0 0 0 0 0 0 0 0 0 0 0 0 0 0 0 0 0 0 0 0 binary
S 764 1 3 1 0 16 1 758 6641 80002014 2000 A 0 0 0 0 0 0 0 0 0 0 0 0 0 0 0 0 0 0 0 0 0 0 0 0 0 0 0 0 stream
S 765 1 3 1 0 16 1 758 5700 80002014 2000 A 0 0 0 0 0 0 0 0 0 0 0 0 0 0 0 0 0 0 0 0 0 0 0 0 0 0 0 0 raw
S 766 1 3 2 0 28 1 758 5685 80002014 42000 A 0 0 0 0 0 0 0 0 0 0 0 0 0 0 0 0 0 0 0 0 0 0 0 0 0 0 0 0 root
S 767 1 3 2 0 6 1 758 6527 80002014 2000 A 0 0 0 0 0 0 0 0 0 0 0 0 0 0 0 0 0 0 0 0 0 0 0 0 0 0 0 0 ierr
S 768 14 5 0 0 0 1 582 6648 10 0 A 0 0 0 0 0 0 0 38 3 0 0 0 0 0 0 0 0 0 0 0 0 209 0 582 0 0 0 0 iotk_close_read_x
F 768 3 769 770 771
S 769 1 3 1 0 6 1 768 3864 2014 2000 A 0 0 0 0 0 0 0 0 0 0 0 0 0 0 0 0 0 0 0 0 0 0 0 0 0 0 0 0 unit
S 770 1 3 0 0 86 1 768 5796 80002014 2000 A 0 0 0 0 0 0 0 0 0 0 0 0 0 0 0 0 0 0 0 0 0 0 0 0 0 0 0 0 dummy
S 771 1 3 2 0 6 1 768 6527 80002014 2000 A 0 0 0 0 0 0 0 0 0 0 0 0 0 0 0 0 0 0 0 0 0 0 0 0 0 0 0 0 ierr
S 772 14 5 0 0 0 1 582 6666 10 0 A 0 0 0 0 0 0 0 41 2 0 0 0 0 0 0 0 0 0 0 0 0 219 0 582 0 0 0 0 iotk_magic_x
F 772 2 773 774
S 773 1 3 1 0 28 1 772 6549 2014 42000 A 0 0 0 0 0 0 0 0 0 0 0 0 0 0 0 0 0 0 0 0 0 0 0 0 0 0 0 0 file
S 774 1 3 2 0 16 1 772 6554 2014 2000 A 0 0 0 0 0 0 0 0 0 0 0 0 0 0 0 0 0 0 0 0 0 0 0 0 0 0 0 0 binary
Z
Z
