V26 iotk_base
13 iotk_base.F90 S582 0
04/24/2012  15:44:22
enduse
D 56 18 12
D 58 18 18
D 60 18 67
D 62 18 72
D 64 18 75
D 66 18 46
D 68 18 81
D 72 18 87
D 78 24 666 296 665 7
D 84 18 55
D 86 21 6 1 0 3 0 0 0 0 0
 0 3 0 3 3 0
D 89 21 6 1 0 3 0 0 0 0 0
 0 3 0 3 3 0
D 92 24 681 4 680 3
D 98 24 683 88 682 7
D 104 21 20 1 109 108 0 1 0 0 1
 101 105 107 101 105 103
D 107 21 6 1 0 98 0 0 0 0 0
 0 98 0 3 98 0
D 110 21 98 1 3 112 0 0 0 0 0
 0 112 3 3 112 112
D 113 21 16 1 3 112 0 0 0 0 0
 0 112 3 3 112 112
D 116 21 6 1 3 112 0 0 0 0 0
 0 112 3 3 112 112
D 119 21 6 1 0 3 0 0 0 0 0
 0 3 0 3 3 0
D 122 21 6 1 0 3 0 0 0 0 0
 0 3 0 3 3 0
D 125 21 6 1 0 3 0 0 0 0 0
 0 3 0 3 3 0
S 582 24 0 0 0 6 1 0 4658 10005 0 A 0 0 0 0 0 0 0 0 0 0 0 0 328 0 0 0 0 0 0 0 0 124 0 0 0 0 0 0 iotk_base
S 583 3 0 0 0 6 0 1 0 0 0 A 0 0 0 0 0 0 0 0 0 16 0 0 0 0 0 0 0 0 0 0 0 0 0 0 0 0 0 0 6
S 584 16 0 0 0 56 586 582 4668 800004 400000 A 0 0 0 0 0 0 0 0 585 13 0 0 0 0 0 0 0 0 0 0 0 0 0 582 0 0 0 0 iotk_version
S 585 3 0 0 0 56 0 1 0 0 0 A 0 0 0 0 0 0 0 0 4681 0 0 0 0 0 0 0 0 0 0 0 0 0 0 0 0 0 0 0 18 16 31 2e 31 2e 30 64 65 76 65 6c 6f 70 6d 65 6e 74
S 586 16 0 0 0 6 587 582 4698 800004 400000 A 0 0 0 0 0 0 0 0 1 3 0 0 0 0 0 0 0 0 0 0 0 0 0 582 0 0 0 0 iotk_version_major
S 587 16 0 0 0 6 588 582 4717 800004 400000 A 0 0 0 0 0 0 0 0 1 3 0 0 0 0 0 0 0 0 0 0 0 0 0 582 0 0 0 0 iotk_version_minor
S 588 16 0 0 0 6 590 582 4736 800004 400000 A 0 0 0 0 0 0 0 0 0 2 0 0 0 0 0 0 0 0 0 0 0 0 0 582 0 0 0 0 iotk_version_patch
S 589 3 0 0 0 6 0 1 0 0 0 A 0 0 0 0 0 0 0 0 0 3 0 0 0 0 0 0 0 0 0 0 0 0 0 0 0 0 0 0 6
S 590 16 0 0 0 58 592 582 4755 800004 400000 A 0 0 0 0 0 0 0 0 591 19 0 0 0 0 0 0 0 0 0 0 0 0 0 582 0 0 0 0 iotk_file_version
S 591 3 0 0 0 58 0 1 0 0 0 A 0 0 0 0 0 0 0 0 4773 0 0 0 0 0 0 0 0 0 0 0 0 0 0 0 0 0 0 0 18 3 31 2e 30
S 592 16 0 0 0 6 593 582 4777 800004 400000 A 0 0 0 0 0 0 0 0 1 3 0 0 0 0 0 0 0 0 0 0 0 0 0 582 0 0 0 0 iotk_file_version_major
S 593 16 0 0 0 6 594 582 4801 800004 400000 A 0 0 0 0 0 0 0 0 0 2 0 0 0 0 0 0 0 0 0 0 0 0 0 582 0 0 0 0 iotk_file_version_minor
S 594 16 0 0 0 6 596 582 4825 800004 400000 A 0 0 0 0 0 0 0 0 7 23 0 0 0 0 0 0 0 0 0 0 0 0 0 582 0 0 0 0 iotk_maxrank_hard
S 595 3 0 0 0 6 0 1 0 0 0 A 0 0 0 0 0 0 0 0 0 7 0 0 0 0 0 0 0 0 0 0 0 0 0 0 0 0 0 0 6
S 596 16 0 0 0 6 598 582 4843 800004 400000 A 0 0 0 0 0 0 0 0 4 25 0 0 0 0 0 0 0 0 0 0 0 0 0 582 0 0 0 0 iotk_maxrank
S 597 3 0 0 0 6 0 1 0 0 0 A 0 0 0 0 0 0 0 0 0 4 0 0 0 0 0 0 0 0 0 0 0 0 0 0 0 0 0 0 6
S 598 16 1 0 0 6 600 582 4856 800004 400000 A 0 0 0 0 0 0 0 0 1 3 0 0 0 0 0 0 0 0 0 0 0 0 0 582 0 0 0 0 iotk_character_defkind
S 600 16 1 0 0 6 602 582 4881 800004 400000 A 0 0 0 0 0 0 0 0 4 25 0 0 0 0 0 0 0 0 0 0 0 0 0 582 0 0 0 0 iotk_logical_defkind
S 602 16 1 0 0 6 603 582 4902 800004 400000 A 0 0 0 0 0 0 0 0 4 25 0 0 0 0 0 0 0 0 0 0 0 0 0 582 0 0 0 0 iotk_integer_defkind
S 603 16 0 0 0 6 605 582 4923 800004 400000 A 0 0 0 0 0 0 0 0 8 33 0 0 0 0 0 0 0 0 0 0 0 0 0 582 0 0 0 0 iotk_real_defkind
S 604 3 0 0 0 6 0 1 0 0 0 A 0 0 0 0 0 0 0 0 0 8 0 0 0 0 0 0 0 0 0 0 0 0 0 0 0 0 0 0 6
S 605 16 0 0 0 6 606 582 4941 800004 400000 A 0 0 0 0 0 0 0 0 8 33 0 0 0 0 0 0 0 0 0 0 0 0 0 582 0 0 0 0 iotk_complex_defkind
S 606 16 0 0 0 6 607 582 4962 800004 400000 A 0 0 0 0 0 0 0 0 4 25 0 0 0 0 0 0 0 0 0 0 0 0 0 582 0 0 0 0 iotk_logical1
S 607 16 0 0 0 6 608 582 4976 800004 400000 A 0 0 0 0 0 0 0 0 4 25 0 0 0 0 0 0 0 0 0 0 0 0 0 582 0 0 0 0 iotk_integer1
S 608 16 0 0 0 6 609 582 4990 800004 400000 A 0 0 0 0 0 0 0 0 4 25 0 0 0 0 0 0 0 0 0 0 0 0 0 582 0 0 0 0 iotk_real1
S 609 16 0 0 0 6 610 582 5001 800004 400000 A 0 0 0 0 0 0 0 0 8 33 0 0 0 0 0 0 0 0 0 0 0 0 0 582 0 0 0 0 iotk_real2
S 610 16 0 0 0 6 611 582 5012 800004 400000 A 0 0 0 0 0 0 0 0 4 25 0 0 0 0 0 0 0 0 0 0 0 0 0 582 0 0 0 0 iotk_complex1
S 611 16 0 0 0 6 612 582 5026 800004 400000 A 0 0 0 0 0 0 0 0 8 33 0 0 0 0 0 0 0 0 0 0 0 0 0 582 0 0 0 0 iotk_complex2
S 612 16 0 0 0 6 613 582 5040 800004 400000 A 0 0 0 0 0 0 0 0 1 3 0 0 0 0 0 0 0 0 0 0 0 0 0 582 0 0 0 0 iotk_character1
S 613 16 0 0 0 6 614 582 5056 800004 400000 A 0 0 0 0 0 0 0 0 4 25 0 0 0 0 0 0 0 0 0 0 0 0 0 582 0 0 0 0 iotk_header_kind
S 614 16 0 0 0 20 617 582 5073 800004 400000 A 0 0 0 0 0 0 0 0 616 47 0 0 0 0 0 0 0 0 0 0 0 0 0 582 0 0 0 0 iotk_newline
S 615 3 0 0 0 6 0 1 0 0 0 A 0 0 0 0 0 0 0 0 0 10 0 0 0 0 0 0 0 0 0 0 0 0 0 0 0 0 0 0 6
S 616 3 0 0 0 20 0 1 0 0 0 A 0 0 0 0 0 0 0 0 5086 0 0 0 0 0 0 0 0 0 0 0 0 0 0 0 0 0 0 0 18 1 a
S 617 16 0 0 0 20 619 582 5088 800004 400000 A 0 0 0 0 0 0 0 0 618 49 0 0 0 0 0 0 0 0 0 0 0 0 0 582 0 0 0 0 iotk_eos
S 618 3 0 0 0 20 0 1 0 0 0 A 0 0 0 0 0 0 0 0 5097 0 0 0 0 0 0 0 0 0 0 0 0 0 0 0 0 0 0 0 18 1 0
S 619 16 0 0 0 6 621 582 5099 800004 400000 A 0 0 0 0 0 0 0 0 255 51 0 0 0 0 0 0 0 0 0 0 0 0 0 582 0 0 0 0 iotk_ncontrol
S 620 3 0 0 0 6 0 1 0 0 0 A 0 0 0 0 0 0 0 0 0 255 0 0 0 0 0 0 0 0 0 0 0 0 0 0 0 0 0 0 6
S 621 16 1 0 0 6 623 582 5113 800004 400000 A 0 0 0 0 0 0 0 0 65535 53 0 0 0 0 0 0 0 0 0 0 0 0 0 582 0 0 0 0 iotk_taglenx
S 622 3 0 0 0 6 0 1 0 0 0 A 0 0 0 0 0 0 0 0 0 65535 0 0 0 0 0 0 0 0 0 0 0 0 0 0 0 0 0 0 6
S 623 16 1 0 0 6 625 582 5126 800004 400000 A 0 0 0 0 0 0 0 0 256 55 0 0 0 0 0 0 0 0 0 0 0 0 0 582 0 0 0 0 iotk_namlenx
S 624 3 0 0 0 6 0 1 0 0 0 A 0 0 0 0 0 0 0 0 0 256 0 0 0 0 0 0 0 0 0 0 0 0 0 0 0 0 0 0 6
S 625 16 0 0 0 6 628 582 5139 800004 400000 A 0 0 0 0 0 0 0 0 65278 58 0 0 0 0 0 0 0 0 0 0 0 0 0 582 0 0 0 0 iotk_attlenx
S 627 3 0 0 0 6 0 1 0 0 0 A 0 0 0 0 0 0 0 0 0 65278 0 0 0 0 0 0 0 0 0 0 0 0 0 0 0 0 0 0 6
S 628 16 0 0 0 6 630 582 5152 800004 400000 A 0 0 0 0 0 0 0 0 32768 60 0 0 0 0 0 0 0 0 0 0 0 0 0 582 0 0 0 0 iotk_vallenx
S 629 3 0 0 0 6 0 1 0 0 0 A 0 0 0 0 0 0 0 0 0 32768 0 0 0 0 0 0 0 0 0 0 0 0 0 0 0 0 0 0 6
S 630 16 0 0 0 6 632 582 5165 800004 400000 A 0 0 0 0 0 0 0 0 4096 62 0 0 0 0 0 0 0 0 0 0 0 0 0 582 0 0 0 0 iotk_linlenx
S 631 3 0 0 0 6 0 1 0 0 0 A 0 0 0 0 0 0 0 0 0 4096 0 0 0 0 0 0 0 0 0 0 0 0 0 0 0 0 0 0 6
S 632 16 0 0 0 6 634 582 5178 800004 400000 A 0 0 0 0 0 0 0 0 1024 64 0 0 0 0 0 0 0 0 0 0 0 0 0 582 0 0 0 0 iotk_fillenx
S 633 3 0 0 0 6 0 1 0 0 0 A 0 0 0 0 0 0 0 0 0 1024 0 0 0 0 0 0 0 0 0 0 0 0 0 0 0 0 0 0 6
S 634 16 0 0 0 6 636 582 5191 800004 400000 A 0 0 0 0 0 0 0 0 256 55 0 0 0 0 0 0 0 0 0 0 0 0 0 582 0 0 0 0 iotk_maxargs
S 635 3 0 0 0 6 0 1 0 0 0 A 0 0 0 0 0 0 0 0 0 26 0 0 0 0 0 0 0 0 0 0 0 0 0 0 0 0 0 0 6
S 636 16 1 0 0 60 638 582 5204 800004 400000 A 0 0 0 0 0 0 0 0 637 68 0 0 0 0 0 0 0 0 0 0 0 0 0 582 0 0 0 0 lowalphabet
S 637 3 0 0 0 60 0 1 0 0 0 A 0 0 0 0 0 0 0 0 5216 0 0 0 0 0 0 0 0 0 0 0 0 0 0 0 0 0 0 0 18 26 61 62 63 64 65 66 67 68 69 6a 6b 6c 6d 6e 6f 70 71 72 73 74 75 76 77 78 79 7a
S 638 16 1 0 0 60 641 582 5243 800004 400000 A 0 0 0 0 0 0 0 0 639 70 0 0 0 0 0 0 0 0 0 0 0 0 0 582 0 0 0 0 upalphabet
S 639 3 0 0 0 60 0 1 0 0 0 A 0 0 0 0 0 0 0 0 5254 0 0 0 0 0 0 0 0 0 0 0 0 0 0 0 0 0 0 0 18 26 41 42 43 44 45 46 47 48 49 4a 4b 4c 4d 4e 4f 50 51 52 53 54 55 56 57 58 59 5a
S 640 3 0 0 0 6 0 1 0 0 0 A 0 0 0 0 0 0 0 0 0 52 0 0 0 0 0 0 0 0 0 0 0 0 0 0 0 0 0 0 6
S 641 16 1 0 0 62 644 582 5281 800004 400000 A 0 0 0 0 0 0 0 0 642 73 0 0 0 0 0 0 0 0 0 0 0 0 0 582 0 0 0 0 alphabet
S 642 3 0 0 0 62 0 1 0 0 0 A 0 0 0 0 0 0 0 0 5290 0 0 0 0 0 0 0 0 0 0 0 0 0 0 0 0 0 0 0 18 52 61 62 63 64 65 66 67 68 69 6a 6b 6c 6d 6e 6f 70 71 72 73 74 75 76 77 78 79 7a 41 42 43 44 45 46 47 48 49 4a 4b 4c 4d 4e 4f 50 51 52 53 54 55 56 57 58 59 5a
S 643 3 0 0 0 6 0 1 0 0 0 A 0 0 0 0 0 0 0 0 0 53 0 0 0 0 0 0 0 0 0 0 0 0 0 0 0 0 0 0 6
S 644 16 1 0 0 64 647 582 5343 800004 400000 A 0 0 0 0 0 0 0 0 646 77 0 0 0 0 0 0 0 0 0 0 0 0 0 582 0 0 0 0 alphabet_
S 646 3 0 0 0 64 0 1 0 0 0 A 0 0 0 0 0 0 0 0 5355 0 0 0 0 0 0 0 0 0 0 0 0 0 0 0 0 0 0 0 18 53 61 62 63 64 65 66 67 68 69 6a 6b 6c 6d 6e 6f 70 71 72 73 74 75 76 77 78 79 7a 41 42 43 44 45 46 47 48 49 4a 4b 4c 4d 4e 4f 50 51 52 53 54 55 56 57 58 59 5a 5f
S 647 16 1 0 0 66 650 582 5409 800004 400000 A 0 0 0 0 0 0 0 0 648 79 0 0 0 0 0 0 0 0 0 0 0 0 0 582 0 0 0 0 numbers
S 648 3 0 0 0 66 0 1 0 0 0 A 0 0 0 0 0 0 0 0 5417 0 0 0 0 0 0 0 0 0 0 0 0 0 0 0 0 0 0 0 18 10 30 31 32 33 34 35 36 37 38 39
S 649 3 0 0 0 6 0 1 0 0 0 A 0 0 0 0 0 0 0 0 0 66 0 0 0 0 0 0 0 0 0 0 0 0 0 0 0 0 0 0 6
S 650 16 0 0 0 68 656 582 5428 800004 400000 A 0 0 0 0 0 0 0 0 654 85 0 0 0 0 0 0 0 0 0 0 0 0 0 582 0 0 0 0 not_separator
S 654 3 0 0 0 68 0 1 0 0 0 A 0 0 0 0 0 0 0 0 5510 0 0 0 0 0 0 0 0 0 0 0 0 0 0 0 0 0 0 0 18 66 61 62 63 64 65 66 67 68 69 6a 6b 6c 6d 6e 6f 70 71 72 73 74 75 76 77 78 79 7a 41 42 43 44 45 46 47 48 49 4a 4b 4c 4d 4e 4f 50 51 52 53 54 55 56 57 58 59 5a 5f 30 31 32 33 34 35 36 37 38 39 2b 2d 2e
S 655 3 0 0 0 6 0 1 0 0 0 A 0 0 0 0 0 0 0 0 0 54 0 0 0 0 0 0 0 0 0 0 0 0 0 0 0 0 0 0 6
S 656 16 1 0 0 72 660 582 5577 800004 400000 A 0 0 0 0 0 0 0 0 659 90 0 0 0 0 0 0 0 0 0 0 0 0 0 582 0 0 0 0 iotk_namcharfirst
S 657 3 0 0 0 6 0 1 0 0 0 A 0 0 0 0 0 0 0 0 0 2 0 0 0 0 0 0 0 0 0 0 0 0 0 0 0 0 0 0 6
S 659 3 0 0 0 72 0 1 0 0 0 A 0 0 0 0 0 0 0 0 5598 0 0 0 0 0 0 0 0 0 0 0 0 0 0 0 0 0 0 0 18 54 61 62 63 64 65 66 67 68 69 6a 6b 6c 6d 6e 6f 70 71 72 73 74 75 76 77 78 79 7a 41 42 43 44 45 46 47 48 49 4a 4b 4c 4d 4e 4f 50 51 52 53 54 55 56 57 58 59 5a 5f 3a
S 660 16 0 0 0 68 693 582 5653 800004 400000 A 0 0 0 0 0 0 0 0 664 95 0 0 0 0 0 0 0 0 0 0 0 0 0 582 0 0 0 0 iotk_namchar
S 664 3 0 0 0 68 0 1 0 0 0 A 0 0 0 0 0 0 0 0 5734 0 0 0 0 0 0 0 0 0 0 0 0 0 0 0 0 0 0 0 18 66 61 62 63 64 65 66 67 68 69 6a 6b 6c 6d 6e 6f 70 71 72 73 74 75 76 77 78 79 7a 41 42 43 44 45 46 47 48 49 4a 4b 4c 4d 4e 4f 50 51 52 53 54 55 56 57 58 59 5a 5f 3a 30 31 32 33 34 35 36 37 38 39 2e 2d
S 665 25 0 0 0 78 1 582 5801 10000004 800014 A 0 0 0 0 0 0 0 0 0 0 0 0 0 0 0 0 0 0 0 726 0 0 0 582 0 0 0 0 iotk_unit
S 666 5 0 0 0 6 667 582 3864 800004 0 A 0 0 0 0 0 0 0 0 78 0 0 0 0 0 0 0 0 0 0 0 1 666 0 582 0 0 0 0 unit
S 667 5 0 0 0 84 668 582 5811 800004 0 A 0 0 0 0 0 4 0 0 78 0 0 0 0 0 0 0 0 0 0 0 666 667 0 582 0 0 0 0 root
S 668 5 0 0 0 16 669 582 5816 800004 0 A 0 0 0 0 0 260 0 0 78 0 0 0 0 0 0 0 0 0 0 0 667 668 0 582 0 0 0 0 skip_root
S 669 5 0 0 0 16 670 582 5826 800004 0 A 0 0 0 0 0 264 0 0 78 0 0 0 0 0 0 0 0 0 0 0 668 669 0 582 0 0 0 0 raw
S 670 5 0 0 0 6 671 582 5830 800004 0 A 0 0 0 0 0 268 0 0 78 0 0 0 0 0 0 0 0 0 0 0 669 670 0 582 0 0 0 0 level
S 671 5 0 0 0 16 672 582 5836 800004 0 A 0 0 0 0 0 272 0 0 78 0 0 0 0 0 0 0 0 0 0 0 670 671 0 582 0 0 0 0 close_at_end
S 672 5 6 0 0 78 674 582 5849 800004 14 A 0 0 0 0 0 280 674 0 78 0 0 0 0 0 0 0 0 0 0 673 671 672 675 582 0 0 0 0 son
S 673 8 2 0 0 86 1 582 5853 40822064 1020 A 0 0 0 0 0 0 0 0 0 0 0 0 0 0 0 0 0 0 0 0 0 0 0 582 0 0 0 0 son$sd
S 674 5 0 0 0 7 676 582 5860 40802001 1020 A 0 0 0 0 0 280 0 0 78 0 0 0 0 0 0 0 0 0 0 0 672 674 0 582 0 0 0 0 son$p
S 675 6 2 0 0 7 1 582 5866 40802060 1020 A 0 0 0 0 0 8 0 0 0 0 0 0 0 0 0 0 0 0 0 0 0 0 0 582 0 0 0 0 son$o
S 676 5 6 0 0 78 678 582 5872 800004 14 A 0 0 0 0 0 288 678 0 78 0 0 0 0 0 0 0 0 0 0 677 672 676 679 582 0 0 0 0 parent
S 677 8 2 0 0 89 1 582 5879 40822064 1020 A 0 0 0 0 0 16 0 0 0 0 0 0 0 0 0 0 0 0 0 0 0 0 0 582 0 0 0 0 parent$sd
S 678 5 0 0 0 7 1 582 5889 40802001 1020 A 0 0 0 0 0 288 0 0 78 0 0 0 0 0 0 0 0 0 0 0 676 678 0 582 0 0 0 0 parent$p
S 679 6 2 0 0 7 1 582 5898 40802060 1020 A 0 0 0 0 0 24 0 0 0 0 0 0 0 0 0 0 0 0 0 0 0 0 0 582 0 0 0 0 parent$o
S 680 25 0 0 0 92 1 582 5907 10000004 800010 A 0 0 0 0 0 0 0 0 0 0 0 0 0 0 0 0 0 0 0 725 0 0 0 582 0 0 0 0 iotk_dummytype
S 681 5 0 0 0 6 1 582 5922 800004 0 A 0 0 0 0 0 0 0 0 92 0 0 0 0 0 0 0 0 0 0 0 1 681 0 582 0 0 0 0 dummy
S 682 25 0 0 0 98 1 582 5928 10000004 800014 A 0 0 0 0 0 0 0 0 0 0 0 0 0 0 0 0 0 0 0 724 0 0 0 582 0 0 0 0 iotk_error
S 683 5 6 0 0 104 687 582 5939 10a00004 14 A 0 0 0 0 0 0 687 0 98 0 689 0 0 0 0 0 0 0 0 686 1 683 688 582 0 0 0 0 str
S 684 6 4 0 0 6 697 582 5943 40800006 0 A 0 0 0 0 0 0 0 0 0 0 0 0 727 0 0 0 0 0 0 0 0 0 0 582 0 0 0 0 z_b_0
S 685 3 0 0 0 6 0 1 0 0 0 A 0 0 0 0 0 0 0 0 0 18 0 0 0 0 0 0 0 0 0 0 0 0 0 0 0 0 0 0 6
S 686 5 0 0 0 107 1 582 5949 40822004 1020 A 0 0 0 0 0 16 0 0 98 0 0 0 0 0 0 0 0 0 0 0 688 686 0 582 0 0 0 0 str$sd
S 687 5 0 0 0 7 688 582 5956 40802001 1020 A 0 0 0 0 0 0 0 0 98 0 0 0 0 0 0 0 0 0 0 0 683 687 0 582 0 0 0 0 str$p
S 688 5 0 0 0 7 686 582 5962 40802000 1020 A 0 0 0 0 0 8 0 0 98 0 0 0 0 0 0 0 0 0 0 0 687 688 0 582 0 0 0 0 str$o
S 689 22 1 0 0 9 1 582 5968 40000000 1000 A 0 0 0 0 0 0 0 683 0 0 0 0 686 0 0 0 0 0 0 0 0 0 0 582 0 0 0 0 str$arrdsc
S 690 3 0 0 0 6 0 1 0 0 0 A 0 0 0 0 0 0 0 0 0 13 0 0 0 0 0 0 0 0 0 0 0 0 0 0 0 0 0 0 6
S 691 3 0 0 0 6 0 1 0 0 0 A 0 0 0 0 0 0 0 0 0 14 0 0 0 0 0 0 0 0 0 0 0 0 0 0 0 0 0 0 6
S 692 3 0 0 0 6 0 1 0 0 0 A 0 0 0 0 0 0 0 0 0 17 0 0 0 0 0 0 0 0 0 0 0 0 0 0 0 0 0 0 6
S 693 16 0 0 0 6 695 582 5979 800004 400000 A 0 0 0 0 0 0 0 0 120 110 0 0 0 0 0 0 0 0 0 0 0 0 0 582 0 0 0 0 iotk_error_linelength
S 694 3 0 0 0 6 0 1 0 0 0 A 0 0 0 0 0 0 0 0 0 120 0 0 0 0 0 0 0 0 0 0 0 0 0 0 0 0 0 0 6
S 695 16 1 0 0 6 701 582 6001 800004 400000 A 0 0 0 0 0 0 0 0 100 112 0 0 0 0 0 0 0 0 0 0 0 0 0 582 0 0 0 0 iotk_error_pool_size
S 696 3 0 0 0 6 0 1 0 0 0 A 0 0 0 0 0 0 0 0 0 100 0 0 0 0 0 0 0 0 0 0 0 0 0 0 0 0 0 0 6
S 697 7 4 0 4 110 1 582 6022 800004 100 A 0 0 0 0 0 16 0 0 0 0 0 0 727 0 0 0 0 0 0 0 0 0 0 582 0 0 0 0 iotk_error_pool
S 698 7 4 0 4 113 700 582 6038 80000c 100 A 0 0 0 0 0 0 0 0 0 0 0 0 728 0 0 0 0 0 0 0 0 0 0 582 0 0 0 0 iotk_error_pool_used
S 699 3 0 0 0 16 0 1 0 0 0 A 0 0 0 0 0 0 0 0 0 0 0 0 0 0 0 0 0 0 0 0 0 0 0 0 0 0 0 0 16
S 700 7 4 0 4 116 703 582 6059 80000c 100 A 0 0 0 0 0 400 0 0 0 0 0 0 728 0 0 0 0 0 0 0 0 0 0 582 0 0 0 0 iotk_error_pool_order
S 701 16 1 0 0 6 704 582 6081 800004 400000 A 0 0 0 0 0 0 0 0 90000 117 0 0 0 0 0 0 0 0 0 0 0 0 0 582 0 0 0 0 iotk_unitmin_def
S 702 3 0 0 0 6 0 1 0 0 0 A 0 0 0 0 0 0 0 0 0 90000 0 0 0 0 0 0 0 0 0 0 0 0 0 0 0 0 0 0 6
S 703 6 4 0 0 6 706 582 6098 80000c 0 A 0 0 0 0 0 800 0 0 0 0 0 0 728 0 0 0 0 0 0 0 0 0 0 582 0 0 0 0 iotk_unitmin
S 704 16 1 0 0 6 707 582 6111 800004 400000 A 0 0 0 0 0 0 0 0 99999 120 0 0 0 0 0 0 0 0 0 0 0 0 0 582 0 0 0 0 iotk_unitmax_def
S 705 3 0 0 0 6 0 1 0 0 0 A 0 0 0 0 0 0 0 0 0 99999 0 0 0 0 0 0 0 0 0 0 0 0 0 0 0 0 0 0 6
S 706 6 4 0 0 6 708 582 6128 80000c 0 A 0 0 0 0 0 804 0 0 0 0 0 0 728 0 0 0 0 0 0 0 0 0 0 582 0 0 0 0 iotk_unitmax
S 707 16 1 0 0 6 709 582 6141 800004 400000 A 0 0 0 0 0 0 0 0 0 2 0 0 0 0 0 0 0 0 0 0 0 0 0 582 0 0 0 0 iotk_error_unit_def
S 708 6 4 0 0 6 711 582 6161 80000c 0 A 0 0 0 0 0 808 0 0 0 0 0 0 728 0 0 0 0 0 0 0 0 0 0 582 0 0 0 0 iotk_error_unit
S 709 16 1 0 0 6 712 582 6177 800004 400000 A 0 0 0 0 0 0 0 0 6 125 0 0 0 0 0 0 0 0 0 0 0 0 0 582 0 0 0 0 iotk_output_unit_def
S 710 3 0 0 0 6 0 1 0 0 0 A 0 0 0 0 0 0 0 0 0 6 0 0 0 0 0 0 0 0 0 0 0 0 0 0 0 0 0 0 6
S 711 6 4 0 0 6 713 582 6198 80000c 0 A 0 0 0 0 0 812 0 0 0 0 0 0 728 0 0 0 0 0 0 0 0 0 0 582 0 0 0 0 iotk_output_unit
S 712 16 1 0 0 6 714 582 6215 800004 400000 A 0 0 0 0 0 0 0 0 1024 64 0 0 0 0 0 0 0 0 0 0 0 0 0 582 0 0 0 0 iotk_getline_buffer_def
S 713 6 4 0 0 6 716 582 6239 80000c 0 A 0 0 0 0 0 816 0 0 0 0 0 0 728 0 0 0 0 0 0 0 0 0 0 582 0 0 0 0 iotk_getline_buffer
S 714 16 1 0 0 6 717 582 6259 800004 400000 A 0 0 0 0 0 0 0 0 128 130 0 0 0 0 0 0 0 0 0 0 0 0 0 582 0 0 0 0 iotk_linlen_def
S 715 3 0 0 0 6 0 1 0 0 0 A 0 0 0 0 0 0 0 0 0 128 0 0 0 0 0 0 0 0 0 0 0 0 0 0 0 0 0 0 6
S 716 6 4 0 0 6 718 582 6275 80000c 0 A 0 0 0 0 0 820 0 0 0 0 0 0 728 0 0 0 0 0 0 0 0 0 0 582 0 0 0 0 iotk_linlen
S 717 16 1 0 0 6 719 582 6287 800004 400000 A 0 0 0 0 0 0 0 0 2 88 0 0 0 0 0 0 0 0 0 0 0 0 0 582 0 0 0 0 iotk_indent_def
S 718 6 4 0 0 6 721 582 6303 80000c 0 A 0 0 0 0 0 824 0 0 0 0 0 0 728 0 0 0 0 0 0 0 0 0 0 582 0 0 0 0 iotk_indent
S 719 16 1 0 0 6 722 582 6315 800004 400000 A 0 0 0 0 0 0 0 0 12 135 0 0 0 0 0 0 0 0 0 0 0 0 0 582 0 0 0 0 iotk_maxindent_def
S 720 3 0 0 0 6 0 1 0 0 0 A 0 0 0 0 0 0 0 0 0 12 0 0 0 0 0 0 0 0 0 0 0 0 0 0 0 0 0 0 6
S 721 6 4 0 0 6 723 582 6334 80000c 0 A 0 0 0 0 0 828 0 0 0 0 0 0 728 0 0 0 0 0 0 0 0 0 0 582 0 0 0 0 iotk_maxindent
S 722 16 1 0 0 16 0 582 6349 800004 400000 A 0 0 0 0 0 0 0 0 0 114 0 0 0 0 0 0 0 0 0 0 0 0 0 582 0 0 0 0 iotk_error_warn_overflow_def
S 723 6 4 0 0 16 1 582 6378 80000c 0 A 0 0 0 0 0 832 0 0 0 0 0 0 728 0 0 0 0 0 0 0 0 0 0 582 0 0 0 0 iotk_error_warn_overflow
S 724 8 5 0 0 119 1 582 6403 40822004 1220 A 0 0 0 0 0 0 0 98 0 0 0 0 0 0 0 0 0 0 0 0 0 0 0 582 0 0 0 0 iotk_base$iotk_error$td
S 725 8 5 0 0 122 1 582 6427 40822004 1220 A 0 0 0 0 0 0 0 92 0 0 0 0 0 0 0 0 0 0 0 0 0 0 0 582 0 0 0 0 iotk_base$iotk_dummytype$td
S 726 8 5 0 0 125 1 582 6455 40822004 1220 A 0 0 0 0 0 0 0 78 0 0 0 0 0 0 0 0 0 0 0 0 0 0 0 582 0 0 0 0 iotk_base$iotk_unit$td
S 727 11 0 0 4 9 1 582 6478 40800000 801000 A 0 0 0 0 0 8816 0 0 684 697 0 0 0 0 0 0 0 0 0 0 0 0 0 0 0 0 0 0 _iotk_base$0
S 728 11 0 0 4 9 727 582 6491 40800008 801000 A 0 0 0 0 0 836 0 0 698 723 0 0 0 0 0 0 0 0 0 0 0 0 0 0 0 0 0 0 _iotk_base$8
A 12 2 0 0 0 6 583 0 0 0 12 0 0 0 0 0 0 0 0 0
A 13 2 0 0 0 56 585 0 0 0 13 0 0 0 0 0 0 0 0 0
A 18 2 0 0 0 6 589 0 0 0 18 0 0 0 0 0 0 0 0 0
A 19 2 0 0 0 58 591 0 0 0 19 0 0 0 0 0 0 0 0 0
A 23 2 0 0 0 6 595 0 0 0 23 0 0 0 0 0 0 0 0 0
A 25 2 0 0 0 6 597 0 0 0 25 0 0 0 0 0 0 0 0 0
A 33 2 0 0 0 6 604 0 0 0 33 0 0 0 0 0 0 0 0 0
A 46 2 0 0 0 6 615 0 0 0 46 0 0 0 0 0 0 0 0 0
A 47 2 0 0 0 20 616 0 0 0 47 0 0 0 0 0 0 0 0 0
A 49 2 0 0 0 20 618 0 0 0 49 0 0 0 0 0 0 0 0 0
A 51 2 0 0 0 6 620 0 0 0 51 0 0 0 0 0 0 0 0 0
A 53 2 0 0 0 6 622 0 0 0 53 0 0 0 0 0 0 0 0 0
A 55 2 0 0 0 6 624 0 0 0 55 0 0 0 0 0 0 0 0 0
A 58 2 0 0 0 6 627 0 0 0 58 0 0 0 0 0 0 0 0 0
A 60 2 0 0 0 6 629 0 0 0 60 0 0 0 0 0 0 0 0 0
A 62 2 0 0 0 6 631 0 0 0 62 0 0 0 0 0 0 0 0 0
A 64 2 0 0 0 6 633 0 0 0 64 0 0 0 0 0 0 0 0 0
A 67 2 0 0 0 6 635 0 0 0 67 0 0 0 0 0 0 0 0 0
A 68 2 0 0 0 60 637 0 0 0 68 0 0 0 0 0 0 0 0 0
A 70 2 0 0 0 60 639 0 0 0 70 0 0 0 0 0 0 0 0 0
A 72 2 0 0 0 6 640 0 0 0 72 0 0 0 0 0 0 0 0 0
A 73 2 0 0 0 62 642 0 0 0 73 0 0 0 0 0 0 0 0 0
A 75 2 0 0 0 6 643 0 0 0 75 0 0 0 0 0 0 0 0 0
A 77 2 0 0 0 64 646 0 0 0 77 0 0 0 0 0 0 0 0 0
A 79 2 0 0 0 66 648 0 0 0 79 0 0 0 0 0 0 0 0 0
A 81 2 0 0 0 6 649 0 0 0 81 0 0 0 0 0 0 0 0 0
A 85 2 0 0 0 68 654 0 0 0 85 0 0 0 0 0 0 0 0 0
A 87 2 0 0 0 6 655 0 0 0 87 0 0 0 0 0 0 0 0 0
A 88 2 0 0 0 6 657 0 0 0 88 0 0 0 0 0 0 0 0 0
A 90 2 0 0 33 72 659 0 0 0 90 0 0 0 0 0 0 0 0 0
A 95 2 0 0 0 68 664 0 0 0 95 0 0 0 0 0 0 0 0 0
A 98 2 0 0 0 6 685 0 0 0 98 0 0 0 0 0 0 0 0 0
A 99 2 0 0 0 6 690 0 0 0 99 0 0 0 0 0 0 0 0 0
A 100 1 0 1 0 107 686 0 0 0 0 0 0 0 0 0 0 0 0 0
A 101 10 0 0 96 6 100 1 0 0 0 0 0 0 0 0 0 0 0 0
X 1 99
A 102 2 0 0 0 6 691 0 0 0 102 0 0 0 0 0 0 0 0 0
A 103 10 0 0 101 6 100 4 0 0 0 0 0 0 0 0 0 0 0 0
X 1 102
A 104 4 0 0 0 6 103 0 3 0 0 0 0 2 0 0 0 0 0 0
A 105 4 0 0 0 6 101 0 104 0 0 0 0 1 0 0 0 0 0 0
A 106 2 0 0 0 6 692 0 0 0 106 0 0 0 0 0 0 0 0 0
A 107 10 0 0 103 6 100 7 0 0 0 0 0 0 0 0 0 0 0 0
X 1 106
A 108 10 0 0 107 6 100 10 0 0 0 0 0 0 0 0 0 0 0 0
X 1 23
A 109 10 0 0 108 6 100 13 0 0 0 0 0 0 0 0 0 0 0 0
X 1 33
A 110 2 0 0 0 6 694 0 0 0 110 0 0 0 0 0 0 0 0 0
A 112 2 0 0 0 6 696 0 0 0 112 0 0 0 0 0 0 0 0 0
A 114 2 0 0 0 16 699 0 0 0 114 0 0 0 0 0 0 0 0 0
A 115 1 0 3 75 113 698 0 0 0 0 0 0 0 0 0 0 0 0 0
A 116 1 0 3 0 116 700 0 0 0 0 0 0 0 0 0 0 0 0 0
A 117 2 0 0 0 6 702 0 0 0 117 0 0 0 0 0 0 0 0 0
A 119 1 0 0 77 6 703 0 0 0 0 0 0 0 0 0 0 0 0 0
A 120 2 0 0 0 6 705 0 0 0 120 0 0 0 0 0 0 0 0 0
A 122 1 0 0 0 6 706 0 0 0 0 0 0 0 0 0 0 0 0 0
A 124 1 0 0 0 6 708 0 0 0 0 0 0 0 0 0 0 0 0 0
A 125 2 0 0 0 6 710 0 0 0 125 0 0 0 0 0 0 0 0 0
A 127 1 0 0 85 6 711 0 0 0 0 0 0 0 0 0 0 0 0 0
A 129 1 0 0 0 6 713 0 0 0 0 0 0 0 0 0 0 0 0 0
A 130 2 0 0 0 6 715 0 0 0 130 0 0 0 0 0 0 0 0 0
A 132 1 0 0 90 6 716 0 0 0 0 0 0 0 0 0 0 0 0 0
A 134 1 0 0 0 6 718 0 0 0 0 0 0 0 0 0 0 0 0 0
A 135 2 0 0 0 6 720 0 0 0 135 0 0 0 0 0 0 0 0 0
A 137 1 0 0 95 6 721 0 0 0 0 0 0 0 0 0 0 0 0 0
A 139 1 0 0 41 16 723 0 0 0 0 0 0 0 0 0 0 0 0 0
Z
Z
