V26 iotk_tool_interf
20 iotk_tool_interf.F90 S582 0
04/24/2012  15:44:22
enduse
D 56 21 28 1 0 0 1 1 0 0 1
 0 0 0 0 0 12
D 59 21 28 1 0 0 1 1 0 0 1
 0 0 0 0 0 13
D 62 21 28 1 0 0 1 1 0 0 1
 0 0 0 0 0 14
D 65 21 28 1 0 0 1 1 0 0 1
 0 0 0 0 0 15
D 68 21 28 1 0 0 1 1 0 0 1
 0 0 0 0 0 16
S 582 24 0 0 0 6 1 0 4658 15 0 A 0 0 0 0 0 0 0 0 0 0 0 0 170 0 0 0 0 0 0 0 0 123 0 0 0 0 0 0 iotk_tool_interf
S 583 19 0 0 0 6 1 582 4675 4000 0 A 0 0 0 0 0 0 0 0 0 0 0 0 0 0 0 0 1 1 0 0 0 0 0 582 0 0 0 0 iotk_tool
O 583 1 588
S 584 19 0 0 0 6 1 582 4685 4000 0 A 0 0 0 0 0 0 0 0 0 0 0 0 0 0 0 0 2 1 0 0 0 0 0 582 0 0 0 0 iotk_tool_convert
O 584 1 591
S 585 19 0 0 0 6 1 582 4703 4000 0 A 0 0 0 0 0 0 0 0 0 0 0 0 0 0 0 0 3 1 0 0 0 0 0 582 0 0 0 0 iotk_tool_dump
O 585 1 595
S 586 19 0 0 0 6 1 582 4718 4000 0 A 0 0 0 0 0 0 0 0 0 0 0 0 0 0 0 0 4 1 0 0 0 0 0 582 0 0 0 0 iotk_tool_info
O 586 1 599
S 587 19 0 0 0 6 1 582 4733 4000 0 A 0 0 0 0 0 0 0 0 0 0 0 0 0 0 0 0 5 1 0 0 0 0 0 582 0 0 0 0 iotk_tool_man
O 587 1 603
S 588 14 5 0 0 0 1 582 4747 10 0 A 0 0 0 0 0 0 0 1 1 0 0 0 0 0 0 0 0 0 0 0 0 132 0 582 0 0 0 0 iotk_tool_x
F 588 1 589
S 589 7 3 1 0 56 1 588 4759 20002014 10042000 A 0 0 0 0 0 0 0 0 0 0 0 0 0 0 0 0 0 0 0 0 0 0 0 0 0 0 0 0 args
S 590 6 1 0 0 6 1 588 4764 40800016 2000 A 0 0 0 0 0 0 0 0 0 0 0 0 0 0 0 0 0 0 0 0 0 0 0 0 0 0 0 0 z_b_0
S 591 14 5 0 0 0 1 582 4770 10 0 A 0 0 0 0 0 0 0 2 2 0 0 0 0 0 0 0 0 0 0 0 0 139 0 582 0 0 0 0 iotk_tool_convert_x
F 591 2 592 593
S 592 7 3 1 0 59 1 591 4759 20002014 10042000 A 0 0 0 0 0 0 0 0 0 0 0 0 0 0 0 0 0 0 0 0 0 0 0 0 0 0 0 0 args
S 593 1 3 2 0 6 1 591 4790 80002014 2000 A 0 0 0 0 0 0 0 0 0 0 0 0 0 0 0 0 0 0 0 0 0 0 0 0 0 0 0 0 ierr
S 594 6 1 0 0 6 1 591 4795 40800016 2000 A 0 0 0 0 0 0 0 0 0 0 0 0 0 0 0 0 0 0 0 0 0 0 0 0 0 0 0 0 z_b_1
S 595 14 5 0 0 0 1 582 4801 10 0 A 0 0 0 0 0 0 0 4 2 0 0 0 0 0 0 0 0 0 0 0 0 147 0 582 0 0 0 0 iotk_tool_dump_x
F 595 2 596 597
S 596 7 3 1 0 62 1 595 4759 20002014 10042000 A 0 0 0 0 0 0 0 0 0 0 0 0 0 0 0 0 0 0 0 0 0 0 0 0 0 0 0 0 args
S 597 1 3 2 0 6 1 595 4790 80002014 2000 A 0 0 0 0 0 0 0 0 0 0 0 0 0 0 0 0 0 0 0 0 0 0 0 0 0 0 0 0 ierr
S 598 6 1 0 0 6 1 595 4818 40800016 2000 A 0 0 0 0 0 0 0 0 0 0 0 0 0 0 0 0 0 0 0 0 0 0 0 0 0 0 0 0 z_b_2
S 599 14 5 0 0 0 1 582 4824 10 0 A 0 0 0 0 0 0 0 6 2 0 0 0 0 0 0 0 0 0 0 0 0 155 0 582 0 0 0 0 iotk_tool_info_x
F 599 2 600 601
S 600 7 3 1 0 65 1 599 4759 20002014 10042000 A 0 0 0 0 0 0 0 0 0 0 0 0 0 0 0 0 0 0 0 0 0 0 0 0 0 0 0 0 args
S 601 1 3 2 0 6 1 599 4790 80002014 2000 A 0 0 0 0 0 0 0 0 0 0 0 0 0 0 0 0 0 0 0 0 0 0 0 0 0 0 0 0 ierr
S 602 6 1 0 0 6 1 599 4841 40800016 2000 A 0 0 0 0 0 0 0 0 0 0 0 0 0 0 0 0 0 0 0 0 0 0 0 0 0 0 0 0 z_b_3
S 603 14 5 0 0 0 1 582 4847 10 0 A 0 0 0 0 0 0 0 8 2 0 0 0 0 0 0 0 0 0 0 0 0 163 0 582 0 0 0 0 iotk_tool_man_x
F 603 2 604 605
S 604 7 3 1 0 68 1 603 4759 20002014 10042000 A 0 0 0 0 0 0 0 0 0 0 0 0 0 0 0 0 0 0 0 0 0 0 0 0 0 0 0 0 args
S 605 1 3 2 0 6 1 603 4790 80002014 2000 A 0 0 0 0 0 0 0 0 0 0 0 0 0 0 0 0 0 0 0 0 0 0 0 0 0 0 0 0 ierr
S 606 6 1 0 0 6 1 603 4863 40800016 2000 A 0 0 0 0 0 0 0 0 0 0 0 0 0 0 0 0 0 0 0 0 0 0 0 0 0 0 0 0 z_b_4
A 12 1 0 0 0 6 590 0 0 0 0 0 0 0 0 0 0 0 0 0
A 13 1 0 0 0 6 594 0 0 0 0 0 0 0 0 0 0 0 0 0
A 14 1 0 0 0 6 598 0 0 0 0 0 0 0 0 0 0 0 0 0
A 15 1 0 0 0 6 602 0 0 0 0 0 0 0 0 0 0 0 0 0
A 16 1 0 0 0 6 606 0 0 0 0 0 0 0 0 0 0 0 0 0
Z
Z
