V26 iotk_fmt_interf
19 iotk_fmt_interf.F90 S582 0
04/24/2012  15:45:23
enduse
D 140 18 85
D 142 18 125
S 582 24 0 0 0 6 1 0 4658 15 0 A 0 0 0 0 0 0 0 0 0 0 0 0 153 0 0 0 0 0 0 0 0 123 0 0 0 0 0 0 iotk_fmt_interf
S 620 3 0 0 0 6 1 1 0 0 0 A 0 0 0 0 0 0 0 0 0 100 0 0 0 0 0 0 0 0 0 0 0 0 0 0 0 0 0 0 6
S 719 19 0 0 0 6 1 582 6376 4000 0 A 0 0 0 0 0 0 0 0 0 0 0 0 0 0 0 0 1 1 0 0 0 0 0 582 0 0 0 0 iotk_basefmt
O 719 1 721
S 720 19 0 0 0 6 1 582 6389 4000 0 A 0 0 0 0 0 0 0 0 0 0 0 0 0 0 0 0 2 1 0 0 0 0 0 582 0 0 0 0 iotk_wfmt
O 720 1 726
S 721 14 5 0 0 140 1 582 6399 14 0 A 0 0 0 0 0 0 0 2 3 0 0 725 0 0 0 0 0 0 0 0 0 132 0 582 0 0 0 0 iotk_basefmt_x
F 721 3 722 723 724
S 722 1 3 1 0 28 1 721 6414 2014 42000 A 0 0 0 0 0 0 0 0 0 0 0 0 0 0 0 0 0 0 0 0 0 0 0 0 0 0 0 0 type
S 723 1 3 1 0 6 1 721 6419 2014 2000 A 0 0 0 0 0 0 0 0 0 0 0 0 0 0 0 0 0 0 0 0 0 0 0 0 0 0 0 0 ikind
S 724 1 3 1 0 6 1 721 3332 2014 2000 A 0 0 0 0 0 0 0 0 0 0 0 0 0 0 0 0 0 0 0 0 0 0 0 0 0 0 0 0 ilen
S 725 1 3 0 0 140 1 721 6399 2014 1002000 A 0 0 0 0 0 0 0 0 0 0 0 0 0 0 0 0 0 0 0 0 0 0 0 0 0 0 0 0 iotk_basefmt_x
S 726 14 5 0 0 142 1 582 6425 14 0 A 0 0 0 0 0 0 0 6 5 0 0 732 0 0 0 0 0 0 0 0 0 142 0 582 0 0 0 0 iotk_wfmt_x
F 726 5 727 728 729 730 731
S 727 1 3 1 0 28 1 726 6414 2014 42000 A 0 0 0 0 0 0 0 0 0 0 0 0 0 0 0 0 0 0 0 0 0 0 0 0 0 0 0 0 type
S 728 1 3 1 0 6 1 726 6419 2014 2000 A 0 0 0 0 0 0 0 0 0 0 0 0 0 0 0 0 0 0 0 0 0 0 0 0 0 0 0 0 ikind
S 729 1 3 1 0 6 1 726 6437 2014 2000 A 0 0 0 0 0 0 0 0 0 0 0 0 0 0 0 0 0 0 0 0 0 0 0 0 0 0 0 0 isize
S 730 1 3 1 0 6 1 726 3332 2014 2000 A 0 0 0 0 0 0 0 0 0 0 0 0 0 0 0 0 0 0 0 0 0 0 0 0 0 0 0 0 ilen
S 731 1 3 1 0 28 1 726 6443 2014 42000 A 0 0 0 0 0 0 0 0 0 0 0 0 0 0 0 0 0 0 0 0 0 0 0 0 0 0 0 0 sep
S 732 1 3 0 0 142 1 726 6425 2014 1002000 A 0 0 0 0 0 0 0 0 0 0 0 0 0 0 0 0 0 0 0 0 0 0 0 0 0 0 0 0 iotk_wfmt_x
S 733 3 0 0 0 6 0 1 0 0 0 A 0 0 0 0 0 0 0 0 0 150 0 0 0 0 0 0 0 0 0 0 0 0 0 0 0 0 0 0 6
A 85 2 0 0 0 6 620 0 0 0 85 0 0 0 0 0 0 0 0 0
A 125 2 0 0 101 6 733 0 0 0 125 0 0 0 0 0 0 0 0 0
Z
Z
