V26 iotk_str_interf
19 iotk_str_interf.F90 S582 0
04/24/2012  15:45:39
enduse
D 140 18 127
D 142 18 129
D 144 18 131
D 146 18 133
S 582 24 0 0 0 6 1 0 4658 15 0 A 0 0 0 0 0 0 0 0 0 0 0 0 252 0 0 0 0 0 0 0 0 123 0 0 0 0 0 0 iotk_str_interf
S 719 19 0 0 0 6 1 582 6376 4000 0 A 0 0 0 0 0 0 0 0 0 0 0 0 0 0 0 0 3 1 0 0 0 0 0 582 0 0 0 0 iotk_escape
O 719 1 738
S 720 19 0 0 0 6 1 582 6388 4000 0 A 0 0 0 0 0 0 0 0 0 0 0 0 0 0 0 0 4 1 0 0 0 0 0 582 0 0 0 0 iotk_deescape
O 720 1 741
S 721 19 0 0 0 6 1 582 6402 4000 0 A 0 0 0 0 0 0 0 0 0 0 0 0 0 0 0 0 10 1 0 0 0 0 0 582 0 0 0 0 iotk_strcpy
O 721 1 763
S 722 19 0 0 0 6 1 582 6414 4000 0 A 0 0 0 0 0 0 0 0 0 0 0 0 0 0 0 0 11 1 0 0 0 0 0 582 0 0 0 0 iotk_strcat
O 722 1 767
S 723 19 0 0 0 6 1 582 6426 4000 0 A 0 0 0 0 0 0 0 0 0 0 0 0 0 0 0 0 8 1 0 0 0 0 0 582 0 0 0 0 iotk_strlen
O 723 1 757
S 724 19 0 0 0 6 1 582 6438 4000 0 A 0 0 0 0 0 0 0 0 0 0 0 0 0 0 0 0 9 1 0 0 0 0 0 582 0 0 0 0 iotk_strpad
O 724 1 760
S 725 19 0 0 0 6 1 582 6450 4000 0 A 0 0 0 0 0 0 0 0 0 0 0 0 0 0 0 0 5 1 0 0 0 0 0 582 0 0 0 0 iotk_strscan
O 725 1 746
S 726 19 0 0 0 6 1 582 6463 4000 0 A 0 0 0 0 0 0 0 0 0 0 0 0 0 0 0 0 12 1 0 0 0 0 0 582 0 0 0 0 iotk_strcomp
O 726 1 771
S 727 19 0 0 0 6 1 582 6476 4000 0 A 0 0 0 0 0 0 0 0 0 0 0 0 0 0 0 0 6 1 0 0 0 0 0 582 0 0 0 0 iotk_strtrim
O 727 1 751
S 728 19 0 0 0 6 1 582 6489 4000 0 A 0 0 0 0 0 0 0 0 0 0 0 0 0 0 0 0 7 1 0 0 0 0 0 582 0 0 0 0 iotk_strlen_trim
O 728 1 754
S 729 19 0 0 0 6 1 582 6506 4000 0 A 0 0 0 0 0 0 0 0 0 0 0 0 0 0 0 0 1 1 0 0 0 0 0 582 0 0 0 0 iotk_toupper
O 729 1 732
S 730 19 0 0 0 6 1 582 6519 4000 0 A 0 0 0 0 0 0 0 0 0 0 0 0 0 0 0 0 2 1 0 0 0 0 0 582 0 0 0 0 iotk_tolower
O 730 1 735
S 731 19 0 0 0 6 1 582 6532 4000 0 A 0 0 0 0 0 0 0 0 0 0 0 0 0 0 0 0 13 1 0 0 0 0 0 582 0 0 0 0 iotk_str_clean
O 731 1 775
S 732 14 5 0 0 140 1 582 6547 14 80000 A 0 0 0 0 0 0 0 2 1 0 0 734 0 0 0 0 0 0 0 0 0 143 0 582 0 0 0 0 iotk_toupper_x
F 732 1 733
S 733 6 3 1 0 28 1 732 5811 802014 42000 A 0 0 0 0 0 0 0 0 0 0 0 0 0 0 0 0 0 0 0 0 0 0 0 0 0 0 0 0 str
S 734 1 3 0 0 140 1 732 6547 2014 1082000 A 0 0 0 0 0 0 0 0 0 0 0 0 0 0 0 0 0 0 0 0 0 0 0 0 0 0 0 0 iotk_toupper_x
S 735 14 5 0 0 142 1 582 6562 14 80000 A 0 0 0 0 0 0 0 4 1 0 0 737 0 0 0 0 0 0 0 0 0 151 0 582 0 0 0 0 iotk_tolower_x
F 735 1 736
S 736 6 3 1 0 28 1 735 5811 802014 42000 A 0 0 0 0 0 0 0 0 0 0 0 0 0 0 0 0 0 0 0 0 0 0 0 0 0 0 0 0 str
S 737 1 3 0 0 142 1 735 6562 2014 1082000 A 0 0 0 0 0 0 0 0 0 0 0 0 0 0 0 0 0 0 0 0 0 0 0 0 0 0 0 0 iotk_tolower_x
S 738 14 5 0 0 0 1 582 6577 10 0 A 0 0 0 0 0 0 0 5 2 0 0 0 0 0 0 0 0 0 0 0 0 159 0 582 0 0 0 0 iotk_escape_x
F 738 2 739 740
S 739 1 3 2 0 28 1 738 6591 2014 42000 A 0 0 0 0 0 0 0 0 0 0 0 0 0 0 0 0 0 0 0 0 0 0 0 0 0 0 0 0 to
S 740 1 3 1 0 28 1 738 6594 2014 42000 A 0 0 0 0 0 0 0 0 0 0 0 0 0 0 0 0 0 0 0 0 0 0 0 0 0 0 0 0 from
S 741 14 5 0 0 0 1 582 6599 10 0 A 0 0 0 0 0 0 0 7 4 0 0 0 0 0 0 0 0 0 0 0 0 167 0 582 0 0 0 0 iotk_deescape_x
F 741 4 742 743 744 745
S 742 1 3 2 0 28 1 741 6591 2014 42000 A 0 0 0 0 0 0 0 0 0 0 0 0 0 0 0 0 0 0 0 0 0 0 0 0 0 0 0 0 to
S 743 1 3 1 0 28 1 741 6594 2014 42000 A 0 0 0 0 0 0 0 0 0 0 0 0 0 0 0 0 0 0 0 0 0 0 0 0 0 0 0 0 from
S 744 1 3 1 0 16 1 741 6615 80002014 2000 A 0 0 0 0 0 0 0 0 0 0 0 0 0 0 0 0 0 0 0 0 0 0 0 0 0 0 0 0 quot
S 745 1 3 1 0 16 1 741 6620 80002014 2000 A 0 0 0 0 0 0 0 0 0 0 0 0 0 0 0 0 0 0 0 0 0 0 0 0 0 0 0 0 apos
S 746 14 5 0 0 6 1 582 6625 14 0 A 0 0 0 0 0 0 0 12 3 0 0 750 0 0 0 0 0 0 0 0 0 176 0 582 0 0 0 0 iotk_strscan_x
F 746 3 747 748 749
S 747 1 3 1 0 28 1 746 6640 2014 42000 A 0 0 0 0 0 0 0 0 0 0 0 0 0 0 0 0 0 0 0 0 0 0 0 0 0 0 0 0 string
S 748 1 3 1 0 28 1 746 6647 2014 42000 A 0 0 0 0 0 0 0 0 0 0 0 0 0 0 0 0 0 0 0 0 0 0 0 0 0 0 0 0 set
S 749 1 3 1 0 16 1 746 6651 80002014 2000 A 0 0 0 0 0 0 0 0 0 0 0 0 0 0 0 0 0 0 0 0 0 0 0 0 0 0 0 0 back
S 750 1 3 0 0 6 1 746 6625 2014 1002000 A 0 0 0 0 0 0 0 0 0 0 0 0 0 0 0 0 0 0 0 0 0 0 0 0 0 0 0 0 iotk_strscan_x
S 751 14 5 0 0 144 1 582 6656 14 80000 A 0 0 0 0 0 0 0 16 1 0 0 753 0 0 0 0 0 0 0 0 0 187 0 582 0 0 0 0 iotk_strtrim_x
F 751 1 752
S 752 6 3 1 0 28 1 751 5811 802014 42000 A 0 0 0 0 0 0 0 0 0 0 0 0 0 0 0 0 0 0 0 0 0 0 0 0 0 0 0 0 str
S 753 1 3 0 0 144 1 751 6656 2014 1082000 A 0 0 0 0 0 0 0 0 0 0 0 0 0 0 0 0 0 0 0 0 0 0 0 0 0 0 0 0 iotk_strtrim_x
S 754 14 5 0 0 6 1 582 6671 14 0 A 0 0 0 0 0 0 0 18 1 0 0 756 0 0 0 0 0 0 0 0 0 195 0 582 0 0 0 0 iotk_strlen_trim_x
F 754 1 755
S 755 1 3 1 0 28 1 754 5811 2014 42000 A 0 0 0 0 0 0 0 0 0 0 0 0 0 0 0 0 0 0 0 0 0 0 0 0 0 0 0 0 str
S 756 1 3 0 0 6 1 754 6671 2014 1002000 A 0 0 0 0 0 0 0 0 0 0 0 0 0 0 0 0 0 0 0 0 0 0 0 0 0 0 0 0 iotk_strlen_trim_x
S 757 14 5 0 0 6 1 582 6690 14 0 A 0 0 0 0 0 0 0 20 1 0 0 759 0 0 0 0 0 0 0 0 0 203 0 582 0 0 0 0 iotk_strlen_x
F 757 1 758
S 758 1 3 1 0 28 1 757 5811 2014 42000 A 0 0 0 0 0 0 0 0 0 0 0 0 0 0 0 0 0 0 0 0 0 0 0 0 0 0 0 0 str
S 759 1 3 0 0 6 1 757 6690 2014 1002000 A 0 0 0 0 0 0 0 0 0 0 0 0 0 0 0 0 0 0 0 0 0 0 0 0 0 0 0 0 iotk_strlen_x
S 760 14 5 0 0 146 1 582 6704 14 80000 A 0 0 0 0 0 0 0 22 1 0 0 762 0 0 0 0 0 0 0 0 0 211 0 582 0 0 0 0 iotk_strpad_x
F 760 1 761
S 761 6 3 1 0 28 1 760 5811 802014 42000 A 0 0 0 0 0 0 0 0 0 0 0 0 0 0 0 0 0 0 0 0 0 0 0 0 0 0 0 0 str
S 762 1 3 0 0 146 1 760 6704 2014 1082000 A 0 0 0 0 0 0 0 0 0 0 0 0 0 0 0 0 0 0 0 0 0 0 0 0 0 0 0 0 iotk_strpad_x
S 763 14 5 0 0 0 1 582 6718 10 0 A 0 0 0 0 0 0 0 23 3 0 0 0 0 0 0 0 0 0 0 0 0 219 0 582 0 0 0 0 iotk_strcpy_x
F 763 3 764 765 766
S 764 1 3 2 0 28 1 763 6591 2014 42000 A 0 0 0 0 0 0 0 0 0 0 0 0 0 0 0 0 0 0 0 0 0 0 0 0 0 0 0 0 to
S 765 1 3 1 0 28 1 763 6594 2014 42000 A 0 0 0 0 0 0 0 0 0 0 0 0 0 0 0 0 0 0 0 0 0 0 0 0 0 0 0 0 from
S 766 1 3 2 0 6 1 763 6732 2014 2000 A 0 0 0 0 0 0 0 0 0 0 0 0 0 0 0 0 0 0 0 0 0 0 0 0 0 0 0 0 ierr
S 767 14 5 0 0 0 1 582 6737 10 0 A 0 0 0 0 0 0 0 26 3 0 0 0 0 0 0 0 0 0 0 0 0 228 0 582 0 0 0 0 iotk_strcat_x
F 767 3 768 769 770
S 768 1 3 3 0 28 1 767 6591 2014 42000 A 0 0 0 0 0 0 0 0 0 0 0 0 0 0 0 0 0 0 0 0 0 0 0 0 0 0 0 0 to
S 769 1 3 1 0 28 1 767 6594 2014 42000 A 0 0 0 0 0 0 0 0 0 0 0 0 0 0 0 0 0 0 0 0 0 0 0 0 0 0 0 0 from
S 770 1 3 2 0 6 1 767 6732 2014 2000 A 0 0 0 0 0 0 0 0 0 0 0 0 0 0 0 0 0 0 0 0 0 0 0 0 0 0 0 0 ierr
S 771 14 5 0 0 16 1 582 6751 14 0 A 0 0 0 0 0 0 0 30 2 0 0 774 0 0 0 0 0 0 0 0 0 237 0 582 0 0 0 0 iotk_strcomp_x
F 771 2 772 773
S 772 1 3 1 0 28 1 771 6766 2014 42000 A 0 0 0 0 0 0 0 0 0 0 0 0 0 0 0 0 0 0 0 0 0 0 0 0 0 0 0 0 str1
S 773 1 3 1 0 28 1 771 6771 2014 42000 A 0 0 0 0 0 0 0 0 0 0 0 0 0 0 0 0 0 0 0 0 0 0 0 0 0 0 0 0 str2
S 774 1 3 0 0 16 1 771 6751 2014 1002000 A 0 0 0 0 0 0 0 0 0 0 0 0 0 0 0 0 0 0 0 0 0 0 0 0 0 0 0 0 iotk_strcomp_x
S 775 14 5 0 0 0 1 582 6776 10 0 A 0 0 0 0 0 0 0 32 1 0 0 0 0 0 0 0 0 0 0 0 0 245 0 582 0 0 0 0 iotk_str_clean_x
F 775 1 776
S 776 1 3 3 0 28 1 775 5811 2014 42000 A 0 0 0 0 0 0 0 0 0 0 0 0 0 0 0 0 0 0 0 0 0 0 0 0 0 0 0 0 str
A 125 1 0 0 0 28 733 0 0 0 0 0 0 0 0 0 0 0 0 0
A 126 1 0 0 0 6 470 0 0 0 0 0 0 0 0 0 0 0 0 0
A 127 14 0 0 0 6 126 0 0 0 0 0 0 287 1 1 0 0 0 0
W 1 125
A 128 1 0 0 0 28 736 0 0 0 0 0 0 0 0 0 0 0 0 0
A 129 14 0 0 0 6 126 0 0 0 0 0 0 287 1 3 0 0 0 0
W 1 128
A 130 1 0 0 38 28 752 0 0 0 0 0 0 0 0 0 0 0 0 0
A 131 14 0 0 0 6 126 0 0 0 0 0 0 287 1 5 0 0 0 0
W 1 130
A 132 1 0 0 0 28 761 0 0 0 0 0 0 0 0 0 0 0 0 0
A 133 14 0 0 0 6 126 0 0 0 0 0 0 287 1 7 0 0 0 0
W 1 132
Z
Z
