V26 iotk_scan_interf
20 iotk_scan_interf.F90 S582 0
04/24/2012  15:45:25
use iotk_base private
use iotk_base private
enduse
D 86 24 697 4 696 3
D 140 18 54
D 142 18 56
D 144 18 58
S 582 24 0 0 0 6 1 0 4658 15 0 A 0 0 0 0 0 0 0 0 0 0 0 0 225 0 0 0 0 0 0 0 0 123 0 0 0 0 0 0 iotk_scan_interf
S 583 19 0 0 0 6 1 582 4675 4000 0 A 0 0 0 0 0 0 0 0 0 0 0 0 0 0 0 0 1 1 0 0 0 0 0 582 0 0 0 0 iotk_scan_begin
O 583 1 590
S 584 19 0 0 0 6 1 582 4691 4000 0 A 0 0 0 0 0 0 0 0 0 0 0 0 0 0 0 0 2 1 0 0 0 0 0 582 0 0 0 0 iotk_scan_end
O 584 1 733
S 585 19 0 0 0 6 1 582 4705 4000 0 A 0 0 0 0 0 0 0 0 0 0 0 0 0 0 0 0 3 1 0 0 0 0 0 582 0 0 0 0 iotk_scan_pi
O 585 1 738
S 586 19 0 0 0 6 1 582 4718 4000 0 A 0 0 0 0 0 0 0 0 0 0 0 0 0 0 0 0 4 1 0 0 0 0 0 582 0 0 0 0 iotk_scan_empty
O 586 1 745
S 587 19 0 0 0 6 1 582 4734 4000 0 A 0 0 0 0 0 0 0 0 0 0 0 0 0 0 0 0 5 1 0 0 0 0 0 582 0 0 0 0 iotk_scan_tag
O 587 1 752
S 588 19 0 0 0 6 1 582 4748 4000 0 A 0 0 0 0 0 0 0 0 0 0 0 0 0 0 0 0 6 1 0 0 0 0 0 582 0 0 0 0 iotk_scan
O 588 1 760
S 589 19 0 0 0 6 1 582 4758 4000 0 A 0 0 0 0 0 0 0 0 0 0 0 0 0 0 0 0 7 1 0 0 0 0 0 582 0 0 0 0 iotk_getline
O 589 1 770
S 590 14 5 0 0 0 1 582 4771 10 0 A 0 0 0 0 0 0 0 1 6 0 0 0 0 0 0 0 0 0 0 0 0 136 0 582 0 0 0 0 iotk_scan_begin_x
F 590 6 591 592 593 594 595 596
S 591 1 3 1 0 6 1 590 3864 2014 2000 A 0 0 0 0 0 0 0 0 0 0 0 0 0 0 0 0 0 0 0 0 0 0 0 0 0 0 0 0 unit
S 592 1 3 1 0 28 1 590 4789 2014 42000 A 0 0 0 0 0 0 0 0 0 0 0 0 0 0 0 0 0 0 0 0 0 0 0 0 0 0 0 0 name
S 593 1 3 2 0 28 1 590 4794 80002014 42000 A 0 0 0 0 0 0 0 0 0 0 0 0 0 0 0 0 0 0 0 0 0 0 0 0 0 0 0 0 attr
S 594 1 3 0 0 86 1 590 4799 80002014 2000 A 0 0 0 0 0 0 0 0 0 0 0 0 0 0 0 0 0 0 0 0 0 0 0 0 0 0 0 0 dummy
S 595 1 3 2 0 16 1 590 4805 80002014 2000 A 0 0 0 0 0 0 0 0 0 0 0 0 0 0 0 0 0 0 0 0 0 0 0 0 0 0 0 0 found
S 596 1 3 2 0 6 1 590 4811 80002014 2000 A 0 0 0 0 0 0 0 0 0 0 0 0 0 0 0 0 0 0 0 0 0 0 0 0 0 0 0 0 ierr
S 609 3 0 0 0 6 1 1 0 0 0 A 0 0 0 0 0 0 0 0 0 65535 0 0 0 0 0 0 0 0 0 0 0 0 0 0 0 0 0 0 6
S 610 3 0 0 0 6 1 1 0 0 0 A 0 0 0 0 0 0 0 0 0 256 0 0 0 0 0 0 0 0 0 0 0 0 0 0 0 0 0 0 6
S 611 3 0 0 0 6 1 1 0 0 0 A 0 0 0 0 0 0 0 0 0 65278 0 0 0 0 0 0 0 0 0 0 0 0 0 0 0 0 0 0 6
R 696 25 56 iotk_base iotk_dummytype
R 697 5 57 iotk_base dummy iotk_dummytype
S 733 14 5 0 0 0 1 582 6512 10 0 A 0 0 0 0 0 0 0 7 4 0 0 0 0 0 0 0 0 0 0 0 0 149 0 582 0 0 0 0 iotk_scan_end_x
F 733 4 734 735 736 737
S 734 1 3 1 0 6 1 733 3864 2014 2000 A 0 0 0 0 0 0 0 0 0 0 0 0 0 0 0 0 0 0 0 0 0 0 0 0 0 0 0 0 unit
S 735 1 3 1 0 28 1 733 4789 2014 42000 A 0 0 0 0 0 0 0 0 0 0 0 0 0 0 0 0 0 0 0 0 0 0 0 0 0 0 0 0 name
S 736 1 3 0 0 86 1 733 4799 80002014 2000 A 0 0 0 0 0 0 0 0 0 0 0 0 0 0 0 0 0 0 0 0 0 0 0 0 0 0 0 0 dummy
S 737 1 3 2 0 6 1 733 4811 80002014 2000 A 0 0 0 0 0 0 0 0 0 0 0 0 0 0 0 0 0 0 0 0 0 0 0 0 0 0 0 0 ierr
S 738 14 5 0 0 0 1 582 6528 10 0 A 0 0 0 0 0 0 0 11 6 0 0 0 0 0 0 0 0 0 0 0 0 160 0 582 0 0 0 0 iotk_scan_pi_x
F 738 6 739 740 741 742 743 744
S 739 1 3 1 0 6 1 738 3864 2014 2000 A 0 0 0 0 0 0 0 0 0 0 0 0 0 0 0 0 0 0 0 0 0 0 0 0 0 0 0 0 unit
S 740 1 3 1 0 28 1 738 4789 2014 42000 A 0 0 0 0 0 0 0 0 0 0 0 0 0 0 0 0 0 0 0 0 0 0 0 0 0 0 0 0 name
S 741 1 3 2 0 28 1 738 4794 80002014 42000 A 0 0 0 0 0 0 0 0 0 0 0 0 0 0 0 0 0 0 0 0 0 0 0 0 0 0 0 0 attr
S 742 1 3 0 0 86 1 738 4799 80002014 2000 A 0 0 0 0 0 0 0 0 0 0 0 0 0 0 0 0 0 0 0 0 0 0 0 0 0 0 0 0 dummy
S 743 1 3 2 0 16 1 738 4805 80002014 2000 A 0 0 0 0 0 0 0 0 0 0 0 0 0 0 0 0 0 0 0 0 0 0 0 0 0 0 0 0 found
S 744 1 3 2 0 6 1 738 4811 80002014 2000 A 0 0 0 0 0 0 0 0 0 0 0 0 0 0 0 0 0 0 0 0 0 0 0 0 0 0 0 0 ierr
S 745 14 5 0 0 0 1 582 6543 10 0 A 0 0 0 0 0 0 0 17 6 0 0 0 0 0 0 0 0 0 0 0 0 173 0 582 0 0 0 0 iotk_scan_empty_x
F 745 6 746 747 748 749 750 751
S 746 1 3 1 0 6 1 745 3864 2014 2000 A 0 0 0 0 0 0 0 0 0 0 0 0 0 0 0 0 0 0 0 0 0 0 0 0 0 0 0 0 unit
S 747 1 3 1 0 28 1 745 4789 2014 42000 A 0 0 0 0 0 0 0 0 0 0 0 0 0 0 0 0 0 0 0 0 0 0 0 0 0 0 0 0 name
S 748 1 3 2 0 28 1 745 4794 80002014 42000 A 0 0 0 0 0 0 0 0 0 0 0 0 0 0 0 0 0 0 0 0 0 0 0 0 0 0 0 0 attr
S 749 1 3 0 0 86 1 745 4799 80002014 2000 A 0 0 0 0 0 0 0 0 0 0 0 0 0 0 0 0 0 0 0 0 0 0 0 0 0 0 0 0 dummy
S 750 1 3 2 0 16 1 745 4805 80002014 2000 A 0 0 0 0 0 0 0 0 0 0 0 0 0 0 0 0 0 0 0 0 0 0 0 0 0 0 0 0 found
S 751 1 3 2 0 6 1 745 4811 80002014 2000 A 0 0 0 0 0 0 0 0 0 0 0 0 0 0 0 0 0 0 0 0 0 0 0 0 0 0 0 0 ierr
S 752 14 5 0 0 0 1 582 6561 10 0 A 0 0 0 0 0 0 0 23 7 0 0 0 0 0 0 0 0 0 0 0 0 186 0 582 0 0 0 0 iotk_scan_tag_x
F 752 7 753 754 755 756 757 758 759
S 753 1 3 1 0 6 1 752 3864 2014 2000 A 0 0 0 0 0 0 0 0 0 0 0 0 0 0 0 0 0 0 0 0 0 0 0 0 0 0 0 0 unit
S 754 1 3 1 0 6 1 752 6577 2014 2000 A 0 0 0 0 0 0 0 0 0 0 0 0 0 0 0 0 0 0 0 0 0 0 0 0 0 0 0 0 direction
S 755 1 3 2 0 6 1 752 6587 2014 2000 A 0 0 0 0 0 0 0 0 0 0 0 0 0 0 0 0 0 0 0 0 0 0 0 0 0 0 0 0 control
S 756 1 3 2 0 140 1 752 6595 2014 2000 A 0 0 0 0 0 0 0 0 0 0 0 0 0 0 0 0 0 0 0 0 0 0 0 0 0 0 0 0 tag
S 757 1 3 1 0 16 1 752 6599 2014 2000 A 0 0 0 0 0 0 0 0 0 0 0 0 0 0 0 0 0 0 0 0 0 0 0 0 0 0 0 0 binary
S 758 1 3 1 0 16 1 752 6606 2014 2000 A 0 0 0 0 0 0 0 0 0 0 0 0 0 0 0 0 0 0 0 0 0 0 0 0 0 0 0 0 stream
S 759 1 3 2 0 6 1 752 4811 2014 2000 A 0 0 0 0 0 0 0 0 0 0 0 0 0 0 0 0 0 0 0 0 0 0 0 0 0 0 0 0 ierr
S 760 14 5 0 0 0 1 582 6613 10 0 A 0 0 0 0 0 0 0 30 9 0 0 0 0 0 0 0 0 0 0 0 0 200 0 582 0 0 0 0 iotk_scan_x
F 760 9 761 762 763 764 765 766 767 768 769
S 761 1 3 1 0 6 1 760 3864 2014 2000 A 0 0 0 0 0 0 0 0 0 0 0 0 0 0 0 0 0 0 0 0 0 0 0 0 0 0 0 0 unit
S 762 1 3 1 0 6 1 760 6577 2014 2000 A 0 0 0 0 0 0 0 0 0 0 0 0 0 0 0 0 0 0 0 0 0 0 0 0 0 0 0 0 direction
S 763 1 3 1 0 6 1 760 6587 2014 2000 A 0 0 0 0 0 0 0 0 0 0 0 0 0 0 0 0 0 0 0 0 0 0 0 0 0 0 0 0 control
S 764 1 3 1 0 142 1 760 4789 2014 2000 A 0 0 0 0 0 0 0 0 0 0 0 0 0 0 0 0 0 0 0 0 0 0 0 0 0 0 0 0 name
S 765 1 3 2 0 144 1 760 4794 2014 2000 A 0 0 0 0 0 0 0 0 0 0 0 0 0 0 0 0 0 0 0 0 0 0 0 0 0 0 0 0 attr
S 766 1 3 1 0 16 1 760 6599 2014 2000 A 0 0 0 0 0 0 0 0 0 0 0 0 0 0 0 0 0 0 0 0 0 0 0 0 0 0 0 0 binary
S 767 1 3 1 0 16 1 760 6606 2014 2000 A 0 0 0 0 0 0 0 0 0 0 0 0 0 0 0 0 0 0 0 0 0 0 0 0 0 0 0 0 stream
S 768 1 3 2 0 16 1 760 4805 2014 2000 A 0 0 0 0 0 0 0 0 0 0 0 0 0 0 0 0 0 0 0 0 0 0 0 0 0 0 0 0 found
S 769 1 3 2 0 6 1 760 4811 2014 2000 A 0 0 0 0 0 0 0 0 0 0 0 0 0 0 0 0 0 0 0 0 0 0 0 0 0 0 0 0 ierr
S 770 14 5 0 0 0 1 582 6625 10 0 A 0 0 0 0 0 0 0 39 4 0 0 0 0 0 0 0 0 0 0 0 0 216 0 582 0 0 0 0 iotk_getline_x
F 770 4 771 772 773 774
S 771 1 3 1 0 6 1 770 3864 2014 2000 A 0 0 0 0 0 0 0 0 0 0 0 0 0 0 0 0 0 0 0 0 0 0 0 0 0 0 0 0 unit
S 772 1 3 2 0 28 1 770 6640 2014 42000 A 0 0 0 0 0 0 0 0 0 0 0 0 0 0 0 0 0 0 0 0 0 0 0 0 0 0 0 0 line
S 773 1 3 2 0 6 1 770 3869 80002014 2000 A 0 0 0 0 0 0 0 0 0 0 0 0 0 0 0 0 0 0 0 0 0 0 0 0 0 0 0 0 length
S 774 1 3 2 0 6 1 770 4811 80002014 2000 A 0 0 0 0 0 0 0 0 0 0 0 0 0 0 0 0 0 0 0 0 0 0 0 0 0 0 0 0 ierr
A 54 2 0 0 0 6 609 0 0 0 54 0 0 0 0 0 0 0 0 0
A 56 2 0 0 0 6 610 0 0 0 56 0 0 0 0 0 0 0 0 0
A 58 2 0 0 0 6 611 0 0 0 58 0 0 0 0 0 0 0 0 0
Z
Z
