V26 iotk_write_interf
21 iotk_write_interf.F90 S582 0
04/24/2012  15:45:25
use iotk_base private
use iotk_base private
enduse
D 86 24 695 4 694 3
D 140 18 54
S 582 24 0 0 0 6 1 0 4658 15 0 A 0 0 0 0 0 0 0 0 0 0 0 0 205 0 0 0 0 0 0 0 0 123 0 0 0 0 0 0 iotk_write_interf
S 583 19 0 0 0 6 1 582 4676 4000 0 A 0 0 0 0 0 0 0 0 0 0 0 0 0 0 0 0 1 1 0 0 0 0 0 582 0 0 0 0 iotk_write_begin
O 583 1 589
S 584 19 0 0 0 6 1 582 4693 4000 0 A 0 0 0 0 0 0 0 0 0 0 0 0 0 0 0 0 2 1 0 0 0 0 0 582 0 0 0 0 iotk_write_end
O 584 1 731
S 585 19 0 0 0 6 1 582 4708 4000 0 A 0 0 0 0 0 0 0 0 0 0 0 0 0 0 0 0 3 1 0 0 0 0 0 582 0 0 0 0 iotk_write_pi
O 585 1 736
S 586 19 0 0 0 6 1 582 4722 4000 0 A 0 0 0 0 0 0 0 0 0 0 0 0 0 0 0 0 4 1 0 0 0 0 0 582 0 0 0 0 iotk_write_comment
O 586 1 742
S 587 19 0 0 0 6 1 582 4741 4000 0 A 0 0 0 0 0 0 0 0 0 0 0 0 0 0 0 0 5 1 0 0 0 0 0 582 0 0 0 0 iotk_write_empty
O 587 1 747
S 588 19 0 0 0 6 1 582 4758 4000 0 A 0 0 0 0 0 0 0 0 0 0 0 0 0 0 0 0 6 1 0 0 0 0 0 582 0 0 0 0 iotk_write_tag
O 588 1 753
S 589 14 5 0 0 0 1 582 4773 10 0 A 0 0 0 0 0 0 0 1 5 0 0 0 0 0 0 0 0 0 0 0 0 135 0 582 0 0 0 0 iotk_write_begin_x
F 589 5 590 591 592 593 594
S 590 1 3 1 0 6 1 589 3864 2014 2000 A 0 0 0 0 0 0 0 0 0 0 0 0 0 0 0 0 0 0 0 0 0 0 0 0 0 0 0 0 unit
S 591 1 3 1 0 28 1 589 4792 2014 42000 A 0 0 0 0 0 0 0 0 0 0 0 0 0 0 0 0 0 0 0 0 0 0 0 0 0 0 0 0 name
S 592 1 3 1 0 28 1 589 4797 80002014 42000 A 0 0 0 0 0 0 0 0 0 0 0 0 0 0 0 0 0 0 0 0 0 0 0 0 0 0 0 0 attr
S 593 1 3 0 0 86 1 589 4802 80002014 2000 A 0 0 0 0 0 0 0 0 0 0 0 0 0 0 0 0 0 0 0 0 0 0 0 0 0 0 0 0 dummy
S 594 1 3 2 0 6 1 589 4808 80002014 2000 A 0 0 0 0 0 0 0 0 0 0 0 0 0 0 0 0 0 0 0 0 0 0 0 0 0 0 0 0 ierr
S 607 3 0 0 0 6 1 1 0 0 0 A 0 0 0 0 0 0 0 0 0 65535 0 0 0 0 0 0 0 0 0 0 0 0 0 0 0 0 0 0 6
R 694 25 56 iotk_base iotk_dummytype
R 695 5 57 iotk_base dummy iotk_dummytype
S 731 14 5 0 0 0 1 582 6509 10 0 A 0 0 0 0 0 0 0 6 4 0 0 0 0 0 0 0 0 0 0 0 0 147 0 582 0 0 0 0 iotk_write_end_x
F 731 4 732 733 734 735
S 732 1 3 1 0 6 1 731 3864 2014 2000 A 0 0 0 0 0 0 0 0 0 0 0 0 0 0 0 0 0 0 0 0 0 0 0 0 0 0 0 0 unit
S 733 1 3 1 0 28 1 731 4792 2014 42000 A 0 0 0 0 0 0 0 0 0 0 0 0 0 0 0 0 0 0 0 0 0 0 0 0 0 0 0 0 name
S 734 1 3 0 0 86 1 731 4802 80002014 2000 A 0 0 0 0 0 0 0 0 0 0 0 0 0 0 0 0 0 0 0 0 0 0 0 0 0 0 0 0 dummy
S 735 1 3 2 0 6 1 731 4808 80002014 2000 A 0 0 0 0 0 0 0 0 0 0 0 0 0 0 0 0 0 0 0 0 0 0 0 0 0 0 0 0 ierr
S 736 14 5 0 0 0 1 582 6526 10 0 A 0 0 0 0 0 0 0 10 5 0 0 0 0 0 0 0 0 0 0 0 0 158 0 582 0 0 0 0 iotk_write_pi_x
F 736 5 737 738 739 740 741
S 737 1 3 1 0 6 1 736 3864 2014 2000 A 0 0 0 0 0 0 0 0 0 0 0 0 0 0 0 0 0 0 0 0 0 0 0 0 0 0 0 0 unit
S 738 1 3 1 0 28 1 736 4792 2014 42000 A 0 0 0 0 0 0 0 0 0 0 0 0 0 0 0 0 0 0 0 0 0 0 0 0 0 0 0 0 name
S 739 1 3 1 0 28 1 736 4797 80002014 42000 A 0 0 0 0 0 0 0 0 0 0 0 0 0 0 0 0 0 0 0 0 0 0 0 0 0 0 0 0 attr
S 740 1 3 0 0 86 1 736 4802 80002014 2000 A 0 0 0 0 0 0 0 0 0 0 0 0 0 0 0 0 0 0 0 0 0 0 0 0 0 0 0 0 dummy
S 741 1 3 2 0 6 1 736 4808 80002014 2000 A 0 0 0 0 0 0 0 0 0 0 0 0 0 0 0 0 0 0 0 0 0 0 0 0 0 0 0 0 ierr
S 742 14 5 0 0 0 1 582 6542 10 0 A 0 0 0 0 0 0 0 15 4 0 0 0 0 0 0 0 0 0 0 0 0 170 0 582 0 0 0 0 iotk_write_comment_x
F 742 4 743 744 745 746
S 743 1 3 1 0 6 1 742 3864 2014 2000 A 0 0 0 0 0 0 0 0 0 0 0 0 0 0 0 0 0 0 0 0 0 0 0 0 0 0 0 0 unit
S 744 1 3 1 0 28 1 742 6563 2014 42000 A 0 0 0 0 0 0 0 0 0 0 0 0 0 0 0 0 0 0 0 0 0 0 0 0 0 0 0 0 text
S 745 1 3 0 0 86 1 742 4802 80002014 2000 A 0 0 0 0 0 0 0 0 0 0 0 0 0 0 0 0 0 0 0 0 0 0 0 0 0 0 0 0 dummy
S 746 1 3 2 0 6 1 742 4808 80002014 2000 A 0 0 0 0 0 0 0 0 0 0 0 0 0 0 0 0 0 0 0 0 0 0 0 0 0 0 0 0 ierr
S 747 14 5 0 0 0 1 582 6568 10 0 A 0 0 0 0 0 0 0 19 5 0 0 0 0 0 0 0 0 0 0 0 0 181 0 582 0 0 0 0 iotk_write_empty_x
F 747 5 748 749 750 751 752
S 748 1 3 1 0 6 1 747 3864 2014 2000 A 0 0 0 0 0 0 0 0 0 0 0 0 0 0 0 0 0 0 0 0 0 0 0 0 0 0 0 0 unit
S 749 1 3 1 0 28 1 747 4792 2014 42000 A 0 0 0 0 0 0 0 0 0 0 0 0 0 0 0 0 0 0 0 0 0 0 0 0 0 0 0 0 name
S 750 1 3 1 0 28 1 747 4797 80002014 42000 A 0 0 0 0 0 0 0 0 0 0 0 0 0 0 0 0 0 0 0 0 0 0 0 0 0 0 0 0 attr
S 751 1 3 0 0 86 1 747 4802 80002014 2000 A 0 0 0 0 0 0 0 0 0 0 0 0 0 0 0 0 0 0 0 0 0 0 0 0 0 0 0 0 dummy
S 752 1 3 2 0 6 1 747 4808 80002014 2000 A 0 0 0 0 0 0 0 0 0 0 0 0 0 0 0 0 0 0 0 0 0 0 0 0 0 0 0 0 ierr
S 753 14 5 0 0 0 1 582 6587 10 0 A 0 0 0 0 0 0 0 24 6 0 0 0 0 0 0 0 0 0 0 0 0 193 0 582 0 0 0 0 iotk_write_tag_x
F 753 6 754 755 756 757 758 759
S 754 1 3 1 0 6 1 753 3864 2014 2000 A 0 0 0 0 0 0 0 0 0 0 0 0 0 0 0 0 0 0 0 0 0 0 0 0 0 0 0 0 unit
S 755 1 3 1 0 6 1 753 6604 2014 2000 A 0 0 0 0 0 0 0 0 0 0 0 0 0 0 0 0 0 0 0 0 0 0 0 0 0 0 0 0 control
S 756 1 3 1 0 140 1 753 6612 2014 2000 A 0 0 0 0 0 0 0 0 0 0 0 0 0 0 0 0 0 0 0 0 0 0 0 0 0 0 0 0 tag
S 757 1 3 1 0 16 1 753 6616 2014 2000 A 0 0 0 0 0 0 0 0 0 0 0 0 0 0 0 0 0 0 0 0 0 0 0 0 0 0 0 0 binary
S 758 1 3 1 0 6 1 753 6623 2014 2000 A 0 0 0 0 0 0 0 0 0 0 0 0 0 0 0 0 0 0 0 0 0 0 0 0 0 0 0 0 indent
S 759 1 3 2 0 6 1 753 4808 2014 2000 A 0 0 0 0 0 0 0 0 0 0 0 0 0 0 0 0 0 0 0 0 0 0 0 0 0 0 0 0 ierr
A 54 2 0 0 0 6 607 0 0 0 54 0 0 0 0 0 0 0 0 0
Z
Z
