V26 iotk_error_interf
21 iotk_error_interf.F90 S582 0
04/24/2012  15:45:25
use iotk_base private
use iotk_base private
enduse
D 92 24 699 88 698 7
S 582 24 0 0 0 6 1 0 4658 15 0 A 0 0 0 0 0 0 0 0 0 0 0 0 359 0 0 0 0 0 0 0 0 123 0 0 0 0 0 0 iotk_error_interf
S 583 19 0 0 0 6 1 582 4676 4000 0 A 0 0 0 0 0 0 0 0 0 0 0 0 0 0 0 0 2 2 0 0 0 0 0 582 0 0 0 0 iotk_error_init
O 583 2 733 595
S 584 19 0 0 0 6 1 582 4692 4000 0 A 0 0 0 0 0 0 0 0 0 0 0 0 0 0 0 0 4 2 0 0 0 0 0 582 0 0 0 0 iotk_error_clear
O 584 2 737 735
S 585 19 0 0 0 6 1 582 4709 4000 0 A 0 0 0 0 0 0 0 0 0 0 0 0 0 0 0 0 7 2 0 0 0 0 0 582 0 0 0 0 iotk_error_append
O 585 2 744 741
S 586 19 0 0 0 6 1 582 4727 4000 0 A 0 0 0 0 0 0 0 0 0 0 0 0 0 0 0 0 5 1 0 0 0 0 0 582 0 0 0 0 iotk_error_add
O 586 1 739
S 587 19 0 0 0 6 1 582 4742 4000 0 A 0 0 0 0 0 0 0 0 0 0 0 0 0 0 0 0 9 2 0 0 0 0 0 582 0 0 0 0 iotk_error_print
O 587 2 750 747
S 588 19 0 0 0 6 1 582 4759 4000 0 A 0 0 0 0 0 0 0 0 0 0 0 0 0 0 0 0 11 2 0 0 0 0 0 582 0 0 0 0 iotk_error_issue
O 588 2 758 753
S 589 19 0 0 0 6 1 582 4776 4000 0 A 0 0 0 0 0 0 0 0 0 0 0 0 0 0 0 0 15 2 0 0 0 0 0 582 0 0 0 0 iotk_error_check
O 589 2 772 769
S 590 19 0 0 0 6 1 582 4793 4000 0 A 0 0 0 0 0 0 0 0 0 0 0 0 0 0 0 0 13 2 0 0 0 0 0 582 0 0 0 0 iotk_error_msg
O 590 2 766 763
S 591 19 0 0 0 6 1 582 4808 4000 0 A 0 0 0 0 0 0 0 0 0 0 0 0 0 0 0 0 21 6 0 0 0 0 0 582 0 0 0 0 iotk_error_write
O 591 6 795 791 787 783 779 775
S 592 19 0 0 0 6 1 582 4825 4000 0 A 0 0 0 0 0 0 0 0 0 0 0 0 0 0 0 0 27 6 0 0 0 0 0 582 0 0 0 0 iotk_error_scan
O 592 6 819 815 811 807 803 799
S 593 19 0 0 0 6 1 582 4841 4000 0 A 0 0 0 0 0 0 0 0 0 0 0 0 0 0 0 0 29 1 0 0 0 0 0 582 0 0 0 0 iotk_error_handler
O 593 1 825
S 594 19 0 0 0 6 1 582 4860 4000 0 A 0 0 0 0 0 0 0 0 0 0 0 0 0 0 0 0 28 1 0 0 0 0 0 582 0 0 0 0 iotk_error_pool_pending
O 594 1 823
S 595 14 5 0 0 0 1 582 4884 10 0 A 0 0 0 0 0 0 0 1 1 0 0 0 0 0 0 0 0 0 0 0 0 141 0 582 0 0 0 0 iotk_error_init_e
F 595 1 596
S 596 1 3 2 0 92 1 595 4902 2014 2000 A 0 0 0 0 0 0 0 0 0 0 0 0 0 0 0 0 0 0 0 0 0 0 0 0 0 0 0 0 error
R 698 25 58 iotk_base iotk_error
R 699 5 59 iotk_base str iotk_error
R 701 5 61 iotk_base str$sd iotk_error
R 702 5 62 iotk_base str$p iotk_error
R 703 5 63 iotk_base str$o iotk_error
S 733 14 5 0 0 0 1 582 6610 10 0 A 0 0 0 0 0 0 0 2 1 0 0 0 0 0 0 0 0 0 0 0 0 146 0 582 0 0 0 0 iotk_error_init_i
F 733 1 734
S 734 1 3 2 0 6 1 733 6628 2014 2000 A 0 0 0 0 0 0 0 0 0 0 0 0 0 0 0 0 0 0 0 0 0 0 0 0 0 0 0 0 ierr
S 735 14 5 0 0 0 1 582 6633 10 0 A 0 0 0 0 0 0 0 3 1 0 0 0 0 0 0 0 0 0 0 0 0 154 0 582 0 0 0 0 iotk_error_clear_e
F 735 1 736
S 736 1 3 3 0 92 1 735 4902 2014 2000 A 0 0 0 0 0 0 0 0 0 0 0 0 0 0 0 0 0 0 0 0 0 0 0 0 0 0 0 0 error
S 737 14 5 0 0 0 1 582 6652 10 0 A 0 0 0 0 0 0 0 4 1 0 0 0 0 0 0 0 0 0 0 0 0 159 0 582 0 0 0 0 iotk_error_clear_i
F 737 1 738
S 738 1 3 3 0 6 1 737 6628 2014 2000 A 0 0 0 0 0 0 0 0 0 0 0 0 0 0 0 0 0 0 0 0 0 0 0 0 0 0 0 0 ierr
S 739 14 5 0 0 6 1 582 6671 14 0 A 0 0 0 0 0 0 0 6 0 0 0 740 0 0 0 0 0 0 0 0 0 167 0 582 0 0 0 0 iotk_error_add_x
F 739 0
S 740 1 3 0 0 6 1 739 6671 2014 1002000 A 0 0 0 0 0 0 0 0 0 0 0 0 0 0 0 0 0 0 0 0 0 0 0 0 0 0 0 0 iotk_error_add_x
S 741 14 5 0 0 0 1 582 6688 10 0 A 0 0 0 0 0 0 0 6 2 0 0 0 0 0 0 0 0 0 0 0 0 175 0 582 0 0 0 0 iotk_error_append_e
F 741 2 742 743
S 742 1 3 3 0 92 1 741 4902 2014 2000 A 0 0 0 0 0 0 0 0 0 0 0 0 0 0 0 0 0 0 0 0 0 0 0 0 0 0 0 0 error
S 743 1 3 1 0 28 1 741 6045 2014 42000 A 0 0 0 0 0 0 0 0 0 0 0 0 0 0 0 0 0 0 0 0 0 0 0 0 0 0 0 0 str
S 744 14 5 0 0 0 1 582 6708 10 0 A 0 0 0 0 0 0 0 8 2 0 0 0 0 0 0 0 0 0 0 0 0 181 0 582 0 0 0 0 iotk_error_append_i
F 744 2 745 746
S 745 1 3 3 0 6 1 744 6628 2014 2000 A 0 0 0 0 0 0 0 0 0 0 0 0 0 0 0 0 0 0 0 0 0 0 0 0 0 0 0 0 ierr
S 746 1 3 1 0 28 1 744 6045 2014 42000 A 0 0 0 0 0 0 0 0 0 0 0 0 0 0 0 0 0 0 0 0 0 0 0 0 0 0 0 0 str
S 747 14 5 0 0 0 1 582 6728 10 0 A 0 0 0 0 0 0 0 10 2 0 0 0 0 0 0 0 0 0 0 0 0 190 0 582 0 0 0 0 iotk_error_print_e
F 747 2 748 749
S 748 1 3 1 0 92 1 747 4902 2014 2000 A 0 0 0 0 0 0 0 0 0 0 0 0 0 0 0 0 0 0 0 0 0 0 0 0 0 0 0 0 error
S 749 1 3 1 0 6 1 747 3864 2014 2000 A 0 0 0 0 0 0 0 0 0 0 0 0 0 0 0 0 0 0 0 0 0 0 0 0 0 0 0 0 unit
S 750 14 5 0 0 0 1 582 6747 10 0 A 0 0 0 0 0 0 0 12 2 0 0 0 0 0 0 0 0 0 0 0 0 196 0 582 0 0 0 0 iotk_error_print_i
F 750 2 751 752
S 751 1 3 1 0 6 1 750 6628 2014 2000 A 0 0 0 0 0 0 0 0 0 0 0 0 0 0 0 0 0 0 0 0 0 0 0 0 0 0 0 0 ierr
S 752 1 3 1 0 6 1 750 3864 2014 2000 A 0 0 0 0 0 0 0 0 0 0 0 0 0 0 0 0 0 0 0 0 0 0 0 0 0 0 0 0 unit
S 753 14 5 0 0 0 1 582 6766 10 0 A 0 0 0 0 0 0 0 14 4 0 0 0 0 0 0 0 0 0 0 0 0 205 0 582 0 0 0 0 iotk_error_issue_e
F 753 4 754 755 756 757
S 754 1 3 3 0 92 1 753 4902 2014 2000 A 0 0 0 0 0 0 0 0 0 0 0 0 0 0 0 0 0 0 0 0 0 0 0 0 0 0 0 0 error
S 755 1 3 1 0 28 1 753 6785 2014 42000 A 0 0 0 0 0 0 0 0 0 0 0 0 0 0 0 0 0 0 0 0 0 0 0 0 0 0 0 0 sub
S 756 1 3 1 0 28 1 753 6789 2014 42000 A 0 0 0 0 0 0 0 0 0 0 0 0 0 0 0 0 0 0 0 0 0 0 0 0 0 0 0 0 file
S 757 1 3 1 0 6 1 753 6794 2014 2000 A 0 0 0 0 0 0 0 0 0 0 0 0 0 0 0 0 0 0 0 0 0 0 0 0 0 0 0 0 line
S 758 14 5 0 0 0 1 582 6799 10 0 A 0 0 0 0 0 0 0 18 4 0 0 0 0 0 0 0 0 0 0 0 0 213 0 582 0 0 0 0 iotk_error_issue_i
F 758 4 759 760 761 762
S 759 1 3 3 0 6 1 758 6628 2014 2000 A 0 0 0 0 0 0 0 0 0 0 0 0 0 0 0 0 0 0 0 0 0 0 0 0 0 0 0 0 ierr
S 760 1 3 1 0 28 1 758 6785 2014 42000 A 0 0 0 0 0 0 0 0 0 0 0 0 0 0 0 0 0 0 0 0 0 0 0 0 0 0 0 0 sub
S 761 1 3 1 0 28 1 758 6789 2014 42000 A 0 0 0 0 0 0 0 0 0 0 0 0 0 0 0 0 0 0 0 0 0 0 0 0 0 0 0 0 file
S 762 1 3 1 0 6 1 758 6794 2014 2000 A 0 0 0 0 0 0 0 0 0 0 0 0 0 0 0 0 0 0 0 0 0 0 0 0 0 0 0 0 line
S 763 14 5 0 0 0 1 582 6818 10 0 A 0 0 0 0 0 0 0 22 2 0 0 0 0 0 0 0 0 0 0 0 0 224 0 582 0 0 0 0 iotk_error_msg_e
F 763 2 764 765
S 764 1 3 3 0 92 1 763 4902 2014 2000 A 0 0 0 0 0 0 0 0 0 0 0 0 0 0 0 0 0 0 0 0 0 0 0 0 0 0 0 0 error
S 765 1 3 1 0 28 1 763 6835 2014 42000 A 0 0 0 0 0 0 0 0 0 0 0 0 0 0 0 0 0 0 0 0 0 0 0 0 0 0 0 0 msg
S 766 14 5 0 0 0 1 582 6839 10 0 A 0 0 0 0 0 0 0 24 2 0 0 0 0 0 0 0 0 0 0 0 0 230 0 582 0 0 0 0 iotk_error_msg_i
F 766 2 767 768
S 767 1 3 3 0 6 1 766 6628 2014 2000 A 0 0 0 0 0 0 0 0 0 0 0 0 0 0 0 0 0 0 0 0 0 0 0 0 0 0 0 0 ierr
S 768 1 3 1 0 28 1 766 6835 2014 42000 A 0 0 0 0 0 0 0 0 0 0 0 0 0 0 0 0 0 0 0 0 0 0 0 0 0 0 0 0 msg
S 769 14 5 0 0 16 1 582 6856 14 0 A 0 0 0 0 0 0 0 27 1 0 0 771 0 0 0 0 0 0 0 0 0 239 0 582 0 0 0 0 iotk_error_check_e
F 769 1 770
S 770 1 3 1 0 92 1 769 4902 2014 2000 A 0 0 0 0 0 0 0 0 0 0 0 0 0 0 0 0 0 0 0 0 0 0 0 0 0 0 0 0 error
S 771 1 3 0 0 16 1 769 6856 2014 1002000 A 0 0 0 0 0 0 0 0 0 0 0 0 0 0 0 0 0 0 0 0 0 0 0 0 0 0 0 0 iotk_error_check_e
S 772 14 5 0 0 16 1 582 6875 14 0 A 0 0 0 0 0 0 0 29 1 0 0 774 0 0 0 0 0 0 0 0 0 245 0 582 0 0 0 0 iotk_error_check_i
F 772 1 773
S 773 1 3 1 0 6 1 772 6628 2014 2000 A 0 0 0 0 0 0 0 0 0 0 0 0 0 0 0 0 0 0 0 0 0 0 0 0 0 0 0 0 ierr
S 774 1 3 0 0 16 1 772 6875 2014 1002000 A 0 0 0 0 0 0 0 0 0 0 0 0 0 0 0 0 0 0 0 0 0 0 0 0 0 0 0 0 iotk_error_check_i
S 775 14 5 0 0 0 1 582 6894 10 0 A 0 0 0 0 0 0 0 30 3 0 0 0 0 0 0 0 0 0 0 0 0 254 0 582 0 0 0 0 iotk_error_write_character_e
F 775 3 776 777 778
S 776 1 3 3 0 92 1 775 4902 2014 2000 A 0 0 0 0 0 0 0 0 0 0 0 0 0 0 0 0 0 0 0 0 0 0 0 0 0 0 0 0 error
S 777 1 3 1 0 28 1 775 6923 2014 42000 A 0 0 0 0 0 0 0 0 0 0 0 0 0 0 0 0 0 0 0 0 0 0 0 0 0 0 0 0 name
S 778 1 3 1 0 28 1 775 6928 2014 42000 A 0 0 0 0 0 0 0 0 0 0 0 0 0 0 0 0 0 0 0 0 0 0 0 0 0 0 0 0 val
S 779 14 5 0 0 0 1 582 6932 10 0 A 0 0 0 0 0 0 0 33 3 0 0 0 0 0 0 0 0 0 0 0 0 261 0 582 0 0 0 0 iotk_error_write_character_i
F 779 3 780 781 782
S 780 1 3 3 0 6 1 779 6628 2014 2000 A 0 0 0 0 0 0 0 0 0 0 0 0 0 0 0 0 0 0 0 0 0 0 0 0 0 0 0 0 ierr
S 781 1 3 1 0 28 1 779 6923 2014 42000 A 0 0 0 0 0 0 0 0 0 0 0 0 0 0 0 0 0 0 0 0 0 0 0 0 0 0 0 0 name
S 782 1 3 1 0 28 1 779 6928 2014 42000 A 0 0 0 0 0 0 0 0 0 0 0 0 0 0 0 0 0 0 0 0 0 0 0 0 0 0 0 0 val
S 783 14 5 0 0 0 1 582 6961 10 0 A 0 0 0 0 0 0 0 36 3 0 0 0 0 0 0 0 0 0 0 0 0 268 0 582 0 0 0 0 iotk_error_write_logical_e
F 783 3 784 785 786
S 784 1 3 3 0 92 1 783 4902 2014 2000 A 0 0 0 0 0 0 0 0 0 0 0 0 0 0 0 0 0 0 0 0 0 0 0 0 0 0 0 0 error
S 785 1 3 1 0 28 1 783 6923 2014 42000 A 0 0 0 0 0 0 0 0 0 0 0 0 0 0 0 0 0 0 0 0 0 0 0 0 0 0 0 0 name
S 786 1 3 1 0 16 1 783 6928 2014 2000 A 0 0 0 0 0 0 0 0 0 0 0 0 0 0 0 0 0 0 0 0 0 0 0 0 0 0 0 0 val
S 787 14 5 0 0 0 1 582 6988 10 0 A 0 0 0 0 0 0 0 39 3 0 0 0 0 0 0 0 0 0 0 0 0 275 0 582 0 0 0 0 iotk_error_write_logical_i
F 787 3 788 789 790
S 788 1 3 3 0 6 1 787 6628 2014 2000 A 0 0 0 0 0 0 0 0 0 0 0 0 0 0 0 0 0 0 0 0 0 0 0 0 0 0 0 0 ierr
S 789 1 3 1 0 28 1 787 6923 2014 42000 A 0 0 0 0 0 0 0 0 0 0 0 0 0 0 0 0 0 0 0 0 0 0 0 0 0 0 0 0 name
S 790 1 3 1 0 16 1 787 6928 2014 2000 A 0 0 0 0 0 0 0 0 0 0 0 0 0 0 0 0 0 0 0 0 0 0 0 0 0 0 0 0 val
S 791 14 5 0 0 0 1 582 7015 10 0 A 0 0 0 0 0 0 0 42 3 0 0 0 0 0 0 0 0 0 0 0 0 282 0 582 0 0 0 0 iotk_error_write_integer_e
F 791 3 792 793 794
S 792 1 3 3 0 92 1 791 4902 2014 2000 A 0 0 0 0 0 0 0 0 0 0 0 0 0 0 0 0 0 0 0 0 0 0 0 0 0 0 0 0 error
S 793 1 3 1 0 28 1 791 6923 2014 42000 A 0 0 0 0 0 0 0 0 0 0 0 0 0 0 0 0 0 0 0 0 0 0 0 0 0 0 0 0 name
S 794 1 3 1 0 6 1 791 6928 2014 2000 A 0 0 0 0 0 0 0 0 0 0 0 0 0 0 0 0 0 0 0 0 0 0 0 0 0 0 0 0 val
S 795 14 5 0 0 0 1 582 7042 10 0 A 0 0 0 0 0 0 0 45 3 0 0 0 0 0 0 0 0 0 0 0 0 289 0 582 0 0 0 0 iotk_error_write_integer_i
F 795 3 796 797 798
S 796 1 3 3 0 6 1 795 6628 2014 2000 A 0 0 0 0 0 0 0 0 0 0 0 0 0 0 0 0 0 0 0 0 0 0 0 0 0 0 0 0 ierr
S 797 1 3 1 0 28 1 795 6923 2014 42000 A 0 0 0 0 0 0 0 0 0 0 0 0 0 0 0 0 0 0 0 0 0 0 0 0 0 0 0 0 name
S 798 1 3 1 0 6 1 795 6928 2014 2000 A 0 0 0 0 0 0 0 0 0 0 0 0 0 0 0 0 0 0 0 0 0 0 0 0 0 0 0 0 val
S 799 14 5 0 0 0 1 582 7069 10 0 A 0 0 0 0 0 0 0 48 3 0 0 0 0 0 0 0 0 0 0 0 0 299 0 582 0 0 0 0 iotk_error_scan_character_e
F 799 3 800 801 802
S 800 1 3 1 0 92 1 799 4902 2014 2000 A 0 0 0 0 0 0 0 0 0 0 0 0 0 0 0 0 0 0 0 0 0 0 0 0 0 0 0 0 error
S 801 1 3 1 0 28 1 799 6923 2014 42000 A 0 0 0 0 0 0 0 0 0 0 0 0 0 0 0 0 0 0 0 0 0 0 0 0 0 0 0 0 name
S 802 1 3 2 0 28 1 799 6928 2014 42000 A 0 0 0 0 0 0 0 0 0 0 0 0 0 0 0 0 0 0 0 0 0 0 0 0 0 0 0 0 val
S 803 14 5 0 0 0 1 582 7097 10 0 A 0 0 0 0 0 0 0 51 3 0 0 0 0 0 0 0 0 0 0 0 0 306 0 582 0 0 0 0 iotk_error_scan_character_i
F 803 3 804 805 806
S 804 1 3 1 0 6 1 803 6628 2014 2000 A 0 0 0 0 0 0 0 0 0 0 0 0 0 0 0 0 0 0 0 0 0 0 0 0 0 0 0 0 ierr
S 805 1 3 1 0 28 1 803 6923 2014 42000 A 0 0 0 0 0 0 0 0 0 0 0 0 0 0 0 0 0 0 0 0 0 0 0 0 0 0 0 0 name
S 806 1 3 2 0 28 1 803 6928 2014 42000 A 0 0 0 0 0 0 0 0 0 0 0 0 0 0 0 0 0 0 0 0 0 0 0 0 0 0 0 0 val
S 807 14 5 0 0 0 1 582 7125 10 0 A 0 0 0 0 0 0 0 54 3 0 0 0 0 0 0 0 0 0 0 0 0 313 0 582 0 0 0 0 iotk_error_scan_logical_e
F 807 3 808 809 810
S 808 1 3 1 0 92 1 807 4902 2014 2000 A 0 0 0 0 0 0 0 0 0 0 0 0 0 0 0 0 0 0 0 0 0 0 0 0 0 0 0 0 error
S 809 1 3 1 0 28 1 807 6923 2014 42000 A 0 0 0 0 0 0 0 0 0 0 0 0 0 0 0 0 0 0 0 0 0 0 0 0 0 0 0 0 name
S 810 1 3 2 0 16 1 807 6928 2014 2000 A 0 0 0 0 0 0 0 0 0 0 0 0 0 0 0 0 0 0 0 0 0 0 0 0 0 0 0 0 val
S 811 14 5 0 0 0 1 582 7151 10 0 A 0 0 0 0 0 0 0 57 3 0 0 0 0 0 0 0 0 0 0 0 0 320 0 582 0 0 0 0 iotk_error_scan_logical_i
F 811 3 812 813 814
S 812 1 3 1 0 6 1 811 6628 2014 2000 A 0 0 0 0 0 0 0 0 0 0 0 0 0 0 0 0 0 0 0 0 0 0 0 0 0 0 0 0 ierr
S 813 1 3 1 0 28 1 811 6923 2014 42000 A 0 0 0 0 0 0 0 0 0 0 0 0 0 0 0 0 0 0 0 0 0 0 0 0 0 0 0 0 name
S 814 1 3 2 0 16 1 811 6928 2014 2000 A 0 0 0 0 0 0 0 0 0 0 0 0 0 0 0 0 0 0 0 0 0 0 0 0 0 0 0 0 val
S 815 14 5 0 0 0 1 582 7177 10 0 A 0 0 0 0 0 0 0 60 3 0 0 0 0 0 0 0 0 0 0 0 0 327 0 582 0 0 0 0 iotk_error_scan_integer_e
F 815 3 816 817 818
S 816 1 3 1 0 92 1 815 4902 2014 2000 A 0 0 0 0 0 0 0 0 0 0 0 0 0 0 0 0 0 0 0 0 0 0 0 0 0 0 0 0 error
S 817 1 3 1 0 28 1 815 6923 2014 42000 A 0 0 0 0 0 0 0 0 0 0 0 0 0 0 0 0 0 0 0 0 0 0 0 0 0 0 0 0 name
S 818 1 3 2 0 6 1 815 6928 2014 2000 A 0 0 0 0 0 0 0 0 0 0 0 0 0 0 0 0 0 0 0 0 0 0 0 0 0 0 0 0 val
S 819 14 5 0 0 0 1 582 7203 10 0 A 0 0 0 0 0 0 0 63 3 0 0 0 0 0 0 0 0 0 0 0 0 334 0 582 0 0 0 0 iotk_error_scan_integer_i
F 819 3 820 821 822
S 820 1 3 1 0 6 1 819 6628 2014 2000 A 0 0 0 0 0 0 0 0 0 0 0 0 0 0 0 0 0 0 0 0 0 0 0 0 0 0 0 0 ierr
S 821 1 3 1 0 28 1 819 6923 2014 42000 A 0 0 0 0 0 0 0 0 0 0 0 0 0 0 0 0 0 0 0 0 0 0 0 0 0 0 0 0 name
S 822 1 3 2 0 6 1 819 6928 2014 2000 A 0 0 0 0 0 0 0 0 0 0 0 0 0 0 0 0 0 0 0 0 0 0 0 0 0 0 0 0 val
S 823 14 5 0 0 6 1 582 7229 14 0 A 0 0 0 0 0 0 0 67 0 0 0 824 0 0 0 0 0 0 0 0 0 344 0 582 0 0 0 0 iotk_error_pool_pending_x
F 823 0
S 824 1 3 0 0 6 1 823 7229 2014 1002000 A 0 0 0 0 0 0 0 0 0 0 0 0 0 0 0 0 0 0 0 0 0 0 0 0 0 0 0 0 iotk_error_pool_pending_x
S 825 14 5 0 0 0 1 582 7255 10 0 A 0 0 0 0 0 0 0 67 1 0 0 0 0 0 0 0 0 0 0 0 0 352 0 582 0 0 0 0 iotk_error_handler_x
F 825 1 826
S 826 1 3 1 0 6 1 825 6628 2014 2000 A 0 0 0 0 0 0 0 0 0 0 0 0 0 0 0 0 0 0 0 0 0 0 0 0 0 0 0 0 ierr
Z
Z
