V26 iotk_stream_interf
22 iotk_stream_interf.F90 S582 0
04/24/2012  15:45:25
enduse
D 140 21 16 1 0 0 1 1 0 0 1
 0 0 0 0 0 125
D 143 21 6 1 0 0 1 1 0 0 1
 0 0 0 0 0 126
D 146 21 8 1 0 0 1 1 0 0 1
 0 0 0 0 0 127
D 149 21 9 1 0 0 1 1 0 0 1
 0 0 0 0 0 128
D 152 21 11 1 0 0 1 1 0 0 1
 0 0 0 0 0 129
D 155 21 12 1 0 0 1 1 0 0 1
 0 0 0 0 0 130
D 158 21 28 1 0 0 1 1 0 0 1
 0 0 0 0 0 131
S 582 24 0 0 0 6 1 0 4658 15 0 A 0 0 0 0 0 0 0 0 0 0 0 0 229 0 0 0 0 0 0 0 0 125 0 0 0 0 0 0 iotk_stream_interf
S 583 19 0 0 0 6 1 582 4677 4000 0 A 0 0 0 0 0 0 0 0 0 0 0 0 0 0 0 0 8 8 0 0 0 0 0 582 0 0 0 0 iotk_stream_read
O 583 8 781 772 763 754 745 736 727 585
S 584 19 0 0 0 6 1 582 4694 4000 0 A 0 0 0 0 0 0 0 0 0 0 0 0 0 0 0 0 9 1 0 0 0 0 0 582 0 0 0 0 iotk_stream_backspace
O 584 1 790
S 585 14 5 0 0 0 1 582 4716 10 0 A 0 0 0 0 0 0 0 1 5 0 0 0 0 0 0 0 0 0 0 0 0 133 0 582 0 0 0 0 iotk_stream_read_x
F 585 5 586 587 588 589 590
S 586 1 3 1 0 6 1 585 3864 2014 2000 A 0 0 0 0 0 0 0 0 0 0 0 0 0 0 0 0 0 0 0 0 0 0 0 0 0 0 0 0 unit
S 587 1 3 2 0 6 1 585 4735 2014 2000 A 0 0 0 0 0 0 0 0 0 0 0 0 0 0 0 0 0 0 0 0 0 0 0 0 0 0 0 0 header
S 588 1 3 1 0 6 1 585 4742 80002014 2000 A 0 0 0 0 0 0 0 0 0 0 0 0 0 0 0 0 0 0 0 0 0 0 0 0 0 0 0 0 setpos
S 589 1 3 2 0 6 1 585 4749 80002014 2000 A 0 0 0 0 0 0 0 0 0 0 0 0 0 0 0 0 0 0 0 0 0 0 0 0 0 0 0 0 getpos
S 590 1 3 2 0 6 1 585 4756 80002014 2000 A 0 0 0 0 0 0 0 0 0 0 0 0 0 0 0 0 0 0 0 0 0 0 0 0 0 0 0 0 ierr
S 727 14 5 0 0 0 1 582 6463 10 0 A 0 0 0 0 0 0 0 6 7 0 0 0 0 0 0 0 0 0 0 0 0 142 0 582 0 0 0 0 iotk_stream_read_logical1
F 727 7 728 729 730 731 732 733 734
S 728 1 3 1 0 6 1 727 3864 2014 2000 A 0 0 0 0 0 0 0 0 0 0 0 0 0 0 0 0 0 0 0 0 0 0 0 0 0 0 0 0 unit
S 729 1 3 2 0 6 1 727 4735 2014 2000 A 0 0 0 0 0 0 0 0 0 0 0 0 0 0 0 0 0 0 0 0 0 0 0 0 0 0 0 0 header
S 730 7 3 2 0 140 1 727 6489 20002014 10002000 A 0 0 0 0 0 0 0 0 0 0 0 0 0 0 0 0 0 0 0 0 0 0 0 0 0 0 0 0 val
S 731 1 3 1 0 6 1 727 4742 80002014 2000 A 0 0 0 0 0 0 0 0 0 0 0 0 0 0 0 0 0 0 0 0 0 0 0 0 0 0 0 0 setpos
S 732 1 3 2 0 6 1 727 4749 80002014 2000 A 0 0 0 0 0 0 0 0 0 0 0 0 0 0 0 0 0 0 0 0 0 0 0 0 0 0 0 0 getpos
S 733 1 3 1 0 16 1 727 6493 80002014 2000 A 0 0 0 0 0 0 0 0 0 0 0 0 0 0 0 0 0 0 0 0 0 0 0 0 0 0 0 0 noval
S 734 1 3 2 0 6 1 727 4756 80002014 2000 A 0 0 0 0 0 0 0 0 0 0 0 0 0 0 0 0 0 0 0 0 0 0 0 0 0 0 0 0 ierr
S 735 6 1 0 0 6 1 727 6499 40800016 2000 A 0 0 0 0 0 0 0 0 0 0 0 0 0 0 0 0 0 0 0 0 0 0 0 0 0 0 0 0 z_b_0_1
S 736 14 5 0 0 0 1 582 6507 10 0 A 0 0 0 0 0 0 0 13 7 0 0 0 0 0 0 0 0 0 0 0 0 153 0 582 0 0 0 0 iotk_stream_read_integer1
F 736 7 737 738 739 740 741 742 743
S 737 1 3 1 0 6 1 736 3864 2014 2000 A 0 0 0 0 0 0 0 0 0 0 0 0 0 0 0 0 0 0 0 0 0 0 0 0 0 0 0 0 unit
S 738 1 3 2 0 6 1 736 4735 2014 2000 A 0 0 0 0 0 0 0 0 0 0 0 0 0 0 0 0 0 0 0 0 0 0 0 0 0 0 0 0 header
S 739 7 3 2 0 143 1 736 6489 20002014 10002000 A 0 0 0 0 0 0 0 0 0 0 0 0 0 0 0 0 0 0 0 0 0 0 0 0 0 0 0 0 val
S 740 1 3 1 0 6 1 736 4742 80002014 2000 A 0 0 0 0 0 0 0 0 0 0 0 0 0 0 0 0 0 0 0 0 0 0 0 0 0 0 0 0 setpos
S 741 1 3 2 0 6 1 736 4749 80002014 2000 A 0 0 0 0 0 0 0 0 0 0 0 0 0 0 0 0 0 0 0 0 0 0 0 0 0 0 0 0 getpos
S 742 1 3 1 0 16 1 736 6493 80002014 2000 A 0 0 0 0 0 0 0 0 0 0 0 0 0 0 0 0 0 0 0 0 0 0 0 0 0 0 0 0 noval
S 743 1 3 2 0 6 1 736 4756 80002014 2000 A 0 0 0 0 0 0 0 0 0 0 0 0 0 0 0 0 0 0 0 0 0 0 0 0 0 0 0 0 ierr
S 744 6 1 0 0 6 1 736 6533 40800016 2000 A 0 0 0 0 0 0 0 0 0 0 0 0 0 0 0 0 0 0 0 0 0 0 0 0 0 0 0 0 z_b_1
S 745 14 5 0 0 0 1 582 6539 10 0 A 0 0 0 0 0 0 0 20 7 0 0 0 0 0 0 0 0 0 0 0 0 164 0 582 0 0 0 0 iotk_stream_read_real1
F 745 7 746 747 748 749 750 751 752
S 746 1 3 1 0 6 1 745 3864 2014 2000 A 0 0 0 0 0 0 0 0 0 0 0 0 0 0 0 0 0 0 0 0 0 0 0 0 0 0 0 0 unit
S 747 1 3 2 0 6 1 745 4735 2014 2000 A 0 0 0 0 0 0 0 0 0 0 0 0 0 0 0 0 0 0 0 0 0 0 0 0 0 0 0 0 header
S 748 7 3 2 0 146 1 745 6489 20002014 10002000 A 0 0 0 0 0 0 0 0 0 0 0 0 0 0 0 0 0 0 0 0 0 0 0 0 0 0 0 0 val
S 749 1 3 1 0 6 1 745 4742 80002014 2000 A 0 0 0 0 0 0 0 0 0 0 0 0 0 0 0 0 0 0 0 0 0 0 0 0 0 0 0 0 setpos
S 750 1 3 2 0 6 1 745 4749 80002014 2000 A 0 0 0 0 0 0 0 0 0 0 0 0 0 0 0 0 0 0 0 0 0 0 0 0 0 0 0 0 getpos
S 751 1 3 1 0 16 1 745 6493 80002014 2000 A 0 0 0 0 0 0 0 0 0 0 0 0 0 0 0 0 0 0 0 0 0 0 0 0 0 0 0 0 noval
S 752 1 3 2 0 6 1 745 4756 80002014 2000 A 0 0 0 0 0 0 0 0 0 0 0 0 0 0 0 0 0 0 0 0 0 0 0 0 0 0 0 0 ierr
S 753 6 1 0 0 6 1 745 6562 40800016 2000 A 0 0 0 0 0 0 0 0 0 0 0 0 0 0 0 0 0 0 0 0 0 0 0 0 0 0 0 0 z_b_2
S 754 14 5 0 0 0 1 582 6568 10 0 A 0 0 0 0 0 0 0 27 7 0 0 0 0 0 0 0 0 0 0 0 0 175 0 582 0 0 0 0 iotk_stream_read_real2
F 754 7 755 756 757 758 759 760 761
S 755 1 3 1 0 6 1 754 3864 2014 2000 A 0 0 0 0 0 0 0 0 0 0 0 0 0 0 0 0 0 0 0 0 0 0 0 0 0 0 0 0 unit
S 756 1 3 2 0 6 1 754 4735 2014 2000 A 0 0 0 0 0 0 0 0 0 0 0 0 0 0 0 0 0 0 0 0 0 0 0 0 0 0 0 0 header
S 757 7 3 2 0 149 1 754 6489 20002014 10002000 A 0 0 0 0 0 0 0 0 0 0 0 0 0 0 0 0 0 0 0 0 0 0 0 0 0 0 0 0 val
S 758 1 3 1 0 6 1 754 4742 80002014 2000 A 0 0 0 0 0 0 0 0 0 0 0 0 0 0 0 0 0 0 0 0 0 0 0 0 0 0 0 0 setpos
S 759 1 3 2 0 6 1 754 4749 80002014 2000 A 0 0 0 0 0 0 0 0 0 0 0 0 0 0 0 0 0 0 0 0 0 0 0 0 0 0 0 0 getpos
S 760 1 3 1 0 16 1 754 6493 80002014 2000 A 0 0 0 0 0 0 0 0 0 0 0 0 0 0 0 0 0 0 0 0 0 0 0 0 0 0 0 0 noval
S 761 1 3 2 0 6 1 754 4756 80002014 2000 A 0 0 0 0 0 0 0 0 0 0 0 0 0 0 0 0 0 0 0 0 0 0 0 0 0 0 0 0 ierr
S 762 6 1 0 0 6 1 754 6591 40800016 2000 A 0 0 0 0 0 0 0 0 0 0 0 0 0 0 0 0 0 0 0 0 0 0 0 0 0 0 0 0 z_b_3
S 763 14 5 0 0 0 1 582 6597 10 0 A 0 0 0 0 0 0 0 34 7 0 0 0 0 0 0 0 0 0 0 0 0 186 0 582 0 0 0 0 iotk_stream_read_complex1
F 763 7 764 765 766 767 768 769 770
S 764 1 3 1 0 6 1 763 3864 2014 2000 A 0 0 0 0 0 0 0 0 0 0 0 0 0 0 0 0 0 0 0 0 0 0 0 0 0 0 0 0 unit
S 765 1 3 2 0 6 1 763 4735 2014 2000 A 0 0 0 0 0 0 0 0 0 0 0 0 0 0 0 0 0 0 0 0 0 0 0 0 0 0 0 0 header
S 766 7 3 2 0 152 1 763 6489 20002014 10002000 A 0 0 0 0 0 0 0 0 0 0 0 0 0 0 0 0 0 0 0 0 0 0 0 0 0 0 0 0 val
S 767 1 3 1 0 6 1 763 4742 80002014 2000 A 0 0 0 0 0 0 0 0 0 0 0 0 0 0 0 0 0 0 0 0 0 0 0 0 0 0 0 0 setpos
S 768 1 3 2 0 6 1 763 4749 80002014 2000 A 0 0 0 0 0 0 0 0 0 0 0 0 0 0 0 0 0 0 0 0 0 0 0 0 0 0 0 0 getpos
S 769 1 3 1 0 16 1 763 6493 80002014 2000 A 0 0 0 0 0 0 0 0 0 0 0 0 0 0 0 0 0 0 0 0 0 0 0 0 0 0 0 0 noval
S 770 1 3 2 0 6 1 763 4756 80002014 2000 A 0 0 0 0 0 0 0 0 0 0 0 0 0 0 0 0 0 0 0 0 0 0 0 0 0 0 0 0 ierr
S 771 6 1 0 0 6 1 763 6623 40800016 2000 A 0 0 0 0 0 0 0 0 0 0 0 0 0 0 0 0 0 0 0 0 0 0 0 0 0 0 0 0 z_b_4
S 772 14 5 0 0 0 1 582 6629 10 0 A 0 0 0 0 0 0 0 41 7 0 0 0 0 0 0 0 0 0 0 0 0 197 0 582 0 0 0 0 iotk_stream_read_complex2
F 772 7 773 774 775 776 777 778 779
S 773 1 3 1 0 6 1 772 3864 2014 2000 A 0 0 0 0 0 0 0 0 0 0 0 0 0 0 0 0 0 0 0 0 0 0 0 0 0 0 0 0 unit
S 774 1 3 2 0 6 1 772 4735 2014 2000 A 0 0 0 0 0 0 0 0 0 0 0 0 0 0 0 0 0 0 0 0 0 0 0 0 0 0 0 0 header
S 775 7 3 2 0 155 1 772 6489 20002014 10002000 A 0 0 0 0 0 0 0 0 0 0 0 0 0 0 0 0 0 0 0 0 0 0 0 0 0 0 0 0 val
S 776 1 3 1 0 6 1 772 4742 80002014 2000 A 0 0 0 0 0 0 0 0 0 0 0 0 0 0 0 0 0 0 0 0 0 0 0 0 0 0 0 0 setpos
S 777 1 3 2 0 6 1 772 4749 80002014 2000 A 0 0 0 0 0 0 0 0 0 0 0 0 0 0 0 0 0 0 0 0 0 0 0 0 0 0 0 0 getpos
S 778 1 3 1 0 16 1 772 6493 80002014 2000 A 0 0 0 0 0 0 0 0 0 0 0 0 0 0 0 0 0 0 0 0 0 0 0 0 0 0 0 0 noval
S 779 1 3 2 0 6 1 772 4756 80002014 2000 A 0 0 0 0 0 0 0 0 0 0 0 0 0 0 0 0 0 0 0 0 0 0 0 0 0 0 0 0 ierr
S 780 6 1 0 0 6 1 772 6655 40800016 2000 A 0 0 0 0 0 0 0 0 0 0 0 0 0 0 0 0 0 0 0 0 0 0 0 0 0 0 0 0 z_b_5
S 781 14 5 0 0 0 1 582 6661 10 0 A 0 0 0 0 0 0 0 48 7 0 0 0 0 0 0 0 0 0 0 0 0 208 0 582 0 0 0 0 iotk_stream_read_character1
F 781 7 782 783 784 785 786 787 788
S 782 1 3 1 0 6 1 781 3864 2014 2000 A 0 0 0 0 0 0 0 0 0 0 0 0 0 0 0 0 0 0 0 0 0 0 0 0 0 0 0 0 unit
S 783 1 3 2 0 6 1 781 4735 2014 2000 A 0 0 0 0 0 0 0 0 0 0 0 0 0 0 0 0 0 0 0 0 0 0 0 0 0 0 0 0 header
S 784 7 3 2 0 158 1 781 6489 20002014 10042000 A 0 0 0 0 0 0 0 0 0 0 0 0 0 0 0 0 0 0 0 0 0 0 0 0 0 0 0 0 val
S 785 1 3 1 0 6 1 781 4742 80002014 2000 A 0 0 0 0 0 0 0 0 0 0 0 0 0 0 0 0 0 0 0 0 0 0 0 0 0 0 0 0 setpos
S 786 1 3 2 0 6 1 781 4749 80002014 2000 A 0 0 0 0 0 0 0 0 0 0 0 0 0 0 0 0 0 0 0 0 0 0 0 0 0 0 0 0 getpos
S 787 1 3 1 0 16 1 781 6493 80002014 2000 A 0 0 0 0 0 0 0 0 0 0 0 0 0 0 0 0 0 0 0 0 0 0 0 0 0 0 0 0 noval
S 788 1 3 2 0 6 1 781 4756 80002014 2000 A 0 0 0 0 0 0 0 0 0 0 0 0 0 0 0 0 0 0 0 0 0 0 0 0 0 0 0 0 ierr
S 789 6 1 0 0 6 1 781 6689 40800016 2000 A 0 0 0 0 0 0 0 0 0 0 0 0 0 0 0 0 0 0 0 0 0 0 0 0 0 0 0 0 z_b_6
S 790 14 5 0 0 0 1 582 6695 10 0 A 0 0 0 0 0 0 0 55 2 0 0 0 0 0 0 0 0 0 0 0 0 222 0 582 0 0 0 0 iotk_stream_backspace_x
F 790 2 791 792
S 791 1 3 1 0 6 1 790 3864 2014 2000 A 0 0 0 0 0 0 0 0 0 0 0 0 0 0 0 0 0 0 0 0 0 0 0 0 0 0 0 0 unit
S 792 1 3 2 0 6 1 790 4756 80002014 2000 A 0 0 0 0 0 0 0 0 0 0 0 0 0 0 0 0 0 0 0 0 0 0 0 0 0 0 0 0 ierr
A 125 1 0 0 102 6 735 0 0 0 0 0 0 0 0 0 0 0 0 0
A 126 1 0 0 92 6 744 0 0 0 0 0 0 0 0 0 0 0 0 0
A 127 1 0 0 0 6 753 0 0 0 0 0 0 0 0 0 0 0 0 0
A 128 1 0 0 0 6 762 0 0 0 0 0 0 0 0 0 0 0 0 0
A 129 1 0 0 0 6 771 0 0 0 0 0 0 0 0 0 0 0 0 0
A 130 1 0 0 68 6 780 0 0 0 0 0 0 0 0 0 0 0 0 0
A 131 1 0 0 0 6 789 0 0 0 0 0 0 0 0 0 0 0 0 0
Z
Z
