V26 iotk_unit_list_module
18 iotk_unit_list.F90 S582 0
04/24/2012  15:45:39
use iotk_base public 0 direct
enduse
D 72 24 668 296 667 7
D 140 24 720 16 719 7
D 146 21 6 1 0 3 0 0 0 0 0
 0 3 0 3 3 0
D 149 21 6 1 0 3 0 0 0 0 0
 0 3 0 3 3 0
D 152 21 6 1 0 3 0 0 0 0 0
 0 3 0 3 3 0
S 582 24 0 0 0 6 1 0 4658 10005 0 A 0 0 0 0 0 0 0 0 0 0 0 0 0 0 0 0 0 0 0 0 0 123 0 0 0 0 0 0 iotk_unit_list_module
R 667 25 41 iotk_base iotk_unit
R 668 5 42 iotk_base unit iotk_unit
R 669 5 43 iotk_base root iotk_unit
R 670 5 44 iotk_base skip_root iotk_unit
R 671 5 45 iotk_base raw iotk_unit
R 672 5 46 iotk_base level iotk_unit
R 673 5 47 iotk_base close_at_end iotk_unit
R 674 5 48 iotk_base son iotk_unit
R 676 5 50 iotk_base son$p iotk_unit
R 678 5 52 iotk_base parent iotk_unit
R 680 5 54 iotk_base parent$p iotk_unit
S 719 25 0 0 0 140 1 582 6382 10000004 800014 A 0 0 0 0 0 0 0 0 0 0 0 0 0 0 0 0 0 0 0 730 0 0 0 582 0 0 0 0 iotk_unit_list
S 720 5 6 0 0 140 722 582 6397 800004 14 A 0 0 0 0 0 0 722 0 140 0 0 0 0 0 0 0 0 0 0 721 1 720 723 582 0 0 0 0 next
S 721 8 1 0 0 146 1 582 6402 40822004 1020 A 0 0 0 0 0 0 0 0 0 0 0 0 0 0 0 0 0 0 0 0 0 0 0 582 0 0 0 0 next$sd
S 722 5 0 0 0 7 724 582 6410 40802001 1020 A 0 0 0 0 0 0 0 0 140 0 0 0 0 0 0 0 0 0 0 0 720 722 0 582 0 0 0 0 next$p
S 723 6 1 0 0 7 1 582 6417 40802000 1020 A 0 0 0 0 0 0 0 0 0 0 0 0 0 0 0 0 0 0 0 0 0 0 0 582 0 0 0 0 next$o
S 724 5 6 0 0 72 726 582 6424 800004 14 A 0 0 0 0 0 8 726 0 140 0 0 0 0 0 0 0 0 0 0 725 720 724 727 582 0 0 0 0 ptr
S 725 8 1 0 0 149 1 582 6428 40822004 1020 A 0 0 0 0 0 0 0 0 0 0 0 0 0 0 0 0 0 0 0 0 0 0 0 582 0 0 0 0 ptr$sd
S 726 5 0 0 0 7 1 582 6435 40802001 1020 A 0 0 0 0 0 8 0 0 140 0 0 0 0 0 0 0 0 0 0 0 724 726 0 582 0 0 0 0 ptr$p
S 727 6 1 0 0 7 1 582 6441 40802000 1020 A 0 0 0 0 0 0 0 0 0 0 0 0 0 0 0 0 0 0 0 0 0 0 0 582 0 0 0 0 ptr$o
S 728 6 4 0 0 16 1 582 6447 80002c 0 A 0 0 0 0 0 0 0 0 0 0 0 0 731 0 0 0 0 0 0 0 0 0 0 582 0 0 0 0 iotk_units_init
S 729 6 4 0 0 140 1 582 6463 24 0 A 0 0 0 0 0 0 0 0 0 0 0 0 732 0 0 0 0 0 0 0 0 0 0 582 0 0 0 0 iotk_units
S 730 8 5 0 0 152 1 582 6474 40022004 1220 A 0 0 0 0 0 0 0 140 0 0 0 0 0 0 0 0 0 0 0 0 0 0 0 582 0 0 0 0 iotk_unit_list_module$iotk_unit_list$td
S 731 11 0 0 0 9 718 582 6514 40800000 801000 A 0 0 0 0 0 4 0 0 728 728 0 0 0 0 0 0 0 0 0 0 0 0 0 0 0 0 0 0 _iotk_unit_list_module$8
S 732 11 0 0 0 9 731 582 6539 40800000 801000 A 0 0 0 0 0 16 0 0 729 729 0 0 0 0 0 0 0 0 0 0 0 0 0 0 0 0 0 0 _iotk_unit_list_module$0
S 733 23 5 0 0 0 735 582 6564 0 0 A 0 0 0 0 0 0 0 0 0 0 0 0 0 0 0 0 0 0 0 0 0 0 0 0 0 0 0 0 iotk_unit_list_init
S 734 1 3 2 0 140 1 733 6584 4 3000 A 0 0 0 0 0 0 0 0 0 0 0 0 0 0 0 0 0 0 0 0 0 0 0 0 0 0 0 0 list
S 735 14 5 0 0 0 1 733 6564 0 400000 A 0 0 0 0 0 0 0 2 1 0 0 0 0 0 0 0 0 0 0 0 0 138 0 582 0 0 0 0 iotk_unit_list_init
F 735 1 734
S 736 23 5 0 0 0 738 582 6589 0 0 A 0 0 0 0 0 0 0 0 0 0 0 0 0 0 0 0 0 0 0 0 0 0 0 0 0 0 0 0 iotk_unit_list_destroy
S 737 1 3 3 0 140 1 736 6584 4 3000 A 0 0 0 0 0 0 0 0 0 0 0 0 0 0 0 0 0 0 0 0 0 0 0 0 0 0 0 0 list
S 738 14 5 0 0 0 1 736 6589 0 400000 A 0 0 0 0 0 0 0 4 1 0 0 0 0 0 0 0 0 0 0 0 0 144 0 582 0 0 0 0 iotk_unit_list_destroy
F 738 1 737
S 739 23 5 0 0 0 742 582 6612 0 0 A 0 0 0 0 0 0 0 0 0 0 0 0 0 0 0 0 0 0 0 0 0 0 0 0 0 0 0 0 iotk_unit_list_add
S 740 1 3 3 0 140 1 739 6584 4 3000 A 0 0 0 0 0 0 0 0 0 0 0 0 0 0 0 0 0 0 0 0 0 0 0 0 0 0 0 0 list
S 741 1 3 0 0 72 1 739 6424 4 3004 A 0 0 0 0 0 0 0 0 0 0 0 0 0 0 0 0 0 0 0 0 0 0 0 0 0 0 0 0 ptr
S 742 14 5 0 0 0 1 739 6612 0 400000 A 0 0 0 0 0 0 0 6 2 0 0 0 0 0 0 0 0 0 0 0 0 158 0 582 0 0 0 0 iotk_unit_list_add
F 742 2 740 741
S 743 23 5 0 0 0 746 582 6631 0 0 A 0 0 0 0 0 0 0 0 0 0 0 0 0 0 0 0 0 0 0 0 0 0 0 0 0 0 0 0 iotk_unit_list_del
S 744 1 3 3 0 140 1 743 6584 4 3000 A 0 0 0 0 0 0 0 0 0 0 0 0 0 0 0 0 0 0 0 0 0 0 0 0 0 0 0 0 list
S 745 1 3 0 0 72 1 743 6424 4 3004 A 0 0 0 0 0 0 0 0 0 0 0 0 0 0 0 0 0 0 0 0 0 0 0 0 0 0 0 0 ptr
S 746 14 5 0 0 0 1 743 6631 0 400000 A 0 0 0 0 0 0 0 9 2 0 0 0 0 0 0 0 0 0 0 0 0 169 0 582 0 0 0 0 iotk_unit_list_del
F 746 2 744 745
S 747 23 5 0 0 0 751 582 6650 0 0 A 0 0 0 0 0 0 0 0 0 0 0 0 0 0 0 0 0 0 0 0 0 0 0 0 0 0 0 0 iotk_unit_list_search
S 748 1 3 1 0 140 1 747 6584 4 3000 A 0 0 0 0 0 0 0 0 0 0 0 0 0 0 0 0 0 0 0 0 0 0 0 0 0 0 0 0 list
S 749 1 3 0 0 72 1 747 6424 4 3004 A 0 0 0 0 0 0 0 0 0 0 0 0 0 0 0 0 0 0 0 0 0 0 0 0 0 0 0 0 ptr
S 750 1 3 1 0 6 1 747 3864 80000004 3000 A 0 0 0 0 0 0 0 0 0 0 0 0 0 0 0 0 0 0 0 0 0 0 0 0 0 0 0 0 unit
S 751 14 5 0 0 0 1 747 6650 0 400000 A 0 0 0 0 0 0 0 12 3 0 0 0 0 0 0 0 0 0 0 0 0 196 0 582 0 0 0 0 iotk_unit_list_search
F 751 3 748 749 750
Z
Z
