V26 iotk_xtox_interf
20 iotk_xtox_interf.F90 S582 0
04/24/2012  15:45:23
enduse
D 140 18 128
S 582 24 0 0 0 6 1 0 4658 15 0 A 0 0 0 0 0 0 0 0 0 0 0 0 173 0 0 0 0 0 0 0 0 123 0 0 0 0 0 0 iotk_xtox_interf
S 719 19 0 0 0 6 1 582 6377 4000 0 A 0 0 0 0 0 0 0 0 0 0 0 0 0 0 0 0 1 1 0 0 0 0 0 582 0 0 0 0 iotk_atol
O 719 1 723
S 720 19 0 0 0 6 1 582 6387 4000 0 A 0 0 0 0 0 0 0 0 0 0 0 0 0 0 0 0 4 1 0 0 0 0 0 582 0 0 0 0 iotk_ltoa
O 720 1 739
S 721 19 0 0 0 6 1 582 6397 4000 0 A 0 0 0 0 0 0 0 0 0 0 0 0 0 0 0 0 2 1 0 0 0 0 0 582 0 0 0 0 iotk_atoi
O 721 1 727
S 722 19 0 0 0 6 1 582 6407 4000 0 A 0 0 0 0 0 0 0 0 0 0 0 0 0 0 0 0 3 1 0 0 0 0 0 582 0 0 0 0 iotk_itoa
O 722 1 732
S 723 14 5 0 0 16 1 582 6417 14 0 A 0 0 0 0 0 0 0 2 2 0 0 726 0 0 0 0 0 0 0 0 0 134 0 582 0 0 0 0 iotk_atol_x
F 723 2 724 725
S 724 1 3 1 0 28 1 723 6429 2014 42000 A 0 0 0 0 0 0 0 0 0 0 0 0 0 0 0 0 0 0 0 0 0 0 0 0 0 0 0 0 a
S 725 1 3 2 0 16 1 723 6431 80002014 2000 A 0 0 0 0 0 0 0 0 0 0 0 0 0 0 0 0 0 0 0 0 0 0 0 0 0 0 0 0 check
S 726 1 3 0 0 16 1 723 6417 2014 1002000 A 0 0 0 0 0 0 0 0 0 0 0 0 0 0 0 0 0 0 0 0 0 0 0 0 0 0 0 0 iotk_atol_x
S 727 14 5 0 0 0 1 582 6437 10 0 A 0 0 0 0 0 0 0 4 3 0 0 0 0 0 0 0 0 0 0 0 0 142 0 582 0 0 0 0 iotk_atoi1
F 727 3 728 729 730
S 728 1 3 2 0 6 1 727 6448 2014 2000 A 0 0 0 0 0 0 0 0 0 0 0 0 0 0 0 0 0 0 0 0 0 0 0 0 0 0 0 0 i
S 729 1 3 1 0 28 1 727 6429 2014 42000 A 0 0 0 0 0 0 0 0 0 0 0 0 0 0 0 0 0 0 0 0 0 0 0 0 0 0 0 0 a
S 730 1 3 2 0 16 1 727 6431 80002014 2000 A 0 0 0 0 0 0 0 0 0 0 0 0 0 0 0 0 0 0 0 0 0 0 0 0 0 0 0 0 check
S 732 14 5 0 0 140 1 582 6460 14 0 A 0 0 0 0 0 0 0 8 2 0 0 735 0 0 0 0 0 0 0 0 0 153 0 582 0 0 0 0 iotk_itoa1
F 732 2 733 734
S 733 1 3 1 0 6 1 732 6448 2014 2000 A 0 0 0 0 0 0 0 0 0 0 0 0 0 0 0 0 0 0 0 0 0 0 0 0 0 0 0 0 i
S 734 1 3 2 0 6 1 732 3869 80002014 2000 A 0 0 0 0 0 0 0 0 0 0 0 0 0 0 0 0 0 0 0 0 0 0 0 0 0 0 0 0 length
S 735 1 3 0 0 140 1 732 6460 2014 1002000 A 0 0 0 0 0 0 0 0 0 0 0 0 0 0 0 0 0 0 0 0 0 0 0 0 0 0 0 0 iotk_itoa1
S 738 3 0 0 0 6 0 1 0 0 0 A 0 0 0 0 0 0 0 0 0 11 0 0 0 0 0 0 0 0 0 0 0 0 0 0 0 0 0 0 6
S 739 14 5 0 0 20 1 582 6471 14 0 A 0 0 0 0 0 0 0 11 1 0 0 741 0 0 0 0 0 0 0 0 0 164 0 582 0 0 0 0 iotk_ltoa1
F 739 1 740
S 740 1 3 1 0 16 1 739 6482 2014 2000 A 0 0 0 0 0 0 0 0 0 0 0 0 0 0 0 0 0 0 0 0 0 0 0 0 0 0 0 0 l
S 741 1 3 0 0 20 1 739 6471 2014 1002000 A 0 0 0 0 0 0 0 0 0 0 0 0 0 0 0 0 0 0 0 0 0 0 0 0 0 0 0 0 iotk_ltoa1
A 128 2 0 0 0 6 738 0 0 0 128 0 0 0 0 0 0 0 0 0
Z
Z
