V26 iotk_unit_interf
20 iotk_unit_interf.F90 S582 0
04/24/2012  15:45:25
use iotk_base private
use iotk_base private
enduse
D 72 24 668 296 667 7
S 582 24 0 0 0 6 1 0 4658 15 0 A 0 0 0 0 0 0 0 0 0 0 0 0 207 0 0 0 0 0 0 0 0 123 0 0 0 0 0 0 iotk_unit_interf
R 667 25 41 iotk_base iotk_unit
R 668 5 42 iotk_base unit iotk_unit
R 669 5 43 iotk_base root iotk_unit
R 670 5 44 iotk_base skip_root iotk_unit
R 671 5 45 iotk_base raw iotk_unit
R 672 5 46 iotk_base level iotk_unit
R 673 5 47 iotk_base close_at_end iotk_unit
R 674 5 48 iotk_base son iotk_unit
R 676 5 50 iotk_base son$p iotk_unit
R 678 5 52 iotk_base parent iotk_unit
R 680 5 54 iotk_base parent$p iotk_unit
S 719 19 0 0 0 6 1 582 6377 4000 0 A 0 0 0 0 0 0 0 0 0 0 0 0 0 0 0 0 1 1 0 0 0 0 0 582 0 0 0 0 iotk_free_unit
O 719 1 727
S 720 19 0 0 0 6 1 582 6392 4000 0 A 0 0 0 0 0 0 0 0 0 0 0 0 0 0 0 0 2 1 0 0 0 0 0 582 0 0 0 0 iotk_phys_unit
O 720 1 730
S 721 19 0 0 0 6 1 582 6407 4000 0 A 0 0 0 0 0 0 0 0 0 0 0 0 0 0 0 0 3 1 0 0 0 0 0 582 0 0 0 0 iotk_unit_print
O 721 1 733
S 722 19 0 0 0 6 1 582 6423 4000 0 A 0 0 0 0 0 0 0 0 0 0 0 0 0 0 0 0 4 1 0 0 0 0 0 582 0 0 0 0 iotk_unit_add
O 722 1 735
S 723 19 0 0 0 6 1 582 6437 4000 0 A 0 0 0 0 0 0 0 0 0 0 0 0 0 0 0 0 5 1 0 0 0 0 0 582 0 0 0 0 iotk_inquire
O 723 1 739
S 724 19 0 0 0 6 1 582 6450 4000 0 A 0 0 0 0 0 0 0 0 0 0 0 0 0 0 0 0 6 1 0 0 0 0 0 582 0 0 0 0 iotk_unit_del
O 724 1 744
S 725 19 0 0 0 6 1 582 6464 4000 0 A 0 0 0 0 0 0 0 0 0 0 0 0 0 0 0 0 7 1 0 0 0 0 0 582 0 0 0 0 iotk_unit_parent
O 725 1 747
S 726 19 0 0 0 6 1 582 6481 4000 0 A 0 0 0 0 0 0 0 0 0 0 0 0 0 0 0 0 8 1 0 0 0 0 0 582 0 0 0 0 iotk_unit_get
O 726 1 751
S 727 14 5 0 0 0 1 582 6495 10 0 A 0 0 0 0 0 0 0 1 2 0 0 0 0 0 0 0 0 0 0 0 0 140 0 582 0 0 0 0 iotk_free_unit_x
F 727 2 728 729
S 728 1 3 2 0 6 1 727 3864 2014 2000 A 0 0 0 0 0 0 0 0 0 0 0 0 0 0 0 0 0 0 0 0 0 0 0 0 0 0 0 0 unit
S 729 1 3 2 0 6 1 727 6512 80002014 2000 A 0 0 0 0 0 0 0 0 0 0 0 0 0 0 0 0 0 0 0 0 0 0 0 0 0 0 0 0 ierr
S 730 14 5 0 0 6 1 582 6517 14 0 A 0 0 0 0 0 0 0 4 1 0 0 732 0 0 0 0 0 0 0 0 0 148 0 582 0 0 0 0 iotk_phys_unit_x
F 730 1 731
S 731 1 3 1 0 6 1 730 3864 2014 2000 A 0 0 0 0 0 0 0 0 0 0 0 0 0 0 0 0 0 0 0 0 0 0 0 0 0 0 0 0 unit
S 732 1 3 0 0 6 1 730 6517 2014 1002000 A 0 0 0 0 0 0 0 0 0 0 0 0 0 0 0 0 0 0 0 0 0 0 0 0 0 0 0 0 iotk_phys_unit_x
S 733 14 5 0 0 0 1 582 6534 10 0 A 0 0 0 0 0 0 0 5 1 0 0 0 0 0 0 0 0 0 0 0 0 156 0 582 0 0 0 0 iotk_unit_print_x
F 733 1 734
S 734 1 3 1 0 6 1 733 3864 2014 2000 A 0 0 0 0 0 0 0 0 0 0 0 0 0 0 0 0 0 0 0 0 0 0 0 0 0 0 0 0 unit
S 735 14 5 0 0 0 1 582 6552 10 0 A 0 0 0 0 0 0 0 6 3 0 0 0 0 0 0 0 0 0 0 0 0 163 0 582 0 0 0 0 iotk_unit_add_x
F 735 3 736 737 738
S 736 1 3 1 0 6 1 735 3864 2014 2000 A 0 0 0 0 0 0 0 0 0 0 0 0 0 0 0 0 0 0 0 0 0 0 0 0 0 0 0 0 unit
S 737 1 3 0 0 72 1 735 6568 2014 2004 A 0 0 0 0 0 0 0 0 0 0 0 0 0 0 0 0 0 0 0 0 0 0 0 0 0 0 0 0 this
S 738 1 3 2 0 6 1 735 6512 2014 2000 A 0 0 0 0 0 0 0 0 0 0 0 0 0 0 0 0 0 0 0 0 0 0 0 0 0 0 0 0 ierr
S 739 14 5 0 0 0 1 582 6573 10 0 A 0 0 0 0 0 0 0 9 4 0 0 0 0 0 0 0 0 0 0 0 0 173 0 582 0 0 0 0 iotk_inquire_x
F 739 4 740 741 742 743
S 740 1 3 1 0 6 1 739 3864 2014 2000 A 0 0 0 0 0 0 0 0 0 0 0 0 0 0 0 0 0 0 0 0 0 0 0 0 0 0 0 0 unit
S 741 1 3 2 0 16 1 739 6588 2014 2000 A 0 0 0 0 0 0 0 0 0 0 0 0 0 0 0 0 0 0 0 0 0 0 0 0 0 0 0 0 binary
S 742 1 3 2 0 16 1 739 6595 2014 2000 A 0 0 0 0 0 0 0 0 0 0 0 0 0 0 0 0 0 0 0 0 0 0 0 0 0 0 0 0 stream
S 743 1 3 2 0 6 1 739 6512 2014 2000 A 0 0 0 0 0 0 0 0 0 0 0 0 0 0 0 0 0 0 0 0 0 0 0 0 0 0 0 0 ierr
S 744 14 5 0 0 0 1 582 6602 10 0 A 0 0 0 0 0 0 0 13 2 0 0 0 0 0 0 0 0 0 0 0 0 183 0 582 0 0 0 0 iotk_unit_del_x
F 744 2 745 746
S 745 1 3 1 0 6 1 744 3864 2014 2000 A 0 0 0 0 0 0 0 0 0 0 0 0 0 0 0 0 0 0 0 0 0 0 0 0 0 0 0 0 unit
S 746 1 3 2 0 6 1 744 6512 2014 2000 A 0 0 0 0 0 0 0 0 0 0 0 0 0 0 0 0 0 0 0 0 0 0 0 0 0 0 0 0 ierr
S 747 14 5 0 0 0 1 582 6618 10 0 A 0 0 0 0 0 0 0 15 3 0 0 0 0 0 0 0 0 0 0 0 0 191 0 582 0 0 0 0 iotk_unit_parent_x
F 747 3 748 749 750
S 748 1 3 1 0 6 1 747 5745 2014 2000 A 0 0 0 0 0 0 0 0 0 0 0 0 0 0 0 0 0 0 0 0 0 0 0 0 0 0 0 0 parent
S 749 1 3 1 0 6 1 747 5722 2014 2000 A 0 0 0 0 0 0 0 0 0 0 0 0 0 0 0 0 0 0 0 0 0 0 0 0 0 0 0 0 son
S 750 1 3 2 0 6 1 747 6512 2014 2000 A 0 0 0 0 0 0 0 0 0 0 0 0 0 0 0 0 0 0 0 0 0 0 0 0 0 0 0 0 ierr
S 751 14 5 0 0 0 1 582 6637 10 0 A 0 0 0 0 0 0 0 18 2 0 0 0 0 0 0 0 0 0 0 0 0 199 0 582 0 0 0 0 iotk_unit_get_x
F 751 2 752 753
S 752 1 3 1 0 6 1 751 3864 2014 2000 A 0 0 0 0 0 0 0 0 0 0 0 0 0 0 0 0 0 0 0 0 0 0 0 0 0 0 0 0 unit
S 753 1 3 0 0 72 1 751 6653 2014 2004 A 0 0 0 0 0 0 0 0 0 0 0 0 0 0 0 0 0 0 0 0 0 0 0 0 0 0 0 0 pointer
Z
Z
