V26 iotk_module
15 iotk_module.F90 S582 0
04/24/2012  15:47:12
use iotk_write_interf private
use iotk_dat_interf private
use iotk_fmt_interf private
use iotk_scan_interf private
use iotk_unit_interf private
use iotk_attr_interf private
use iotk_files_interf private
use iotk_error_interf private
use iotk_tool_interf private
use iotk_misc_interf private
use iotk_base private
use iotk_write_interf private
use iotk_dat_interf private
use iotk_fmt_interf private
use iotk_scan_interf private
use iotk_unit_interf private
use iotk_attr_interf private
use iotk_files_interf private
use iotk_error_interf private
use iotk_tool_interf private
use iotk_misc_interf private
use iotk_base private
enduse
S 582 24 0 0 0 6 1 0 4658 15 0 A 0 0 0 0 0 0 0 0 0 0 0 0 95 0 0 0 0 0 0 0 0 20 0 0 0 0 0 0 iotk_module
R 638 16 1 iotk_base iotk_version
R 645 16 8 iotk_base iotk_maxrank_hard
R 646 16 9 iotk_base iotk_maxrank
R 647 16 10 iotk_base iotk_character_defkind
R 648 16 11 iotk_base iotk_logical_defkind
R 649 16 12 iotk_base iotk_integer_defkind
R 650 16 13 iotk_base iotk_real_defkind
R 651 16 14 iotk_base iotk_complex_defkind
R 659 16 22 iotk_base iotk_header_kind
R 660 16 23 iotk_base iotk_newline
R 661 16 24 iotk_base iotk_eos
R 663 16 26 iotk_base iotk_taglenx
R 664 16 27 iotk_base iotk_namlenx
R 665 16 28 iotk_base iotk_attlenx
R 666 16 29 iotk_base iotk_vallenx
R 668 16 31 iotk_base iotk_fillenx
R 693 25 56 iotk_base iotk_dummytype
R 730 19 1 iotk_misc_interf iotk_copy_tag
R 732 19 3 iotk_misc_interf iotk_set
R 733 19 4 iotk_misc_interf iotk_get
R 736 19 7 iotk_misc_interf iotk_print_kinds
R 738 19 9 iotk_misc_interf iotk_index
R 743 19 14 iotk_misc_interf iotk_readcmdline
R 744 19 15 iotk_misc_interf iotk_init_static_vars
R 843 19 2 iotk_error_interf iotk_error_clear
R 846 19 5 iotk_error_interf iotk_error_print
R 853 19 12 iotk_error_interf iotk_error_pool_pending
R 950 19 1 iotk_attr_interf iotk_read
R 952 19 3 iotk_attr_interf iotk_write_attr
R 953 19 4 iotk_attr_interf iotk_scan_attr
R 1727 19 1 iotk_dat_interf iotk_write_dat
R 1728 19 2 iotk_dat_interf iotk_scan_dat
R 2661 19 1 iotk_files_interf iotk_copyfile
R 2662 19 2 iotk_files_interf iotk_link
R 2663 19 3 iotk_files_interf iotk_open_write
R 2664 19 4 iotk_files_interf iotk_close_write
R 2665 19 5 iotk_files_interf iotk_open_read
R 2666 19 6 iotk_files_interf iotk_close_read
R 2717 19 1 iotk_write_interf iotk_write_begin
R 2718 19 2 iotk_write_interf iotk_write_end
R 2719 19 3 iotk_write_interf iotk_write_pi
R 2720 19 4 iotk_write_interf iotk_write_comment
R 2721 19 5 iotk_write_interf iotk_write_empty
R 2758 19 1 iotk_scan_interf iotk_scan_begin
R 2759 19 2 iotk_scan_interf iotk_scan_end
R 2760 19 3 iotk_scan_interf iotk_scan_pi
R 2761 19 4 iotk_scan_interf iotk_scan_empty
R 2764 19 7 iotk_scan_interf iotk_getline
R 2814 19 1 iotk_unit_interf iotk_free_unit
R 2815 19 2 iotk_unit_interf iotk_phys_unit
R 2816 19 3 iotk_unit_interf iotk_unit_print
R 2821 19 8 iotk_unit_interf iotk_unit_get
R 2870 19 1 iotk_fmt_interf iotk_basefmt
R 2884 19 1 iotk_tool_interf iotk_tool
S 2908 23 0 0 0 6 693 582 5963 0 0 A 0 0 0 0 0 0 0 0 0 0 0 0 0 0 0 0 0 0 0 0 0 0 0 582 0 0 0 0 iotk_dummytype
S 2909 23 0 0 0 6 744 582 6776 0 0 A 0 0 0 0 0 0 0 0 0 0 0 0 0 0 0 0 0 0 0 0 0 0 0 582 0 0 0 0 iotk_init_static_vars
S 2910 23 0 0 0 6 743 582 6759 0 0 A 0 0 0 0 0 0 0 0 0 0 0 0 0 0 0 0 0 0 0 0 0 0 0 582 0 0 0 0 iotk_readcmdline
S 2911 23 0 0 0 6 2884 582 14842 0 0 A 0 0 0 0 0 0 0 0 0 0 0 0 0 0 0 0 0 0 0 0 0 0 0 582 0 0 0 0 iotk_tool
S 2912 23 0 0 0 6 853 582 7516 0 0 A 0 0 0 0 0 0 0 0 0 0 0 0 0 0 0 0 0 0 0 0 0 0 0 582 0 0 0 0 iotk_error_pool_pending
S 2913 23 0 0 0 6 846 582 7398 0 0 A 0 0 0 0 0 0 0 0 0 0 0 0 0 0 0 0 0 0 0 0 0 0 0 582 0 0 0 0 iotk_error_print
S 2914 23 0 0 0 6 843 582 7348 0 0 A 0 0 0 0 0 0 0 0 0 0 0 0 0 0 0 0 0 0 0 0 0 0 0 582 0 0 0 0 iotk_error_clear
S 2915 23 0 0 0 6 661 582 5648 0 0 A 0 0 0 0 0 0 0 0 0 0 0 0 0 0 0 0 0 0 0 0 0 0 0 582 0 0 0 0 iotk_eos
S 2916 23 0 0 0 6 660 582 5635 0 0 A 0 0 0 0 0 0 0 0 0 0 0 0 0 0 0 0 0 0 0 0 0 0 0 582 0 0 0 0 iotk_newline
S 2917 23 0 0 0 6 2661 582 13726 0 0 A 0 0 0 0 0 0 0 0 0 0 0 0 0 0 0 0 0 0 0 0 0 0 0 582 0 0 0 0 iotk_copyfile
S 2918 23 0 0 0 6 950 582 8220 0 0 A 0 0 0 0 0 0 0 0 0 0 0 0 0 0 0 0 0 0 0 0 0 0 0 582 0 0 0 0 iotk_read
S 2919 23 0 0 0 6 2662 582 13740 0 0 A 0 0 0 0 0 0 0 0 0 0 0 0 0 0 0 0 0 0 0 0 0 0 0 582 0 0 0 0 iotk_link
S 2920 23 0 0 0 6 2815 582 14445 0 0 A 0 0 0 0 0 0 0 0 0 0 0 0 0 0 0 0 0 0 0 0 0 0 0 582 0 0 0 0 iotk_phys_unit
S 2921 23 0 0 0 6 2764 582 14297 0 0 A 0 0 0 0 0 0 0 0 0 0 0 0 0 0 0 0 0 0 0 0 0 0 0 582 0 0 0 0 iotk_getline
S 2922 23 0 0 0 6 733 582 6598 0 0 A 0 0 0 0 0 0 0 0 0 0 0 0 0 0 0 0 0 0 0 0 0 0 0 582 0 0 0 0 iotk_get
S 2923 23 0 0 0 6 732 582 6589 0 0 A 0 0 0 0 0 0 0 0 0 0 0 0 0 0 0 0 0 0 0 0 0 0 0 582 0 0 0 0 iotk_set
S 2924 23 0 0 0 6 736 582 6639 0 0 A 0 0 0 0 0 0 0 0 0 0 0 0 0 0 0 0 0 0 0 0 0 0 0 582 0 0 0 0 iotk_print_kinds
S 2925 23 0 0 0 6 645 582 5389 0 0 A 0 0 0 0 0 0 0 0 0 0 0 0 0 0 0 0 0 0 0 0 0 0 0 582 0 0 0 0 iotk_maxrank_hard
S 2926 23 0 0 0 6 646 582 5407 0 0 A 0 0 0 0 0 0 0 0 0 0 0 0 0 0 0 0 0 0 0 0 0 0 0 582 0 0 0 0 iotk_maxrank
S 2927 23 0 0 0 6 651 582 5503 0 0 A 0 0 0 0 0 0 0 0 0 0 0 0 0 0 0 0 0 0 0 0 0 0 0 582 0 0 0 0 iotk_complex_defkind
S 2928 23 0 0 0 6 650 582 5485 0 0 A 0 0 0 0 0 0 0 0 0 0 0 0 0 0 0 0 0 0 0 0 0 0 0 582 0 0 0 0 iotk_real_defkind
S 2929 23 0 0 0 6 649 582 5464 0 0 A 0 0 0 0 0 0 0 0 0 0 0 0 0 0 0 0 0 0 0 0 0 0 0 582 0 0 0 0 iotk_integer_defkind
S 2930 23 0 0 0 6 648 582 5443 0 0 A 0 0 0 0 0 0 0 0 0 0 0 0 0 0 0 0 0 0 0 0 0 0 0 582 0 0 0 0 iotk_logical_defkind
S 2931 23 0 0 0 6 647 582 5420 0 0 A 0 0 0 0 0 0 0 0 0 0 0 0 0 0 0 0 0 0 0 0 0 0 0 582 0 0 0 0 iotk_character_defkind
S 2932 23 0 0 0 6 2870 582 14792 0 0 A 0 0 0 0 0 0 0 0 0 0 0 0 0 0 0 0 0 0 0 0 0 0 0 582 0 0 0 0 iotk_basefmt
S 2933 23 0 0 0 6 2814 582 14430 0 0 A 0 0 0 0 0 0 0 0 0 0 0 0 0 0 0 0 0 0 0 0 0 0 0 582 0 0 0 0 iotk_free_unit
S 2934 23 0 0 0 6 2821 582 14534 0 0 A 0 0 0 0 0 0 0 0 0 0 0 0 0 0 0 0 0 0 0 0 0 0 0 582 0 0 0 0 iotk_unit_get
S 2935 23 0 0 0 6 2816 582 14460 0 0 A 0 0 0 0 0 0 0 0 0 0 0 0 0 0 0 0 0 0 0 0 0 0 0 582 0 0 0 0 iotk_unit_print
S 2936 23 0 0 0 6 730 582 6560 0 0 A 0 0 0 0 0 0 0 0 0 0 0 0 0 0 0 0 0 0 0 0 0 0 0 582 0 0 0 0 iotk_copy_tag
S 2937 23 0 0 0 6 659 582 5618 0 0 A 0 0 0 0 0 0 0 0 0 0 0 0 0 0 0 0 0 0 0 0 0 0 0 582 0 0 0 0 iotk_header_kind
S 2938 23 0 0 0 6 638 582 5253 0 0 A 0 0 0 0 0 0 0 0 0 0 0 0 0 0 0 0 0 0 0 0 0 0 0 582 0 0 0 0 iotk_version
S 2939 23 0 0 0 6 738 582 6677 0 0 A 0 0 0 0 0 0 0 0 0 0 0 0 0 0 0 0 0 0 0 0 0 0 0 582 0 0 0 0 iotk_index
S 2940 23 0 0 0 6 668 582 5736 0 0 A 0 0 0 0 0 0 0 0 0 0 0 0 0 0 0 0 0 0 0 0 0 0 0 582 0 0 0 0 iotk_fillenx
S 2941 23 0 0 0 6 664 582 5684 0 0 A 0 0 0 0 0 0 0 0 0 0 0 0 0 0 0 0 0 0 0 0 0 0 0 582 0 0 0 0 iotk_namlenx
S 2942 23 0 0 0 6 666 582 5710 0 0 A 0 0 0 0 0 0 0 0 0 0 0 0 0 0 0 0 0 0 0 0 0 0 0 582 0 0 0 0 iotk_vallenx
S 2943 23 0 0 0 6 665 582 5697 0 0 A 0 0 0 0 0 0 0 0 0 0 0 0 0 0 0 0 0 0 0 0 0 0 0 582 0 0 0 0 iotk_attlenx
S 2944 23 0 0 0 6 663 582 5671 0 0 A 0 0 0 0 0 0 0 0 0 0 0 0 0 0 0 0 0 0 0 0 0 0 0 582 0 0 0 0 iotk_taglenx
S 2945 23 0 0 0 6 953 582 8257 0 0 A 0 0 0 0 0 0 0 0 0 0 0 0 0 0 0 0 0 0 0 0 0 0 0 582 0 0 0 0 iotk_scan_attr
S 2946 23 0 0 0 6 1728 582 11545 0 0 A 0 0 0 0 0 0 0 0 0 0 0 0 0 0 0 0 0 0 0 0 0 0 0 582 0 0 0 0 iotk_scan_dat
S 2947 23 0 0 0 6 2761 582 14257 0 0 A 0 0 0 0 0 0 0 0 0 0 0 0 0 0 0 0 0 0 0 0 0 0 0 582 0 0 0 0 iotk_scan_empty
S 2948 23 0 0 0 6 2760 582 14244 0 0 A 0 0 0 0 0 0 0 0 0 0 0 0 0 0 0 0 0 0 0 0 0 0 0 582 0 0 0 0 iotk_scan_pi
S 2949 23 0 0 0 6 2759 582 14230 0 0 A 0 0 0 0 0 0 0 0 0 0 0 0 0 0 0 0 0 0 0 0 0 0 0 582 0 0 0 0 iotk_scan_end
S 2950 23 0 0 0 6 2758 582 14214 0 0 A 0 0 0 0 0 0 0 0 0 0 0 0 0 0 0 0 0 0 0 0 0 0 0 582 0 0 0 0 iotk_scan_begin
S 2951 23 0 0 0 6 952 582 8241 0 0 A 0 0 0 0 0 0 0 0 0 0 0 0 0 0 0 0 0 0 0 0 0 0 0 582 0 0 0 0 iotk_write_attr
S 2952 23 0 0 0 6 1727 582 11530 0 0 A 0 0 0 0 0 0 0 0 0 0 0 0 0 0 0 0 0 0 0 0 0 0 0 582 0 0 0 0 iotk_write_dat
S 2953 23 0 0 0 6 2721 582 14060 0 0 A 0 0 0 0 0 0 0 0 0 0 0 0 0 0 0 0 0 0 0 0 0 0 0 582 0 0 0 0 iotk_write_empty
S 2954 23 0 0 0 6 2720 582 14041 0 0 A 0 0 0 0 0 0 0 0 0 0 0 0 0 0 0 0 0 0 0 0 0 0 0 582 0 0 0 0 iotk_write_comment
S 2955 23 0 0 0 6 2719 582 14027 0 0 A 0 0 0 0 0 0 0 0 0 0 0 0 0 0 0 0 0 0 0 0 0 0 0 582 0 0 0 0 iotk_write_pi
S 2956 23 0 0 0 6 2718 582 14012 0 0 A 0 0 0 0 0 0 0 0 0 0 0 0 0 0 0 0 0 0 0 0 0 0 0 582 0 0 0 0 iotk_write_end
S 2957 23 0 0 0 6 2717 582 13995 0 0 A 0 0 0 0 0 0 0 0 0 0 0 0 0 0 0 0 0 0 0 0 0 0 0 582 0 0 0 0 iotk_write_begin
S 2958 23 0 0 0 6 2666 582 13798 0 0 A 0 0 0 0 0 0 0 0 0 0 0 0 0 0 0 0 0 0 0 0 0 0 0 582 0 0 0 0 iotk_close_read
S 2959 23 0 0 0 6 2664 582 13766 0 0 A 0 0 0 0 0 0 0 0 0 0 0 0 0 0 0 0 0 0 0 0 0 0 0 582 0 0 0 0 iotk_close_write
S 2960 23 0 0 0 6 2665 582 13783 0 0 A 0 0 0 0 0 0 0 0 0 0 0 0 0 0 0 0 0 0 0 0 0 0 0 582 0 0 0 0 iotk_open_read
S 2961 23 0 0 0 6 2663 582 13750 0 0 A 0 0 0 0 0 0 0 0 0 0 0 0 0 0 0 0 0 0 0 0 0 0 0 582 0 0 0 0 iotk_open_write
Z
Z
