V26 w90_hamiltonian
15 hamiltonian.F90 S582 0
04/27/2012  15:02:57
use w90_constants private
use w90_constants private
enduse
D 56 21 12 3 69 68 0 1 0 0 1
 44 48 62 44 48 46
 50 54 64 50 54 52
 56 60 66 56 60 58
D 59 21 6 1 0 41 0 0 0 0 0
 0 41 0 3 41 0
D 62 21 6 2 85 84 0 1 0 0 1
 74 77 82 74 77 75
 78 81 83 78 81 79
D 65 21 6 1 0 72 0 0 0 0 0
 0 72 0 3 72 0
D 68 21 6 1 95 94 0 1 0 0 1
 89 92 93 89 92 90
D 71 21 6 1 0 87 0 0 0 0 0
 0 87 0 3 87 0
D 74 21 9 2 110 109 0 1 0 0 1
 99 102 107 99 102 100
 103 106 108 103 106 104
D 77 21 6 1 0 72 0 0 0 0 0
 0 72 0 3 72 0
D 80 21 12 3 138 137 0 1 0 0 1
 122 125 134 122 125 123
 126 129 135 126 129 127
 130 133 136 130 133 131
D 83 21 6 1 0 41 0 0 0 0 0
 0 41 0 3 41 0
S 582 24 0 0 0 9 1 0 4658 10015 0 A 0 0 0 0 0 0 0 0 0 0 0 0 0 0 0 0 0 0 0 0 0 13 0 0 0 0 0 0 w90_hamiltonian
S 584 23 0 0 0 9 598 582 4688 14 0 A 0 0 0 0 0 0 0 0 0 0 0 0 0 0 0 0 0 0 0 0 0 0 0 582 0 0 0 0 dp
S 585 3 0 0 0 6 1 1 0 0 0 A 0 0 0 0 0 0 0 0 0 8 0 0 0 0 0 0 0 0 0 0 0 0 0 0 0 0 0 0 6
R 598 16 1 w90_constants dp
S 611 7 6 0 0 56 1 582 4760 10a00024 51 A 0 0 0 0 0 0 617 0 0 0 619 0 0 0 0 0 0 0 0 616 0 0 618 582 0 0 0 0 ham_r
S 612 6 4 0 0 6 613 582 4766 40800016 0 A 0 0 0 0 0 0 0 0 0 0 0 0 672 0 0 0 0 0 0 0 0 0 0 582 0 0 0 0 z_b_0
S 613 6 4 0 0 6 614 582 4772 40800016 0 A 0 0 0 0 0 4 0 0 0 0 0 0 672 0 0 0 0 0 0 0 0 0 0 582 0 0 0 0 z_b_1
S 614 6 4 0 0 6 631 582 4778 40800016 0 A 0 0 0 0 0 8 0 0 0 0 0 0 672 0 0 0 0 0 0 0 0 0 0 582 0 0 0 0 z_b_2
S 615 3 0 0 0 6 0 1 0 0 0 A 0 0 0 0 0 0 0 0 0 30 0 0 0 0 0 0 0 0 0 0 0 0 0 0 0 0 0 0 6
S 616 8 4 0 0 59 635 582 4784 40822004 1020 A 0 0 0 0 0 0 0 0 0 0 0 0 673 0 0 0 0 0 0 0 0 0 0 582 0 0 0 0 ham_r$sd
S 617 6 4 0 0 7 618 582 4793 40802001 1020 A 0 0 0 0 0 0 0 0 0 0 0 0 673 0 0 0 0 0 0 0 0 0 0 582 0 0 0 0 ham_r$p
S 618 6 4 0 0 7 616 582 4801 40802000 1020 A 0 0 0 0 0 0 0 0 0 0 0 0 673 0 0 0 0 0 0 0 0 0 0 582 0 0 0 0 ham_r$o
S 619 22 1 0 0 9 1 582 4809 40000000 1000 A 0 0 0 0 0 0 0 611 0 0 0 0 616 0 0 0 0 0 0 0 0 0 0 582 0 0 0 0 ham_r$arrdsc
S 620 3 0 0 0 6 0 1 0 0 0 A 0 0 0 0 0 0 0 0 0 13 0 0 0 0 0 0 0 0 0 0 0 0 0 0 0 0 0 0 6
S 621 3 0 0 0 6 0 1 0 0 0 A 0 0 0 0 0 0 0 0 0 14 0 0 0 0 0 0 0 0 0 0 0 0 0 0 0 0 0 0 6
S 622 3 0 0 0 6 0 1 0 0 0 A 0 0 0 0 0 0 0 0 0 19 0 0 0 0 0 0 0 0 0 0 0 0 0 0 0 0 0 0 6
S 623 3 0 0 0 6 0 1 0 0 0 A 0 0 0 0 0 0 0 0 0 20 0 0 0 0 0 0 0 0 0 0 0 0 0 0 0 0 0 0 6
S 624 3 0 0 0 6 0 1 0 0 0 A 0 0 0 0 0 0 0 0 0 25 0 0 0 0 0 0 0 0 0 0 0 0 0 0 0 0 0 0 6
S 625 3 0 0 0 6 0 1 0 0 0 A 0 0 0 0 0 0 0 0 0 26 0 0 0 0 0 0 0 0 0 0 0 0 0 0 0 0 0 0 6
S 626 3 0 0 0 6 0 1 0 0 0 A 0 0 0 0 0 0 0 0 0 17 0 0 0 0 0 0 0 0 0 0 0 0 0 0 0 0 0 0 6
S 627 3 0 0 0 6 0 1 0 0 0 A 0 0 0 0 0 0 0 0 0 23 0 0 0 0 0 0 0 0 0 0 0 0 0 0 0 0 0 0 6
S 628 3 0 0 0 6 0 1 0 0 0 A 0 0 0 0 0 0 0 0 0 29 0 0 0 0 0 0 0 0 0 0 0 0 0 0 0 0 0 0 6
S 629 3 0 0 0 6 0 1 0 0 0 A 0 0 0 0 0 0 0 0 0 7 0 0 0 0 0 0 0 0 0 0 0 0 0 0 0 0 0 0 6
S 630 7 6 0 0 62 1 582 4822 10a00024 51 A 0 0 0 0 0 0 635 0 0 0 637 0 0 0 0 0 0 0 0 634 0 0 636 582 0 0 0 0 irvec
S 631 6 4 0 0 6 632 582 4828 40800016 0 A 0 0 0 0 0 12 0 0 0 0 0 0 672 0 0 0 0 0 0 0 0 0 0 582 0 0 0 0 z_b_3
S 632 6 4 0 0 6 639 582 4834 40800016 0 A 0 0 0 0 0 16 0 0 0 0 0 0 672 0 0 0 0 0 0 0 0 0 0 582 0 0 0 0 z_b_4
S 633 3 0 0 0 6 0 1 0 0 0 A 0 0 0 0 0 0 0 0 0 24 0 0 0 0 0 0 0 0 0 0 0 0 0 0 0 0 0 0 6
S 634 8 4 0 0 65 642 582 4840 40822004 1020 A 0 0 0 0 0 0 0 0 0 0 0 0 673 0 0 0 0 0 0 0 0 0 0 582 0 0 0 0 irvec$sd
S 635 6 4 0 0 7 636 582 4849 40802001 1020 A 0 0 0 0 0 0 0 0 0 0 0 0 673 0 0 0 0 0 0 0 0 0 0 582 0 0 0 0 irvec$p
S 636 6 4 0 0 7 634 582 4857 40802000 1020 A 0 0 0 0 0 0 0 0 0 0 0 0 673 0 0 0 0 0 0 0 0 0 0 582 0 0 0 0 irvec$o
S 637 22 1 0 0 6 1 582 4865 40000000 1000 A 0 0 0 0 0 0 0 630 0 0 0 0 634 0 0 0 0 0 0 0 0 0 0 582 0 0 0 0 irvec$arrdsc
S 638 7 6 0 0 68 1 582 4878 10a00024 51 A 0 0 0 0 0 0 642 0 0 0 644 0 0 0 0 0 0 0 0 641 0 0 643 582 0 0 0 0 ndegen
S 639 6 4 0 0 6 647 582 4885 40800016 0 A 0 0 0 0 0 20 0 0 0 0 0 0 672 0 0 0 0 0 0 0 0 0 0 582 0 0 0 0 z_b_5
S 640 3 0 0 0 6 0 1 0 0 0 A 0 0 0 0 0 0 0 0 0 18 0 0 0 0 0 0 0 0 0 0 0 0 0 0 0 0 0 0 6
S 641 8 4 0 0 71 650 582 4891 40822004 1020 A 0 0 0 0 0 0 0 0 0 0 0 0 673 0 0 0 0 0 0 0 0 0 0 582 0 0 0 0 ndegen$sd
S 642 6 4 0 0 7 643 582 4901 40802001 1020 A 0 0 0 0 0 0 0 0 0 0 0 0 673 0 0 0 0 0 0 0 0 0 0 582 0 0 0 0 ndegen$p
S 643 6 4 0 0 7 641 582 4910 40802000 1020 A 0 0 0 0 0 0 0 0 0 0 0 0 673 0 0 0 0 0 0 0 0 0 0 582 0 0 0 0 ndegen$o
S 644 22 1 0 0 6 1 582 4919 40000000 1000 A 0 0 0 0 0 0 0 638 0 0 0 0 641 0 0 0 0 0 0 0 0 0 0 582 0 0 0 0 ndegen$arrdsc
S 645 6 4 0 0 6 1 582 4933 24 0 A 0 0 0 0 0 0 0 0 0 0 0 0 673 0 0 0 0 0 0 0 0 0 0 582 0 0 0 0 nrpts
S 646 7 6 0 0 74 1 582 4939 10a00024 51 A 0 0 0 0 0 0 650 0 0 0 652 0 0 0 0 0 0 0 0 649 0 0 651 582 0 0 0 0 wannier_centres_translated
S 647 6 4 0 0 6 648 582 4966 40800016 0 A 0 0 0 0 0 24 0 0 0 0 0 0 672 0 0 0 0 0 0 0 0 0 0 582 0 0 0 0 z_b_6
S 648 6 4 0 0 6 665 582 4972 40800016 0 A 0 0 0 0 0 28 0 0 0 0 0 0 672 0 0 0 0 0 0 0 0 0 0 582 0 0 0 0 z_b_7
S 649 8 4 0 0 77 645 582 4978 40822004 1020 A 0 0 0 0 0 0 0 0 0 0 0 0 673 0 0 0 0 0 0 0 0 0 0 582 0 0 0 0 wannier_centres_translated$sd
S 650 6 4 0 0 7 651 582 5008 40802001 1020 A 0 0 0 0 0 0 0 0 0 0 0 0 673 0 0 0 0 0 0 0 0 0 0 582 0 0 0 0 wannier_centres_translated$p
S 651 6 4 0 0 7 649 582 5037 40802000 1020 A 0 0 0 0 0 0 0 0 0 0 0 0 673 0 0 0 0 0 0 0 0 0 0 582 0 0 0 0 wannier_centres_translated$o
S 652 22 1 0 0 9 1 582 5066 40000000 1000 A 0 0 0 0 0 0 0 646 0 0 0 0 649 0 0 0 0 0 0 0 0 0 0 582 0 0 0 0 wannier_centres_translated$arrdsc
S 653 27 0 0 0 9 679 582 5100 0 0 A 0 0 0 0 0 0 0 0 0 0 0 0 0 0 0 0 0 0 0 0 0 0 0 582 0 0 0 0 hamiltonian_get_hr
S 654 27 0 0 0 9 681 582 5119 0 0 A 0 0 0 0 0 0 0 0 0 0 0 0 0 0 0 0 0 0 0 0 0 0 0 582 0 0 0 0 hamiltonian_write_hr
S 655 27 0 0 0 9 675 582 5140 0 0 A 0 0 0 0 0 0 0 0 0 0 0 0 0 0 0 0 0 0 0 0 0 0 0 582 0 0 0 0 hamiltonian_setup
S 656 27 0 0 0 9 677 582 5158 0 0 A 0 0 0 0 0 0 0 0 0 0 0 0 0 0 0 0 0 0 0 0 0 0 0 582 0 0 0 0 hamiltonian_dealloc
S 657 6 4 0 0 16 659 582 5178 80003c 0 A 0 0 0 0 0 0 0 0 0 0 0 0 674 0 0 0 0 0 0 0 0 0 0 582 0 0 0 0 ham_have_setup
S 659 6 4 0 0 16 660 582 5193 80003c 0 A 0 0 0 0 0 4 0 0 0 0 0 0 674 0 0 0 0 0 0 0 0 0 0 582 0 0 0 0 have_translated
S 660 6 4 0 0 16 661 582 5209 80003c 0 A 0 0 0 0 0 8 0 0 0 0 0 0 674 0 0 0 0 0 0 0 0 0 0 582 0 0 0 0 use_translation
S 661 6 4 0 0 16 662 582 5225 80003c 0 A 0 0 0 0 0 12 0 0 0 0 0 0 674 0 0 0 0 0 0 0 0 0 0 582 0 0 0 0 have_ham_r
S 662 6 4 0 0 16 663 582 5236 80003c 0 A 0 0 0 0 0 16 0 0 0 0 0 0 674 0 0 0 0 0 0 0 0 0 0 582 0 0 0 0 have_ham_k
S 663 6 4 0 0 16 1 582 5247 80003c 0 A 0 0 0 0 0 20 0 0 0 0 0 0 674 0 0 0 0 0 0 0 0 0 0 582 0 0 0 0 hr_written
S 664 7 6 0 0 80 1 582 5258 10a00034 51 A 0 0 0 0 0 0 669 0 0 0 671 0 0 0 0 0 0 0 0 668 0 0 670 582 0 0 0 0 ham_k
S 665 6 4 0 0 6 666 582 5264 40800016 0 A 0 0 0 0 0 32 0 0 0 0 0 0 672 0 0 0 0 0 0 0 0 0 0 582 0 0 0 0 z_b_8
S 666 6 4 0 0 6 667 582 5270 40800016 0 A 0 0 0 0 0 36 0 0 0 0 0 0 672 0 0 0 0 0 0 0 0 0 0 582 0 0 0 0 z_b_9
S 667 6 4 0 0 6 1 582 5276 40800016 0 A 0 0 0 0 0 40 0 0 0 0 0 0 672 0 0 0 0 0 0 0 0 0 0 582 0 0 0 0 z_b_10
S 668 8 4 0 0 83 612 582 5283 40822014 1020 A 0 0 0 0 0 0 0 0 0 0 0 0 672 0 0 0 0 0 0 0 0 0 0 582 0 0 0 0 ham_k$sd
S 669 6 4 0 0 7 670 582 5292 40802011 1020 A 0 0 0 0 0 0 0 0 0 0 0 0 672 0 0 0 0 0 0 0 0 0 0 582 0 0 0 0 ham_k$p
S 670 6 4 0 0 7 668 582 5300 40802010 1020 A 0 0 0 0 0 0 0 0 0 0 0 0 672 0 0 0 0 0 0 0 0 0 0 582 0 0 0 0 ham_k$o
S 671 22 1 0 0 9 1 582 5308 40000000 1000 A 0 0 0 0 0 0 0 664 0 0 0 0 668 0 0 0 0 0 0 0 0 0 0 582 0 0 0 0 ham_k$arrdsc
S 672 11 0 0 0 9 1 582 5321 40800010 801000 A 0 0 0 0 0 180 0 0 669 667 0 0 0 0 0 0 0 0 0 0 0 0 0 0 0 0 0 0 _w90_hamiltonian$4
S 673 11 0 0 0 9 672 582 5340 40800000 801000 A 0 0 0 0 0 452 0 0 617 645 0 0 0 0 0 0 0 0 0 0 0 0 0 0 0 0 0 0 _w90_hamiltonian$0
S 674 11 0 0 0 9 673 582 5359 40800010 801000 A 0 0 0 0 0 24 0 0 657 663 0 0 0 0 0 0 0 0 0 0 0 0 0 0 0 0 0 0 _w90_hamiltonian$12
S 675 23 5 0 0 0 676 582 5140 0 0 A 0 0 0 0 0 0 0 0 0 0 0 0 0 0 0 0 0 0 0 0 0 0 0 0 0 0 0 0 hamiltonian_setup
S 676 14 5 0 0 0 1 675 5140 0 400000 A 0 0 0 0 0 0 0 2 0 0 0 0 0 0 0 0 0 0 0 0 0 60 0 582 0 0 0 0 hamiltonian_setup
F 676 0
S 677 23 5 0 0 0 678 582 5158 0 0 A 0 0 0 0 0 0 0 0 0 0 0 0 0 0 0 0 0 0 0 0 0 0 0 0 0 0 0 0 hamiltonian_dealloc
S 678 14 5 0 0 0 1 677 5158 0 400000 A 0 0 0 0 0 0 0 3 0 0 0 0 0 0 0 0 0 0 0 0 0 115 0 582 0 0 0 0 hamiltonian_dealloc
F 678 0
S 679 23 5 0 0 0 680 582 5100 0 0 A 0 0 0 0 0 0 0 0 0 0 0 0 0 0 0 0 0 0 0 0 0 0 0 0 0 0 0 0 hamiltonian_get_hr
S 680 14 5 0 0 0 1 679 5100 0 400000 A 0 0 0 0 0 0 0 4 0 0 0 0 0 0 0 0 0 0 0 0 0 150 0 582 0 0 0 0 hamiltonian_get_hr
F 680 0
S 681 23 5 0 0 0 682 582 5119 0 0 A 0 0 0 0 0 0 0 0 0 0 0 0 0 0 0 0 0 0 0 0 0 0 0 0 0 0 0 0 hamiltonian_write_hr
S 682 14 5 0 0 0 1 681 5119 0 400000 A 0 0 0 0 0 0 0 5 0 0 0 0 0 0 0 0 0 0 0 0 0 395 0 582 0 0 0 0 hamiltonian_write_hr
F 682 0
S 683 23 5 0 0 0 685 582 5379 10 0 A 0 0 0 0 0 0 0 0 0 0 0 0 0 0 0 0 0 0 0 0 0 0 0 0 0 0 0 0 hamiltonian_wigner_seitz
S 684 1 3 1 0 16 1 683 5404 14 3000 A 0 0 0 0 0 0 0 0 0 0 0 0 0 0 0 0 0 0 0 0 0 0 0 0 0 0 0 0 count_pts
S 685 14 5 0 0 0 1 683 5379 10 400000 A 0 0 0 0 0 0 0 6 1 0 0 0 0 0 0 0 0 0 0 0 0 444 0 582 0 0 0 0 hamiltonian_wigner_seitz
F 685 1 684
A 13 2 0 0 0 6 585 0 0 0 13 0 0 0 0 0 0 0 0 0
A 41 2 0 0 0 6 615 0 0 0 41 0 0 0 0 0 0 0 0 0
A 42 2 0 0 0 6 620 0 0 0 42 0 0 0 0 0 0 0 0 0
A 43 1 0 1 0 59 616 0 0 0 0 0 0 0 0 0 0 0 0 0
A 44 10 0 0 0 6 43 1 0 0 0 0 0 0 0 0 0 0 0 0
X 1 42
A 45 2 0 0 0 6 621 0 0 0 45 0 0 0 0 0 0 0 0 0
A 46 10 0 0 44 6 43 4 0 0 0 0 0 0 0 0 0 0 0 0
X 1 45
A 47 4 0 0 0 6 46 0 3 0 0 0 0 2 0 0 0 0 0 0
A 48 4 0 0 0 6 44 0 47 0 0 0 0 1 0 0 0 0 0 0
A 49 2 0 0 0 6 622 0 0 0 49 0 0 0 0 0 0 0 0 0
A 50 10 0 0 46 6 43 7 0 0 0 0 0 0 0 0 0 0 0 0
X 1 49
A 51 2 0 0 0 6 623 0 0 0 51 0 0 0 0 0 0 0 0 0
A 52 10 0 0 50 6 43 10 0 0 0 0 0 0 0 0 0 0 0 0
X 1 51
A 53 4 0 0 0 6 52 0 3 0 0 0 0 2 0 0 0 0 0 0
A 54 4 0 0 0 6 50 0 53 0 0 0 0 1 0 0 0 0 0 0
A 55 2 0 0 0 6 624 0 0 0 55 0 0 0 0 0 0 0 0 0
A 56 10 0 0 52 6 43 13 0 0 0 0 0 0 0 0 0 0 0 0
X 1 55
A 57 2 0 0 0 6 625 0 0 0 57 0 0 0 0 0 0 0 0 0
A 58 10 0 0 56 6 43 16 0 0 0 0 0 0 0 0 0 0 0 0
X 1 57
A 59 4 0 0 0 6 58 0 3 0 0 0 0 2 0 0 0 0 0 0
A 60 4 0 0 0 6 56 0 59 0 0 0 0 1 0 0 0 0 0 0
A 61 2 0 0 0 6 626 0 0 0 61 0 0 0 0 0 0 0 0 0
A 62 10 0 0 58 6 43 19 0 0 0 0 0 0 0 0 0 0 0 0
X 1 61
A 63 2 0 0 0 6 627 0 0 0 63 0 0 0 0 0 0 0 0 0
A 64 10 0 0 62 6 43 22 0 0 0 0 0 0 0 0 0 0 0 0
X 1 63
A 65 2 0 0 0 6 628 0 0 0 65 0 0 0 0 0 0 0 0 0
A 66 10 0 0 64 6 43 25 0 0 0 0 0 0 0 0 0 0 0 0
X 1 65
A 67 2 0 0 0 6 629 0 0 0 67 0 0 0 0 0 0 0 0 0
A 68 10 0 0 66 6 43 28 0 0 0 0 0 0 0 0 0 0 0 0
X 1 67
A 69 10 0 0 68 6 43 31 0 0 0 0 0 0 0 0 0 0 0 0
X 1 13
A 72 2 0 0 0 6 633 0 0 0 72 0 0 0 0 0 0 0 0 0
A 73 1 0 3 0 65 634 0 0 0 0 0 0 0 0 0 0 0 0 0
A 74 10 0 0 0 6 73 1 0 0 0 0 0 0 0 0 0 0 0 0
X 1 42
A 75 10 0 0 74 6 73 4 0 0 0 0 0 0 0 0 0 0 0 0
X 1 45
A 76 4 0 0 0 6 75 0 3 0 0 0 0 2 0 0 0 0 0 0
A 77 4 0 0 0 6 74 0 76 0 0 0 0 1 0 0 0 0 0 0
A 78 10 0 0 75 6 73 7 0 0 0 0 0 0 0 0 0 0 0 0
X 1 49
A 79 10 0 0 78 6 73 10 0 0 0 0 0 0 0 0 0 0 0 0
X 1 51
A 80 4 0 0 0 6 79 0 3 0 0 0 0 2 0 0 0 0 0 0
A 81 4 0 0 0 6 78 0 80 0 0 0 0 1 0 0 0 0 0 0
A 82 10 0 0 79 6 73 19 0 0 0 0 0 0 0 0 0 0 0 0
X 1 61
A 83 10 0 0 82 6 73 22 0 0 0 0 0 0 0 0 0 0 0 0
X 1 63
A 84 10 0 0 83 6 73 28 0 0 0 0 0 0 0 0 0 0 0 0
X 1 67
A 85 10 0 0 84 6 73 31 0 0 0 0 0 0 0 0 0 0 0 0
X 1 13
A 87 2 0 0 77 6 640 0 0 0 87 0 0 0 0 0 0 0 0 0
A 88 1 0 5 0 71 641 0 0 0 0 0 0 0 0 0 0 0 0 0
A 89 10 0 0 0 6 88 1 0 0 0 0 0 0 0 0 0 0 0 0
X 1 42
A 90 10 0 0 89 6 88 4 0 0 0 0 0 0 0 0 0 0 0 0
X 1 45
A 91 4 0 0 0 6 90 0 3 0 0 0 0 2 0 0 0 0 0 0
A 92 4 0 0 0 6 89 0 91 0 0 0 0 1 0 0 0 0 0 0
A 93 10 0 0 90 6 88 19 0 0 0 0 0 0 0 0 0 0 0 0
X 1 61
A 94 10 0 0 93 6 88 28 0 0 0 0 0 0 0 0 0 0 0 0
X 1 67
A 95 10 0 0 94 6 88 31 0 0 0 0 0 0 0 0 0 0 0 0
X 1 13
A 98 1 0 3 0 77 649 0 0 0 0 0 0 0 0 0 0 0 0 0
A 99 10 0 0 22 6 98 1 0 0 0 0 0 0 0 0 0 0 0 0
X 1 42
A 100 10 0 0 99 6 98 4 0 0 0 0 0 0 0 0 0 0 0 0
X 1 45
A 101 4 0 0 21 6 100 0 3 0 0 0 0 2 0 0 0 0 0 0
A 102 4 0 0 0 6 99 0 101 0 0 0 0 1 0 0 0 0 0 0
A 103 10 0 0 100 6 98 7 0 0 0 0 0 0 0 0 0 0 0 0
X 1 49
A 104 10 0 0 103 6 98 10 0 0 0 0 0 0 0 0 0 0 0 0
X 1 51
A 105 4 0 0 29 6 104 0 3 0 0 0 0 2 0 0 0 0 0 0
A 106 4 0 0 0 6 103 0 105 0 0 0 0 1 0 0 0 0 0 0
A 107 10 0 0 104 6 98 19 0 0 0 0 0 0 0 0 0 0 0 0
X 1 61
A 108 10 0 0 107 6 98 22 0 0 0 0 0 0 0 0 0 0 0 0
X 1 63
A 109 10 0 0 108 6 98 28 0 0 0 0 0 0 0 0 0 0 0 0
X 1 67
A 110 10 0 0 109 6 98 31 0 0 0 0 0 0 0 0 0 0 0 0
X 1 13
A 121 1 0 1 0 83 668 0 0 0 0 0 0 0 0 0 0 0 0 0
A 122 10 0 0 0 6 121 1 0 0 0 0 0 0 0 0 0 0 0 0
X 1 42
A 123 10 0 0 122 6 121 4 0 0 0 0 0 0 0 0 0 0 0 0
X 1 45
A 124 4 0 0 0 6 123 0 3 0 0 0 0 2 0 0 0 0 0 0
A 125 4 0 0 0 6 122 0 124 0 0 0 0 1 0 0 0 0 0 0
A 126 10 0 0 123 6 121 7 0 0 0 0 0 0 0 0 0 0 0 0
X 1 49
A 127 10 0 0 126 6 121 10 0 0 0 0 0 0 0 0 0 0 0 0
X 1 51
A 128 4 0 0 43 6 127 0 3 0 0 0 0 2 0 0 0 0 0 0
A 129 4 0 0 0 6 126 0 128 0 0 0 0 1 0 0 0 0 0 0
A 130 10 0 0 127 6 121 13 0 0 0 0 0 0 0 0 0 0 0 0
X 1 55
A 131 10 0 0 130 6 121 16 0 0 0 0 0 0 0 0 0 0 0 0
X 1 57
A 132 4 0 0 42 6 131 0 3 0 0 0 0 2 0 0 0 0 0 0
A 133 4 0 0 0 6 130 0 132 0 0 0 0 1 0 0 0 0 0 0
A 134 10 0 0 131 6 121 19 0 0 0 0 0 0 0 0 0 0 0 0
X 1 61
A 135 10 0 0 134 6 121 22 0 0 0 0 0 0 0 0 0 0 0 0
X 1 63
A 136 10 0 0 135 6 121 25 0 0 0 0 0 0 0 0 0 0 0 0
X 1 65
A 137 10 0 0 136 6 121 28 0 0 0 0 0 0 0 0 0 0 0 0
X 1 67
A 138 10 0 0 137 6 121 31 0 0 0 0 0 0 0 0 0 0 0 0
X 1 13
Z
Z
