V26 w90_wannierise
14 wannierise.F90 S582 0
04/27/2012  15:03:08
enduse
D 56 21 9 3 69 68 0 1 0 0 1
 44 48 62 44 48 46
 50 54 64 50 54 52
 56 60 66 56 60 58
D 59 21 6 1 0 41 0 0 0 0 0
 0 41 0 3 41 0
D 62 21 9 3 90 89 0 1 0 0 1
 74 77 86 74 77 75
 78 81 87 78 81 79
 82 85 88 82 85 83
D 65 21 6 1 0 41 0 0 0 0 0
 0 41 0 3 41 0
D 68 24 640 32 639 7
D 74 21 6 1 0 3 0 0 0 0 0
 0 3 0 3 3 0
D 77 21 12 3 91 100 1 1 0 0 1
 3 92 3 3 92 93
 3 94 95 3 94 96
 3 97 98 3 97 99
D 80 21 9 3 101 110 1 1 0 0 1
 3 102 3 3 102 103
 3 104 105 3 104 106
 3 107 108 3 107 109
D 83 21 9 2 111 117 1 1 0 0 1
 3 112 3 3 112 113
 3 114 115 3 114 116
D 86 21 9 3 118 127 1 1 0 0 1
 3 119 3 3 119 120
 3 121 122 3 121 123
 3 124 125 3 124 126
D 89 21 12 3 128 137 1 1 0 0 1
 3 129 3 3 129 130
 3 131 132 3 131 133
 3 134 135 3 134 136
D 92 21 9 3 138 147 1 1 0 0 1
 3 139 3 3 139 140
 3 141 142 3 141 143
 3 144 145 3 144 146
D 95 21 9 2 148 154 1 1 0 0 1
 3 149 3 3 149 150
 3 151 152 3 151 153
D 98 21 9 1 155 158 1 1 0 0 1
 3 156 3 3 156 157
D 101 21 9 1 159 162 1 1 0 0 1
 3 160 3 3 160 161
D 104 21 12 3 163 172 1 1 0 0 1
 3 164 3 3 164 165
 3 166 167 3 166 168
 3 169 170 3 169 171
D 107 21 12 3 173 182 1 1 0 0 1
 3 174 3 3 174 175
 3 176 177 3 176 178
 3 179 180 3 179 181
D 110 21 9 3 183 192 1 1 0 0 1
 3 184 3 3 184 185
 3 186 187 3 186 188
 3 189 190 3 189 191
D 113 21 9 2 193 199 1 1 0 0 1
 3 194 3 3 194 195
 3 196 197 3 196 198
D 116 21 9 3 200 209 1 1 0 0 1
 3 201 3 3 201 202
 3 203 204 3 203 205
 3 206 207 3 206 208
D 119 21 12 3 210 219 1 1 0 0 1
 3 211 3 3 211 212
 3 213 214 3 213 215
 3 216 217 3 216 218
D 122 21 9 3 220 229 1 1 0 0 1
 3 221 3 3 221 222
 3 223 224 3 223 225
 3 226 227 3 226 228
D 125 21 9 2 230 236 1 1 0 0 1
 3 231 3 3 231 232
 3 233 234 3 233 235
D 128 21 9 1 237 240 1 1 0 0 1
 3 238 3 3 238 239
D 131 21 9 1 241 244 1 1 0 0 1
 3 242 3 3 242 243
S 582 24 0 0 0 9 1 0 4658 10015 0 A 0 0 0 0 0 0 0 0 0 0 0 0 0 0 0 0 0 0 0 0 0 13 0 0 0 0 0 0 w90_wannierise
S 584 3 0 0 0 6 1 1 0 0 0 A 0 0 0 0 0 0 0 0 0 8 0 0 0 0 0 0 0 0 0 0 0 0 0 0 0 0 0 0 6
S 610 27 0 0 0 9 646 582 4759 0 0 A 0 0 0 0 0 0 0 0 0 0 0 0 0 0 0 0 0 0 0 0 0 0 0 582 0 0 0 0 wann_main
S 611 27 0 0 0 9 792 582 4769 0 0 A 0 0 0 0 0 0 0 0 0 0 0 0 0 0 0 0 0 0 0 0 0 0 0 582 0 0 0 0 wann_main_gamma
S 612 7 6 0 0 56 1 582 4785 10a00014 51 A 0 0 0 0 0 0 618 0 0 0 620 0 0 0 0 0 0 0 0 617 0 0 619 582 0 0 0 0 rnkb
S 613 6 4 0 0 6 614 582 4790 40800016 0 A 0 0 0 0 0 0 0 0 0 0 0 0 645 0 0 0 0 0 0 0 0 0 0 582 0 0 0 0 z_b_0
S 614 6 4 0 0 6 615 582 4796 40800016 0 A 0 0 0 0 0 4 0 0 0 0 0 0 645 0 0 0 0 0 0 0 0 0 0 582 0 0 0 0 z_b_1
S 615 6 4 0 0 6 632 582 4802 40800016 0 A 0 0 0 0 0 8 0 0 0 0 0 0 645 0 0 0 0 0 0 0 0 0 0 582 0 0 0 0 z_b_2
S 616 3 0 0 0 6 0 1 0 0 0 A 0 0 0 0 0 0 0 0 0 30 0 0 0 0 0 0 0 0 0 0 0 0 0 0 0 0 0 0 6
S 617 8 4 0 0 59 636 582 4808 40822014 1020 A 0 0 0 0 0 0 0 0 0 0 0 0 645 0 0 0 0 0 0 0 0 0 0 582 0 0 0 0 rnkb$sd
S 618 6 4 0 0 7 619 582 4816 40802011 1020 A 0 0 0 0 0 0 0 0 0 0 0 0 645 0 0 0 0 0 0 0 0 0 0 582 0 0 0 0 rnkb$p
S 619 6 4 0 0 7 617 582 4823 40802010 1020 A 0 0 0 0 0 0 0 0 0 0 0 0 645 0 0 0 0 0 0 0 0 0 0 582 0 0 0 0 rnkb$o
S 620 22 1 0 0 9 1 582 4830 40000000 1000 A 0 0 0 0 0 0 0 612 0 0 0 0 617 0 0 0 0 0 0 0 0 0 0 582 0 0 0 0 rnkb$arrdsc
S 621 3 0 0 0 6 0 1 0 0 0 A 0 0 0 0 0 0 0 0 0 13 0 0 0 0 0 0 0 0 0 0 0 0 0 0 0 0 0 0 6
S 622 3 0 0 0 6 0 1 0 0 0 A 0 0 0 0 0 0 0 0 0 14 0 0 0 0 0 0 0 0 0 0 0 0 0 0 0 0 0 0 6
S 623 3 0 0 0 6 0 1 0 0 0 A 0 0 0 0 0 0 0 0 0 19 0 0 0 0 0 0 0 0 0 0 0 0 0 0 0 0 0 0 6
S 624 3 0 0 0 6 0 1 0 0 0 A 0 0 0 0 0 0 0 0 0 20 0 0 0 0 0 0 0 0 0 0 0 0 0 0 0 0 0 0 6
S 625 3 0 0 0 6 0 1 0 0 0 A 0 0 0 0 0 0 0 0 0 25 0 0 0 0 0 0 0 0 0 0 0 0 0 0 0 0 0 0 6
S 626 3 0 0 0 6 0 1 0 0 0 A 0 0 0 0 0 0 0 0 0 26 0 0 0 0 0 0 0 0 0 0 0 0 0 0 0 0 0 0 6
S 627 3 0 0 0 6 0 1 0 0 0 A 0 0 0 0 0 0 0 0 0 17 0 0 0 0 0 0 0 0 0 0 0 0 0 0 0 0 0 0 6
S 628 3 0 0 0 6 0 1 0 0 0 A 0 0 0 0 0 0 0 0 0 23 0 0 0 0 0 0 0 0 0 0 0 0 0 0 0 0 0 0 6
S 629 3 0 0 0 6 0 1 0 0 0 A 0 0 0 0 0 0 0 0 0 29 0 0 0 0 0 0 0 0 0 0 0 0 0 0 0 0 0 0 6
S 630 3 0 0 0 6 0 1 0 0 0 A 0 0 0 0 0 0 0 0 0 7 0 0 0 0 0 0 0 0 0 0 0 0 0 0 0 0 0 0 6
S 631 7 6 0 0 62 1 582 4842 10a00014 51 A 0 0 0 0 0 0 636 0 0 0 638 0 0 0 0 0 0 0 0 635 0 0 637 582 0 0 0 0 ln_tmp
S 632 6 4 0 0 6 633 582 4849 40800016 0 A 0 0 0 0 0 12 0 0 0 0 0 0 645 0 0 0 0 0 0 0 0 0 0 582 0 0 0 0 z_b_3
S 633 6 4 0 0 6 634 582 4855 40800016 0 A 0 0 0 0 0 16 0 0 0 0 0 0 645 0 0 0 0 0 0 0 0 0 0 582 0 0 0 0 z_b_4
S 634 6 4 0 0 6 1 582 4861 40800016 0 A 0 0 0 0 0 20 0 0 0 0 0 0 645 0 0 0 0 0 0 0 0 0 0 582 0 0 0 0 z_b_5
S 635 8 4 0 0 65 613 582 4867 40822014 1020 A 0 0 0 0 0 0 0 0 0 0 0 0 645 0 0 0 0 0 0 0 0 0 0 582 0 0 0 0 ln_tmp$sd
S 636 6 4 0 0 7 637 582 4877 40802011 1020 A 0 0 0 0 0 0 0 0 0 0 0 0 645 0 0 0 0 0 0 0 0 0 0 582 0 0 0 0 ln_tmp$p
S 637 6 4 0 0 7 635 582 4886 40802010 1020 A 0 0 0 0 0 0 0 0 0 0 0 0 645 0 0 0 0 0 0 0 0 0 0 582 0 0 0 0 ln_tmp$o
S 638 22 1 0 0 6 1 582 4895 40000000 1000 A 0 0 0 0 0 0 0 631 0 0 0 0 635 0 0 0 0 0 0 0 0 0 0 582 0 0 0 0 ln_tmp$arrdsc
S 639 25 0 0 0 68 1 582 4909 10000014 800010 A 0 0 0 0 0 0 0 0 0 0 0 0 0 0 0 0 0 0 0 644 0 0 0 582 0 0 0 0 localisation_vars
S 640 5 0 0 0 9 641 582 4927 800004 0 A 0 0 0 0 0 0 0 0 68 0 0 0 0 0 0 0 0 0 0 0 1 640 0 582 0 0 0 0 om_i
S 641 5 0 0 0 9 642 582 4932 800004 0 A 0 0 0 0 0 8 0 0 68 0 0 0 0 0 0 0 0 0 0 0 640 641 0 582 0 0 0 0 om_d
S 642 5 0 0 0 9 643 582 4937 800004 0 A 0 0 0 0 0 16 0 0 68 0 0 0 0 0 0 0 0 0 0 0 641 642 0 582 0 0 0 0 om_od
S 643 5 0 0 0 9 1 582 4943 800004 0 A 0 0 0 0 0 24 0 0 68 0 0 0 0 0 0 0 0 0 0 0 642 643 0 582 0 0 0 0 om_tot
S 644 8 5 0 0 74 1 582 4950 40022004 1220 A 0 0 0 0 0 0 0 68 0 0 0 0 0 0 0 0 0 0 0 0 0 0 0 582 0 0 0 0 w90_wannierise$localisation_vars$td
S 645 11 0 0 0 9 1 582 4986 40800010 801000 A 0 0 0 0 0 296 0 0 618 634 0 0 0 0 0 0 0 0 0 0 0 0 0 0 0 0 0 0 _w90_wannierise$4
S 646 23 5 0 0 0 647 582 4759 0 0 A 0 0 0 0 0 0 0 0 0 0 0 0 0 0 0 0 0 0 0 0 0 0 0 0 0 0 0 0 wann_main
S 647 14 5 0 0 0 1 646 4759 0 400000 A 0 0 0 0 0 0 0 2 0 0 0 0 0 0 0 0 0 0 0 0 0 42 0 582 0 0 0 0 wann_main
F 647 0
S 648 23 5 0 0 0 654 582 5004 10 0 A 0 0 0 0 0 0 0 0 0 0 0 0 0 0 0 0 0 0 0 0 0 0 0 0 0 0 0 0 wann_phases
S 649 7 3 2 0 77 1 648 5016 20000014 10003000 A 0 0 0 0 0 0 0 0 0 0 0 0 0 0 0 0 0 0 0 0 0 0 0 0 0 0 0 0 csheet
S 650 7 3 2 0 80 1 648 5023 20000014 10003000 A 0 0 0 0 0 0 0 0 0 0 0 0 0 0 0 0 0 0 0 0 0 0 0 0 0 0 0 0 sheet
S 651 7 3 3 0 83 1 648 5029 20000014 10003000 A 0 0 0 0 0 0 0 0 0 0 0 0 0 0 0 0 0 0 0 0 0 0 0 0 0 0 0 0 rguide
S 652 1 3 1 0 6 1 648 5036 14 3000 A 0 0 0 0 0 0 0 0 0 0 0 0 0 0 0 0 0 0 0 0 0 0 0 0 0 0 0 0 irguide
S 653 7 3 1 0 86 1 648 5044 a0000014 10003000 A 0 0 0 0 0 0 0 0 0 0 0 0 0 0 0 0 0 0 0 0 0 0 0 0 0 0 0 0 m_w
S 654 14 5 0 0 0 1 648 5004 20000010 400000 A 0 0 0 0 0 0 0 3 5 0 0 0 0 0 0 0 0 0 0 0 0 1073 0 582 0 0 0 0 wann_phases
F 654 5 649 650 651 652 653
S 655 6 1 0 0 6 1 648 5048 40800016 3000 A 0 0 0 0 0 0 0 0 0 0 0 0 0 0 0 0 0 0 0 0 0 0 0 0 0 0 0 0 z_b_0_1
S 656 6 1 0 0 6 1 648 5056 40800016 3000 A 0 0 0 0 0 0 0 0 0 0 0 0 0 0 0 0 0 0 0 0 0 0 0 0 0 0 0 0 z_b_2_1
S 657 6 1 0 0 6 1 648 5064 40800016 3000 A 0 0 0 0 0 0 0 0 0 0 0 0 0 0 0 0 0 0 0 0 0 0 0 0 0 0 0 0 z_b_3_1
S 658 6 1 0 0 6 1 648 5072 40800016 3000 A 0 0 0 0 0 0 0 0 0 0 0 0 0 0 0 0 0 0 0 0 0 0 0 0 0 0 0 0 z_b_5_1
S 659 6 1 0 0 6 1 648 5080 40800016 3000 A 0 0 0 0 0 0 0 0 0 0 0 0 0 0 0 0 0 0 0 0 0 0 0 0 0 0 0 0 z_b_6_1
S 660 6 1 0 0 6 1 648 5088 40800016 3000 A 0 0 0 0 0 0 0 0 0 0 0 0 0 0 0 0 0 0 0 0 0 0 0 0 0 0 0 0 z_b_8_1
S 661 6 1 0 0 6 1 648 5096 40800016 3000 A 0 0 0 0 0 0 0 0 0 0 0 0 0 0 0 0 0 0 0 0 0 0 0 0 0 0 0 0 z_b_9_1
S 662 6 1 0 0 6 1 648 5104 40800016 3000 A 0 0 0 0 0 0 0 0 0 0 0 0 0 0 0 0 0 0 0 0 0 0 0 0 0 0 0 0 z_e_595
S 663 6 1 0 0 6 1 648 5112 40800016 3000 A 0 0 0 0 0 0 0 0 0 0 0 0 0 0 0 0 0 0 0 0 0 0 0 0 0 0 0 0 z_e_598
S 664 6 1 0 0 6 1 648 5120 40800016 3000 A 0 0 0 0 0 0 0 0 0 0 0 0 0 0 0 0 0 0 0 0 0 0 0 0 0 0 0 0 z_e_601
S 665 6 1 0 0 6 1 648 5128 40800016 3000 A 0 0 0 0 0 0 0 0 0 0 0 0 0 0 0 0 0 0 0 0 0 0 0 0 0 0 0 0 z_b_10_1
S 666 6 1 0 0 6 1 648 5137 40800016 3000 A 0 0 0 0 0 0 0 0 0 0 0 0 0 0 0 0 0 0 0 0 0 0 0 0 0 0 0 0 z_b_12_1
S 667 6 1 0 0 6 1 648 5146 40800016 3000 A 0 0 0 0 0 0 0 0 0 0 0 0 0 0 0 0 0 0 0 0 0 0 0 0 0 0 0 0 z_b_13_1
S 668 6 1 0 0 6 1 648 5155 40800016 3000 A 0 0 0 0 0 0 0 0 0 0 0 0 0 0 0 0 0 0 0 0 0 0 0 0 0 0 0 0 z_b_15_1
S 669 6 1 0 0 6 1 648 5164 40800016 3000 A 0 0 0 0 0 0 0 0 0 0 0 0 0 0 0 0 0 0 0 0 0 0 0 0 0 0 0 0 z_b_16_1
S 670 6 1 0 0 6 1 648 5173 40800016 3000 A 0 0 0 0 0 0 0 0 0 0 0 0 0 0 0 0 0 0 0 0 0 0 0 0 0 0 0 0 z_b_18_1
S 671 6 1 0 0 6 1 648 5182 40800016 3000 A 0 0 0 0 0 0 0 0 0 0 0 0 0 0 0 0 0 0 0 0 0 0 0 0 0 0 0 0 z_b_19_1
S 672 6 1 0 0 6 1 648 5191 40800016 3000 A 0 0 0 0 0 0 0 0 0 0 0 0 0 0 0 0 0 0 0 0 0 0 0 0 0 0 0 0 z_e_614
S 673 6 1 0 0 6 1 648 5199 40800016 3000 A 0 0 0 0 0 0 0 0 0 0 0 0 0 0 0 0 0 0 0 0 0 0 0 0 0 0 0 0 z_e_617
S 674 6 1 0 0 6 1 648 5207 40800016 3000 A 0 0 0 0 0 0 0 0 0 0 0 0 0 0 0 0 0 0 0 0 0 0 0 0 0 0 0 0 z_e_620
S 675 6 1 0 0 6 1 648 5215 40800016 3000 A 0 0 0 0 0 0 0 0 0 0 0 0 0 0 0 0 0 0 0 0 0 0 0 0 0 0 0 0 z_b_20_1
S 676 6 1 0 0 6 1 648 5224 40800016 3000 A 0 0 0 0 0 0 0 0 0 0 0 0 0 0 0 0 0 0 0 0 0 0 0 0 0 0 0 0 z_b_22_1
S 677 6 1 0 0 6 1 648 5233 40800016 3000 A 0 0 0 0 0 0 0 0 0 0 0 0 0 0 0 0 0 0 0 0 0 0 0 0 0 0 0 0 z_b_23_1
S 678 6 1 0 0 6 1 648 5242 40800016 3000 A 0 0 0 0 0 0 0 0 0 0 0 0 0 0 0 0 0 0 0 0 0 0 0 0 0 0 0 0 z_b_25_1
S 679 6 1 0 0 6 1 648 5251 40800016 3000 A 0 0 0 0 0 0 0 0 0 0 0 0 0 0 0 0 0 0 0 0 0 0 0 0 0 0 0 0 z_b_26_1
S 680 6 1 0 0 6 1 648 5260 40800016 3000 A 0 0 0 0 0 0 0 0 0 0 0 0 0 0 0 0 0 0 0 0 0 0 0 0 0 0 0 0 z_e_630
S 681 6 1 0 0 6 1 648 5268 40800016 3000 A 0 0 0 0 0 0 0 0 0 0 0 0 0 0 0 0 0 0 0 0 0 0 0 0 0 0 0 0 z_e_633
S 682 6 1 0 0 6 1 648 5276 40800016 3000 A 0 0 0 0 0 0 0 0 0 0 0 0 0 0 0 0 0 0 0 0 0 0 0 0 0 0 0 0 z_b_27_1
S 683 6 1 0 0 6 1 648 5285 40800016 3000 A 0 0 0 0 0 0 0 0 0 0 0 0 0 0 0 0 0 0 0 0 0 0 0 0 0 0 0 0 z_b_29_1
S 684 6 1 0 0 6 1 648 5294 40800016 3000 A 0 0 0 0 0 0 0 0 0 0 0 0 0 0 0 0 0 0 0 0 0 0 0 0 0 0 0 0 z_b_30_1
S 685 6 1 0 0 6 1 648 5303 40800016 3000 A 0 0 0 0 0 0 0 0 0 0 0 0 0 0 0 0 0 0 0 0 0 0 0 0 0 0 0 0 z_b_32_1
S 686 6 1 0 0 6 1 648 5312 40800016 3000 A 0 0 0 0 0 0 0 0 0 0 0 0 0 0 0 0 0 0 0 0 0 0 0 0 0 0 0 0 z_b_33_1
S 687 6 1 0 0 6 1 648 5321 40800016 3000 A 0 0 0 0 0 0 0 0 0 0 0 0 0 0 0 0 0 0 0 0 0 0 0 0 0 0 0 0 z_b_35_1
S 688 6 1 0 0 6 1 648 5330 40800016 3000 A 0 0 0 0 0 0 0 0 0 0 0 0 0 0 0 0 0 0 0 0 0 0 0 0 0 0 0 0 z_b_36_1
S 689 6 1 0 0 6 1 648 5339 40800016 3000 A 0 0 0 0 0 0 0 0 0 0 0 0 0 0 0 0 0 0 0 0 0 0 0 0 0 0 0 0 z_e_646
S 690 6 1 0 0 6 1 648 5347 40800016 3000 A 0 0 0 0 0 0 0 0 0 0 0 0 0 0 0 0 0 0 0 0 0 0 0 0 0 0 0 0 z_e_649
S 691 6 1 0 0 6 1 648 5355 40800016 3000 A 0 0 0 0 0 0 0 0 0 0 0 0 0 0 0 0 0 0 0 0 0 0 0 0 0 0 0 0 z_e_652
S 692 23 5 0 0 0 699 582 5363 10 0 A 0 0 0 0 0 0 0 0 0 0 0 0 0 0 0 0 0 0 0 0 0 0 0 0 0 0 0 0 wann_omega
S 693 7 3 1 0 89 1 692 5016 20000014 10003000 A 0 0 0 0 0 0 0 0 0 0 0 0 0 0 0 0 0 0 0 0 0 0 0 0 0 0 0 0 csheet
S 694 7 3 1 0 92 1 692 5023 20000014 10003000 A 0 0 0 0 0 0 0 0 0 0 0 0 0 0 0 0 0 0 0 0 0 0 0 0 0 0 0 0 sheet
S 695 7 3 2 0 95 1 692 5374 20000014 10003000 A 0 0 0 0 0 0 0 0 0 0 0 0 0 0 0 0 0 0 0 0 0 0 0 0 0 0 0 0 rave
S 696 7 3 2 0 98 1 692 5379 20000014 10003000 A 0 0 0 0 0 0 0 0 0 0 0 0 0 0 0 0 0 0 0 0 0 0 0 0 0 0 0 0 r2ave
S 697 7 3 2 0 101 1 692 5385 20000014 10003000 A 0 0 0 0 0 0 0 0 0 0 0 0 0 0 0 0 0 0 0 0 0 0 0 0 0 0 0 0 rave2
S 698 1 3 2 0 68 1 692 5391 14 3000 A 0 0 0 0 0 0 0 0 0 0 0 0 0 0 0 0 0 0 0 0 0 0 0 0 0 0 0 0 wann_spread
S 699 14 5 0 0 0 1 692 5363 20000010 400000 A 0 0 0 0 0 0 0 9 6 0 0 0 0 0 0 0 0 0 0 0 0 1272 0 582 0 0 0 0 wann_omega
F 699 6 693 694 695 696 697 698
S 700 6 1 0 0 6 1 692 5048 40800016 3000 A 0 0 0 0 0 0 0 0 0 0 0 0 0 0 0 0 0 0 0 0 0 0 0 0 0 0 0 0 z_b_0_1
S 701 6 1 0 0 6 1 692 5056 40800016 3000 A 0 0 0 0 0 0 0 0 0 0 0 0 0 0 0 0 0 0 0 0 0 0 0 0 0 0 0 0 z_b_2_1
S 702 6 1 0 0 6 1 692 5064 40800016 3000 A 0 0 0 0 0 0 0 0 0 0 0 0 0 0 0 0 0 0 0 0 0 0 0 0 0 0 0 0 z_b_3_1
S 703 6 1 0 0 6 1 692 5072 40800016 3000 A 0 0 0 0 0 0 0 0 0 0 0 0 0 0 0 0 0 0 0 0 0 0 0 0 0 0 0 0 z_b_5_1
S 704 6 1 0 0 6 1 692 5080 40800016 3000 A 0 0 0 0 0 0 0 0 0 0 0 0 0 0 0 0 0 0 0 0 0 0 0 0 0 0 0 0 z_b_6_1
S 705 6 1 0 0 6 1 692 5088 40800016 3000 A 0 0 0 0 0 0 0 0 0 0 0 0 0 0 0 0 0 0 0 0 0 0 0 0 0 0 0 0 z_b_8_1
S 706 6 1 0 0 6 1 692 5096 40800016 3000 A 0 0 0 0 0 0 0 0 0 0 0 0 0 0 0 0 0 0 0 0 0 0 0 0 0 0 0 0 z_b_9_1
S 707 6 1 0 0 6 1 692 5403 40800016 3000 A 0 0 0 0 0 0 0 0 0 0 0 0 0 0 0 0 0 0 0 0 0 0 0 0 0 0 0 0 z_e_628
S 708 6 1 0 0 6 1 692 5411 40800016 3000 A 0 0 0 0 0 0 0 0 0 0 0 0 0 0 0 0 0 0 0 0 0 0 0 0 0 0 0 0 z_e_631
S 709 6 1 0 0 6 1 692 5419 40800016 3000 A 0 0 0 0 0 0 0 0 0 0 0 0 0 0 0 0 0 0 0 0 0 0 0 0 0 0 0 0 z_e_634
S 710 6 1 0 0 6 1 692 5128 40800016 3000 A 0 0 0 0 0 0 0 0 0 0 0 0 0 0 0 0 0 0 0 0 0 0 0 0 0 0 0 0 z_b_10_1
S 711 6 1 0 0 6 1 692 5137 40800016 3000 A 0 0 0 0 0 0 0 0 0 0 0 0 0 0 0 0 0 0 0 0 0 0 0 0 0 0 0 0 z_b_12_1
S 712 6 1 0 0 6 1 692 5146 40800016 3000 A 0 0 0 0 0 0 0 0 0 0 0 0 0 0 0 0 0 0 0 0 0 0 0 0 0 0 0 0 z_b_13_1
S 713 6 1 0 0 6 1 692 5155 40800016 3000 A 0 0 0 0 0 0 0 0 0 0 0 0 0 0 0 0 0 0 0 0 0 0 0 0 0 0 0 0 z_b_15_1
S 714 6 1 0 0 6 1 692 5164 40800016 3000 A 0 0 0 0 0 0 0 0 0 0 0 0 0 0 0 0 0 0 0 0 0 0 0 0 0 0 0 0 z_b_16_1
S 715 6 1 0 0 6 1 692 5173 40800016 3000 A 0 0 0 0 0 0 0 0 0 0 0 0 0 0 0 0 0 0 0 0 0 0 0 0 0 0 0 0 z_b_18_1
S 716 6 1 0 0 6 1 692 5182 40800016 3000 A 0 0 0 0 0 0 0 0 0 0 0 0 0 0 0 0 0 0 0 0 0 0 0 0 0 0 0 0 z_b_19_1
S 717 6 1 0 0 6 1 692 5427 40800016 3000 A 0 0 0 0 0 0 0 0 0 0 0 0 0 0 0 0 0 0 0 0 0 0 0 0 0 0 0 0 z_e_647
S 718 6 1 0 0 6 1 692 5435 40800016 3000 A 0 0 0 0 0 0 0 0 0 0 0 0 0 0 0 0 0 0 0 0 0 0 0 0 0 0 0 0 z_e_650
S 719 6 1 0 0 6 1 692 5443 40800016 3000 A 0 0 0 0 0 0 0 0 0 0 0 0 0 0 0 0 0 0 0 0 0 0 0 0 0 0 0 0 z_e_653
S 720 6 1 0 0 6 1 692 5215 40800016 3000 A 0 0 0 0 0 0 0 0 0 0 0 0 0 0 0 0 0 0 0 0 0 0 0 0 0 0 0 0 z_b_20_1
S 721 6 1 0 0 6 1 692 5224 40800016 3000 A 0 0 0 0 0 0 0 0 0 0 0 0 0 0 0 0 0 0 0 0 0 0 0 0 0 0 0 0 z_b_22_1
S 722 6 1 0 0 6 1 692 5233 40800016 3000 A 0 0 0 0 0 0 0 0 0 0 0 0 0 0 0 0 0 0 0 0 0 0 0 0 0 0 0 0 z_b_23_1
S 723 6 1 0 0 6 1 692 5242 40800016 3000 A 0 0 0 0 0 0 0 0 0 0 0 0 0 0 0 0 0 0 0 0 0 0 0 0 0 0 0 0 z_b_25_1
S 724 6 1 0 0 6 1 692 5251 40800016 3000 A 0 0 0 0 0 0 0 0 0 0 0 0 0 0 0 0 0 0 0 0 0 0 0 0 0 0 0 0 z_b_26_1
S 725 6 1 0 0 6 1 692 5451 40800016 3000 A 0 0 0 0 0 0 0 0 0 0 0 0 0 0 0 0 0 0 0 0 0 0 0 0 0 0 0 0 z_e_663
S 726 6 1 0 0 6 1 692 5459 40800016 3000 A 0 0 0 0 0 0 0 0 0 0 0 0 0 0 0 0 0 0 0 0 0 0 0 0 0 0 0 0 z_e_666
S 727 6 1 0 0 6 1 692 5276 40800016 3000 A 0 0 0 0 0 0 0 0 0 0 0 0 0 0 0 0 0 0 0 0 0 0 0 0 0 0 0 0 z_b_27_1
S 728 6 1 0 0 6 1 692 5285 40800016 3000 A 0 0 0 0 0 0 0 0 0 0 0 0 0 0 0 0 0 0 0 0 0 0 0 0 0 0 0 0 z_b_29_1
S 729 6 1 0 0 6 1 692 5294 40800016 3000 A 0 0 0 0 0 0 0 0 0 0 0 0 0 0 0 0 0 0 0 0 0 0 0 0 0 0 0 0 z_b_30_1
S 730 6 1 0 0 6 1 692 5467 40800016 3000 A 0 0 0 0 0 0 0 0 0 0 0 0 0 0 0 0 0 0 0 0 0 0 0 0 0 0 0 0 z_e_673
S 731 6 1 0 0 6 1 692 5475 40800016 3000 A 0 0 0 0 0 0 0 0 0 0 0 0 0 0 0 0 0 0 0 0 0 0 0 0 0 0 0 0 z_b_31_1
S 732 6 1 0 0 6 1 692 5312 40800016 3000 A 0 0 0 0 0 0 0 0 0 0 0 0 0 0 0 0 0 0 0 0 0 0 0 0 0 0 0 0 z_b_33_1
S 733 6 1 0 0 6 1 692 5484 40800016 3000 A 0 0 0 0 0 0 0 0 0 0 0 0 0 0 0 0 0 0 0 0 0 0 0 0 0 0 0 0 z_b_34_1
S 734 6 1 0 0 6 1 692 5493 40800016 3000 A 0 0 0 0 0 0 0 0 0 0 0 0 0 0 0 0 0 0 0 0 0 0 0 0 0 0 0 0 z_e_680
S 735 23 5 0 0 0 740 582 5501 10 0 A 0 0 0 0 0 0 0 0 0 0 0 0 0 0 0 0 0 0 0 0 0 0 0 0 0 0 0 0 wann_domega
S 736 7 3 1 0 104 1 735 5016 20000014 10003000 A 0 0 0 0 0 0 0 0 0 0 0 0 0 0 0 0 0 0 0 0 0 0 0 0 0 0 0 0 csheet
S 737 7 3 1 0 110 1 735 5023 20000014 10003000 A 0 0 0 0 0 0 0 0 0 0 0 0 0 0 0 0 0 0 0 0 0 0 0 0 0 0 0 0 sheet
S 738 7 3 2 0 113 1 735 5374 20000014 10003000 A 0 0 0 0 0 0 0 0 0 0 0 0 0 0 0 0 0 0 0 0 0 0 0 0 0 0 0 0 rave
S 739 7 3 2 0 107 1 735 5513 20000014 10003000 A 0 0 0 0 0 0 0 0 0 0 0 0 0 0 0 0 0 0 0 0 0 0 0 0 0 0 0 0 cdodq
S 740 14 5 0 0 0 1 735 5501 20000010 400000 A 0 0 0 0 0 0 0 16 4 0 0 0 0 0 0 0 0 0 0 0 0 1460 0 582 0 0 0 0 wann_domega
F 740 4 736 737 738 739
S 741 6 1 0 0 6 1 735 5048 40800016 3000 A 0 0 0 0 0 0 0 0 0 0 0 0 0 0 0 0 0 0 0 0 0 0 0 0 0 0 0 0 z_b_0_1
S 742 6 1 0 0 6 1 735 5056 40800016 3000 A 0 0 0 0 0 0 0 0 0 0 0 0 0 0 0 0 0 0 0 0 0 0 0 0 0 0 0 0 z_b_2_1
S 743 6 1 0 0 6 1 735 5064 40800016 3000 A 0 0 0 0 0 0 0 0 0 0 0 0 0 0 0 0 0 0 0 0 0 0 0 0 0 0 0 0 z_b_3_1
S 744 6 1 0 0 6 1 735 5072 40800016 3000 A 0 0 0 0 0 0 0 0 0 0 0 0 0 0 0 0 0 0 0 0 0 0 0 0 0 0 0 0 z_b_5_1
S 745 6 1 0 0 6 1 735 5080 40800016 3000 A 0 0 0 0 0 0 0 0 0 0 0 0 0 0 0 0 0 0 0 0 0 0 0 0 0 0 0 0 z_b_6_1
S 746 6 1 0 0 6 1 735 5088 40800016 3000 A 0 0 0 0 0 0 0 0 0 0 0 0 0 0 0 0 0 0 0 0 0 0 0 0 0 0 0 0 z_b_8_1
S 747 6 1 0 0 6 1 735 5096 40800016 3000 A 0 0 0 0 0 0 0 0 0 0 0 0 0 0 0 0 0 0 0 0 0 0 0 0 0 0 0 0 z_b_9_1
S 748 6 1 0 0 6 1 735 5451 40800016 3000 A 0 0 0 0 0 0 0 0 0 0 0 0 0 0 0 0 0 0 0 0 0 0 0 0 0 0 0 0 z_e_663
S 749 6 1 0 0 6 1 735 5459 40800016 3000 A 0 0 0 0 0 0 0 0 0 0 0 0 0 0 0 0 0 0 0 0 0 0 0 0 0 0 0 0 z_e_666
S 750 6 1 0 0 6 1 735 5519 40800016 3000 A 0 0 0 0 0 0 0 0 0 0 0 0 0 0 0 0 0 0 0 0 0 0 0 0 0 0 0 0 z_e_669
S 751 6 1 0 0 6 1 735 5128 40800016 3000 A 0 0 0 0 0 0 0 0 0 0 0 0 0 0 0 0 0 0 0 0 0 0 0 0 0 0 0 0 z_b_10_1
S 752 6 1 0 0 6 1 735 5137 40800016 3000 A 0 0 0 0 0 0 0 0 0 0 0 0 0 0 0 0 0 0 0 0 0 0 0 0 0 0 0 0 z_b_12_1
S 753 6 1 0 0 6 1 735 5146 40800016 3000 A 0 0 0 0 0 0 0 0 0 0 0 0 0 0 0 0 0 0 0 0 0 0 0 0 0 0 0 0 z_b_13_1
S 754 6 1 0 0 6 1 735 5155 40800016 3000 A 0 0 0 0 0 0 0 0 0 0 0 0 0 0 0 0 0 0 0 0 0 0 0 0 0 0 0 0 z_b_15_1
S 755 6 1 0 0 6 1 735 5164 40800016 3000 A 0 0 0 0 0 0 0 0 0 0 0 0 0 0 0 0 0 0 0 0 0 0 0 0 0 0 0 0 z_b_16_1
S 756 6 1 0 0 6 1 735 5173 40800016 3000 A 0 0 0 0 0 0 0 0 0 0 0 0 0 0 0 0 0 0 0 0 0 0 0 0 0 0 0 0 z_b_18_1
S 757 6 1 0 0 6 1 735 5182 40800016 3000 A 0 0 0 0 0 0 0 0 0 0 0 0 0 0 0 0 0 0 0 0 0 0 0 0 0 0 0 0 z_b_19_1
S 758 6 1 0 0 6 1 735 5527 40800016 3000 A 0 0 0 0 0 0 0 0 0 0 0 0 0 0 0 0 0 0 0 0 0 0 0 0 0 0 0 0 z_e_682
S 759 6 1 0 0 6 1 735 5535 40800016 3000 A 0 0 0 0 0 0 0 0 0 0 0 0 0 0 0 0 0 0 0 0 0 0 0 0 0 0 0 0 z_e_685
S 760 6 1 0 0 6 1 735 5543 40800016 3000 A 0 0 0 0 0 0 0 0 0 0 0 0 0 0 0 0 0 0 0 0 0 0 0 0 0 0 0 0 z_e_688
S 761 6 1 0 0 6 1 735 5215 40800016 3000 A 0 0 0 0 0 0 0 0 0 0 0 0 0 0 0 0 0 0 0 0 0 0 0 0 0 0 0 0 z_b_20_1
S 762 6 1 0 0 6 1 735 5224 40800016 3000 A 0 0 0 0 0 0 0 0 0 0 0 0 0 0 0 0 0 0 0 0 0 0 0 0 0 0 0 0 z_b_22_1
S 763 6 1 0 0 6 1 735 5233 40800016 3000 A 0 0 0 0 0 0 0 0 0 0 0 0 0 0 0 0 0 0 0 0 0 0 0 0 0 0 0 0 z_b_23_1
S 764 6 1 0 0 6 1 735 5242 40800016 3000 A 0 0 0 0 0 0 0 0 0 0 0 0 0 0 0 0 0 0 0 0 0 0 0 0 0 0 0 0 z_b_25_1
S 765 6 1 0 0 6 1 735 5251 40800016 3000 A 0 0 0 0 0 0 0 0 0 0 0 0 0 0 0 0 0 0 0 0 0 0 0 0 0 0 0 0 z_b_26_1
S 766 6 1 0 0 6 1 735 5551 40800016 3000 A 0 0 0 0 0 0 0 0 0 0 0 0 0 0 0 0 0 0 0 0 0 0 0 0 0 0 0 0 z_b_28_1
S 767 6 1 0 0 6 1 735 5285 40800016 3000 A 0 0 0 0 0 0 0 0 0 0 0 0 0 0 0 0 0 0 0 0 0 0 0 0 0 0 0 0 z_b_29_1
S 768 6 1 0 0 6 1 735 5560 40800016 3000 A 0 0 0 0 0 0 0 0 0 0 0 0 0 0 0 0 0 0 0 0 0 0 0 0 0 0 0 0 z_e_701
S 769 6 1 0 0 6 1 735 5568 40800016 3000 A 0 0 0 0 0 0 0 0 0 0 0 0 0 0 0 0 0 0 0 0 0 0 0 0 0 0 0 0 z_e_704
S 770 6 1 0 0 6 1 735 5576 40800016 3000 A 0 0 0 0 0 0 0 0 0 0 0 0 0 0 0 0 0 0 0 0 0 0 0 0 0 0 0 0 z_e_707
S 771 6 1 0 0 6 1 735 5294 40800016 3000 A 0 0 0 0 0 0 0 0 0 0 0 0 0 0 0 0 0 0 0 0 0 0 0 0 0 0 0 0 z_b_30_1
S 772 6 1 0 0 6 1 735 5303 40800016 3000 A 0 0 0 0 0 0 0 0 0 0 0 0 0 0 0 0 0 0 0 0 0 0 0 0 0 0 0 0 z_b_32_1
S 773 6 1 0 0 6 1 735 5312 40800016 3000 A 0 0 0 0 0 0 0 0 0 0 0 0 0 0 0 0 0 0 0 0 0 0 0 0 0 0 0 0 z_b_33_1
S 774 6 1 0 0 6 1 735 5321 40800016 3000 A 0 0 0 0 0 0 0 0 0 0 0 0 0 0 0 0 0 0 0 0 0 0 0 0 0 0 0 0 z_b_35_1
S 775 6 1 0 0 6 1 735 5330 40800016 3000 A 0 0 0 0 0 0 0 0 0 0 0 0 0 0 0 0 0 0 0 0 0 0 0 0 0 0 0 0 z_b_36_1
S 776 6 1 0 0 6 1 735 5584 40800016 3000 A 0 0 0 0 0 0 0 0 0 0 0 0 0 0 0 0 0 0 0 0 0 0 0 0 0 0 0 0 z_e_717
S 777 6 1 0 0 6 1 735 5592 40800016 3000 A 0 0 0 0 0 0 0 0 0 0 0 0 0 0 0 0 0 0 0 0 0 0 0 0 0 0 0 0 z_e_720
S 778 23 5 0 0 0 781 582 5600 10 0 A 0 0 0 0 0 0 0 0 0 0 0 0 0 0 0 0 0 0 0 0 0 0 0 0 0 0 0 0 wann_spread_copy
S 779 1 3 1 0 68 1 778 5617 14 3000 A 0 0 0 0 0 0 0 0 0 0 0 0 0 0 0 0 0 0 0 0 0 0 0 0 0 0 0 0 orig
S 780 1 3 2 0 68 1 778 5622 14 3000 A 0 0 0 0 0 0 0 0 0 0 0 0 0 0 0 0 0 0 0 0 0 0 0 0 0 0 0 0 copy
S 781 14 5 0 0 0 1 778 5600 10 400000 A 0 0 0 0 0 0 0 21 2 0 0 0 0 0 0 0 0 0 0 0 0 1565 0 582 0 0 0 0 wann_spread_copy
F 781 2 779 780
S 782 23 5 0 0 0 783 582 5627 10 0 A 0 0 0 0 0 0 0 0 0 0 0 0 0 0 0 0 0 0 0 0 0 0 0 0 0 0 0 0 wann_calc_projection
S 783 14 5 0 0 0 1 782 5627 10 400000 A 0 0 0 0 0 0 0 24 0 0 0 0 0 0 0 0 0 0 0 0 0 1589 0 582 0 0 0 0 wann_calc_projection
F 783 0
S 784 23 5 0 0 0 785 582 5648 10 0 A 0 0 0 0 0 0 0 0 0 0 0 0 0 0 0 0 0 0 0 0 0 0 0 0 0 0 0 0 wann_write_xyz
S 785 14 5 0 0 0 1 784 5648 10 400000 A 0 0 0 0 0 0 0 25 0 0 0 0 0 0 0 0 0 0 0 0 0 1638 0 582 0 0 0 0 wann_write_xyz
F 785 0
S 786 23 5 0 0 0 787 582 5663 10 0 A 0 0 0 0 0 0 0 0 0 0 0 0 0 0 0 0 0 0 0 0 0 0 0 0 0 0 0 0 wann_check_unitarity
S 787 14 5 0 0 0 1 786 5663 10 400000 A 0 0 0 0 0 0 0 26 0 0 0 0 0 0 0 0 0 0 0 0 0 1691 0 582 0 0 0 0 wann_check_unitarity
F 787 0
S 788 23 5 0 0 0 789 582 5684 10 0 A 0 0 0 0 0 0 0 0 0 0 0 0 0 0 0 0 0 0 0 0 0 0 0 0 0 0 0 0 wann_write_r2mn
S 789 14 5 0 0 0 1 788 5684 10 400000 A 0 0 0 0 0 0 0 27 0 0 0 0 0 0 0 0 0 0 0 0 0 1749 0 582 0 0 0 0 wann_write_r2mn
F 789 0
S 790 23 5 0 0 0 791 582 5700 10 0 A 0 0 0 0 0 0 0 0 0 0 0 0 0 0 0 0 0 0 0 0 0 0 0 0 0 0 0 0 wann_svd_omega_i
S 791 14 5 0 0 0 1 790 5700 10 400000 A 0 0 0 0 0 0 0 28 0 0 0 0 0 0 0 0 0 0 0 0 0 1796 0 582 0 0 0 0 wann_svd_omega_i
F 791 0
S 792 23 5 0 0 0 793 582 4769 0 0 A 0 0 0 0 0 0 0 0 0 0 0 0 0 0 0 0 0 0 0 0 0 0 0 0 0 0 0 0 wann_main_gamma
S 793 14 5 0 0 0 1 792 4769 0 400000 A 0 0 0 0 0 0 0 29 0 0 0 0 0 0 0 0 0 0 0 0 0 1889 0 582 0 0 0 0 wann_main_gamma
F 793 0
S 794 23 5 0 0 0 802 582 5717 10 0 A 0 0 0 0 0 0 0 0 0 0 0 0 0 0 0 0 0 0 0 0 0 0 0 0 0 0 0 0 wann_omega_gamma
S 795 7 3 1 0 116 1 794 5044 20000014 10003000 A 0 0 0 0 0 0 0 0 0 0 0 0 0 0 0 0 0 0 0 0 0 0 0 0 0 0 0 0 m_w
S 796 7 3 1 0 119 1 794 5016 20000014 10003000 A 0 0 0 0 0 0 0 0 0 0 0 0 0 0 0 0 0 0 0 0 0 0 0 0 0 0 0 0 csheet
S 797 7 3 1 0 122 1 794 5023 20000014 10003000 A 0 0 0 0 0 0 0 0 0 0 0 0 0 0 0 0 0 0 0 0 0 0 0 0 0 0 0 0 sheet
S 798 7 3 2 0 125 1 794 5374 20000014 10003000 A 0 0 0 0 0 0 0 0 0 0 0 0 0 0 0 0 0 0 0 0 0 0 0 0 0 0 0 0 rave
S 799 7 3 2 0 128 1 794 5379 20000014 10003000 A 0 0 0 0 0 0 0 0 0 0 0 0 0 0 0 0 0 0 0 0 0 0 0 0 0 0 0 0 r2ave
S 800 7 3 2 0 131 1 794 5385 20000014 10003000 A 0 0 0 0 0 0 0 0 0 0 0 0 0 0 0 0 0 0 0 0 0 0 0 0 0 0 0 0 rave2
S 801 1 3 2 0 68 1 794 5391 14 3000 A 0 0 0 0 0 0 0 0 0 0 0 0 0 0 0 0 0 0 0 0 0 0 0 0 0 0 0 0 wann_spread
S 802 14 5 0 0 0 1 794 5717 20000010 400000 A 0 0 0 0 0 0 0 30 7 0 0 0 0 0 0 0 0 0 0 0 0 2571 0 582 0 0 0 0 wann_omega_gamma
F 802 7 795 796 797 798 799 800 801
S 803 6 1 0 0 6 1 794 5048 40800016 3000 A 0 0 0 0 0 0 0 0 0 0 0 0 0 0 0 0 0 0 0 0 0 0 0 0 0 0 0 0 z_b_0_1
S 804 6 1 0 0 6 1 794 5056 40800016 3000 A 0 0 0 0 0 0 0 0 0 0 0 0 0 0 0 0 0 0 0 0 0 0 0 0 0 0 0 0 z_b_2_1
S 805 6 1 0 0 6 1 794 5064 40800016 3000 A 0 0 0 0 0 0 0 0 0 0 0 0 0 0 0 0 0 0 0 0 0 0 0 0 0 0 0 0 z_b_3_1
S 806 6 1 0 0 6 1 794 5072 40800016 3000 A 0 0 0 0 0 0 0 0 0 0 0 0 0 0 0 0 0 0 0 0 0 0 0 0 0 0 0 0 z_b_5_1
S 807 6 1 0 0 6 1 794 5080 40800016 3000 A 0 0 0 0 0 0 0 0 0 0 0 0 0 0 0 0 0 0 0 0 0 0 0 0 0 0 0 0 z_b_6_1
S 808 6 1 0 0 6 1 794 5088 40800016 3000 A 0 0 0 0 0 0 0 0 0 0 0 0 0 0 0 0 0 0 0 0 0 0 0 0 0 0 0 0 z_b_8_1
S 809 6 1 0 0 6 1 794 5096 40800016 3000 A 0 0 0 0 0 0 0 0 0 0 0 0 0 0 0 0 0 0 0 0 0 0 0 0 0 0 0 0 z_b_9_1
S 810 6 1 0 0 6 1 794 5734 40800016 3000 A 0 0 0 0 0 0 0 0 0 0 0 0 0 0 0 0 0 0 0 0 0 0 0 0 0 0 0 0 z_e_700
S 811 6 1 0 0 6 1 794 5742 40800016 3000 A 0 0 0 0 0 0 0 0 0 0 0 0 0 0 0 0 0 0 0 0 0 0 0 0 0 0 0 0 z_e_703
S 812 6 1 0 0 6 1 794 5750 40800016 3000 A 0 0 0 0 0 0 0 0 0 0 0 0 0 0 0 0 0 0 0 0 0 0 0 0 0 0 0 0 z_e_706
S 813 6 1 0 0 6 1 794 5128 40800016 3000 A 0 0 0 0 0 0 0 0 0 0 0 0 0 0 0 0 0 0 0 0 0 0 0 0 0 0 0 0 z_b_10_1
S 814 6 1 0 0 6 1 794 5137 40800016 3000 A 0 0 0 0 0 0 0 0 0 0 0 0 0 0 0 0 0 0 0 0 0 0 0 0 0 0 0 0 z_b_12_1
S 815 6 1 0 0 6 1 794 5146 40800016 3000 A 0 0 0 0 0 0 0 0 0 0 0 0 0 0 0 0 0 0 0 0 0 0 0 0 0 0 0 0 z_b_13_1
S 816 6 1 0 0 6 1 794 5155 40800016 3000 A 0 0 0 0 0 0 0 0 0 0 0 0 0 0 0 0 0 0 0 0 0 0 0 0 0 0 0 0 z_b_15_1
S 817 6 1 0 0 6 1 794 5164 40800016 3000 A 0 0 0 0 0 0 0 0 0 0 0 0 0 0 0 0 0 0 0 0 0 0 0 0 0 0 0 0 z_b_16_1
S 818 6 1 0 0 6 1 794 5173 40800016 3000 A 0 0 0 0 0 0 0 0 0 0 0 0 0 0 0 0 0 0 0 0 0 0 0 0 0 0 0 0 z_b_18_1
S 819 6 1 0 0 6 1 794 5182 40800016 3000 A 0 0 0 0 0 0 0 0 0 0 0 0 0 0 0 0 0 0 0 0 0 0 0 0 0 0 0 0 z_b_19_1
S 820 6 1 0 0 6 1 794 5758 40800016 3000 A 0 0 0 0 0 0 0 0 0 0 0 0 0 0 0 0 0 0 0 0 0 0 0 0 0 0 0 0 z_e_719
S 821 6 1 0 0 6 1 794 5766 40800016 3000 A 0 0 0 0 0 0 0 0 0 0 0 0 0 0 0 0 0 0 0 0 0 0 0 0 0 0 0 0 z_e_722
S 822 6 1 0 0 6 1 794 5774 40800016 3000 A 0 0 0 0 0 0 0 0 0 0 0 0 0 0 0 0 0 0 0 0 0 0 0 0 0 0 0 0 z_e_725
S 823 6 1 0 0 6 1 794 5215 40800016 3000 A 0 0 0 0 0 0 0 0 0 0 0 0 0 0 0 0 0 0 0 0 0 0 0 0 0 0 0 0 z_b_20_1
S 824 6 1 0 0 6 1 794 5224 40800016 3000 A 0 0 0 0 0 0 0 0 0 0 0 0 0 0 0 0 0 0 0 0 0 0 0 0 0 0 0 0 z_b_22_1
S 825 6 1 0 0 6 1 794 5233 40800016 3000 A 0 0 0 0 0 0 0 0 0 0 0 0 0 0 0 0 0 0 0 0 0 0 0 0 0 0 0 0 z_b_23_1
S 826 6 1 0 0 6 1 794 5242 40800016 3000 A 0 0 0 0 0 0 0 0 0 0 0 0 0 0 0 0 0 0 0 0 0 0 0 0 0 0 0 0 z_b_25_1
S 827 6 1 0 0 6 1 794 5251 40800016 3000 A 0 0 0 0 0 0 0 0 0 0 0 0 0 0 0 0 0 0 0 0 0 0 0 0 0 0 0 0 z_b_26_1
S 828 6 1 0 0 6 1 794 5551 40800016 3000 A 0 0 0 0 0 0 0 0 0 0 0 0 0 0 0 0 0 0 0 0 0 0 0 0 0 0 0 0 z_b_28_1
S 829 6 1 0 0 6 1 794 5285 40800016 3000 A 0 0 0 0 0 0 0 0 0 0 0 0 0 0 0 0 0 0 0 0 0 0 0 0 0 0 0 0 z_b_29_1
S 830 6 1 0 0 6 1 794 5782 40800016 3000 A 0 0 0 0 0 0 0 0 0 0 0 0 0 0 0 0 0 0 0 0 0 0 0 0 0 0 0 0 z_e_738
S 831 6 1 0 0 6 1 794 5790 40800016 3000 A 0 0 0 0 0 0 0 0 0 0 0 0 0 0 0 0 0 0 0 0 0 0 0 0 0 0 0 0 z_e_741
S 832 6 1 0 0 6 1 794 5798 40800016 3000 A 0 0 0 0 0 0 0 0 0 0 0 0 0 0 0 0 0 0 0 0 0 0 0 0 0 0 0 0 z_e_744
S 833 6 1 0 0 6 1 794 5294 40800016 3000 A 0 0 0 0 0 0 0 0 0 0 0 0 0 0 0 0 0 0 0 0 0 0 0 0 0 0 0 0 z_b_30_1
S 834 6 1 0 0 6 1 794 5303 40800016 3000 A 0 0 0 0 0 0 0 0 0 0 0 0 0 0 0 0 0 0 0 0 0 0 0 0 0 0 0 0 z_b_32_1
S 835 6 1 0 0 6 1 794 5312 40800016 3000 A 0 0 0 0 0 0 0 0 0 0 0 0 0 0 0 0 0 0 0 0 0 0 0 0 0 0 0 0 z_b_33_1
S 836 6 1 0 0 6 1 794 5321 40800016 3000 A 0 0 0 0 0 0 0 0 0 0 0 0 0 0 0 0 0 0 0 0 0 0 0 0 0 0 0 0 z_b_35_1
S 837 6 1 0 0 6 1 794 5330 40800016 3000 A 0 0 0 0 0 0 0 0 0 0 0 0 0 0 0 0 0 0 0 0 0 0 0 0 0 0 0 0 z_b_36_1
S 838 6 1 0 0 6 1 794 5806 40800016 3000 A 0 0 0 0 0 0 0 0 0 0 0 0 0 0 0 0 0 0 0 0 0 0 0 0 0 0 0 0 z_e_754
S 839 6 1 0 0 6 1 794 5814 40800016 3000 A 0 0 0 0 0 0 0 0 0 0 0 0 0 0 0 0 0 0 0 0 0 0 0 0 0 0 0 0 z_e_757
S 840 6 1 0 0 6 1 794 5822 40800016 3000 A 0 0 0 0 0 0 0 0 0 0 0 0 0 0 0 0 0 0 0 0 0 0 0 0 0 0 0 0 z_b_37_1
S 841 6 1 0 0 6 1 794 5831 40800016 3000 A 0 0 0 0 0 0 0 0 0 0 0 0 0 0 0 0 0 0 0 0 0 0 0 0 0 0 0 0 z_b_39_1
S 842 6 1 0 0 6 1 794 5840 40800016 3000 A 0 0 0 0 0 0 0 0 0 0 0 0 0 0 0 0 0 0 0 0 0 0 0 0 0 0 0 0 z_b_40_1
S 843 6 1 0 0 6 1 794 5849 40800016 3000 A 0 0 0 0 0 0 0 0 0 0 0 0 0 0 0 0 0 0 0 0 0 0 0 0 0 0 0 0 z_e_764
S 844 6 1 0 0 6 1 794 5857 40800016 3000 A 0 0 0 0 0 0 0 0 0 0 0 0 0 0 0 0 0 0 0 0 0 0 0 0 0 0 0 0 z_b_41_1
S 845 6 1 0 0 6 1 794 5866 40800016 3000 A 0 0 0 0 0 0 0 0 0 0 0 0 0 0 0 0 0 0 0 0 0 0 0 0 0 0 0 0 z_b_43_1
S 846 6 1 0 0 6 1 794 5875 40800016 3000 A 0 0 0 0 0 0 0 0 0 0 0 0 0 0 0 0 0 0 0 0 0 0 0 0 0 0 0 0 z_b_44_1
S 847 6 1 0 0 6 1 794 5884 40800016 3000 A 0 0 0 0 0 0 0 0 0 0 0 0 0 0 0 0 0 0 0 0 0 0 0 0 0 0 0 0 z_e_771
A 13 2 0 0 0 6 584 0 0 0 13 0 0 0 0 0 0 0 0 0
A 41 2 0 0 0 6 616 0 0 0 41 0 0 0 0 0 0 0 0 0
A 42 2 0 0 0 6 621 0 0 0 42 0 0 0 0 0 0 0 0 0
A 43 1 0 1 0 59 617 0 0 0 0 0 0 0 0 0 0 0 0 0
A 44 10 0 0 0 6 43 1 0 0 0 0 0 0 0 0 0 0 0 0
X 1 42
A 45 2 0 0 0 6 622 0 0 0 45 0 0 0 0 0 0 0 0 0
A 46 10 0 0 44 6 43 4 0 0 0 0 0 0 0 0 0 0 0 0
X 1 45
A 47 4 0 0 0 6 46 0 3 0 0 0 0 2 0 0 0 0 0 0
A 48 4 0 0 0 6 44 0 47 0 0 0 0 1 0 0 0 0 0 0
A 49 2 0 0 0 6 623 0 0 0 49 0 0 0 0 0 0 0 0 0
A 50 10 0 0 46 6 43 7 0 0 0 0 0 0 0 0 0 0 0 0
X 1 49
A 51 2 0 0 0 6 624 0 0 0 51 0 0 0 0 0 0 0 0 0
A 52 10 0 0 50 6 43 10 0 0 0 0 0 0 0 0 0 0 0 0
X 1 51
A 53 4 0 0 0 6 52 0 3 0 0 0 0 2 0 0 0 0 0 0
A 54 4 0 0 0 6 50 0 53 0 0 0 0 1 0 0 0 0 0 0
A 55 2 0 0 0 6 625 0 0 0 55 0 0 0 0 0 0 0 0 0
A 56 10 0 0 52 6 43 13 0 0 0 0 0 0 0 0 0 0 0 0
X 1 55
A 57 2 0 0 0 6 626 0 0 0 57 0 0 0 0 0 0 0 0 0
A 58 10 0 0 56 6 43 16 0 0 0 0 0 0 0 0 0 0 0 0
X 1 57
A 59 4 0 0 0 6 58 0 3 0 0 0 0 2 0 0 0 0 0 0
A 60 4 0 0 0 6 56 0 59 0 0 0 0 1 0 0 0 0 0 0
A 61 2 0 0 0 6 627 0 0 0 61 0 0 0 0 0 0 0 0 0
A 62 10 0 0 58 6 43 19 0 0 0 0 0 0 0 0 0 0 0 0
X 1 61
A 63 2 0 0 0 6 628 0 0 0 63 0 0 0 0 0 0 0 0 0
A 64 10 0 0 62 6 43 22 0 0 0 0 0 0 0 0 0 0 0 0
X 1 63
A 65 2 0 0 0 6 629 0 0 0 65 0 0 0 0 0 0 0 0 0
A 66 10 0 0 64 6 43 25 0 0 0 0 0 0 0 0 0 0 0 0
X 1 65
A 67 2 0 0 0 6 630 0 0 0 67 0 0 0 0 0 0 0 0 0
A 68 10 0 0 66 6 43 28 0 0 0 0 0 0 0 0 0 0 0 0
X 1 67
A 69 10 0 0 68 6 43 31 0 0 0 0 0 0 0 0 0 0 0 0
X 1 13
A 73 1 0 1 0 65 635 0 0 0 0 0 0 0 0 0 0 0 0 0
A 74 10 0 0 0 6 73 1 0 0 0 0 0 0 0 0 0 0 0 0
X 1 42
A 75 10 0 0 74 6 73 4 0 0 0 0 0 0 0 0 0 0 0 0
X 1 45
A 76 4 0 0 0 6 75 0 3 0 0 0 0 2 0 0 0 0 0 0
A 77 4 0 0 0 6 74 0 76 0 0 0 0 1 0 0 0 0 0 0
A 78 10 0 0 75 6 73 7 0 0 0 0 0 0 0 0 0 0 0 0
X 1 49
A 79 10 0 0 78 6 73 10 0 0 0 0 0 0 0 0 0 0 0 0
X 1 51
A 80 4 0 0 0 6 79 0 3 0 0 0 0 2 0 0 0 0 0 0
A 81 4 0 0 0 6 78 0 80 0 0 0 0 1 0 0 0 0 0 0
A 82 10 0 0 79 6 73 13 0 0 0 0 0 0 0 0 0 0 0 0
X 1 55
A 83 10 0 0 82 6 73 16 0 0 0 0 0 0 0 0 0 0 0 0
X 1 57
A 84 4 0 0 11 6 83 0 3 0 0 0 0 2 0 0 0 0 0 0
A 85 4 0 0 0 6 82 0 84 0 0 0 0 1 0 0 0 0 0 0
A 86 10 0 0 83 6 73 19 0 0 0 0 0 0 0 0 0 0 0 0
X 1 61
A 87 10 0 0 86 6 73 22 0 0 0 0 0 0 0 0 0 0 0 0
X 1 63
A 88 10 0 0 87 6 73 25 0 0 0 0 0 0 0 0 0 0 0 0
X 1 65
A 89 10 0 0 88 6 73 28 0 0 0 0 0 0 0 0 0 0 0 0
X 1 67
A 90 10 0 0 89 6 73 31 0 0 0 0 0 0 0 0 0 0 0 0
X 1 13
A 91 1 0 0 0 6 661 0 0 0 0 0 0 0 0 0 0 0 0 0
A 92 1 0 0 0 6 655 0 0 0 0 0 0 0 0 0 0 0 0 0
A 93 1 0 0 0 6 662 0 0 0 0 0 0 0 0 0 0 0 0 0
A 94 1 0 0 0 6 657 0 0 0 0 0 0 0 0 0 0 0 0 0
A 95 1 0 0 0 6 656 0 0 0 0 0 0 0 0 0 0 0 0 0
A 96 1 0 0 0 6 663 0 0 0 0 0 0 0 0 0 0 0 0 0
A 97 1 0 0 59 6 659 0 0 0 0 0 0 0 0 0 0 0 0 0
A 98 1 0 0 0 6 658 0 0 0 0 0 0 0 0 0 0 0 0 0
A 99 1 0 0 0 6 664 0 0 0 0 0 0 0 0 0 0 0 0 0
A 100 1 0 0 0 6 660 0 0 0 0 0 0 0 0 0 0 0 0 0
A 101 1 0 0 0 6 671 0 0 0 0 0 0 0 0 0 0 0 0 0
A 102 1 0 0 0 6 665 0 0 0 0 0 0 0 0 0 0 0 0 0
A 103 1 0 0 0 6 672 0 0 0 0 0 0 0 0 0 0 0 0 0
A 104 1 0 0 0 6 667 0 0 0 0 0 0 0 0 0 0 0 0 0
A 105 1 0 0 0 6 666 0 0 0 0 0 0 0 0 0 0 0 0 0
A 106 1 0 0 0 6 673 0 0 0 0 0 0 0 0 0 0 0 0 0
A 107 1 0 0 0 6 669 0 0 0 0 0 0 0 0 0 0 0 0 0
A 108 1 0 0 0 6 668 0 0 0 0 0 0 0 0 0 0 0 0 0
A 109 1 0 0 0 6 674 0 0 0 0 0 0 0 0 0 0 0 0 0
A 110 1 0 0 0 6 670 0 0 0 0 0 0 0 0 0 0 0 0 0
A 111 1 0 0 0 6 679 0 0 0 0 0 0 0 0 0 0 0 0 0
A 112 1 0 0 0 6 675 0 0 0 0 0 0 0 0 0 0 0 0 0
A 113 1 0 0 80 6 680 0 0 0 0 0 0 0 0 0 0 0 0 0
A 114 1 0 0 0 6 677 0 0 0 0 0 0 0 0 0 0 0 0 0
A 115 1 0 0 76 6 676 0 0 0 0 0 0 0 0 0 0 0 0 0
A 116 1 0 0 2 6 681 0 0 0 0 0 0 0 0 0 0 0 0 0
A 117 1 0 0 0 6 678 0 0 0 0 0 0 0 0 0 0 0 0 0
A 118 1 0 0 0 6 688 0 0 0 0 0 0 0 0 0 0 0 0 0
A 119 1 0 0 10 6 682 0 0 0 0 0 0 0 0 0 0 0 0 0
A 120 1 0 0 0 6 689 0 0 0 0 0 0 0 0 0 0 0 0 0
A 121 1 0 0 84 6 684 0 0 0 0 0 0 0 0 0 0 0 0 0
A 122 1 0 0 3 6 683 0 0 0 0 0 0 0 0 0 0 0 0 0
A 123 1 0 0 0 6 690 0 0 0 0 0 0 0 0 0 0 0 0 0
A 124 1 0 0 0 6 686 0 0 0 0 0 0 0 0 0 0 0 0 0
A 125 1 0 0 0 6 685 0 0 0 0 0 0 0 0 0 0 0 0 0
A 126 1 0 0 0 6 691 0 0 0 0 0 0 0 0 0 0 0 0 0
A 127 1 0 0 0 6 687 0 0 0 0 0 0 0 0 0 0 0 0 0
A 128 1 0 0 33 6 706 0 0 0 0 0 0 0 0 0 0 0 0 0
A 129 1 0 0 21 6 700 0 0 0 0 0 0 0 0 0 0 0 0 0
A 130 1 0 0 35 6 707 0 0 0 0 0 0 0 0 0 0 0 0 0
A 131 1 0 0 25 6 702 0 0 0 0 0 0 0 0 0 0 0 0 0
A 132 1 0 0 23 6 701 0 0 0 0 0 0 0 0 0 0 0 0 0
A 133 1 0 0 37 6 708 0 0 0 0 0 0 0 0 0 0 0 0 0
A 134 1 0 0 29 6 704 0 0 0 0 0 0 0 0 0 0 0 0 0
A 135 1 0 0 27 6 703 0 0 0 0 0 0 0 0 0 0 0 0 0
A 136 1 0 0 0 6 709 0 0 0 0 0 0 0 0 0 0 0 0 0
A 137 1 0 0 31 6 705 0 0 0 0 0 0 0 0 0 0 0 0 0
A 138 1 0 0 0 6 716 0 0 0 0 0 0 0 0 0 0 0 0 0
A 139 1 0 0 0 6 710 0 0 0 0 0 0 0 0 0 0 0 0 0
A 140 1 0 0 0 6 717 0 0 0 0 0 0 0 0 0 0 0 0 0
A 141 1 0 0 0 6 712 0 0 0 0 0 0 0 0 0 0 0 0 0
A 142 1 0 0 0 6 711 0 0 0 0 0 0 0 0 0 0 0 0 0
A 143 1 0 0 0 6 718 0 0 0 0 0 0 0 0 0 0 0 0 0
A 144 1 0 0 0 6 714 0 0 0 0 0 0 0 0 0 0 0 0 0
A 145 1 0 0 0 6 713 0 0 0 0 0 0 0 0 0 0 0 0 0
A 146 1 0 0 0 6 719 0 0 0 0 0 0 0 0 0 0 0 0 0
A 147 1 0 0 0 6 715 0 0 0 0 0 0 0 0 0 0 0 0 0
A 148 1 0 0 0 6 724 0 0 0 0 0 0 0 0 0 0 0 0 0
A 149 1 0 0 0 6 720 0 0 0 0 0 0 0 0 0 0 0 0 0
A 150 1 0 0 0 6 725 0 0 0 0 0 0 0 0 0 0 0 0 0
A 151 1 0 0 0 6 722 0 0 0 0 0 0 0 0 0 0 0 0 0
A 152 1 0 0 0 6 721 0 0 0 0 0 0 0 0 0 0 0 0 0
A 153 1 0 0 0 6 726 0 0 0 0 0 0 0 0 0 0 0 0 0
A 154 1 0 0 0 6 723 0 0 0 0 0 0 0 0 0 0 0 0 0
A 155 1 0 0 43 6 729 0 0 0 0 0 0 0 0 0 0 0 0 0
A 156 1 0 0 0 6 727 0 0 0 0 0 0 0 0 0 0 0 0 0
A 157 1 0 0 0 6 730 0 0 0 0 0 0 0 0 0 0 0 0 0
A 158 1 0 0 41 6 728 0 0 0 0 0 0 0 0 0 0 0 0 0
A 159 1 0 0 42 6 733 0 0 0 0 0 0 0 0 0 0 0 0 0
A 160 1 0 0 0 6 731 0 0 0 0 0 0 0 0 0 0 0 0 0
A 161 1 0 0 45 6 734 0 0 0 0 0 0 0 0 0 0 0 0 0
A 162 1 0 0 0 6 732 0 0 0 0 0 0 0 0 0 0 0 0 0
A 163 1 0 0 0 6 747 0 0 0 0 0 0 0 0 0 0 0 0 0
A 164 1 0 0 65 6 741 0 0 0 0 0 0 0 0 0 0 0 0 0
A 165 1 0 0 0 6 748 0 0 0 0 0 0 0 0 0 0 0 0 0
A 166 1 0 0 0 6 743 0 0 0 0 0 0 0 0 0 0 0 0 0
A 167 1 0 0 67 6 742 0 0 0 0 0 0 0 0 0 0 0 0 0
A 168 1 0 0 0 6 749 0 0 0 0 0 0 0 0 0 0 0 0 0
A 169 1 0 0 0 6 745 0 0 0 0 0 0 0 0 0 0 0 0 0
A 170 1 0 0 0 6 744 0 0 0 0 0 0 0 0 0 0 0 0 0
A 171 1 0 0 0 6 750 0 0 0 0 0 0 0 0 0 0 0 0 0
A 172 1 0 0 0 6 746 0 0 0 0 0 0 0 0 0 0 0 0 0
A 173 1 0 0 0 6 757 0 0 0 0 0 0 0 0 0 0 0 0 0
A 174 1 0 0 0 6 751 0 0 0 0 0 0 0 0 0 0 0 0 0
A 175 1 0 0 0 6 758 0 0 0 0 0 0 0 0 0 0 0 0 0
A 176 1 0 0 0 6 753 0 0 0 0 0 0 0 0 0 0 0 0 0
A 177 1 0 0 77 6 752 0 0 0 0 0 0 0 0 0 0 0 0 0
A 178 1 0 0 0 6 759 0 0 0 0 0 0 0 0 0 0 0 0 0
A 179 1 0 0 0 6 755 0 0 0 0 0 0 0 0 0 0 0 0 0
A 180 1 0 0 0 6 754 0 0 0 0 0 0 0 0 0 0 0 0 0
A 181 1 0 0 0 6 760 0 0 0 0 0 0 0 0 0 0 0 0 0
A 182 1 0 0 0 6 756 0 0 0 0 0 0 0 0 0 0 0 0 0
A 183 1 0 0 0 6 767 0 0 0 0 0 0 0 0 0 0 0 0 0
A 184 1 0 0 0 6 761 0 0 0 0 0 0 0 0 0 0 0 0 0
A 185 1 0 0 0 6 768 0 0 0 0 0 0 0 0 0 0 0 0 0
A 186 1 0 0 0 6 763 0 0 0 0 0 0 0 0 0 0 0 0 0
A 187 1 0 0 0 6 762 0 0 0 0 0 0 0 0 0 0 0 0 0
A 188 1 0 0 0 6 769 0 0 0 0 0 0 0 0 0 0 0 0 0
A 189 1 0 0 0 6 765 0 0 0 0 0 0 0 0 0 0 0 0 0
A 190 1 0 0 0 6 764 0 0 0 0 0 0 0 0 0 0 0 0 0
A 191 1 0 0 0 6 770 0 0 0 0 0 0 0 0 0 0 0 0 0
A 192 1 0 0 0 6 766 0 0 0 0 0 0 0 0 0 0 0 0 0
A 193 1 0 0 0 6 775 0 0 0 0 0 0 0 0 0 0 0 0 0
A 194 1 0 0 0 6 771 0 0 0 0 0 0 0 0 0 0 0 0 0
A 195 1 0 0 0 6 776 0 0 0 0 0 0 0 0 0 0 0 0 0
A 196 1 0 0 0 6 773 0 0 0 0 0 0 0 0 0 0 0 0 0
A 197 1 0 0 0 6 772 0 0 0 0 0 0 0 0 0 0 0 0 0
A 198 1 0 0 0 6 777 0 0 0 0 0 0 0 0 0 0 0 0 0
A 199 1 0 0 81 6 774 0 0 0 0 0 0 0 0 0 0 0 0 0
A 200 1 0 0 0 6 809 0 0 0 0 0 0 0 0 0 0 0 0 0
A 201 1 0 0 0 6 803 0 0 0 0 0 0 0 0 0 0 0 0 0
A 202 1 0 0 0 6 810 0 0 0 0 0 0 0 0 0 0 0 0 0
A 203 1 0 0 0 6 805 0 0 0 0 0 0 0 0 0 0 0 0 0
A 204 1 0 0 0 6 804 0 0 0 0 0 0 0 0 0 0 0 0 0
A 205 1 0 0 0 6 811 0 0 0 0 0 0 0 0 0 0 0 0 0
A 206 1 0 0 0 6 807 0 0 0 0 0 0 0 0 0 0 0 0 0
A 207 1 0 0 0 6 806 0 0 0 0 0 0 0 0 0 0 0 0 0
A 208 1 0 0 0 6 812 0 0 0 0 0 0 0 0 0 0 0 0 0
A 209 1 0 0 0 6 808 0 0 0 0 0 0 0 0 0 0 0 0 0
A 210 1 0 0 0 6 819 0 0 0 0 0 0 0 0 0 0 0 0 0
A 211 1 0 0 0 6 813 0 0 0 0 0 0 0 0 0 0 0 0 0
A 212 1 0 0 0 6 820 0 0 0 0 0 0 0 0 0 0 0 0 0
A 213 1 0 0 0 6 815 0 0 0 0 0 0 0 0 0 0 0 0 0
A 214 1 0 0 0 6 814 0 0 0 0 0 0 0 0 0 0 0 0 0
A 215 1 0 0 0 6 821 0 0 0 0 0 0 0 0 0 0 0 0 0
A 216 1 0 0 0 6 817 0 0 0 0 0 0 0 0 0 0 0 0 0
A 217 1 0 0 0 6 816 0 0 0 0 0 0 0 0 0 0 0 0 0
A 218 1 0 0 0 6 822 0 0 0 0 0 0 0 0 0 0 0 0 0
A 219 1 0 0 0 6 818 0 0 0 0 0 0 0 0 0 0 0 0 0
A 220 1 0 0 0 6 829 0 0 0 0 0 0 0 0 0 0 0 0 0
A 221 1 0 0 0 6 823 0 0 0 0 0 0 0 0 0 0 0 0 0
A 222 1 0 0 0 6 830 0 0 0 0 0 0 0 0 0 0 0 0 0
A 223 1 0 0 0 6 825 0 0 0 0 0 0 0 0 0 0 0 0 0
A 224 1 0 0 0 6 824 0 0 0 0 0 0 0 0 0 0 0 0 0
A 225 1 0 0 0 6 831 0 0 0 0 0 0 0 0 0 0 0 0 0
A 226 1 0 0 0 6 827 0 0 0 0 0 0 0 0 0 0 0 0 0
A 227 1 0 0 0 6 826 0 0 0 0 0 0 0 0 0 0 0 0 0
A 228 1 0 0 0 6 832 0 0 0 0 0 0 0 0 0 0 0 0 0
A 229 1 0 0 0 6 828 0 0 0 0 0 0 0 0 0 0 0 0 0
A 230 1 0 0 0 6 837 0 0 0 0 0 0 0 0 0 0 0 0 0
A 231 1 0 0 0 6 833 0 0 0 0 0 0 0 0 0 0 0 0 0
A 232 1 0 0 0 6 838 0 0 0 0 0 0 0 0 0 0 0 0 0
A 233 1 0 0 0 6 835 0 0 0 0 0 0 0 0 0 0 0 0 0
A 234 1 0 0 0 6 834 0 0 0 0 0 0 0 0 0 0 0 0 0
A 235 1 0 0 0 6 839 0 0 0 0 0 0 0 0 0 0 0 0 0
A 236 1 0 0 0 6 836 0 0 0 0 0 0 0 0 0 0 0 0 0
A 237 1 0 0 0 6 842 0 0 0 0 0 0 0 0 0 0 0 0 0
A 238 1 0 0 0 6 840 0 0 0 0 0 0 0 0 0 0 0 0 0
A 239 1 0 0 48 6 843 0 0 0 0 0 0 0 0 0 0 0 0 0
A 240 1 0 0 0 6 841 0 0 0 0 0 0 0 0 0 0 0 0 0
A 241 1 0 0 0 6 846 0 0 0 0 0 0 0 0 0 0 0 0 0
A 242 1 0 0 0 6 844 0 0 0 0 0 0 0 0 0 0 0 0 0
A 243 1 0 0 9 6 847 0 0 0 0 0 0 0 0 0 0 0 0 0
A 244 1 0 0 0 6 845 0 0 0 0 0 0 0 0 0 0 0 0 0
Z
Z
