V26 w90_parameters
14 parameters.F90 S582 0
04/27/2012  15:02:53
use w90_io private
use w90_constants private
use w90_io private
use w90_constants private
enduse
D 74 18 45
D 76 18 42
D 78 21 6 1 59 58 0 1 0 0 1
 50 54 56 50 54 52
D 81 21 6 1 0 47 0 0 0 0 0
 0 47 0 3 47 0
D 84 21 6 1 3 60 0 0 0 0 0
 0 60 3 3 60 60
D 87 21 6 1 69 68 0 1 0 0 1
 63 66 67 63 66 64
D 90 21 6 1 0 47 0 0 0 0 0
 0 47 0 3 47 0
D 93 21 6 1 78 77 0 1 0 0 1
 72 75 76 72 75 73
D 96 21 6 1 0 47 0 0 0 0 0
 0 47 0 3 47 0
D 99 21 9 1 3 60 0 0 0 0 0
 0 60 3 3 60 60
D 102 21 6 1 87 86 0 1 0 0 1
 81 84 85 81 84 82
D 105 21 6 1 0 47 0 0 0 0 0
 0 47 0 3 47 0
D 108 21 9 2 105 104 0 1 0 0 1
 92 95 101 92 95 93
 97 100 103 97 100 98
D 111 21 6 1 0 90 0 0 0 0 0
 0 90 0 3 90 0
D 114 21 9 2 106 44 0 0 0 0 0
 0 60 3 3 60 60
 0 60 60 3 60 60
D 117 21 9 3 131 130 0 1 0 0 1
 112 115 126 112 115 113
 116 119 127 116 119 117
 121 125 129 121 125 123
D 120 21 6 1 0 110 0 0 0 0 0
 0 110 0 3 110 0
D 123 21 9 3 152 151 0 1 0 0 1
 136 139 148 136 139 137
 140 143 149 140 143 141
 144 147 150 144 147 145
D 126 21 6 1 0 110 0 0 0 0 0
 0 110 0 3 110 0
D 129 21 6 1 161 160 0 1 0 0 1
 155 158 159 155 158 156
D 132 21 6 1 0 47 0 0 0 0 0
 0 47 0 3 47 0
D 135 18 39
D 137 21 135 1 170 169 0 1 0 0 1
 164 167 168 164 167 165
D 140 21 6 1 0 47 0 0 0 0 0
 0 47 0 3 47 0
D 143 18 171
D 145 21 143 1 180 179 0 1 0 0 1
 174 177 178 174 177 175
D 148 21 6 1 0 47 0 0 0 0 0
 0 47 0 3 47 0
D 151 21 9 2 195 194 0 1 0 0 1
 184 187 192 184 187 185
 188 191 193 188 191 189
D 154 21 6 1 0 90 0 0 0 0 0
 0 90 0 3 90 0
D 157 21 6 1 204 203 0 1 0 0 1
 198 201 202 198 201 199
D 160 21 6 1 0 47 0 0 0 0 0
 0 47 0 3 47 0
D 163 21 6 1 213 212 0 1 0 0 1
 207 210 211 207 210 208
D 166 21 6 1 0 47 0 0 0 0 0
 0 47 0 3 47 0
D 169 21 9 2 228 227 0 1 0 0 1
 217 220 225 217 220 218
 221 224 226 221 224 222
D 172 21 6 1 0 90 0 0 0 0 0
 0 90 0 3 90 0
D 175 21 9 2 243 242 0 1 0 0 1
 232 235 240 232 235 233
 236 239 241 236 239 237
D 178 21 6 1 0 90 0 0 0 0 0
 0 90 0 3 90 0
D 181 21 6 1 252 251 0 1 0 0 1
 246 249 250 246 249 247
D 184 21 6 1 0 47 0 0 0 0 0
 0 47 0 3 47 0
D 187 21 9 1 261 260 0 1 0 0 1
 255 258 259 255 258 256
D 190 21 6 1 0 47 0 0 0 0 0
 0 47 0 3 47 0
D 193 21 9 2 106 44 0 0 0 0 0
 0 60 3 3 60 60
 0 60 60 3 60 60
D 196 21 9 2 106 44 0 0 0 0 0
 0 60 3 3 60 60
 0 60 60 3 60 60
D 199 21 9 2 106 44 0 0 0 0 0
 0 60 3 3 60 60
 0 60 60 3 60 60
D 202 21 20 1 270 269 0 1 0 0 1
 264 267 268 264 267 265
D 205 21 6 1 0 47 0 0 0 0 0
 0 47 0 3 47 0
D 208 21 9 2 285 284 0 1 0 0 1
 274 277 282 274 277 275
 278 281 283 278 281 279
D 211 21 6 1 0 90 0 0 0 0 0
 0 90 0 3 90 0
D 214 21 9 2 300 299 0 1 0 0 1
 289 292 297 289 292 290
 293 296 298 293 296 294
D 217 21 6 1 0 90 0 0 0 0 0
 0 90 0 3 90 0
D 220 21 6 2 315 314 0 1 0 0 1
 304 307 312 304 307 305
 308 311 313 308 311 309
D 223 21 6 1 0 90 0 0 0 0 0
 0 90 0 3 90 0
D 226 21 6 2 330 329 0 1 0 0 1
 319 322 327 319 322 320
 323 326 328 323 326 324
D 229 21 6 1 0 90 0 0 0 0 0
 0 90 0 3 90 0
D 232 21 6 3 351 350 0 1 0 0 1
 335 338 347 335 338 336
 339 342 348 339 342 340
 343 346 349 343 346 344
D 235 21 6 1 0 110 0 0 0 0 0
 0 110 0 3 110 0
D 238 21 9 1 360 359 0 1 0 0 1
 354 357 358 354 357 355
D 241 21 6 1 0 47 0 0 0 0 0
 0 47 0 3 47 0
D 244 21 9 3 381 380 0 1 0 0 1
 365 368 377 365 368 366
 369 372 378 369 372 370
 373 376 379 373 376 374
D 247 21 6 1 0 110 0 0 0 0 0
 0 110 0 3 110 0
D 250 21 9 2 396 395 0 1 0 0 1
 385 388 393 385 388 386
 389 392 394 389 392 390
D 253 21 6 1 0 90 0 0 0 0 0
 0 90 0 3 90 0
D 256 21 6 1 405 404 0 1 0 0 1
 399 402 403 399 402 400
D 259 21 6 1 0 47 0 0 0 0 0
 0 47 0 3 47 0
D 262 21 16 2 420 419 0 1 0 0 1
 409 412 417 409 412 410
 413 416 418 413 416 414
D 265 21 6 1 0 90 0 0 0 0 0
 0 90 0 3 90 0
D 268 21 12 3 441 440 0 1 0 0 1
 425 428 437 425 428 426
 429 432 438 429 432 430
 433 436 439 433 436 434
D 271 21 6 1 0 110 0 0 0 0 0
 0 110 0 3 110 0
D 274 21 12 4 472 471 0 1 0 0 1
 448 451 466 448 451 449
 452 455 467 452 455 453
 456 459 468 456 459 457
 461 465 470 461 465 463
D 277 21 6 1 0 446 0 0 0 0 0
 0 446 0 3 446 0
D 280 21 9 2 487 486 0 1 0 0 1
 476 479 484 476 479 477
 480 483 485 480 483 481
D 283 21 6 1 0 90 0 0 0 0 0
 0 90 0 3 90 0
D 286 21 12 3 508 507 0 1 0 0 1
 492 495 504 492 495 493
 496 499 505 496 499 497
 500 503 506 500 503 501
D 289 21 6 1 0 110 0 0 0 0 0
 0 110 0 3 110 0
D 292 21 12 3 529 528 0 1 0 0 1
 513 516 525 513 516 514
 517 520 526 517 520 518
 521 524 527 521 524 522
D 295 21 6 1 0 110 0 0 0 0 0
 0 110 0 3 110 0
D 298 21 12 4 556 555 0 1 0 0 1
 535 538 551 535 538 536
 539 542 552 539 542 540
 543 546 553 543 546 544
 547 550 554 547 550 548
D 301 21 6 1 0 446 0 0 0 0 0
 0 446 0 3 446 0
D 304 21 9 2 575 574 0 1 0 0 1
 564 567 572 564 567 565
 568 571 573 568 571 569
D 307 21 6 1 0 90 0 0 0 0 0
 0 90 0 3 90 0
D 310 21 9 1 584 583 0 1 0 0 1
 578 581 582 578 581 579
D 313 21 6 1 0 47 0 0 0 0 0
 0 47 0 3 47 0
D 316 21 135 1 593 592 0 1 0 0 1
 587 590 591 587 590 588
D 319 21 6 1 0 47 0 0 0 0 0
 0 47 0 3 47 0
D 322 21 28 1 3 595 0 0 1 0 0
 0 594 3 3 595 595
D 325 21 16 1 3 595 0 0 1 0 0
 0 594 3 3 595 595
D 328 21 6 1 3 595 0 0 1 0 0
 0 594 3 3 595 595
D 331 21 9 1 3 595 0 0 1 0 0
 0 594 3 3 595 595
D 334 21 28 2 596 601 0 0 1 0 0
 0 597 3 3 598 598
 0 599 598 3 600 600
D 337 21 16 2 596 601 0 0 1 0 0
 0 597 3 3 598 598
 0 599 598 3 600 600
D 340 21 6 2 596 601 0 0 1 0 0
 0 597 3 3 598 598
 0 599 598 3 600 600
D 343 21 9 2 596 601 0 0 1 0 0
 0 597 3 3 598 598
 0 599 598 3 600 600
D 346 21 28 1 3 603 0 0 1 0 0
 0 602 3 3 603 603
D 349 21 9 2 106 604 0 0 1 0 0
 0 60 3 3 60 60
 0 602 60 3 603 603
D 352 21 6 1 3 606 0 0 1 0 0
 0 605 3 3 606 606
S 582 24 0 0 0 9 1 0 4658 10015 0 A 0 0 0 0 0 0 0 0 0 0 0 0 0 0 0 0 0 0 0 0 0 13 0 0 0 0 0 0 w90_parameters
S 584 23 0 0 0 9 601 582 4687 14 0 A 0 0 0 0 0 0 0 0 0 0 0 0 0 0 0 0 0 0 0 0 0 0 0 582 0 0 0 0 dp
S 586 23 0 0 0 9 620 582 4697 14 0 A 0 0 0 0 0 0 0 0 0 0 0 0 0 0 0 0 0 0 0 0 0 0 0 582 0 0 0 0 stdout
S 587 23 0 0 0 6 622 582 4704 14 0 A 0 0 0 0 0 0 0 0 0 0 0 0 0 0 0 0 0 0 0 0 0 0 0 582 0 0 0 0 maxlen
S 588 3 0 0 0 6 1 1 0 0 0 A 0 0 0 0 0 0 0 0 0 8 0 0 0 0 0 0 0 0 0 0 0 0 0 0 0 0 0 0 6
R 601 16 1 w90_constants dp
S 614 3 0 0 0 6 1 1 0 0 0 A 0 0 0 0 0 0 0 0 0 50 0 0 0 0 0 0 0 0 0 0 0 0 0 0 0 0 0 0 6
S 615 3 0 0 0 6 1 1 0 0 0 A 0 0 0 0 0 0 0 0 0 120 0 0 0 0 0 0 0 0 0 0 0 0 0 0 0 0 0 0 6
S 618 3 0 0 0 6 1 1 0 0 0 A 0 0 0 0 0 0 0 0 0 9 0 0 0 0 0 0 0 0 0 0 0 0 0 0 0 0 0 0 6
R 620 6 2 w90_io stdout
R 622 16 4 w90_io maxlen
S 665 6 4 0 0 6 669 582 5032 24 0 A 0 0 0 0 0 0 0 0 0 0 0 0 1070 0 0 0 0 0 0 0 0 0 0 582 0 0 0 0 iprint
S 666 3 0 0 0 6 0 1 0 0 0 A 0 0 0 0 0 0 0 0 0 20 0 0 0 0 0 0 0 0 0 0 0 0 0 0 0 0 0 0 6
S 667 6 4 0 0 74 668 582 5039 24 0 A 0 0 0 0 0 0 0 0 0 0 0 0 1071 0 0 0 0 0 0 0 0 0 0 582 0 0 0 0 energy_unit
S 668 6 4 0 0 74 674 582 5051 24 0 A 0 0 0 0 0 20 0 0 0 0 0 0 1071 0 0 0 0 0 0 0 0 0 0 582 0 0 0 0 length_unit
S 669 6 4 0 0 16 670 582 5063 24 0 A 0 0 0 0 0 4 0 0 0 0 0 0 1070 0 0 0 0 0 0 0 0 0 0 582 0 0 0 0 wvfn_formatted
S 670 6 4 0 0 6 671 582 5078 24 0 A 0 0 0 0 0 8 0 0 0 0 0 0 1070 0 0 0 0 0 0 0 0 0 0 582 0 0 0 0 spin
S 671 6 4 0 0 6 672 582 5083 24 0 A 0 0 0 0 0 12 0 0 0 0 0 0 1070 0 0 0 0 0 0 0 0 0 0 582 0 0 0 0 num_bands
S 672 6 4 0 0 6 673 582 5093 24 0 A 0 0 0 0 0 16 0 0 0 0 0 0 1070 0 0 0 0 0 0 0 0 0 0 582 0 0 0 0 num_dump_cycles
S 673 6 4 0 0 6 686 582 5109 24 0 A 0 0 0 0 0 20 0 0 0 0 0 0 1070 0 0 0 0 0 0 0 0 0 0 582 0 0 0 0 num_print_cycles
S 674 6 4 0 0 76 711 582 5126 24 0 A 0 0 0 0 0 40 0 0 0 0 0 0 1071 0 0 0 0 0 0 0 0 0 0 582 0 0 0 0 devel_flag
S 675 7 6 0 0 78 1 582 5137 10a00024 51 A 0 0 0 0 0 0 679 0 0 0 681 0 0 0 0 0 0 0 0 678 0 0 680 582 0 0 0 0 exclude_bands
S 676 6 4 0 0 6 705 582 5151 40800016 0 A 0 0 0 0 0 0 0 0 0 0 0 0 1072 0 0 0 0 0 0 0 0 0 0 582 0 0 0 0 z_b_0
S 677 3 0 0 0 6 1 1 0 0 0 A 0 0 0 0 0 0 0 0 0 18 0 0 0 0 0 0 0 0 0 0 0 0 0 0 0 0 0 0 6
S 678 8 4 0 0 81 707 582 5157 40822004 1020 A 0 0 0 0 0 0 0 0 0 0 0 0 1070 0 0 0 0 0 0 0 0 0 0 582 0 0 0 0 exclude_bands$sd
S 679 6 4 0 0 7 680 582 5174 40802001 1020 A 0 0 0 0 0 0 0 0 0 0 0 0 1070 0 0 0 0 0 0 0 0 0 0 582 0 0 0 0 exclude_bands$p
S 680 6 4 0 0 7 678 582 5190 40802000 1020 A 0 0 0 0 0 0 0 0 0 0 0 0 1070 0 0 0 0 0 0 0 0 0 0 582 0 0 0 0 exclude_bands$o
S 681 22 1 0 0 9 1 582 5206 40000000 1000 A 0 0 0 0 0 0 0 675 0 0 0 0 678 0 0 0 0 0 0 0 0 0 0 582 0 0 0 0 exclude_bands$arrdsc
S 682 3 0 0 0 6 0 1 0 0 0 A 0 0 0 0 0 0 0 0 0 13 0 0 0 0 0 0 0 0 0 0 0 0 0 0 0 0 0 0 6
S 683 3 0 0 0 6 0 1 0 0 0 A 0 0 0 0 0 0 0 0 0 14 0 0 0 0 0 0 0 0 0 0 0 0 0 0 0 0 0 0 6
S 684 3 0 0 0 6 0 1 0 0 0 A 0 0 0 0 0 0 0 0 0 17 0 0 0 0 0 0 0 0 0 0 0 0 0 0 0 0 0 0 6
S 685 3 0 0 0 6 0 1 0 0 0 A 0 0 0 0 0 0 0 0 0 7 0 0 0 0 0 0 0 0 0 0 0 0 0 0 0 0 0 0 6
S 686 6 4 0 0 6 687 582 5227 24 0 A 0 0 0 0 0 24 0 0 0 0 0 0 1070 0 0 0 0 0 0 0 0 0 0 582 0 0 0 0 num_wann
S 687 7 4 0 4 84 689 582 5236 800024 100 A 0 0 0 0 0 32 0 0 0 0 0 0 1070 0 0 0 0 0 0 0 0 0 0 582 0 0 0 0 mp_grid
S 688 3 0 0 0 6 1 1 0 0 0 A 0 0 0 0 0 0 0 0 0 3 0 0 0 0 0 0 0 0 0 0 0 0 0 0 0 0 0 0 6
S 689 6 4 0 0 16 690 582 5244 24 0 A 0 0 0 0 0 44 0 0 0 0 0 0 1070 0 0 0 0 0 0 0 0 0 0 582 0 0 0 0 automatic_mp_grid
S 690 6 4 0 0 16 695 582 5262 24 0 A 0 0 0 0 0 48 0 0 0 0 0 0 1070 0 0 0 0 0 0 0 0 0 0 582 0 0 0 0 gamma_only
S 691 6 4 0 0 9 692 582 5273 24 0 A 0 0 0 0 0 0 0 0 0 0 0 0 1073 0 0 0 0 0 0 0 0 0 0 582 0 0 0 0 dis_win_min
S 692 6 4 0 0 9 693 582 5285 24 0 A 0 0 0 0 0 8 0 0 0 0 0 0 1073 0 0 0 0 0 0 0 0 0 0 582 0 0 0 0 dis_win_max
S 693 6 4 0 0 9 694 582 5297 24 0 A 0 0 0 0 0 16 0 0 0 0 0 0 1073 0 0 0 0 0 0 0 0 0 0 582 0 0 0 0 dis_froz_min
S 694 6 4 0 0 9 696 582 5310 24 0 A 0 0 0 0 0 24 0 0 0 0 0 0 1073 0 0 0 0 0 0 0 0 0 0 582 0 0 0 0 dis_froz_max
S 695 6 4 0 0 6 698 582 5323 24 0 A 0 0 0 0 0 52 0 0 0 0 0 0 1070 0 0 0 0 0 0 0 0 0 0 582 0 0 0 0 dis_num_iter
S 696 6 4 0 0 9 697 582 5336 24 0 A 0 0 0 0 0 32 0 0 0 0 0 0 1073 0 0 0 0 0 0 0 0 0 0 582 0 0 0 0 dis_mix_ratio
S 697 6 4 0 0 9 701 582 5350 24 0 A 0 0 0 0 0 40 0 0 0 0 0 0 1073 0 0 0 0 0 0 0 0 0 0 582 0 0 0 0 dis_conv_tol
S 698 6 4 0 0 6 699 582 5363 24 0 A 0 0 0 0 0 56 0 0 0 0 0 0 1070 0 0 0 0 0 0 0 0 0 0 582 0 0 0 0 dis_conv_window
S 699 6 4 0 0 6 700 582 5379 24 0 A 0 0 0 0 0 60 0 0 0 0 0 0 1070 0 0 0 0 0 0 0 0 0 0 582 0 0 0 0 num_iter
S 700 6 4 0 0 6 702 582 5388 24 0 A 0 0 0 0 0 64 0 0 0 0 0 0 1070 0 0 0 0 0 0 0 0 0 0 582 0 0 0 0 num_cg_steps
S 701 6 4 0 0 9 725 582 5401 24 0 A 0 0 0 0 0 48 0 0 0 0 0 0 1073 0 0 0 0 0 0 0 0 0 0 582 0 0 0 0 conv_tol
S 702 6 4 0 0 6 703 582 5410 24 0 A 0 0 0 0 0 68 0 0 0 0 0 0 1070 0 0 0 0 0 0 0 0 0 0 582 0 0 0 0 conv_window
S 703 6 4 0 0 16 710 582 5422 24 0 A 0 0 0 0 0 72 0 0 0 0 0 0 1070 0 0 0 0 0 0 0 0 0 0 582 0 0 0 0 wannier_plot
S 704 7 6 0 0 87 1 582 5435 10a00024 51 A 0 0 0 0 0 0 707 0 0 0 709 0 0 0 0 0 0 0 0 706 0 0 708 582 0 0 0 0 wannier_plot_list
S 705 6 4 0 0 6 718 582 5453 40800016 0 A 0 0 0 0 0 4 0 0 0 0 0 0 1072 0 0 0 0 0 0 0 0 0 0 582 0 0 0 0 z_b_1
S 706 8 4 0 0 90 720 582 5459 40822004 1020 A 0 0 0 0 0 0 0 0 0 0 0 0 1070 0 0 0 0 0 0 0 0 0 0 582 0 0 0 0 wannier_plot_list$sd
S 707 6 4 0 0 7 708 582 5480 40802001 1020 A 0 0 0 0 0 0 0 0 0 0 0 0 1070 0 0 0 0 0 0 0 0 0 0 582 0 0 0 0 wannier_plot_list$p
S 708 6 4 0 0 7 706 582 5500 40802000 1020 A 0 0 0 0 0 0 0 0 0 0 0 0 1070 0 0 0 0 0 0 0 0 0 0 582 0 0 0 0 wannier_plot_list$o
S 709 22 1 0 0 9 1 582 5520 40000000 1000 A 0 0 0 0 0 0 0 704 0 0 0 0 706 0 0 0 0 0 0 0 0 0 0 582 0 0 0 0 wannier_plot_list$arrdsc
S 710 6 4 0 0 6 713 582 5545 24 0 A 0 0 0 0 0 76 0 0 0 0 0 0 1070 0 0 0 0 0 0 0 0 0 0 582 0 0 0 0 wannier_plot_supercell
S 711 6 4 0 0 74 712 582 5568 24 0 A 0 0 0 0 0 90 0 0 0 0 0 0 1071 0 0 0 0 0 0 0 0 0 0 582 0 0 0 0 wannier_plot_format
S 712 6 4 0 0 74 715 582 5588 24 0 A 0 0 0 0 0 110 0 0 0 0 0 0 1071 0 0 0 0 0 0 0 0 0 0 582 0 0 0 0 wannier_plot_mode
S 713 6 4 0 0 16 714 582 5606 24 0 A 0 0 0 0 0 80 0 0 0 0 0 0 1070 0 0 0 0 0 0 0 0 0 0 582 0 0 0 0 bands_plot
S 714 6 4 0 0 6 723 582 5617 24 0 A 0 0 0 0 0 84 0 0 0 0 0 0 1070 0 0 0 0 0 0 0 0 0 0 582 0 0 0 0 bands_num_points
S 715 6 4 0 0 74 716 582 5634 24 0 A 0 0 0 0 0 130 0 0 0 0 0 0 1071 0 0 0 0 0 0 0 0 0 0 582 0 0 0 0 bands_plot_format
S 716 6 4 0 0 74 727 582 5652 24 0 A 0 0 0 0 0 150 0 0 0 0 0 0 1071 0 0 0 0 0 0 0 0 0 0 582 0 0 0 0 bands_plot_mode
S 717 7 6 0 0 93 1 582 5668 10a00024 51 A 0 0 0 0 0 0 720 0 0 0 722 0 0 0 0 0 0 0 0 719 0 0 721 582 0 0 0 0 bands_plot_project
S 718 6 4 0 0 6 759 582 5687 40800016 0 A 0 0 0 0 0 8 0 0 0 0 0 0 1072 0 0 0 0 0 0 0 0 0 0 582 0 0 0 0 z_b_2
S 719 8 4 0 0 96 761 582 5693 40822004 1020 A 0 0 0 0 0 0 0 0 0 0 0 0 1070 0 0 0 0 0 0 0 0 0 0 582 0 0 0 0 bands_plot_project$sd
S 720 6 4 0 0 7 721 582 5715 40802001 1020 A 0 0 0 0 0 0 0 0 0 0 0 0 1070 0 0 0 0 0 0 0 0 0 0 582 0 0 0 0 bands_plot_project$p
S 721 6 4 0 0 7 719 582 5736 40802000 1020 A 0 0 0 0 0 0 0 0 0 0 0 0 1070 0 0 0 0 0 0 0 0 0 0 582 0 0 0 0 bands_plot_project$o
S 722 22 1 0 0 9 1 582 5757 40000000 1000 A 0 0 0 0 0 0 0 717 0 0 0 0 719 0 0 0 0 0 0 0 0 0 0 582 0 0 0 0 bands_plot_project$arrdsc
S 723 6 4 0 0 6 724 582 5783 24 0 A 0 0 0 0 0 88 0 0 0 0 0 0 1070 0 0 0 0 0 0 0 0 0 0 582 0 0 0 0 bands_plot_dim
S 724 6 4 0 0 16 729 582 5798 24 0 A 0 0 0 0 0 92 0 0 0 0 0 0 1070 0 0 0 0 0 0 0 0 0 0 582 0 0 0 0 hr_plot
S 725 6 4 0 0 9 726 582 5806 24 0 A 0 0 0 0 0 56 0 0 0 0 0 0 1073 0 0 0 0 0 0 0 0 0 0 582 0 0 0 0 hr_cutoff
S 726 6 4 0 0 9 732 582 5816 24 0 A 0 0 0 0 0 64 0 0 0 0 0 0 1073 0 0 0 0 0 0 0 0 0 0 582 0 0 0 0 dist_cutoff
S 727 6 4 0 0 74 728 582 5828 24 0 A 0 0 0 0 0 170 0 0 0 0 0 0 1071 0 0 0 0 0 0 0 0 0 0 582 0 0 0 0 dist_cutoff_mode
S 728 6 4 0 0 74 731 582 5845 24 0 A 0 0 0 0 0 190 0 0 0 0 0 0 1071 0 0 0 0 0 0 0 0 0 0 582 0 0 0 0 one_dim_axis
S 729 6 4 0 0 16 730 582 5858 24 0 A 0 0 0 0 0 96 0 0 0 0 0 0 1070 0 0 0 0 0 0 0 0 0 0 582 0 0 0 0 fermi_surface_plot
S 730 6 4 0 0 6 733 582 5877 24 0 A 0 0 0 0 0 100 0 0 0 0 0 0 1070 0 0 0 0 0 0 0 0 0 0 582 0 0 0 0 fermi_surface_num_points
S 731 6 4 0 0 74 735 582 5902 24 0 A 0 0 0 0 0 210 0 0 0 0 0 0 1071 0 0 0 0 0 0 0 0 0 0 582 0 0 0 0 fermi_surface_plot_format
S 732 6 4 0 0 9 738 582 5928 24 0 A 0 0 0 0 0 72 0 0 0 0 0 0 1073 0 0 0 0 0 0 0 0 0 0 582 0 0 0 0 fermi_energy
S 733 6 4 0 0 16 734 582 5941 24 0 A 0 0 0 0 0 104 0 0 0 0 0 0 1070 0 0 0 0 0 0 0 0 0 0 582 0 0 0 0 slice_plot
S 734 6 4 0 0 6 736 582 5952 24 0 A 0 0 0 0 0 108 0 0 0 0 0 0 1070 0 0 0 0 0 0 0 0 0 0 582 0 0 0 0 slice_num_points
S 735 6 4 0 0 74 740 582 5969 24 0 A 0 0 0 0 0 230 0 0 0 0 0 0 1071 0 0 0 0 0 0 0 0 0 0 582 0 0 0 0 slice_plot_format
S 736 6 4 0 0 16 737 582 5987 24 0 A 0 0 0 0 0 112 0 0 0 0 0 0 1070 0 0 0 0 0 0 0 0 0 0 582 0 0 0 0 dos_plot
S 737 6 4 0 0 6 741 582 5996 24 0 A 0 0 0 0 0 116 0 0 0 0 0 0 1070 0 0 0 0 0 0 0 0 0 0 582 0 0 0 0 dos_num_points
S 738 6 4 0 0 9 739 582 6011 24 0 A 0 0 0 0 0 80 0 0 0 0 0 0 1073 0 0 0 0 0 0 0 0 0 0 582 0 0 0 0 dos_energy_step
S 739 6 4 0 0 9 743 582 6027 24 0 A 0 0 0 0 0 88 0 0 0 0 0 0 1073 0 0 0 0 0 0 0 0 0 0 582 0 0 0 0 dos_gaussian_width
S 740 6 4 0 0 74 742 582 6046 24 0 A 0 0 0 0 0 250 0 0 0 0 0 0 1071 0 0 0 0 0 0 0 0 0 0 582 0 0 0 0 dos_plot_format
S 741 6 4 0 0 16 746 582 6062 24 0 A 0 0 0 0 0 120 0 0 0 0 0 0 1070 0 0 0 0 0 0 0 0 0 0 582 0 0 0 0 transport
S 742 6 4 0 0 74 780 582 6072 24 0 A 0 0 0 0 0 270 0 0 0 0 0 0 1071 0 0 0 0 0 0 0 0 0 0 582 0 0 0 0 transport_mode
S 743 6 4 0 0 9 744 582 6087 24 0 A 0 0 0 0 0 96 0 0 0 0 0 0 1073 0 0 0 0 0 0 0 0 0 0 582 0 0 0 0 tran_win_min
S 744 6 4 0 0 9 745 582 6100 24 0 A 0 0 0 0 0 104 0 0 0 0 0 0 1073 0 0 0 0 0 0 0 0 0 0 582 0 0 0 0 tran_win_max
S 745 6 4 0 0 9 756 582 6113 24 0 A 0 0 0 0 0 112 0 0 0 0 0 0 1073 0 0 0 0 0 0 0 0 0 0 582 0 0 0 0 tran_energy_step
S 746 6 4 0 0 6 747 582 6130 24 0 A 0 0 0 0 0 124 0 0 0 0 0 0 1070 0 0 0 0 0 0 0 0 0 0 582 0 0 0 0 tran_num_bb
S 747 6 4 0 0 6 748 582 6142 24 0 A 0 0 0 0 0 128 0 0 0 0 0 0 1070 0 0 0 0 0 0 0 0 0 0 582 0 0 0 0 tran_num_ll
S 748 6 4 0 0 6 749 582 6154 24 0 A 0 0 0 0 0 132 0 0 0 0 0 0 1070 0 0 0 0 0 0 0 0 0 0 582 0 0 0 0 tran_num_rr
S 749 6 4 0 0 6 750 582 6166 24 0 A 0 0 0 0 0 136 0 0 0 0 0 0 1070 0 0 0 0 0 0 0 0 0 0 582 0 0 0 0 tran_num_cc
S 750 6 4 0 0 6 751 582 6178 24 0 A 0 0 0 0 0 140 0 0 0 0 0 0 1070 0 0 0 0 0 0 0 0 0 0 582 0 0 0 0 tran_num_lc
S 751 6 4 0 0 6 752 582 6190 24 0 A 0 0 0 0 0 144 0 0 0 0 0 0 1070 0 0 0 0 0 0 0 0 0 0 582 0 0 0 0 tran_num_cr
S 752 6 4 0 0 6 753 582 6202 24 0 A 0 0 0 0 0 148 0 0 0 0 0 0 1070 0 0 0 0 0 0 0 0 0 0 582 0 0 0 0 tran_num_bandc
S 753 6 4 0 0 16 754 582 6217 24 0 A 0 0 0 0 0 152 0 0 0 0 0 0 1070 0 0 0 0 0 0 0 0 0 0 582 0 0 0 0 tran_write_ht
S 754 6 4 0 0 16 755 582 6231 24 0 A 0 0 0 0 0 156 0 0 0 0 0 0 1070 0 0 0 0 0 0 0 0 0 0 582 0 0 0 0 tran_read_ht
S 755 6 4 0 0 16 757 582 6244 24 0 A 0 0 0 0 0 160 0 0 0 0 0 0 1070 0 0 0 0 0 0 0 0 0 0 582 0 0 0 0 tran_use_same_lead
S 756 7 4 0 4 99 774 582 6263 800024 100 A 0 0 0 0 0 128 0 0 0 0 0 0 1073 0 0 0 0 0 0 0 0 0 0 582 0 0 0 0 translation_centre_frac
S 757 6 4 0 0 6 776 582 6287 24 0 A 0 0 0 0 0 164 0 0 0 0 0 0 1070 0 0 0 0 0 0 0 0 0 0 582 0 0 0 0 num_shells
S 758 7 6 0 0 102 1 582 6298 10a00024 51 A 0 0 0 0 0 0 761 0 0 0 763 0 0 0 0 0 0 0 0 760 0 0 762 582 0 0 0 0 shell_list
S 759 6 4 0 0 6 765 582 6309 40800016 0 A 0 0 0 0 0 12 0 0 0 0 0 0 1072 0 0 0 0 0 0 0 0 0 0 582 0 0 0 0 z_b_3
S 760 8 4 0 0 105 769 582 6315 40822004 1020 A 0 0 0 0 0 0 0 0 0 0 0 0 1070 0 0 0 0 0 0 0 0 0 0 582 0 0 0 0 shell_list$sd
S 761 6 4 0 0 7 762 582 6329 40802001 1020 A 0 0 0 0 0 0 0 0 0 0 0 0 1070 0 0 0 0 0 0 0 0 0 0 582 0 0 0 0 shell_list$p
S 762 6 4 0 0 7 760 582 6342 40802000 1020 A 0 0 0 0 0 0 0 0 0 0 0 0 1070 0 0 0 0 0 0 0 0 0 0 582 0 0 0 0 shell_list$o
S 763 22 1 0 0 9 1 582 6355 40000000 1000 A 0 0 0 0 0 0 0 758 0 0 0 0 760 0 0 0 0 0 0 0 0 0 0 582 0 0 0 0 shell_list$arrdsc
S 764 7 6 0 0 108 1 582 6373 10a00024 51 A 0 0 0 0 0 0 769 0 0 0 771 0 0 0 0 0 0 0 0 768 0 0 770 582 0 0 0 0 kpt_latt
S 765 6 4 0 0 6 766 582 6382 40800016 0 A 0 0 0 0 0 16 0 0 0 0 0 0 1072 0 0 0 0 0 0 0 0 0 0 582 0 0 0 0 z_b_4
S 766 6 4 0 0 6 801 582 6388 40800016 0 A 0 0 0 0 0 20 0 0 0 0 0 0 1072 0 0 0 0 0 0 0 0 0 0 582 0 0 0 0 z_b_5
S 767 3 0 0 0 6 1 1 0 0 0 A 0 0 0 0 0 0 0 0 0 24 0 0 0 0 0 0 0 0 0 0 0 0 0 0 0 0 0 0 6
S 768 8 4 0 0 111 806 582 6394 40822004 1020 A 0 0 0 0 0 0 0 0 0 0 0 0 1070 0 0 0 0 0 0 0 0 0 0 582 0 0 0 0 kpt_latt$sd
S 769 6 4 0 0 7 770 582 6406 40802001 1020 A 0 0 0 0 0 0 0 0 0 0 0 0 1070 0 0 0 0 0 0 0 0 0 0 582 0 0 0 0 kpt_latt$p
S 770 6 4 0 0 7 768 582 6417 40802000 1020 A 0 0 0 0 0 0 0 0 0 0 0 0 1070 0 0 0 0 0 0 0 0 0 0 582 0 0 0 0 kpt_latt$o
S 771 22 1 0 0 6 1 582 6428 40000000 1000 A 0 0 0 0 0 0 0 764 0 0 0 0 768 0 0 0 0 0 0 0 0 0 0 582 0 0 0 0 kpt_latt$arrdsc
S 772 3 0 0 0 6 0 1 0 0 0 A 0 0 0 0 0 0 0 0 0 19 0 0 0 0 0 0 0 0 0 0 0 0 0 0 0 0 0 0 6
S 773 3 0 0 0 6 0 1 0 0 0 A 0 0 0 0 0 0 0 0 0 23 0 0 0 0 0 0 0 0 0 0 0 0 0 0 0 0 0 0 6
S 774 7 4 0 4 114 785 582 6444 800024 100 A 0 0 0 0 0 160 0 0 0 0 0 0 1073 0 0 0 0 0 0 0 0 0 0 582 0 0 0 0 real_lattice
S 775 3 0 0 0 6 1 1 0 0 0 A 0 0 0 0 0 0 0 0 0 4 0 0 0 0 0 0 0 0 0 0 0 0 0 0 0 0 0 0 6
S 776 6 4 0 0 16 777 582 6457 24 0 A 0 0 0 0 0 168 0 0 0 0 0 0 1070 0 0 0 0 0 0 0 0 0 0 582 0 0 0 0 postproc_setup
S 777 6 4 0 0 16 778 582 6472 24 0 A 0 0 0 0 0 172 0 0 0 0 0 0 1070 0 0 0 0 0 0 0 0 0 0 582 0 0 0 0 cp_pp
S 778 6 4 0 0 16 779 582 6478 24 0 A 0 0 0 0 0 176 0 0 0 0 0 0 1070 0 0 0 0 0 0 0 0 0 0 582 0 0 0 0 calc_only_a
S 779 6 4 0 0 16 781 582 6490 24 0 A 0 0 0 0 0 180 0 0 0 0 0 0 1070 0 0 0 0 0 0 0 0 0 0 582 0 0 0 0 use_bloch_phases
S 780 6 4 0 0 74 798 582 6507 24 0 A 0 0 0 0 0 290 0 0 0 0 0 0 1071 0 0 0 0 0 0 0 0 0 0 582 0 0 0 0 restart
S 781 6 4 0 0 16 782 582 6515 24 0 A 0 0 0 0 0 184 0 0 0 0 0 0 1070 0 0 0 0 0 0 0 0 0 0 582 0 0 0 0 write_r2mn
S 782 6 4 0 0 16 783 582 6526 24 0 A 0 0 0 0 0 188 0 0 0 0 0 0 1070 0 0 0 0 0 0 0 0 0 0 582 0 0 0 0 guiding_centres
S 783 6 4 0 0 6 784 582 6542 24 0 A 0 0 0 0 0 192 0 0 0 0 0 0 1070 0 0 0 0 0 0 0 0 0 0 582 0 0 0 0 num_guide_cycles
S 784 6 4 0 0 6 787 582 6559 24 0 A 0 0 0 0 0 196 0 0 0 0 0 0 1070 0 0 0 0 0 0 0 0 0 0 582 0 0 0 0 num_no_guide_iter
S 785 6 4 0 0 9 786 582 6577 24 0 A 0 0 0 0 0 232 0 0 0 0 0 0 1073 0 0 0 0 0 0 0 0 0 0 582 0 0 0 0 fixed_step
S 786 6 4 0 0 9 792 582 6588 24 0 A 0 0 0 0 0 240 0 0 0 0 0 0 1073 0 0 0 0 0 0 0 0 0 0 582 0 0 0 0 trial_step
S 787 6 4 0 0 16 788 582 6599 24 0 A 0 0 0 0 0 200 0 0 0 0 0 0 1070 0 0 0 0 0 0 0 0 0 0 582 0 0 0 0 write_proj
S 788 6 4 0 0 6 789 582 6610 24 0 A 0 0 0 0 0 204 0 0 0 0 0 0 1070 0 0 0 0 0 0 0 0 0 0 582 0 0 0 0 timing_level
S 789 6 4 0 0 16 790 582 6623 24 0 A 0 0 0 0 0 208 0 0 0 0 0 0 1070 0 0 0 0 0 0 0 0 0 0 582 0 0 0 0 spinors
S 790 6 4 0 0 16 791 582 6631 24 0 A 0 0 0 0 0 212 0 0 0 0 0 0 1070 0 0 0 0 0 0 0 0 0 0 582 0 0 0 0 translate_home_cell
S 791 6 4 0 0 16 793 582 6651 24 0 A 0 0 0 0 0 216 0 0 0 0 0 0 1070 0 0 0 0 0 0 0 0 0 0 582 0 0 0 0 write_xyz
S 792 6 4 0 0 9 794 582 6661 24 0 A 0 0 0 0 0 248 0 0 0 0 0 0 1073 0 0 0 0 0 0 0 0 0 0 582 0 0 0 0 conv_noise_amp
S 793 6 4 0 0 6 795 582 6676 24 0 A 0 0 0 0 0 220 0 0 0 0 0 0 1070 0 0 0 0 0 0 0 0 0 0 582 0 0 0 0 conv_noise_num
S 794 6 4 0 0 9 796 582 6691 24 0 A 0 0 0 0 0 256 0 0 0 0 0 0 1073 0 0 0 0 0 0 0 0 0 0 582 0 0 0 0 wannier_plot_radius
S 795 6 4 0 0 6 799 582 6711 24 0 A 0 0 0 0 0 224 0 0 0 0 0 0 1070 0 0 0 0 0 0 0 0 0 0 582 0 0 0 0 search_shells
S 796 6 4 0 0 9 797 582 6725 24 0 A 0 0 0 0 0 264 0 0 0 0 0 0 1073 0 0 0 0 0 0 0 0 0 0 582 0 0 0 0 kmesh_tol
S 797 6 4 0 0 9 888 582 6735 24 0 A 0 0 0 0 0 272 0 0 0 0 0 0 1073 0 0 0 0 0 0 0 0 0 0 582 0 0 0 0 omega_invariant
S 798 6 4 0 0 74 1 582 6751 24 0 A 0 0 0 0 0 310 0 0 0 0 0 0 1071 0 0 0 0 0 0 0 0 0 0 582 0 0 0 0 checkpoint
S 799 6 4 0 0 16 839 582 6762 24 0 A 0 0 0 0 0 228 0 0 0 0 0 0 1070 0 0 0 0 0 0 0 0 0 0 582 0 0 0 0 have_disentangled
S 800 7 6 0 0 117 1 582 6780 10a00024 51 A 0 0 0 0 0 0 806 0 0 0 808 0 0 0 0 0 0 0 0 805 0 0 807 582 0 0 0 0 atoms_pos_frac
S 801 6 4 0 0 6 802 582 6795 40800016 0 A 0 0 0 0 0 24 0 0 0 0 0 0 1072 0 0 0 0 0 0 0 0 0 0 582 0 0 0 0 z_b_6
S 802 6 4 0 0 6 803 582 6801 40800016 0 A 0 0 0 0 0 28 0 0 0 0 0 0 1072 0 0 0 0 0 0 0 0 0 0 582 0 0 0 0 z_b_7
S 803 6 4 0 0 6 813 582 6807 40800016 0 A 0 0 0 0 0 32 0 0 0 0 0 0 1072 0 0 0 0 0 0 0 0 0 0 582 0 0 0 0 z_b_8
S 804 3 0 0 0 6 1 1 0 0 0 A 0 0 0 0 0 0 0 0 0 30 0 0 0 0 0 0 0 0 0 0 0 0 0 0 0 0 0 0 6
S 805 8 4 0 0 120 817 582 6813 40822004 1020 A 0 0 0 0 0 0 0 0 0 0 0 0 1070 0 0 0 0 0 0 0 0 0 0 582 0 0 0 0 atoms_pos_frac$sd
S 806 6 4 0 0 7 807 582 6831 40802001 1020 A 0 0 0 0 0 0 0 0 0 0 0 0 1070 0 0 0 0 0 0 0 0 0 0 582 0 0 0 0 atoms_pos_frac$p
S 807 6 4 0 0 7 805 582 6848 40802000 1020 A 0 0 0 0 0 0 0 0 0 0 0 0 1070 0 0 0 0 0 0 0 0 0 0 582 0 0 0 0 atoms_pos_frac$o
S 808 22 1 0 0 9 1 582 6865 40000000 1000 A 0 0 0 0 0 0 0 800 0 0 0 0 805 0 0 0 0 0 0 0 0 0 0 582 0 0 0 0 atoms_pos_frac$arrdsc
S 809 3 0 0 0 6 0 1 0 0 0 A 0 0 0 0 0 0 0 0 0 25 0 0 0 0 0 0 0 0 0 0 0 0 0 0 0 0 0 0 6
S 810 3 0 0 0 6 0 1 0 0 0 A 0 0 0 0 0 0 0 0 0 26 0 0 0 0 0 0 0 0 0 0 0 0 0 0 0 0 0 0 6
S 811 3 0 0 0 6 0 1 0 0 0 A 0 0 0 0 0 0 0 0 0 29 0 0 0 0 0 0 0 0 0 0 0 0 0 0 0 0 0 0 6
S 812 7 6 0 0 123 1 582 6887 10a00024 51 A 0 0 0 0 0 0 817 0 0 0 819 0 0 0 0 0 0 0 0 816 0 0 818 582 0 0 0 0 atoms_pos_cart
S 813 6 4 0 0 6 814 582 6902 40800016 0 A 0 0 0 0 0 36 0 0 0 0 0 0 1072 0 0 0 0 0 0 0 0 0 0 582 0 0 0 0 z_b_9
S 814 6 4 0 0 6 815 582 6908 40800016 0 A 0 0 0 0 0 40 0 0 0 0 0 0 1072 0 0 0 0 0 0 0 0 0 0 582 0 0 0 0 z_b_10
S 815 6 4 0 0 6 821 582 6915 40800016 0 A 0 0 0 0 0 44 0 0 0 0 0 0 1072 0 0 0 0 0 0 0 0 0 0 582 0 0 0 0 z_b_11
S 816 8 4 0 0 126 823 582 6922 40822004 1020 A 0 0 0 0 0 0 0 0 0 0 0 0 1070 0 0 0 0 0 0 0 0 0 0 582 0 0 0 0 atoms_pos_cart$sd
S 817 6 4 0 0 7 818 582 6940 40802001 1020 A 0 0 0 0 0 0 0 0 0 0 0 0 1070 0 0 0 0 0 0 0 0 0 0 582 0 0 0 0 atoms_pos_cart$p
S 818 6 4 0 0 7 816 582 6957 40802000 1020 A 0 0 0 0 0 0 0 0 0 0 0 0 1070 0 0 0 0 0 0 0 0 0 0 582 0 0 0 0 atoms_pos_cart$o
S 819 22 1 0 0 9 1 582 6974 40000000 1000 A 0 0 0 0 0 0 0 812 0 0 0 0 816 0 0 0 0 0 0 0 0 0 0 582 0 0 0 0 atoms_pos_cart$arrdsc
S 820 7 6 0 0 129 1 582 6996 10a00024 51 A 0 0 0 0 0 0 823 0 0 0 825 0 0 0 0 0 0 0 0 822 0 0 824 582 0 0 0 0 atoms_species_num
S 821 6 4 0 0 6 827 582 7014 40800016 0 A 0 0 0 0 0 48 0 0 0 0 0 0 1072 0 0 0 0 0 0 0 0 0 0 582 0 0 0 0 z_b_12
S 822 8 4 0 0 132 829 582 7021 40822004 1020 A 0 0 0 0 0 0 0 0 0 0 0 0 1070 0 0 0 0 0 0 0 0 0 0 582 0 0 0 0 atoms_species_num$sd
S 823 6 4 0 0 7 824 582 7042 40802001 1020 A 0 0 0 0 0 0 0 0 0 0 0 0 1070 0 0 0 0 0 0 0 0 0 0 582 0 0 0 0 atoms_species_num$p
S 824 6 4 0 0 7 822 582 7062 40802000 1020 A 0 0 0 0 0 0 0 0 0 0 0 0 1070 0 0 0 0 0 0 0 0 0 0 582 0 0 0 0 atoms_species_num$o
S 825 22 1 0 0 9 1 582 7082 40000000 1000 A 0 0 0 0 0 0 0 820 0 0 0 0 822 0 0 0 0 0 0 0 0 0 0 582 0 0 0 0 atoms_species_num$arrdsc
S 826 7 6 0 0 137 1 582 7107 10a00024 51 A 0 0 0 0 0 0 829 0 0 0 831 0 0 0 0 0 0 0 0 828 0 0 830 582 0 0 0 0 atoms_label
S 827 6 4 0 0 6 834 582 7119 40800016 0 A 0 0 0 0 0 52 0 0 0 0 0 0 1072 0 0 0 0 0 0 0 0 0 0 582 0 0 0 0 z_b_13
S 828 8 4 0 0 140 836 582 7126 40822004 1020 A 0 0 0 0 0 0 0 0 0 0 0 0 1070 0 0 0 0 0 0 0 0 0 0 582 0 0 0 0 atoms_label$sd
S 829 6 4 0 0 7 830 582 7141 40802001 1020 A 0 0 0 0 0 0 0 0 0 0 0 0 1070 0 0 0 0 0 0 0 0 0 0 582 0 0 0 0 atoms_label$p
S 830 6 4 0 0 7 828 582 7155 40802000 1020 A 0 0 0 0 0 0 0 0 0 0 0 0 1070 0 0 0 0 0 0 0 0 0 0 582 0 0 0 0 atoms_label$o
S 831 22 1 0 0 9 1 582 7169 40000000 1000 A 0 0 0 0 0 0 0 826 0 0 0 0 828 0 0 0 0 0 0 0 0 0 0 582 0 0 0 0 atoms_label$arrdsc
S 832 3 0 0 0 6 0 1 0 0 0 A 0 0 0 0 0 0 0 0 0 2 0 0 0 0 0 0 0 0 0 0 0 0 0 0 0 0 0 0 6
S 833 7 6 0 0 145 1 582 7188 10a00024 51 A 0 0 0 0 0 0 836 0 0 0 838 0 0 0 0 0 0 0 0 835 0 0 837 582 0 0 0 0 atoms_symbol
S 834 6 4 0 0 6 842 582 7201 40800016 0 A 0 0 0 0 0 56 0 0 0 0 0 0 1072 0 0 0 0 0 0 0 0 0 0 582 0 0 0 0 z_b_14
S 835 8 4 0 0 148 845 582 7208 40822004 1020 A 0 0 0 0 0 0 0 0 0 0 0 0 1070 0 0 0 0 0 0 0 0 0 0 582 0 0 0 0 atoms_symbol$sd
S 836 6 4 0 0 7 837 582 7224 40802001 1020 A 0 0 0 0 0 0 0 0 0 0 0 0 1070 0 0 0 0 0 0 0 0 0 0 582 0 0 0 0 atoms_symbol$p
S 837 6 4 0 0 7 835 582 7239 40802000 1020 A 0 0 0 0 0 0 0 0 0 0 0 0 1070 0 0 0 0 0 0 0 0 0 0 582 0 0 0 0 atoms_symbol$o
S 838 22 1 0 0 9 1 582 7254 40000000 1000 A 0 0 0 0 0 0 0 833 0 0 0 0 835 0 0 0 0 0 0 0 0 0 0 582 0 0 0 0 atoms_symbol$arrdsc
S 839 6 4 0 0 6 840 582 7274 24 0 A 0 0 0 0 0 232 0 0 0 0 0 0 1070 0 0 0 0 0 0 0 0 0 0 582 0 0 0 0 num_atoms
S 840 6 4 0 0 6 886 582 7284 24 0 A 0 0 0 0 0 236 0 0 0 0 0 0 1070 0 0 0 0 0 0 0 0 0 0 582 0 0 0 0 num_species
S 841 7 6 0 0 151 1 582 7296 10a00024 51 A 0 0 0 0 0 0 845 0 0 0 847 0 0 0 0 0 0 0 0 844 0 0 846 582 0 0 0 0 proj_site
S 842 6 4 0 0 6 843 582 7306 40800016 0 A 0 0 0 0 0 60 0 0 0 0 0 0 1072 0 0 0 0 0 0 0 0 0 0 582 0 0 0 0 z_b_15
S 843 6 4 0 0 6 849 582 7313 40800016 0 A 0 0 0 0 0 64 0 0 0 0 0 0 1072 0 0 0 0 0 0 0 0 0 0 582 0 0 0 0 z_b_16
S 844 8 4 0 0 154 851 582 7320 40822004 1020 A 0 0 0 0 0 0 0 0 0 0 0 0 1070 0 0 0 0 0 0 0 0 0 0 582 0 0 0 0 proj_site$sd
S 845 6 4 0 0 7 846 582 7333 40802001 1020 A 0 0 0 0 0 0 0 0 0 0 0 0 1070 0 0 0 0 0 0 0 0 0 0 582 0 0 0 0 proj_site$p
S 846 6 4 0 0 7 844 582 7345 40802000 1020 A 0 0 0 0 0 0 0 0 0 0 0 0 1070 0 0 0 0 0 0 0 0 0 0 582 0 0 0 0 proj_site$o
S 847 22 1 0 0 9 1 582 7357 40000000 1000 A 0 0 0 0 0 0 0 841 0 0 0 0 844 0 0 0 0 0 0 0 0 0 0 582 0 0 0 0 proj_site$arrdsc
S 848 7 6 0 0 157 1 582 7374 10a00024 51 A 0 0 0 0 0 0 851 0 0 0 853 0 0 0 0 0 0 0 0 850 0 0 852 582 0 0 0 0 proj_l
S 849 6 4 0 0 6 855 582 7381 40800016 0 A 0 0 0 0 0 68 0 0 0 0 0 0 1072 0 0 0 0 0 0 0 0 0 0 582 0 0 0 0 z_b_17
S 850 8 4 0 0 160 857 582 7388 40822004 1020 A 0 0 0 0 0 0 0 0 0 0 0 0 1070 0 0 0 0 0 0 0 0 0 0 582 0 0 0 0 proj_l$sd
S 851 6 4 0 0 7 852 582 7398 40802001 1020 A 0 0 0 0 0 0 0 0 0 0 0 0 1070 0 0 0 0 0 0 0 0 0 0 582 0 0 0 0 proj_l$p
S 852 6 4 0 0 7 850 582 7407 40802000 1020 A 0 0 0 0 0 0 0 0 0 0 0 0 1070 0 0 0 0 0 0 0 0 0 0 582 0 0 0 0 proj_l$o
S 853 22 1 0 0 9 1 582 7416 40000000 1000 A 0 0 0 0 0 0 0 848 0 0 0 0 850 0 0 0 0 0 0 0 0 0 0 582 0 0 0 0 proj_l$arrdsc
S 854 7 6 0 0 163 1 582 7430 10a00024 51 A 0 0 0 0 0 0 857 0 0 0 859 0 0 0 0 0 0 0 0 856 0 0 858 582 0 0 0 0 proj_m
S 855 6 4 0 0 6 861 582 7437 40800016 0 A 0 0 0 0 0 72 0 0 0 0 0 0 1072 0 0 0 0 0 0 0 0 0 0 582 0 0 0 0 z_b_18
S 856 8 4 0 0 166 864 582 7444 40822004 1020 A 0 0 0 0 0 0 0 0 0 0 0 0 1070 0 0 0 0 0 0 0 0 0 0 582 0 0 0 0 proj_m$sd
S 857 6 4 0 0 7 858 582 7454 40802001 1020 A 0 0 0 0 0 0 0 0 0 0 0 0 1070 0 0 0 0 0 0 0 0 0 0 582 0 0 0 0 proj_m$p
S 858 6 4 0 0 7 856 582 7463 40802000 1020 A 0 0 0 0 0 0 0 0 0 0 0 0 1070 0 0 0 0 0 0 0 0 0 0 582 0 0 0 0 proj_m$o
S 859 22 1 0 0 9 1 582 7472 40000000 1000 A 0 0 0 0 0 0 0 854 0 0 0 0 856 0 0 0 0 0 0 0 0 0 0 582 0 0 0 0 proj_m$arrdsc
S 860 7 6 0 0 169 1 582 7486 10a00024 51 A 0 0 0 0 0 0 864 0 0 0 866 0 0 0 0 0 0 0 0 863 0 0 865 582 0 0 0 0 proj_z
S 861 6 4 0 0 6 862 582 7493 40800016 0 A 0 0 0 0 0 76 0 0 0 0 0 0 1072 0 0 0 0 0 0 0 0 0 0 582 0 0 0 0 z_b_19
S 862 6 4 0 0 6 868 582 7500 40800016 0 A 0 0 0 0 0 80 0 0 0 0 0 0 1072 0 0 0 0 0 0 0 0 0 0 582 0 0 0 0 z_b_20
S 863 8 4 0 0 172 871 582 7507 40822004 1020 A 0 0 0 0 0 0 0 0 0 0 0 0 1070 0 0 0 0 0 0 0 0 0 0 582 0 0 0 0 proj_z$sd
S 864 6 4 0 0 7 865 582 7517 40802001 1020 A 0 0 0 0 0 0 0 0 0 0 0 0 1070 0 0 0 0 0 0 0 0 0 0 582 0 0 0 0 proj_z$p
S 865 6 4 0 0 7 863 582 7526 40802000 1020 A 0 0 0 0 0 0 0 0 0 0 0 0 1070 0 0 0 0 0 0 0 0 0 0 582 0 0 0 0 proj_z$o
S 866 22 1 0 0 9 1 582 7535 40000000 1000 A 0 0 0 0 0 0 0 860 0 0 0 0 863 0 0 0 0 0 0 0 0 0 0 582 0 0 0 0 proj_z$arrdsc
S 867 7 6 0 0 175 1 582 7549 10a00024 51 A 0 0 0 0 0 0 871 0 0 0 873 0 0 0 0 0 0 0 0 870 0 0 872 582 0 0 0 0 proj_x
S 868 6 4 0 0 6 869 582 7556 40800016 0 A 0 0 0 0 0 84 0 0 0 0 0 0 1072 0 0 0 0 0 0 0 0 0 0 582 0 0 0 0 z_b_21
S 869 6 4 0 0 6 875 582 7563 40800016 0 A 0 0 0 0 0 88 0 0 0 0 0 0 1072 0 0 0 0 0 0 0 0 0 0 582 0 0 0 0 z_b_22
S 870 8 4 0 0 178 877 582 7570 40822004 1020 A 0 0 0 0 0 0 0 0 0 0 0 0 1070 0 0 0 0 0 0 0 0 0 0 582 0 0 0 0 proj_x$sd
S 871 6 4 0 0 7 872 582 7580 40802001 1020 A 0 0 0 0 0 0 0 0 0 0 0 0 1070 0 0 0 0 0 0 0 0 0 0 582 0 0 0 0 proj_x$p
S 872 6 4 0 0 7 870 582 7589 40802000 1020 A 0 0 0 0 0 0 0 0 0 0 0 0 1070 0 0 0 0 0 0 0 0 0 0 582 0 0 0 0 proj_x$o
S 873 22 1 0 0 9 1 582 7598 40000000 1000 A 0 0 0 0 0 0 0 867 0 0 0 0 870 0 0 0 0 0 0 0 0 0 0 582 0 0 0 0 proj_x$arrdsc
S 874 7 6 0 0 181 1 582 7612 10a00024 51 A 0 0 0 0 0 0 877 0 0 0 879 0 0 0 0 0 0 0 0 876 0 0 878 582 0 0 0 0 proj_radial
S 875 6 4 0 0 6 881 582 7624 40800016 0 A 0 0 0 0 0 92 0 0 0 0 0 0 1072 0 0 0 0 0 0 0 0 0 0 582 0 0 0 0 z_b_23
S 876 8 4 0 0 184 883 582 7631 40822004 1020 A 0 0 0 0 0 0 0 0 0 0 0 0 1070 0 0 0 0 0 0 0 0 0 0 582 0 0 0 0 proj_radial$sd
S 877 6 4 0 0 7 878 582 7646 40802001 1020 A 0 0 0 0 0 0 0 0 0 0 0 0 1070 0 0 0 0 0 0 0 0 0 0 582 0 0 0 0 proj_radial$p
S 878 6 4 0 0 7 876 582 7660 40802000 1020 A 0 0 0 0 0 0 0 0 0 0 0 0 1070 0 0 0 0 0 0 0 0 0 0 582 0 0 0 0 proj_radial$o
S 879 22 1 0 0 9 1 582 7674 40000000 1000 A 0 0 0 0 0 0 0 874 0 0 0 0 876 0 0 0 0 0 0 0 0 0 0 582 0 0 0 0 proj_radial$arrdsc
S 880 7 6 0 0 187 1 582 7693 10a00024 51 A 0 0 0 0 0 0 883 0 0 0 885 0 0 0 0 0 0 0 0 882 0 0 884 582 0 0 0 0 proj_zona
S 881 6 4 0 0 6 894 582 7703 40800016 0 A 0 0 0 0 0 96 0 0 0 0 0 0 1072 0 0 0 0 0 0 0 0 0 0 582 0 0 0 0 z_b_24
S 882 8 4 0 0 190 896 582 7710 40822004 1020 A 0 0 0 0 0 0 0 0 0 0 0 0 1070 0 0 0 0 0 0 0 0 0 0 582 0 0 0 0 proj_zona$sd
S 883 6 4 0 0 7 884 582 7723 40802001 1020 A 0 0 0 0 0 0 0 0 0 0 0 0 1070 0 0 0 0 0 0 0 0 0 0 582 0 0 0 0 proj_zona$p
S 884 6 4 0 0 7 882 582 7735 40802000 1020 A 0 0 0 0 0 0 0 0 0 0 0 0 1070 0 0 0 0 0 0 0 0 0 0 582 0 0 0 0 proj_zona$o
S 885 22 1 0 0 9 1 582 7747 40000000 1000 A 0 0 0 0 0 0 0 880 0 0 0 0 882 0 0 0 0 0 0 0 0 0 0 582 0 0 0 0 proj_zona$arrdsc
S 886 6 4 0 0 6 887 582 7764 24 0 A 0 0 0 0 0 240 0 0 0 0 0 0 1070 0 0 0 0 0 0 0 0 0 0 582 0 0 0 0 num_proj
S 887 6 4 0 0 6 892 582 7773 24 0 A 0 0 0 0 0 244 0 0 0 0 0 0 1070 0 0 0 0 0 0 0 0 0 0 582 0 0 0 0 num_kpts
S 888 7 4 0 4 193 889 582 7782 800024 100 A 0 0 0 0 0 288 0 0 0 0 0 0 1073 0 0 0 0 0 0 0 0 0 0 582 0 0 0 0 recip_lattice
S 889 6 4 0 0 9 890 582 7796 24 0 A 0 0 0 0 0 360 0 0 0 0 0 0 1073 0 0 0 0 0 0 0 0 0 0 582 0 0 0 0 cell_volume
S 890 7 4 0 4 196 891 582 7808 800024 100 A 0 0 0 0 0 368 0 0 0 0 0 0 1073 0 0 0 0 0 0 0 0 0 0 582 0 0 0 0 real_metric
S 891 7 4 0 4 199 914 582 7820 800024 100 A 0 0 0 0 0 448 0 0 0 0 0 0 1073 0 0 0 0 0 0 0 0 0 0 582 0 0 0 0 recip_metric
S 892 6 4 0 0 6 913 582 7833 24 0 A 0 0 0 0 0 248 0 0 0 0 0 0 1070 0 0 0 0 0 0 0 0 0 0 582 0 0 0 0 bands_num_spec_points
S 893 7 6 0 0 202 1 582 7855 10a00024 51 A 0 0 0 0 0 0 896 0 0 0 898 0 0 0 0 0 0 0 0 895 0 0 897 582 0 0 0 0 bands_label
S 894 6 4 0 0 6 900 582 7867 40800016 0 A 0 0 0 0 0 100 0 0 0 0 0 0 1072 0 0 0 0 0 0 0 0 0 0 582 0 0 0 0 z_b_25
S 895 8 4 0 0 205 903 582 7874 40822004 1020 A 0 0 0 0 0 0 0 0 0 0 0 0 1070 0 0 0 0 0 0 0 0 0 0 582 0 0 0 0 bands_label$sd
S 896 6 4 0 0 7 897 582 7889 40802001 1020 A 0 0 0 0 0 0 0 0 0 0 0 0 1070 0 0 0 0 0 0 0 0 0 0 582 0 0 0 0 bands_label$p
S 897 6 4 0 0 7 895 582 7903 40802000 1020 A 0 0 0 0 0 0 0 0 0 0 0 0 1070 0 0 0 0 0 0 0 0 0 0 582 0 0 0 0 bands_label$o
S 898 22 1 0 0 9 1 582 7917 40000000 1000 A 0 0 0 0 0 0 0 893 0 0 0 0 895 0 0 0 0 0 0 0 0 0 0 582 0 0 0 0 bands_label$arrdsc
S 899 7 6 0 0 208 1 582 7936 10a00024 51 A 0 0 0 0 0 0 903 0 0 0 905 0 0 0 0 0 0 0 0 902 0 0 904 582 0 0 0 0 bands_spec_points
S 900 6 4 0 0 6 901 582 7954 40800016 0 A 0 0 0 0 0 104 0 0 0 0 0 0 1072 0 0 0 0 0 0 0 0 0 0 582 0 0 0 0 z_b_26
S 901 6 4 0 0 6 907 582 7961 40800016 0 A 0 0 0 0 0 108 0 0 0 0 0 0 1072 0 0 0 0 0 0 0 0 0 0 582 0 0 0 0 z_b_27
S 902 8 4 0 0 211 910 582 7968 40822004 1020 A 0 0 0 0 0 0 0 0 0 0 0 0 1070 0 0 0 0 0 0 0 0 0 0 582 0 0 0 0 bands_spec_points$sd
S 903 6 4 0 0 7 904 582 7989 40802001 1020 A 0 0 0 0 0 0 0 0 0 0 0 0 1070 0 0 0 0 0 0 0 0 0 0 582 0 0 0 0 bands_spec_points$p
S 904 6 4 0 0 7 902 582 8009 40802000 1020 A 0 0 0 0 0 0 0 0 0 0 0 0 1070 0 0 0 0 0 0 0 0 0 0 582 0 0 0 0 bands_spec_points$o
S 905 22 1 0 0 9 1 582 8029 40000000 1000 A 0 0 0 0 0 0 0 899 0 0 0 0 902 0 0 0 0 0 0 0 0 0 0 582 0 0 0 0 bands_spec_points$arrdsc
S 906 7 6 0 0 214 1 582 8054 10a00024 51 A 0 0 0 0 0 0 910 0 0 0 912 0 0 0 0 0 0 0 0 909 0 0 911 582 0 0 0 0 kpt_cart
S 907 6 4 0 0 6 908 582 8063 40800016 0 A 0 0 0 0 0 112 0 0 0 0 0 0 1072 0 0 0 0 0 0 0 0 0 0 582 0 0 0 0 z_b_28
S 908 6 4 0 0 6 922 582 8070 40800016 0 A 0 0 0 0 0 116 0 0 0 0 0 0 1072 0 0 0 0 0 0 0 0 0 0 582 0 0 0 0 z_b_29
S 909 8 4 0 0 217 925 582 8077 40822004 1020 A 0 0 0 0 0 0 0 0 0 0 0 0 1070 0 0 0 0 0 0 0 0 0 0 582 0 0 0 0 kpt_cart$sd
S 910 6 4 0 0 7 911 582 8089 40802001 1020 A 0 0 0 0 0 0 0 0 0 0 0 0 1070 0 0 0 0 0 0 0 0 0 0 582 0 0 0 0 kpt_cart$p
S 911 6 4 0 0 7 909 582 8100 40802000 1020 A 0 0 0 0 0 0 0 0 0 0 0 0 1070 0 0 0 0 0 0 0 0 0 0 582 0 0 0 0 kpt_cart$o
S 912 22 1 0 0 6 1 582 8111 40000000 1000 A 0 0 0 0 0 0 0 906 0 0 0 0 909 0 0 0 0 0 0 0 0 0 0 582 0 0 0 0 kpt_cart$arrdsc
S 913 6 4 0 0 16 915 582 8127 24 0 A 0 0 0 0 0 252 0 0 0 0 0 0 1070 0 0 0 0 0 0 0 0 0 0 582 0 0 0 0 disentanglement
S 914 6 4 0 0 9 943 582 8143 24 0 A 0 0 0 0 0 520 0 0 0 0 0 0 1073 0 0 0 0 0 0 0 0 0 0 582 0 0 0 0 lenconfac
S 915 6 4 0 0 6 916 582 8153 24 0 A 0 0 0 0 0 256 0 0 0 0 0 0 1070 0 0 0 0 0 0 0 0 0 0 582 0 0 0 0 num_wannier_plot
S 916 6 4 0 0 6 917 582 8170 24 0 A 0 0 0 0 0 260 0 0 0 0 0 0 1070 0 0 0 0 0 0 0 0 0 0 582 0 0 0 0 num_bands_project
S 917 6 4 0 0 6 918 582 8188 24 0 A 0 0 0 0 0 264 0 0 0 0 0 0 1070 0 0 0 0 0 0 0 0 0 0 582 0 0 0 0 num_exclude_bands
S 918 6 4 0 0 16 919 582 8206 24 0 A 0 0 0 0 0 268 0 0 0 0 0 0 1070 0 0 0 0 0 0 0 0 0 0 582 0 0 0 0 lfixstep
S 919 6 4 0 0 6 920 582 8215 24 0 A 0 0 0 0 0 272 0 0 0 0 0 0 1070 0 0 0 0 0 0 0 0 0 0 582 0 0 0 0 nnh
S 920 6 4 0 0 6 978 582 8219 24 0 A 0 0 0 0 0 276 0 0 0 0 0 0 1070 0 0 0 0 0 0 0 0 0 0 582 0 0 0 0 nntot
S 921 7 6 0 0 220 1 582 8225 10a00024 51 A 0 0 0 0 0 0 925 0 0 0 927 0 0 0 0 0 0 0 0 924 0 0 926 582 0 0 0 0 nnlist
S 922 6 4 0 0 6 923 582 8232 40800016 0 A 0 0 0 0 0 120 0 0 0 0 0 0 1072 0 0 0 0 0 0 0 0 0 0 582 0 0 0 0 z_b_30
S 923 6 4 0 0 6 929 582 8239 40800016 0 A 0 0 0 0 0 124 0 0 0 0 0 0 1072 0 0 0 0 0 0 0 0 0 0 582 0 0 0 0 z_b_31
S 924 8 4 0 0 223 932 582 8246 40822004 1020 A 0 0 0 0 0 0 0 0 0 0 0 0 1070 0 0 0 0 0 0 0 0 0 0 582 0 0 0 0 nnlist$sd
S 925 6 4 0 0 7 926 582 8256 40802001 1020 A 0 0 0 0 0 0 0 0 0 0 0 0 1070 0 0 0 0 0 0 0 0 0 0 582 0 0 0 0 nnlist$p
S 926 6 4 0 0 7 924 582 8265 40802000 1020 A 0 0 0 0 0 0 0 0 0 0 0 0 1070 0 0 0 0 0 0 0 0 0 0 582 0 0 0 0 nnlist$o
S 927 22 1 0 0 6 1 582 8274 40000000 1000 A 0 0 0 0 0 0 0 921 0 0 0 0 924 0 0 0 0 0 0 0 0 0 0 582 0 0 0 0 nnlist$arrdsc
S 928 7 6 0 0 226 1 582 8288 10a00024 51 A 0 0 0 0 0 0 932 0 0 0 934 0 0 0 0 0 0 0 0 931 0 0 933 582 0 0 0 0 neigh
S 929 6 4 0 0 6 930 582 8294 40800016 0 A 0 0 0 0 0 128 0 0 0 0 0 0 1072 0 0 0 0 0 0 0 0 0 0 582 0 0 0 0 z_b_32
S 930 6 4 0 0 6 936 582 8301 40800016 0 A 0 0 0 0 0 132 0 0 0 0 0 0 1072 0 0 0 0 0 0 0 0 0 0 582 0 0 0 0 z_b_33
S 931 8 4 0 0 229 940 582 8308 40822004 1020 A 0 0 0 0 0 0 0 0 0 0 0 0 1070 0 0 0 0 0 0 0 0 0 0 582 0 0 0 0 neigh$sd
S 932 6 4 0 0 7 933 582 8317 40802001 1020 A 0 0 0 0 0 0 0 0 0 0 0 0 1070 0 0 0 0 0 0 0 0 0 0 582 0 0 0 0 neigh$p
S 933 6 4 0 0 7 931 582 8325 40802000 1020 A 0 0 0 0 0 0 0 0 0 0 0 0 1070 0 0 0 0 0 0 0 0 0 0 582 0 0 0 0 neigh$o
S 934 22 1 0 0 6 1 582 8333 40000000 1000 A 0 0 0 0 0 0 0 928 0 0 0 0 931 0 0 0 0 0 0 0 0 0 0 582 0 0 0 0 neigh$arrdsc
S 935 7 6 0 0 232 1 582 8346 10a00024 51 A 0 0 0 0 0 0 940 0 0 0 942 0 0 0 0 0 0 0 0 939 0 0 941 582 0 0 0 0 nncell
S 936 6 4 0 0 6 937 582 8353 40800016 0 A 0 0 0 0 0 136 0 0 0 0 0 0 1072 0 0 0 0 0 0 0 0 0 0 582 0 0 0 0 z_b_34
S 937 6 4 0 0 6 938 582 8360 40800016 0 A 0 0 0 0 0 140 0 0 0 0 0 0 1072 0 0 0 0 0 0 0 0 0 0 582 0 0 0 0 z_b_35
S 938 6 4 0 0 6 945 582 8367 40800016 0 A 0 0 0 0 0 144 0 0 0 0 0 0 1072 0 0 0 0 0 0 0 0 0 0 582 0 0 0 0 z_b_36
S 939 8 4 0 0 235 947 582 8374 40822004 1020 A 0 0 0 0 0 0 0 0 0 0 0 0 1070 0 0 0 0 0 0 0 0 0 0 582 0 0 0 0 nncell$sd
S 940 6 4 0 0 7 941 582 8384 40802001 1020 A 0 0 0 0 0 0 0 0 0 0 0 0 1070 0 0 0 0 0 0 0 0 0 0 582 0 0 0 0 nncell$p
S 941 6 4 0 0 7 939 582 8393 40802000 1020 A 0 0 0 0 0 0 0 0 0 0 0 0 1070 0 0 0 0 0 0 0 0 0 0 582 0 0 0 0 nncell$o
S 942 22 1 0 0 6 1 582 8402 40000000 1000 A 0 0 0 0 0 0 0 935 0 0 0 0 939 0 0 0 0 0 0 0 0 0 0 582 0 0 0 0 nncell$arrdsc
S 943 6 4 0 0 9 1050 582 8416 24 0 A 0 0 0 0 0 528 0 0 0 0 0 0 1073 0 0 0 0 0 0 0 0 0 0 582 0 0 0 0 wbtot
S 944 7 6 0 0 238 1 582 8422 10a00024 51 A 0 0 0 0 0 0 947 0 0 0 949 0 0 0 0 0 0 0 0 946 0 0 948 582 0 0 0 0 wb
S 945 6 4 0 0 6 951 582 8425 40800016 0 A 0 0 0 0 0 148 0 0 0 0 0 0 1072 0 0 0 0 0 0 0 0 0 0 582 0 0 0 0 z_b_37
S 946 8 4 0 0 241 955 582 8432 40822004 1020 A 0 0 0 0 0 0 0 0 0 0 0 0 1070 0 0 0 0 0 0 0 0 0 0 582 0 0 0 0 wb$sd
S 947 6 4 0 0 7 948 582 8438 40802001 1020 A 0 0 0 0 0 0 0 0 0 0 0 0 1070 0 0 0 0 0 0 0 0 0 0 582 0 0 0 0 wb$p
S 948 6 4 0 0 7 946 582 8443 40802000 1020 A 0 0 0 0 0 0 0 0 0 0 0 0 1070 0 0 0 0 0 0 0 0 0 0 582 0 0 0 0 wb$o
S 949 22 1 0 0 9 1 582 8448 40000000 1000 A 0 0 0 0 0 0 0 944 0 0 0 0 946 0 0 0 0 0 0 0 0 0 0 582 0 0 0 0 wb$arrdsc
S 950 7 6 0 0 244 1 582 8458 10a00024 51 A 0 0 0 0 0 0 955 0 0 0 957 0 0 0 0 0 0 0 0 954 0 0 956 582 0 0 0 0 bk
S 951 6 4 0 0 6 952 582 8461 40800016 0 A 0 0 0 0 0 152 0 0 0 0 0 0 1072 0 0 0 0 0 0 0 0 0 0 582 0 0 0 0 z_b_38
S 952 6 4 0 0 6 953 582 8468 40800016 0 A 0 0 0 0 0 156 0 0 0 0 0 0 1072 0 0 0 0 0 0 0 0 0 0 582 0 0 0 0 z_b_39
S 953 6 4 0 0 6 959 582 8475 40800016 0 A 0 0 0 0 0 160 0 0 0 0 0 0 1072 0 0 0 0 0 0 0 0 0 0 582 0 0 0 0 z_b_40
S 954 8 4 0 0 247 962 582 8482 40822004 1020 A 0 0 0 0 0 0 0 0 0 0 0 0 1070 0 0 0 0 0 0 0 0 0 0 582 0 0 0 0 bk$sd
S 955 6 4 0 0 7 956 582 8488 40802001 1020 A 0 0 0 0 0 0 0 0 0 0 0 0 1070 0 0 0 0 0 0 0 0 0 0 582 0 0 0 0 bk$p
S 956 6 4 0 0 7 954 582 8493 40802000 1020 A 0 0 0 0 0 0 0 0 0 0 0 0 1070 0 0 0 0 0 0 0 0 0 0 582 0 0 0 0 bk$o
S 957 22 1 0 0 9 1 582 8498 40000000 1000 A 0 0 0 0 0 0 0 950 0 0 0 0 954 0 0 0 0 0 0 0 0 0 0 582 0 0 0 0 bk$arrdsc
S 958 7 6 0 0 250 1 582 8508 10a00024 51 A 0 0 0 0 0 0 962 0 0 0 964 0 0 0 0 0 0 0 0 961 0 0 963 582 0 0 0 0 bka
S 959 6 4 0 0 6 960 582 8512 40800016 0 A 0 0 0 0 0 164 0 0 0 0 0 0 1072 0 0 0 0 0 0 0 0 0 0 582 0 0 0 0 z_b_41
S 960 6 4 0 0 6 966 582 8519 40800016 0 A 0 0 0 0 0 168 0 0 0 0 0 0 1072 0 0 0 0 0 0 0 0 0 0 582 0 0 0 0 z_b_42
S 961 8 4 0 0 253 968 582 8526 40822004 1020 A 0 0 0 0 0 0 0 0 0 0 0 0 1070 0 0 0 0 0 0 0 0 0 0 582 0 0 0 0 bka$sd
S 962 6 4 0 0 7 963 582 8533 40802001 1020 A 0 0 0 0 0 0 0 0 0 0 0 0 1070 0 0 0 0 0 0 0 0 0 0 582 0 0 0 0 bka$p
S 963 6 4 0 0 7 961 582 8539 40802000 1020 A 0 0 0 0 0 0 0 0 0 0 0 0 1070 0 0 0 0 0 0 0 0 0 0 582 0 0 0 0 bka$o
S 964 22 1 0 0 9 1 582 8545 40000000 1000 A 0 0 0 0 0 0 0 958 0 0 0 0 961 0 0 0 0 0 0 0 0 0 0 582 0 0 0 0 bka$arrdsc
S 965 7 6 0 0 256 1 582 8556 10a00024 51 A 0 0 0 0 0 0 968 0 0 0 970 0 0 0 0 0 0 0 0 967 0 0 969 582 0 0 0 0 ndimwin
S 966 6 4 0 0 6 972 582 8564 40800016 0 A 0 0 0 0 0 172 0 0 0 0 0 0 1072 0 0 0 0 0 0 0 0 0 0 582 0 0 0 0 z_b_43
S 967 8 4 0 0 259 975 582 8571 40822004 1020 A 0 0 0 0 0 0 0 0 0 0 0 0 1070 0 0 0 0 0 0 0 0 0 0 582 0 0 0 0 ndimwin$sd
S 968 6 4 0 0 7 969 582 8582 40802001 1020 A 0 0 0 0 0 0 0 0 0 0 0 0 1070 0 0 0 0 0 0 0 0 0 0 582 0 0 0 0 ndimwin$p
S 969 6 4 0 0 7 967 582 8592 40802000 1020 A 0 0 0 0 0 0 0 0 0 0 0 0 1070 0 0 0 0 0 0 0 0 0 0 582 0 0 0 0 ndimwin$o
S 970 22 1 0 0 6 1 582 8602 40000000 1000 A 0 0 0 0 0 0 0 965 0 0 0 0 967 0 0 0 0 0 0 0 0 0 0 582 0 0 0 0 ndimwin$arrdsc
S 971 7 6 0 0 262 1 582 8617 10a00024 51 A 0 0 0 0 0 0 975 0 0 0 977 0 0 0 0 0 0 0 0 974 0 0 976 582 0 0 0 0 lwindow
S 972 6 4 0 0 6 973 582 8625 40800016 0 A 0 0 0 0 0 176 0 0 0 0 0 0 1072 0 0 0 0 0 0 0 0 0 0 582 0 0 0 0 z_b_44
S 973 6 4 0 0 6 980 582 8632 40800016 0 A 0 0 0 0 0 180 0 0 0 0 0 0 1072 0 0 0 0 0 0 0 0 0 0 582 0 0 0 0 z_b_45
S 974 8 4 0 0 265 984 582 8639 40822004 1020 A 0 0 0 0 0 0 0 0 0 0 0 0 1070 0 0 0 0 0 0 0 0 0 0 582 0 0 0 0 lwindow$sd
S 975 6 4 0 0 7 976 582 8650 40802001 1020 A 0 0 0 0 0 0 0 0 0 0 0 0 1070 0 0 0 0 0 0 0 0 0 0 582 0 0 0 0 lwindow$p
S 976 6 4 0 0 7 974 582 8660 40802000 1020 A 0 0 0 0 0 0 0 0 0 0 0 0 1070 0 0 0 0 0 0 0 0 0 0 582 0 0 0 0 lwindow$o
S 977 22 1 0 0 6 1 582 8670 40000000 1000 A 0 0 0 0 0 0 0 971 0 0 0 0 974 0 0 0 0 0 0 0 0 0 0 582 0 0 0 0 lwindow$arrdsc
S 978 6 4 0 0 16 1036 582 8685 24 0 A 0 0 0 0 0 280 0 0 0 0 0 0 1070 0 0 0 0 0 0 0 0 0 0 582 0 0 0 0 frozen_states
S 979 7 6 0 0 268 1 582 8699 10a00024 51 A 0 0 0 0 0 0 984 0 0 0 986 0 0 0 0 0 0 0 0 983 0 0 985 582 0 0 0 0 a_matrix
S 980 6 4 0 0 6 981 582 8708 40800016 0 A 0 0 0 0 0 184 0 0 0 0 0 0 1072 0 0 0 0 0 0 0 0 0 0 582 0 0 0 0 z_b_46
S 981 6 4 0 0 6 982 582 8715 40800016 0 A 0 0 0 0 0 188 0 0 0 0 0 0 1072 0 0 0 0 0 0 0 0 0 0 582 0 0 0 0 z_b_47
S 982 6 4 0 0 6 988 582 8722 40800016 0 A 0 0 0 0 0 192 0 0 0 0 0 0 1072 0 0 0 0 0 0 0 0 0 0 582 0 0 0 0 z_b_48
S 983 8 4 0 0 271 994 582 8729 40822004 1020 A 0 0 0 0 0 0 0 0 0 0 0 0 1070 0 0 0 0 0 0 0 0 0 0 582 0 0 0 0 a_matrix$sd
S 984 6 4 0 0 7 985 582 8741 40802001 1020 A 0 0 0 0 0 0 0 0 0 0 0 0 1070 0 0 0 0 0 0 0 0 0 0 582 0 0 0 0 a_matrix$p
S 985 6 4 0 0 7 983 582 8752 40802000 1020 A 0 0 0 0 0 0 0 0 0 0 0 0 1070 0 0 0 0 0 0 0 0 0 0 582 0 0 0 0 a_matrix$o
S 986 22 1 0 0 9 1 582 8763 40000000 1000 A 0 0 0 0 0 0 0 979 0 0 0 0 983 0 0 0 0 0 0 0 0 0 0 582 0 0 0 0 a_matrix$arrdsc
S 987 7 6 0 0 274 1 582 8779 10a00024 51 A 0 0 0 0 0 0 994 0 0 0 996 0 0 0 0 0 0 0 0 993 0 0 995 582 0 0 0 0 m_matrix_orig
S 988 6 4 0 0 6 989 582 8793 40800016 0 A 0 0 0 0 0 196 0 0 0 0 0 0 1072 0 0 0 0 0 0 0 0 0 0 582 0 0 0 0 z_b_49
S 989 6 4 0 0 6 990 582 8800 40800016 0 A 0 0 0 0 0 200 0 0 0 0 0 0 1072 0 0 0 0 0 0 0 0 0 0 582 0 0 0 0 z_b_50
S 990 6 4 0 0 6 991 582 8807 40800016 0 A 0 0 0 0 0 204 0 0 0 0 0 0 1072 0 0 0 0 0 0 0 0 0 0 582 0 0 0 0 z_b_51
S 991 6 4 0 0 6 1001 582 8814 40800016 0 A 0 0 0 0 0 208 0 0 0 0 0 0 1072 0 0 0 0 0 0 0 0 0 0 582 0 0 0 0 z_b_52
S 992 3 0 0 0 6 1 1 0 0 0 A 0 0 0 0 0 0 0 0 0 36 0 0 0 0 0 0 0 0 0 0 0 0 0 0 0 0 0 0 6
S 993 8 4 0 0 277 1004 582 8821 40822004 1020 A 0 0 0 0 0 0 0 0 0 0 0 0 1070 0 0 0 0 0 0 0 0 0 0 582 0 0 0 0 m_matrix_orig$sd
S 994 6 4 0 0 7 995 582 8838 40802001 1020 A 0 0 0 0 0 0 0 0 0 0 0 0 1070 0 0 0 0 0 0 0 0 0 0 582 0 0 0 0 m_matrix_orig$p
S 995 6 4 0 0 7 993 582 8854 40802000 1020 A 0 0 0 0 0 0 0 0 0 0 0 0 1070 0 0 0 0 0 0 0 0 0 0 582 0 0 0 0 m_matrix_orig$o
S 996 22 1 0 0 6 1 582 8870 40000000 1000 A 0 0 0 0 0 0 0 987 0 0 0 0 993 0 0 0 0 0 0 0 0 0 0 582 0 0 0 0 m_matrix_orig$arrdsc
S 997 3 0 0 0 6 0 1 0 0 0 A 0 0 0 0 0 0 0 0 0 31 0 0 0 0 0 0 0 0 0 0 0 0 0 0 0 0 0 0 6
S 998 3 0 0 0 6 0 1 0 0 0 A 0 0 0 0 0 0 0 0 0 32 0 0 0 0 0 0 0 0 0 0 0 0 0 0 0 0 0 0 6
S 999 3 0 0 0 6 0 1 0 0 0 A 0 0 0 0 0 0 0 0 0 35 0 0 0 0 0 0 0 0 0 0 0 0 0 0 0 0 0 0 6
S 1000 7 6 0 0 280 1 582 8891 10a00024 51 A 0 0 0 0 0 0 1004 0 0 0 1006 0 0 0 0 0 0 0 0 1003 0 0 1005 582 0 0 0 0 eigval
S 1001 6 4 0 0 6 1002 582 8898 40800016 0 A 0 0 0 0 0 212 0 0 0 0 0 0 1072 0 0 0 0 0 0 0 0 0 0 582 0 0 0 0 z_b_53
S 1002 6 4 0 0 6 1008 582 8905 40800016 0 A 0 0 0 0 0 216 0 0 0 0 0 0 1072 0 0 0 0 0 0 0 0 0 0 582 0 0 0 0 z_b_54
S 1003 8 4 0 0 283 1012 582 8912 40822004 1020 A 0 0 0 0 0 0 0 0 0 0 0 0 1070 0 0 0 0 0 0 0 0 0 0 582 0 0 0 0 eigval$sd
S 1004 6 4 0 0 7 1005 582 8922 40802001 1020 A 0 0 0 0 0 0 0 0 0 0 0 0 1070 0 0 0 0 0 0 0 0 0 0 582 0 0 0 0 eigval$p
S 1005 6 4 0 0 7 1003 582 8931 40802000 1020 A 0 0 0 0 0 0 0 0 0 0 0 0 1070 0 0 0 0 0 0 0 0 0 0 582 0 0 0 0 eigval$o
S 1006 22 1 0 0 9 1 582 8940 40000000 1000 A 0 0 0 0 0 0 0 1000 0 0 0 0 1003 0 0 0 0 0 0 0 0 0 0 582 0 0 0 0 eigval$arrdsc
S 1007 7 6 0 0 286 1 582 8954 10a00024 51 A 0 0 0 0 0 0 1012 0 0 0 1014 0 0 0 0 0 0 0 0 1011 0 0 1013 582 0 0 0 0 u_matrix_opt
S 1008 6 4 0 0 6 1009 582 8967 40800016 0 A 0 0 0 0 0 220 0 0 0 0 0 0 1072 0 0 0 0 0 0 0 0 0 0 582 0 0 0 0 z_b_55
S 1009 6 4 0 0 6 1010 582 8974 40800016 0 A 0 0 0 0 0 224 0 0 0 0 0 0 1072 0 0 0 0 0 0 0 0 0 0 582 0 0 0 0 z_b_56
S 1010 6 4 0 0 6 1016 582 8981 40800016 0 A 0 0 0 0 0 228 0 0 0 0 0 0 1072 0 0 0 0 0 0 0 0 0 0 582 0 0 0 0 z_b_57
S 1011 8 4 0 0 289 1020 582 8988 40822004 1020 A 0 0 0 0 0 0 0 0 0 0 0 0 1070 0 0 0 0 0 0 0 0 0 0 582 0 0 0 0 u_matrix_opt$sd
S 1012 6 4 0 0 7 1013 582 9004 40802001 1020 A 0 0 0 0 0 0 0 0 0 0 0 0 1070 0 0 0 0 0 0 0 0 0 0 582 0 0 0 0 u_matrix_opt$p
S 1013 6 4 0 0 7 1011 582 9019 40802000 1020 A 0 0 0 0 0 0 0 0 0 0 0 0 1070 0 0 0 0 0 0 0 0 0 0 582 0 0 0 0 u_matrix_opt$o
S 1014 22 1 0 0 9 1 582 9034 40000000 1000 A 0 0 0 0 0 0 0 1007 0 0 0 0 1011 0 0 0 0 0 0 0 0 0 0 582 0 0 0 0 u_matrix_opt$arrdsc
S 1015 7 6 0 0 292 1 582 9054 10a00024 51 A 0 0 0 0 0 0 1020 0 0 0 1022 0 0 0 0 0 0 0 0 1019 0 0 1021 582 0 0 0 0 u_matrix
S 1016 6 4 0 0 6 1017 582 9063 40800016 0 A 0 0 0 0 0 232 0 0 0 0 0 0 1072 0 0 0 0 0 0 0 0 0 0 582 0 0 0 0 z_b_58
S 1017 6 4 0 0 6 1018 582 9070 40800016 0 A 0 0 0 0 0 236 0 0 0 0 0 0 1072 0 0 0 0 0 0 0 0 0 0 582 0 0 0 0 z_b_59
S 1018 6 4 0 0 6 1024 582 9077 40800016 0 A 0 0 0 0 0 240 0 0 0 0 0 0 1072 0 0 0 0 0 0 0 0 0 0 582 0 0 0 0 z_b_60
S 1019 8 4 0 0 295 1029 582 9084 40822004 1020 A 0 0 0 0 0 0 0 0 0 0 0 0 1070 0 0 0 0 0 0 0 0 0 0 582 0 0 0 0 u_matrix$sd
S 1020 6 4 0 0 7 1021 582 9096 40802001 1020 A 0 0 0 0 0 0 0 0 0 0 0 0 1070 0 0 0 0 0 0 0 0 0 0 582 0 0 0 0 u_matrix$p
S 1021 6 4 0 0 7 1019 582 9107 40802000 1020 A 0 0 0 0 0 0 0 0 0 0 0 0 1070 0 0 0 0 0 0 0 0 0 0 582 0 0 0 0 u_matrix$o
S 1022 22 1 0 0 9 1 582 9118 40000000 1000 A 0 0 0 0 0 0 0 1015 0 0 0 0 1019 0 0 0 0 0 0 0 0 0 0 582 0 0 0 0 u_matrix$arrdsc
S 1023 7 6 0 0 298 1 582 9134 10a00024 51 A 0 0 0 0 0 0 1029 0 0 0 1031 0 0 0 0 0 0 0 0 1028 0 0 1030 582 0 0 0 0 m_matrix
S 1024 6 4 0 0 6 1025 582 9143 40800016 0 A 0 0 0 0 0 244 0 0 0 0 0 0 1072 0 0 0 0 0 0 0 0 0 0 582 0 0 0 0 z_b_61
S 1025 6 4 0 0 6 1026 582 9150 40800016 0 A 0 0 0 0 0 248 0 0 0 0 0 0 1072 0 0 0 0 0 0 0 0 0 0 582 0 0 0 0 z_b_62
S 1026 6 4 0 0 6 1027 582 9157 40800016 0 A 0 0 0 0 0 252 0 0 0 0 0 0 1072 0 0 0 0 0 0 0 0 0 0 582 0 0 0 0 z_b_63
S 1027 6 4 0 0 6 1038 582 9164 40800016 0 A 0 0 0 0 0 256 0 0 0 0 0 0 1072 0 0 0 0 0 0 0 0 0 0 582 0 0 0 0 z_b_64
S 1028 8 4 0 0 301 1041 582 9171 40822004 1020 A 0 0 0 0 0 0 0 0 0 0 0 0 1070 0 0 0 0 0 0 0 0 0 0 582 0 0 0 0 m_matrix$sd
S 1029 6 4 0 0 7 1030 582 9183 40802001 1020 A 0 0 0 0 0 0 0 0 0 0 0 0 1070 0 0 0 0 0 0 0 0 0 0 582 0 0 0 0 m_matrix$p
S 1030 6 4 0 0 7 1028 582 9194 40802000 1020 A 0 0 0 0 0 0 0 0 0 0 0 0 1070 0 0 0 0 0 0 0 0 0 0 582 0 0 0 0 m_matrix$o
S 1031 22 1 0 0 6 1 582 9205 40000000 1000 A 0 0 0 0 0 0 0 1023 0 0 0 0 1028 0 0 0 0 0 0 0 0 0 0 582 0 0 0 0 m_matrix$arrdsc
S 1032 16 0 0 0 6 1 582 9221 4 400000 A 0 0 0 0 0 0 0 0 6 557 0 0 0 0 0 0 0 0 0 0 0 0 0 582 0 0 0 0 max_shells
S 1033 3 0 0 0 6 0 1 0 0 0 A 0 0 0 0 0 0 0 0 0 6 0 0 0 0 0 0 0 0 0 0 0 0 0 0 0 0 0 0 6
S 1034 16 0 0 0 6 1 582 9232 4 400000 A 0 0 0 0 0 0 0 0 12 559 0 0 0 0 0 0 0 0 0 0 0 0 0 582 0 0 0 0 num_nnmax
S 1035 3 0 0 0 6 0 1 0 0 0 A 0 0 0 0 0 0 0 0 0 12 0 0 0 0 0 0 0 0 0 0 0 0 0 0 0 0 0 0 6
S 1036 6 4 0 0 16 1052 582 9242 24 0 A 0 0 0 0 0 284 0 0 0 0 0 0 1070 0 0 0 0 0 0 0 0 0 0 582 0 0 0 0 library
S 1037 7 6 0 0 304 1 582 9250 10a00024 51 A 0 0 0 0 0 0 1041 0 0 0 1043 0 0 0 0 0 0 0 0 1040 0 0 1042 582 0 0 0 0 wannier_centres
S 1038 6 4 0 0 6 1039 582 9266 40800016 0 A 0 0 0 0 0 260 0 0 0 0 0 0 1072 0 0 0 0 0 0 0 0 0 0 582 0 0 0 0 z_b_65
S 1039 6 4 0 0 6 1045 582 9273 40800016 0 A 0 0 0 0 0 264 0 0 0 0 0 0 1072 0 0 0 0 0 0 0 0 0 0 582 0 0 0 0 z_b_66
S 1040 8 4 0 0 307 1047 582 9280 40822004 1020 A 0 0 0 0 0 0 0 0 0 0 0 0 1070 0 0 0 0 0 0 0 0 0 0 582 0 0 0 0 wannier_centres$sd
S 1041 6 4 0 0 7 1042 582 9299 40802001 1020 A 0 0 0 0 0 0 0 0 0 0 0 0 1070 0 0 0 0 0 0 0 0 0 0 582 0 0 0 0 wannier_centres$p
S 1042 6 4 0 0 7 1040 582 9317 40802000 1020 A 0 0 0 0 0 0 0 0 0 0 0 0 1070 0 0 0 0 0 0 0 0 0 0 582 0 0 0 0 wannier_centres$o
S 1043 22 1 0 0 9 1 582 9335 40000000 1000 A 0 0 0 0 0 0 0 1037 0 0 0 0 1040 0 0 0 0 0 0 0 0 0 0 582 0 0 0 0 wannier_centres$arrdsc
S 1044 7 6 0 0 310 1 582 9358 10a00024 51 A 0 0 0 0 0 0 1047 0 0 0 1049 0 0 0 0 0 0 0 0 1046 0 0 1048 582 0 0 0 0 wannier_spreads
S 1045 6 4 0 0 6 1054 582 9374 40800016 0 A 0 0 0 0 0 268 0 0 0 0 0 0 1072 0 0 0 0 0 0 0 0 0 0 582 0 0 0 0 z_b_67
S 1046 8 4 0 0 313 665 582 9381 40822004 1020 A 0 0 0 0 0 0 0 0 0 0 0 0 1070 0 0 0 0 0 0 0 0 0 0 582 0 0 0 0 wannier_spreads$sd
S 1047 6 4 0 0 7 1048 582 9400 40802001 1020 A 0 0 0 0 0 0 0 0 0 0 0 0 1070 0 0 0 0 0 0 0 0 0 0 582 0 0 0 0 wannier_spreads$p
S 1048 6 4 0 0 7 1046 582 9418 40802000 1020 A 0 0 0 0 0 0 0 0 0 0 0 0 1070 0 0 0 0 0 0 0 0 0 0 582 0 0 0 0 wannier_spreads$o
S 1049 22 1 0 0 9 1 582 9436 40000000 1000 A 0 0 0 0 0 0 0 1044 0 0 0 0 1046 0 0 0 0 0 0 0 0 0 0 582 0 0 0 0 wannier_spreads$arrdsc
S 1050 6 4 0 0 9 1051 582 9459 24 0 A 0 0 0 0 0 536 0 0 0 0 0 0 1073 0 0 0 0 0 0 0 0 0 0 582 0 0 0 0 omega_total
S 1051 6 4 0 0 9 1 582 9471 24 0 A 0 0 0 0 0 544 0 0 0 0 0 0 1073 0 0 0 0 0 0 0 0 0 0 582 0 0 0 0 omega_tilde
S 1052 6 4 0 0 16 1053 582 9483 24 0 A 0 0 0 0 0 288 0 0 0 0 0 0 1070 0 0 0 0 0 0 0 0 0 0 582 0 0 0 0 automatic_translation
S 1053 6 4 0 0 6 1 582 9505 24 0 A 0 0 0 0 0 292 0 0 0 0 0 0 1070 0 0 0 0 0 0 0 0 0 0 582 0 0 0 0 one_dim_dir
S 1054 6 4 0 0 6 1056 582 9517 14 0 A 0 0 0 0 0 272 0 0 0 0 0 0 1072 0 0 0 0 0 0 0 0 0 0 582 0 0 0 0 num_lines
S 1055 7 6 0 0 316 1 582 9527 10a00014 51 A 0 0 0 0 0 0 1058 0 0 0 1060 0 0 0 0 0 0 0 0 1057 0 0 1059 582 0 0 0 0 in_data
S 1056 6 4 0 0 6 1061 582 9535 40800016 0 A 0 0 0 0 0 276 0 0 0 0 0 0 1072 0 0 0 0 0 0 0 0 0 0 582 0 0 0 0 z_b_68
S 1057 8 4 0 0 319 676 582 9542 40822014 1020 A 0 0 0 0 0 0 0 0 0 0 0 0 1072 0 0 0 0 0 0 0 0 0 0 582 0 0 0 0 in_data$sd
S 1058 6 4 0 0 7 1059 582 9553 40802011 1020 A 0 0 0 0 0 0 0 0 0 0 0 0 1072 0 0 0 0 0 0 0 0 0 0 582 0 0 0 0 in_data$p
S 1059 6 4 0 0 7 1057 582 9563 40802010 1020 A 0 0 0 0 0 0 0 0 0 0 0 0 1072 0 0 0 0 0 0 0 0 0 0 582 0 0 0 0 in_data$o
S 1060 22 1 0 0 6 1 582 9573 40000000 1000 A 0 0 0 0 0 0 0 1055 0 0 0 0 1057 0 0 0 0 0 0 0 0 0 0 582 0 0 0 0 in_data$arrdsc
S 1061 6 4 0 0 16 1 582 9588 14 0 A 0 0 0 0 0 280 0 0 0 0 0 0 1072 0 0 0 0 0 0 0 0 0 0 582 0 0 0 0 ltmp
S 1062 27 0 0 0 9 1074 582 9593 0 0 A 0 0 0 0 0 0 0 0 0 0 0 0 0 0 0 0 0 0 0 0 0 0 0 582 0 0 0 0 param_read
S 1063 27 0 0 0 9 1078 582 9604 0 0 A 0 0 0 0 0 0 0 0 0 0 0 0 0 0 0 0 0 0 0 0 0 0 0 582 0 0 0 0 param_write
S 1064 27 0 0 0 9 1082 582 9616 0 0 A 0 0 0 0 0 0 0 0 0 0 0 0 0 0 0 0 0 0 0 0 0 0 0 582 0 0 0 0 param_dealloc
S 1065 27 0 0 0 9 1080 582 9630 0 0 A 0 0 0 0 0 0 0 0 0 0 0 0 0 0 0 0 0 0 0 0 0 0 0 582 0 0 0 0 param_write_header
S 1066 27 0 0 0 9 1084 582 9649 0 0 A 0 0 0 0 0 0 0 0 0 0 0 0 0 0 0 0 0 0 0 0 0 0 0 582 0 0 0 0 param_write_chkpt
S 1067 27 0 0 0 9 1087 582 9667 0 0 A 0 0 0 0 0 0 0 0 0 0 0 0 0 0 0 0 0 0 0 0 0 0 0 582 0 0 0 0 param_read_chkpt
S 1068 27 0 0 0 9 1137 582 9684 0 0 A 0 0 0 0 0 0 0 0 0 0 0 0 0 0 0 0 0 0 0 0 0 0 0 582 0 0 0 0 param_lib_set_atoms
S 1069 27 0 0 0 9 1155 582 9704 0 0 A 0 0 0 0 0 0 0 0 0 0 0 0 0 0 0 0 0 0 0 0 0 0 0 582 0 0 0 0 param_memory_estimate
S 1070 11 0 0 4 9 643 582 9726 40800000 801000 A 0 0 0 0 0 4232 0 0 679 1053 0 0 0 0 0 0 0 0 0 0 0 0 0 0 0 0 0 0 _w90_parameters$0
S 1071 11 0 0 0 9 1070 582 9744 40800000 801000 A 0 0 0 0 0 330 0 0 667 798 0 0 0 0 0 0 0 0 0 0 0 0 0 0 0 0 0 0 _w90_parameters$1
S 1072 11 0 0 0 9 1071 582 9762 40800010 801000 A 0 0 0 0 0 372 0 0 1058 1061 0 0 0 0 0 0 0 0 0 0 0 0 0 0 0 0 0 0 _w90_parameters$4
S 1073 11 0 0 4 9 1072 582 9780 40800000 801000 A 0 0 0 0 0 552 0 0 691 1051 0 0 0 0 0 0 0 0 0 0 0 0 0 0 0 0 0 0 _w90_parameters$2
S 1074 23 5 0 0 0 1075 582 9593 0 0 A 0 0 0 0 0 0 0 0 0 0 0 0 0 0 0 0 0 0 0 0 0 0 0 0 0 0 0 0 param_read
S 1075 14 5 0 0 0 1 1074 9593 0 400000 A 0 0 0 0 0 0 0 14 0 0 0 0 0 0 0 0 0 0 0 0 0 241 0 582 0 0 0 0 param_read
F 1075 0
S 1076 23 5 0 0 0 1077 582 9798 10 0 A 0 0 0 0 0 0 0 0 0 0 0 0 0 0 0 0 0 0 0 0 0 0 0 0 0 0 0 0 param_uppercase
S 1077 14 5 0 0 0 1 1076 9798 10 400000 A 0 0 0 0 0 0 0 15 0 0 0 0 0 0 0 0 0 0 0 0 0 968 0 582 0 0 0 0 param_uppercase
F 1077 0
S 1078 23 5 0 0 0 1079 582 9604 0 0 A 0 0 0 0 0 0 0 0 0 0 0 0 0 0 0 0 0 0 0 0 0 0 0 0 0 0 0 0 param_write
S 1079 14 5 0 0 0 1 1078 9604 0 400000 A 0 0 0 0 0 0 0 16 0 0 0 0 0 0 0 0 0 0 0 0 0 1011 0 582 0 0 0 0 param_write
F 1079 0
S 1080 23 5 0 0 0 1081 582 9630 0 0 A 0 0 0 0 0 0 0 0 0 0 0 0 0 0 0 0 0 0 0 0 0 0 0 0 0 0 0 0 param_write_header
S 1081 14 5 0 0 0 1 1080 9630 0 400000 A 0 0 0 0 0 0 0 17 0 0 0 0 0 0 0 0 0 0 0 0 0 1268 0 582 0 0 0 0 param_write_header
F 1081 0
S 1082 23 5 0 0 0 1083 582 9616 0 0 A 0 0 0 0 0 0 0 0 0 0 0 0 0 0 0 0 0 0 0 0 0 0 0 0 0 0 0 0 param_dealloc
S 1083 14 5 0 0 0 1 1082 9616 0 400000 A 0 0 0 0 0 0 0 18 0 0 0 0 0 0 0 0 0 0 0 0 0 1351 0 582 0 0 0 0 param_dealloc
F 1083 0
S 1084 23 5 0 0 0 1086 582 9649 0 0 A 0 0 0 0 0 0 0 0 0 0 0 0 0 0 0 0 0 0 0 0 0 0 0 0 0 0 0 0 param_write_chkpt
S 1085 1 3 1 0 28 1 1084 9814 14 43000 A 0 0 0 0 0 0 0 0 0 0 0 0 0 0 0 0 0 0 0 0 0 0 0 0 0 0 0 0 chkpt
S 1086 14 5 0 0 0 1 1084 9649 0 400000 A 0 0 0 0 0 0 0 19 1 0 0 0 0 0 0 0 0 0 0 0 0 1546 0 582 0 0 0 0 param_write_chkpt
F 1086 1 1085
S 1087 23 5 0 0 0 1088 582 9667 0 0 A 0 0 0 0 0 0 0 0 0 0 0 0 0 0 0 0 0 0 0 0 0 0 0 0 0 0 0 0 param_read_chkpt
S 1088 14 5 0 0 0 1 1087 9667 0 400000 A 0 0 0 0 0 0 0 21 0 0 0 0 0 0 0 0 0 0 0 0 0 1601 0 582 0 0 0 0 param_read_chkpt
F 1088 0
S 1089 23 5 0 0 0 1090 582 9820 10 0 A 0 0 0 0 0 0 0 0 0 0 0 0 0 0 0 0 0 0 0 0 0 0 0 0 0 0 0 0 param_in_file
S 1090 14 5 0 0 0 1 1089 9820 10 400000 A 0 0 0 0 0 0 0 22 0 0 0 0 0 0 0 0 0 0 0 0 0 1724 0 582 0 0 0 0 param_in_file
F 1090 0
S 1091 23 5 0 0 0 1098 582 9834 10 0 A 0 0 0 0 0 0 0 0 0 0 0 0 0 0 0 0 0 0 0 0 0 0 0 0 0 0 0 0 param_get_keyword
S 1092 1 3 1 0 28 1 1091 9852 14 43000 A 0 0 0 0 0 0 0 0 0 0 0 0 0 0 0 0 0 0 0 0 0 0 0 0 0 0 0 0 keyword
S 1093 1 3 2 0 16 1 1091 9860 14 3000 A 0 0 0 0 0 0 0 0 0 0 0 0 0 0 0 0 0 0 0 0 0 0 0 0 0 0 0 0 found
S 1094 1 3 3 0 28 1 1091 9866 80000014 43000 A 0 0 0 0 0 0 0 0 0 0 0 0 0 0 0 0 0 0 0 0 0 0 0 0 0 0 0 0 c_value
S 1095 1 3 3 0 16 1 1091 9874 80000014 3000 A 0 0 0 0 0 0 0 0 0 0 0 0 0 0 0 0 0 0 0 0 0 0 0 0 0 0 0 0 l_value
S 1096 1 3 3 0 6 1 1091 9882 80000014 3000 A 0 0 0 0 0 0 0 0 0 0 0 0 0 0 0 0 0 0 0 0 0 0 0 0 0 0 0 0 i_value
S 1097 1 3 3 0 9 1 1091 9890 80000014 3000 A 0 0 0 0 0 0 0 0 0 0 0 0 0 0 0 0 0 0 0 0 0 0 0 0 0 0 0 0 r_value
S 1098 14 5 0 0 0 1 1091 9834 10 400000 A 0 0 0 0 0 0 0 23 6 0 0 0 0 0 0 0 0 0 0 0 0 1784 0 582 0 0 0 0 param_get_keyword
F 1098 6 1092 1093 1094 1095 1096 1097
S 1099 23 5 0 0 0 1107 582 9898 10 0 A 0 0 0 0 0 0 0 0 0 0 0 0 0 0 0 0 0 0 0 0 0 0 0 0 0 0 0 0 param_get_keyword_vector
S 1100 1 3 1 0 28 1 1099 9852 14 43000 A 0 0 0 0 0 0 0 0 0 0 0 0 0 0 0 0 0 0 0 0 0 0 0 0 0 0 0 0 keyword
S 1101 1 3 2 0 16 1 1099 9860 14 3000 A 0 0 0 0 0 0 0 0 0 0 0 0 0 0 0 0 0 0 0 0 0 0 0 0 0 0 0 0 found
S 1102 6 3 1 0 6 1 1099 3869 800014 3000 A 0 0 0 0 0 0 0 0 0 0 0 0 0 0 0 0 0 0 0 0 0 0 0 0 0 0 0 0 length
S 1103 7 3 3 0 322 1 1099 9866 80800214 43000 A 0 0 0 0 0 0 0 0 0 0 0 0 0 0 0 0 0 0 0 0 0 0 0 0 0 0 0 0 c_value
S 1104 7 3 3 0 325 1 1099 9874 80800214 3000 A 0 0 0 0 0 0 0 0 0 0 0 0 0 0 0 0 0 0 0 0 0 0 0 0 0 0 0 0 l_value
S 1105 7 3 3 0 328 1 1099 9882 80800214 3000 A 0 0 0 0 0 0 0 0 0 0 0 0 0 0 0 0 0 0 0 0 0 0 0 0 0 0 0 0 i_value
S 1106 7 3 3 0 331 1 1099 9890 80800214 3000 A 0 0 0 0 0 0 0 0 0 0 0 0 0 0 0 0 0 0 0 0 0 0 0 0 0 0 0 0 r_value
S 1107 14 5 0 0 0 1 1099 9898 210 400000 A 0 0 0 0 0 0 0 30 7 0 0 0 0 0 0 0 0 0 0 0 0 1853 0 582 0 0 0 0 param_get_keyword_vector
F 1107 7 1100 1101 1102 1103 1104 1105 1106
S 1108 6 1 0 0 6 1 1099 9923 40800016 3000 A 0 0 0 0 0 0 0 0 0 0 0 0 0 0 0 0 0 0 0 0 0 0 0 0 0 0 0 0 z_e_594
S 1109 23 5 0 0 0 1113 582 9931 10 0 A 0 0 0 0 0 0 0 0 0 0 0 0 0 0 0 0 0 0 0 0 0 0 0 0 0 0 0 0 param_get_vector_length
S 1110 1 3 1 0 28 1 1109 9852 14 43000 A 0 0 0 0 0 0 0 0 0 0 0 0 0 0 0 0 0 0 0 0 0 0 0 0 0 0 0 0 keyword
S 1111 1 3 2 0 16 1 1109 9860 14 3000 A 0 0 0 0 0 0 0 0 0 0 0 0 0 0 0 0 0 0 0 0 0 0 0 0 0 0 0 0 found
S 1112 1 3 2 0 6 1 1109 3869 14 3000 A 0 0 0 0 0 0 0 0 0 0 0 0 0 0 0 0 0 0 0 0 0 0 0 0 0 0 0 0 length
S 1113 14 5 0 0 0 1 1109 9931 10 400000 A 0 0 0 0 0 0 0 38 3 0 0 0 0 0 0 0 0 0 0 0 0 1919 0 582 0 0 0 0 param_get_vector_length
F 1113 3 1110 1111 1112
S 1114 23 5 0 0 0 1123 582 9955 10 0 A 0 0 0 0 0 0 0 0 0 0 0 0 0 0 0 0 0 0 0 0 0 0 0 0 0 0 0 0 param_get_keyword_block
S 1115 1 3 1 0 28 1 1114 9852 14 43000 A 0 0 0 0 0 0 0 0 0 0 0 0 0 0 0 0 0 0 0 0 0 0 0 0 0 0 0 0 keyword
S 1116 1 3 2 0 16 1 1114 9860 14 3000 A 0 0 0 0 0 0 0 0 0 0 0 0 0 0 0 0 0 0 0 0 0 0 0 0 0 0 0 0 found
S 1117 6 3 1 0 6 1 1114 9979 800014 3000 A 0 0 0 0 0 0 0 0 0 0 0 0 0 0 0 0 0 0 0 0 0 0 0 0 0 0 0 0 rows
S 1118 6 3 1 0 6 1 1114 9984 800014 3000 A 0 0 0 0 0 0 0 0 0 0 0 0 0 0 0 0 0 0 0 0 0 0 0 0 0 0 0 0 columns
S 1119 7 3 3 0 334 1 1114 9866 80800214 43000 A 0 0 0 0 0 0 0 0 0 0 0 0 0 0 0 0 0 0 0 0 0 0 0 0 0 0 0 0 c_value
S 1120 7 3 3 0 337 1 1114 9874 80800214 3000 A 0 0 0 0 0 0 0 0 0 0 0 0 0 0 0 0 0 0 0 0 0 0 0 0 0 0 0 0 l_value
S 1121 7 3 3 0 340 1 1114 9882 80800214 3000 A 0 0 0 0 0 0 0 0 0 0 0 0 0 0 0 0 0 0 0 0 0 0 0 0 0 0 0 0 i_value
S 1122 7 3 3 0 343 1 1114 9890 80800214 3000 A 0 0 0 0 0 0 0 0 0 0 0 0 0 0 0 0 0 0 0 0 0 0 0 0 0 0 0 0 r_value
S 1123 14 5 0 0 0 1 1114 9955 210 400000 A 0 0 0 0 0 0 0 42 8 0 0 0 0 0 0 0 0 0 0 0 0 1986 0 582 0 0 0 0 param_get_keyword_block
F 1123 8 1115 1116 1117 1118 1119 1120 1121 1122
S 1124 6 1 0 0 6 1 1114 9992 40800016 3000 A 0 0 0 0 0 0 0 0 0 0 0 0 0 0 0 0 0 0 0 0 0 0 0 0 0 0 0 0 z_e_596
S 1125 6 1 0 0 6 1 1114 10000 40800016 3000 A 0 0 0 0 0 0 0 0 0 0 0 0 0 0 0 0 0 0 0 0 0 0 0 0 0 0 0 0 z_e_597
S 1126 6 1 0 0 6 1 1114 10008 40800016 3000 A 0 0 0 0 0 0 0 0 0 0 0 0 0 0 0 0 0 0 0 0 0 0 0 0 0 0 0 0 z_e_600
S 1127 6 1 0 0 6 1 1114 10016 40800016 3000 A 0 0 0 0 0 0 0 0 0 0 0 0 0 0 0 0 0 0 0 0 0 0 0 0 0 0 0 0 z_e_602
S 1128 23 5 0 0 0 1133 582 10024 10 0 A 0 0 0 0 0 0 0 0 0 0 0 0 0 0 0 0 0 0 0 0 0 0 0 0 0 0 0 0 param_get_block_length
S 1129 1 3 1 0 28 1 1128 9852 14 43000 A 0 0 0 0 0 0 0 0 0 0 0 0 0 0 0 0 0 0 0 0 0 0 0 0 0 0 0 0 keyword
S 1130 1 3 2 0 16 1 1128 9860 14 3000 A 0 0 0 0 0 0 0 0 0 0 0 0 0 0 0 0 0 0 0 0 0 0 0 0 0 0 0 0 found
S 1131 1 3 2 0 6 1 1128 9979 14 3000 A 0 0 0 0 0 0 0 0 0 0 0 0 0 0 0 0 0 0 0 0 0 0 0 0 0 0 0 0 rows
S 1132 1 3 2 0 16 1 1128 10047 80000014 3000 A 0 0 0 0 0 0 0 0 0 0 0 0 0 0 0 0 0 0 0 0 0 0 0 0 0 0 0 0 lunits
S 1133 14 5 0 0 0 1 1128 10024 10 400000 A 0 0 0 0 0 0 0 51 4 0 0 0 0 0 0 0 0 0 0 0 0 2121 0 582 0 0 0 0 param_get_block_length
F 1133 4 1129 1130 1131 1132
S 1134 23 5 0 0 0 1136 582 10054 10 0 A 0 0 0 0 0 0 0 0 0 0 0 0 0 0 0 0 0 0 0 0 0 0 0 0 0 0 0 0 param_get_atoms
S 1135 1 3 1 0 16 1 1134 10047 14 3000 A 0 0 0 0 0 0 0 0 0 0 0 0 0 0 0 0 0 0 0 0 0 0 0 0 0 0 0 0 lunits
S 1136 14 5 0 0 0 1 1134 10054 10 400000 A 0 0 0 0 0 0 0 56 1 0 0 0 0 0 0 0 0 0 0 0 0 2230 0 582 0 0 0 0 param_get_atoms
F 1136 1 1135
S 1137 23 5 0 0 0 1140 582 9684 0 0 A 0 0 0 0 0 0 0 0 0 0 0 0 0 0 0 0 0 0 0 0 0 0 0 0 0 0 0 0 param_lib_set_atoms
S 1138 7 3 1 0 346 1 1137 10070 800214 43000 A 0 0 0 0 0 0 0 0 0 0 0 0 0 0 0 0 0 0 0 0 0 0 0 0 0 0 0 0 atoms_label_tmp
S 1139 7 3 1 0 349 1 1137 10086 800214 3000 A 0 0 0 0 0 0 0 0 0 0 0 0 0 0 0 0 0 0 0 0 0 0 0 0 0 0 0 0 atoms_pos_cart_tmp
S 1140 14 5 0 0 0 1 1137 9684 200 400000 A 0 0 0 0 0 0 0 58 2 0 0 0 0 0 0 0 0 0 0 0 0 2408 0 582 0 0 0 0 param_lib_set_atoms
F 1140 2 1138 1139
S 1141 6 1 0 0 6 1 1137 10105 40800016 3000 A 0 0 0 0 0 0 0 0 0 0 0 0 0 0 0 0 0 0 0 0 0 0 0 0 0 0 0 0 z_e_606
S 1142 6 1 0 0 6 1 1137 10113 40800016 3000 A 0 0 0 0 0 0 0 0 0 0 0 0 0 0 0 0 0 0 0 0 0 0 0 0 0 0 0 0 z_e_608
S 1143 23 5 0 0 0 1149 582 10121 10 0 A 0 0 0 0 0 0 0 0 0 0 0 0 0 0 0 0 0 0 0 0 0 0 0 0 0 0 0 0 param_get_range_vector
S 1144 1 3 1 0 28 1 1143 9852 14 43000 A 0 0 0 0 0 0 0 0 0 0 0 0 0 0 0 0 0 0 0 0 0 0 0 0 0 0 0 0 keyword
S 1145 1 3 2 0 16 1 1143 9860 14 3000 A 0 0 0 0 0 0 0 0 0 0 0 0 0 0 0 0 0 0 0 0 0 0 0 0 0 0 0 0 found
S 1146 6 3 3 0 6 1 1143 3869 800014 3000 A 0 0 0 0 0 0 0 0 0 0 0 0 0 0 0 0 0 0 0 0 0 0 0 0 0 0 0 0 length
S 1147 1 3 1 0 16 1 1143 10144 14 3000 A 0 0 0 0 0 0 0 0 0 0 0 0 0 0 0 0 0 0 0 0 0 0 0 0 0 0 0 0 lcount
S 1148 7 3 2 0 352 1 1143 9882 80800214 3000 A 0 0 0 0 0 0 0 0 0 0 0 0 0 0 0 0 0 0 0 0 0 0 0 0 0 0 0 0 i_value
S 1149 14 5 0 0 0 1 1143 10121 210 400000 A 0 0 0 0 0 0 0 61 5 0 0 0 0 0 0 0 0 0 0 0 0 2500 0 582 0 0 0 0 param_get_range_vector
F 1149 5 1144 1145 1146 1147 1148
S 1150 6 1 0 0 6 1 1143 10151 40800016 3000 A 0 0 0 0 0 0 0 0 0 0 0 0 0 0 0 0 0 0 0 0 0 0 0 0 0 0 0 0 z_e_605
S 1151 23 5 0 0 0 1152 582 10159 10 0 A 0 0 0 0 0 0 0 0 0 0 0 0 0 0 0 0 0 0 0 0 0 0 0 0 0 0 0 0 param_get_projections
S 1152 14 5 0 0 0 1 1151 10159 10 400000 A 0 0 0 0 0 0 0 67 0 0 0 0 0 0 0 0 0 0 0 0 0 2599 0 582 0 0 0 0 param_get_projections
F 1152 0
S 1153 23 5 0 0 0 1154 582 10181 10 0 A 0 0 0 0 0 0 0 0 0 0 0 0 0 0 0 0 0 0 0 0 0 0 0 0 0 0 0 0 param_get_keyword_kpath
S 1154 14 5 0 0 0 1 1153 10181 10 400000 A 0 0 0 0 0 0 0 68 0 0 0 0 0 0 0 0 0 0 0 0 0 3144 0 582 0 0 0 0 param_get_keyword_kpath
F 1154 0
S 1155 23 5 0 0 0 1156 582 9704 0 0 A 0 0 0 0 0 0 0 0 0 0 0 0 0 0 0 0 0 0 0 0 0 0 0 0 0 0 0 0 param_memory_estimate
S 1156 14 5 0 0 0 1 1155 9704 0 400000 A 0 0 0 0 0 0 0 69 0 0 0 0 0 0 0 0 0 0 0 0 0 3223 0 582 0 0 0 0 param_memory_estimate
F 1156 0
A 13 2 0 0 0 6 588 0 0 0 13 0 0 0 0 0 0 0 0 0
A 39 2 0 0 0 6 615 0 0 0 39 0 0 0 0 0 0 0 0 0
A 42 2 0 0 0 6 614 0 0 0 42 0 0 0 0 0 0 0 0 0
A 44 2 0 0 0 6 618 0 0 0 44 0 0 0 0 0 0 0 0 0
A 45 2 0 0 0 6 666 0 0 0 45 0 0 0 0 0 0 0 0 0
A 47 2 0 0 0 6 677 0 0 0 47 0 0 0 0 0 0 0 0 0
A 48 2 0 0 0 6 682 0 0 0 48 0 0 0 0 0 0 0 0 0
A 49 1 0 1 0 81 678 0 0 0 0 0 0 0 0 0 0 0 0 0
A 50 10 0 0 0 6 49 1 0 0 0 0 0 0 0 0 0 0 0 0
X 1 48
A 51 2 0 0 0 6 683 0 0 0 51 0 0 0 0 0 0 0 0 0
A 52 10 0 0 50 6 49 4 0 0 0 0 0 0 0 0 0 0 0 0
X 1 51
A 53 4 0 0 0 6 52 0 3 0 0 0 0 2 0 0 0 0 0 0
A 54 4 0 0 0 6 50 0 53 0 0 0 0 1 0 0 0 0 0 0
A 55 2 0 0 0 6 684 0 0 0 55 0 0 0 0 0 0 0 0 0
A 56 10 0 0 52 6 49 7 0 0 0 0 0 0 0 0 0 0 0 0
X 1 55
A 57 2 0 0 0 6 685 0 0 0 57 0 0 0 0 0 0 0 0 0
A 58 10 0 0 56 6 49 10 0 0 0 0 0 0 0 0 0 0 0 0
X 1 57
A 59 10 0 0 58 6 49 13 0 0 0 0 0 0 0 0 0 0 0 0
X 1 13
A 60 2 0 0 0 6 688 0 0 0 60 0 0 0 0 0 0 0 0 0
A 62 1 0 1 0 90 706 0 0 0 0 0 0 0 0 0 0 0 0 0
A 63 10 0 0 0 6 62 1 0 0 0 0 0 0 0 0 0 0 0 0
X 1 48
A 64 10 0 0 63 6 62 4 0 0 0 0 0 0 0 0 0 0 0 0
X 1 51
A 65 4 0 0 0 6 64 0 3 0 0 0 0 2 0 0 0 0 0 0
A 66 4 0 0 0 6 63 0 65 0 0 0 0 1 0 0 0 0 0 0
A 67 10 0 0 64 6 62 7 0 0 0 0 0 0 0 0 0 0 0 0
X 1 55
A 68 10 0 0 67 6 62 10 0 0 0 0 0 0 0 0 0 0 0 0
X 1 57
A 69 10 0 0 68 6 62 13 0 0 0 0 0 0 0 0 0 0 0 0
X 1 13
A 71 1 0 1 0 96 719 0 0 0 0 0 0 0 0 0 0 0 0 0
A 72 10 0 0 0 6 71 1 0 0 0 0 0 0 0 0 0 0 0 0
X 1 48
A 73 10 0 0 72 6 71 4 0 0 0 0 0 0 0 0 0 0 0 0
X 1 51
A 74 4 0 0 0 6 73 0 3 0 0 0 0 2 0 0 0 0 0 0
A 75 4 0 0 0 6 72 0 74 0 0 0 0 1 0 0 0 0 0 0
A 76 10 0 0 73 6 71 7 0 0 0 0 0 0 0 0 0 0 0 0
X 1 55
A 77 10 0 0 76 6 71 10 0 0 0 0 0 0 0 0 0 0 0 0
X 1 57
A 78 10 0 0 77 6 71 13 0 0 0 0 0 0 0 0 0 0 0 0
X 1 13
A 80 1 0 1 0 105 760 0 0 0 0 0 0 0 0 0 0 0 0 0
A 81 10 0 0 0 6 80 1 0 0 0 0 0 0 0 0 0 0 0 0
X 1 48
A 82 10 0 0 81 6 80 4 0 0 0 0 0 0 0 0 0 0 0 0
X 1 51
A 83 4 0 0 3 6 82 0 3 0 0 0 0 2 0 0 0 0 0 0
A 84 4 0 0 62 6 81 0 83 0 0 0 0 1 0 0 0 0 0 0
A 85 10 0 0 82 6 80 7 0 0 0 0 0 0 0 0 0 0 0 0
X 1 55
A 86 10 0 0 85 6 80 10 0 0 0 0 0 0 0 0 0 0 0 0
X 1 57
A 87 10 0 0 86 6 80 13 0 0 0 0 0 0 0 0 0 0 0 0
X 1 13
A 90 2 0 0 0 6 767 0 0 0 90 0 0 0 0 0 0 0 0 0
A 91 1 0 3 0 111 768 0 0 0 0 0 0 0 0 0 0 0 0 0
A 92 10 0 0 0 6 91 1 0 0 0 0 0 0 0 0 0 0 0 0
X 1 48
A 93 10 0 0 92 6 91 4 0 0 0 0 0 0 0 0 0 0 0 0
X 1 51
A 94 4 0 0 0 6 93 0 3 0 0 0 0 2 0 0 0 0 0 0
A 95 4 0 0 0 6 92 0 94 0 0 0 0 1 0 0 0 0 0 0
A 96 2 0 0 0 6 772 0 0 0 96 0 0 0 0 0 0 0 0 0
A 97 10 0 0 93 6 91 16 0 0 0 0 0 0 0 0 0 0 0 0
X 1 96
A 98 10 0 0 97 6 91 19 0 0 0 0 0 0 0 0 0 0 0 0
X 1 45
A 99 4 0 0 0 6 98 0 3 0 0 0 0 2 0 0 0 0 0 0
A 100 4 0 0 0 6 97 0 99 0 0 0 0 1 0 0 0 0 0 0
A 101 10 0 0 98 6 91 7 0 0 0 0 0 0 0 0 0 0 0 0
X 1 55
A 102 2 0 0 0 6 773 0 0 0 102 0 0 0 0 0 0 0 0 0
A 103 10 0 0 101 6 91 22 0 0 0 0 0 0 0 0 0 0 0 0
X 1 102
A 104 10 0 0 103 6 91 10 0 0 0 0 0 0 0 0 0 0 0 0
X 1 57
A 105 10 0 0 104 6 91 13 0 0 0 0 0 0 0 0 0 0 0 0
X 1 13
A 106 2 0 0 0 6 775 0 0 0 106 0 0 0 0 0 0 0 0 0
A 110 2 0 0 0 6 804 0 0 0 110 0 0 0 0 0 0 0 0 0
A 111 1 0 5 0 120 805 0 0 0 0 0 0 0 0 0 0 0 0 0
A 112 10 0 0 0 6 111 1 0 0 0 0 0 0 0 0 0 0 0 0
X 1 48
A 113 10 0 0 112 6 111 4 0 0 0 0 0 0 0 0 0 0 0 0
X 1 51
A 114 4 0 0 0 6 113 0 3 0 0 0 0 2 0 0 0 0 0 0
A 115 4 0 0 0 6 112 0 114 0 0 0 0 1 0 0 0 0 0 0
A 116 10 0 0 113 6 111 16 0 0 0 0 0 0 0 0 0 0 0 0
X 1 96
A 117 10 0 0 116 6 111 19 0 0 0 0 0 0 0 0 0 0 0 0
X 1 45
A 118 4 0 0 70 6 117 0 3 0 0 0 0 2 0 0 0 0 0 0
A 119 4 0 0 0 6 116 0 118 0 0 0 0 1 0 0 0 0 0 0
A 120 2 0 0 0 6 809 0 0 0 120 0 0 0 0 0 0 0 0 0
A 121 10 0 0 117 6 111 25 0 0 0 0 0 0 0 0 0 0 0 0
X 1 120
A 122 2 0 0 0 6 810 0 0 0 122 0 0 0 0 0 0 0 0 0
A 123 10 0 0 121 6 111 28 0 0 0 0 0 0 0 0 0 0 0 0
X 1 122
A 124 4 0 0 0 6 123 0 3 0 0 0 0 2 0 0 0 0 0 0
A 125 4 0 0 0 6 121 0 124 0 0 0 0 1 0 0 0 0 0 0
A 126 10 0 0 123 6 111 7 0 0 0 0 0 0 0 0 0 0 0 0
X 1 55
A 127 10 0 0 126 6 111 22 0 0 0 0 0 0 0 0 0 0 0 0
X 1 102
A 128 2 0 0 0 6 811 0 0 0 128 0 0 0 0 0 0 0 0 0
A 129 10 0 0 127 6 111 31 0 0 0 0 0 0 0 0 0 0 0 0
X 1 128
A 130 10 0 0 129 6 111 10 0 0 0 0 0 0 0 0 0 0 0 0
X 1 57
A 131 10 0 0 130 6 111 13 0 0 0 0 0 0 0 0 0 0 0 0
X 1 13
A 135 1 0 5 0 126 816 0 0 0 0 0 0 0 0 0 0 0 0 0
A 136 10 0 0 0 6 135 1 0 0 0 0 0 0 0 0 0 0 0 0
X 1 48
A 137 10 0 0 136 6 135 4 0 0 0 0 0 0 0 0 0 0 0 0
X 1 51
A 138 4 0 0 0 6 137 0 3 0 0 0 0 2 0 0 0 0 0 0
A 139 4 0 0 0 6 136 0 138 0 0 0 0 1 0 0 0 0 0 0
A 140 10 0 0 137 6 135 16 0 0 0 0 0 0 0 0 0 0 0 0
X 1 96
A 141 10 0 0 140 6 135 19 0 0 0 0 0 0 0 0 0 0 0 0
X 1 45
A 142 4 0 0 0 6 141 0 3 0 0 0 0 2 0 0 0 0 0 0
A 143 4 0 0 34 6 140 0 142 0 0 0 0 1 0 0 0 0 0 0
A 144 10 0 0 141 6 135 25 0 0 0 0 0 0 0 0 0 0 0 0
X 1 120
A 145 10 0 0 144 6 135 28 0 0 0 0 0 0 0 0 0 0 0 0
X 1 122
A 146 4 0 0 0 6 145 0 3 0 0 0 0 2 0 0 0 0 0 0
A 147 4 0 0 0 6 144 0 146 0 0 0 0 1 0 0 0 0 0 0
A 148 10 0 0 145 6 135 7 0 0 0 0 0 0 0 0 0 0 0 0
X 1 55
A 149 10 0 0 148 6 135 22 0 0 0 0 0 0 0 0 0 0 0 0
X 1 102
A 150 10 0 0 149 6 135 31 0 0 0 0 0 0 0 0 0 0 0 0
X 1 128
A 151 10 0 0 150 6 135 10 0 0 0 0 0 0 0 0 0 0 0 0
X 1 57
A 152 10 0 0 151 6 135 13 0 0 0 0 0 0 0 0 0 0 0 0
X 1 13
A 154 1 0 1 37 132 822 0 0 0 0 0 0 0 0 0 0 0 0 0
A 155 10 0 0 0 6 154 1 0 0 0 0 0 0 0 0 0 0 0 0
X 1 48
A 156 10 0 0 155 6 154 4 0 0 0 0 0 0 0 0 0 0 0 0
X 1 51
A 157 4 0 0 0 6 156 0 3 0 0 0 0 2 0 0 0 0 0 0
A 158 4 0 0 0 6 155 0 157 0 0 0 0 1 0 0 0 0 0 0
A 159 10 0 0 156 6 154 7 0 0 0 0 0 0 0 0 0 0 0 0
X 1 55
A 160 10 0 0 159 6 154 10 0 0 0 0 0 0 0 0 0 0 0 0
X 1 57
A 161 10 0 0 160 6 154 13 0 0 0 0 0 0 0 0 0 0 0 0
X 1 13
A 163 1 0 1 118 140 828 0 0 0 0 0 0 0 0 0 0 0 0 0
A 164 10 0 0 0 6 163 1 0 0 0 0 0 0 0 0 0 0 0 0
X 1 48
A 165 10 0 0 164 6 163 4 0 0 0 0 0 0 0 0 0 0 0 0
X 1 51
A 166 4 0 0 89 6 165 0 3 0 0 0 0 2 0 0 0 0 0 0
A 167 4 0 0 0 6 164 0 166 0 0 0 0 1 0 0 0 0 0 0
A 168 10 0 0 165 6 163 7 0 0 0 0 0 0 0 0 0 0 0 0
X 1 55
A 169 10 0 0 168 6 163 10 0 0 0 0 0 0 0 0 0 0 0 0
X 1 57
A 170 10 0 0 169 6 163 13 0 0 0 0 0 0 0 0 0 0 0 0
X 1 13
A 171 2 0 0 0 6 832 0 0 0 171 0 0 0 0 0 0 0 0 0
A 173 1 0 1 36 148 835 0 0 0 0 0 0 0 0 0 0 0 0 0
A 174 10 0 0 0 6 173 1 0 0 0 0 0 0 0 0 0 0 0 0
X 1 48
A 175 10 0 0 174 6 173 4 0 0 0 0 0 0 0 0 0 0 0 0
X 1 51
A 176 4 0 0 0 6 175 0 3 0 0 0 0 2 0 0 0 0 0 0
A 177 4 0 0 0 6 174 0 176 0 0 0 0 1 0 0 0 0 0 0
A 178 10 0 0 175 6 173 7 0 0 0 0 0 0 0 0 0 0 0 0
X 1 55
A 179 10 0 0 178 6 173 10 0 0 0 0 0 0 0 0 0 0 0 0
X 1 57
A 180 10 0 0 179 6 173 13 0 0 0 0 0 0 0 0 0 0 0 0
X 1 13
A 183 1 0 3 38 154 844 0 0 0 0 0 0 0 0 0 0 0 0 0
A 184 10 0 0 0 6 183 1 0 0 0 0 0 0 0 0 0 0 0 0
X 1 48
A 185 10 0 0 184 6 183 4 0 0 0 0 0 0 0 0 0 0 0 0
X 1 51
A 186 4 0 0 0 6 185 0 3 0 0 0 0 2 0 0 0 0 0 0
A 187 4 0 0 0 6 184 0 186 0 0 0 0 1 0 0 0 0 0 0
A 188 10 0 0 185 6 183 16 0 0 0 0 0 0 0 0 0 0 0 0
X 1 96
A 189 10 0 0 188 6 183 19 0 0 0 0 0 0 0 0 0 0 0 0
X 1 45
A 190 4 0 0 0 6 189 0 3 0 0 0 0 2 0 0 0 0 0 0
A 191 4 0 0 54 6 188 0 190 0 0 0 0 1 0 0 0 0 0 0
A 192 10 0 0 189 6 183 7 0 0 0 0 0 0 0 0 0 0 0 0
X 1 55
A 193 10 0 0 192 6 183 22 0 0 0 0 0 0 0 0 0 0 0 0
X 1 102
A 194 10 0 0 193 6 183 10 0 0 0 0 0 0 0 0 0 0 0 0
X 1 57
A 195 10 0 0 194 6 183 13 0 0 0 0 0 0 0 0 0 0 0 0
X 1 13
A 197 1 0 1 0 160 850 0 0 0 0 0 0 0 0 0 0 0 0 0
A 198 10 0 0 17 6 197 1 0 0 0 0 0 0 0 0 0 0 0 0
X 1 48
A 199 10 0 0 198 6 197 4 0 0 0 0 0 0 0 0 0 0 0 0
X 1 51
A 200 4 0 0 60 6 199 0 3 0 0 0 0 2 0 0 0 0 0 0
A 201 4 0 0 0 6 198 0 200 0 0 0 0 1 0 0 0 0 0 0
A 202 10 0 0 199 6 197 7 0 0 0 0 0 0 0 0 0 0 0 0
X 1 55
A 203 10 0 0 202 6 197 10 0 0 0 0 0 0 0 0 0 0 0 0
X 1 57
A 204 10 0 0 203 6 197 13 0 0 0 0 0 0 0 0 0 0 0 0
X 1 13
A 206 1 0 1 0 166 856 0 0 0 0 0 0 0 0 0 0 0 0 0
A 207 10 0 0 35 6 206 1 0 0 0 0 0 0 0 0 0 0 0 0
X 1 48
A 208 10 0 0 207 6 206 4 0 0 0 0 0 0 0 0 0 0 0 0
X 1 51
A 209 4 0 0 0 6 208 0 3 0 0 0 0 2 0 0 0 0 0 0
A 210 4 0 0 41 6 207 0 209 0 0 0 0 1 0 0 0 0 0 0
A 211 10 0 0 208 6 206 7 0 0 0 0 0 0 0 0 0 0 0 0
X 1 55
A 212 10 0 0 211 6 206 10 0 0 0 0 0 0 0 0 0 0 0 0
X 1 57
A 213 10 0 0 212 6 206 13 0 0 0 0 0 0 0 0 0 0 0 0
X 1 13
A 216 1 0 3 0 172 863 0 0 0 0 0 0 0 0 0 0 0 0 0
A 217 10 0 0 0 6 216 1 0 0 0 0 0 0 0 0 0 0 0 0
X 1 48
A 218 10 0 0 217 6 216 4 0 0 0 0 0 0 0 0 0 0 0 0
X 1 51
A 219 4 0 0 0 6 218 0 3 0 0 0 0 2 0 0 0 0 0 0
A 220 4 0 0 0 6 217 0 219 0 0 0 0 1 0 0 0 0 0 0
A 221 10 0 0 218 6 216 16 0 0 0 0 0 0 0 0 0 0 0 0
X 1 96
A 222 10 0 0 221 6 216 19 0 0 0 0 0 0 0 0 0 0 0 0
X 1 45
A 223 4 0 0 0 6 222 0 3 0 0 0 0 2 0 0 0 0 0 0
A 224 4 0 0 0 6 221 0 223 0 0 0 0 1 0 0 0 0 0 0
A 225 10 0 0 222 6 216 7 0 0 0 0 0 0 0 0 0 0 0 0
X 1 55
A 226 10 0 0 225 6 216 22 0 0 0 0 0 0 0 0 0 0 0 0
X 1 102
A 227 10 0 0 226 6 216 10 0 0 0 0 0 0 0 0 0 0 0 0
X 1 57
A 228 10 0 0 227 6 216 13 0 0 0 0 0 0 0 0 0 0 0 0
X 1 13
A 231 1 0 3 0 178 870 0 0 0 0 0 0 0 0 0 0 0 0 0
A 232 10 0 0 0 6 231 1 0 0 0 0 0 0 0 0 0 0 0 0
X 1 48
A 233 10 0 0 232 6 231 4 0 0 0 0 0 0 0 0 0 0 0 0
X 1 51
A 234 4 0 0 172 6 233 0 3 0 0 0 0 2 0 0 0 0 0 0
A 235 4 0 0 0 6 232 0 234 0 0 0 0 1 0 0 0 0 0 0
A 236 10 0 0 233 6 231 16 0 0 0 0 0 0 0 0 0 0 0 0
X 1 96
A 237 10 0 0 236 6 231 19 0 0 0 0 0 0 0 0 0 0 0 0
X 1 45
A 238 4 0 0 0 6 237 0 3 0 0 0 0 2 0 0 0 0 0 0
A 239 4 0 0 0 6 236 0 238 0 0 0 0 1 0 0 0 0 0 0
A 240 10 0 0 237 6 231 7 0 0 0 0 0 0 0 0 0 0 0 0
X 1 55
A 241 10 0 0 240 6 231 22 0 0 0 0 0 0 0 0 0 0 0 0
X 1 102
A 242 10 0 0 241 6 231 10 0 0 0 0 0 0 0 0 0 0 0 0
X 1 57
A 243 10 0 0 242 6 231 13 0 0 0 0 0 0 0 0 0 0 0 0
X 1 13
A 245 1 0 1 0 184 876 0 0 0 0 0 0 0 0 0 0 0 0 0
A 246 10 0 0 0 6 245 1 0 0 0 0 0 0 0 0 0 0 0 0
X 1 48
A 247 10 0 0 246 6 245 4 0 0 0 0 0 0 0 0 0 0 0 0
X 1 51
A 248 4 0 0 0 6 247 0 3 0 0 0 0 2 0 0 0 0 0 0
A 249 4 0 0 0 6 246 0 248 0 0 0 0 1 0 0 0 0 0 0
A 250 10 0 0 247 6 245 7 0 0 0 0 0 0 0 0 0 0 0 0
X 1 55
A 251 10 0 0 250 6 245 10 0 0 0 0 0 0 0 0 0 0 0 0
X 1 57
A 252 10 0 0 251 6 245 13 0 0 0 0 0 0 0 0 0 0 0 0
X 1 13
A 254 1 0 1 96 190 882 0 0 0 0 0 0 0 0 0 0 0 0 0
A 255 10 0 0 79 6 254 1 0 0 0 0 0 0 0 0 0 0 0 0
X 1 48
A 256 10 0 0 255 6 254 4 0 0 0 0 0 0 0 0 0 0 0 0
X 1 51
A 257 4 0 0 248 6 256 0 3 0 0 0 0 2 0 0 0 0 0 0
A 258 4 0 0 0 6 255 0 257 0 0 0 0 1 0 0 0 0 0 0
A 259 10 0 0 256 6 254 7 0 0 0 0 0 0 0 0 0 0 0 0
X 1 55
A 260 10 0 0 259 6 254 10 0 0 0 0 0 0 0 0 0 0 0 0
X 1 57
A 261 10 0 0 260 6 254 13 0 0 0 0 0 0 0 0 0 0 0 0
X 1 13
A 263 1 0 1 44 205 895 0 0 0 0 0 0 0 0 0 0 0 0 0
A 264 10 0 0 0 6 263 1 0 0 0 0 0 0 0 0 0 0 0 0
X 1 48
A 265 10 0 0 264 6 263 4 0 0 0 0 0 0 0 0 0 0 0 0
X 1 51
A 266 4 0 0 0 6 265 0 3 0 0 0 0 2 0 0 0 0 0 0
A 267 4 0 0 0 6 264 0 266 0 0 0 0 1 0 0 0 0 0 0
A 268 10 0 0 265 6 263 7 0 0 0 0 0 0 0 0 0 0 0 0
X 1 55
A 269 10 0 0 268 6 263 10 0 0 0 0 0 0 0 0 0 0 0 0
X 1 57
A 270 10 0 0 269 6 263 13 0 0 0 0 0 0 0 0 0 0 0 0
X 1 13
A 273 1 0 3 0 211 902 0 0 0 0 0 0 0 0 0 0 0 0 0
A 274 10 0 0 45 6 273 1 0 0 0 0 0 0 0 0 0 0 0 0
X 1 48
A 275 10 0 0 274 6 273 4 0 0 0 0 0 0 0 0 0 0 0 0
X 1 51
A 276 4 0 0 0 6 275 0 3 0 0 0 0 2 0 0 0 0 0 0
A 277 4 0 0 0 6 274 0 276 0 0 0 0 1 0 0 0 0 0 0
A 278 10 0 0 275 6 273 16 0 0 0 0 0 0 0 0 0 0 0 0
X 1 96
A 279 10 0 0 278 6 273 19 0 0 0 0 0 0 0 0 0 0 0 0
X 1 45
A 280 4 0 0 0 6 279 0 3 0 0 0 0 2 0 0 0 0 0 0
A 281 4 0 0 229 6 278 0 280 0 0 0 0 1 0 0 0 0 0 0
A 282 10 0 0 279 6 273 7 0 0 0 0 0 0 0 0 0 0 0 0
X 1 55
A 283 10 0 0 282 6 273 22 0 0 0 0 0 0 0 0 0 0 0 0
X 1 102
A 284 10 0 0 283 6 273 10 0 0 0 0 0 0 0 0 0 0 0 0
X 1 57
A 285 10 0 0 284 6 273 13 0 0 0 0 0 0 0 0 0 0 0 0
X 1 13
A 288 1 0 3 0 217 909 0 0 0 0 0 0 0 0 0 0 0 0 0
A 289 10 0 0 0 6 288 1 0 0 0 0 0 0 0 0 0 0 0 0
X 1 48
A 290 10 0 0 289 6 288 4 0 0 0 0 0 0 0 0 0 0 0 0
X 1 51
A 291 4 0 0 0 6 290 0 3 0 0 0 0 2 0 0 0 0 0 0
A 292 4 0 0 170 6 289 0 291 0 0 0 0 1 0 0 0 0 0 0
A 293 10 0 0 290 6 288 16 0 0 0 0 0 0 0 0 0 0 0 0
X 1 96
A 294 10 0 0 293 6 288 19 0 0 0 0 0 0 0 0 0 0 0 0
X 1 45
A 295 4 0 0 0 6 294 0 3 0 0 0 0 2 0 0 0 0 0 0
A 296 4 0 0 0 6 293 0 295 0 0 0 0 1 0 0 0 0 0 0
A 297 10 0 0 294 6 288 7 0 0 0 0 0 0 0 0 0 0 0 0
X 1 55
A 298 10 0 0 297 6 288 22 0 0 0 0 0 0 0 0 0 0 0 0
X 1 102
A 299 10 0 0 298 6 288 10 0 0 0 0 0 0 0 0 0 0 0 0
X 1 57
A 300 10 0 0 299 6 288 13 0 0 0 0 0 0 0 0 0 0 0 0
X 1 13
A 303 1 0 3 0 223 924 0 0 0 0 0 0 0 0 0 0 0 0 0
A 304 10 0 0 0 6 303 1 0 0 0 0 0 0 0 0 0 0 0 0
X 1 48
A 305 10 0 0 304 6 303 4 0 0 0 0 0 0 0 0 0 0 0 0
X 1 51
A 306 4 0 0 0 6 305 0 3 0 0 0 0 2 0 0 0 0 0 0
A 307 4 0 0 0 6 304 0 306 0 0 0 0 1 0 0 0 0 0 0
A 308 10 0 0 305 6 303 16 0 0 0 0 0 0 0 0 0 0 0 0
X 1 96
A 309 10 0 0 308 6 303 19 0 0 0 0 0 0 0 0 0 0 0 0
X 1 45
A 310 4 0 0 272 6 309 0 3 0 0 0 0 2 0 0 0 0 0 0
A 311 4 0 0 0 6 308 0 310 0 0 0 0 1 0 0 0 0 0 0
A 312 10 0 0 309 6 303 7 0 0 0 0 0 0 0 0 0 0 0 0
X 1 55
A 313 10 0 0 312 6 303 22 0 0 0 0 0 0 0 0 0 0 0 0
X 1 102
A 314 10 0 0 313 6 303 10 0 0 0 0 0 0 0 0 0 0 0 0
X 1 57
A 315 10 0 0 314 6 303 13 0 0 0 0 0 0 0 0 0 0 0 0
X 1 13
A 318 1 0 3 0 229 931 0 0 0 0 0 0 0 0 0 0 0 0 0
A 319 10 0 0 223 6 318 1 0 0 0 0 0 0 0 0 0 0 0 0
X 1 48
A 320 10 0 0 319 6 318 4 0 0 0 0 0 0 0 0 0 0 0 0
X 1 51
A 321 4 0 0 0 6 320 0 3 0 0 0 0 2 0 0 0 0 0 0
A 322 4 0 0 0 6 319 0 321 0 0 0 0 1 0 0 0 0 0 0
A 323 10 0 0 320 6 318 16 0 0 0 0 0 0 0 0 0 0 0 0
X 1 96
A 324 10 0 0 323 6 318 19 0 0 0 0 0 0 0 0 0 0 0 0
X 1 45
A 325 4 0 0 110 6 324 0 3 0 0 0 0 2 0 0 0 0 0 0
A 326 4 0 0 205 6 323 0 325 0 0 0 0 1 0 0 0 0 0 0
A 327 10 0 0 324 6 318 7 0 0 0 0 0 0 0 0 0 0 0 0
X 1 55
A 328 10 0 0 327 6 318 22 0 0 0 0 0 0 0 0 0 0 0 0
X 1 102
A 329 10 0 0 328 6 318 10 0 0 0 0 0 0 0 0 0 0 0 0
X 1 57
A 330 10 0 0 329 6 318 13 0 0 0 0 0 0 0 0 0 0 0 0
X 1 13
A 334 1 0 5 0 235 939 0 0 0 0 0 0 0 0 0 0 0 0 0
A 335 10 0 0 0 6 334 1 0 0 0 0 0 0 0 0 0 0 0 0
X 1 48
A 336 10 0 0 335 6 334 4 0 0 0 0 0 0 0 0 0 0 0 0
X 1 51
A 337 4 0 0 0 6 336 0 3 0 0 0 0 2 0 0 0 0 0 0
A 338 4 0 0 120 6 335 0 337 0 0 0 0 1 0 0 0 0 0 0
A 339 10 0 0 336 6 334 16 0 0 0 0 0 0 0 0 0 0 0 0
X 1 96
A 340 10 0 0 339 6 334 19 0 0 0 0 0 0 0 0 0 0 0 0
X 1 45
A 341 4 0 0 0 6 340 0 3 0 0 0 0 2 0 0 0 0 0 0
A 342 4 0 0 66 6 339 0 341 0 0 0 0 1 0 0 0 0 0 0
A 343 10 0 0 340 6 334 25 0 0 0 0 0 0 0 0 0 0 0 0
X 1 120
A 344 10 0 0 343 6 334 28 0 0 0 0 0 0 0 0 0 0 0 0
X 1 122
A 345 4 0 0 331 6 344 0 3 0 0 0 0 2 0 0 0 0 0 0
A 346 4 0 0 0 6 343 0 345 0 0 0 0 1 0 0 0 0 0 0
A 347 10 0 0 344 6 334 7 0 0 0 0 0 0 0 0 0 0 0 0
X 1 55
A 348 10 0 0 347 6 334 22 0 0 0 0 0 0 0 0 0 0 0 0
X 1 102
A 349 10 0 0 348 6 334 31 0 0 0 0 0 0 0 0 0 0 0 0
X 1 128
A 350 10 0 0 349 6 334 10 0 0 0 0 0 0 0 0 0 0 0 0
X 1 57
A 351 10 0 0 350 6 334 13 0 0 0 0 0 0 0 0 0 0 0 0
X 1 13
A 353 1 0 1 0 241 946 0 0 0 0 0 0 0 0 0 0 0 0 0
A 354 10 0 0 0 6 353 1 0 0 0 0 0 0 0 0 0 0 0 0
X 1 48
A 355 10 0 0 354 6 353 4 0 0 0 0 0 0 0 0 0 0 0 0
X 1 51
A 356 4 0 0 0 6 355 0 3 0 0 0 0 2 0 0 0 0 0 0
A 357 4 0 0 0 6 354 0 356 0 0 0 0 1 0 0 0 0 0 0
A 358 10 0 0 355 6 353 7 0 0 0 0 0 0 0 0 0 0 0 0
X 1 55
A 359 10 0 0 358 6 353 10 0 0 0 0 0 0 0 0 0 0 0 0
X 1 57
A 360 10 0 0 359 6 353 13 0 0 0 0 0 0 0 0 0 0 0 0
X 1 13
A 364 1 0 5 310 247 954 0 0 0 0 0 0 0 0 0 0 0 0 0
A 365 10 0 0 230 6 364 1 0 0 0 0 0 0 0 0 0 0 0 0
X 1 48
A 366 10 0 0 365 6 364 4 0 0 0 0 0 0 0 0 0 0 0 0
X 1 51
A 367 4 0 0 0 6 366 0 3 0 0 0 0 2 0 0 0 0 0 0
A 368 4 0 0 0 6 365 0 367 0 0 0 0 1 0 0 0 0 0 0
A 369 10 0 0 366 6 364 16 0 0 0 0 0 0 0 0 0 0 0 0
X 1 96
A 370 10 0 0 369 6 364 19 0 0 0 0 0 0 0 0 0 0 0 0
X 1 45
A 371 4 0 0 0 6 370 0 3 0 0 0 0 2 0 0 0 0 0 0
A 372 4 0 0 20 6 369 0 371 0 0 0 0 1 0 0 0 0 0 0
A 373 10 0 0 370 6 364 25 0 0 0 0 0 0 0 0 0 0 0 0
X 1 120
A 374 10 0 0 373 6 364 28 0 0 0 0 0 0 0 0 0 0 0 0
X 1 122
A 375 4 0 0 0 6 374 0 3 0 0 0 0 2 0 0 0 0 0 0
A 376 4 0 0 100 6 373 0 375 0 0 0 0 1 0 0 0 0 0 0
A 377 10 0 0 374 6 364 7 0 0 0 0 0 0 0 0 0 0 0 0
X 1 55
A 378 10 0 0 377 6 364 22 0 0 0 0 0 0 0 0 0 0 0 0
X 1 102
A 379 10 0 0 378 6 364 31 0 0 0 0 0 0 0 0 0 0 0 0
X 1 128
A 380 10 0 0 379 6 364 10 0 0 0 0 0 0 0 0 0 0 0 0
X 1 57
A 381 10 0 0 380 6 364 13 0 0 0 0 0 0 0 0 0 0 0 0
X 1 13
A 384 1 0 3 287 253 961 0 0 0 0 0 0 0 0 0 0 0 0 0
A 385 10 0 0 0 6 384 1 0 0 0 0 0 0 0 0 0 0 0 0
X 1 48
A 386 10 0 0 385 6 384 4 0 0 0 0 0 0 0 0 0 0 0 0
X 1 51
A 387 4 0 0 0 6 386 0 3 0 0 0 0 2 0 0 0 0 0 0
A 388 4 0 0 0 6 385 0 387 0 0 0 0 1 0 0 0 0 0 0
A 389 10 0 0 386 6 384 16 0 0 0 0 0 0 0 0 0 0 0 0
X 1 96
A 390 10 0 0 389 6 384 19 0 0 0 0 0 0 0 0 0 0 0 0
X 1 45
A 391 4 0 0 0 6 390 0 3 0 0 0 0 2 0 0 0 0 0 0
A 392 4 0 0 0 6 389 0 391 0 0 0 0 1 0 0 0 0 0 0
A 393 10 0 0 390 6 384 7 0 0 0 0 0 0 0 0 0 0 0 0
X 1 55
A 394 10 0 0 393 6 384 22 0 0 0 0 0 0 0 0 0 0 0 0
X 1 102
A 395 10 0 0 394 6 384 10 0 0 0 0 0 0 0 0 0 0 0 0
X 1 57
A 396 10 0 0 395 6 384 13 0 0 0 0 0 0 0 0 0 0 0 0
X 1 13
A 398 1 0 1 0 259 967 0 0 0 0 0 0 0 0 0 0 0 0 0
A 399 10 0 0 0 6 398 1 0 0 0 0 0 0 0 0 0 0 0 0
X 1 48
A 400 10 0 0 399 6 398 4 0 0 0 0 0 0 0 0 0 0 0 0
X 1 51
A 401 4 0 0 0 6 400 0 3 0 0 0 0 2 0 0 0 0 0 0
A 402 4 0 0 0 6 399 0 401 0 0 0 0 1 0 0 0 0 0 0
A 403 10 0 0 400 6 398 7 0 0 0 0 0 0 0 0 0 0 0 0
X 1 55
A 404 10 0 0 403 6 398 10 0 0 0 0 0 0 0 0 0 0 0 0
X 1 57
A 405 10 0 0 404 6 398 13 0 0 0 0 0 0 0 0 0 0 0 0
X 1 13
A 408 1 0 3 0 265 974 0 0 0 0 0 0 0 0 0 0 0 0 0
A 409 10 0 0 0 6 408 1 0 0 0 0 0 0 0 0 0 0 0 0
X 1 48
A 410 10 0 0 409 6 408 4 0 0 0 0 0 0 0 0 0 0 0 0
X 1 51
A 411 4 0 0 0 6 410 0 3 0 0 0 0 2 0 0 0 0 0 0
A 412 4 0 0 0 6 409 0 411 0 0 0 0 1 0 0 0 0 0 0
A 413 10 0 0 410 6 408 16 0 0 0 0 0 0 0 0 0 0 0 0
X 1 96
A 414 10 0 0 413 6 408 19 0 0 0 0 0 0 0 0 0 0 0 0
X 1 45
A 415 4 0 0 0 6 414 0 3 0 0 0 0 2 0 0 0 0 0 0
A 416 4 0 0 9 6 413 0 415 0 0 0 0 1 0 0 0 0 0 0
A 417 10 0 0 414 6 408 7 0 0 0 0 0 0 0 0 0 0 0 0
X 1 55
A 418 10 0 0 417 6 408 22 0 0 0 0 0 0 0 0 0 0 0 0
X 1 102
A 419 10 0 0 418 6 408 10 0 0 0 0 0 0 0 0 0 0 0 0
X 1 57
A 420 10 0 0 419 6 408 13 0 0 0 0 0 0 0 0 0 0 0 0
X 1 13
A 424 1 0 5 0 271 983 0 0 0 0 0 0 0 0 0 0 0 0 0
A 425 10 0 0 316 6 424 1 0 0 0 0 0 0 0 0 0 0 0 0
X 1 48
A 426 10 0 0 425 6 424 4 0 0 0 0 0 0 0 0 0 0 0 0
X 1 51
A 427 4 0 0 0 6 426 0 3 0 0 0 0 2 0 0 0 0 0 0
A 428 4 0 0 420 6 425 0 427 0 0 0 0 1 0 0 0 0 0 0
A 429 10 0 0 426 6 424 16 0 0 0 0 0 0 0 0 0 0 0 0
X 1 96
A 430 10 0 0 429 6 424 19 0 0 0 0 0 0 0 0 0 0 0 0
X 1 45
A 431 4 0 0 0 6 430 0 3 0 0 0 0 2 0 0 0 0 0 0
A 432 4 0 0 0 6 429 0 431 0 0 0 0 1 0 0 0 0 0 0
A 433 10 0 0 430 6 424 25 0 0 0 0 0 0 0 0 0 0 0 0
X 1 120
A 434 10 0 0 433 6 424 28 0 0 0 0 0 0 0 0 0 0 0 0
X 1 122
A 435 4 0 0 0 6 434 0 3 0 0 0 0 2 0 0 0 0 0 0
A 436 4 0 0 7 6 433 0 435 0 0 0 0 1 0 0 0 0 0 0
A 437 10 0 0 434 6 424 7 0 0 0 0 0 0 0 0 0 0 0 0
X 1 55
A 438 10 0 0 437 6 424 22 0 0 0 0 0 0 0 0 0 0 0 0
X 1 102
A 439 10 0 0 438 6 424 31 0 0 0 0 0 0 0 0 0 0 0 0
X 1 128
A 440 10 0 0 439 6 424 10 0 0 0 0 0 0 0 0 0 0 0 0
X 1 57
A 441 10 0 0 440 6 424 13 0 0 0 0 0 0 0 0 0 0 0 0
X 1 13
A 446 2 0 0 12 6 992 0 0 0 446 0 0 0 0 0 0 0 0 0
A 447 1 0 7 0 277 993 0 0 0 0 0 0 0 0 0 0 0 0 0
A 448 10 0 0 362 6 447 1 0 0 0 0 0 0 0 0 0 0 0 0
X 1 48
A 449 10 0 0 448 6 447 4 0 0 0 0 0 0 0 0 0 0 0 0
X 1 51
A 450 4 0 0 0 6 449 0 3 0 0 0 0 2 0 0 0 0 0 0
A 451 4 0 0 57 6 448 0 450 0 0 0 0 1 0 0 0 0 0 0
A 452 10 0 0 449 6 447 16 0 0 0 0 0 0 0 0 0 0 0 0
X 1 96
A 453 10 0 0 452 6 447 19 0 0 0 0 0 0 0 0 0 0 0 0
X 1 45
A 454 4 0 0 0 6 453 0 3 0 0 0 0 2 0 0 0 0 0 0
A 455 4 0 0 219 6 452 0 454 0 0 0 0 1 0 0 0 0 0 0
A 456 10 0 0 453 6 447 25 0 0 0 0 0 0 0 0 0 0 0 0
X 1 120
A 457 10 0 0 456 6 447 28 0 0 0 0 0 0 0 0 0 0 0 0
X 1 122
A 458 4 0 0 0 6 457 0 3 0 0 0 0 2 0 0 0 0 0 0
A 459 4 0 0 0 6 456 0 458 0 0 0 0 1 0 0 0 0 0 0
A 460 2 0 0 22 6 997 0 0 0 460 0 0 0 0 0 0 0 0 0
A 461 10 0 0 457 6 447 34 0 0 0 0 0 0 0 0 0 0 0 0
X 1 460
A 462 2 0 0 24 6 998 0 0 0 462 0 0 0 0 0 0 0 0 0
A 463 10 0 0 461 6 447 37 0 0 0 0 0 0 0 0 0 0 0 0
X 1 462
A 464 4 0 0 0 6 463 0 3 0 0 0 0 2 0 0 0 0 0 0
A 465 4 0 0 135 6 461 0 464 0 0 0 0 1 0 0 0 0 0 0
A 466 10 0 0 463 6 447 7 0 0 0 0 0 0 0 0 0 0 0 0
X 1 55
A 467 10 0 0 466 6 447 22 0 0 0 0 0 0 0 0 0 0 0 0
X 1 102
A 468 10 0 0 467 6 447 31 0 0 0 0 0 0 0 0 0 0 0 0
X 1 128
A 469 2 0 0 26 6 999 0 0 0 469 0 0 0 0 0 0 0 0 0
A 470 10 0 0 468 6 447 40 0 0 0 0 0 0 0 0 0 0 0 0
X 1 469
A 471 10 0 0 470 6 447 10 0 0 0 0 0 0 0 0 0 0 0 0
X 1 57
A 472 10 0 0 471 6 447 13 0 0 0 0 0 0 0 0 0 0 0 0
X 1 13
A 475 1 0 3 0 283 1003 0 0 0 0 0 0 0 0 0 0 0 0 0
A 476 10 0 0 421 6 475 1 0 0 0 0 0 0 0 0 0 0 0 0
X 1 48
A 477 10 0 0 476 6 475 4 0 0 0 0 0 0 0 0 0 0 0 0
X 1 51
A 478 4 0 0 0 6 477 0 3 0 0 0 0 2 0 0 0 0 0 0
A 479 4 0 0 361 6 476 0 478 0 0 0 0 1 0 0 0 0 0 0
A 480 10 0 0 477 6 475 16 0 0 0 0 0 0 0 0 0 0 0 0
X 1 96
A 481 10 0 0 480 6 475 19 0 0 0 0 0 0 0 0 0 0 0 0
X 1 45
A 482 4 0 0 0 6 481 0 3 0 0 0 0 2 0 0 0 0 0 0
A 483 4 0 0 407 6 480 0 482 0 0 0 0 1 0 0 0 0 0 0
A 484 10 0 0 481 6 475 7 0 0 0 0 0 0 0 0 0 0 0 0
X 1 55
A 485 10 0 0 484 6 475 22 0 0 0 0 0 0 0 0 0 0 0 0
X 1 102
A 486 10 0 0 485 6 475 10 0 0 0 0 0 0 0 0 0 0 0 0
X 1 57
A 487 10 0 0 486 6 475 13 0 0 0 0 0 0 0 0 0 0 0 0
X 1 13
A 491 1 0 5 125 289 1011 0 0 0 0 0 0 0 0 0 0 0 0 0
A 492 10 0 0 0 6 491 1 0 0 0 0 0 0 0 0 0 0 0 0
X 1 48
A 493 10 0 0 492 6 491 4 0 0 0 0 0 0 0 0 0 0 0 0
X 1 51
A 494 4 0 0 0 6 493 0 3 0 0 0 0 2 0 0 0 0 0 0
A 495 4 0 0 0 6 492 0 494 0 0 0 0 1 0 0 0 0 0 0
A 496 10 0 0 493 6 491 16 0 0 0 0 0 0 0 0 0 0 0 0
X 1 96
A 497 10 0 0 496 6 491 19 0 0 0 0 0 0 0 0 0 0 0 0
X 1 45
A 498 4 0 0 0 6 497 0 3 0 0 0 0 2 0 0 0 0 0 0
A 499 4 0 0 0 6 496 0 498 0 0 0 0 1 0 0 0 0 0 0
A 500 10 0 0 497 6 491 25 0 0 0 0 0 0 0 0 0 0 0 0
X 1 120
A 501 10 0 0 500 6 491 28 0 0 0 0 0 0 0 0 0 0 0 0
X 1 122
A 502 4 0 0 139 6 501 0 3 0 0 0 0 2 0 0 0 0 0 0
A 503 4 0 0 0 6 500 0 502 0 0 0 0 1 0 0 0 0 0 0
A 504 10 0 0 501 6 491 7 0 0 0 0 0 0 0 0 0 0 0 0
X 1 55
A 505 10 0 0 504 6 491 22 0 0 0 0 0 0 0 0 0 0 0 0
X 1 102
A 506 10 0 0 505 6 491 31 0 0 0 0 0 0 0 0 0 0 0 0
X 1 128
A 507 10 0 0 506 6 491 10 0 0 0 0 0 0 0 0 0 0 0 0
X 1 57
A 508 10 0 0 507 6 491 13 0 0 0 0 0 0 0 0 0 0 0 0
X 1 13
A 512 1 0 5 0 295 1019 0 0 0 0 0 0 0 0 0 0 0 0 0
A 513 10 0 0 510 6 512 1 0 0 0 0 0 0 0 0 0 0 0 0
X 1 48
A 514 10 0 0 513 6 512 4 0 0 0 0 0 0 0 0 0 0 0 0
X 1 51
A 515 4 0 0 0 6 514 0 3 0 0 0 0 2 0 0 0 0 0 0
A 516 4 0 0 102 6 513 0 515 0 0 0 0 1 0 0 0 0 0 0
A 517 10 0 0 514 6 512 16 0 0 0 0 0 0 0 0 0 0 0 0
X 1 96
A 518 10 0 0 517 6 512 19 0 0 0 0 0 0 0 0 0 0 0 0
X 1 45
A 519 4 0 0 0 6 518 0 3 0 0 0 0 2 0 0 0 0 0 0
A 520 4 0 0 286 6 517 0 519 0 0 0 0 1 0 0 0 0 0 0
A 521 10 0 0 518 6 512 25 0 0 0 0 0 0 0 0 0 0 0 0
X 1 120
A 522 10 0 0 521 6 512 28 0 0 0 0 0 0 0 0 0 0 0 0
X 1 122
A 523 4 0 0 14 6 522 0 3 0 0 0 0 2 0 0 0 0 0 0
A 524 4 0 0 441 6 521 0 523 0 0 0 0 1 0 0 0 0 0 0
A 525 10 0 0 522 6 512 7 0 0 0 0 0 0 0 0 0 0 0 0
X 1 55
A 526 10 0 0 525 6 512 22 0 0 0 0 0 0 0 0 0 0 0 0
X 1 102
A 527 10 0 0 526 6 512 31 0 0 0 0 0 0 0 0 0 0 0 0
X 1 128
A 528 10 0 0 527 6 512 10 0 0 0 0 0 0 0 0 0 0 0 0
X 1 57
A 529 10 0 0 528 6 512 13 0 0 0 0 0 0 0 0 0 0 0 0
X 1 13
A 534 1 0 7 0 301 1028 0 0 0 0 0 0 0 0 0 0 0 0 0
A 535 10 0 0 495 6 534 1 0 0 0 0 0 0 0 0 0 0 0 0
X 1 48
A 536 10 0 0 535 6 534 4 0 0 0 0 0 0 0 0 0 0 0 0
X 1 51
A 537 4 0 0 131 6 536 0 3 0 0 0 0 2 0 0 0 0 0 0
A 538 4 0 0 530 6 535 0 537 0 0 0 0 1 0 0 0 0 0 0
A 539 10 0 0 536 6 534 16 0 0 0 0 0 0 0 0 0 0 0 0
X 1 96
A 540 10 0 0 539 6 534 19 0 0 0 0 0 0 0 0 0 0 0 0
X 1 45
A 541 4 0 0 0 6 540 0 3 0 0 0 0 2 0 0 0 0 0 0
A 542 4 0 0 0 6 539 0 541 0 0 0 0 1 0 0 0 0 0 0
A 543 10 0 0 540 6 534 25 0 0 0 0 0 0 0 0 0 0 0 0
X 1 120
A 544 10 0 0 543 6 534 28 0 0 0 0 0 0 0 0 0 0 0 0
X 1 122
A 545 4 0 0 0 6 544 0 3 0 0 0 0 2 0 0 0 0 0 0
A 546 4 0 0 0 6 543 0 545 0 0 0 0 1 0 0 0 0 0 0
A 547 10 0 0 544 6 534 34 0 0 0 0 0 0 0 0 0 0 0 0
X 1 460
A 548 10 0 0 547 6 534 37 0 0 0 0 0 0 0 0 0 0 0 0
X 1 462
A 549 4 0 0 0 6 548 0 3 0 0 0 0 2 0 0 0 0 0 0
A 550 4 0 0 0 6 547 0 549 0 0 0 0 1 0 0 0 0 0 0
A 551 10 0 0 548 6 534 7 0 0 0 0 0 0 0 0 0 0 0 0
X 1 55
A 552 10 0 0 551 6 534 22 0 0 0 0 0 0 0 0 0 0 0 0
X 1 102
A 553 10 0 0 552 6 534 31 0 0 0 0 0 0 0 0 0 0 0 0
X 1 128
A 554 10 0 0 553 6 534 40 0 0 0 0 0 0 0 0 0 0 0 0
X 1 469
A 555 10 0 0 554 6 534 10 0 0 0 0 0 0 0 0 0 0 0 0
X 1 57
A 556 10 0 0 555 6 534 13 0 0 0 0 0 0 0 0 0 0 0 0
X 1 13
A 557 2 0 0 0 6 1033 0 0 0 557 0 0 0 0 0 0 0 0 0
A 559 2 0 0 0 6 1035 0 0 0 559 0 0 0 0 0 0 0 0 0
A 563 1 0 3 341 307 1040 0 0 0 0 0 0 0 0 0 0 0 0 0
A 564 10 0 0 546 6 563 1 0 0 0 0 0 0 0 0 0 0 0 0
X 1 48
A 565 10 0 0 564 6 563 4 0 0 0 0 0 0 0 0 0 0 0 0
X 1 51
A 566 4 0 0 0 6 565 0 3 0 0 0 0 2 0 0 0 0 0 0
A 567 4 0 0 0 6 564 0 566 0 0 0 0 1 0 0 0 0 0 0
A 568 10 0 0 565 6 563 16 0 0 0 0 0 0 0 0 0 0 0 0
X 1 96
A 569 10 0 0 568 6 563 19 0 0 0 0 0 0 0 0 0 0 0 0
X 1 45
A 570 4 0 0 0 6 569 0 3 0 0 0 0 2 0 0 0 0 0 0
A 571 4 0 0 345 6 568 0 570 0 0 0 0 1 0 0 0 0 0 0
A 572 10 0 0 569 6 563 7 0 0 0 0 0 0 0 0 0 0 0 0
X 1 55
A 573 10 0 0 572 6 563 22 0 0 0 0 0 0 0 0 0 0 0 0
X 1 102
A 574 10 0 0 573 6 563 10 0 0 0 0 0 0 0 0 0 0 0 0
X 1 57
A 575 10 0 0 574 6 563 13 0 0 0 0 0 0 0 0 0 0 0 0
X 1 13
A 577 1 0 1 333 313 1046 0 0 0 0 0 0 0 0 0 0 0 0 0
A 578 10 0 0 0 6 577 1 0 0 0 0 0 0 0 0 0 0 0 0
X 1 48
A 579 10 0 0 578 6 577 4 0 0 0 0 0 0 0 0 0 0 0 0
X 1 51
A 580 4 0 0 161 6 579 0 3 0 0 0 0 2 0 0 0 0 0 0
A 581 4 0 0 489 6 578 0 580 0 0 0 0 1 0 0 0 0 0 0
A 582 10 0 0 579 6 577 7 0 0 0 0 0 0 0 0 0 0 0 0
X 1 55
A 583 10 0 0 582 6 577 10 0 0 0 0 0 0 0 0 0 0 0 0
X 1 57
A 584 10 0 0 583 6 577 13 0 0 0 0 0 0 0 0 0 0 0 0
X 1 13
A 586 1 0 1 0 319 1057 0 0 0 0 0 0 0 0 0 0 0 0 0
A 587 10 0 0 0 6 586 1 0 0 0 0 0 0 0 0 0 0 0 0
X 1 48
A 588 10 0 0 587 6 586 4 0 0 0 0 0 0 0 0 0 0 0 0
X 1 51
A 589 4 0 0 292 6 588 0 3 0 0 0 0 2 0 0 0 0 0 0
A 590 4 0 0 0 6 587 0 589 0 0 0 0 1 0 0 0 0 0 0
A 591 10 0 0 588 6 586 7 0 0 0 0 0 0 0 0 0 0 0 0
X 1 55
A 592 10 0 0 591 6 586 10 0 0 0 0 0 0 0 0 0 0 0 0
X 1 57
A 593 10 0 0 592 6 586 13 0 0 0 0 0 0 0 0 0 0 0 0
X 1 13
A 594 1 0 0 0 6 1102 0 0 0 0 0 0 0 0 0 0 0 0 0
A 595 1 0 0 372 6 1108 0 0 0 0 0 0 0 0 0 0 0 0 0
A 596 1 0 0 545 6 1127 0 0 0 0 0 0 0 0 0 0 0 0 0
A 597 1 0 0 235 6 1118 0 0 0 0 0 0 0 0 0 0 0 0 0
A 598 1 0 0 0 6 1124 0 0 0 0 0 0 0 0 0 0 0 0 0
A 599 1 0 0 0 6 1117 0 0 0 0 0 0 0 0 0 0 0 0 0
A 600 1 0 0 183 6 1125 0 0 0 0 0 0 0 0 0 0 0 0 0
A 601 1 0 0 0 6 1126 0 0 0 0 0 0 0 0 0 0 0 0 0
A 602 1 0 0 351 6 839 0 0 0 0 0 0 0 0 0 0 0 0 0
A 603 1 0 0 0 6 1141 0 0 0 0 0 0 0 0 0 0 0 0 0
A 604 1 0 0 0 6 1142 0 0 0 0 0 0 0 0 0 0 0 0 0
A 605 1 0 0 0 6 1146 0 0 0 0 0 0 0 0 0 0 0 0 0
A 606 1 0 0 303 6 1150 0 0 0 0 0 0 0 0 0 0 0 0 0
Z
Z
