V26 w90_kmesh
9 kmesh.F90 S582 0
04/27/2012  15:03:02
use w90_parameters private
use w90_constants private
use w90_parameters private
use w90_constants private
enduse
D 355 21 6 2 104 543 0 0 0 0 0
 0 63 3 3 63 63
 0 542 63 3 542 542
D 358 21 9 3 545 544 0 0 0 0 0
 0 63 3 3 63 63
 0 48 63 3 48 48
 0 46 397 3 46 46
D 361 21 9 2 104 548 0 0 1 0 0
 0 63 3 3 63 63
 0 546 63 3 547 547
D 364 21 6 1 3 550 0 0 1 0 0
 0 549 3 3 550 550
D 367 21 9 1 3 550 0 0 1 0 0
 0 549 3 3 550 550
D 370 21 9 1 3 46 0 0 0 0 0
 0 46 3 3 46 46
D 373 21 6 1 3 551 0 0 1 0 0
 0 549 3 3 551 551
D 376 21 9 1 3 551 0 0 1 0 0
 0 549 3 3 551 551
D 379 21 9 1 3 46 0 0 0 0 0
 0 46 3 3 46 46
D 382 21 6 1 3 552 0 0 1 0 0
 0 549 3 3 552 552
D 385 21 9 1 3 552 0 0 1 0 0
 0 549 3 3 552 552
D 388 21 9 1 3 46 0 0 0 0 0
 0 46 3 3 46 46
D 391 21 9 1 3 542 0 0 0 0 0
 0 542 3 3 542 542
S 582 24 0 0 0 9 1 0 4658 10015 0 A 0 0 0 0 0 0 0 0 0 0 0 0 0 0 0 0 0 0 0 0 0 13 0 0 0 0 0 0 w90_kmesh
S 584 23 0 0 0 9 599 582 4682 14 0 A 0 0 0 0 0 0 0 0 0 0 0 0 0 0 0 0 0 0 0 0 0 0 0 582 0 0 0 0 dp
R 599 16 1 w90_constants dp
S 670 3 0 0 0 6 1 1 0 0 0 A 0 0 0 0 0 0 0 0 0 3 0 0 0 0 0 0 0 0 0 0 0 0 0 0 0 0 0 0 6
S 674 3 0 0 0 6 1 1 0 0 0 A 0 0 0 0 0 0 0 0 0 4 0 0 0 0 0 0 0 0 0 0 0 0 0 0 0 0 0 0 6
S 680 3 0 0 0 6 1 1 0 0 0 A 0 0 0 0 0 0 0 0 0 36 0 0 0 0 0 0 0 0 0 0 0 0 0 0 0 0 0 0 6
S 684 3 0 0 0 6 1 1 0 0 0 A 0 0 0 0 0 0 0 0 0 6 0 0 0 0 0 0 0 0 0 0 0 0 0 0 0 0 0 0 6
S 685 3 0 0 0 6 1 1 0 0 0 A 0 0 0 0 0 0 0 0 0 12 0 0 0 0 0 0 0 0 0 0 0 0 0 0 0 0 0 0 6
R 808 6 123 w90_parameters search_shells
S 1159 27 0 0 0 6 1174 582 10215 0 0 A 0 0 0 0 0 0 0 0 0 0 0 0 0 0 0 0 0 0 0 0 0 0 0 582 0 0 0 0 kmesh_get
S 1160 27 0 0 0 6 1176 582 10225 0 0 A 0 0 0 0 0 0 0 0 0 0 0 0 0 0 0 0 0 0 0 0 0 0 0 582 0 0 0 0 kmesh_write
S 1161 27 0 0 0 6 1178 582 10237 0 0 A 0 0 0 0 0 0 0 0 0 0 0 0 0 0 0 0 0 0 0 0 0 0 0 582 0 0 0 0 kmesh_dealloc
S 1162 16 1 0 0 6 1 582 10251 14 400000 A 0 0 0 0 0 0 0 0 5 538 0 0 0 0 0 0 0 0 0 0 0 0 0 582 0 0 0 0 nsupcell
S 1163 3 0 0 0 6 0 1 0 0 0 A 0 0 0 0 0 0 0 0 0 5 0 0 0 0 0 0 0 0 0 0 0 0 0 0 0 0 0 0 6
S 1164 7 4 0 4 355 1 582 10260 800014 100 A 0 0 0 0 0 0 0 0 0 0 0 0 1172 0 0 0 0 0 0 0 0 0 0 582 0 0 0 0 lmn
S 1167 3 0 0 0 6 1 1 0 0 0 A 0 0 0 0 0 0 0 0 0 1331 0 0 0 0 0 0 0 0 0 0 0 0 0 0 0 0 0 0 6
S 1168 3 0 0 0 6 0 1 0 0 0 A 0 0 0 0 0 0 0 0 0 3993 0 0 0 0 0 0 0 0 0 0 0 0 0 0 0 0 0 0 6
S 1169 7 4 0 4 358 1 582 10266 800014 100 A 0 0 0 0 0 0 0 0 0 0 0 0 1173 0 0 0 0 0 0 0 0 0 0 582 0 0 0 0 bvec_inp
S 1170 3 0 0 0 6 0 1 0 0 0 A 0 0 0 0 0 0 0 0 0 216 0 0 0 0 0 0 0 0 0 0 0 0 0 0 0 0 0 0 6
S 1171 3 0 0 0 6 0 1 0 0 0 A 0 0 0 0 0 0 0 0 0 40 0 0 0 0 0 0 0 0 0 0 0 0 0 0 0 0 0 0 6
S 1172 11 0 0 4 9 1075 582 10275 40800010 801000 A 0 0 0 0 0 15972 0 0 1164 1164 0 0 0 0 0 0 0 0 0 0 0 0 0 0 0 0 0 0 _w90_kmesh$4
S 1173 11 0 0 4 9 1172 582 10288 40800010 801000 A 0 0 0 0 0 1728 0 0 1169 1169 0 0 0 0 0 0 0 0 0 0 0 0 0 0 0 0 0 0 _w90_kmesh$6
S 1174 23 5 0 0 0 1175 582 10215 0 0 A 0 0 0 0 0 0 0 0 0 0 0 0 0 0 0 0 0 0 0 0 0 0 0 0 0 0 0 0 kmesh_get
S 1175 14 5 0 0 0 1 1174 10215 0 400000 A 0 0 0 0 0 0 0 70 0 0 0 0 0 0 0 0 0 0 0 0 0 47 0 582 0 0 0 0 kmesh_get
F 1175 0
S 1176 23 5 0 0 0 1177 582 10225 0 0 A 0 0 0 0 0 0 0 0 0 0 0 0 0 0 0 0 0 0 0 0 0 0 0 0 0 0 0 0 kmesh_write
S 1177 14 5 0 0 0 1 1176 10225 0 400000 A 0 0 0 0 0 0 0 71 0 0 0 0 0 0 0 0 0 0 0 0 0 596 0 582 0 0 0 0 kmesh_write
F 1177 0
S 1178 23 5 0 0 0 1179 582 10237 0 0 A 0 0 0 0 0 0 0 0 0 0 0 0 0 0 0 0 0 0 0 0 0 0 0 0 0 0 0 0 kmesh_dealloc
S 1179 14 5 0 0 0 1 1178 10237 0 400000 A 0 0 0 0 0 0 0 72 0 0 0 0 0 0 0 0 0 0 0 0 0 715 0 582 0 0 0 0 kmesh_dealloc
F 1179 0
S 1180 23 5 0 0 0 1181 582 10301 10 0 A 0 0 0 0 0 0 0 0 0 0 0 0 0 0 0 0 0 0 0 0 0 0 0 0 0 0 0 0 kmesh_supercell_sort
S 1181 14 5 0 0 0 1 1180 10301 10 400000 A 0 0 0 0 0 0 0 73 0 0 0 0 0 0 0 0 0 0 0 0 0 749 0 582 0 0 0 0 kmesh_supercell_sort
F 1181 0
S 1182 23 5 0 0 0 1187 582 10322 10 0 A 0 0 0 0 0 0 0 0 0 0 0 0 0 0 0 0 0 0 0 0 0 0 0 0 0 0 0 0 kmesh_get_bvectors
S 1183 6 3 1 0 6 1 1182 10341 800014 3000 A 0 0 0 0 0 0 0 0 0 0 0 0 0 0 0 0 0 0 0 0 0 0 0 0 0 0 0 0 multi
S 1184 1 3 1 0 6 1 1182 10347 14 3000 A 0 0 0 0 0 0 0 0 0 0 0 0 0 0 0 0 0 0 0 0 0 0 0 0 0 0 0 0 kpt
S 1185 1 3 1 0 9 1 1182 10351 14 3000 A 0 0 0 0 0 0 0 0 0 0 0 0 0 0 0 0 0 0 0 0 0 0 0 0 0 0 0 0 shell_dist
S 1186 7 3 2 0 361 1 1182 10362 800214 3000 A 0 0 0 0 0 0 0 0 0 0 0 0 0 0 0 0 0 0 0 0 0 0 0 0 0 0 0 0 bvector
S 1187 14 5 0 0 0 1 1182 10322 210 400000 A 0 0 0 0 0 0 0 74 4 0 0 0 0 0 0 0 0 0 0 0 0 801 0 582 0 0 0 0 kmesh_get_bvectors
F 1187 4 1183 1184 1185 1186
S 1188 6 1 0 0 6 1 1182 10370 40800016 3000 A 0 0 0 0 0 0 0 0 0 0 0 0 0 0 0 0 0 0 0 0 0 0 0 0 0 0 0 0 z_e_546
S 1189 6 1 0 0 6 1 1182 10378 40800016 3000 A 0 0 0 0 0 0 0 0 0 0 0 0 0 0 0 0 0 0 0 0 0 0 0 0 0 0 0 0 z_e_548
S 1190 23 5 0 0 0 1194 582 10386 10 0 A 0 0 0 0 0 0 0 0 0 0 0 0 0 0 0 0 0 0 0 0 0 0 0 0 0 0 0 0 kmesh_shell_automatic
S 1191 7 3 1 0 364 1 1190 10341 800214 3000 A 0 0 0 0 0 0 0 0 0 0 0 0 0 0 0 0 0 0 0 0 0 0 0 0 0 0 0 0 multi
S 1192 7 3 1 0 367 1 1190 10408 800214 3000 A 0 0 0 0 0 0 0 0 0 0 0 0 0 0 0 0 0 0 0 0 0 0 0 0 0 0 0 0 dnn
S 1193 7 3 2 0 370 1 1190 10412 800014 3000 A 0 0 0 0 0 0 0 0 0 0 0 0 0 0 0 0 0 0 0 0 0 0 0 0 0 0 0 0 bweight
S 1194 14 5 0 0 0 1 1190 10386 210 400000 A 0 0 0 0 0 0 0 79 3 0 0 0 0 0 0 0 0 0 0 0 0 850 0 582 0 0 0 0 kmesh_shell_automatic
F 1194 3 1191 1192 1193
S 1195 6 1 0 0 6 1 1190 10420 40800016 3000 A 0 0 0 0 0 0 0 0 0 0 0 0 0 0 0 0 0 0 0 0 0 0 0 0 0 0 0 0 z_e_549
S 1196 23 5 0 0 0 1200 582 10428 10 0 A 0 0 0 0 0 0 0 0 0 0 0 0 0 0 0 0 0 0 0 0 0 0 0 0 0 0 0 0 kmesh_shell_fixed
S 1197 7 3 1 0 373 1 1196 10341 800214 3000 A 0 0 0 0 0 0 0 0 0 0 0 0 0 0 0 0 0 0 0 0 0 0 0 0 0 0 0 0 multi
S 1198 7 3 1 0 376 1 1196 10408 800214 3000 A 0 0 0 0 0 0 0 0 0 0 0 0 0 0 0 0 0 0 0 0 0 0 0 0 0 0 0 0 dnn
S 1199 7 3 2 0 379 1 1196 10412 800014 3000 A 0 0 0 0 0 0 0 0 0 0 0 0 0 0 0 0 0 0 0 0 0 0 0 0 0 0 0 0 bweight
S 1200 14 5 0 0 0 1 1196 10428 210 400000 A 0 0 0 0 0 0 0 83 3 0 0 0 0 0 0 0 0 0 0 0 0 1054 0 582 0 0 0 0 kmesh_shell_fixed
F 1200 3 1197 1198 1199
S 1201 6 1 0 0 6 1 1196 10420 40800016 3000 A 0 0 0 0 0 0 0 0 0 0 0 0 0 0 0 0 0 0 0 0 0 0 0 0 0 0 0 0 z_e_549
S 1202 23 5 0 0 0 1206 582 10446 10 0 A 0 0 0 0 0 0 0 0 0 0 0 0 0 0 0 0 0 0 0 0 0 0 0 0 0 0 0 0 kmesh_shell_from_file
S 1203 7 3 3 0 382 1 1202 10341 800214 3000 A 0 0 0 0 0 0 0 0 0 0 0 0 0 0 0 0 0 0 0 0 0 0 0 0 0 0 0 0 multi
S 1204 7 3 1 0 385 1 1202 10408 800214 3000 A 0 0 0 0 0 0 0 0 0 0 0 0 0 0 0 0 0 0 0 0 0 0 0 0 0 0 0 0 dnn
S 1205 7 3 2 0 388 1 1202 10412 800014 3000 A 0 0 0 0 0 0 0 0 0 0 0 0 0 0 0 0 0 0 0 0 0 0 0 0 0 0 0 0 bweight
S 1206 14 5 0 0 0 1 1202 10446 210 400000 A 0 0 0 0 0 0 0 87 3 0 0 0 0 0 0 0 0 0 0 0 0 1180 0 582 0 0 0 0 kmesh_shell_from_file
F 1206 3 1203 1204 1205
S 1207 6 1 0 0 6 1 1202 10420 40800016 3000 A 0 0 0 0 0 0 0 0 0 0 0 0 0 0 0 0 0 0 0 0 0 0 0 0 0 0 0 0 z_e_549
S 1208 23 5 0 0 6 1210 582 10468 10 0 A 0 0 0 0 0 0 0 0 0 0 0 0 0 0 0 0 0 0 0 0 0 0 0 0 0 0 0 0 internal_maxloc
S 1209 7 3 1 0 391 1 1208 10484 800014 3000 A 0 0 0 0 0 0 0 0 0 0 0 0 0 0 0 0 0 0 0 0 0 0 0 0 0 0 0 0 dist
S 1210 14 5 0 0 6 1 1208 10468 14 400000 A 0 0 0 0 0 0 0 91 1 0 0 1211 0 0 0 0 0 0 0 0 0 1381 0 582 0 0 0 0 internal_maxloc
F 1210 1 1209
S 1211 1 3 0 0 6 1 1208 10468 14 1003000 A 0 0 0 0 0 0 0 0 0 0 0 0 0 0 0 0 0 0 0 0 0 0 0 0 0 0 0 0 internal_maxloc
A 46 2 0 0 0 6 684 0 0 0 46 0 0 0 0 0 0 0 0 0
A 48 2 0 0 0 6 685 0 0 0 48 0 0 0 0 0 0 0 0 0
A 63 2 0 0 0 6 670 0 0 0 63 0 0 0 0 0 0 0 0 0
A 104 2 0 0 0 6 674 0 0 0 104 0 0 0 0 0 0 0 0 0
A 397 2 0 0 0 6 680 0 0 0 397 0 0 0 0 0 0 0 0 0
A 538 2 0 0 355 6 1163 0 0 0 538 0 0 0 0 0 0 0 0 0
A 542 2 0 0 49 6 1167 0 0 0 542 0 0 0 0 0 0 0 0 0
A 543 2 0 0 50 6 1168 0 0 0 543 0 0 0 0 0 0 0 0 0
A 544 2 0 0 179 6 1170 0 0 0 544 0 0 0 0 0 0 0 0 0
A 545 2 0 0 287 6 1171 0 0 0 545 0 0 0 0 0 0 0 0 0
A 546 1 0 0 0 6 1183 0 0 0 0 0 0 0 0 0 0 0 0 0
A 547 1 0 0 478 6 1188 0 0 0 0 0 0 0 0 0 0 0 0 0
A 548 1 0 0 0 6 1189 0 0 0 0 0 0 0 0 0 0 0 0 0
A 549 1 0 0 208 6 808 0 0 0 0 0 0 0 0 0 0 0 0 0
A 550 1 0 0 0 6 1195 0 0 0 0 0 0 0 0 0 0 0 0 0
A 551 1 0 0 13 6 1201 0 0 0 0 0 0 0 0 0 0 0 0 0
A 552 1 0 0 211 6 1207 0 0 0 0 0 0 0 0 0 0 0 0 0
Z
Z
