V26 w90_constants
13 constants.F90 S582 0
04/27/2012  15:02:52
enduse
S 582 24 0 0 0 9 1 0 4658 15 0 A 0 0 0 0 0 0 0 0 0 0 0 0 35 0 0 0 0 0 0 0 0 13 0 0 0 0 0 0 w90_constants
S 583 16 1 0 0 6 587 582 4672 800004 400000 A 0 0 0 0 0 0 0 0 8 16 0 0 0 0 0 0 0 0 0 0 0 0 0 582 0 0 0 0 dp
S 586 3 0 0 0 6 0 1 0 0 0 A 0 0 0 0 0 0 0 0 0 8 0 0 0 0 0 0 0 0 0 0 0 0 0 0 0 0 0 0 6
S 587 16 1 0 0 9 589 582 4675 800004 400000 A 0 0 0 0 0 0 0 0 588 18 0 0 0 0 0 0 0 0 0 0 0 0 0 582 0 0 0 0 pi
S 588 3 0 0 0 9 0 1 0 0 0 A 0 0 0 0 0 0 0 0 1074340347 1413754136 0 0 0 0 0 0 0 0 0 0 0 0 0 0 0 0 0 0 9
S 589 16 0 0 0 9 592 582 4678 800004 400000 A 0 0 0 0 0 0 0 0 591 22 0 0 0 0 0 0 0 0 0 0 0 0 0 582 0 0 0 0 twopi
S 591 3 0 0 0 9 0 1 0 0 0 A 0 0 0 0 0 0 0 0 1075388923 1413754136 0 0 0 0 0 0 0 0 0 0 0 0 0 0 0 0 0 0 9
S 592 16 0 0 0 12 594 582 4684 800004 400000 A 0 0 0 0 0 0 0 0 593 24 0 0 0 0 0 0 0 0 0 0 0 0 0 582 0 0 0 0 cmplx_i
S 593 3 0 0 0 12 0 1 0 0 0 A 0 0 0 0 0 0 0 0 577 578 0 0 0 0 0 0 0 0 0 0 0 0 0 0 0 0 0 0 12
S 594 16 0 0 0 12 596 582 4692 800004 400000 A 0 0 0 0 0 0 0 0 595 26 0 0 0 0 0 0 0 0 0 0 0 0 0 582 0 0 0 0 cmplx_0
S 595 3 0 0 0 12 0 1 0 0 0 A 0 0 0 0 0 0 0 0 577 577 0 0 0 0 0 0 0 0 0 0 0 0 0 0 0 0 0 0 12
S 596 16 0 0 0 12 598 582 4700 800004 400000 A 0 0 0 0 0 0 0 0 597 28 0 0 0 0 0 0 0 0 0 0 0 0 0 582 0 0 0 0 cmplx_1
S 597 3 0 0 0 12 0 1 0 0 0 A 0 0 0 0 0 0 0 0 578 577 0 0 0 0 0 0 0 0 0 0 0 0 0 0 0 0 0 0 12
S 598 16 0 0 0 9 600 582 4708 800004 400000 A 0 0 0 0 0 0 0 0 599 30 0 0 0 0 0 0 0 0 0 0 0 0 0 582 0 0 0 0 bohr
S 599 3 0 0 0 9 0 1 0 0 0 A 0 0 0 0 0 0 0 0 1071705861 197498237 0 0 0 0 0 0 0 0 0 0 0 0 0 0 0 0 0 0 9
S 600 16 0 0 0 9 602 582 4713 800004 400000 A 0 0 0 0 0 0 0 0 601 32 0 0 0 0 0 0 0 0 0 0 0 0 0 582 0 0 0 0 eps2
S 601 3 0 0 0 9 0 1 0 0 0 A 0 0 0 0 0 0 0 0 1065646817 1202590843 0 0 0 0 0 0 0 0 0 0 0 0 0 0 0 0 0 0 9
S 602 16 0 0 0 9 604 582 4718 800004 400000 A 0 0 0 0 0 0 0 0 603 34 0 0 0 0 0 0 0 0 0 0 0 0 0 582 0 0 0 0 eps5
S 603 3 0 0 0 9 0 1 0 0 0 A 0 0 0 0 0 0 0 0 1055193269 -1998362383 0 0 0 0 0 0 0 0 0 0 0 0 0 0 0 0 0 0 9
S 604 16 0 0 0 9 606 582 4723 800004 400000 A 0 0 0 0 0 0 0 0 605 36 0 0 0 0 0 0 0 0 0 0 0 0 0 582 0 0 0 0 eps6
S 605 3 0 0 0 9 0 1 0 0 0 A 0 0 0 0 0 0 0 0 1051772663 -1598689907 0 0 0 0 0 0 0 0 0 0 0 0 0 0 0 0 0 0 9
S 606 16 0 0 0 9 608 582 4728 800004 400000 A 0 0 0 0 0 0 0 0 607 38 0 0 0 0 0 0 0 0 0 0 0 0 0 582 0 0 0 0 eps7
S 607 3 0 0 0 9 0 1 0 0 0 A 0 0 0 0 0 0 0 0 1048238066 -1698910392 0 0 0 0 0 0 0 0 0 0 0 0 0 0 0 0 0 0 9
S 608 16 0 0 0 9 610 582 4733 800004 400000 A 0 0 0 0 0 0 0 0 609 40 0 0 0 0 0 0 0 0 0 0 0 0 0 582 0 0 0 0 eps8
S 609 3 0 0 0 9 0 1 0 0 0 A 0 0 0 0 0 0 0 0 1044740494 -500134854 0 0 0 0 0 0 0 0 0 0 0 0 0 0 0 0 0 0 9
S 610 16 0 0 0 9 0 582 4738 800004 400000 A 0 0 0 0 0 0 0 0 611 42 0 0 0 0 0 0 0 0 0 0 0 0 0 582 0 0 0 0 eps10
S 611 3 0 0 0 9 0 1 0 0 0 A 0 0 0 0 0 0 0 0 1037794527 -640172613 0 0 0 0 0 0 0 0 0 0 0 0 0 0 0 0 0 0 9
A 16 2 0 0 0 6 586 0 0 0 16 0 0 0 0 0 0 0 0 0
A 18 2 0 0 0 9 588 0 0 0 18 0 0 0 0 0 0 0 0 0
A 22 2 0 0 0 9 591 0 0 0 22 0 0 0 0 0 0 0 0 0
A 24 2 0 0 0 12 593 0 0 0 24 0 0 0 0 0 0 0 0 0
A 26 2 0 0 0 12 595 0 0 0 26 0 0 0 0 0 0 0 0 0
A 28 2 0 0 0 12 597 0 0 0 28 0 0 0 0 0 0 0 0 0
A 30 2 0 0 0 9 599 0 0 0 30 0 0 0 0 0 0 0 0 0
A 32 2 0 0 0 9 601 0 0 0 32 0 0 0 0 0 0 0 0 0
A 34 2 0 0 0 9 603 0 0 0 34 0 0 0 0 0 0 0 0 0
A 36 2 0 0 0 9 605 0 0 0 36 0 0 0 0 0 0 0 0 0
A 38 2 0 0 0 9 607 0 0 0 38 0 0 0 0 0 0 0 0 0
A 40 2 0 0 0 9 609 0 0 0 40 0 0 0 0 0 0 0 0 0
A 42 2 0 0 0 9 611 0 0 0 42 0 0 0 0 0 0 0 0 0
Z
Z
