V26 w90_plot
8 plot.F90 S582 0
04/27/2012  15:03:13
use w90_constants private
use w90_constants private
enduse
S 582 24 0 0 0 9 1 0 4658 10015 0 A 0 0 0 0 0 0 0 0 0 0 0 0 0 0 0 0 0 0 0 0 0 13 0 0 0 0 0 0 w90_plot
S 584 23 0 0 0 9 598 582 4681 14 0 A 0 0 0 0 0 0 0 0 0 0 0 0 0 0 0 0 0 0 0 0 0 0 0 582 0 0 0 0 dp
R 598 16 1 w90_constants dp
S 611 27 0 0 0 9 612 582 4753 0 0 A 0 0 0 0 0 0 0 0 0 0 0 0 0 0 0 0 0 0 0 0 0 0 0 582 0 0 0 0 plot_main
S 612 23 5 0 0 0 613 582 4753 0 0 A 0 0 0 0 0 0 0 0 0 0 0 0 0 0 0 0 0 0 0 0 0 0 0 0 0 0 0 0 plot_main
S 613 14 5 0 0 0 1 612 4753 0 400000 A 0 0 0 0 0 0 0 2 0 0 0 0 0 0 0 0 0 0 0 0 0 26 0 582 0 0 0 0 plot_main
F 613 0
S 614 23 5 0 0 0 615 582 4763 10 0 A 0 0 0 0 0 0 0 0 0 0 0 0 0 0 0 0 0 0 0 0 0 0 0 0 0 0 0 0 plot_interpolate_bands
S 615 14 5 0 0 0 1 614 4763 10 400000 A 0 0 0 0 0 0 0 3 0 0 0 0 0 0 0 0 0 0 0 0 0 88 0 582 0 0 0 0 plot_interpolate_bands
F 615 0
S 616 23 5 0 0 0 617 582 4786 10 0 A 0 0 0 0 0 0 0 0 0 0 0 0 0 0 0 0 0 0 0 0 0 0 0 0 0 0 0 0 plot_fermi_surface
S 617 14 5 0 0 0 1 616 4786 10 400000 A 0 0 0 0 0 0 0 4 0 0 0 0 0 0 0 0 0 0 0 0 0 645 0 582 0 0 0 0 plot_fermi_surface
F 617 0
S 618 23 5 0 0 0 619 582 4805 10 0 A 0 0 0 0 0 0 0 0 0 0 0 0 0 0 0 0 0 0 0 0 0 0 0 0 0 0 0 0 plot_wannier
S 619 14 5 0 0 0 1 618 4805 10 400000 A 0 0 0 0 0 0 0 5 0 0 0 0 0 0 0 0 0 0 0 0 0 779 0 582 0 0 0 0 plot_wannier
F 619 0
Z
Z
