V26 w90_io
6 io.F90 S582 0
04/27/2012  15:02:52
use w90_constants private
use w90_constants private
enduse
D 56 18 38
D 58 24 618 88 617 7
D 64 18 41
D 66 21 58 1 3 42 0 0 0 0 0
 0 42 3 3 42 42
D 69 21 6 1 0 3 0 0 0 0 0
 0 3 0 3 3 0
D 72 18 45
S 582 24 0 0 0 9 1 0 4658 10015 0 A 0 0 0 0 0 0 0 0 0 0 0 0 0 0 0 0 0 0 0 0 0 13 0 0 0 0 0 0 w90_io
S 584 23 0 0 0 9 598 582 4679 14 0 A 0 0 0 0 0 0 0 0 0 0 0 0 0 0 0 0 0 0 0 0 0 0 0 582 0 0 0 0 dp
R 598 16 1 w90_constants dp
S 611 6 4 0 0 6 616 582 4751 24 0 A 0 0 0 0 0 0 0 0 0 0 0 0 635 0 0 0 0 0 0 0 0 0 0 582 0 0 0 0 stdout
S 612 3 0 0 0 6 0 1 0 0 0 A 0 0 0 0 0 0 0 0 0 50 0 0 0 0 0 0 0 0 0 0 0 0 0 0 0 0 0 0 6
S 613 6 4 0 0 56 1 582 4758 24 0 A 0 0 0 0 0 0 0 0 0 0 0 0 636 0 0 0 0 0 0 0 0 0 0 582 0 0 0 0 seedname
S 614 16 0 0 0 6 1 582 4767 4 400000 A 0 0 0 0 0 0 0 0 120 39 0 0 0 0 0 0 0 0 0 0 0 0 0 582 0 0 0 0 maxlen
S 615 3 0 0 0 6 0 1 0 0 0 A 0 0 0 0 0 0 0 0 0 120 0 0 0 0 0 0 0 0 0 0 0 0 0 0 0 0 0 0 6
S 616 6 4 0 0 16 1 582 4774 24 0 A 0 0 0 0 0 4 0 0 0 0 0 0 635 0 0 0 0 0 0 0 0 0 0 582 0 0 0 0 post_proc_flag
S 617 25 0 0 0 58 1 582 4789 10000014 800010 A 0 0 0 0 0 0 0 0 0 0 0 0 0 0 0 0 0 0 0 634 0 0 0 582 0 0 0 0 timing_data
S 618 5 0 0 0 6 619 582 4801 800004 0 A 0 0 0 0 0 0 0 0 58 0 0 0 0 0 0 0 0 0 0 0 1 618 0 582 0 0 0 0 ncalls
S 619 5 0 0 0 9 620 582 4808 800004 0 A 0 0 0 0 0 8 0 0 58 0 0 0 0 0 0 0 0 0 0 0 618 619 0 582 0 0 0 0 ctime
S 620 5 0 0 0 9 622 582 4814 800004 0 A 0 0 0 0 0 16 0 0 58 0 0 0 0 0 0 0 0 0 0 0 619 620 0 582 0 0 0 0 ptime
S 621 3 0 0 0 6 0 1 0 0 0 A 0 0 0 0 0 0 0 0 0 60 0 0 0 0 0 0 0 0 0 0 0 0 0 0 0 0 0 0 6
S 622 5 0 0 0 64 1 582 4820 800004 0 A 0 0 0 0 0 24 0 0 58 0 0 0 0 0 0 0 0 0 0 0 620 622 0 582 0 0 0 0 label
S 623 16 1 0 0 6 1 582 4826 14 400000 A 0 0 0 0 0 0 0 0 100 42 0 0 0 0 0 0 0 0 0 0 0 0 0 582 0 0 0 0 nmax
S 624 3 0 0 0 6 0 1 0 0 0 A 0 0 0 0 0 0 0 0 0 100 0 0 0 0 0 0 0 0 0 0 0 0 0 0 0 0 0 0 6
S 625 7 4 0 4 66 1 582 4831 800014 100 A 0 0 0 0 0 0 0 0 0 0 0 0 637 0 0 0 0 0 0 0 0 0 0 582 0 0 0 0 clocks
S 626 6 4 0 0 6 1 582 4838 80003c 0 A 0 0 0 0 0 0 0 0 0 0 0 0 638 0 0 0 0 0 0 0 0 0 0 582 0 0 0 0 nnames
S 627 27 0 0 0 6 639 582 4845 0 0 A 0 0 0 0 0 0 0 0 0 0 0 0 0 0 0 0 0 0 0 0 0 0 0 582 0 0 0 0 io_stopwatch
S 628 27 0 0 0 6 643 582 4858 0 0 A 0 0 0 0 0 0 0 0 0 0 0 0 0 0 0 0 0 0 0 0 0 0 0 582 0 0 0 0 io_print_timings
S 629 27 0 0 0 6 645 582 4875 0 0 A 0 0 0 0 0 0 0 0 0 0 0 0 0 0 0 0 0 0 0 0 0 0 0 582 0 0 0 0 io_get_seedname
S 630 27 0 0 0 6 655 582 4891 0 0 A 0 0 0 0 0 0 0 0 0 0 0 0 0 0 0 0 0 0 0 0 0 0 0 582 0 0 0 0 io_time
S 631 27 0 0 0 6 650 582 4899 0 0 A 0 0 0 0 0 0 0 0 0 0 0 0 0 0 0 0 0 0 0 0 0 0 0 582 0 0 0 0 io_date
S 632 27 0 0 0 6 647 582 4907 0 0 A 0 0 0 0 0 0 0 0 0 0 0 0 0 0 0 0 0 0 0 0 0 0 0 582 0 0 0 0 io_error
S 633 27 0 0 0 6 658 582 4916 0 0 A 0 0 0 0 0 0 0 0 0 0 0 0 0 0 0 0 0 0 0 0 0 0 0 582 0 0 0 0 io_file_unit
S 634 8 5 0 0 69 1 582 4929 40022004 1220 A 0 0 0 0 0 0 0 58 0 0 0 0 0 0 0 0 0 0 0 0 0 0 0 582 0 0 0 0 w90_io$timing_data$td
S 635 11 0 0 0 9 1 582 4951 40800000 801000 A 0 0 0 0 0 8 0 0 611 616 0 0 0 0 0 0 0 0 0 0 0 0 0 0 0 0 0 0 _w90_io$0
S 636 11 0 0 0 9 635 582 4961 40800000 801000 A 0 0 0 0 0 50 0 0 613 613 0 0 0 0 0 0 0 0 0 0 0 0 0 0 0 0 0 0 _w90_io$1
S 637 11 0 0 4 9 636 582 4971 40800010 801000 A 0 0 0 0 0 8800 0 0 625 625 0 0 0 0 0 0 0 0 0 0 0 0 0 0 0 0 0 0 _w90_io$4
S 638 11 0 0 0 9 637 582 4981 40800010 801000 A 0 0 0 0 0 4 0 0 626 626 0 0 0 0 0 0 0 0 0 0 0 0 0 0 0 0 0 0 _w90_io$12
S 639 23 5 0 0 0 642 582 4845 0 0 A 0 0 0 0 0 0 0 0 0 0 0 0 0 0 0 0 0 0 0 0 0 0 0 0 0 0 0 0 io_stopwatch
S 640 1 3 1 0 28 1 639 4992 14 43000 A 0 0 0 0 0 0 0 0 0 0 0 0 0 0 0 0 0 0 0 0 0 0 0 0 0 0 0 0 tag
S 641 1 3 1 0 6 1 639 4996 14 3000 A 0 0 0 0 0 0 0 0 0 0 0 0 0 0 0 0 0 0 0 0 0 0 0 0 0 0 0 0 mode
S 642 14 5 0 0 0 1 639 4845 0 400000 A 0 0 0 0 0 0 0 2 2 0 0 0 0 0 0 0 0 0 0 0 0 50 0 582 0 0 0 0 io_stopwatch
F 642 2 640 641
S 643 23 5 0 0 0 644 582 4858 0 0 A 0 0 0 0 0 0 0 0 0 0 0 0 0 0 0 0 0 0 0 0 0 0 0 0 0 0 0 0 io_print_timings
S 644 14 5 0 0 0 1 643 4858 0 400000 A 0 0 0 0 0 0 0 5 0 0 0 0 0 0 0 0 0 0 0 0 0 109 0 582 0 0 0 0 io_print_timings
F 644 0
S 645 23 5 0 0 0 646 582 4875 0 0 A 0 0 0 0 0 0 0 0 0 0 0 0 0 0 0 0 0 0 0 0 0 0 0 0 0 0 0 0 io_get_seedname
S 646 14 5 0 0 0 1 645 4875 0 400000 A 0 0 0 0 0 0 0 6 0 0 0 0 0 0 0 0 0 0 0 0 0 135 0 582 0 0 0 0 io_get_seedname
F 646 0
S 647 23 5 0 0 0 649 582 4907 0 0 A 0 0 0 0 0 0 0 0 0 0 0 0 0 0 0 0 0 0 0 0 0 0 0 0 0 0 0 0 io_error
S 648 1 3 1 0 28 1 647 5001 14 43000 A 0 0 0 0 0 0 0 0 0 0 0 0 0 0 0 0 0 0 0 0 0 0 0 0 0 0 0 0 error_msg
S 649 14 5 0 0 0 1 647 4907 0 400000 A 0 0 0 0 0 0 0 7 1 0 0 0 0 0 0 0 0 0 0 0 0 185 0 582 0 0 0 0 io_error
F 649 1 648
S 650 23 5 0 0 0 653 582 4899 0 0 A 0 0 0 0 0 0 0 0 0 0 0 0 0 0 0 0 0 0 0 0 0 0 0 0 0 0 0 0 io_date
S 651 1 3 2 0 72 1 650 5011 14 3000 A 0 0 0 0 0 0 0 0 0 0 0 0 0 0 0 0 0 0 0 0 0 0 0 0 0 0 0 0 cdate
S 652 1 3 2 0 72 1 650 4808 14 3000 A 0 0 0 0 0 0 0 0 0 0 0 0 0 0 0 0 0 0 0 0 0 0 0 0 0 0 0 0 ctime
S 653 14 5 0 0 0 1 650 4899 0 400000 A 0 0 0 0 0 0 0 9 2 0 0 0 0 0 0 0 0 0 0 0 0 206 0 582 0 0 0 0 io_date
F 653 2 651 652
S 654 3 0 0 0 6 1 1 0 0 0 A 0 0 0 0 0 0 0 0 0 9 0 0 0 0 0 0 0 0 0 0 0 0 0 0 0 0 0 0 6
S 655 23 5 0 0 6 656 582 4891 0 0 A 0 0 0 0 0 0 0 0 0 0 0 0 0 0 0 0 0 0 0 0 0 0 0 0 0 0 0 0 io_time
S 656 14 5 0 0 9 1 655 4891 4 400000 A 0 0 0 0 0 0 0 12 0 0 0 657 0 0 0 0 0 0 0 0 0 231 0 582 0 0 0 0 io_time
F 656 0
S 657 1 3 0 0 9 1 655 4891 14 1003000 A 0 0 0 0 0 0 0 0 0 0 0 0 0 0 0 0 0 0 0 0 0 0 0 0 0 0 0 0 io_time
S 658 23 5 0 0 6 659 582 4916 0 0 A 0 0 0 0 0 0 0 0 0 0 0 0 0 0 0 0 0 0 0 0 0 0 0 0 0 0 0 0 io_file_unit
S 659 14 5 0 0 6 1 658 4916 4 400000 A 0 0 0 0 0 0 0 13 0 0 0 660 0 0 0 0 0 0 0 0 0 262 0 582 0 0 0 0 io_file_unit
F 659 0
S 660 1 3 0 0 6 1 658 4916 14 1003000 A 0 0 0 0 0 0 0 0 0 0 0 0 0 0 0 0 0 0 0 0 0 0 0 0 0 0 0 0 io_file_unit
A 38 2 0 0 0 6 612 0 0 0 38 0 0 0 0 0 0 0 0 0
A 39 2 0 0 0 6 615 0 0 0 39 0 0 0 0 0 0 0 0 0
A 41 2 0 0 0 6 621 0 0 0 41 0 0 0 0 0 0 0 0 0
A 42 2 0 0 0 6 624 0 0 0 42 0 0 0 0 0 0 0 0 0
A 45 2 0 0 0 6 654 0 0 0 45 0 0 0 0 0 0 0 0 0
Z
Z
