V26 w90_transport
13 transport.F90 S582 0
04/27/2012  15:03:15
use w90_constants private
use w90_constants private
enduse
D 56 21 9 3 73 72 0 1 0 0 1
 48 52 66 48 52 50
 54 58 68 54 58 56
 60 64 70 60 64 62
D 59 21 6 1 0 45 0 0 0 0 0
 0 45 0 3 45 0
D 62 21 9 2 89 88 0 1 0 0 1
 78 81 86 78 81 79
 82 85 87 82 85 83
D 65 21 6 1 0 76 0 0 0 0 0
 0 76 0 3 76 0
D 68 21 9 2 104 103 0 1 0 0 1
 93 96 101 93 96 94
 97 100 102 97 100 98
D 71 21 6 1 0 76 0 0 0 0 0
 0 76 0 3 76 0
D 74 21 9 2 119 118 0 1 0 0 1
 108 111 116 108 111 109
 112 115 117 112 115 113
D 77 21 6 1 0 76 0 0 0 0 0
 0 76 0 3 76 0
D 80 21 9 2 134 133 0 1 0 0 1
 123 126 131 123 126 124
 127 130 132 127 130 128
D 83 21 6 1 0 76 0 0 0 0 0
 0 76 0 3 76 0
D 86 21 9 2 149 148 0 1 0 0 1
 138 141 146 138 141 139
 142 145 147 142 145 143
D 89 21 6 1 0 76 0 0 0 0 0
 0 76 0 3 76 0
D 92 21 9 2 164 163 0 1 0 0 1
 153 156 161 153 156 154
 157 160 162 157 160 158
D 95 21 6 1 0 76 0 0 0 0 0
 0 76 0 3 76 0
D 98 21 9 2 179 178 0 1 0 0 1
 168 171 176 168 171 169
 172 175 177 172 175 173
D 101 21 6 1 0 76 0 0 0 0 0
 0 76 0 3 76 0
D 104 21 9 2 194 193 0 1 0 0 1
 183 186 191 183 186 184
 187 190 192 187 190 188
D 107 21 6 1 0 76 0 0 0 0 0
 0 76 0 3 76 0
D 110 21 9 2 209 208 0 1 0 0 1
 198 201 206 198 201 199
 202 205 207 202 205 203
D 113 21 6 1 0 76 0 0 0 0 0
 0 76 0 3 76 0
D 116 21 12 2 210 213 0 0 1 0 0
 0 211 3 3 212 212
 0 211 212 3 212 212
D 119 21 12 2 210 213 0 0 1 0 0
 0 211 3 3 212 212
 0 211 212 3 212 212
D 122 21 9 2 210 213 0 0 1 0 0
 0 211 3 3 212 212
 0 211 212 3 212 212
D 125 21 9 2 210 213 0 0 1 0 0
 0 211 3 3 212 212
 0 211 212 3 212 212
D 128 21 9 2 214 217 0 0 1 0 0
 0 215 3 3 216 216
 0 215 216 3 216 216
D 131 21 9 2 214 217 0 0 1 0 0
 0 215 3 3 216 216
 0 215 216 3 216 216
D 134 21 12 2 214 217 0 0 1 0 0
 0 215 3 3 216 216
 0 215 216 3 216 216
D 137 21 12 2 214 217 0 0 1 0 0
 0 215 3 3 216 216
 0 215 216 3 216 216
D 140 21 12 2 214 217 0 0 1 0 0
 0 215 3 3 216 216
 0 215 216 3 216 216
D 143 21 9 2 218 221 0 0 1 0 0
 0 219 3 3 220 220
 0 219 220 3 220 220
D 146 21 9 2 218 221 0 0 1 0 0
 0 219 3 3 220 220
 0 219 220 3 220 220
D 149 18 40
D 151 21 9 2 222 225 0 0 1 0 0
 0 223 3 3 224 224
 0 223 224 3 224 224
D 154 18 40
D 156 21 9 2 226 231 0 0 1 0 0
 0 227 3 3 228 228
 0 229 228 3 230 230
D 159 18 40
S 582 24 0 0 0 9 1 0 4658 10015 0 A 0 0 0 0 0 0 0 0 0 0 0 0 0 0 0 0 0 0 0 0 0 50 0 0 0 0 0 0 w90_transport
S 584 23 0 0 0 9 598 582 4686 14 0 A 0 0 0 0 0 0 0 0 0 0 0 0 0 0 0 0 0 0 0 0 0 0 0 582 0 0 0 0 dp
S 585 3 0 0 0 6 1 1 0 0 0 A 0 0 0 0 0 0 0 0 0 8 0 0 0 0 0 0 0 0 0 0 0 0 0 0 0 0 0 0 6
R 598 16 1 w90_constants dp
S 611 16 0 0 0 12 1 582 4758 14 400000 A 0 0 0 0 0 0 0 0 613 38 0 0 0 0 0 0 0 0 0 0 0 0 0 582 0 0 0 0 eta
S 612 3 0 0 0 9 0 1 0 0 0 A 0 0 0 0 0 0 0 0 1061184077 -755914244 0 0 0 0 0 0 0 0 0 0 0 0 0 0 0 0 0 0 9
S 613 3 0 0 0 12 0 1 0 0 0 A 0 0 0 0 0 0 0 0 577 612 0 0 0 0 0 0 0 0 0 0 0 0 0 0 0 0 0 0 12
S 614 16 0 0 0 6 1 582 4776 14 400000 A 0 0 0 0 0 0 0 0 50 40 0 0 0 0 0 0 0 0 0 0 0 0 0 582 0 0 0 0 nterx
S 615 3 0 0 0 6 1 1 0 0 0 A 0 0 0 0 0 0 0 0 0 50 0 0 0 0 0 0 0 0 0 0 0 0 0 0 0 0 0 0 6
S 616 6 4 0 0 6 617 582 4782 14 0 A 0 0 0 0 0 0 0 0 0 0 0 0 703 0 0 0 0 0 0 0 0 0 0 582 0 0 0 0 one_dim_vec
S 617 6 4 0 0 6 618 582 4794 14 0 A 0 0 0 0 0 4 0 0 0 0 0 0 703 0 0 0 0 0 0 0 0 0 0 582 0 0 0 0 nrpts_one_dim
S 618 6 4 0 0 6 620 582 4808 14 0 A 0 0 0 0 0 8 0 0 0 0 0 0 703 0 0 0 0 0 0 0 0 0 0 582 0 0 0 0 num_pl
S 619 7 6 0 0 56 1 582 4815 10a00014 51 A 0 0 0 0 0 0 625 0 0 0 627 0 0 0 0 0 0 0 0 624 0 0 626 582 0 0 0 0 hr_one_dim
S 620 6 4 0 0 6 621 582 4826 40800016 0 A 0 0 0 0 0 12 0 0 0 0 0 0 703 0 0 0 0 0 0 0 0 0 0 582 0 0 0 0 z_b_0
S 621 6 4 0 0 6 622 582 4832 40800016 0 A 0 0 0 0 0 16 0 0 0 0 0 0 703 0 0 0 0 0 0 0 0 0 0 582 0 0 0 0 z_b_1
S 622 6 4 0 0 6 639 582 4838 40800016 0 A 0 0 0 0 0 20 0 0 0 0 0 0 703 0 0 0 0 0 0 0 0 0 0 582 0 0 0 0 z_b_2
S 623 3 0 0 0 6 0 1 0 0 0 A 0 0 0 0 0 0 0 0 0 30 0 0 0 0 0 0 0 0 0 0 0 0 0 0 0 0 0 0 6
S 624 8 4 0 0 59 643 582 4844 40822014 1020 A 0 0 0 0 0 0 0 0 0 0 0 0 703 0 0 0 0 0 0 0 0 0 0 582 0 0 0 0 hr_one_dim$sd
S 625 6 4 0 0 7 626 582 4858 40802011 1020 A 0 0 0 0 0 0 0 0 0 0 0 0 703 0 0 0 0 0 0 0 0 0 0 582 0 0 0 0 hr_one_dim$p
S 626 6 4 0 0 7 624 582 4871 40802010 1020 A 0 0 0 0 0 0 0 0 0 0 0 0 703 0 0 0 0 0 0 0 0 0 0 582 0 0 0 0 hr_one_dim$o
S 627 22 1 0 0 9 1 582 4884 40000000 1000 A 0 0 0 0 0 0 0 619 0 0 0 0 624 0 0 0 0 0 0 0 0 0 0 582 0 0 0 0 hr_one_dim$arrdsc
S 628 3 0 0 0 6 0 1 0 0 0 A 0 0 0 0 0 0 0 0 0 13 0 0 0 0 0 0 0 0 0 0 0 0 0 0 0 0 0 0 6
S 629 3 0 0 0 6 0 1 0 0 0 A 0 0 0 0 0 0 0 0 0 14 0 0 0 0 0 0 0 0 0 0 0 0 0 0 0 0 0 0 6
S 630 3 0 0 0 6 0 1 0 0 0 A 0 0 0 0 0 0 0 0 0 19 0 0 0 0 0 0 0 0 0 0 0 0 0 0 0 0 0 0 6
S 631 3 0 0 0 6 0 1 0 0 0 A 0 0 0 0 0 0 0 0 0 20 0 0 0 0 0 0 0 0 0 0 0 0 0 0 0 0 0 0 6
S 632 3 0 0 0 6 0 1 0 0 0 A 0 0 0 0 0 0 0 0 0 25 0 0 0 0 0 0 0 0 0 0 0 0 0 0 0 0 0 0 6
S 633 3 0 0 0 6 0 1 0 0 0 A 0 0 0 0 0 0 0 0 0 26 0 0 0 0 0 0 0 0 0 0 0 0 0 0 0 0 0 0 6
S 634 3 0 0 0 6 0 1 0 0 0 A 0 0 0 0 0 0 0 0 0 17 0 0 0 0 0 0 0 0 0 0 0 0 0 0 0 0 0 0 6
S 635 3 0 0 0 6 0 1 0 0 0 A 0 0 0 0 0 0 0 0 0 23 0 0 0 0 0 0 0 0 0 0 0 0 0 0 0 0 0 0 6
S 636 3 0 0 0 6 0 1 0 0 0 A 0 0 0 0 0 0 0 0 0 29 0 0 0 0 0 0 0 0 0 0 0 0 0 0 0 0 0 0 6
S 637 3 0 0 0 6 0 1 0 0 0 A 0 0 0 0 0 0 0 0 0 7 0 0 0 0 0 0 0 0 0 0 0 0 0 0 0 0 0 0 6
S 638 7 6 0 0 62 1 582 4902 10a00014 51 A 0 0 0 0 0 0 643 0 0 0 645 0 0 0 0 0 0 0 0 642 0 0 644 582 0 0 0 0 hb0
S 639 6 4 0 0 6 640 582 4906 40800016 0 A 0 0 0 0 0 24 0 0 0 0 0 0 703 0 0 0 0 0 0 0 0 0 0 582 0 0 0 0 z_b_3
S 640 6 4 0 0 6 647 582 4912 40800016 0 A 0 0 0 0 0 28 0 0 0 0 0 0 703 0 0 0 0 0 0 0 0 0 0 582 0 0 0 0 z_b_4
S 641 3 0 0 0 6 0 1 0 0 0 A 0 0 0 0 0 0 0 0 0 24 0 0 0 0 0 0 0 0 0 0 0 0 0 0 0 0 0 0 6
S 642 8 4 0 0 65 650 582 4918 40822014 1020 A 0 0 0 0 0 0 0 0 0 0 0 0 703 0 0 0 0 0 0 0 0 0 0 582 0 0 0 0 hb0$sd
S 643 6 4 0 0 7 644 582 4925 40802011 1020 A 0 0 0 0 0 0 0 0 0 0 0 0 703 0 0 0 0 0 0 0 0 0 0 582 0 0 0 0 hb0$p
S 644 6 4 0 0 7 642 582 4931 40802010 1020 A 0 0 0 0 0 0 0 0 0 0 0 0 703 0 0 0 0 0 0 0 0 0 0 582 0 0 0 0 hb0$o
S 645 22 1 0 0 9 1 582 4937 40000000 1000 A 0 0 0 0 0 0 0 638 0 0 0 0 642 0 0 0 0 0 0 0 0 0 0 582 0 0 0 0 hb0$arrdsc
S 646 7 6 0 0 68 1 582 4948 10a00014 51 A 0 0 0 0 0 0 650 0 0 0 652 0 0 0 0 0 0 0 0 649 0 0 651 582 0 0 0 0 hb1
S 647 6 4 0 0 6 648 582 4952 40800016 0 A 0 0 0 0 0 32 0 0 0 0 0 0 703 0 0 0 0 0 0 0 0 0 0 582 0 0 0 0 z_b_5
S 648 6 4 0 0 6 654 582 4958 40800016 0 A 0 0 0 0 0 36 0 0 0 0 0 0 703 0 0 0 0 0 0 0 0 0 0 582 0 0 0 0 z_b_6
S 649 8 4 0 0 71 657 582 4964 40822014 1020 A 0 0 0 0 0 0 0 0 0 0 0 0 703 0 0 0 0 0 0 0 0 0 0 582 0 0 0 0 hb1$sd
S 650 6 4 0 0 7 651 582 4971 40802011 1020 A 0 0 0 0 0 0 0 0 0 0 0 0 703 0 0 0 0 0 0 0 0 0 0 582 0 0 0 0 hb1$p
S 651 6 4 0 0 7 649 582 4977 40802010 1020 A 0 0 0 0 0 0 0 0 0 0 0 0 703 0 0 0 0 0 0 0 0 0 0 582 0 0 0 0 hb1$o
S 652 22 1 0 0 9 1 582 4983 40000000 1000 A 0 0 0 0 0 0 0 646 0 0 0 0 649 0 0 0 0 0 0 0 0 0 0 582 0 0 0 0 hb1$arrdsc
S 653 7 6 0 0 74 1 582 4994 10a00014 51 A 0 0 0 0 0 0 657 0 0 0 659 0 0 0 0 0 0 0 0 656 0 0 658 582 0 0 0 0 hl0
S 654 6 4 0 0 6 655 582 4998 40800016 0 A 0 0 0 0 0 40 0 0 0 0 0 0 703 0 0 0 0 0 0 0 0 0 0 582 0 0 0 0 z_b_7
S 655 6 4 0 0 6 661 582 5004 40800016 0 A 0 0 0 0 0 44 0 0 0 0 0 0 703 0 0 0 0 0 0 0 0 0 0 582 0 0 0 0 z_b_8
S 656 8 4 0 0 77 664 582 5010 40822014 1020 A 0 0 0 0 0 0 0 0 0 0 0 0 703 0 0 0 0 0 0 0 0 0 0 582 0 0 0 0 hl0$sd
S 657 6 4 0 0 7 658 582 5017 40802011 1020 A 0 0 0 0 0 0 0 0 0 0 0 0 703 0 0 0 0 0 0 0 0 0 0 582 0 0 0 0 hl0$p
S 658 6 4 0 0 7 656 582 5023 40802010 1020 A 0 0 0 0 0 0 0 0 0 0 0 0 703 0 0 0 0 0 0 0 0 0 0 582 0 0 0 0 hl0$o
S 659 22 1 0 0 9 1 582 5029 40000000 1000 A 0 0 0 0 0 0 0 653 0 0 0 0 656 0 0 0 0 0 0 0 0 0 0 582 0 0 0 0 hl0$arrdsc
S 660 7 6 0 0 80 1 582 5040 10a00014 51 A 0 0 0 0 0 0 664 0 0 0 666 0 0 0 0 0 0 0 0 663 0 0 665 582 0 0 0 0 hl1
S 661 6 4 0 0 6 662 582 5044 40800016 0 A 0 0 0 0 0 48 0 0 0 0 0 0 703 0 0 0 0 0 0 0 0 0 0 582 0 0 0 0 z_b_9
S 662 6 4 0 0 6 668 582 5050 40800016 0 A 0 0 0 0 0 52 0 0 0 0 0 0 703 0 0 0 0 0 0 0 0 0 0 582 0 0 0 0 z_b_10
S 663 8 4 0 0 83 671 582 5057 40822014 1020 A 0 0 0 0 0 0 0 0 0 0 0 0 703 0 0 0 0 0 0 0 0 0 0 582 0 0 0 0 hl1$sd
S 664 6 4 0 0 7 665 582 5064 40802011 1020 A 0 0 0 0 0 0 0 0 0 0 0 0 703 0 0 0 0 0 0 0 0 0 0 582 0 0 0 0 hl1$p
S 665 6 4 0 0 7 663 582 5070 40802010 1020 A 0 0 0 0 0 0 0 0 0 0 0 0 703 0 0 0 0 0 0 0 0 0 0 582 0 0 0 0 hl1$o
S 666 22 1 0 0 9 1 582 5076 40000000 1000 A 0 0 0 0 0 0 0 660 0 0 0 0 663 0 0 0 0 0 0 0 0 0 0 582 0 0 0 0 hl1$arrdsc
S 667 7 6 0 0 86 1 582 5087 10a00014 51 A 0 0 0 0 0 0 671 0 0 0 673 0 0 0 0 0 0 0 0 670 0 0 672 582 0 0 0 0 hr0
S 668 6 4 0 0 6 669 582 5091 40800016 0 A 0 0 0 0 0 56 0 0 0 0 0 0 703 0 0 0 0 0 0 0 0 0 0 582 0 0 0 0 z_b_11
S 669 6 4 0 0 6 675 582 5098 40800016 0 A 0 0 0 0 0 60 0 0 0 0 0 0 703 0 0 0 0 0 0 0 0 0 0 582 0 0 0 0 z_b_12
S 670 8 4 0 0 89 678 582 5105 40822014 1020 A 0 0 0 0 0 0 0 0 0 0 0 0 703 0 0 0 0 0 0 0 0 0 0 582 0 0 0 0 hr0$sd
S 671 6 4 0 0 7 672 582 5112 40802011 1020 A 0 0 0 0 0 0 0 0 0 0 0 0 703 0 0 0 0 0 0 0 0 0 0 582 0 0 0 0 hr0$p
S 672 6 4 0 0 7 670 582 5118 40802010 1020 A 0 0 0 0 0 0 0 0 0 0 0 0 703 0 0 0 0 0 0 0 0 0 0 582 0 0 0 0 hr0$o
S 673 22 1 0 0 9 1 582 5124 40000000 1000 A 0 0 0 0 0 0 0 667 0 0 0 0 670 0 0 0 0 0 0 0 0 0 0 582 0 0 0 0 hr0$arrdsc
S 674 7 6 0 0 92 1 582 5135 10a00014 51 A 0 0 0 0 0 0 678 0 0 0 680 0 0 0 0 0 0 0 0 677 0 0 679 582 0 0 0 0 hr1
S 675 6 4 0 0 6 676 582 5139 40800016 0 A 0 0 0 0 0 64 0 0 0 0 0 0 703 0 0 0 0 0 0 0 0 0 0 582 0 0 0 0 z_b_13
S 676 6 4 0 0 6 682 582 5146 40800016 0 A 0 0 0 0 0 68 0 0 0 0 0 0 703 0 0 0 0 0 0 0 0 0 0 582 0 0 0 0 z_b_14
S 677 8 4 0 0 95 685 582 5153 40822014 1020 A 0 0 0 0 0 0 0 0 0 0 0 0 703 0 0 0 0 0 0 0 0 0 0 582 0 0 0 0 hr1$sd
S 678 6 4 0 0 7 679 582 5160 40802011 1020 A 0 0 0 0 0 0 0 0 0 0 0 0 703 0 0 0 0 0 0 0 0 0 0 582 0 0 0 0 hr1$p
S 679 6 4 0 0 7 677 582 5166 40802010 1020 A 0 0 0 0 0 0 0 0 0 0 0 0 703 0 0 0 0 0 0 0 0 0 0 582 0 0 0 0 hr1$o
S 680 22 1 0 0 9 1 582 5172 40000000 1000 A 0 0 0 0 0 0 0 674 0 0 0 0 677 0 0 0 0 0 0 0 0 0 0 582 0 0 0 0 hr1$arrdsc
S 681 7 6 0 0 98 1 582 5183 10a00014 51 A 0 0 0 0 0 0 685 0 0 0 687 0 0 0 0 0 0 0 0 684 0 0 686 582 0 0 0 0 hc
S 682 6 4 0 0 6 683 582 5186 40800016 0 A 0 0 0 0 0 72 0 0 0 0 0 0 703 0 0 0 0 0 0 0 0 0 0 582 0 0 0 0 z_b_15
S 683 6 4 0 0 6 689 582 5193 40800016 0 A 0 0 0 0 0 76 0 0 0 0 0 0 703 0 0 0 0 0 0 0 0 0 0 582 0 0 0 0 z_b_16
S 684 8 4 0 0 101 692 582 5200 40822014 1020 A 0 0 0 0 0 0 0 0 0 0 0 0 703 0 0 0 0 0 0 0 0 0 0 582 0 0 0 0 hc$sd
S 685 6 4 0 0 7 686 582 5206 40802011 1020 A 0 0 0 0 0 0 0 0 0 0 0 0 703 0 0 0 0 0 0 0 0 0 0 582 0 0 0 0 hc$p
S 686 6 4 0 0 7 684 582 5211 40802010 1020 A 0 0 0 0 0 0 0 0 0 0 0 0 703 0 0 0 0 0 0 0 0 0 0 582 0 0 0 0 hc$o
S 687 22 1 0 0 9 1 582 5216 40000000 1000 A 0 0 0 0 0 0 0 681 0 0 0 0 684 0 0 0 0 0 0 0 0 0 0 582 0 0 0 0 hc$arrdsc
S 688 7 6 0 0 104 1 582 5226 10a00014 51 A 0 0 0 0 0 0 692 0 0 0 694 0 0 0 0 0 0 0 0 691 0 0 693 582 0 0 0 0 hlc
S 689 6 4 0 0 6 690 582 5230 40800016 0 A 0 0 0 0 0 80 0 0 0 0 0 0 703 0 0 0 0 0 0 0 0 0 0 582 0 0 0 0 z_b_17
S 690 6 4 0 0 6 696 582 5237 40800016 0 A 0 0 0 0 0 84 0 0 0 0 0 0 703 0 0 0 0 0 0 0 0 0 0 582 0 0 0 0 z_b_18
S 691 8 4 0 0 107 699 582 5244 40822014 1020 A 0 0 0 0 0 0 0 0 0 0 0 0 703 0 0 0 0 0 0 0 0 0 0 582 0 0 0 0 hlc$sd
S 692 6 4 0 0 7 693 582 5251 40802011 1020 A 0 0 0 0 0 0 0 0 0 0 0 0 703 0 0 0 0 0 0 0 0 0 0 582 0 0 0 0 hlc$p
S 693 6 4 0 0 7 691 582 5257 40802010 1020 A 0 0 0 0 0 0 0 0 0 0 0 0 703 0 0 0 0 0 0 0 0 0 0 582 0 0 0 0 hlc$o
S 694 22 1 0 0 9 1 582 5263 40000000 1000 A 0 0 0 0 0 0 0 688 0 0 0 0 691 0 0 0 0 0 0 0 0 0 0 582 0 0 0 0 hlc$arrdsc
S 695 7 6 0 0 110 1 582 5274 10a00014 51 A 0 0 0 0 0 0 699 0 0 0 701 0 0 0 0 0 0 0 0 698 0 0 700 582 0 0 0 0 hcr
S 696 6 4 0 0 6 697 582 5278 40800016 0 A 0 0 0 0 0 88 0 0 0 0 0 0 703 0 0 0 0 0 0 0 0 0 0 582 0 0 0 0 z_b_19
S 697 6 4 0 0 6 1 582 5285 40800016 0 A 0 0 0 0 0 92 0 0 0 0 0 0 703 0 0 0 0 0 0 0 0 0 0 582 0 0 0 0 z_b_20
S 698 8 4 0 0 113 616 582 5292 40822014 1020 A 0 0 0 0 0 0 0 0 0 0 0 0 703 0 0 0 0 0 0 0 0 0 0 582 0 0 0 0 hcr$sd
S 699 6 4 0 0 7 700 582 5299 40802011 1020 A 0 0 0 0 0 0 0 0 0 0 0 0 703 0 0 0 0 0 0 0 0 0 0 582 0 0 0 0 hcr$p
S 700 6 4 0 0 7 698 582 5305 40802010 1020 A 0 0 0 0 0 0 0 0 0 0 0 0 703 0 0 0 0 0 0 0 0 0 0 582 0 0 0 0 hcr$o
S 701 22 1 0 0 9 1 582 5311 40000000 1000 A 0 0 0 0 0 0 0 695 0 0 0 0 698 0 0 0 0 0 0 0 0 0 0 582 0 0 0 0 hcr$arrdsc
S 702 27 0 0 0 9 704 582 5322 0 0 A 0 0 0 0 0 0 0 0 0 0 0 0 0 0 0 0 0 0 0 0 0 0 0 582 0 0 0 0 tran_main
S 703 11 0 0 0 9 1 582 5332 40800010 801000 A 0 0 0 0 0 1240 0 0 625 697 0 0 0 0 0 0 0 0 0 0 0 0 0 0 0 0 0 0 _w90_transport$4
S 704 23 5 0 0 0 705 582 5322 0 0 A 0 0 0 0 0 0 0 0 0 0 0 0 0 0 0 0 0 0 0 0 0 0 0 0 0 0 0 0 tran_main
S 705 14 5 0 0 0 1 704 5322 0 400000 A 0 0 0 0 0 0 0 2 0 0 0 0 0 0 0 0 0 0 0 0 0 84 0 582 0 0 0 0 tran_main
F 705 0
S 706 23 5 0 0 0 707 582 5349 10 0 A 0 0 0 0 0 0 0 0 0 0 0 0 0 0 0 0 0 0 0 0 0 0 0 0 0 0 0 0 tran_reduce_hr
S 707 14 5 0 0 0 1 706 5349 10 400000 A 0 0 0 0 0 0 0 3 0 0 0 0 0 0 0 0 0 0 0 0 0 123 0 582 0 0 0 0 tran_reduce_hr
F 707 0
S 708 23 5 0 0 0 709 582 5364 10 0 A 0 0 0 0 0 0 0 0 0 0 0 0 0 0 0 0 0 0 0 0 0 0 0 0 0 0 0 0 tran_cut_hr_one_dim
S 709 14 5 0 0 0 1 708 5364 10 400000 A 0 0 0 0 0 0 0 4 0 0 0 0 0 0 0 0 0 0 0 0 0 207 0 582 0 0 0 0 tran_cut_hr_one_dim
F 709 0
S 710 23 5 0 0 0 711 582 5384 10 0 A 0 0 0 0 0 0 0 0 0 0 0 0 0 0 0 0 0 0 0 0 0 0 0 0 0 0 0 0 tran_get_ht
S 711 14 5 0 0 0 1 710 5384 10 400000 A 0 0 0 0 0 0 0 5 0 0 0 0 0 0 0 0 0 0 0 0 0 308 0 582 0 0 0 0 tran_get_ht
F 711 0
S 712 23 5 0 0 0 713 582 5396 10 0 A 0 0 0 0 0 0 0 0 0 0 0 0 0 0 0 0 0 0 0 0 0 0 0 0 0 0 0 0 tran_bulk
S 713 14 5 0 0 0 1 712 5396 10 400000 A 0 0 0 0 0 0 0 6 0 0 0 0 0 0 0 0 0 0 0 0 0 385 0 582 0 0 0 0 tran_bulk
F 713 0
S 714 23 5 0 0 0 715 582 5406 10 0 A 0 0 0 0 0 0 0 0 0 0 0 0 0 0 0 0 0 0 0 0 0 0 0 0 0 0 0 0 tran_lcr
S 715 14 5 0 0 0 1 714 5406 10 400000 A 0 0 0 0 0 0 0 7 0 0 0 0 0 0 0 0 0 0 0 0 0 547 0 582 0 0 0 0 tran_lcr
F 715 0
S 716 23 5 0 0 0 723 582 5415 10 0 A 0 0 0 0 0 0 0 0 0 0 0 0 0 0 0 0 0 0 0 0 0 0 0 0 0 0 0 0 tran_transfer
S 717 7 3 2 0 116 1 716 5429 800214 3000 A 0 0 0 0 0 0 0 0 0 0 0 0 0 0 0 0 0 0 0 0 0 0 0 0 0 0 0 0 tot
S 718 7 3 2 0 119 1 716 5433 800214 3000 A 0 0 0 0 0 0 0 0 0 0 0 0 0 0 0 0 0 0 0 0 0 0 0 0 0 0 0 0 tott
S 719 7 3 1 0 122 1 716 5438 800214 3000 A 0 0 0 0 0 0 0 0 0 0 0 0 0 0 0 0 0 0 0 0 0 0 0 0 0 0 0 0 h_00
S 720 7 3 1 0 125 1 716 5443 800214 3000 A 0 0 0 0 0 0 0 0 0 0 0 0 0 0 0 0 0 0 0 0 0 0 0 0 0 0 0 0 h_01
S 721 1 3 1 0 12 1 716 5448 14 3000 A 0 0 0 0 0 0 0 0 0 0 0 0 0 0 0 0 0 0 0 0 0 0 0 0 0 0 0 0 e_scan_cmp
S 722 6 3 1 0 6 1 716 5459 800014 3000 A 0 0 0 0 0 0 0 0 0 0 0 0 0 0 0 0 0 0 0 0 0 0 0 0 0 0 0 0 nxx
S 723 14 5 0 0 0 1 716 5415 210 400000 A 0 0 0 0 0 0 0 8 6 0 0 0 0 0 0 0 0 0 0 0 0 862 0 582 0 0 0 0 tran_transfer
F 723 6 717 718 719 720 721 722
S 724 6 1 0 0 6 1 716 5463 40800016 3000 A 0 0 0 0 0 0 0 0 0 0 0 0 0 0 0 0 0 0 0 0 0 0 0 0 0 0 0 0 z_e_216
S 725 6 1 0 0 6 1 716 5471 40800016 3000 A 0 0 0 0 0 0 0 0 0 0 0 0 0 0 0 0 0 0 0 0 0 0 0 0 0 0 0 0 z_e_218
S 726 6 1 0 0 6 1 716 5479 40800016 3000 A 0 0 0 0 0 0 0 0 0 0 0 0 0 0 0 0 0 0 0 0 0 0 0 0 0 0 0 0 z_e_220
S 727 23 5 0 0 0 737 582 5487 10 0 A 0 0 0 0 0 0 0 0 0 0 0 0 0 0 0 0 0 0 0 0 0 0 0 0 0 0 0 0 tran_green
S 728 7 3 1 0 134 1 727 5429 800214 3000 A 0 0 0 0 0 0 0 0 0 0 0 0 0 0 0 0 0 0 0 0 0 0 0 0 0 0 0 0 tot
S 729 7 3 1 0 137 1 727 5433 800214 3000 A 0 0 0 0 0 0 0 0 0 0 0 0 0 0 0 0 0 0 0 0 0 0 0 0 0 0 0 0 tott
S 730 7 3 1 0 128 1 727 5438 800214 3000 A 0 0 0 0 0 0 0 0 0 0 0 0 0 0 0 0 0 0 0 0 0 0 0 0 0 0 0 0 h_00
S 731 7 3 1 0 131 1 727 5443 800214 3000 A 0 0 0 0 0 0 0 0 0 0 0 0 0 0 0 0 0 0 0 0 0 0 0 0 0 0 0 0 h_01
S 732 1 3 1 0 9 1 727 5498 14 3000 A 0 0 0 0 0 0 0 0 0 0 0 0 0 0 0 0 0 0 0 0 0 0 0 0 0 0 0 0 e_scan
S 733 7 3 2 0 140 1 727 5505 800214 3000 A 0 0 0 0 0 0 0 0 0 0 0 0 0 0 0 0 0 0 0 0 0 0 0 0 0 0 0 0 g
S 734 1 3 1 0 6 1 727 5507 14 3000 A 0 0 0 0 0 0 0 0 0 0 0 0 0 0 0 0 0 0 0 0 0 0 0 0 0 0 0 0 igreen
S 735 1 3 1 0 6 1 727 5514 14 3000 A 0 0 0 0 0 0 0 0 0 0 0 0 0 0 0 0 0 0 0 0 0 0 0 0 0 0 0 0 invert
S 736 6 3 1 0 6 1 727 5459 800014 3000 A 0 0 0 0 0 0 0 0 0 0 0 0 0 0 0 0 0 0 0 0 0 0 0 0 0 0 0 0 nxx
S 737 14 5 0 0 0 1 727 5487 210 400000 A 0 0 0 0 0 0 0 15 9 0 0 0 0 0 0 0 0 0 0 0 0 1059 0 582 0 0 0 0 tran_green
F 737 9 728 729 730 731 732 733 734 735 736
S 738 6 1 0 0 6 1 727 5479 40800016 3000 A 0 0 0 0 0 0 0 0 0 0 0 0 0 0 0 0 0 0 0 0 0 0 0 0 0 0 0 0 z_e_220
S 739 6 1 0 0 6 1 727 5521 40800016 3000 A 0 0 0 0 0 0 0 0 0 0 0 0 0 0 0 0 0 0 0 0 0 0 0 0 0 0 0 0 z_e_222
S 740 6 1 0 0 6 1 727 5529 40800016 3000 A 0 0 0 0 0 0 0 0 0 0 0 0 0 0 0 0 0 0 0 0 0 0 0 0 0 0 0 0 z_e_224
S 741 23 5 0 0 0 746 582 5537 10 0 A 0 0 0 0 0 0 0 0 0 0 0 0 0 0 0 0 0 0 0 0 0 0 0 0 0 0 0 0 tran_read_htx
S 742 6 3 1 0 6 1 741 5459 800014 3000 A 0 0 0 0 0 0 0 0 0 0 0 0 0 0 0 0 0 0 0 0 0 0 0 0 0 0 0 0 nxx
S 743 7 3 2 0 143 1 741 5438 800214 3000 A 0 0 0 0 0 0 0 0 0 0 0 0 0 0 0 0 0 0 0 0 0 0 0 0 0 0 0 0 h_00
S 744 7 3 2 0 146 1 741 5443 800214 3000 A 0 0 0 0 0 0 0 0 0 0 0 0 0 0 0 0 0 0 0 0 0 0 0 0 0 0 0 0 h_01
S 745 1 3 1 0 149 1 741 5551 14 3000 A 0 0 0 0 0 0 0 0 0 0 0 0 0 0 0 0 0 0 0 0 0 0 0 0 0 0 0 0 h_file
S 746 14 5 0 0 0 1 741 5537 210 400000 A 0 0 0 0 0 0 0 25 4 0 0 0 0 0 0 0 0 0 0 0 0 1222 0 582 0 0 0 0 tran_read_htx
F 746 4 742 743 744 745
S 747 6 1 0 0 6 1 741 5529 40800016 3000 A 0 0 0 0 0 0 0 0 0 0 0 0 0 0 0 0 0 0 0 0 0 0 0 0 0 0 0 0 z_e_224
S 748 6 1 0 0 6 1 741 5558 40800016 3000 A 0 0 0 0 0 0 0 0 0 0 0 0 0 0 0 0 0 0 0 0 0 0 0 0 0 0 0 0 z_e_226
S 749 6 1 0 0 6 1 741 5566 40800016 3000 A 0 0 0 0 0 0 0 0 0 0 0 0 0 0 0 0 0 0 0 0 0 0 0 0 0 0 0 0 z_e_228
S 750 23 5 0 0 0 754 582 5574 10 0 A 0 0 0 0 0 0 0 0 0 0 0 0 0 0 0 0 0 0 0 0 0 0 0 0 0 0 0 0 tran_read_htc
S 751 6 3 1 0 6 1 750 5459 800014 3000 A 0 0 0 0 0 0 0 0 0 0 0 0 0 0 0 0 0 0 0 0 0 0 0 0 0 0 0 0 nxx
S 752 7 3 2 0 151 1 750 5438 800214 3000 A 0 0 0 0 0 0 0 0 0 0 0 0 0 0 0 0 0 0 0 0 0 0 0 0 0 0 0 0 h_00
S 753 1 3 1 0 154 1 750 5551 14 3000 A 0 0 0 0 0 0 0 0 0 0 0 0 0 0 0 0 0 0 0 0 0 0 0 0 0 0 0 0 h_file
S 754 14 5 0 0 0 1 750 5574 210 400000 A 0 0 0 0 0 0 0 30 3 0 0 0 0 0 0 0 0 0 0 0 0 1265 0 582 0 0 0 0 tran_read_htc
F 754 3 751 752 753
S 755 6 1 0 0 6 1 750 5566 40800016 3000 A 0 0 0 0 0 0 0 0 0 0 0 0 0 0 0 0 0 0 0 0 0 0 0 0 0 0 0 0 z_e_228
S 756 6 1 0 0 6 1 750 5588 40800016 3000 A 0 0 0 0 0 0 0 0 0 0 0 0 0 0 0 0 0 0 0 0 0 0 0 0 0 0 0 0 z_e_230
S 757 6 1 0 0 6 1 750 5596 40800016 3000 A 0 0 0 0 0 0 0 0 0 0 0 0 0 0 0 0 0 0 0 0 0 0 0 0 0 0 0 0 z_e_232
S 758 23 5 0 0 0 763 582 5604 10 0 A 0 0 0 0 0 0 0 0 0 0 0 0 0 0 0 0 0 0 0 0 0 0 0 0 0 0 0 0 tran_read_htxy
S 759 6 3 1 0 6 1 758 5619 800014 3000 A 0 0 0 0 0 0 0 0 0 0 0 0 0 0 0 0 0 0 0 0 0 0 0 0 0 0 0 0 nxx1
S 760 6 3 1 0 6 1 758 5624 800014 3000 A 0 0 0 0 0 0 0 0 0 0 0 0 0 0 0 0 0 0 0 0 0 0 0 0 0 0 0 0 nxx2
S 761 7 3 2 0 156 1 758 5443 800214 3000 A 0 0 0 0 0 0 0 0 0 0 0 0 0 0 0 0 0 0 0 0 0 0 0 0 0 0 0 0 h_01
S 762 1 3 1 0 159 1 758 5551 14 3000 A 0 0 0 0 0 0 0 0 0 0 0 0 0 0 0 0 0 0 0 0 0 0 0 0 0 0 0 0 h_file
S 763 14 5 0 0 0 1 758 5604 210 400000 A 0 0 0 0 0 0 0 34 4 0 0 0 0 0 0 0 0 0 0 0 0 1304 0 582 0 0 0 0 tran_read_htxy
F 763 4 759 760 761 762
S 764 6 1 0 0 6 1 758 5596 40800016 3000 A 0 0 0 0 0 0 0 0 0 0 0 0 0 0 0 0 0 0 0 0 0 0 0 0 0 0 0 0 z_e_232
S 765 6 1 0 0 6 1 758 5629 40800016 3000 A 0 0 0 0 0 0 0 0 0 0 0 0 0 0 0 0 0 0 0 0 0 0 0 0 0 0 0 0 z_e_233
S 766 6 1 0 0 6 1 758 5637 40800016 3000 A 0 0 0 0 0 0 0 0 0 0 0 0 0 0 0 0 0 0 0 0 0 0 0 0 0 0 0 0 z_e_236
S 767 6 1 0 0 6 1 758 5645 40800016 3000 A 0 0 0 0 0 0 0 0 0 0 0 0 0 0 0 0 0 0 0 0 0 0 0 0 0 0 0 0 z_e_238
A 13 2 0 0 0 6 585 0 0 0 13 0 0 0 0 0 0 0 0 0
A 38 2 0 0 0 12 613 0 0 0 38 0 0 0 0 0 0 0 0 0
A 40 2 0 0 0 6 615 0 0 0 40 0 0 0 0 0 0 0 0 0
A 45 2 0 0 0 6 623 0 0 0 45 0 0 0 0 0 0 0 0 0
A 46 2 0 0 0 6 628 0 0 0 46 0 0 0 0 0 0 0 0 0
A 47 1 0 1 0 59 624 0 0 0 0 0 0 0 0 0 0 0 0 0
A 48 10 0 0 0 6 47 1 0 0 0 0 0 0 0 0 0 0 0 0
X 1 46
A 49 2 0 0 0 6 629 0 0 0 49 0 0 0 0 0 0 0 0 0
A 50 10 0 0 48 6 47 4 0 0 0 0 0 0 0 0 0 0 0 0
X 1 49
A 51 4 0 0 0 6 50 0 3 0 0 0 0 2 0 0 0 0 0 0
A 52 4 0 0 0 6 48 0 51 0 0 0 0 1 0 0 0 0 0 0
A 53 2 0 0 0 6 630 0 0 0 53 0 0 0 0 0 0 0 0 0
A 54 10 0 0 50 6 47 7 0 0 0 0 0 0 0 0 0 0 0 0
X 1 53
A 55 2 0 0 0 6 631 0 0 0 55 0 0 0 0 0 0 0 0 0
A 56 10 0 0 54 6 47 10 0 0 0 0 0 0 0 0 0 0 0 0
X 1 55
A 57 4 0 0 0 6 56 0 3 0 0 0 0 2 0 0 0 0 0 0
A 58 4 0 0 0 6 54 0 57 0 0 0 0 1 0 0 0 0 0 0
A 59 2 0 0 0 6 632 0 0 0 59 0 0 0 0 0 0 0 0 0
A 60 10 0 0 56 6 47 13 0 0 0 0 0 0 0 0 0 0 0 0
X 1 59
A 61 2 0 0 0 6 633 0 0 0 61 0 0 0 0 0 0 0 0 0
A 62 10 0 0 60 6 47 16 0 0 0 0 0 0 0 0 0 0 0 0
X 1 61
A 63 4 0 0 0 6 62 0 3 0 0 0 0 2 0 0 0 0 0 0
A 64 4 0 0 0 6 60 0 63 0 0 0 0 1 0 0 0 0 0 0
A 65 2 0 0 0 6 634 0 0 0 65 0 0 0 0 0 0 0 0 0
A 66 10 0 0 62 6 47 19 0 0 0 0 0 0 0 0 0 0 0 0
X 1 65
A 67 2 0 0 0 6 635 0 0 0 67 0 0 0 0 0 0 0 0 0
A 68 10 0 0 66 6 47 22 0 0 0 0 0 0 0 0 0 0 0 0
X 1 67
A 69 2 0 0 0 6 636 0 0 0 69 0 0 0 0 0 0 0 0 0
A 70 10 0 0 68 6 47 25 0 0 0 0 0 0 0 0 0 0 0 0
X 1 69
A 71 2 0 0 0 6 637 0 0 0 71 0 0 0 0 0 0 0 0 0
A 72 10 0 0 70 6 47 28 0 0 0 0 0 0 0 0 0 0 0 0
X 1 71
A 73 10 0 0 72 6 47 31 0 0 0 0 0 0 0 0 0 0 0 0
X 1 13
A 76 2 0 0 0 6 641 0 0 0 76 0 0 0 0 0 0 0 0 0
A 77 1 0 3 0 65 642 0 0 0 0 0 0 0 0 0 0 0 0 0
A 78 10 0 0 0 6 77 1 0 0 0 0 0 0 0 0 0 0 0 0
X 1 46
A 79 10 0 0 78 6 77 4 0 0 0 0 0 0 0 0 0 0 0 0
X 1 49
A 80 4 0 0 0 6 79 0 3 0 0 0 0 2 0 0 0 0 0 0
A 81 4 0 0 0 6 78 0 80 0 0 0 0 1 0 0 0 0 0 0
A 82 10 0 0 79 6 77 7 0 0 0 0 0 0 0 0 0 0 0 0
X 1 53
A 83 10 0 0 82 6 77 10 0 0 0 0 0 0 0 0 0 0 0 0
X 1 55
A 84 4 0 0 11 6 83 0 3 0 0 0 0 2 0 0 0 0 0 0
A 85 4 0 0 0 6 82 0 84 0 0 0 0 1 0 0 0 0 0 0
A 86 10 0 0 83 6 77 19 0 0 0 0 0 0 0 0 0 0 0 0
X 1 65
A 87 10 0 0 86 6 77 22 0 0 0 0 0 0 0 0 0 0 0 0
X 1 67
A 88 10 0 0 87 6 77 28 0 0 0 0 0 0 0 0 0 0 0 0
X 1 71
A 89 10 0 0 88 6 77 31 0 0 0 0 0 0 0 0 0 0 0 0
X 1 13
A 92 1 0 3 0 71 649 0 0 0 0 0 0 0 0 0 0 0 0 0
A 93 10 0 0 0 6 92 1 0 0 0 0 0 0 0 0 0 0 0 0
X 1 46
A 94 10 0 0 93 6 92 4 0 0 0 0 0 0 0 0 0 0 0 0
X 1 49
A 95 4 0 0 0 6 94 0 3 0 0 0 0 2 0 0 0 0 0 0
A 96 4 0 0 26 6 93 0 95 0 0 0 0 1 0 0 0 0 0 0
A 97 10 0 0 94 6 92 7 0 0 0 0 0 0 0 0 0 0 0 0
X 1 53
A 98 10 0 0 97 6 92 10 0 0 0 0 0 0 0 0 0 0 0 0
X 1 55
A 99 4 0 0 17 6 98 0 3 0 0 0 0 2 0 0 0 0 0 0
A 100 4 0 0 0 6 97 0 99 0 0 0 0 1 0 0 0 0 0 0
A 101 10 0 0 98 6 92 19 0 0 0 0 0 0 0 0 0 0 0 0
X 1 65
A 102 10 0 0 101 6 92 22 0 0 0 0 0 0 0 0 0 0 0 0
X 1 67
A 103 10 0 0 102 6 92 28 0 0 0 0 0 0 0 0 0 0 0 0
X 1 71
A 104 10 0 0 103 6 92 31 0 0 0 0 0 0 0 0 0 0 0 0
X 1 13
A 107 1 0 3 18 77 656 0 0 0 0 0 0 0 0 0 0 0 0 0
A 108 10 0 0 0 6 107 1 0 0 0 0 0 0 0 0 0 0 0 0
X 1 46
A 109 10 0 0 108 6 107 4 0 0 0 0 0 0 0 0 0 0 0 0
X 1 49
A 110 4 0 0 0 6 109 0 3 0 0 0 0 2 0 0 0 0 0 0
A 111 4 0 0 0 6 108 0 110 0 0 0 0 1 0 0 0 0 0 0
A 112 10 0 0 109 6 107 7 0 0 0 0 0 0 0 0 0 0 0 0
X 1 53
A 113 10 0 0 112 6 107 10 0 0 0 0 0 0 0 0 0 0 0 0
X 1 55
A 114 4 0 0 0 6 113 0 3 0 0 0 0 2 0 0 0 0 0 0
A 115 4 0 0 0 6 112 0 114 0 0 0 0 1 0 0 0 0 0 0
A 116 10 0 0 113 6 107 19 0 0 0 0 0 0 0 0 0 0 0 0
X 1 65
A 117 10 0 0 116 6 107 22 0 0 0 0 0 0 0 0 0 0 0 0
X 1 67
A 118 10 0 0 117 6 107 28 0 0 0 0 0 0 0 0 0 0 0 0
X 1 71
A 119 10 0 0 118 6 107 31 0 0 0 0 0 0 0 0 0 0 0 0
X 1 13
A 122 1 0 3 0 83 663 0 0 0 0 0 0 0 0 0 0 0 0 0
A 123 10 0 0 100 6 122 1 0 0 0 0 0 0 0 0 0 0 0 0
X 1 46
A 124 10 0 0 123 6 122 4 0 0 0 0 0 0 0 0 0 0 0 0
X 1 49
A 125 4 0 0 38 6 124 0 3 0 0 0 0 2 0 0 0 0 0 0
A 126 4 0 0 0 6 123 0 125 0 0 0 0 1 0 0 0 0 0 0
A 127 10 0 0 124 6 122 7 0 0 0 0 0 0 0 0 0 0 0 0
X 1 53
A 128 10 0 0 127 6 122 10 0 0 0 0 0 0 0 0 0 0 0 0
X 1 55
A 129 4 0 0 0 6 128 0 3 0 0 0 0 2 0 0 0 0 0 0
A 130 4 0 0 0 6 127 0 129 0 0 0 0 1 0 0 0 0 0 0
A 131 10 0 0 128 6 122 19 0 0 0 0 0 0 0 0 0 0 0 0
X 1 65
A 132 10 0 0 131 6 122 22 0 0 0 0 0 0 0 0 0 0 0 0
X 1 67
A 133 10 0 0 132 6 122 28 0 0 0 0 0 0 0 0 0 0 0 0
X 1 71
A 134 10 0 0 133 6 122 31 0 0 0 0 0 0 0 0 0 0 0 0
X 1 13
A 137 1 0 3 0 89 670 0 0 0 0 0 0 0 0 0 0 0 0 0
A 138 10 0 0 0 6 137 1 0 0 0 0 0 0 0 0 0 0 0 0
X 1 46
A 139 10 0 0 138 6 137 4 0 0 0 0 0 0 0 0 0 0 0 0
X 1 49
A 140 4 0 0 46 6 139 0 3 0 0 0 0 2 0 0 0 0 0 0
A 141 4 0 0 107 6 138 0 140 0 0 0 0 1 0 0 0 0 0 0
A 142 10 0 0 139 6 137 7 0 0 0 0 0 0 0 0 0 0 0 0
X 1 53
A 143 10 0 0 142 6 137 10 0 0 0 0 0 0 0 0 0 0 0 0
X 1 55
A 144 4 0 0 59 6 143 0 3 0 0 0 0 2 0 0 0 0 0 0
A 145 4 0 0 0 6 142 0 144 0 0 0 0 1 0 0 0 0 0 0
A 146 10 0 0 143 6 137 19 0 0 0 0 0 0 0 0 0 0 0 0
X 1 65
A 147 10 0 0 146 6 137 22 0 0 0 0 0 0 0 0 0 0 0 0
X 1 67
A 148 10 0 0 147 6 137 28 0 0 0 0 0 0 0 0 0 0 0 0
X 1 71
A 149 10 0 0 148 6 137 31 0 0 0 0 0 0 0 0 0 0 0 0
X 1 13
A 152 1 0 3 0 95 677 0 0 0 0 0 0 0 0 0 0 0 0 0
A 153 10 0 0 57 6 152 1 0 0 0 0 0 0 0 0 0 0 0 0
X 1 46
A 154 10 0 0 153 6 152 4 0 0 0 0 0 0 0 0 0 0 0 0
X 1 49
A 155 4 0 0 0 6 154 0 3 0 0 0 0 2 0 0 0 0 0 0
A 156 4 0 0 0 6 153 0 155 0 0 0 0 1 0 0 0 0 0 0
A 157 10 0 0 154 6 152 7 0 0 0 0 0 0 0 0 0 0 0 0
X 1 53
A 158 10 0 0 157 6 152 10 0 0 0 0 0 0 0 0 0 0 0 0
X 1 55
A 159 4 0 0 0 6 158 0 3 0 0 0 0 2 0 0 0 0 0 0
A 160 4 0 0 7 6 157 0 159 0 0 0 0 1 0 0 0 0 0 0
A 161 10 0 0 158 6 152 19 0 0 0 0 0 0 0 0 0 0 0 0
X 1 65
A 162 10 0 0 161 6 152 22 0 0 0 0 0 0 0 0 0 0 0 0
X 1 67
A 163 10 0 0 162 6 152 28 0 0 0 0 0 0 0 0 0 0 0 0
X 1 71
A 164 10 0 0 163 6 152 31 0 0 0 0 0 0 0 0 0 0 0 0
X 1 13
A 167 1 0 3 0 101 684 0 0 0 0 0 0 0 0 0 0 0 0 0
A 168 10 0 0 0 6 167 1 0 0 0 0 0 0 0 0 0 0 0 0
X 1 46
A 169 10 0 0 168 6 167 4 0 0 0 0 0 0 0 0 0 0 0 0
X 1 49
A 170 4 0 0 126 6 169 0 3 0 0 0 0 2 0 0 0 0 0 0
A 171 4 0 0 0 6 168 0 170 0 0 0 0 1 0 0 0 0 0 0
A 172 10 0 0 169 6 167 7 0 0 0 0 0 0 0 0 0 0 0 0
X 1 53
A 173 10 0 0 172 6 167 10 0 0 0 0 0 0 0 0 0 0 0 0
X 1 55
A 174 4 0 0 81 6 173 0 3 0 0 0 0 2 0 0 0 0 0 0
A 175 4 0 0 0 6 172 0 174 0 0 0 0 1 0 0 0 0 0 0
A 176 10 0 0 173 6 167 19 0 0 0 0 0 0 0 0 0 0 0 0
X 1 65
A 177 10 0 0 176 6 167 22 0 0 0 0 0 0 0 0 0 0 0 0
X 1 67
A 178 10 0 0 177 6 167 28 0 0 0 0 0 0 0 0 0 0 0 0
X 1 71
A 179 10 0 0 178 6 167 31 0 0 0 0 0 0 0 0 0 0 0 0
X 1 13
A 182 1 0 3 0 107 691 0 0 0 0 0 0 0 0 0 0 0 0 0
A 183 10 0 0 0 6 182 1 0 0 0 0 0 0 0 0 0 0 0 0
X 1 46
A 184 10 0 0 183 6 182 4 0 0 0 0 0 0 0 0 0 0 0 0
X 1 49
A 185 4 0 0 0 6 184 0 3 0 0 0 0 2 0 0 0 0 0 0
A 186 4 0 0 104 6 183 0 185 0 0 0 0 1 0 0 0 0 0 0
A 187 10 0 0 184 6 182 7 0 0 0 0 0 0 0 0 0 0 0 0
X 1 53
A 188 10 0 0 187 6 182 10 0 0 0 0 0 0 0 0 0 0 0 0
X 1 55
A 189 4 0 0 0 6 188 0 3 0 0 0 0 2 0 0 0 0 0 0
A 190 4 0 0 0 6 187 0 189 0 0 0 0 1 0 0 0 0 0 0
A 191 10 0 0 188 6 182 19 0 0 0 0 0 0 0 0 0 0 0 0
X 1 65
A 192 10 0 0 191 6 182 22 0 0 0 0 0 0 0 0 0 0 0 0
X 1 67
A 193 10 0 0 192 6 182 28 0 0 0 0 0 0 0 0 0 0 0 0
X 1 71
A 194 10 0 0 193 6 182 31 0 0 0 0 0 0 0 0 0 0 0 0
X 1 13
A 197 1 0 3 155 113 698 0 0 0 0 0 0 0 0 0 0 0 0 0
A 198 10 0 0 23 6 197 1 0 0 0 0 0 0 0 0 0 0 0 0
X 1 46
A 199 10 0 0 198 6 197 4 0 0 0 0 0 0 0 0 0 0 0 0
X 1 49
A 200 4 0 0 0 6 199 0 3 0 0 0 0 2 0 0 0 0 0 0
A 201 4 0 0 64 6 198 0 200 0 0 0 0 1 0 0 0 0 0 0
A 202 10 0 0 199 6 197 7 0 0 0 0 0 0 0 0 0 0 0 0
X 1 53
A 203 10 0 0 202 6 197 10 0 0 0 0 0 0 0 0 0 0 0 0
X 1 55
A 204 4 0 0 0 6 203 0 3 0 0 0 0 2 0 0 0 0 0 0
A 205 4 0 0 0 6 202 0 204 0 0 0 0 1 0 0 0 0 0 0
A 206 10 0 0 203 6 197 19 0 0 0 0 0 0 0 0 0 0 0 0
X 1 65
A 207 10 0 0 206 6 197 22 0 0 0 0 0 0 0 0 0 0 0 0
X 1 67
A 208 10 0 0 207 6 197 28 0 0 0 0 0 0 0 0 0 0 0 0
X 1 71
A 209 10 0 0 208 6 197 31 0 0 0 0 0 0 0 0 0 0 0 0
X 1 13
A 210 1 0 0 0 6 726 0 0 0 0 0 0 0 0 0 0 0 0 0
A 211 1 0 0 0 6 722 0 0 0 0 0 0 0 0 0 0 0 0 0
A 212 1 0 0 0 6 724 0 0 0 0 0 0 0 0 0 0 0 0 0
A 213 1 0 0 125 6 725 0 0 0 0 0 0 0 0 0 0 0 0 0
A 214 1 0 0 140 6 740 0 0 0 0 0 0 0 0 0 0 0 0 0
A 215 1 0 0 47 6 736 0 0 0 0 0 0 0 0 0 0 0 0 0
A 216 1 0 0 0 6 738 0 0 0 0 0 0 0 0 0 0 0 0 0
A 217 1 0 0 0 6 739 0 0 0 0 0 0 0 0 0 0 0 0 0
A 218 1 0 0 71 6 749 0 0 0 0 0 0 0 0 0 0 0 0 0
A 219 1 0 0 53 6 742 0 0 0 0 0 0 0 0 0 0 0 0 0
A 220 1 0 0 67 6 747 0 0 0 0 0 0 0 0 0 0 0 0 0
A 221 1 0 0 69 6 748 0 0 0 0 0 0 0 0 0 0 0 0 0
A 222 1 0 0 0 6 757 0 0 0 0 0 0 0 0 0 0 0 0 0
A 223 1 0 0 0 6 751 0 0 0 0 0 0 0 0 0 0 0 0 0
A 224 1 0 0 197 6 755 0 0 0 0 0 0 0 0 0 0 0 0 0
A 225 1 0 0 0 6 756 0 0 0 0 0 0 0 0 0 0 0 0 0
A 226 1 0 0 0 6 767 0 0 0 0 0 0 0 0 0 0 0 0 0
A 227 1 0 0 159 6 759 0 0 0 0 0 0 0 0 0 0 0 0 0
A 228 1 0 0 0 6 764 0 0 0 0 0 0 0 0 0 0 0 0 0
A 229 1 0 0 0 6 760 0 0 0 0 0 0 0 0 0 0 0 0 0
A 230 1 0 0 0 6 765 0 0 0 0 0 0 0 0 0 0 0 0 0
A 231 1 0 0 171 6 766 0 0 0 0 0 0 0 0 0 0 0 0 0
Z
Z
