V26 w90_overlap
11 overlap.F90 S582 0
04/27/2012  15:03:00
use w90_io private
use w90_parameters private
use w90_constants private
use w90_io private
use w90_parameters private
use w90_constants private
enduse
S 582 24 0 0 0 9 1 0 4658 10015 0 A 0 0 0 0 0 0 0 0 0 0 0 0 0 0 0 0 0 0 0 0 0 13 0 0 0 0 0 0 w90_overlap
S 584 23 0 0 0 9 604 582 4684 14 0 A 0 0 0 0 0 0 0 0 0 0 0 0 0 0 0 0 0 0 0 0 0 0 0 582 0 0 0 0 dp
S 585 23 0 0 0 9 608 582 4687 14 0 A 0 0 0 0 0 0 0 0 0 0 0 0 0 0 0 0 0 0 0 0 0 0 0 582 0 0 0 0 cmplx_0
S 586 23 0 0 0 9 609 582 4695 14 0 A 0 0 0 0 0 0 0 0 0 0 0 0 0 0 0 0 0 0 0 0 0 0 0 582 0 0 0 0 cmplx_1
S 588 23 0 0 0 9 925 582 4718 14 0 A 0 0 0 0 0 0 0 0 0 0 0 0 0 0 0 0 0 0 0 0 0 0 0 582 0 0 0 0 disentanglement
S 590 23 0 0 0 9 623 582 4741 14 0 A 0 0 0 0 0 0 0 0 0 0 0 0 0 0 0 0 0 0 0 0 0 0 0 582 0 0 0 0 stdout
R 604 16 1 w90_constants dp
R 608 16 5 w90_constants cmplx_0
R 609 16 6 w90_constants cmplx_1
R 623 6 2 w90_io stdout
R 925 6 236 w90_parameters disentanglement
S 1163 27 0 0 0 9 1167 582 10217 0 0 A 0 0 0 0 0 0 0 0 0 0 0 0 0 0 0 0 0 0 0 0 0 0 0 582 0 0 0 0 overlap_read
S 1164 27 0 0 0 9 1171 582 10230 0 0 A 0 0 0 0 0 0 0 0 0 0 0 0 0 0 0 0 0 0 0 0 0 0 0 582 0 0 0 0 overlap_dealloc
S 1165 27 0 0 0 9 1173 582 10246 0 0 A 0 0 0 0 0 0 0 0 0 0 0 0 0 0 0 0 0 0 0 0 0 0 0 582 0 0 0 0 overlap_project
S 1166 27 0 0 0 9 1175 582 10262 0 0 A 0 0 0 0 0 0 0 0 0 0 0 0 0 0 0 0 0 0 0 0 0 0 0 582 0 0 0 0 overlap_project_gamma
S 1167 23 5 0 0 0 1168 582 10217 0 0 A 0 0 0 0 0 0 0 0 0 0 0 0 0 0 0 0 0 0 0 0 0 0 0 0 0 0 0 0 overlap_read
S 1168 14 5 0 0 0 1 1167 10217 0 400000 A 0 0 0 0 0 0 0 70 0 0 0 0 0 0 0 0 0 0 0 0 0 35 0 582 0 0 0 0 overlap_read
F 1168 0
S 1169 23 5 0 0 0 1170 582 10284 10 0 A 0 0 0 0 0 0 0 0 0 0 0 0 0 0 0 0 0 0 0 0 0 0 0 0 0 0 0 0 overlap_rotate
S 1170 14 5 0 0 0 1 1169 10284 10 400000 A 0 0 0 0 0 0 0 71 0 0 0 0 0 0 0 0 0 0 0 0 0 420 0 582 0 0 0 0 overlap_rotate
F 1170 0
S 1171 23 5 0 0 0 1172 582 10230 0 0 A 0 0 0 0 0 0 0 0 0 0 0 0 0 0 0 0 0 0 0 0 0 0 0 0 0 0 0 0 overlap_dealloc
S 1172 14 5 0 0 0 1 1171 10230 0 400000 A 0 0 0 0 0 0 0 72 0 0 0 0 0 0 0 0 0 0 0 0 0 494 0 582 0 0 0 0 overlap_dealloc
F 1172 0
S 1173 23 5 0 0 0 1174 582 10246 0 0 A 0 0 0 0 0 0 0 0 0 0 0 0 0 0 0 0 0 0 0 0 0 0 0 0 0 0 0 0 overlap_project
S 1174 14 5 0 0 0 1 1173 10246 0 400000 A 0 0 0 0 0 0 0 73 0 0 0 0 0 0 0 0 0 0 0 0 0 537 0 582 0 0 0 0 overlap_project
F 1174 0
S 1175 23 5 0 0 0 1176 582 10262 0 0 A 0 0 0 0 0 0 0 0 0 0 0 0 0 0 0 0 0 0 0 0 0 0 0 0 0 0 0 0 overlap_project_gamma
S 1176 14 5 0 0 0 1 1175 10262 0 400000 A 0 0 0 0 0 0 0 74 0 0 0 0 0 0 0 0 0 0 0 0 0 660 0 582 0 0 0 0 overlap_project_gamma
F 1176 0
Z
Z
