V26 w90_utility
11 utility.F90 S582 0
04/27/2012  15:02:53
use w90_constants private
use w90_constants private
enduse
D 56 21 12 2 38 41 0 0 1 0 0
 0 39 3 3 40 40
 0 39 40 3 40 40
D 59 21 12 2 38 41 0 0 1 0 0
 0 39 3 3 40 40
 0 39 40 3 40 40
D 62 21 12 2 38 41 0 0 1 0 0
 0 39 3 3 40 40
 0 39 40 3 40 40
D 65 21 9 2 42 44 0 0 0 0 0
 0 43 3 3 43 43
 0 43 43 3 43 43
D 68 21 9 2 42 44 0 0 0 0 0
 0 43 3 3 43 43
 0 43 43 3 43 43
D 71 21 9 2 42 44 0 0 0 0 0
 0 43 3 3 43 43
 0 43 43 3 43 43
D 74 21 9 2 42 44 0 0 0 0 0
 0 43 3 3 43 43
 0 43 43 3 43 43
D 77 21 9 1 3 43 0 0 0 0 0
 0 43 3 3 43 43
D 80 21 9 1 3 43 0 0 0 0 0
 0 43 3 3 43 43
D 83 21 9 2 42 44 0 0 0 0 0
 0 43 3 3 43 43
 0 43 43 3 43 43
D 86 21 9 2 42 44 0 0 0 0 0
 0 43 3 3 43 43
 0 43 43 3 43 43
D 89 21 9 2 42 44 0 0 0 0 0
 0 43 3 3 43 43
 0 43 43 3 43 43
D 92 21 9 2 42 44 0 0 0 0 0
 0 43 3 3 43 43
 0 43 43 3 43 43
D 95 21 9 2 42 44 0 0 0 0 0
 0 43 3 3 43 43
 0 43 43 3 43 43
D 98 21 9 1 3 43 0 0 0 0 0
 0 43 3 3 43 43
D 101 21 9 1 3 43 0 0 0 0 0
 0 43 3 3 43 43
D 104 21 9 2 42 44 0 0 0 0 0
 0 43 3 3 43 43
 0 43 43 3 43 43
D 107 21 9 1 3 43 0 0 0 0 0
 0 43 3 3 43 43
D 110 21 9 1 3 43 0 0 0 0 0
 0 43 3 3 43 43
D 113 18 45
D 115 18 45
D 117 18 45
D 119 21 9 1 3 43 0 0 0 0 0
 0 43 3 3 43 43
D 122 21 9 1 3 43 0 0 0 0 0
 0 43 3 3 43 43
D 125 21 9 2 42 44 0 0 0 0 0
 0 43 3 3 43 43
 0 43 43 3 43 43
D 128 21 9 2 42 44 0 0 0 0 0
 0 43 3 3 43 43
 0 43 43 3 43 43
S 582 24 0 0 0 9 1 0 4658 10015 0 A 0 0 0 0 0 0 0 0 0 0 0 0 0 0 0 0 0 0 0 0 0 13 0 0 0 0 0 0 w90_utility
S 584 23 0 0 0 9 598 582 4684 14 0 A 0 0 0 0 0 0 0 0 0 0 0 0 0 0 0 0 0 0 0 0 0 0 0 582 0 0 0 0 dp
R 598 16 1 w90_constants dp
S 611 27 0 0 0 9 633 582 4756 0 0 A 0 0 0 0 0 0 0 0 0 0 0 0 0 0 0 0 0 0 0 0 0 0 0 582 0 0 0 0 utility_inv3
S 612 27 0 0 0 9 641 582 4769 0 0 A 0 0 0 0 0 0 0 0 0 0 0 0 0 0 0 0 0 0 0 0 0 0 0 582 0 0 0 0 utility_recip_lattice
S 613 27 0 0 0 9 646 582 4791 0 0 A 0 0 0 0 0 0 0 0 0 0 0 0 0 0 0 0 0 0 0 0 0 0 0 582 0 0 0 0 utility_compar
S 614 27 0 0 0 9 652 582 4806 0 0 A 0 0 0 0 0 0 0 0 0 0 0 0 0 0 0 0 0 0 0 0 0 0 0 582 0 0 0 0 utility_compute_metric
S 615 27 0 0 0 9 663 582 4829 0 0 A 0 0 0 0 0 0 0 0 0 0 0 0 0 0 0 0 0 0 0 0 0 0 0 582 0 0 0 0 utility_cart_to_frac
S 616 27 0 0 0 9 658 582 4850 0 0 A 0 0 0 0 0 0 0 0 0 0 0 0 0 0 0 0 0 0 0 0 0 0 0 582 0 0 0 0 utility_frac_to_cart
S 617 27 0 0 0 9 677 582 4871 0 0 A 0 0 0 0 0 0 0 0 0 0 0 0 0 0 0 0 0 0 0 0 0 0 0 582 0 0 0 0 utility_string_to_coord
S 618 27 0 0 0 9 673 582 4895 0 0 A 0 0 0 0 0 0 0 0 0 0 0 0 0 0 0 0 0 0 0 0 0 0 0 582 0 0 0 0 utility_lowercase
S 619 27 0 0 0 9 668 582 4913 0 0 A 0 0 0 0 0 0 0 0 0 0 0 0 0 0 0 0 0 0 0 0 0 0 0 582 0 0 0 0 utility_strip
S 620 27 0 0 0 9 622 582 4927 0 0 A 0 0 0 0 0 0 0 0 0 0 0 0 0 0 0 0 0 0 0 0 0 0 0 582 0 0 0 0 utility_zgemm
S 621 27 0 0 0 9 681 582 4941 0 0 A 0 0 0 0 0 0 0 0 0 0 0 0 0 0 0 0 0 0 0 0 0 0 0 582 0 0 0 0 utility_translate_home
S 622 23 5 0 0 0 629 582 4927 0 0 A 0 0 0 0 0 0 0 0 0 0 0 0 0 0 0 0 0 0 0 0 0 0 0 0 0 0 0 0 utility_zgemm
S 623 7 3 2 0 62 1 622 4964 800214 3000 A 0 0 0 0 0 0 0 0 0 0 0 0 0 0 0 0 0 0 0 0 0 0 0 0 0 0 0 0 c
S 624 7 3 1 0 56 1 622 4966 800214 3000 A 0 0 0 0 0 0 0 0 0 0 0 0 0 0 0 0 0 0 0 0 0 0 0 0 0 0 0 0 a
S 625 1 3 1 0 20 1 622 4968 14 3000 A 0 0 0 0 0 0 0 0 0 0 0 0 0 0 0 0 0 0 0 0 0 0 0 0 0 0 0 0 transa
S 626 7 3 1 0 59 1 622 4975 800214 3000 A 0 0 0 0 0 0 0 0 0 0 0 0 0 0 0 0 0 0 0 0 0 0 0 0 0 0 0 0 b
S 627 1 3 1 0 20 1 622 4977 14 3000 A 0 0 0 0 0 0 0 0 0 0 0 0 0 0 0 0 0 0 0 0 0 0 0 0 0 0 0 0 transb
S 628 6 3 1 0 6 1 622 4984 800014 3000 A 0 0 0 0 0 0 0 0 0 0 0 0 0 0 0 0 0 0 0 0 0 0 0 0 0 0 0 0 n
S 629 14 5 0 0 0 1 622 4927 200 400000 A 0 0 0 0 0 0 0 2 6 0 0 0 0 0 0 0 0 0 0 0 0 37 0 582 0 0 0 0 utility_zgemm
F 629 6 623 624 625 626 627 628
S 630 6 1 0 0 6 1 622 4986 40800016 3000 A 0 0 0 0 0 0 0 0 0 0 0 0 0 0 0 0 0 0 0 0 0 0 0 0 0 0 0 0 z_e_38
S 631 6 1 0 0 6 1 622 4993 40800016 3000 A 0 0 0 0 0 0 0 0 0 0 0 0 0 0 0 0 0 0 0 0 0 0 0 0 0 0 0 0 z_e_40
S 632 6 1 0 0 6 1 622 5000 40800016 3000 A 0 0 0 0 0 0 0 0 0 0 0 0 0 0 0 0 0 0 0 0 0 0 0 0 0 0 0 0 z_e_42
S 633 23 5 0 0 0 637 582 4756 0 0 A 0 0 0 0 0 0 0 0 0 0 0 0 0 0 0 0 0 0 0 0 0 0 0 0 0 0 0 0 utility_inv3
S 634 7 3 1 0 65 1 633 4966 800014 3000 A 0 0 0 0 0 0 0 0 0 0 0 0 0 0 0 0 0 0 0 0 0 0 0 0 0 0 0 0 a
S 635 7 3 2 0 68 1 633 4975 800014 3000 A 0 0 0 0 0 0 0 0 0 0 0 0 0 0 0 0 0 0 0 0 0 0 0 0 0 0 0 0 b
S 636 1 3 2 0 9 1 633 5007 14 3000 A 0 0 0 0 0 0 0 0 0 0 0 0 0 0 0 0 0 0 0 0 0 0 0 0 0 0 0 0 det
S 637 14 5 0 0 0 1 633 4756 0 400000 A 0 0 0 0 0 0 0 9 3 0 0 0 0 0 0 0 0 0 0 0 0 72 0 582 0 0 0 0 utility_inv3
F 637 3 634 635 636
S 638 3 0 0 0 6 1 1 0 0 0 A 0 0 0 0 0 0 0 0 0 3 0 0 0 0 0 0 0 0 0 0 0 0 0 0 0 0 0 0 6
S 639 3 0 0 0 6 1 1 0 0 0 A 0 0 0 0 0 0 0 0 0 9 0 0 0 0 0 0 0 0 0 0 0 0 0 0 0 0 0 0 6
S 640 3 0 0 0 6 1 1 0 0 0 A 0 0 0 0 0 0 0 0 0 4 0 0 0 0 0 0 0 0 0 0 0 0 0 0 0 0 0 0 6
S 641 23 5 0 0 0 645 582 4769 0 0 A 0 0 0 0 0 0 0 0 0 0 0 0 0 0 0 0 0 0 0 0 0 0 0 0 0 0 0 0 utility_recip_lattice
S 642 7 3 1 0 71 1 641 5011 800014 3000 A 0 0 0 0 0 0 0 0 0 0 0 0 0 0 0 0 0 0 0 0 0 0 0 0 0 0 0 0 real_lat
S 643 7 3 2 0 74 1 641 5020 800014 3000 A 0 0 0 0 0 0 0 0 0 0 0 0 0 0 0 0 0 0 0 0 0 0 0 0 0 0 0 0 recip_lat
S 644 1 3 2 0 9 1 641 5030 14 3000 A 0 0 0 0 0 0 0 0 0 0 0 0 0 0 0 0 0 0 0 0 0 0 0 0 0 0 0 0 volume
S 645 14 5 0 0 0 1 641 4769 0 400000 A 0 0 0 0 0 0 0 13 3 0 0 0 0 0 0 0 0 0 0 0 0 123 0 582 0 0 0 0 utility_recip_lattice
F 645 3 642 643 644
S 646 23 5 0 0 0 651 582 4791 0 0 A 0 0 0 0 0 0 0 0 0 0 0 0 0 0 0 0 0 0 0 0 0 0 0 0 0 0 0 0 utility_compar
S 647 7 3 1 0 77 1 646 4966 800014 3000 A 0 0 0 0 0 0 0 0 0 0 0 0 0 0 0 0 0 0 0 0 0 0 0 0 0 0 0 0 a
S 648 7 3 1 0 80 1 646 4975 800014 3000 A 0 0 0 0 0 0 0 0 0 0 0 0 0 0 0 0 0 0 0 0 0 0 0 0 0 0 0 0 b
S 649 1 3 2 0 6 1 646 5037 14 3000 A 0 0 0 0 0 0 0 0 0 0 0 0 0 0 0 0 0 0 0 0 0 0 0 0 0 0 0 0 ifpos
S 650 1 3 2 0 6 1 646 5043 14 3000 A 0 0 0 0 0 0 0 0 0 0 0 0 0 0 0 0 0 0 0 0 0 0 0 0 0 0 0 0 ifneg
S 651 14 5 0 0 0 1 646 4791 0 400000 A 0 0 0 0 0 0 0 17 4 0 0 0 0 0 0 0 0 0 0 0 0 166 0 582 0 0 0 0 utility_compar
F 651 4 647 648 649 650
S 652 23 5 0 0 0 657 582 4806 0 0 A 0 0 0 0 0 0 0 0 0 0 0 0 0 0 0 0 0 0 0 0 0 0 0 0 0 0 0 0 utility_compute_metric
S 653 7 3 1 0 83 1 652 5011 800014 3000 A 0 0 0 0 0 0 0 0 0 0 0 0 0 0 0 0 0 0 0 0 0 0 0 0 0 0 0 0 real_lat
S 654 7 3 1 0 86 1 652 5020 800014 3000 A 0 0 0 0 0 0 0 0 0 0 0 0 0 0 0 0 0 0 0 0 0 0 0 0 0 0 0 0 recip_lat
S 655 7 3 2 0 89 1 652 5049 800014 3000 A 0 0 0 0 0 0 0 0 0 0 0 0 0 0 0 0 0 0 0 0 0 0 0 0 0 0 0 0 real_metric
S 656 7 3 2 0 92 1 652 5061 800014 3000 A 0 0 0 0 0 0 0 0 0 0 0 0 0 0 0 0 0 0 0 0 0 0 0 0 0 0 0 0 recip_metric
S 657 14 5 0 0 0 1 652 4806 0 400000 A 0 0 0 0 0 0 0 22 4 0 0 0 0 0 0 0 0 0 0 0 0 196 0 582 0 0 0 0 utility_compute_metric
F 657 4 653 654 655 656
S 658 23 5 0 0 0 662 582 4850 0 0 A 0 0 0 0 0 0 0 0 0 0 0 0 0 0 0 0 0 0 0 0 0 0 0 0 0 0 0 0 utility_frac_to_cart
S 659 7 3 1 0 98 1 658 5074 800014 3000 A 0 0 0 0 0 0 0 0 0 0 0 0 0 0 0 0 0 0 0 0 0 0 0 0 0 0 0 0 frac
S 660 7 3 2 0 101 1 658 5079 800014 3000 A 0 0 0 0 0 0 0 0 0 0 0 0 0 0 0 0 0 0 0 0 0 0 0 0 0 0 0 0 cart
S 661 7 3 1 0 95 1 658 5011 800014 3000 A 0 0 0 0 0 0 0 0 0 0 0 0 0 0 0 0 0 0 0 0 0 0 0 0 0 0 0 0 real_lat
S 662 14 5 0 0 0 1 658 4850 0 400000 A 0 0 0 0 0 0 0 27 3 0 0 0 0 0 0 0 0 0 0 0 0 232 0 582 0 0 0 0 utility_frac_to_cart
F 662 3 659 660 661
S 663 23 5 0 0 0 667 582 4829 0 0 A 0 0 0 0 0 0 0 0 0 0 0 0 0 0 0 0 0 0 0 0 0 0 0 0 0 0 0 0 utility_cart_to_frac
S 664 7 3 1 0 110 1 663 5079 800014 3000 A 0 0 0 0 0 0 0 0 0 0 0 0 0 0 0 0 0 0 0 0 0 0 0 0 0 0 0 0 cart
S 665 7 3 2 0 107 1 663 5074 800014 3000 A 0 0 0 0 0 0 0 0 0 0 0 0 0 0 0 0 0 0 0 0 0 0 0 0 0 0 0 0 frac
S 666 7 3 1 0 104 1 663 5020 800014 3000 A 0 0 0 0 0 0 0 0 0 0 0 0 0 0 0 0 0 0 0 0 0 0 0 0 0 0 0 0 recip_lat
S 667 14 5 0 0 0 1 663 4829 0 400000 A 0 0 0 0 0 0 0 31 3 0 0 0 0 0 0 0 0 0 0 0 0 256 0 582 0 0 0 0 utility_cart_to_frac
F 667 3 664 665 666
S 668 23 5 0 0 9 670 582 4913 0 0 A 0 0 0 0 0 0 0 0 0 0 0 0 0 0 0 0 0 0 0 0 0 0 0 0 0 0 0 0 utility_strip
S 669 1 3 1 0 28 1 668 5084 14 43000 A 0 0 0 0 0 0 0 0 0 0 0 0 0 0 0 0 0 0 0 0 0 0 0 0 0 0 0 0 string
S 670 14 5 0 0 113 1 668 4913 4 400000 A 0 0 0 0 0 0 0 35 1 0 0 671 0 0 0 0 0 0 0 0 0 284 0 582 0 0 0 0 utility_strip
F 670 1 669
S 671 1 3 0 0 113 1 668 4913 14 1003000 A 0 0 0 0 0 0 0 0 0 0 0 0 0 0 0 0 0 0 0 0 0 0 0 0 0 0 0 0 utility_strip
S 672 3 0 0 0 6 1 1 0 0 0 A 0 0 0 0 0 0 0 0 0 120 0 0 0 0 0 0 0 0 0 0 0 0 0 0 0 0 0 0 6
S 673 23 5 0 0 9 675 582 4895 0 0 A 0 0 0 0 0 0 0 0 0 0 0 0 0 0 0 0 0 0 0 0 0 0 0 0 0 0 0 0 utility_lowercase
S 674 1 3 1 0 28 1 673 5084 14 43000 A 0 0 0 0 0 0 0 0 0 0 0 0 0 0 0 0 0 0 0 0 0 0 0 0 0 0 0 0 string
S 675 14 5 0 0 115 1 673 4895 4 400000 A 0 0 0 0 0 0 0 37 1 0 0 676 0 0 0 0 0 0 0 0 0 322 0 582 0 0 0 0 utility_lowercase
F 675 1 674
S 676 1 3 0 0 115 1 673 4895 14 1003000 A 0 0 0 0 0 0 0 0 0 0 0 0 0 0 0 0 0 0 0 0 0 0 0 0 0 0 0 0 utility_lowercase
S 677 23 5 0 0 0 680 582 4871 0 0 A 0 0 0 0 0 0 0 0 0 0 0 0 0 0 0 0 0 0 0 0 0 0 0 0 0 0 0 0 utility_string_to_coord
S 678 1 3 1 0 117 1 677 5091 14 3000 A 0 0 0 0 0 0 0 0 0 0 0 0 0 0 0 0 0 0 0 0 0 0 0 0 0 0 0 0 string_tmp
S 679 7 3 2 0 119 1 677 5102 800014 3000 A 0 0 0 0 0 0 0 0 0 0 0 0 0 0 0 0 0 0 0 0 0 0 0 0 0 0 0 0 outvec
S 680 14 5 0 0 0 1 677 4871 0 400000 A 0 0 0 0 0 0 0 39 2 0 0 0 0 0 0 0 0 0 0 0 0 360 0 582 0 0 0 0 utility_string_to_coord
F 680 2 678 679
S 681 23 5 0 0 0 685 582 4941 0 0 A 0 0 0 0 0 0 0 0 0 0 0 0 0 0 0 0 0 0 0 0 0 0 0 0 0 0 0 0 utility_translate_home
S 682 7 3 3 0 122 1 681 5109 800014 3000 A 0 0 0 0 0 0 0 0 0 0 0 0 0 0 0 0 0 0 0 0 0 0 0 0 0 0 0 0 vec
S 683 7 3 1 0 125 1 681 5011 800014 3000 A 0 0 0 0 0 0 0 0 0 0 0 0 0 0 0 0 0 0 0 0 0 0 0 0 0 0 0 0 real_lat
S 684 7 3 1 0 128 1 681 5020 800014 3000 A 0 0 0 0 0 0 0 0 0 0 0 0 0 0 0 0 0 0 0 0 0 0 0 0 0 0 0 0 recip_lat
S 685 14 5 0 0 0 1 681 4941 0 400000 A 0 0 0 0 0 0 0 42 3 0 0 0 0 0 0 0 0 0 0 0 0 431 0 582 0 0 0 0 utility_translate_home
F 685 3 682 683 684
A 38 1 0 0 0 6 632 0 0 0 0 0 0 0 0 0 0 0 0 0
A 39 1 0 0 0 6 628 0 0 0 0 0 0 0 0 0 0 0 0 0
A 40 1 0 0 0 6 630 0 0 0 0 0 0 0 0 0 0 0 0 0
A 41 1 0 0 0 6 631 0 0 0 0 0 0 0 0 0 0 0 0 0
A 42 2 0 0 0 6 640 0 0 0 42 0 0 0 0 0 0 0 0 0
A 43 2 0 0 0 6 638 0 0 0 43 0 0 0 0 0 0 0 0 0
A 44 2 0 0 0 6 639 0 0 0 44 0 0 0 0 0 0 0 0 0
A 45 2 0 0 0 6 672 0 0 0 45 0 0 0 0 0 0 0 0 0
Z
Z
