V26 w90_disentangle
15 disentangle.F90 S582 0
04/27/2012  15:03:04
use w90_io private
use w90_constants private
use w90_io private
use w90_constants private
enduse
D 355 21 9 2 552 551 0 1 0 0 1
 541 544 549 541 544 542
 545 548 550 545 548 546
D 358 21 6 1 0 88 0 0 0 0 0
 0 88 0 3 88 0
D 361 21 16 2 567 566 0 1 0 0 1
 556 559 564 556 559 557
 560 563 565 560 563 561
D 364 21 6 1 0 88 0 0 0 0 0
 0 88 0 3 88 0
D 367 21 6 1 576 575 0 1 0 0 1
 570 573 574 570 573 571
D 370 21 6 1 0 50 0 0 0 0 0
 0 50 0 3 50 0
D 373 21 6 1 585 584 0 1 0 0 1
 579 582 583 579 582 580
D 376 21 6 1 0 50 0 0 0 0 0
 0 50 0 3 50 0
D 379 21 6 2 600 599 0 1 0 0 1
 589 592 597 589 592 590
 593 596 598 593 596 594
D 382 21 6 1 0 88 0 0 0 0 0
 0 88 0 3 88 0
D 385 21 6 2 615 614 0 1 0 0 1
 604 607 612 604 607 605
 608 611 613 608 611 609
D 388 21 6 1 0 88 0 0 0 0 0
 0 88 0 3 88 0
S 582 24 0 0 0 9 1 0 4658 10015 0 A 0 0 0 0 0 0 0 0 0 0 0 0 0 0 0 0 0 0 0 0 0 13 0 0 0 0 0 0 w90_disentangle
S 584 23 0 0 0 9 607 582 4688 14 0 A 0 0 0 0 0 0 0 0 0 0 0 0 0 0 0 0 0 0 0 0 0 0 0 582 0 0 0 0 dp
S 585 23 0 0 0 9 609 582 4691 14 0 A 0 0 0 0 0 0 0 0 0 0 0 0 0 0 0 0 0 0 0 0 0 0 0 582 0 0 0 0 twopi
S 586 23 0 0 0 9 610 582 4697 14 0 A 0 0 0 0 0 0 0 0 0 0 0 0 0 0 0 0 0 0 0 0 0 0 0 582 0 0 0 0 cmplx_i
S 587 23 0 0 0 9 611 582 4705 14 0 A 0 0 0 0 0 0 0 0 0 0 0 0 0 0 0 0 0 0 0 0 0 0 0 582 0 0 0 0 cmplx_0
S 588 23 0 0 0 9 612 582 4713 14 0 A 0 0 0 0 0 0 0 0 0 0 0 0 0 0 0 0 0 0 0 0 0 0 0 582 0 0 0 0 cmplx_1
S 590 23 0 0 0 6 660 582 4728 14 0 A 0 0 0 0 0 0 0 0 0 0 0 0 0 0 0 0 0 0 0 0 0 0 0 582 0 0 0 0 io_error
S 591 23 0 0 0 9 626 582 4737 14 0 A 0 0 0 0 0 0 0 0 0 0 0 0 0 0 0 0 0 0 0 0 0 0 0 582 0 0 0 0 stdout
S 592 23 0 0 0 6 653 582 4744 14 0 A 0 0 0 0 0 0 0 0 0 0 0 0 0 0 0 0 0 0 0 0 0 0 0 582 0 0 0 0 io_stopwatch
S 594 3 0 0 0 6 1 1 0 0 0 A 0 0 0 0 0 0 0 0 0 8 0 0 0 0 0 0 0 0 0 0 0 0 0 0 0 0 0 0 6
R 607 16 1 w90_constants dp
R 609 16 3 w90_constants twopi
R 610 16 4 w90_constants cmplx_i
R 611 16 5 w90_constants cmplx_0
R 612 16 6 w90_constants cmplx_1
R 626 6 2 w90_io stdout
R 653 14 29 w90_io io_stopwatch
R 660 14 36 w90_io io_error
S 671 3 0 0 0 6 1 1 0 0 0 A 0 0 0 0 0 0 0 0 0 20 0 0 0 0 0 0 0 0 0 0 0 0 0 0 0 0 0 0 6
S 672 3 0 0 0 6 1 1 0 0 0 A 0 0 0 0 0 0 0 0 0 18 0 0 0 0 0 0 0 0 0 0 0 0 0 0 0 0 0 0 6
S 673 3 0 0 0 6 1 1 0 0 0 A 0 0 0 0 0 0 0 0 0 13 0 0 0 0 0 0 0 0 0 0 0 0 0 0 0 0 0 0 6
S 674 3 0 0 0 6 1 1 0 0 0 A 0 0 0 0 0 0 0 0 0 14 0 0 0 0 0 0 0 0 0 0 0 0 0 0 0 0 0 0 6
S 675 3 0 0 0 6 1 1 0 0 0 A 0 0 0 0 0 0 0 0 0 17 0 0 0 0 0 0 0 0 0 0 0 0 0 0 0 0 0 0 6
S 676 3 0 0 0 6 1 1 0 0 0 A 0 0 0 0 0 0 0 0 0 7 0 0 0 0 0 0 0 0 0 0 0 0 0 0 0 0 0 0 6
S 678 3 0 0 0 6 1 1 0 0 0 A 0 0 0 0 0 0 0 0 0 24 0 0 0 0 0 0 0 0 0 0 0 0 0 0 0 0 0 0 6
S 679 3 0 0 0 6 1 1 0 0 0 A 0 0 0 0 0 0 0 0 0 19 0 0 0 0 0 0 0 0 0 0 0 0 0 0 0 0 0 0 6
S 680 3 0 0 0 6 1 1 0 0 0 A 0 0 0 0 0 0 0 0 0 23 0 0 0 0 0 0 0 0 0 0 0 0 0 0 0 0 0 0 6
S 1166 7 6 0 0 355 1 582 10221 10a00014 51 A 0 0 0 0 0 0 1170 0 0 0 1172 0 0 0 0 0 0 0 0 1169 0 0 1171 582 0 0 0 0 eigval_opt
S 1167 6 4 0 0 6 1168 582 10232 40800016 0 A 0 0 0 0 0 0 0 0 0 0 0 0 1208 0 0 0 0 0 0 0 0 0 0 582 0 0 0 0 z_b_0_1
S 1168 6 4 0 0 6 1173 582 10240 40800016 0 A 0 0 0 0 0 4 0 0 0 0 0 0 1208 0 0 0 0 0 0 0 0 0 0 582 0 0 0 0 z_b_1_1
S 1169 8 4 0 0 358 1178 582 10248 40822014 1020 A 0 0 0 0 0 0 0 0 0 0 0 0 1208 0 0 0 0 0 0 0 0 0 0 582 0 0 0 0 eigval_opt$sd
S 1170 6 4 0 0 7 1171 582 10262 40802011 1020 A 0 0 0 0 0 0 0 0 0 0 0 0 1208 0 0 0 0 0 0 0 0 0 0 582 0 0 0 0 eigval_opt$p
S 1171 6 4 0 0 7 1169 582 10275 40802010 1020 A 0 0 0 0 0 0 0 0 0 0 0 0 1208 0 0 0 0 0 0 0 0 0 0 582 0 0 0 0 eigval_opt$o
S 1172 22 1 0 0 9 1 582 10288 40000000 1000 A 0 0 0 0 0 0 0 1166 0 0 0 0 1169 0 0 0 0 0 0 0 0 0 0 582 0 0 0 0 eigval_opt$arrdsc
S 1173 6 4 0 0 16 1175 582 10306 14 0 A 0 0 0 0 0 8 0 0 0 0 0 0 1208 0 0 0 0 0 0 0 0 0 0 582 0 0 0 0 linner
S 1174 7 6 0 0 361 1 582 10313 10a00014 51 A 0 0 0 0 0 0 1178 0 0 0 1180 0 0 0 0 0 0 0 0 1177 0 0 1179 582 0 0 0 0 lfrozen
S 1175 6 4 0 0 6 1176 582 10321 40800016 0 A 0 0 0 0 0 12 0 0 0 0 0 0 1208 0 0 0 0 0 0 0 0 0 0 582 0 0 0 0 z_b_2_1
S 1176 6 4 0 0 6 1182 582 10329 40800016 0 A 0 0 0 0 0 16 0 0 0 0 0 0 1208 0 0 0 0 0 0 0 0 0 0 582 0 0 0 0 z_b_3_1
S 1177 8 4 0 0 364 1184 582 10337 40822014 1020 A 0 0 0 0 0 0 0 0 0 0 0 0 1208 0 0 0 0 0 0 0 0 0 0 582 0 0 0 0 lfrozen$sd
S 1178 6 4 0 0 7 1179 582 10348 40802011 1020 A 0 0 0 0 0 0 0 0 0 0 0 0 1208 0 0 0 0 0 0 0 0 0 0 582 0 0 0 0 lfrozen$p
S 1179 6 4 0 0 7 1177 582 10358 40802010 1020 A 0 0 0 0 0 0 0 0 0 0 0 0 1208 0 0 0 0 0 0 0 0 0 0 582 0 0 0 0 lfrozen$o
S 1180 22 1 0 0 6 1 582 10368 40000000 1000 A 0 0 0 0 0 0 0 1174 0 0 0 0 1177 0 0 0 0 0 0 0 0 0 0 582 0 0 0 0 lfrozen$arrdsc
S 1181 7 6 0 0 367 1 582 10383 10a00014 51 A 0 0 0 0 0 0 1184 0 0 0 1186 0 0 0 0 0 0 0 0 1183 0 0 1185 582 0 0 0 0 nfirstwin
S 1182 6 4 0 0 6 1188 582 10393 40800016 0 A 0 0 0 0 0 20 0 0 0 0 0 0 1208 0 0 0 0 0 0 0 0 0 0 582 0 0 0 0 z_b_4_1
S 1183 8 4 0 0 370 1190 582 10401 40822014 1020 A 0 0 0 0 0 0 0 0 0 0 0 0 1208 0 0 0 0 0 0 0 0 0 0 582 0 0 0 0 nfirstwin$sd
S 1184 6 4 0 0 7 1185 582 10414 40802011 1020 A 0 0 0 0 0 0 0 0 0 0 0 0 1208 0 0 0 0 0 0 0 0 0 0 582 0 0 0 0 nfirstwin$p
S 1185 6 4 0 0 7 1183 582 10426 40802010 1020 A 0 0 0 0 0 0 0 0 0 0 0 0 1208 0 0 0 0 0 0 0 0 0 0 582 0 0 0 0 nfirstwin$o
S 1186 22 1 0 0 6 1 582 10438 40000000 1000 A 0 0 0 0 0 0 0 1181 0 0 0 0 1183 0 0 0 0 0 0 0 0 0 0 582 0 0 0 0 nfirstwin$arrdsc
S 1187 7 6 0 0 373 1 582 10455 10a00014 51 A 0 0 0 0 0 0 1190 0 0 0 1192 0 0 0 0 0 0 0 0 1189 0 0 1191 582 0 0 0 0 ndimfroz
S 1188 6 4 0 0 6 1194 582 10464 40800016 0 A 0 0 0 0 0 24 0 0 0 0 0 0 1208 0 0 0 0 0 0 0 0 0 0 582 0 0 0 0 z_b_5_1
S 1189 8 4 0 0 376 1197 582 10472 40822014 1020 A 0 0 0 0 0 0 0 0 0 0 0 0 1208 0 0 0 0 0 0 0 0 0 0 582 0 0 0 0 ndimfroz$sd
S 1190 6 4 0 0 7 1191 582 10484 40802011 1020 A 0 0 0 0 0 0 0 0 0 0 0 0 1208 0 0 0 0 0 0 0 0 0 0 582 0 0 0 0 ndimfroz$p
S 1191 6 4 0 0 7 1189 582 10495 40802010 1020 A 0 0 0 0 0 0 0 0 0 0 0 0 1208 0 0 0 0 0 0 0 0 0 0 582 0 0 0 0 ndimfroz$o
S 1192 22 1 0 0 6 1 582 10506 40000000 1000 A 0 0 0 0 0 0 0 1187 0 0 0 0 1189 0 0 0 0 0 0 0 0 0 0 582 0 0 0 0 ndimfroz$arrdsc
S 1193 7 6 0 0 379 1 582 10522 10a00014 51 A 0 0 0 0 0 0 1197 0 0 0 1199 0 0 0 0 0 0 0 0 1196 0 0 1198 582 0 0 0 0 indxfroz
S 1194 6 4 0 0 6 1195 582 10531 40800016 0 A 0 0 0 0 0 28 0 0 0 0 0 0 1208 0 0 0 0 0 0 0 0 0 0 582 0 0 0 0 z_b_6_1
S 1195 6 4 0 0 6 1201 582 10539 40800016 0 A 0 0 0 0 0 32 0 0 0 0 0 0 1208 0 0 0 0 0 0 0 0 0 0 582 0 0 0 0 z_b_7_1
S 1196 8 4 0 0 382 1204 582 10547 40822014 1020 A 0 0 0 0 0 0 0 0 0 0 0 0 1208 0 0 0 0 0 0 0 0 0 0 582 0 0 0 0 indxfroz$sd
S 1197 6 4 0 0 7 1198 582 10559 40802011 1020 A 0 0 0 0 0 0 0 0 0 0 0 0 1208 0 0 0 0 0 0 0 0 0 0 582 0 0 0 0 indxfroz$p
S 1198 6 4 0 0 7 1196 582 10570 40802010 1020 A 0 0 0 0 0 0 0 0 0 0 0 0 1208 0 0 0 0 0 0 0 0 0 0 582 0 0 0 0 indxfroz$o
S 1199 22 1 0 0 6 1 582 10581 40000000 1000 A 0 0 0 0 0 0 0 1193 0 0 0 0 1196 0 0 0 0 0 0 0 0 0 0 582 0 0 0 0 indxfroz$arrdsc
S 1200 7 6 0 0 385 1 582 10597 10a00014 51 A 0 0 0 0 0 0 1204 0 0 0 1206 0 0 0 0 0 0 0 0 1203 0 0 1205 582 0 0 0 0 indxnfroz
S 1201 6 4 0 0 6 1202 582 10607 40800016 0 A 0 0 0 0 0 36 0 0 0 0 0 0 1208 0 0 0 0 0 0 0 0 0 0 582 0 0 0 0 z_b_8_1
S 1202 6 4 0 0 6 1 582 10615 40800016 0 A 0 0 0 0 0 40 0 0 0 0 0 0 1208 0 0 0 0 0 0 0 0 0 0 582 0 0 0 0 z_b_9_1
S 1203 8 4 0 0 388 1167 582 10623 40822014 1020 A 0 0 0 0 0 0 0 0 0 0 0 0 1208 0 0 0 0 0 0 0 0 0 0 582 0 0 0 0 indxnfroz$sd
S 1204 6 4 0 0 7 1205 582 10636 40802011 1020 A 0 0 0 0 0 0 0 0 0 0 0 0 1208 0 0 0 0 0 0 0 0 0 0 582 0 0 0 0 indxnfroz$p
S 1205 6 4 0 0 7 1203 582 10648 40802010 1020 A 0 0 0 0 0 0 0 0 0 0 0 0 1208 0 0 0 0 0 0 0 0 0 0 582 0 0 0 0 indxnfroz$o
S 1206 22 1 0 0 6 1 582 10660 40000000 1000 A 0 0 0 0 0 0 0 1200 0 0 0 0 1203 0 0 0 0 0 0 0 0 0 0 582 0 0 0 0 indxnfroz$arrdsc
S 1207 27 0 0 0 9 1209 582 10677 0 0 A 0 0 0 0 0 0 0 0 0 0 0 0 0 0 0 0 0 0 0 0 0 0 0 582 0 0 0 0 dis_main
S 1208 11 0 0 0 9 1082 582 10686 40800010 801000 A 0 0 0 0 0 668 0 0 1170 1202 0 0 0 0 0 0 0 0 0 0 0 0 0 0 0 0 0 0 _w90_disentangle$4
S 1209 23 5 0 0 0 1210 582 10677 0 0 A 0 0 0 0 0 0 0 0 0 0 0 0 0 0 0 0 0 0 0 0 0 0 0 0 0 0 0 0 dis_main
S 1210 14 5 0 0 0 1 1209 10677 0 400000 A 0 0 0 0 0 0 0 70 0 0 0 0 0 0 0 0 0 0 0 0 0 40 0 582 0 0 0 0 dis_main
F 1210 0
S 1211 23 5 0 0 0 1212 582 10705 10 0 A 0 0 0 0 0 0 0 0 0 0 0 0 0 0 0 0 0 0 0 0 0 0 0 0 0 0 0 0 dis_windows
S 1212 14 5 0 0 0 1 1211 10705 10 400000 A 0 0 0 0 0 0 0 71 0 0 0 0 0 0 0 0 0 0 0 0 0 567 0 582 0 0 0 0 dis_windows
F 1212 0
S 1213 23 5 0 0 0 1214 582 10717 10 0 A 0 0 0 0 0 0 0 0 0 0 0 0 0 0 0 0 0 0 0 0 0 0 0 0 0 0 0 0 dis_project
S 1214 14 5 0 0 0 1 1213 10717 10 400000 A 0 0 0 0 0 0 0 72 0 0 0 0 0 0 0 0 0 0 0 0 0 844 0 582 0 0 0 0 dis_project
F 1214 0
S 1215 23 5 0 0 0 1216 582 10729 10 0 A 0 0 0 0 0 0 0 0 0 0 0 0 0 0 0 0 0 0 0 0 0 0 0 0 0 0 0 0 dis_proj_froz
S 1216 14 5 0 0 0 1 1215 10729 10 400000 A 0 0 0 0 0 0 0 73 0 0 0 0 0 0 0 0 0 0 0 0 0 1047 0 582 0 0 0 0 dis_proj_froz
F 1216 0
S 1217 23 5 0 0 0 1218 582 10743 10 0 A 0 0 0 0 0 0 0 0 0 0 0 0 0 0 0 0 0 0 0 0 0 0 0 0 0 0 0 0 dis_extract
S 1218 14 5 0 0 0 1 1217 10743 10 400000 A 0 0 0 0 0 0 0 74 0 0 0 0 0 0 0 0 0 0 0 0 0 1426 0 582 0 0 0 0 dis_extract
F 1218 0
S 1219 23 5 0 0 0 1220 582 10755 10 0 A 0 0 0 0 0 0 0 0 0 0 0 0 0 0 0 0 0 0 0 0 0 0 0 0 0 0 0 0 dis_extract_gamma
S 1220 14 5 0 0 0 1 1219 10755 10 400000 A 0 0 0 0 0 0 0 75 0 0 0 0 0 0 0 0 0 0 0 0 0 2213 0 582 0 0 0 0 dis_extract_gamma
F 1220 0
A 13 2 0 0 0 6 594 0 0 0 13 0 0 0 0 0 0 0 0 0
A 49 2 0 0 0 6 671 0 0 0 49 0 0 0 0 0 0 0 0 0
A 50 2 0 0 0 6 672 0 0 0 50 0 0 0 0 0 0 0 0 0
A 53 2 0 0 0 6 673 0 0 0 53 0 0 0 0 0 0 0 0 0
A 55 2 0 0 0 6 674 0 0 0 55 0 0 0 0 0 0 0 0 0
A 59 2 0 0 0 6 675 0 0 0 59 0 0 0 0 0 0 0 0 0
A 61 2 0 0 0 6 676 0 0 0 61 0 0 0 0 0 0 0 0 0
A 88 2 0 0 0 6 678 0 0 0 88 0 0 0 0 0 0 0 0 0
A 96 2 0 0 0 6 679 0 0 0 96 0 0 0 0 0 0 0 0 0
A 101 2 0 0 0 6 680 0 0 0 101 0 0 0 0 0 0 0 0 0
A 540 1 0 3 28 358 1169 0 0 0 0 0 0 0 0 0 0 0 0 0
A 541 10 0 0 452 6 540 4 0 0 0 0 0 0 0 0 0 0 0 0
X 1 53
A 542 10 0 0 541 6 540 7 0 0 0 0 0 0 0 0 0 0 0 0
X 1 55
A 543 4 0 0 0 6 542 0 3 0 0 0 0 2 0 0 0 0 0 0
A 544 4 0 0 0 6 541 0 543 0 0 0 0 1 0 0 0 0 0 0
A 545 10 0 0 542 6 540 16 0 0 0 0 0 0 0 0 0 0 0 0
X 1 96
A 546 10 0 0 545 6 540 19 0 0 0 0 0 0 0 0 0 0 0 0
X 1 49
A 547 4 0 0 0 6 546 0 3 0 0 0 0 2 0 0 0 0 0 0
A 548 4 0 0 272 6 545 0 547 0 0 0 0 1 0 0 0 0 0 0
A 549 10 0 0 546 6 540 10 0 0 0 0 0 0 0 0 0 0 0 0
X 1 59
A 550 10 0 0 549 6 540 22 0 0 0 0 0 0 0 0 0 0 0 0
X 1 101
A 551 10 0 0 550 6 540 13 0 0 0 0 0 0 0 0 0 0 0 0
X 1 61
A 552 10 0 0 551 6 540 1 0 0 0 0 0 0 0 0 0 0 0 0
X 1 13
A 555 1 0 3 530 364 1177 0 0 0 0 0 0 0 0 0 0 0 0 0
A 556 10 0 0 469 6 555 4 0 0 0 0 0 0 0 0 0 0 0 0
X 1 53
A 557 10 0 0 556 6 555 7 0 0 0 0 0 0 0 0 0 0 0 0
X 1 55
A 558 4 0 0 170 6 557 0 3 0 0 0 0 2 0 0 0 0 0 0
A 559 4 0 0 279 6 556 0 558 0 0 0 0 1 0 0 0 0 0 0
A 560 10 0 0 557 6 555 16 0 0 0 0 0 0 0 0 0 0 0 0
X 1 96
A 561 10 0 0 560 6 555 19 0 0 0 0 0 0 0 0 0 0 0 0
X 1 49
A 562 4 0 0 470 6 561 0 3 0 0 0 0 2 0 0 0 0 0 0
A 563 4 0 0 0 6 560 0 562 0 0 0 0 1 0 0 0 0 0 0
A 564 10 0 0 561 6 555 10 0 0 0 0 0 0 0 0 0 0 0 0
X 1 59
A 565 10 0 0 564 6 555 22 0 0 0 0 0 0 0 0 0 0 0 0
X 1 101
A 566 10 0 0 565 6 555 13 0 0 0 0 0 0 0 0 0 0 0 0
X 1 61
A 567 10 0 0 566 6 555 1 0 0 0 0 0 0 0 0 0 0 0 0
X 1 13
A 569 1 0 1 0 370 1183 0 0 0 0 0 0 0 0 0 0 0 0 0
A 570 10 0 0 0 6 569 4 0 0 0 0 0 0 0 0 0 0 0 0
X 1 53
A 571 10 0 0 570 6 569 7 0 0 0 0 0 0 0 0 0 0 0 0
X 1 55
A 572 4 0 0 0 6 571 0 3 0 0 0 0 2 0 0 0 0 0 0
A 573 4 0 0 0 6 570 0 572 0 0 0 0 1 0 0 0 0 0 0
A 574 10 0 0 571 6 569 10 0 0 0 0 0 0 0 0 0 0 0 0
X 1 59
A 575 10 0 0 574 6 569 13 0 0 0 0 0 0 0 0 0 0 0 0
X 1 61
A 576 10 0 0 575 6 569 1 0 0 0 0 0 0 0 0 0 0 0 0
X 1 13
A 578 1 0 1 437 376 1189 0 0 0 0 0 0 0 0 0 0 0 0 0
A 579 10 0 0 492 6 578 4 0 0 0 0 0 0 0 0 0 0 0 0
X 1 53
A 580 10 0 0 579 6 578 7 0 0 0 0 0 0 0 0 0 0 0 0
X 1 55
A 581 4 0 0 0 6 580 0 3 0 0 0 0 2 0 0 0 0 0 0
A 582 4 0 0 0 6 579 0 581 0 0 0 0 1 0 0 0 0 0 0
A 583 10 0 0 580 6 578 10 0 0 0 0 0 0 0 0 0 0 0 0
X 1 59
A 584 10 0 0 583 6 578 13 0 0 0 0 0 0 0 0 0 0 0 0
X 1 61
A 585 10 0 0 584 6 578 1 0 0 0 0 0 0 0 0 0 0 0 0
X 1 13
A 588 1 0 3 311 382 1196 0 0 0 0 0 0 0 0 0 0 0 0 0
A 589 10 0 0 0 6 588 4 0 0 0 0 0 0 0 0 0 0 0 0
X 1 53
A 590 10 0 0 589 6 588 7 0 0 0 0 0 0 0 0 0 0 0 0
X 1 55
A 591 4 0 0 0 6 590 0 3 0 0 0 0 2 0 0 0 0 0 0
A 592 4 0 0 415 6 589 0 591 0 0 0 0 1 0 0 0 0 0 0
A 593 10 0 0 590 6 588 16 0 0 0 0 0 0 0 0 0 0 0 0
X 1 96
A 594 10 0 0 593 6 588 19 0 0 0 0 0 0 0 0 0 0 0 0
X 1 49
A 595 4 0 0 0 6 594 0 3 0 0 0 0 2 0 0 0 0 0 0
A 596 4 0 0 0 6 593 0 595 0 0 0 0 1 0 0 0 0 0 0
A 597 10 0 0 594 6 588 10 0 0 0 0 0 0 0 0 0 0 0 0
X 1 59
A 598 10 0 0 597 6 588 22 0 0 0 0 0 0 0 0 0 0 0 0
X 1 101
A 599 10 0 0 598 6 588 13 0 0 0 0 0 0 0 0 0 0 0 0
X 1 61
A 600 10 0 0 599 6 588 1 0 0 0 0 0 0 0 0 0 0 0 0
X 1 13
A 603 1 0 3 0 388 1203 0 0 0 0 0 0 0 0 0 0 0 0 0
A 604 10 0 0 0 6 603 4 0 0 0 0 0 0 0 0 0 0 0 0
X 1 53
A 605 10 0 0 604 6 603 7 0 0 0 0 0 0 0 0 0 0 0 0
X 1 55
A 606 4 0 0 577 6 605 0 3 0 0 0 0 2 0 0 0 0 0 0
A 607 4 0 0 531 6 604 0 606 0 0 0 0 1 0 0 0 0 0 0
A 608 10 0 0 605 6 603 16 0 0 0 0 0 0 0 0 0 0 0 0
X 1 96
A 609 10 0 0 608 6 603 19 0 0 0 0 0 0 0 0 0 0 0 0
X 1 49
A 610 4 0 0 0 6 609 0 3 0 0 0 0 2 0 0 0 0 0 0
A 611 4 0 0 0 6 608 0 610 0 0 0 0 1 0 0 0 0 0 0
A 612 10 0 0 609 6 603 10 0 0 0 0 0 0 0 0 0 0 0 0
X 1 59
A 613 10 0 0 612 6 603 22 0 0 0 0 0 0 0 0 0 0 0 0
X 1 101
A 614 10 0 0 613 6 603 13 0 0 0 0 0 0 0 0 0 0 0 0
X 1 61
A 615 10 0 0 614 6 603 1 0 0 0 0 0 0 0 0 0 0 0 0
X 1 13
Z
Z
