
     Program PHONON    v.4.0.3  starts ...
     Today is 15May2012 at 23:48:49 

     Parallel version (MPI)

     Number of processors in use:      24
     R & G space division:  proc/pool =   24

     Ultrasoft (Vanderbilt) Pseudopotentials
     Message from routine data_structure:
     some processors have no planes 
     Message from routine data_structure:
     some processors have no smooth planes 

     Planes per process (thick) : nr3 = 20 npp =   1 ncplane =  400
 
     Proc/  planes cols     G    planes cols    G      columns  G
     Pool       (dense grid)       (smooth grid)      (wavefct grid)
       1      1     11      116    1     11      116      3       21
       2      1     11      116    1     11      116      3       21
       3      1     11      116    1     11      116      3       21
       4      1     11      116    1     11      116      3       21
       5      1     11      116    1     11      116      4       24
       6      1     10      112    1     10      112      4       23
       7      1     10      112    1     10      112      4       23
       8      1     10      112    1     10      112      4       23
       9      1     10      112    1     10      112      3       21
      10      1     10      112    1     10      112      3       21
      11      1     10      112    1     10      112      3       21
      12      1     10      112    1     10      112      3       21
      13      1     10      112    1     10      112      3       21
      14      1     10      112    1     10      112      4       23
      15      1     10      112    1     10      112      4       23
      16      1     10      112    1     10      112      4       23
      17      1     11      116    1     11      116      4       23
      18      1     11      115    1     11      115      4       23
      19      1     11      115    1     11      115      4       23
      20      1     11      115    1     11      115      4       23
      21      0     11      115    0     11      115      3       21
      22      0     11      115    0     11      115      3       21
      23      0     11      115    0     11      115      4       23
      24      0     11      115    0     11      115      4       23
     tot     20    253     2733   20    253     2733     85      531
 

                                                                                

     bravais-lattice index     =            2
     lattice parameter (a_0)   =      10.2000  a.u.
     unit-cell volume          =     265.3020 (a.u.)^3
     number of atoms/cell      =            2
     number of atomic types    =            1
     kinetic-energy cut-off    =      18.0000  Ry
     charge density cut-off    =      72.0000  Ry
     convergence threshold     =      1.0E-14
     beta                      =       0.7000
     number of iterations used =            4
     Exchange-correlation      =  SLA  PZ   NOGX NOGC (1100)


     celldm(1)=   10.20000  celldm(2)=    0.00000  celldm(3)=    0.00000
     celldm(4)=    0.00000  celldm(5)=    0.00000  celldm(6)=    0.00000

     crystal axes: (cart. coord. in units of a_0)
               a(1) = ( -0.5000  0.0000  0.5000 )  
               a(2) = (  0.0000  0.5000  0.5000 )  
               a(3) = ( -0.5000  0.5000  0.0000 )  

     reciprocal axes: (cart. coord. in units 2 pi/a_0)
               b(1) = ( -1.0000 -1.0000  1.0000 )  
               b(2) = (  1.0000  1.0000  1.0000 )  
               b(3) = ( -1.0000  1.0000 -1.0000 )  


     Atoms inside the unit cell: 

   Cartesian axes

     site n.  atom      mass           positions (a_0 units)
        1        Si  28.0800   tau( 1) = (    0.00000    0.00000    0.00000  )
        2        Si  28.0800   tau( 2) = (    0.25000    0.25000    0.25000  )

     Computing dynamical matrix for 
                    q = (    0.00000    0.00000    0.00000 )
 
     49 Sym.Ops. (with q -> -q+G )


     G cutoff =  189.7462  (    116 G-vectors)     FFT grid: ( 20, 20, 20)
     number of k points=   10
                       cart. coord. in units 2pi/a_0
        k(    1) = (   0.1250000   0.1250000   0.1250000), wk =   0.0625000
        k(    2) = (   0.1250000   0.1250000   0.3750000), wk =   0.1875000
        k(    3) = (   0.1250000   0.1250000   0.6250000), wk =   0.1875000
        k(    4) = (   0.1250000   0.1250000   0.8750000), wk =   0.1875000
        k(    5) = (   0.1250000   0.3750000   0.3750000), wk =   0.1875000
        k(    6) = (   0.1250000   0.3750000   0.6250000), wk =   0.3750000
        k(    7) = (   0.1250000   0.3750000   0.8750000), wk =   0.3750000
        k(    8) = (   0.1250000   0.6250000   0.6250000), wk =   0.1875000
        k(    9) = (   0.3750000   0.3750000   0.3750000), wk =   0.0625000
        k(   10) = (   0.3750000   0.3750000   0.6250000), wk =   0.1875000

     PseudoPot. # 1 for Si read from file Si.vbc.UPF
     Pseudo is Norm-conserving, Zval =  4.0
     Generated by new atomic code, or converted to UPF format
     Using radial grid of  431 points,  2 beta functions with: 
                l(1) =   0
                l(2) =   1


     Atomic displacements:
     There are   2 irreducible representations

     Representation     1      3 modes - To be done

     Representation     2      3 modes - To be done
     PHONON       :     2.72s CPU time,   28.88s wall time


     Alpha used in Ewald sum =   0.7000

     Electric Fields Calculation

      iter #   1 total cpu time :     3.7 secs   av.it.:   5.5
      thresh= 0.100E-01 alpha_mix =  0.700 |ddv_scf|^2 =  0.720E-06

      iter #   2 total cpu time :     4.0 secs   av.it.:   9.4
      thresh= 0.849E-04 alpha_mix =  0.700 |ddv_scf|^2 =  0.273E-07

      iter #   3 total cpu time :     4.3 secs   av.it.:   9.3
      thresh= 0.165E-04 alpha_mix =  0.700 |ddv_scf|^2 =  0.287E-09

      iter #   4 total cpu time :     4.6 secs   av.it.:   9.4
      thresh= 0.169E-05 alpha_mix =  0.700 |ddv_scf|^2 =  0.123E-11

      iter #   5 total cpu time :     4.9 secs   av.it.:   9.1
      thresh= 0.111E-06 alpha_mix =  0.700 |ddv_scf|^2 =  0.155E-14

     End of electric fields calculation

          Dielectric constant in cartesian axis 

          (      13.806427353       0.000000000       0.000000000 )
          (       0.000000000      13.806427353       0.000000000 )
          (       0.000000000       0.000000000      13.806427353 )

          Effective charges E-U in cartesian axis 

           atom      1
          (       -0.07568        0.00000        0.00000 )
          (        0.00000       -0.07568        0.00000 )
          (        0.00000        0.00000       -0.07568 )
           atom      2
          (       -0.07568        0.00000        0.00000 )
          (        0.00000       -0.07568        0.00000 )
          (        0.00000        0.00000       -0.07568 )


     Representation #  1 modes #   1  2  3

     Self-consistent Calculation

      iter #   1 total cpu time :     5.1 secs   av.it.:   5.0
      thresh= 0.100E-01 alpha_mix =  0.700 |ddv_scf|^2 =  0.154E-06

      iter #   2 total cpu time :     5.5 secs   av.it.:   9.8
      thresh= 0.392E-04 alpha_mix =  0.700 |ddv_scf|^2 =  0.266E-08

      iter #   3 total cpu time :     5.8 secs   av.it.:   9.7
      thresh= 0.515E-05 alpha_mix =  0.700 |ddv_scf|^2 =  0.270E-10

      iter #   4 total cpu time :     6.0 secs   av.it.:   9.0
      thresh= 0.520E-06 alpha_mix =  0.700 |ddv_scf|^2 =  0.277E-13

      iter #   5 total cpu time :     6.3 secs   av.it.:   9.8
      thresh= 0.166E-07 alpha_mix =  0.700 |ddv_scf|^2 =  0.288E-15

     End of self-consistent calculation

     Convergence has been achieved 


     Representation #  2 modes #   4  5  6

     Self-consistent Calculation

      iter #   1 total cpu time :     7.0 secs   av.it.:   5.0
      thresh= 0.100E-01 alpha_mix =  0.700 |ddv_scf|^2 =  0.108E-06

      iter #   2 total cpu time :     9.6 secs   av.it.:   9.9
      thresh= 0.329E-04 alpha_mix =  0.700 |ddv_scf|^2 =  0.387E-08

      iter #   3 total cpu time :    14.8 secs   av.it.:   9.7
      thresh= 0.622E-05 alpha_mix =  0.700 |ddv_scf|^2 =  0.357E-10

      iter #   4 total cpu time :    18.2 secs   av.it.:   9.5
      thresh= 0.598E-06 alpha_mix =  0.700 |ddv_scf|^2 =  0.786E-13

      iter #   5 total cpu time :    22.9 secs   av.it.:   9.9
      thresh= 0.280E-07 alpha_mix =  0.700 |ddv_scf|^2 =  0.106E-14

     End of self-consistent calculation

     Convergence has been achieved 
 
     Number of q in the star =    1
     List of q in the star:
          1   0.000000000   0.000000000   0.000000000

          Dielectric constant in cartesian axis 

          (       13.80643        0.00000        0.00000 )
          (        0.00000       13.80643        0.00000 )
          (        0.00000        0.00000       13.80643 )

          Effective charges E-U in cartesian axis 

           atom     1
          (       -0.07568        0.00000        0.00000 )
          (        0.00000       -0.07568        0.00000 )
          (        0.00000        0.00000       -0.07568 )
           atom     2
          (       -0.07568        0.00000        0.00000 )
          (        0.00000       -0.07568        0.00000 )
          (        0.00000        0.00000       -0.07568 )

     Diagonalizing the dynamical matrix

     q = (    0.000000000   0.000000000   0.000000000 ) 

 **************************************************************************
     omega( 1) =       0.100040 [THz] =       3.336986 [cm-1]
     omega( 2) =       0.100040 [THz] =       3.336986 [cm-1]
     omega( 3) =       0.100040 [THz] =       3.336986 [cm-1]
     omega( 4) =      15.294014 [THz] =     510.156792 [cm-1]
     omega( 5) =      15.294014 [THz] =     510.156792 [cm-1]
     omega( 6) =      15.294014 [THz] =     510.156792 [cm-1]
 **************************************************************************

     Mode symmetry, O_h (m-3m)  point group:

     omega(  1 -  3) =          3.3  [cm-1]   --> T_1u G_15  G_4- I  
     omega(  4 -  6) =        510.2  [cm-1]   --> T_2g G_25' G_5+ R  

 **************************************************************************
 
     PHONON       :  0m25.35s CPU time,     1m 9.30s wall time

     INITIALIZATION: 
     phq_setup    :     0.00s CPU
     phq_init     :     0.54s CPU
 
     phq_init     :     0.54s CPU
     init_vloc    :     0.00s CPU (       2 calls,   0.000 s avg)
     init_us_1    :     0.00s CPU
 
     DIELECTRIC CONSTANT AND EFFECTIVE CHARGES:
     solve_e      :     2.13s CPU
     dielec       :     0.00s CPU
     zstar_eu     :     0.04s CPU
 
     DYNAMICAL MATRIX:
     dynmat0      :     0.02s CPU
     phqscf       :    20.44s CPU
     dynmatrix    :     0.00s CPU
 
     phqscf       :    20.44s CPU
     solve_linter :    17.91s CPU (       2 calls,   8.955 s avg)
     drhodv       :     2.53s CPU (       2 calls,   1.264 s avg)
 
     dynmat0      :     0.02s CPU
     dynmat_us    :     0.02s CPU
     d2ionq       :     0.00s CPU
 
     dynmat_us    :     0.02s CPU
 
     phqscf       :    20.44s CPU
     solve_linter :    17.91s CPU (       2 calls,   8.955 s avg)
 
     solve_linter :    17.91s CPU (       2 calls,   8.955 s avg)
     dvqpsi_us    :     0.04s CPU (     120 calls,   0.000 s avg)
     ortho        :     0.13s CPU (     300 calls,   0.000 s avg)
     cgsolve      :     1.74s CPU (     480 calls,   0.004 s avg)
     incdrhoscf   :     0.73s CPU (     450 calls,   0.002 s avg)
     vpsifft      :     6.11s CPU (     240 calls,   0.025 s avg)
     dv_of_drho   :     0.03s CPU (      45 calls,   0.001 s avg)
     mix_pot      :     0.16s CPU (      15 calls,   0.010 s avg)
     psymdvscf    :     0.61s CPU (      10 calls,   0.061 s avg)
 
     dvqpsi_us    :     0.04s CPU (     120 calls,   0.000 s avg)
     dvqpsi_us_on :     0.00s CPU (     120 calls,   0.000 s avg)
 
     cgsolve      :     1.74s CPU (     480 calls,   0.004 s avg)
     ch_psi       :     1.61s CPU (    5068 calls,   0.000 s avg)
 
     ch_psi       :     1.61s CPU (    5068 calls,   0.000 s avg)
     h_psiq       :     1.42s CPU (    5068 calls,   0.000 s avg)
     last         :     0.18s CPU (    5068 calls,   0.000 s avg)
 
     h_psiq       :     1.42s CPU (    5068 calls,   0.000 s avg)
     firstfft     :     0.64s CPU (   18449 calls,   0.000 s avg)
     secondfft    :     0.65s CPU (   18449 calls,   0.000 s avg)
     add_vuspsi   :     0.01s CPU (    5068 calls,   0.000 s avg)
 
     incdrhoscf   :     0.73s CPU (     450 calls,   0.002 s avg)
 
 
      General routines
     calbec       :     3.23s CPU (   10986 calls,   0.000 s avg)
     cft3s        :     8.22s CPU (   44609 calls,   0.000 s avg)
     davcio       :     0.91s CPU (    1878 calls,   0.000 s avg)
     write_rec    :     0.01s CPU (      10 calls,   0.001 s avg)
 
Application 7506491 resources: utime ~1064s, stime ~24s
