V26 control_epw
10 epwcom.F90 S582 0
04/27/2012  15:03:18
use parameters private
use kinds private
use parameters private
use kinds private
enduse
D 56 18 38
D 58 18 30
D 60 18 41
D 62 21 60 1 3 34 0 0 0 0 0
 0 34 3 3 34 34
D 65 21 60 1 3 34 0 0 0 0 0
 0 34 3 3 34 34
D 68 21 9 1 3 36 0 0 0 0 0
 0 36 3 3 36 36
S 582 24 0 0 0 9 1 0 4658 10005 0 A 0 0 0 0 0 0 0 0 0 0 0 0 107 0 0 0 0 0 0 0 0 12 0 0 0 0 0 0 control_epw
S 584 23 0 0 0 9 589 582 4676 4 0 A 0 0 0 0 0 0 0 0 0 0 0 0 0 0 0 0 0 0 0 0 0 0 0 582 0 0 0 0 dp
S 586 23 0 0 0 6 604 582 4690 4 0 A 0 0 0 0 0 0 0 0 0 0 0 0 0 0 0 0 0 0 0 0 0 0 0 582 0 0 0 0 npk
R 589 16 1 kinds dp
S 599 3 0 0 0 6 1 1 0 0 0 A 0 0 0 0 0 0 0 0 0 2 0 0 0 0 0 0 0 0 0 0 0 0 0 0 0 0 0 0 6
R 604 16 3 parameters npk
S 613 6 4 0 0 6 614 582 4787 4 0 A 0 0 0 0 0 0 0 0 0 0 0 0 703 0 0 0 0 0 0 0 0 0 0 582 0 0 0 0 ngaussw
S 614 6 4 0 0 6 615 582 4795 4 0 A 0 0 0 0 0 4 0 0 0 0 0 0 703 0 0 0 0 0 0 0 0 0 0 582 0 0 0 0 nw
S 615 6 4 0 0 6 616 582 4798 4 0 A 0 0 0 0 0 8 0 0 0 0 0 0 703 0 0 0 0 0 0 0 0 0 0 582 0 0 0 0 selfen_type
S 616 6 4 0 0 6 617 582 4810 4 0 A 0 0 0 0 0 12 0 0 0 0 0 0 703 0 0 0 0 0 0 0 0 0 0 582 0 0 0 0 nbndsub
S 617 6 4 0 0 6 618 582 4818 4 0 A 0 0 0 0 0 16 0 0 0 0 0 0 703 0 0 0 0 0 0 0 0 0 0 582 0 0 0 0 nbndskip
S 618 6 4 0 0 6 619 582 4827 4 0 A 0 0 0 0 0 20 0 0 0 0 0 0 703 0 0 0 0 0 0 0 0 0 0 582 0 0 0 0 num_iter
S 619 6 4 0 0 6 620 582 4836 4 0 A 0 0 0 0 0 24 0 0 0 0 0 0 703 0 0 0 0 0 0 0 0 0 0 582 0 0 0 0 iprint
S 620 6 4 0 0 6 621 582 4843 4 0 A 0 0 0 0 0 28 0 0 0 0 0 0 703 0 0 0 0 0 0 0 0 0 0 582 0 0 0 0 nsmear
S 621 6 4 0 0 6 622 582 4850 4 0 A 0 0 0 0 0 32 0 0 0 0 0 0 703 0 0 0 0 0 0 0 0 0 0 582 0 0 0 0 rand_nq
S 622 6 4 0 0 6 623 582 4858 4 0 A 0 0 0 0 0 36 0 0 0 0 0 0 703 0 0 0 0 0 0 0 0 0 0 582 0 0 0 0 rand_nk
S 623 6 4 0 0 6 624 582 4866 4 0 A 0 0 0 0 0 40 0 0 0 0 0 0 703 0 0 0 0 0 0 0 0 0 0 582 0 0 0 0 nqf1
S 624 6 4 0 0 6 625 582 4871 4 0 A 0 0 0 0 0 44 0 0 0 0 0 0 703 0 0 0 0 0 0 0 0 0 0 582 0 0 0 0 nqf2
S 625 6 4 0 0 6 626 582 4876 4 0 A 0 0 0 0 0 48 0 0 0 0 0 0 703 0 0 0 0 0 0 0 0 0 0 582 0 0 0 0 nqf3
S 626 6 4 0 0 6 627 582 4881 4 0 A 0 0 0 0 0 52 0 0 0 0 0 0 703 0 0 0 0 0 0 0 0 0 0 582 0 0 0 0 nkf1
S 627 6 4 0 0 6 628 582 4886 4 0 A 0 0 0 0 0 56 0 0 0 0 0 0 703 0 0 0 0 0 0 0 0 0 0 582 0 0 0 0 nkf2
S 628 6 4 0 0 6 629 582 4891 4 0 A 0 0 0 0 0 60 0 0 0 0 0 0 703 0 0 0 0 0 0 0 0 0 0 582 0 0 0 0 nkf3
S 629 6 4 0 0 6 630 582 4896 4 0 A 0 0 0 0 0 64 0 0 0 0 0 0 703 0 0 0 0 0 0 0 0 0 0 582 0 0 0 0 sqf1
S 630 6 4 0 0 6 631 582 4901 4 0 A 0 0 0 0 0 68 0 0 0 0 0 0 703 0 0 0 0 0 0 0 0 0 0 582 0 0 0 0 sqf2
S 631 6 4 0 0 6 632 582 4906 4 0 A 0 0 0 0 0 72 0 0 0 0 0 0 703 0 0 0 0 0 0 0 0 0 0 582 0 0 0 0 sqf3
S 632 6 4 0 0 6 633 582 4911 4 0 A 0 0 0 0 0 76 0 0 0 0 0 0 703 0 0 0 0 0 0 0 0 0 0 582 0 0 0 0 skf1
S 633 6 4 0 0 6 634 582 4916 4 0 A 0 0 0 0 0 80 0 0 0 0 0 0 703 0 0 0 0 0 0 0 0 0 0 582 0 0 0 0 skf2
S 634 6 4 0 0 6 635 582 4921 4 0 A 0 0 0 0 0 84 0 0 0 0 0 0 703 0 0 0 0 0 0 0 0 0 0 582 0 0 0 0 skf3
S 635 6 4 0 0 6 636 582 4926 4 0 A 0 0 0 0 0 88 0 0 0 0 0 0 703 0 0 0 0 0 0 0 0 0 0 582 0 0 0 0 nqsmear
S 636 6 4 0 0 6 637 582 4934 4 0 A 0 0 0 0 0 92 0 0 0 0 0 0 703 0 0 0 0 0 0 0 0 0 0 582 0 0 0 0 nqstep
S 637 6 4 0 0 6 658 582 4941 4 0 A 0 0 0 0 0 96 0 0 0 0 0 0 703 0 0 0 0 0 0 0 0 0 0 582 0 0 0 0 neptemp
S 638 6 4 0 0 6 640 582 4949 80000c 0 A 0 0 0 0 0 0 0 0 0 0 0 0 704 0 0 0 0 0 0 0 0 0 0 582 0 0 0 0 nwanxx
S 639 3 0 0 0 6 0 1 0 0 0 A 0 0 0 0 0 0 0 0 0 200 0 0 0 0 0 0 0 0 0 0 0 0 0 0 0 0 0 0 6
S 640 6 4 0 0 6 1 582 4956 80000c 0 A 0 0 0 0 0 4 0 0 0 0 0 0 704 0 0 0 0 0 0 0 0 0 0 582 0 0 0 0 ntempxx
S 641 3 0 0 0 6 0 1 0 0 0 A 0 0 0 0 0 0 0 0 0 25 0 0 0 0 0 0 0 0 0 0 0 0 0 0 0 0 0 0 6
S 642 6 4 0 0 9 643 582 4964 4 0 A 0 0 0 0 0 0 0 0 0 0 0 0 705 0 0 0 0 0 0 0 0 0 0 582 0 0 0 0 degaussw
S 643 6 4 0 0 9 644 582 4973 4 0 A 0 0 0 0 0 8 0 0 0 0 0 0 705 0 0 0 0 0 0 0 0 0 0 582 0 0 0 0 fsthick
S 644 6 4 0 0 9 645 582 4981 4 0 A 0 0 0 0 0 16 0 0 0 0 0 0 705 0 0 0 0 0 0 0 0 0 0 582 0 0 0 0 wmin
S 645 6 4 0 0 9 646 582 4986 4 0 A 0 0 0 0 0 24 0 0 0 0 0 0 705 0 0 0 0 0 0 0 0 0 0 582 0 0 0 0 wmax
S 646 6 4 0 0 9 647 582 4991 4 0 A 0 0 0 0 0 32 0 0 0 0 0 0 705 0 0 0 0 0 0 0 0 0 0 582 0 0 0 0 ecutse
S 647 6 4 0 0 9 648 582 4998 4 0 A 0 0 0 0 0 40 0 0 0 0 0 0 705 0 0 0 0 0 0 0 0 0 0 582 0 0 0 0 dis_win_min
S 648 6 4 0 0 9 649 582 5010 4 0 A 0 0 0 0 0 48 0 0 0 0 0 0 705 0 0 0 0 0 0 0 0 0 0 582 0 0 0 0 dis_win_max
S 649 6 4 0 0 9 650 582 5022 4 0 A 0 0 0 0 0 56 0 0 0 0 0 0 705 0 0 0 0 0 0 0 0 0 0 582 0 0 0 0 dis_froz_min
S 650 6 4 0 0 9 651 582 5035 4 0 A 0 0 0 0 0 64 0 0 0 0 0 0 705 0 0 0 0 0 0 0 0 0 0 582 0 0 0 0 dis_froz_max
S 651 6 4 0 0 9 652 582 5048 4 0 A 0 0 0 0 0 72 0 0 0 0 0 0 705 0 0 0 0 0 0 0 0 0 0 582 0 0 0 0 delta_smear
S 652 6 4 0 0 9 653 582 5060 4 0 A 0 0 0 0 0 80 0 0 0 0 0 0 705 0 0 0 0 0 0 0 0 0 0 582 0 0 0 0 eminabs
S 653 6 4 0 0 9 654 582 5068 4 0 A 0 0 0 0 0 88 0 0 0 0 0 0 705 0 0 0 0 0 0 0 0 0 0 582 0 0 0 0 emaxabs
S 654 6 4 0 0 9 655 582 5076 4 0 A 0 0 0 0 0 96 0 0 0 0 0 0 705 0 0 0 0 0 0 0 0 0 0 582 0 0 0 0 deltaeabs
S 655 6 4 0 0 9 656 582 5086 4 0 A 0 0 0 0 0 104 0 0 0 0 0 0 705 0 0 0 0 0 0 0 0 0 0 582 0 0 0 0 eps_acustic
S 656 6 4 0 0 9 657 582 5098 4 0 A 0 0 0 0 0 112 0 0 0 0 0 0 705 0 0 0 0 0 0 0 0 0 0 582 0 0 0 0 degaussq
S 657 6 4 0 0 9 700 582 5107 4 0 A 0 0 0 0 0 120 0 0 0 0 0 0 705 0 0 0 0 0 0 0 0 0 0 582 0 0 0 0 delta_qsmear
S 658 6 4 0 0 16 659 582 5120 4 0 A 0 0 0 0 0 100 0 0 0 0 0 0 703 0 0 0 0 0 0 0 0 0 0 582 0 0 0 0 phinterp
S 659 6 4 0 0 16 660 582 5129 4 0 A 0 0 0 0 0 104 0 0 0 0 0 0 703 0 0 0 0 0 0 0 0 0 0 582 0 0 0 0 elinterp
S 660 6 4 0 0 16 661 582 5138 4 0 A 0 0 0 0 0 108 0 0 0 0 0 0 703 0 0 0 0 0 0 0 0 0 0 582 0 0 0 0 tphases
S 661 6 4 0 0 16 662 582 5146 4 0 A 0 0 0 0 0 112 0 0 0 0 0 0 703 0 0 0 0 0 0 0 0 0 0 582 0 0 0 0 epstrict
S 662 6 4 0 0 16 663 582 5155 4 0 A 0 0 0 0 0 116 0 0 0 0 0 0 703 0 0 0 0 0 0 0 0 0 0 582 0 0 0 0 tshuffle2
S 663 6 4 0 0 16 664 582 5165 4 0 A 0 0 0 0 0 120 0 0 0 0 0 0 703 0 0 0 0 0 0 0 0 0 0 582 0 0 0 0 elecselfen
S 664 6 4 0 0 16 665 582 5176 4 0 A 0 0 0 0 0 124 0 0 0 0 0 0 703 0 0 0 0 0 0 0 0 0 0 582 0 0 0 0 phonselfen
S 665 6 4 0 0 16 666 582 5187 4 0 A 0 0 0 0 0 128 0 0 0 0 0 0 703 0 0 0 0 0 0 0 0 0 0 582 0 0 0 0 epbread
S 666 6 4 0 0 16 667 582 5195 4 0 A 0 0 0 0 0 132 0 0 0 0 0 0 703 0 0 0 0 0 0 0 0 0 0 582 0 0 0 0 epbwrite
S 667 6 4 0 0 16 668 582 5204 4 0 A 0 0 0 0 0 136 0 0 0 0 0 0 703 0 0 0 0 0 0 0 0 0 0 582 0 0 0 0 epwread
S 668 6 4 0 0 16 669 582 5212 4 0 A 0 0 0 0 0 140 0 0 0 0 0 0 703 0 0 0 0 0 0 0 0 0 0 582 0 0 0 0 epwwrite
S 669 6 4 0 0 16 670 582 5221 4 0 A 0 0 0 0 0 144 0 0 0 0 0 0 703 0 0 0 0 0 0 0 0 0 0 582 0 0 0 0 specfun
S 670 6 4 0 0 16 671 582 5229 4 0 A 0 0 0 0 0 148 0 0 0 0 0 0 703 0 0 0 0 0 0 0 0 0 0 582 0 0 0 0 wannierize
S 671 6 4 0 0 16 672 582 5240 4 0 A 0 0 0 0 0 152 0 0 0 0 0 0 703 0 0 0 0 0 0 0 0 0 0 582 0 0 0 0 parallel_k
S 672 6 4 0 0 16 673 582 5251 4 0 A 0 0 0 0 0 156 0 0 0 0 0 0 703 0 0 0 0 0 0 0 0 0 0 582 0 0 0 0 parallel_q
S 673 6 4 0 0 16 674 582 5262 4 0 A 0 0 0 0 0 160 0 0 0 0 0 0 703 0 0 0 0 0 0 0 0 0 0 582 0 0 0 0 a2f
S 674 6 4 0 0 16 675 582 5266 4 0 A 0 0 0 0 0 164 0 0 0 0 0 0 703 0 0 0 0 0 0 0 0 0 0 582 0 0 0 0 epf_mem
S 675 6 4 0 0 16 676 582 5274 4 0 A 0 0 0 0 0 168 0 0 0 0 0 0 703 0 0 0 0 0 0 0 0 0 0 582 0 0 0 0 etf_mem
S 676 6 4 0 0 16 677 582 5282 4 0 A 0 0 0 0 0 172 0 0 0 0 0 0 703 0 0 0 0 0 0 0 0 0 0 582 0 0 0 0 write_wfn
S 677 6 4 0 0 16 678 582 5292 4 0 A 0 0 0 0 0 176 0 0 0 0 0 0 703 0 0 0 0 0 0 0 0 0 0 582 0 0 0 0 kmaps
S 678 6 4 0 0 16 679 582 5298 4 0 A 0 0 0 0 0 180 0 0 0 0 0 0 703 0 0 0 0 0 0 0 0 0 0 582 0 0 0 0 nest_fn
S 679 6 4 0 0 16 680 582 5306 4 0 A 0 0 0 0 0 184 0 0 0 0 0 0 703 0 0 0 0 0 0 0 0 0 0 582 0 0 0 0 fly
S 680 6 4 0 0 16 681 582 5310 4 0 A 0 0 0 0 0 188 0 0 0 0 0 0 703 0 0 0 0 0 0 0 0 0 0 582 0 0 0 0 rand_q
S 681 6 4 0 0 16 682 582 5317 4 0 A 0 0 0 0 0 192 0 0 0 0 0 0 703 0 0 0 0 0 0 0 0 0 0 582 0 0 0 0 rand_k
S 682 6 4 0 0 16 683 582 5324 4 0 A 0 0 0 0 0 196 0 0 0 0 0 0 703 0 0 0 0 0 0 0 0 0 0 582 0 0 0 0 mp_mesh_q
S 683 6 4 0 0 16 684 582 5334 4 0 A 0 0 0 0 0 200 0 0 0 0 0 0 703 0 0 0 0 0 0 0 0 0 0 582 0 0 0 0 mp_mesh_k
S 684 6 4 0 0 16 685 582 5344 4 0 A 0 0 0 0 0 204 0 0 0 0 0 0 703 0 0 0 0 0 0 0 0 0 0 582 0 0 0 0 indabs
S 685 6 4 0 0 16 686 582 5351 4 0 A 0 0 0 0 0 208 0 0 0 0 0 0 703 0 0 0 0 0 0 0 0 0 0 582 0 0 0 0 eig_read
S 686 6 4 0 0 16 687 582 5360 4 0 A 0 0 0 0 0 212 0 0 0 0 0 0 703 0 0 0 0 0 0 0 0 0 0 582 0 0 0 0 wepexst
S 687 6 4 0 0 16 688 582 5368 4 0 A 0 0 0 0 0 216 0 0 0 0 0 0 703 0 0 0 0 0 0 0 0 0 0 582 0 0 0 0 epexst
S 688 6 4 0 0 16 689 582 5375 4 0 A 0 0 0 0 0 220 0 0 0 0 0 0 703 0 0 0 0 0 0 0 0 0 0 582 0 0 0 0 vme
S 689 6 4 0 0 16 690 582 5379 4 0 A 0 0 0 0 0 224 0 0 0 0 0 0 703 0 0 0 0 0 0 0 0 0 0 582 0 0 0 0 twophoton
S 690 6 4 0 0 16 691 582 5389 4 0 A 0 0 0 0 0 228 0 0 0 0 0 0 703 0 0 0 0 0 0 0 0 0 0 582 0 0 0 0 ephmatwrite
S 691 6 4 0 0 16 701 582 5401 4 0 A 0 0 0 0 0 232 0 0 0 0 0 0 703 0 0 0 0 0 0 0 0 0 0 582 0 0 0 0 band_plot
S 692 3 0 0 0 6 0 1 0 0 0 A 0 0 0 0 0 0 0 0 0 80 0 0 0 0 0 0 0 0 0 0 0 0 0 0 0 0 0 0 6
S 693 6 4 0 0 56 1 582 5411 80000c 0 A 0 0 0 0 0 0 0 0 0 0 0 0 706 0 0 0 0 0 0 0 0 0 0 582 0 0 0 0 dvscf_dir
S 694 3 0 0 0 58 0 1 0 0 0 A 0 0 0 0 0 0 0 0 5421 0 0 0 0 0 0 0 0 0 0 0 0 0 0 0 0 0 0 0 18 2 2e 2f
S 695 6 4 0 0 56 696 582 5424 4 0 A 0 0 0 0 0 0 0 0 0 0 0 0 707 0 0 0 0 0 0 0 0 0 0 582 0 0 0 0 filelph
S 696 6 4 0 0 56 698 582 5432 4 0 A 0 0 0 0 0 80 0 0 0 0 0 0 707 0 0 0 0 0 0 0 0 0 0 582 0 0 0 0 fileig
S 697 3 0 0 0 6 0 1 0 0 0 A 0 0 0 0 0 0 0 0 0 256 0 0 0 0 0 0 0 0 0 0 0 0 0 0 0 0 0 0 6
S 698 7 4 0 4 62 699 582 5439 800004 100 A 0 0 0 0 0 160 0 0 0 0 0 0 707 0 0 0 0 0 0 0 0 0 0 582 0 0 0 0 proj
S 699 7 4 0 4 65 1 582 5444 800004 100 A 0 0 0 0 0 51360 0 0 0 0 0 0 707 0 0 0 0 0 0 0 0 0 0 582 0 0 0 0 wdata
S 700 7 4 0 4 68 1 582 5450 800004 100 A 0 0 0 0 0 128 0 0 0 0 0 0 705 0 0 0 0 0 0 0 0 0 0 582 0 0 0 0 eptemp
S 701 6 4 0 0 6 1 582 5457 4 0 A 0 0 0 0 0 236 0 0 0 0 0 0 703 0 0 0 0 0 0 0 0 0 0 582 0 0 0 0 iswitch
S 703 11 0 0 0 9 1 582 5546 40800000 801000 A 0 0 0 0 0 240 0 0 613 701 0 0 0 0 0 0 0 0 0 0 0 0 0 0 0 0 0 0 _control_epw$0
S 704 11 0 0 0 9 703 582 5561 40800008 801000 A 0 0 0 0 0 8 0 0 638 640 0 0 0 0 0 0 0 0 0 0 0 0 0 0 0 0 0 0 _control_epw$8
S 705 11 0 0 4 9 704 582 5576 40800000 801000 A 0 0 0 0 0 328 0 0 642 700 0 0 0 0 0 0 0 0 0 0 0 0 0 0 0 0 0 0 _control_epw$2
S 706 11 0 0 0 9 705 582 5591 40800008 801000 A 0 0 0 0 0 80 0 0 693 693 0 0 0 0 0 0 0 0 0 0 0 0 0 0 0 0 0 0 _control_epw$9
S 707 11 0 0 4 9 706 582 5606 40800000 801000 A 0 0 0 0 0 102560 0 0 695 699 0 0 0 0 0 0 0 0 0 0 0 0 0 0 0 0 0 0 _control_epw$1
A 30 2 0 0 0 6 599 0 0 0 30 0 0 0 0 0 0 0 0 0
A 34 2 0 0 0 6 639 0 0 0 34 0 0 0 0 0 0 0 0 0
A 35 1 0 0 0 6 638 0 0 0 0 0 0 0 0 0 0 0 0 0
A 36 2 0 0 0 6 641 0 0 0 36 0 0 0 0 0 0 0 0 0
A 37 1 0 0 0 6 640 0 0 0 0 0 0 0 0 0 0 0 0 0
A 38 2 0 0 0 6 692 0 0 0 38 0 0 0 0 0 0 0 0 0
A 39 2 0 0 0 58 694 0 0 0 39 0 0 0 0 0 0 0 0 0
A 40 1 0 0 0 56 693 0 0 0 0 0 0 0 0 0 0 0 0 0
A 41 2 0 0 0 6 697 0 0 0 41 0 0 0 0 0 0 0 0 0
Z
Z
