V26 el_phon
8 elph.F90 S582 0
04/27/2012  15:03:18
use kinds private
use kinds private
enduse
D 56 21 12 4 57 56 0 1 0 0 1
 24 28 48 24 28 26
 30 34 50 30 34 32
 36 40 52 36 40 38
 42 46 54 42 46 44
D 59 21 6 1 0 21 0 0 0 0 0
 0 21 0 3 21 0
D 62 21 12 3 79 78 0 1 0 0 1
 63 66 75 63 66 64
 67 70 76 67 70 68
 71 74 77 71 74 72
D 65 21 6 1 0 61 0 0 0 0 0
 0 61 0 3 61 0
D 68 21 12 3 100 99 0 1 0 0 1
 84 87 96 84 87 85
 88 91 97 88 91 89
 92 95 98 92 95 93
D 71 21 6 1 0 61 0 0 0 0 0
 0 61 0 3 61 0
D 74 21 12 3 121 120 0 1 0 0 1
 105 108 117 105 108 106
 109 112 118 109 112 110
 113 116 119 113 116 114
D 77 21 6 1 0 61 0 0 0 0 0
 0 61 0 3 61 0
D 80 21 12 3 142 141 0 1 0 0 1
 126 129 138 126 129 127
 130 133 139 130 133 131
 134 137 140 134 137 135
D 83 21 6 1 0 61 0 0 0 0 0
 0 61 0 3 61 0
D 86 21 12 4 169 168 0 1 0 0 1
 148 151 164 148 151 149
 152 155 165 152 155 153
 156 159 166 156 159 157
 160 163 167 160 163 161
D 89 21 6 1 0 21 0 0 0 0 0
 0 21 0 3 21 0
D 92 21 12 4 196 195 0 1 0 0 1
 175 178 191 175 178 176
 179 182 192 179 182 180
 183 186 193 183 186 184
 187 190 194 187 190 188
D 95 21 6 1 0 21 0 0 0 0 0
 0 21 0 3 21 0
D 98 21 12 3 217 216 0 1 0 0 1
 201 204 213 201 204 202
 205 208 214 205 208 206
 209 212 215 209 212 210
D 101 21 6 1 0 61 0 0 0 0 0
 0 61 0 3 61 0
D 104 21 12 4 244 243 0 1 0 0 1
 223 226 239 223 226 224
 227 230 240 227 230 228
 231 234 241 231 234 232
 235 238 242 235 238 236
D 107 21 6 1 0 21 0 0 0 0 0
 0 21 0 3 21 0
D 110 21 12 3 265 264 0 1 0 0 1
 249 252 261 249 252 250
 253 256 262 253 256 254
 257 260 263 257 260 258
D 113 21 6 1 0 61 0 0 0 0 0
 0 61 0 3 61 0
D 116 21 12 3 286 285 0 1 0 0 1
 270 273 282 270 273 271
 274 277 283 274 277 275
 278 281 284 278 281 279
D 119 21 6 1 0 61 0 0 0 0 0
 0 61 0 3 61 0
D 122 21 12 3 307 306 0 1 0 0 1
 291 294 303 291 294 292
 295 298 304 295 298 296
 299 302 305 299 302 300
D 125 21 6 1 0 61 0 0 0 0 0
 0 61 0 3 61 0
D 128 21 12 3 328 327 0 1 0 0 1
 312 315 324 312 315 313
 316 319 325 316 319 317
 320 323 326 320 323 321
D 131 21 6 1 0 61 0 0 0 0 0
 0 61 0 3 61 0
D 134 21 12 3 349 348 0 1 0 0 1
 333 336 345 333 336 334
 337 340 346 337 340 338
 341 344 347 341 344 342
D 137 21 6 1 0 61 0 0 0 0 0
 0 61 0 3 61 0
D 140 21 12 5 386 385 0 1 0 0 1
 357 360 379 357 360 358
 361 364 380 361 364 362
 365 368 381 365 368 366
 369 372 382 369 372 370
 374 378 384 374 378 376
D 143 21 6 1 0 355 0 0 0 0 0
 0 355 0 3 355 0
D 146 21 12 5 419 418 0 1 0 0 1
 393 396 413 393 396 394
 397 400 414 397 400 398
 401 404 415 401 404 402
 405 408 416 405 408 406
 409 412 417 409 412 410
D 149 21 6 1 0 355 0 0 0 0 0
 0 355 0 3 355 0
D 152 21 12 5 452 451 0 1 0 0 1
 426 429 446 426 429 427
 430 433 447 430 433 431
 434 437 448 434 437 435
 438 441 449 438 441 439
 442 445 450 442 445 443
D 155 21 6 1 0 355 0 0 0 0 0
 0 355 0 3 355 0
D 158 21 12 4 479 478 0 1 0 0 1
 458 461 474 458 461 459
 462 465 475 462 465 463
 466 469 476 466 469 467
 470 473 477 470 473 471
D 161 21 6 1 0 21 0 0 0 0 0
 0 21 0 3 21 0
D 164 21 12 4 506 505 0 1 0 0 1
 485 488 501 485 488 486
 489 492 502 489 492 490
 493 496 503 493 496 494
 497 500 504 497 500 498
D 167 21 6 1 0 21 0 0 0 0 0
 0 21 0 3 21 0
D 170 21 12 4 533 532 0 1 0 0 1
 512 515 528 512 515 513
 516 519 529 516 519 517
 520 523 530 520 523 521
 524 527 531 524 527 525
D 173 21 6 1 0 21 0 0 0 0 0
 0 21 0 3 21 0
D 176 21 9 2 549 548 0 1 0 0 1
 538 541 546 538 541 539
 542 545 547 542 545 543
D 179 21 6 1 0 536 0 0 0 0 0
 0 536 0 3 536 0
D 182 21 9 2 564 563 0 1 0 0 1
 553 556 561 553 556 554
 557 560 562 557 560 558
D 185 21 6 1 0 536 0 0 0 0 0
 0 536 0 3 536 0
D 188 21 9 2 579 578 0 1 0 0 1
 568 571 576 568 571 569
 572 575 577 572 575 573
D 191 21 6 1 0 536 0 0 0 0 0
 0 536 0 3 536 0
D 194 21 9 2 594 593 0 1 0 0 1
 583 586 591 583 586 584
 587 590 592 587 590 588
D 197 21 6 1 0 536 0 0 0 0 0
 0 536 0 3 536 0
D 200 21 9 2 609 608 0 1 0 0 1
 598 601 606 598 601 599
 602 605 607 602 605 603
D 203 21 6 1 0 536 0 0 0 0 0
 0 536 0 3 536 0
D 206 21 9 2 624 623 0 1 0 0 1
 613 616 621 613 616 614
 617 620 622 617 620 618
D 209 21 6 1 0 536 0 0 0 0 0
 0 536 0 3 536 0
D 212 21 9 2 639 638 0 1 0 0 1
 628 631 636 628 631 629
 632 635 637 632 635 633
D 215 21 6 1 0 536 0 0 0 0 0
 0 536 0 3 536 0
D 218 21 9 1 649 648 0 1 0 0 1
 643 646 647 643 646 644
D 221 21 6 1 0 641 0 0 0 0 0
 0 641 0 3 641 0
D 224 21 9 2 664 663 0 1 0 0 1
 653 656 661 653 656 654
 657 660 662 657 660 658
D 227 21 6 1 0 536 0 0 0 0 0
 0 536 0 3 536 0
D 230 21 9 1 673 672 0 1 0 0 1
 667 670 671 667 670 668
D 233 21 6 1 0 641 0 0 0 0 0
 0 641 0 3 641 0
D 236 21 9 2 688 687 0 1 0 0 1
 677 680 685 677 680 678
 681 684 686 681 684 682
D 239 21 6 1 0 536 0 0 0 0 0
 0 536 0 3 536 0
D 242 21 9 2 703 702 0 1 0 0 1
 692 695 700 692 695 693
 696 699 701 696 699 697
D 245 21 6 1 0 536 0 0 0 0 0
 0 536 0 3 536 0
D 248 21 9 2 718 717 0 1 0 0 1
 707 710 715 707 710 708
 711 714 716 711 714 712
D 251 21 6 1 0 536 0 0 0 0 0
 0 536 0 3 536 0
D 254 21 9 1 727 726 0 1 0 0 1
 721 724 725 721 724 722
D 257 21 6 1 0 641 0 0 0 0 0
 0 641 0 3 641 0
D 260 21 9 3 748 747 0 1 0 0 1
 732 735 744 732 735 733
 736 739 745 736 739 737
 740 743 746 740 743 741
D 263 21 6 1 0 61 0 0 0 0 0
 0 61 0 3 61 0
D 266 21 9 3 769 768 0 1 0 0 1
 753 756 765 753 756 754
 757 760 766 757 760 758
 761 764 767 761 764 762
D 269 21 6 1 0 61 0 0 0 0 0
 0 61 0 3 61 0
D 272 21 9 3 790 789 0 1 0 0 1
 774 777 786 774 777 775
 778 781 787 778 781 779
 782 785 788 782 785 783
D 275 21 6 1 0 61 0 0 0 0 0
 0 61 0 3 61 0
D 278 21 9 1 799 798 0 1 0 0 1
 793 796 797 793 796 794
D 281 21 6 1 0 641 0 0 0 0 0
 0 641 0 3 641 0
D 284 21 9 6 842 841 0 1 0 0 1
 808 811 834 808 811 809
 812 815 835 812 815 813
 816 819 836 816 819 817
 820 823 837 820 823 821
 824 827 838 824 827 825
 829 833 840 829 833 831
D 287 21 6 1 0 806 0 0 0 0 0
 0 806 0 3 806 0
D 290 21 6 2 857 856 0 1 0 0 1
 846 849 854 846 849 847
 850 853 855 850 853 851
D 293 21 6 1 0 536 0 0 0 0 0
 0 536 0 3 536 0
D 296 21 6 1 866 865 0 1 0 0 1
 860 863 864 860 863 861
D 299 21 6 1 0 641 0 0 0 0 0
 0 641 0 3 641 0
D 302 21 6 1 875 874 0 1 0 0 1
 869 872 873 869 872 870
D 305 21 6 1 0 641 0 0 0 0 0
 0 641 0 3 641 0
D 308 21 6 1 884 883 0 1 0 0 1
 878 881 882 878 881 879
D 311 21 6 1 0 641 0 0 0 0 0
 0 641 0 3 641 0
D 314 21 6 1 893 892 0 1 0 0 1
 887 890 891 887 890 888
D 317 21 6 1 0 641 0 0 0 0 0
 0 641 0 3 641 0
D 320 21 6 1 902 901 0 1 0 0 1
 896 899 900 896 899 897
D 323 21 6 1 0 641 0 0 0 0 0
 0 641 0 3 641 0
S 582 24 0 0 0 9 1 0 4658 5 0 A 0 0 0 0 0 0 0 0 0 0 0 0 76 0 0 0 0 0 0 0 0 11 0 0 0 0 0 0 el_phon
S 584 23 0 0 0 9 587 582 4672 4 0 A 0 0 0 0 0 0 0 0 0 0 0 0 0 0 0 0 0 0 0 0 0 0 0 582 0 0 0 0 dp
S 585 3 0 0 0 6 1 1 0 0 0 A 0 0 0 0 0 0 0 0 0 8 0 0 0 0 0 0 0 0 0 0 0 0 0 0 0 0 0 0 6
R 587 16 1 kinds dp
S 594 7 6 0 0 56 1 582 4706 10a00004 51 A 0 0 0 0 0 0 601 0 0 0 603 0 0 0 0 0 0 0 0 600 0 0 602 582 0 0 0 0 el_ph_mat
S 595 6 4 0 0 6 596 582 4716 40800006 0 A 0 0 0 0 0 0 0 0 0 0 0 0 974 0 0 0 0 0 0 0 0 0 0 582 0 0 0 0 z_b_0
S 596 6 4 0 0 6 597 582 4722 40800006 0 A 0 0 0 0 0 4 0 0 0 0 0 0 974 0 0 0 0 0 0 0 0 0 0 582 0 0 0 0 z_b_1
S 597 6 4 0 0 6 598 582 4728 40800006 0 A 0 0 0 0 0 8 0 0 0 0 0 0 974 0 0 0 0 0 0 0 0 0 0 582 0 0 0 0 z_b_2
S 598 6 4 0 0 6 618 582 4734 40800006 0 A 0 0 0 0 0 12 0 0 0 0 0 0 974 0 0 0 0 0 0 0 0 0 0 582 0 0 0 0 z_b_3
S 599 3 0 0 0 6 0 1 0 0 0 A 0 0 0 0 0 0 0 0 0 36 0 0 0 0 0 0 0 0 0 0 0 0 0 0 0 0 0 0 6
S 600 8 4 0 0 59 623 582 4740 40822064 1020 A 0 0 0 0 0 0 0 0 0 0 0 0 974 0 0 0 0 0 0 0 0 0 0 582 0 0 0 0 el_ph_mat$sd
S 601 6 4 0 0 7 602 582 4753 40802061 1020 A 0 0 0 0 0 144 0 0 0 0 0 0 974 0 0 0 0 0 0 0 0 0 0 582 0 0 0 0 el_ph_mat$p
S 602 6 4 0 0 7 600 582 4765 40802060 1020 A 0 0 0 0 0 152 0 0 0 0 0 0 974 0 0 0 0 0 0 0 0 0 0 582 0 0 0 0 el_ph_mat$o
S 603 22 1 0 0 9 1 582 4777 40000000 1000 A 0 0 0 0 0 0 0 594 0 0 0 0 600 0 0 0 0 0 0 0 0 0 0 582 0 0 0 0 el_ph_mat$arrdsc
S 604 3 0 0 0 6 0 1 0 0 0 A 0 0 0 0 0 0 0 0 0 13 0 0 0 0 0 0 0 0 0 0 0 0 0 0 0 0 0 0 6
S 605 3 0 0 0 6 0 1 0 0 0 A 0 0 0 0 0 0 0 0 0 14 0 0 0 0 0 0 0 0 0 0 0 0 0 0 0 0 0 0 6
S 606 3 0 0 0 6 0 1 0 0 0 A 0 0 0 0 0 0 0 0 0 19 0 0 0 0 0 0 0 0 0 0 0 0 0 0 0 0 0 0 6
S 607 3 0 0 0 6 0 1 0 0 0 A 0 0 0 0 0 0 0 0 0 20 0 0 0 0 0 0 0 0 0 0 0 0 0 0 0 0 0 0 6
S 608 3 0 0 0 6 0 1 0 0 0 A 0 0 0 0 0 0 0 0 0 25 0 0 0 0 0 0 0 0 0 0 0 0 0 0 0 0 0 0 6
S 609 3 0 0 0 6 0 1 0 0 0 A 0 0 0 0 0 0 0 0 0 26 0 0 0 0 0 0 0 0 0 0 0 0 0 0 0 0 0 0 6
S 610 3 0 0 0 6 0 1 0 0 0 A 0 0 0 0 0 0 0 0 0 31 0 0 0 0 0 0 0 0 0 0 0 0 0 0 0 0 0 0 6
S 611 3 0 0 0 6 0 1 0 0 0 A 0 0 0 0 0 0 0 0 0 32 0 0 0 0 0 0 0 0 0 0 0 0 0 0 0 0 0 0 6
S 612 3 0 0 0 6 0 1 0 0 0 A 0 0 0 0 0 0 0 0 0 17 0 0 0 0 0 0 0 0 0 0 0 0 0 0 0 0 0 0 6
S 613 3 0 0 0 6 0 1 0 0 0 A 0 0 0 0 0 0 0 0 0 23 0 0 0 0 0 0 0 0 0 0 0 0 0 0 0 0 0 0 6
S 614 3 0 0 0 6 0 1 0 0 0 A 0 0 0 0 0 0 0 0 0 29 0 0 0 0 0 0 0 0 0 0 0 0 0 0 0 0 0 0 6
S 615 3 0 0 0 6 0 1 0 0 0 A 0 0 0 0 0 0 0 0 0 35 0 0 0 0 0 0 0 0 0 0 0 0 0 0 0 0 0 0 6
S 616 3 0 0 0 6 0 1 0 0 0 A 0 0 0 0 0 0 0 0 0 7 0 0 0 0 0 0 0 0 0 0 0 0 0 0 0 0 0 0 6
S 617 7 6 0 0 62 1 582 4794 10a00004 51 A 0 0 0 0 0 0 623 0 0 0 625 0 0 0 0 0 0 0 0 622 0 0 624 582 0 0 0 0 cu
S 618 6 4 0 0 6 619 582 4797 40800006 0 A 0 0 0 0 0 16 0 0 0 0 0 0 974 0 0 0 0 0 0 0 0 0 0 582 0 0 0 0 z_b_4
S 619 6 4 0 0 6 620 582 4803 40800006 0 A 0 0 0 0 0 20 0 0 0 0 0 0 974 0 0 0 0 0 0 0 0 0 0 582 0 0 0 0 z_b_5
S 620 6 4 0 0 6 627 582 4809 40800006 0 A 0 0 0 0 0 24 0 0 0 0 0 0 974 0 0 0 0 0 0 0 0 0 0 582 0 0 0 0 z_b_6
S 621 3 0 0 0 6 0 1 0 0 0 A 0 0 0 0 0 0 0 0 0 30 0 0 0 0 0 0 0 0 0 0 0 0 0 0 0 0 0 0 6
S 622 8 4 0 0 65 631 582 4815 40822064 1020 A 0 0 0 0 0 160 0 0 0 0 0 0 974 0 0 0 0 0 0 0 0 0 0 582 0 0 0 0 cu$sd
S 623 6 4 0 0 7 624 582 4821 40802061 1020 A 0 0 0 0 0 280 0 0 0 0 0 0 974 0 0 0 0 0 0 0 0 0 0 582 0 0 0 0 cu$p
S 624 6 4 0 0 7 622 582 4826 40802060 1020 A 0 0 0 0 0 288 0 0 0 0 0 0 974 0 0 0 0 0 0 0 0 0 0 582 0 0 0 0 cu$o
S 625 22 1 0 0 9 1 582 4831 40000000 1000 A 0 0 0 0 0 0 0 617 0 0 0 0 622 0 0 0 0 0 0 0 0 0 0 582 0 0 0 0 cu$arrdsc
S 626 7 6 0 0 68 1 582 4841 10a00004 51 A 0 0 0 0 0 0 631 0 0 0 633 0 0 0 0 0 0 0 0 630 0 0 632 582 0 0 0 0 cuq
S 627 6 4 0 0 6 628 582 4845 40800006 0 A 0 0 0 0 0 28 0 0 0 0 0 0 974 0 0 0 0 0 0 0 0 0 0 582 0 0 0 0 z_b_7
S 628 6 4 0 0 6 629 582 4851 40800006 0 A 0 0 0 0 0 32 0 0 0 0 0 0 974 0 0 0 0 0 0 0 0 0 0 582 0 0 0 0 z_b_8
S 629 6 4 0 0 6 635 582 4857 40800006 0 A 0 0 0 0 0 36 0 0 0 0 0 0 974 0 0 0 0 0 0 0 0 0 0 582 0 0 0 0 z_b_9
S 630 8 4 0 0 71 639 582 4863 40822064 1020 A 0 0 0 0 0 296 0 0 0 0 0 0 974 0 0 0 0 0 0 0 0 0 0 582 0 0 0 0 cuq$sd
S 631 6 4 0 0 7 632 582 4870 40802061 1020 A 0 0 0 0 0 416 0 0 0 0 0 0 974 0 0 0 0 0 0 0 0 0 0 582 0 0 0 0 cuq$p
S 632 6 4 0 0 7 630 582 4876 40802060 1020 A 0 0 0 0 0 424 0 0 0 0 0 0 974 0 0 0 0 0 0 0 0 0 0 582 0 0 0 0 cuq$o
S 633 22 1 0 0 9 1 582 4882 40000000 1000 A 0 0 0 0 0 0 0 626 0 0 0 0 630 0 0 0 0 0 0 0 0 0 0 582 0 0 0 0 cuq$arrdsc
S 634 7 6 0 0 74 1 582 4893 10a00004 51 A 0 0 0 0 0 0 639 0 0 0 641 0 0 0 0 0 0 0 0 638 0 0 640 582 0 0 0 0 chw
S 635 6 4 0 0 6 636 582 4897 40800006 0 A 0 0 0 0 0 40 0 0 0 0 0 0 974 0 0 0 0 0 0 0 0 0 0 582 0 0 0 0 z_b_10
S 636 6 4 0 0 6 637 582 4904 40800006 0 A 0 0 0 0 0 44 0 0 0 0 0 0 974 0 0 0 0 0 0 0 0 0 0 582 0 0 0 0 z_b_11
S 637 6 4 0 0 6 643 582 4911 40800006 0 A 0 0 0 0 0 48 0 0 0 0 0 0 974 0 0 0 0 0 0 0 0 0 0 582 0 0 0 0 z_b_12
S 638 8 4 0 0 77 647 582 4918 40822064 1020 A 0 0 0 0 0 432 0 0 0 0 0 0 974 0 0 0 0 0 0 0 0 0 0 582 0 0 0 0 chw$sd
S 639 6 4 0 0 7 640 582 4925 40802061 1020 A 0 0 0 0 0 552 0 0 0 0 0 0 974 0 0 0 0 0 0 0 0 0 0 582 0 0 0 0 chw$p
S 640 6 4 0 0 7 638 582 4931 40802060 1020 A 0 0 0 0 0 560 0 0 0 0 0 0 974 0 0 0 0 0 0 0 0 0 0 582 0 0 0 0 chw$o
S 641 22 1 0 0 9 1 582 4937 40000000 1000 A 0 0 0 0 0 0 0 634 0 0 0 0 638 0 0 0 0 0 0 0 0 0 0 582 0 0 0 0 chw$arrdsc
S 642 7 6 0 0 80 1 582 4948 10a00004 51 A 0 0 0 0 0 0 647 0 0 0 649 0 0 0 0 0 0 0 0 646 0 0 648 582 0 0 0 0 chw_ks
S 643 6 4 0 0 6 644 582 4955 40800006 0 A 0 0 0 0 0 52 0 0 0 0 0 0 974 0 0 0 0 0 0 0 0 0 0 582 0 0 0 0 z_b_13
S 644 6 4 0 0 6 645 582 4962 40800006 0 A 0 0 0 0 0 56 0 0 0 0 0 0 974 0 0 0 0 0 0 0 0 0 0 582 0 0 0 0 z_b_14
S 645 6 4 0 0 6 651 582 4969 40800006 0 A 0 0 0 0 0 60 0 0 0 0 0 0 974 0 0 0 0 0 0 0 0 0 0 582 0 0 0 0 z_b_15
S 646 8 4 0 0 83 656 582 4976 40822064 1020 A 0 0 0 0 0 568 0 0 0 0 0 0 974 0 0 0 0 0 0 0 0 0 0 582 0 0 0 0 chw_ks$sd
S 647 6 4 0 0 7 648 582 4986 40802061 1020 A 0 0 0 0 0 688 0 0 0 0 0 0 974 0 0 0 0 0 0 0 0 0 0 582 0 0 0 0 chw_ks$p
S 648 6 4 0 0 7 646 582 4995 40802060 1020 A 0 0 0 0 0 696 0 0 0 0 0 0 974 0 0 0 0 0 0 0 0 0 0 582 0 0 0 0 chw_ks$o
S 649 22 1 0 0 9 1 582 5004 40000000 1000 A 0 0 0 0 0 0 0 642 0 0 0 0 646 0 0 0 0 0 0 0 0 0 0 582 0 0 0 0 chw_ks$arrdsc
S 650 7 6 0 0 86 1 582 5018 10a00004 51 A 0 0 0 0 0 0 656 0 0 0 658 0 0 0 0 0 0 0 0 655 0 0 657 582 0 0 0 0 cdmew
S 651 6 4 0 0 6 652 582 5024 40800006 0 A 0 0 0 0 0 64 0 0 0 0 0 0 974 0 0 0 0 0 0 0 0 0 0 582 0 0 0 0 z_b_16
S 652 6 4 0 0 6 653 582 5031 40800006 0 A 0 0 0 0 0 68 0 0 0 0 0 0 974 0 0 0 0 0 0 0 0 0 0 582 0 0 0 0 z_b_17
S 653 6 4 0 0 6 654 582 5038 40800006 0 A 0 0 0 0 0 72 0 0 0 0 0 0 974 0 0 0 0 0 0 0 0 0 0 582 0 0 0 0 z_b_18
S 654 6 4 0 0 6 660 582 5045 40800006 0 A 0 0 0 0 0 76 0 0 0 0 0 0 974 0 0 0 0 0 0 0 0 0 0 582 0 0 0 0 z_b_19
S 655 8 4 0 0 89 665 582 5052 40822064 1020 A 0 0 0 0 0 704 0 0 0 0 0 0 974 0 0 0 0 0 0 0 0 0 0 582 0 0 0 0 cdmew$sd
S 656 6 4 0 0 7 657 582 5061 40802061 1020 A 0 0 0 0 0 848 0 0 0 0 0 0 974 0 0 0 0 0 0 0 0 0 0 582 0 0 0 0 cdmew$p
S 657 6 4 0 0 7 655 582 5069 40802060 1020 A 0 0 0 0 0 856 0 0 0 0 0 0 974 0 0 0 0 0 0 0 0 0 0 582 0 0 0 0 cdmew$o
S 658 22 1 0 0 9 1 582 5077 40000000 1000 A 0 0 0 0 0 0 0 650 0 0 0 0 655 0 0 0 0 0 0 0 0 0 0 582 0 0 0 0 cdmew$arrdsc
S 659 7 6 0 0 92 1 582 5090 10a00004 51 A 0 0 0 0 0 0 665 0 0 0 667 0 0 0 0 0 0 0 0 664 0 0 666 582 0 0 0 0 cvmew
S 660 6 4 0 0 6 661 582 5096 40800006 0 A 0 0 0 0 0 80 0 0 0 0 0 0 974 0 0 0 0 0 0 0 0 0 0 582 0 0 0 0 z_b_20
S 661 6 4 0 0 6 662 582 5103 40800006 0 A 0 0 0 0 0 84 0 0 0 0 0 0 974 0 0 0 0 0 0 0 0 0 0 582 0 0 0 0 z_b_21
S 662 6 4 0 0 6 663 582 5110 40800006 0 A 0 0 0 0 0 88 0 0 0 0 0 0 974 0 0 0 0 0 0 0 0 0 0 582 0 0 0 0 z_b_22
S 663 6 4 0 0 6 669 582 5117 40800006 0 A 0 0 0 0 0 92 0 0 0 0 0 0 974 0 0 0 0 0 0 0 0 0 0 582 0 0 0 0 z_b_23
S 664 8 4 0 0 95 673 582 5124 40822064 1020 A 0 0 0 0 0 864 0 0 0 0 0 0 974 0 0 0 0 0 0 0 0 0 0 582 0 0 0 0 cvmew$sd
S 665 6 4 0 0 7 666 582 5133 40802061 1020 A 0 0 0 0 0 1008 0 0 0 0 0 0 974 0 0 0 0 0 0 0 0 0 0 582 0 0 0 0 cvmew$p
S 666 6 4 0 0 7 664 582 5141 40802060 1020 A 0 0 0 0 0 1016 0 0 0 0 0 0 974 0 0 0 0 0 0 0 0 0 0 582 0 0 0 0 cvmew$o
S 667 22 1 0 0 9 1 582 5149 40000000 1000 A 0 0 0 0 0 0 0 659 0 0 0 0 664 0 0 0 0 0 0 0 0 0 0 582 0 0 0 0 cvmew$arrdsc
S 668 7 6 0 0 98 1 582 5162 10a00004 51 A 0 0 0 0 0 0 673 0 0 0 675 0 0 0 0 0 0 0 0 672 0 0 674 582 0 0 0 0 rdw
S 669 6 4 0 0 6 670 582 5166 40800006 0 A 0 0 0 0 0 96 0 0 0 0 0 0 974 0 0 0 0 0 0 0 0 0 0 582 0 0 0 0 z_b_24
S 670 6 4 0 0 6 671 582 5173 40800006 0 A 0 0 0 0 0 100 0 0 0 0 0 0 974 0 0 0 0 0 0 0 0 0 0 582 0 0 0 0 z_b_25
S 671 6 4 0 0 6 677 582 5180 40800006 0 A 0 0 0 0 0 104 0 0 0 0 0 0 974 0 0 0 0 0 0 0 0 0 0 582 0 0 0 0 z_b_26
S 672 8 4 0 0 101 682 582 5187 40822064 1020 A 0 0 0 0 0 1024 0 0 0 0 0 0 974 0 0 0 0 0 0 0 0 0 0 582 0 0 0 0 rdw$sd
S 673 6 4 0 0 7 674 582 5194 40802061 1020 A 0 0 0 0 0 1144 0 0 0 0 0 0 974 0 0 0 0 0 0 0 0 0 0 582 0 0 0 0 rdw$p
S 674 6 4 0 0 7 672 582 5200 40802060 1020 A 0 0 0 0 0 1152 0 0 0 0 0 0 974 0 0 0 0 0 0 0 0 0 0 582 0 0 0 0 rdw$o
S 675 22 1 0 0 9 1 582 5206 40000000 1000 A 0 0 0 0 0 0 0 668 0 0 0 0 672 0 0 0 0 0 0 0 0 0 0 582 0 0 0 0 rdw$arrdsc
S 676 7 6 0 0 104 1 582 5217 10a00004 51 A 0 0 0 0 0 0 682 0 0 0 684 0 0 0 0 0 0 0 0 681 0 0 683 582 0 0 0 0 epmatwp
S 677 6 4 0 0 6 678 582 5225 40800006 0 A 0 0 0 0 0 108 0 0 0 0 0 0 974 0 0 0 0 0 0 0 0 0 0 582 0 0 0 0 z_b_27
S 678 6 4 0 0 6 679 582 5232 40800006 0 A 0 0 0 0 0 112 0 0 0 0 0 0 974 0 0 0 0 0 0 0 0 0 0 582 0 0 0 0 z_b_28
S 679 6 4 0 0 6 680 582 5239 40800006 0 A 0 0 0 0 0 116 0 0 0 0 0 0 974 0 0 0 0 0 0 0 0 0 0 582 0 0 0 0 z_b_29
S 680 6 4 0 0 6 686 582 5246 40800006 0 A 0 0 0 0 0 120 0 0 0 0 0 0 974 0 0 0 0 0 0 0 0 0 0 582 0 0 0 0 z_b_30
S 681 8 4 0 0 107 690 582 5253 40822064 1020 A 0 0 0 0 0 1160 0 0 0 0 0 0 974 0 0 0 0 0 0 0 0 0 0 582 0 0 0 0 epmatwp$sd
S 682 6 4 0 0 7 683 582 5264 40802061 1020 A 0 0 0 0 0 1304 0 0 0 0 0 0 974 0 0 0 0 0 0 0 0 0 0 582 0 0 0 0 epmatwp$p
S 683 6 4 0 0 7 681 582 5274 40802060 1020 A 0 0 0 0 0 1312 0 0 0 0 0 0 974 0 0 0 0 0 0 0 0 0 0 582 0 0 0 0 epmatwp$o
S 684 22 1 0 0 9 1 582 5284 40000000 1000 A 0 0 0 0 0 0 0 676 0 0 0 0 681 0 0 0 0 0 0 0 0 0 0 582 0 0 0 0 epmatwp$arrdsc
S 685 7 6 0 0 110 1 582 5299 10a00004 51 A 0 0 0 0 0 0 690 0 0 0 692 0 0 0 0 0 0 0 0 689 0 0 691 582 0 0 0 0 umat
S 686 6 4 0 0 6 687 582 5304 40800006 0 A 0 0 0 0 0 124 0 0 0 0 0 0 974 0 0 0 0 0 0 0 0 0 0 582 0 0 0 0 z_b_31
S 687 6 4 0 0 6 688 582 5311 40800006 0 A 0 0 0 0 0 128 0 0 0 0 0 0 974 0 0 0 0 0 0 0 0 0 0 582 0 0 0 0 z_b_32
S 688 6 4 0 0 6 694 582 5318 40800006 0 A 0 0 0 0 0 132 0 0 0 0 0 0 974 0 0 0 0 0 0 0 0 0 0 582 0 0 0 0 z_b_33
S 689 8 4 0 0 113 698 582 5325 40822064 1020 A 0 0 0 0 0 1320 0 0 0 0 0 0 974 0 0 0 0 0 0 0 0 0 0 582 0 0 0 0 umat$sd
S 690 6 4 0 0 7 691 582 5333 40802061 1020 A 0 0 0 0 0 1440 0 0 0 0 0 0 974 0 0 0 0 0 0 0 0 0 0 582 0 0 0 0 umat$p
S 691 6 4 0 0 7 689 582 5340 40802060 1020 A 0 0 0 0 0 1448 0 0 0 0 0 0 974 0 0 0 0 0 0 0 0 0 0 582 0 0 0 0 umat$o
S 692 22 1 0 0 9 1 582 5347 40000000 1000 A 0 0 0 0 0 0 0 685 0 0 0 0 689 0 0 0 0 0 0 0 0 0 0 582 0 0 0 0 umat$arrdsc
S 693 7 6 0 0 116 1 582 5359 10a00004 51 A 0 0 0 0 0 0 698 0 0 0 700 0 0 0 0 0 0 0 0 697 0 0 699 582 0 0 0 0 umatq
S 694 6 4 0 0 6 695 582 5365 40800006 0 A 0 0 0 0 0 136 0 0 0 0 0 0 974 0 0 0 0 0 0 0 0 0 0 582 0 0 0 0 z_b_34
S 695 6 4 0 0 6 696 582 5372 40800006 0 A 0 0 0 0 0 140 0 0 0 0 0 0 974 0 0 0 0 0 0 0 0 0 0 582 0 0 0 0 z_b_35
S 696 6 4 0 0 6 702 582 5379 40800006 0 A 0 0 0 0 0 144 0 0 0 0 0 0 974 0 0 0 0 0 0 0 0 0 0 582 0 0 0 0 z_b_36
S 697 8 4 0 0 119 706 582 5386 40822064 1020 A 0 0 0 0 0 1456 0 0 0 0 0 0 974 0 0 0 0 0 0 0 0 0 0 582 0 0 0 0 umatq$sd
S 698 6 4 0 0 7 699 582 5395 40802061 1020 A 0 0 0 0 0 1576 0 0 0 0 0 0 974 0 0 0 0 0 0 0 0 0 0 582 0 0 0 0 umatq$p
S 699 6 4 0 0 7 697 582 5403 40802060 1020 A 0 0 0 0 0 1584 0 0 0 0 0 0 974 0 0 0 0 0 0 0 0 0 0 582 0 0 0 0 umatq$o
S 700 22 1 0 0 9 1 582 5411 40000000 1000 A 0 0 0 0 0 0 0 693 0 0 0 0 697 0 0 0 0 0 0 0 0 0 0 582 0 0 0 0 umatq$arrdsc
S 701 7 6 0 0 122 1 582 5424 10a00004 51 A 0 0 0 0 0 0 706 0 0 0 708 0 0 0 0 0 0 0 0 705 0 0 707 582 0 0 0 0 umat_all
S 702 6 4 0 0 6 703 582 5433 40800006 0 A 0 0 0 0 0 148 0 0 0 0 0 0 974 0 0 0 0 0 0 0 0 0 0 582 0 0 0 0 z_b_37
S 703 6 4 0 0 6 704 582 5440 40800006 0 A 0 0 0 0 0 152 0 0 0 0 0 0 974 0 0 0 0 0 0 0 0 0 0 582 0 0 0 0 z_b_38
S 704 6 4 0 0 6 710 582 5447 40800006 0 A 0 0 0 0 0 156 0 0 0 0 0 0 974 0 0 0 0 0 0 0 0 0 0 582 0 0 0 0 z_b_39
S 705 8 4 0 0 125 714 582 5454 40822064 1020 A 0 0 0 0 0 1592 0 0 0 0 0 0 974 0 0 0 0 0 0 0 0 0 0 582 0 0 0 0 umat_all$sd
S 706 6 4 0 0 7 707 582 5466 40802061 1020 A 0 0 0 0 0 1712 0 0 0 0 0 0 974 0 0 0 0 0 0 0 0 0 0 582 0 0 0 0 umat_all$p
S 707 6 4 0 0 7 705 582 5477 40802060 1020 A 0 0 0 0 0 1720 0 0 0 0 0 0 974 0 0 0 0 0 0 0 0 0 0 582 0 0 0 0 umat_all$o
S 708 22 1 0 0 9 1 582 5488 40000000 1000 A 0 0 0 0 0 0 0 701 0 0 0 0 705 0 0 0 0 0 0 0 0 0 0 582 0 0 0 0 umat_all$arrdsc
S 709 7 6 0 0 128 1 582 5504 10a00004 51 A 0 0 0 0 0 0 714 0 0 0 716 0 0 0 0 0 0 0 0 713 0 0 715 582 0 0 0 0 umatq_all
S 710 6 4 0 0 6 711 582 5514 40800006 0 A 0 0 0 0 0 160 0 0 0 0 0 0 974 0 0 0 0 0 0 0 0 0 0 582 0 0 0 0 z_b_40
S 711 6 4 0 0 6 712 582 5521 40800006 0 A 0 0 0 0 0 164 0 0 0 0 0 0 974 0 0 0 0 0 0 0 0 0 0 582 0 0 0 0 z_b_41
S 712 6 4 0 0 6 718 582 5528 40800006 0 A 0 0 0 0 0 168 0 0 0 0 0 0 974 0 0 0 0 0 0 0 0 0 0 582 0 0 0 0 z_b_42
S 713 8 4 0 0 131 722 582 5535 40822064 1020 A 0 0 0 0 0 1728 0 0 0 0 0 0 974 0 0 0 0 0 0 0 0 0 0 582 0 0 0 0 umatq_all$sd
S 714 6 4 0 0 7 715 582 5548 40802061 1020 A 0 0 0 0 0 1848 0 0 0 0 0 0 974 0 0 0 0 0 0 0 0 0 0 582 0 0 0 0 umatq_all$p
S 715 6 4 0 0 7 713 582 5560 40802060 1020 A 0 0 0 0 0 1856 0 0 0 0 0 0 974 0 0 0 0 0 0 0 0 0 0 582 0 0 0 0 umatq_all$o
S 716 22 1 0 0 9 1 582 5572 40000000 1000 A 0 0 0 0 0 0 0 709 0 0 0 0 713 0 0 0 0 0 0 0 0 0 0 582 0 0 0 0 umatq_all$arrdsc
S 717 7 6 0 0 134 1 582 5589 10a00004 51 A 0 0 0 0 0 0 722 0 0 0 724 0 0 0 0 0 0 0 0 721 0 0 723 582 0 0 0 0 dynq
S 718 6 4 0 0 6 719 582 5594 40800006 0 A 0 0 0 0 0 172 0 0 0 0 0 0 974 0 0 0 0 0 0 0 0 0 0 582 0 0 0 0 z_b_43
S 719 6 4 0 0 6 720 582 5601 40800006 0 A 0 0 0 0 0 176 0 0 0 0 0 0 974 0 0 0 0 0 0 0 0 0 0 582 0 0 0 0 z_b_44
S 720 6 4 0 0 6 726 582 5608 40800006 0 A 0 0 0 0 0 180 0 0 0 0 0 0 974 0 0 0 0 0 0 0 0 0 0 582 0 0 0 0 z_b_45
S 721 8 4 0 0 137 733 582 5615 40822064 1020 A 0 0 0 0 0 1864 0 0 0 0 0 0 974 0 0 0 0 0 0 0 0 0 0 582 0 0 0 0 dynq$sd
S 722 6 4 0 0 7 723 582 5623 40802061 1020 A 0 0 0 0 0 1984 0 0 0 0 0 0 974 0 0 0 0 0 0 0 0 0 0 582 0 0 0 0 dynq$p
S 723 6 4 0 0 7 721 582 5630 40802060 1020 A 0 0 0 0 0 1992 0 0 0 0 0 0 974 0 0 0 0 0 0 0 0 0 0 582 0 0 0 0 dynq$o
S 724 22 1 0 0 9 1 582 5637 40000000 1000 A 0 0 0 0 0 0 0 717 0 0 0 0 721 0 0 0 0 0 0 0 0 0 0 582 0 0 0 0 dynq$arrdsc
S 725 7 6 0 0 140 1 582 5649 10a00004 51 A 0 0 0 0 0 0 733 0 0 0 735 0 0 0 0 0 0 0 0 732 0 0 734 582 0 0 0 0 epmatq
S 726 6 4 0 0 6 727 582 5656 40800006 0 A 0 0 0 0 0 184 0 0 0 0 0 0 974 0 0 0 0 0 0 0 0 0 0 582 0 0 0 0 z_b_46
S 727 6 4 0 0 6 728 582 5663 40800006 0 A 0 0 0 0 0 188 0 0 0 0 0 0 974 0 0 0 0 0 0 0 0 0 0 582 0 0 0 0 z_b_47
S 728 6 4 0 0 6 729 582 5670 40800006 0 A 0 0 0 0 0 192 0 0 0 0 0 0 974 0 0 0 0 0 0 0 0 0 0 582 0 0 0 0 z_b_48
S 729 6 4 0 0 6 730 582 5677 40800006 0 A 0 0 0 0 0 196 0 0 0 0 0 0 974 0 0 0 0 0 0 0 0 0 0 582 0 0 0 0 z_b_49
S 730 6 4 0 0 6 740 582 5684 40800006 0 A 0 0 0 0 0 200 0 0 0 0 0 0 974 0 0 0 0 0 0 0 0 0 0 582 0 0 0 0 z_b_50
S 731 3 0 0 0 6 0 1 0 0 0 A 0 0 0 0 0 0 0 0 0 42 0 0 0 0 0 0 0 0 0 0 0 0 0 0 0 0 0 0 6
S 732 8 4 0 0 143 746 582 5691 40822064 1020 A 0 0 0 0 0 2000 0 0 0 0 0 0 974 0 0 0 0 0 0 0 0 0 0 582 0 0 0 0 epmatq$sd
S 733 6 4 0 0 7 734 582 5701 40802061 1020 A 0 0 0 0 0 2168 0 0 0 0 0 0 974 0 0 0 0 0 0 0 0 0 0 582 0 0 0 0 epmatq$p
S 734 6 4 0 0 7 732 582 5710 40802060 1020 A 0 0 0 0 0 2176 0 0 0 0 0 0 974 0 0 0 0 0 0 0 0 0 0 582 0 0 0 0 epmatq$o
S 735 22 1 0 0 9 1 582 5719 40000000 1000 A 0 0 0 0 0 0 0 725 0 0 0 0 732 0 0 0 0 0 0 0 0 0 0 582 0 0 0 0 epmatq$arrdsc
S 736 3 0 0 0 6 0 1 0 0 0 A 0 0 0 0 0 0 0 0 0 37 0 0 0 0 0 0 0 0 0 0 0 0 0 0 0 0 0 0 6
S 737 3 0 0 0 6 0 1 0 0 0 A 0 0 0 0 0 0 0 0 0 38 0 0 0 0 0 0 0 0 0 0 0 0 0 0 0 0 0 0 6
S 738 3 0 0 0 6 0 1 0 0 0 A 0 0 0 0 0 0 0 0 0 41 0 0 0 0 0 0 0 0 0 0 0 0 0 0 0 0 0 0 6
S 739 7 6 0 0 146 1 582 5733 10a00004 51 A 0 0 0 0 0 0 746 0 0 0 748 0 0 0 0 0 0 0 0 745 0 0 747 582 0 0 0 0 epmatw17
S 740 6 4 0 0 6 741 582 5742 40800006 0 A 0 0 0 0 0 204 0 0 0 0 0 0 974 0 0 0 0 0 0 0 0 0 0 582 0 0 0 0 z_b_51
S 741 6 4 0 0 6 742 582 5749 40800006 0 A 0 0 0 0 0 208 0 0 0 0 0 0 974 0 0 0 0 0 0 0 0 0 0 582 0 0 0 0 z_b_52
S 742 6 4 0 0 6 743 582 5756 40800006 0 A 0 0 0 0 0 212 0 0 0 0 0 0 974 0 0 0 0 0 0 0 0 0 0 582 0 0 0 0 z_b_53
S 743 6 4 0 0 6 744 582 5763 40800006 0 A 0 0 0 0 0 216 0 0 0 0 0 0 974 0 0 0 0 0 0 0 0 0 0 582 0 0 0 0 z_b_54
S 744 6 4 0 0 6 750 582 5770 40800006 0 A 0 0 0 0 0 220 0 0 0 0 0 0 974 0 0 0 0 0 0 0 0 0 0 582 0 0 0 0 z_b_55
S 745 8 4 0 0 149 756 582 5777 40822064 1020 A 0 0 0 0 0 2184 0 0 0 0 0 0 974 0 0 0 0 0 0 0 0 0 0 582 0 0 0 0 epmatw17$sd
S 746 6 4 0 0 7 747 582 5789 40802061 1020 A 0 0 0 0 0 2352 0 0 0 0 0 0 974 0 0 0 0 0 0 0 0 0 0 582 0 0 0 0 epmatw17$p
S 747 6 4 0 0 7 745 582 5800 40802060 1020 A 0 0 0 0 0 2360 0 0 0 0 0 0 974 0 0 0 0 0 0 0 0 0 0 582 0 0 0 0 epmatw17$o
S 748 22 1 0 0 9 1 582 5811 40000000 1000 A 0 0 0 0 0 0 0 739 0 0 0 0 745 0 0 0 0 0 0 0 0 0 0 582 0 0 0 0 epmatw17$arrdsc
S 749 7 6 0 0 152 1 582 5827 10a00004 51 A 0 0 0 0 0 0 756 0 0 0 758 0 0 0 0 0 0 0 0 755 0 0 757 582 0 0 0 0 epf17
S 750 6 4 0 0 6 751 582 5833 40800006 0 A 0 0 0 0 0 224 0 0 0 0 0 0 974 0 0 0 0 0 0 0 0 0 0 582 0 0 0 0 z_b_56
S 751 6 4 0 0 6 752 582 5840 40800006 0 A 0 0 0 0 0 228 0 0 0 0 0 0 974 0 0 0 0 0 0 0 0 0 0 582 0 0 0 0 z_b_57
S 752 6 4 0 0 6 753 582 5847 40800006 0 A 0 0 0 0 0 232 0 0 0 0 0 0 974 0 0 0 0 0 0 0 0 0 0 582 0 0 0 0 z_b_58
S 753 6 4 0 0 6 754 582 5854 40800006 0 A 0 0 0 0 0 236 0 0 0 0 0 0 974 0 0 0 0 0 0 0 0 0 0 582 0 0 0 0 z_b_59
S 754 6 4 0 0 6 760 582 5861 40800006 0 A 0 0 0 0 0 240 0 0 0 0 0 0 974 0 0 0 0 0 0 0 0 0 0 582 0 0 0 0 z_b_60
S 755 8 4 0 0 155 765 582 5868 40822064 1020 A 0 0 0 0 0 2368 0 0 0 0 0 0 974 0 0 0 0 0 0 0 0 0 0 582 0 0 0 0 epf17$sd
S 756 6 4 0 0 7 757 582 5877 40802061 1020 A 0 0 0 0 0 2536 0 0 0 0 0 0 974 0 0 0 0 0 0 0 0 0 0 582 0 0 0 0 epf17$p
S 757 6 4 0 0 7 755 582 5885 40802060 1020 A 0 0 0 0 0 2544 0 0 0 0 0 0 974 0 0 0 0 0 0 0 0 0 0 582 0 0 0 0 epf17$o
S 758 22 1 0 0 9 1 582 5893 40000000 1000 A 0 0 0 0 0 0 0 749 0 0 0 0 755 0 0 0 0 0 0 0 0 0 0 582 0 0 0 0 epf17$arrdsc
S 759 7 6 0 0 158 1 582 5906 10a00004 51 A 0 0 0 0 0 0 765 0 0 0 767 0 0 0 0 0 0 0 0 764 0 0 766 582 0 0 0 0 dmec
S 760 6 4 0 0 6 761 582 5911 40800006 0 A 0 0 0 0 0 244 0 0 0 0 0 0 974 0 0 0 0 0 0 0 0 0 0 582 0 0 0 0 z_b_61
S 761 6 4 0 0 6 762 582 5918 40800006 0 A 0 0 0 0 0 248 0 0 0 0 0 0 974 0 0 0 0 0 0 0 0 0 0 582 0 0 0 0 z_b_62
S 762 6 4 0 0 6 763 582 5925 40800006 0 A 0 0 0 0 0 252 0 0 0 0 0 0 974 0 0 0 0 0 0 0 0 0 0 582 0 0 0 0 z_b_63
S 763 6 4 0 0 6 769 582 5932 40800006 0 A 0 0 0 0 0 256 0 0 0 0 0 0 974 0 0 0 0 0 0 0 0 0 0 582 0 0 0 0 z_b_64
S 764 8 4 0 0 161 774 582 5939 40822064 1020 A 0 0 0 0 0 2552 0 0 0 0 0 0 974 0 0 0 0 0 0 0 0 0 0 582 0 0 0 0 dmec$sd
S 765 6 4 0 0 7 766 582 5947 40802061 1020 A 0 0 0 0 0 2696 0 0 0 0 0 0 974 0 0 0 0 0 0 0 0 0 0 582 0 0 0 0 dmec$p
S 766 6 4 0 0 7 764 582 5954 40802060 1020 A 0 0 0 0 0 2704 0 0 0 0 0 0 974 0 0 0 0 0 0 0 0 0 0 582 0 0 0 0 dmec$o
S 767 22 1 0 0 9 1 582 5961 40000000 1000 A 0 0 0 0 0 0 0 759 0 0 0 0 764 0 0 0 0 0 0 0 0 0 0 582 0 0 0 0 dmec$arrdsc
S 768 7 6 0 0 164 1 582 5973 10a00004 51 A 0 0 0 0 0 0 774 0 0 0 776 0 0 0 0 0 0 0 0 773 0 0 775 582 0 0 0 0 dmef
S 769 6 4 0 0 6 770 582 5978 40800006 0 A 0 0 0 0 0 260 0 0 0 0 0 0 974 0 0 0 0 0 0 0 0 0 0 582 0 0 0 0 z_b_65
S 770 6 4 0 0 6 771 582 5985 40800006 0 A 0 0 0 0 0 264 0 0 0 0 0 0 974 0 0 0 0 0 0 0 0 0 0 582 0 0 0 0 z_b_66
S 771 6 4 0 0 6 772 582 5992 40800006 0 A 0 0 0 0 0 268 0 0 0 0 0 0 974 0 0 0 0 0 0 0 0 0 0 582 0 0 0 0 z_b_67
S 772 6 4 0 0 6 778 582 5999 40800006 0 A 0 0 0 0 0 272 0 0 0 0 0 0 974 0 0 0 0 0 0 0 0 0 0 582 0 0 0 0 z_b_68
S 773 8 4 0 0 167 783 582 6006 40822064 1020 A 0 0 0 0 0 2712 0 0 0 0 0 0 974 0 0 0 0 0 0 0 0 0 0 582 0 0 0 0 dmef$sd
S 774 6 4 0 0 7 775 582 6014 40802061 1020 A 0 0 0 0 0 2856 0 0 0 0 0 0 974 0 0 0 0 0 0 0 0 0 0 582 0 0 0 0 dmef$p
S 775 6 4 0 0 7 773 582 6021 40802060 1020 A 0 0 0 0 0 2864 0 0 0 0 0 0 974 0 0 0 0 0 0 0 0 0 0 582 0 0 0 0 dmef$o
S 776 22 1 0 0 9 1 582 6028 40000000 1000 A 0 0 0 0 0 0 0 768 0 0 0 0 773 0 0 0 0 0 0 0 0 0 0 582 0 0 0 0 dmef$arrdsc
S 777 7 6 0 0 170 1 582 6040 10a00004 51 A 0 0 0 0 0 0 783 0 0 0 785 0 0 0 0 0 0 0 0 782 0 0 784 582 0 0 0 0 vmef
S 778 6 4 0 0 6 779 582 6045 40800006 0 A 0 0 0 0 0 276 0 0 0 0 0 0 974 0 0 0 0 0 0 0 0 0 0 582 0 0 0 0 z_b_69
S 779 6 4 0 0 6 780 582 6052 40800006 0 A 0 0 0 0 0 280 0 0 0 0 0 0 974 0 0 0 0 0 0 0 0 0 0 582 0 0 0 0 z_b_70
S 780 6 4 0 0 6 781 582 6059 40800006 0 A 0 0 0 0 0 284 0 0 0 0 0 0 974 0 0 0 0 0 0 0 0 0 0 582 0 0 0 0 z_b_71
S 781 6 4 0 0 6 787 582 6066 40800006 0 A 0 0 0 0 0 288 0 0 0 0 0 0 974 0 0 0 0 0 0 0 0 0 0 582 0 0 0 0 z_b_72
S 782 8 4 0 0 173 791 582 6073 40822064 1020 A 0 0 0 0 0 2872 0 0 0 0 0 0 974 0 0 0 0 0 0 0 0 0 0 582 0 0 0 0 vmef$sd
S 783 6 4 0 0 7 784 582 6081 40802061 1020 A 0 0 0 0 0 3016 0 0 0 0 0 0 974 0 0 0 0 0 0 0 0 0 0 582 0 0 0 0 vmef$p
S 784 6 4 0 0 7 782 582 6088 40802060 1020 A 0 0 0 0 0 3024 0 0 0 0 0 0 974 0 0 0 0 0 0 0 0 0 0 582 0 0 0 0 vmef$o
S 785 22 1 0 0 9 1 582 6095 40000000 1000 A 0 0 0 0 0 0 0 777 0 0 0 0 782 0 0 0 0 0 0 0 0 0 0 582 0 0 0 0 vmef$arrdsc
S 786 7 6 0 0 176 1 582 6107 10a00004 51 A 0 0 0 0 0 0 791 0 0 0 793 0 0 0 0 0 0 0 0 790 0 0 792 582 0 0 0 0 xk_all
S 787 6 4 0 0 6 788 582 6114 40800006 0 A 0 0 0 0 0 292 0 0 0 0 0 0 974 0 0 0 0 0 0 0 0 0 0 582 0 0 0 0 z_b_73
S 788 6 4 0 0 6 795 582 6121 40800006 0 A 0 0 0 0 0 296 0 0 0 0 0 0 974 0 0 0 0 0 0 0 0 0 0 582 0 0 0 0 z_b_74
S 789 3 0 0 0 6 0 1 0 0 0 A 0 0 0 0 0 0 0 0 0 24 0 0 0 0 0 0 0 0 0 0 0 0 0 0 0 0 0 0 6
S 790 8 4 0 0 179 798 582 6128 40822064 1020 A 0 0 0 0 0 3032 0 0 0 0 0 0 974 0 0 0 0 0 0 0 0 0 0 582 0 0 0 0 xk_all$sd
S 791 6 4 0 0 7 792 582 6138 40802061 1020 A 0 0 0 0 0 3128 0 0 0 0 0 0 974 0 0 0 0 0 0 0 0 0 0 582 0 0 0 0 xk_all$p
S 792 6 4 0 0 7 790 582 6147 40802060 1020 A 0 0 0 0 0 3136 0 0 0 0 0 0 974 0 0 0 0 0 0 0 0 0 0 582 0 0 0 0 xk_all$o
S 793 22 1 0 0 9 1 582 6156 40000000 1000 A 0 0 0 0 0 0 0 786 0 0 0 0 790 0 0 0 0 0 0 0 0 0 0 582 0 0 0 0 xk_all$arrdsc
S 794 7 6 0 0 182 1 582 6170 10a00004 51 A 0 0 0 0 0 0 798 0 0 0 800 0 0 0 0 0 0 0 0 797 0 0 799 582 0 0 0 0 et_all
S 795 6 4 0 0 6 796 582 6177 40800006 0 A 0 0 0 0 0 300 0 0 0 0 0 0 974 0 0 0 0 0 0 0 0 0 0 582 0 0 0 0 z_b_75
S 796 6 4 0 0 6 802 582 6184 40800006 0 A 0 0 0 0 0 304 0 0 0 0 0 0 974 0 0 0 0 0 0 0 0 0 0 582 0 0 0 0 z_b_76
S 797 8 4 0 0 185 805 582 6191 40822064 1020 A 0 0 0 0 0 3144 0 0 0 0 0 0 974 0 0 0 0 0 0 0 0 0 0 582 0 0 0 0 et_all$sd
S 798 6 4 0 0 7 799 582 6201 40802061 1020 A 0 0 0 0 0 3240 0 0 0 0 0 0 974 0 0 0 0 0 0 0 0 0 0 582 0 0 0 0 et_all$p
S 799 6 4 0 0 7 797 582 6210 40802060 1020 A 0 0 0 0 0 3248 0 0 0 0 0 0 974 0 0 0 0 0 0 0 0 0 0 582 0 0 0 0 et_all$o
S 800 22 1 0 0 9 1 582 6219 40000000 1000 A 0 0 0 0 0 0 0 794 0 0 0 0 797 0 0 0 0 0 0 0 0 0 0 582 0 0 0 0 et_all$arrdsc
S 801 7 6 0 0 188 1 582 6233 10a00004 51 A 0 0 0 0 0 0 805 0 0 0 807 0 0 0 0 0 0 0 0 804 0 0 806 582 0 0 0 0 et_ks
S 802 6 4 0 0 6 803 582 6239 40800006 0 A 0 0 0 0 0 308 0 0 0 0 0 0 974 0 0 0 0 0 0 0 0 0 0 582 0 0 0 0 z_b_77
S 803 6 4 0 0 6 809 582 6246 40800006 0 A 0 0 0 0 0 312 0 0 0 0 0 0 974 0 0 0 0 0 0 0 0 0 0 582 0 0 0 0 z_b_78
S 804 8 4 0 0 191 812 582 6253 40822064 1020 A 0 0 0 0 0 3256 0 0 0 0 0 0 974 0 0 0 0 0 0 0 0 0 0 582 0 0 0 0 et_ks$sd
S 805 6 4 0 0 7 806 582 6262 40802061 1020 A 0 0 0 0 0 3352 0 0 0 0 0 0 974 0 0 0 0 0 0 0 0 0 0 582 0 0 0 0 et_ks$p
S 806 6 4 0 0 7 804 582 6270 40802060 1020 A 0 0 0 0 0 3360 0 0 0 0 0 0 974 0 0 0 0 0 0 0 0 0 0 582 0 0 0 0 et_ks$o
S 807 22 1 0 0 9 1 582 6278 40000000 1000 A 0 0 0 0 0 0 0 801 0 0 0 0 804 0 0 0 0 0 0 0 0 0 0 582 0 0 0 0 et_ks$arrdsc
S 808 7 6 0 0 194 1 582 6291 10a00004 51 A 0 0 0 0 0 0 812 0 0 0 814 0 0 0 0 0 0 0 0 811 0 0 813 582 0 0 0 0 et_mb
S 809 6 4 0 0 6 810 582 6297 40800006 0 A 0 0 0 0 0 316 0 0 0 0 0 0 974 0 0 0 0 0 0 0 0 0 0 582 0 0 0 0 z_b_79
S 810 6 4 0 0 6 816 582 6304 40800006 0 A 0 0 0 0 0 320 0 0 0 0 0 0 974 0 0 0 0 0 0 0 0 0 0 582 0 0 0 0 z_b_80
S 811 8 4 0 0 197 819 582 6311 40822064 1020 A 0 0 0 0 0 3368 0 0 0 0 0 0 974 0 0 0 0 0 0 0 0 0 0 582 0 0 0 0 et_mb$sd
S 812 6 4 0 0 7 813 582 6320 40802061 1020 A 0 0 0 0 0 3464 0 0 0 0 0 0 974 0 0 0 0 0 0 0 0 0 0 582 0 0 0 0 et_mb$p
S 813 6 4 0 0 7 811 582 6328 40802060 1020 A 0 0 0 0 0 3472 0 0 0 0 0 0 974 0 0 0 0 0 0 0 0 0 0 582 0 0 0 0 et_mb$o
S 814 22 1 0 0 9 1 582 6336 40000000 1000 A 0 0 0 0 0 0 0 808 0 0 0 0 811 0 0 0 0 0 0 0 0 0 0 582 0 0 0 0 et_mb$arrdsc
S 815 7 6 0 0 200 1 582 6349 10a00004 51 A 0 0 0 0 0 0 819 0 0 0 821 0 0 0 0 0 0 0 0 818 0 0 820 582 0 0 0 0 xkq
S 816 6 4 0 0 6 817 582 6353 40800006 0 A 0 0 0 0 0 324 0 0 0 0 0 0 974 0 0 0 0 0 0 0 0 0 0 582 0 0 0 0 z_b_81
S 817 6 4 0 0 6 823 582 6360 40800006 0 A 0 0 0 0 0 328 0 0 0 0 0 0 974 0 0 0 0 0 0 0 0 0 0 582 0 0 0 0 z_b_82
S 818 8 4 0 0 203 826 582 6367 40822064 1020 A 0 0 0 0 0 3480 0 0 0 0 0 0 974 0 0 0 0 0 0 0 0 0 0 582 0 0 0 0 xkq$sd
S 819 6 4 0 0 7 820 582 6374 40802061 1020 A 0 0 0 0 0 3576 0 0 0 0 0 0 974 0 0 0 0 0 0 0 0 0 0 582 0 0 0 0 xkq$p
S 820 6 4 0 0 7 818 582 6380 40802060 1020 A 0 0 0 0 0 3584 0 0 0 0 0 0 974 0 0 0 0 0 0 0 0 0 0 582 0 0 0 0 xkq$o
S 821 22 1 0 0 9 1 582 6386 40000000 1000 A 0 0 0 0 0 0 0 815 0 0 0 0 818 0 0 0 0 0 0 0 0 0 0 582 0 0 0 0 xkq$arrdsc
S 822 7 6 0 0 206 1 582 6397 10a00004 51 A 0 0 0 0 0 0 826 0 0 0 828 0 0 0 0 0 0 0 0 825 0 0 827 582 0 0 0 0 etq
S 823 6 4 0 0 6 824 582 6401 40800006 0 A 0 0 0 0 0 332 0 0 0 0 0 0 974 0 0 0 0 0 0 0 0 0 0 582 0 0 0 0 z_b_83
S 824 6 4 0 0 6 830 582 6408 40800006 0 A 0 0 0 0 0 336 0 0 0 0 0 0 974 0 0 0 0 0 0 0 0 0 0 582 0 0 0 0 z_b_84
S 825 8 4 0 0 209 833 582 6415 40822064 1020 A 0 0 0 0 0 3592 0 0 0 0 0 0 974 0 0 0 0 0 0 0 0 0 0 582 0 0 0 0 etq$sd
S 826 6 4 0 0 7 827 582 6422 40802061 1020 A 0 0 0 0 0 3688 0 0 0 0 0 0 974 0 0 0 0 0 0 0 0 0 0 582 0 0 0 0 etq$p
S 827 6 4 0 0 7 825 582 6428 40802060 1020 A 0 0 0 0 0 3696 0 0 0 0 0 0 974 0 0 0 0 0 0 0 0 0 0 582 0 0 0 0 etq$o
S 828 22 1 0 0 9 1 582 6434 40000000 1000 A 0 0 0 0 0 0 0 822 0 0 0 0 825 0 0 0 0 0 0 0 0 0 0 582 0 0 0 0 etq$arrdsc
S 829 7 6 0 0 212 1 582 6445 10a00004 51 A 0 0 0 0 0 0 833 0 0 0 835 0 0 0 0 0 0 0 0 832 0 0 834 582 0 0 0 0 xkf
S 830 6 4 0 0 6 831 582 6449 40800006 0 A 0 0 0 0 0 340 0 0 0 0 0 0 974 0 0 0 0 0 0 0 0 0 0 582 0 0 0 0 z_b_85
S 831 6 4 0 0 6 837 582 6456 40800006 0 A 0 0 0 0 0 344 0 0 0 0 0 0 974 0 0 0 0 0 0 0 0 0 0 582 0 0 0 0 z_b_86
S 832 8 4 0 0 215 840 582 6463 40822064 1020 A 0 0 0 0 0 3704 0 0 0 0 0 0 974 0 0 0 0 0 0 0 0 0 0 582 0 0 0 0 xkf$sd
S 833 6 4 0 0 7 834 582 6470 40802061 1020 A 0 0 0 0 0 3800 0 0 0 0 0 0 974 0 0 0 0 0 0 0 0 0 0 582 0 0 0 0 xkf$p
S 834 6 4 0 0 7 832 582 6476 40802060 1020 A 0 0 0 0 0 3808 0 0 0 0 0 0 974 0 0 0 0 0 0 0 0 0 0 582 0 0 0 0 xkf$o
S 835 22 1 0 0 9 1 582 6482 40000000 1000 A 0 0 0 0 0 0 0 829 0 0 0 0 832 0 0 0 0 0 0 0 0 0 0 582 0 0 0 0 xkf$arrdsc
S 836 7 6 0 0 218 1 582 6493 10a00004 51 A 0 0 0 0 0 0 840 0 0 0 842 0 0 0 0 0 0 0 0 839 0 0 841 582 0 0 0 0 wkf
S 837 6 4 0 0 6 844 582 6497 40800006 0 A 0 0 0 0 0 348 0 0 0 0 0 0 974 0 0 0 0 0 0 0 0 0 0 582 0 0 0 0 z_b_87
S 838 3 0 0 0 6 0 1 0 0 0 A 0 0 0 0 0 0 0 0 0 18 0 0 0 0 0 0 0 0 0 0 0 0 0 0 0 0 0 0 6
S 839 8 4 0 0 221 847 582 6504 40822064 1020 A 0 0 0 0 0 3816 0 0 0 0 0 0 974 0 0 0 0 0 0 0 0 0 0 582 0 0 0 0 wkf$sd
S 840 6 4 0 0 7 841 582 6511 40802061 1020 A 0 0 0 0 0 3888 0 0 0 0 0 0 974 0 0 0 0 0 0 0 0 0 0 582 0 0 0 0 wkf$p
S 841 6 4 0 0 7 839 582 6517 40802060 1020 A 0 0 0 0 0 3896 0 0 0 0 0 0 974 0 0 0 0 0 0 0 0 0 0 582 0 0 0 0 wkf$o
S 842 22 1 0 0 9 1 582 6523 40000000 1000 A 0 0 0 0 0 0 0 836 0 0 0 0 839 0 0 0 0 0 0 0 0 0 0 582 0 0 0 0 wkf$arrdsc
S 843 7 6 0 0 224 1 582 6534 10a00004 51 A 0 0 0 0 0 0 847 0 0 0 849 0 0 0 0 0 0 0 0 846 0 0 848 582 0 0 0 0 xqf
S 844 6 4 0 0 6 845 582 6538 40800006 0 A 0 0 0 0 0 352 0 0 0 0 0 0 974 0 0 0 0 0 0 0 0 0 0 582 0 0 0 0 z_b_88
S 845 6 4 0 0 6 851 582 6545 40800006 0 A 0 0 0 0 0 356 0 0 0 0 0 0 974 0 0 0 0 0 0 0 0 0 0 582 0 0 0 0 z_b_89
S 846 8 4 0 0 227 853 582 6552 40822064 1020 A 0 0 0 0 0 3904 0 0 0 0 0 0 974 0 0 0 0 0 0 0 0 0 0 582 0 0 0 0 xqf$sd
S 847 6 4 0 0 7 848 582 6559 40802061 1020 A 0 0 0 0 0 4000 0 0 0 0 0 0 974 0 0 0 0 0 0 0 0 0 0 582 0 0 0 0 xqf$p
S 848 6 4 0 0 7 846 582 6565 40802060 1020 A 0 0 0 0 0 4008 0 0 0 0 0 0 974 0 0 0 0 0 0 0 0 0 0 582 0 0 0 0 xqf$o
S 849 22 1 0 0 9 1 582 6571 40000000 1000 A 0 0 0 0 0 0 0 843 0 0 0 0 846 0 0 0 0 0 0 0 0 0 0 582 0 0 0 0 xqf$arrdsc
S 850 7 6 0 0 230 1 582 6582 10a00004 51 A 0 0 0 0 0 0 853 0 0 0 855 0 0 0 0 0 0 0 0 852 0 0 854 582 0 0 0 0 wqf
S 851 6 4 0 0 6 857 582 6586 40800006 0 A 0 0 0 0 0 360 0 0 0 0 0 0 974 0 0 0 0 0 0 0 0 0 0 582 0 0 0 0 z_b_90
S 852 8 4 0 0 233 860 582 6593 40822064 1020 A 0 0 0 0 0 4016 0 0 0 0 0 0 974 0 0 0 0 0 0 0 0 0 0 582 0 0 0 0 wqf$sd
S 853 6 4 0 0 7 854 582 6600 40802061 1020 A 0 0 0 0 0 4088 0 0 0 0 0 0 974 0 0 0 0 0 0 0 0 0 0 582 0 0 0 0 wqf$p
S 854 6 4 0 0 7 852 582 6606 40802060 1020 A 0 0 0 0 0 4096 0 0 0 0 0 0 974 0 0 0 0 0 0 0 0 0 0 582 0 0 0 0 wqf$o
S 855 22 1 0 0 9 1 582 6612 40000000 1000 A 0 0 0 0 0 0 0 850 0 0 0 0 852 0 0 0 0 0 0 0 0 0 0 582 0 0 0 0 wqf$arrdsc
S 856 7 6 0 0 236 1 582 6623 10a00004 51 A 0 0 0 0 0 0 860 0 0 0 862 0 0 0 0 0 0 0 0 859 0 0 861 582 0 0 0 0 etf
S 857 6 4 0 0 6 858 582 6627 40800006 0 A 0 0 0 0 0 364 0 0 0 0 0 0 974 0 0 0 0 0 0 0 0 0 0 582 0 0 0 0 z_b_91
S 858 6 4 0 0 6 864 582 6634 40800006 0 A 0 0 0 0 0 368 0 0 0 0 0 0 974 0 0 0 0 0 0 0 0 0 0 582 0 0 0 0 z_b_92
S 859 8 4 0 0 239 867 582 6641 40822064 1020 A 0 0 0 0 0 4104 0 0 0 0 0 0 974 0 0 0 0 0 0 0 0 0 0 582 0 0 0 0 etf$sd
S 860 6 4 0 0 7 861 582 6648 40802061 1020 A 0 0 0 0 0 4200 0 0 0 0 0 0 974 0 0 0 0 0 0 0 0 0 0 582 0 0 0 0 etf$p
S 861 6 4 0 0 7 859 582 6654 40802060 1020 A 0 0 0 0 0 4208 0 0 0 0 0 0 974 0 0 0 0 0 0 0 0 0 0 582 0 0 0 0 etf$o
S 862 22 1 0 0 9 1 582 6660 40000000 1000 A 0 0 0 0 0 0 0 856 0 0 0 0 859 0 0 0 0 0 0 0 0 0 0 582 0 0 0 0 etf$arrdsc
S 863 7 6 0 0 242 1 582 6671 10a00004 51 A 0 0 0 0 0 0 867 0 0 0 869 0 0 0 0 0 0 0 0 866 0 0 868 582 0 0 0 0 etf_ks
S 864 6 4 0 0 6 865 582 6678 40800006 0 A 0 0 0 0 0 372 0 0 0 0 0 0 974 0 0 0 0 0 0 0 0 0 0 582 0 0 0 0 z_b_93
S 865 6 4 0 0 6 871 582 6685 40800006 0 A 0 0 0 0 0 376 0 0 0 0 0 0 974 0 0 0 0 0 0 0 0 0 0 582 0 0 0 0 z_b_94
S 866 8 4 0 0 245 874 582 6692 40822064 1020 A 0 0 0 0 0 4216 0 0 0 0 0 0 974 0 0 0 0 0 0 0 0 0 0 582 0 0 0 0 etf_ks$sd
S 867 6 4 0 0 7 868 582 6702 40802061 1020 A 0 0 0 0 0 4312 0 0 0 0 0 0 974 0 0 0 0 0 0 0 0 0 0 582 0 0 0 0 etf_ks$p
S 868 6 4 0 0 7 866 582 6711 40802060 1020 A 0 0 0 0 0 4320 0 0 0 0 0 0 974 0 0 0 0 0 0 0 0 0 0 582 0 0 0 0 etf_ks$o
S 869 22 1 0 0 9 1 582 6720 40000000 1000 A 0 0 0 0 0 0 0 863 0 0 0 0 866 0 0 0 0 0 0 0 0 0 0 582 0 0 0 0 etf_ks$arrdsc
S 870 7 6 0 0 248 1 582 6734 10a00004 51 A 0 0 0 0 0 0 874 0 0 0 876 0 0 0 0 0 0 0 0 873 0 0 875 582 0 0 0 0 wf
S 871 6 4 0 0 6 872 582 6737 40800006 0 A 0 0 0 0 0 380 0 0 0 0 0 0 974 0 0 0 0 0 0 0 0 0 0 582 0 0 0 0 z_b_95
S 872 6 4 0 0 6 878 582 6744 40800006 0 A 0 0 0 0 0 384 0 0 0 0 0 0 974 0 0 0 0 0 0 0 0 0 0 582 0 0 0 0 z_b_96
S 873 8 4 0 0 251 880 582 6751 40822064 1020 A 0 0 0 0 0 4328 0 0 0 0 0 0 974 0 0 0 0 0 0 0 0 0 0 582 0 0 0 0 wf$sd
S 874 6 4 0 0 7 875 582 6757 40802061 1020 A 0 0 0 0 0 4424 0 0 0 0 0 0 974 0 0 0 0 0 0 0 0 0 0 582 0 0 0 0 wf$p
S 875 6 4 0 0 7 873 582 6762 40802060 1020 A 0 0 0 0 0 4432 0 0 0 0 0 0 974 0 0 0 0 0 0 0 0 0 0 582 0 0 0 0 wf$o
S 876 22 1 0 0 9 1 582 6767 40000000 1000 A 0 0 0 0 0 0 0 870 0 0 0 0 873 0 0 0 0 0 0 0 0 0 0 582 0 0 0 0 wf$arrdsc
S 877 7 6 0 0 254 1 582 6777 10a00004 51 A 0 0 0 0 0 0 880 0 0 0 882 0 0 0 0 0 0 0 0 879 0 0 881 582 0 0 0 0 wslen
S 878 6 4 0 0 6 884 582 6783 40800006 0 A 0 0 0 0 0 388 0 0 0 0 0 0 974 0 0 0 0 0 0 0 0 0 0 582 0 0 0 0 z_b_97
S 879 8 4 0 0 257 888 582 6790 40822064 1020 A 0 0 0 0 0 4440 0 0 0 0 0 0 974 0 0 0 0 0 0 0 0 0 0 582 0 0 0 0 wslen$sd
S 880 6 4 0 0 7 881 582 6799 40802061 1020 A 0 0 0 0 0 4512 0 0 0 0 0 0 974 0 0 0 0 0 0 0 0 0 0 582 0 0 0 0 wslen$p
S 881 6 4 0 0 7 879 582 6807 40802060 1020 A 0 0 0 0 0 4520 0 0 0 0 0 0 974 0 0 0 0 0 0 0 0 0 0 582 0 0 0 0 wslen$o
S 882 22 1 0 0 9 1 582 6815 40000000 1000 A 0 0 0 0 0 0 0 877 0 0 0 0 879 0 0 0 0 0 0 0 0 0 0 582 0 0 0 0 wslen$arrdsc
S 883 7 6 0 0 260 1 582 6828 10a00004 51 A 0 0 0 0 0 0 888 0 0 0 890 0 0 0 0 0 0 0 0 887 0 0 889 582 0 0 0 0 etfq
S 884 6 4 0 0 6 885 582 6833 40800006 0 A 0 0 0 0 0 392 0 0 0 0 0 0 974 0 0 0 0 0 0 0 0 0 0 582 0 0 0 0 z_b_98
S 885 6 4 0 0 6 886 582 6840 40800006 0 A 0 0 0 0 0 396 0 0 0 0 0 0 974 0 0 0 0 0 0 0 0 0 0 582 0 0 0 0 z_b_99
S 886 6 4 0 0 6 892 582 6847 40800006 0 A 0 0 0 0 0 400 0 0 0 0 0 0 974 0 0 0 0 0 0 0 0 0 0 582 0 0 0 0 z_b_100
S 887 8 4 0 0 263 896 582 6855 40822064 1020 A 0 0 0 0 0 4528 0 0 0 0 0 0 974 0 0 0 0 0 0 0 0 0 0 582 0 0 0 0 etfq$sd
S 888 6 4 0 0 7 889 582 6863 40802061 1020 A 0 0 0 0 0 4648 0 0 0 0 0 0 974 0 0 0 0 0 0 0 0 0 0 582 0 0 0 0 etfq$p
S 889 6 4 0 0 7 887 582 6870 40802060 1020 A 0 0 0 0 0 4656 0 0 0 0 0 0 974 0 0 0 0 0 0 0 0 0 0 582 0 0 0 0 etfq$o
S 890 22 1 0 0 9 1 582 6877 40000000 1000 A 0 0 0 0 0 0 0 883 0 0 0 0 887 0 0 0 0 0 0 0 0 0 0 582 0 0 0 0 etfq$arrdsc
S 891 7 6 0 0 266 1 582 6889 10a00004 51 A 0 0 0 0 0 0 896 0 0 0 898 0 0 0 0 0 0 0 0 895 0 0 897 582 0 0 0 0 lambda_all
S 892 6 4 0 0 6 893 582 6900 40800006 0 A 0 0 0 0 0 404 0 0 0 0 0 0 974 0 0 0 0 0 0 0 0 0 0 582 0 0 0 0 z_b_101
S 893 6 4 0 0 6 894 582 6908 40800006 0 A 0 0 0 0 0 408 0 0 0 0 0 0 974 0 0 0 0 0 0 0 0 0 0 582 0 0 0 0 z_b_102
S 894 6 4 0 0 6 900 582 6916 40800006 0 A 0 0 0 0 0 412 0 0 0 0 0 0 974 0 0 0 0 0 0 0 0 0 0 582 0 0 0 0 z_b_103
S 895 8 4 0 0 269 904 582 6924 40822064 1020 A 0 0 0 0 0 4664 0 0 0 0 0 0 974 0 0 0 0 0 0 0 0 0 0 582 0 0 0 0 lambda_all$sd
S 896 6 4 0 0 7 897 582 6938 40802061 1020 A 0 0 0 0 0 4784 0 0 0 0 0 0 974 0 0 0 0 0 0 0 0 0 0 582 0 0 0 0 lambda_all$p
S 897 6 4 0 0 7 895 582 6951 40802060 1020 A 0 0 0 0 0 4792 0 0 0 0 0 0 974 0 0 0 0 0 0 0 0 0 0 582 0 0 0 0 lambda_all$o
S 898 22 1 0 0 6 1 582 6964 40000000 1000 A 0 0 0 0 0 0 0 891 0 0 0 0 895 0 0 0 0 0 0 0 0 0 0 582 0 0 0 0 lambda_all$arrdsc
S 899 7 6 0 0 272 1 582 6982 10a00004 51 A 0 0 0 0 0 0 904 0 0 0 906 0 0 0 0 0 0 0 0 903 0 0 905 582 0 0 0 0 lambda_v_all
S 900 6 4 0 0 6 901 582 6995 40800006 0 A 0 0 0 0 0 416 0 0 0 0 0 0 974 0 0 0 0 0 0 0 0 0 0 582 0 0 0 0 z_b_104
S 901 6 4 0 0 6 902 582 7003 40800006 0 A 0 0 0 0 0 420 0 0 0 0 0 0 974 0 0 0 0 0 0 0 0 0 0 582 0 0 0 0 z_b_105
S 902 6 4 0 0 6 908 582 7011 40800006 0 A 0 0 0 0 0 424 0 0 0 0 0 0 974 0 0 0 0 0 0 0 0 0 0 582 0 0 0 0 z_b_106
S 903 8 4 0 0 275 910 582 7019 40822064 1020 A 0 0 0 0 0 4800 0 0 0 0 0 0 974 0 0 0 0 0 0 0 0 0 0 582 0 0 0 0 lambda_v_all$sd
S 904 6 4 0 0 7 905 582 7035 40802061 1020 A 0 0 0 0 0 4920 0 0 0 0 0 0 974 0 0 0 0 0 0 0 0 0 0 582 0 0 0 0 lambda_v_all$p
S 905 6 4 0 0 7 903 582 7050 40802060 1020 A 0 0 0 0 0 4928 0 0 0 0 0 0 974 0 0 0 0 0 0 0 0 0 0 582 0 0 0 0 lambda_v_all$o
S 906 22 1 0 0 6 1 582 7065 40000000 1000 A 0 0 0 0 0 0 0 899 0 0 0 0 903 0 0 0 0 0 0 0 0 0 0 582 0 0 0 0 lambda_v_all$arrdsc
S 907 7 6 0 0 278 1 582 7085 10a00004 51 A 0 0 0 0 0 0 910 0 0 0 912 0 0 0 0 0 0 0 0 909 0 0 911 582 0 0 0 0 jdos
S 908 6 4 0 0 6 914 582 7090 40800006 0 A 0 0 0 0 0 428 0 0 0 0 0 0 974 0 0 0 0 0 0 0 0 0 0 582 0 0 0 0 z_b_107
S 909 8 4 0 0 281 922 582 7098 40822064 1020 A 0 0 0 0 0 4936 0 0 0 0 0 0 974 0 0 0 0 0 0 0 0 0 0 582 0 0 0 0 jdos$sd
S 910 6 4 0 0 7 911 582 7106 40802061 1020 A 0 0 0 0 0 5008 0 0 0 0 0 0 974 0 0 0 0 0 0 0 0 0 0 582 0 0 0 0 jdos$p
S 911 6 4 0 0 7 909 582 7113 40802060 1020 A 0 0 0 0 0 5016 0 0 0 0 0 0 974 0 0 0 0 0 0 0 0 0 0 582 0 0 0 0 jdos$o
S 912 22 1 0 0 6 1 582 7120 40000000 1000 A 0 0 0 0 0 0 0 907 0 0 0 0 909 0 0 0 0 0 0 0 0 0 0 582 0 0 0 0 jdos$arrdsc
S 913 7 6 0 0 284 1 582 7132 10a00004 51 A 0 0 0 0 0 0 922 0 0 0 924 0 0 0 0 0 0 0 0 921 0 0 923 582 0 0 0 0 spectra
S 914 6 4 0 0 6 915 582 7140 40800006 0 A 0 0 0 0 0 432 0 0 0 0 0 0 974 0 0 0 0 0 0 0 0 0 0 582 0 0 0 0 z_b_108
S 915 6 4 0 0 6 916 582 7148 40800006 0 A 0 0 0 0 0 436 0 0 0 0 0 0 974 0 0 0 0 0 0 0 0 0 0 582 0 0 0 0 z_b_109
S 916 6 4 0 0 6 917 582 7156 40800006 0 A 0 0 0 0 0 440 0 0 0 0 0 0 974 0 0 0 0 0 0 0 0 0 0 582 0 0 0 0 z_b_110
S 917 6 4 0 0 6 918 582 7164 40800006 0 A 0 0 0 0 0 444 0 0 0 0 0 0 974 0 0 0 0 0 0 0 0 0 0 582 0 0 0 0 z_b_111
S 918 6 4 0 0 6 919 582 7172 40800006 0 A 0 0 0 0 0 448 0 0 0 0 0 0 974 0 0 0 0 0 0 0 0 0 0 582 0 0 0 0 z_b_112
S 919 6 4 0 0 6 928 582 7180 40800006 0 A 0 0 0 0 0 452 0 0 0 0 0 0 974 0 0 0 0 0 0 0 0 0 0 582 0 0 0 0 z_b_113
S 920 3 0 0 0 6 0 1 0 0 0 A 0 0 0 0 0 0 0 0 0 48 0 0 0 0 0 0 0 0 0 0 0 0 0 0 0 0 0 0 6
S 921 8 4 0 0 287 941 582 7188 40822064 1020 A 0 0 0 0 0 5024 0 0 0 0 0 0 974 0 0 0 0 0 0 0 0 0 0 582 0 0 0 0 spectra$sd
S 922 6 4 0 0 7 923 582 7199 40802061 1020 A 0 0 0 0 0 5216 0 0 0 0 0 0 974 0 0 0 0 0 0 0 0 0 0 582 0 0 0 0 spectra$p
S 923 6 4 0 0 7 921 582 7209 40802060 1020 A 0 0 0 0 0 5224 0 0 0 0 0 0 974 0 0 0 0 0 0 0 0 0 0 582 0 0 0 0 spectra$o
S 924 22 1 0 0 9 1 582 7219 40000000 1000 A 0 0 0 0 0 0 0 913 0 0 0 0 921 0 0 0 0 0 0 0 0 0 0 582 0 0 0 0 spectra$arrdsc
S 925 3 0 0 0 6 0 1 0 0 0 A 0 0 0 0 0 0 0 0 0 43 0 0 0 0 0 0 0 0 0 0 0 0 0 0 0 0 0 0 6
S 926 3 0 0 0 6 0 1 0 0 0 A 0 0 0 0 0 0 0 0 0 44 0 0 0 0 0 0 0 0 0 0 0 0 0 0 0 0 0 0 6
S 927 3 0 0 0 6 0 1 0 0 0 A 0 0 0 0 0 0 0 0 0 47 0 0 0 0 0 0 0 0 0 0 0 0 0 0 0 0 0 0 6
S 928 6 4 0 0 6 929 582 7234 4 0 A 0 0 0 0 0 456 0 0 0 0 0 0 974 0 0 0 0 0 0 0 0 0 0 582 0 0 0 0 nksf
S 929 6 4 0 0 6 930 582 7239 4 0 A 0 0 0 0 0 460 0 0 0 0 0 0 974 0 0 0 0 0 0 0 0 0 0 582 0 0 0 0 nksqf
S 930 6 4 0 0 6 931 582 7245 4 0 A 0 0 0 0 0 464 0 0 0 0 0 0 974 0 0 0 0 0 0 0 0 0 0 582 0 0 0 0 nkstotf
S 931 6 4 0 0 6 932 582 7253 4 0 A 0 0 0 0 0 468 0 0 0 0 0 0 974 0 0 0 0 0 0 0 0 0 0 582 0 0 0 0 nxqf
S 932 6 4 0 0 6 933 582 7258 4 0 A 0 0 0 0 0 472 0 0 0 0 0 0 974 0 0 0 0 0 0 0 0 0 0 582 0 0 0 0 nrr
S 933 6 4 0 0 6 934 582 7262 4 0 A 0 0 0 0 0 476 0 0 0 0 0 0 974 0 0 0 0 0 0 0 0 0 0 582 0 0 0 0 nrr_k
S 934 6 4 0 0 6 935 582 7268 4 0 A 0 0 0 0 0 480 0 0 0 0 0 0 974 0 0 0 0 0 0 0 0 0 0 582 0 0 0 0 nrr_q
S 935 6 4 0 0 6 936 582 7274 4 0 A 0 0 0 0 0 484 0 0 0 0 0 0 974 0 0 0 0 0 0 0 0 0 0 582 0 0 0 0 ibndmin
S 936 6 4 0 0 6 938 582 7282 4 0 A 0 0 0 0 0 488 0 0 0 0 0 0 974 0 0 0 0 0 0 0 0 0 0 582 0 0 0 0 ibndmax
S 937 7 6 0 0 290 1 582 7290 10a00004 51 A 0 0 0 0 0 0 941 0 0 0 943 0 0 0 0 0 0 0 0 940 0 0 942 582 0 0 0 0 irvec
S 938 6 4 0 0 6 939 582 7296 40800006 0 A 0 0 0 0 0 492 0 0 0 0 0 0 974 0 0 0 0 0 0 0 0 0 0 582 0 0 0 0 z_b_114
S 939 6 4 0 0 6 945 582 7304 40800006 0 A 0 0 0 0 0 496 0 0 0 0 0 0 974 0 0 0 0 0 0 0 0 0 0 582 0 0 0 0 z_b_115
S 940 8 4 0 0 293 947 582 7312 40822064 1020 A 0 0 0 0 0 5232 0 0 0 0 0 0 974 0 0 0 0 0 0 0 0 0 0 582 0 0 0 0 irvec$sd
S 941 6 4 0 0 7 942 582 7321 40802061 1020 A 0 0 0 0 0 5328 0 0 0 0 0 0 974 0 0 0 0 0 0 0 0 0 0 582 0 0 0 0 irvec$p
S 942 6 4 0 0 7 940 582 7329 40802060 1020 A 0 0 0 0 0 5336 0 0 0 0 0 0 974 0 0 0 0 0 0 0 0 0 0 582 0 0 0 0 irvec$o
S 943 22 1 0 0 6 1 582 7337 40000000 1000 A 0 0 0 0 0 0 0 937 0 0 0 0 940 0 0 0 0 0 0 0 0 0 0 582 0 0 0 0 irvec$arrdsc
S 944 7 6 0 0 296 1 582 7350 10a00004 51 A 0 0 0 0 0 0 947 0 0 0 949 0 0 0 0 0 0 0 0 946 0 0 948 582 0 0 0 0 ndegen
S 945 6 4 0 0 6 951 582 7357 40800006 0 A 0 0 0 0 0 500 0 0 0 0 0 0 974 0 0 0 0 0 0 0 0 0 0 582 0 0 0 0 z_b_116
S 946 8 4 0 0 299 953 582 7365 40822064 1020 A 0 0 0 0 0 5344 0 0 0 0 0 0 974 0 0 0 0 0 0 0 0 0 0 582 0 0 0 0 ndegen$sd
S 947 6 4 0 0 7 948 582 7375 40802061 1020 A 0 0 0 0 0 5416 0 0 0 0 0 0 974 0 0 0 0 0 0 0 0 0 0 582 0 0 0 0 ndegen$p
S 948 6 4 0 0 7 946 582 7384 40802060 1020 A 0 0 0 0 0 5424 0 0 0 0 0 0 974 0 0 0 0 0 0 0 0 0 0 582 0 0 0 0 ndegen$o
S 949 22 1 0 0 6 1 582 7393 40000000 1000 A 0 0 0 0 0 0 0 944 0 0 0 0 946 0 0 0 0 0 0 0 0 0 0 582 0 0 0 0 ndegen$arrdsc
S 950 7 6 0 0 302 1 582 7407 10a00004 51 A 0 0 0 0 0 0 953 0 0 0 955 0 0 0 0 0 0 0 0 952 0 0 954 582 0 0 0 0 ndegen_k
S 951 6 4 0 0 6 957 582 7416 40800006 0 A 0 0 0 0 0 504 0 0 0 0 0 0 974 0 0 0 0 0 0 0 0 0 0 582 0 0 0 0 z_b_117
S 952 8 4 0 0 305 959 582 7424 40822064 1020 A 0 0 0 0 0 5432 0 0 0 0 0 0 974 0 0 0 0 0 0 0 0 0 0 582 0 0 0 0 ndegen_k$sd
S 953 6 4 0 0 7 954 582 7436 40802061 1020 A 0 0 0 0 0 5504 0 0 0 0 0 0 974 0 0 0 0 0 0 0 0 0 0 582 0 0 0 0 ndegen_k$p
S 954 6 4 0 0 7 952 582 7447 40802060 1020 A 0 0 0 0 0 5512 0 0 0 0 0 0 974 0 0 0 0 0 0 0 0 0 0 582 0 0 0 0 ndegen_k$o
S 955 22 1 0 0 6 1 582 7458 40000000 1000 A 0 0 0 0 0 0 0 950 0 0 0 0 952 0 0 0 0 0 0 0 0 0 0 582 0 0 0 0 ndegen_k$arrdsc
S 956 7 6 0 0 308 1 582 7474 10a00004 51 A 0 0 0 0 0 0 959 0 0 0 961 0 0 0 0 0 0 0 0 958 0 0 960 582 0 0 0 0 ndegen_q
S 957 6 4 0 0 6 962 582 7483 40800006 0 A 0 0 0 0 0 508 0 0 0 0 0 0 974 0 0 0 0 0 0 0 0 0 0 582 0 0 0 0 z_b_118
S 958 8 4 0 0 311 965 582 7491 40822064 1020 A 0 0 0 0 0 5520 0 0 0 0 0 0 974 0 0 0 0 0 0 0 0 0 0 582 0 0 0 0 ndegen_q$sd
S 959 6 4 0 0 7 960 582 7503 40802061 1020 A 0 0 0 0 0 5592 0 0 0 0 0 0 974 0 0 0 0 0 0 0 0 0 0 582 0 0 0 0 ndegen_q$p
S 960 6 4 0 0 7 958 582 7514 40802060 1020 A 0 0 0 0 0 5600 0 0 0 0 0 0 974 0 0 0 0 0 0 0 0 0 0 582 0 0 0 0 ndegen_q$o
S 961 22 1 0 0 6 1 582 7525 40000000 1000 A 0 0 0 0 0 0 0 956 0 0 0 0 958 0 0 0 0 0 0 0 0 0 0 582 0 0 0 0 ndegen_q$arrdsc
S 962 6 4 0 0 6 969 582 7541 40800006 0 A 0 0 0 0 0 512 0 0 0 0 0 0 974 0 0 0 0 0 0 0 0 0 0 582 0 0 0 0 z_b_119
S 963 7 6 0 0 314 1 582 2777 10a00004 51 A 0 0 0 0 0 0 965 0 0 0 967 0 0 0 0 0 0 0 0 964 0 0 966 582 0 0 0 0 shift
S 964 8 4 0 0 317 971 582 7549 40822064 1020 A 0 0 0 0 0 5608 0 0 0 0 0 0 974 0 0 0 0 0 0 0 0 0 0 582 0 0 0 0 shift$sd
S 965 6 4 0 0 7 966 582 7558 40802061 1020 A 0 0 0 0 0 5680 0 0 0 0 0 0 974 0 0 0 0 0 0 0 0 0 0 582 0 0 0 0 shift$p
S 966 6 4 0 0 7 964 582 7566 40802060 1020 A 0 0 0 0 0 5688 0 0 0 0 0 0 974 0 0 0 0 0 0 0 0 0 0 582 0 0 0 0 shift$o
S 967 22 1 0 0 9 1 582 7574 40000000 1000 A 0 0 0 0 0 0 0 963 0 0 0 0 964 0 0 0 0 0 0 0 0 0 0 582 0 0 0 0 shift$arrdsc
S 968 7 6 0 0 320 1 582 7587 10a00004 51 A 0 0 0 0 0 0 971 0 0 0 973 0 0 0 0 0 0 0 0 970 0 0 972 582 0 0 0 0 gmap
S 969 6 4 0 0 6 1 582 7592 40800006 0 A 0 0 0 0 0 516 0 0 0 0 0 0 974 0 0 0 0 0 0 0 0 0 0 582 0 0 0 0 z_b_120
S 970 8 4 0 0 323 595 582 7600 40822064 1020 A 0 0 0 0 0 5696 0 0 0 0 0 0 974 0 0 0 0 0 0 0 0 0 0 582 0 0 0 0 gmap$sd
S 971 6 4 0 0 7 972 582 7608 40802061 1020 A 0 0 0 0 0 5768 0 0 0 0 0 0 974 0 0 0 0 0 0 0 0 0 0 582 0 0 0 0 gmap$p
S 972 6 4 0 0 7 970 582 7615 40802060 1020 A 0 0 0 0 0 5776 0 0 0 0 0 0 974 0 0 0 0 0 0 0 0 0 0 582 0 0 0 0 gmap$o
S 973 22 1 0 0 9 1 582 7622 40000000 1000 A 0 0 0 0 0 0 0 968 0 0 0 0 970 0 0 0 0 0 0 0 0 0 0 582 0 0 0 0 gmap$arrdsc
S 974 11 0 0 0 9 1 582 7634 40800000 801000 A 0 0 0 0 0 6304 0 0 601 969 0 0 0 0 0 0 0 0 0 0 0 0 0 0 0 0 0 0 _el_phon$0
A 13 2 0 0 0 6 585 0 0 0 13 0 0 0 0 0 0 0 0 0
A 21 2 0 0 0 6 599 0 0 0 21 0 0 0 0 0 0 0 0 0
A 22 2 0 0 0 6 604 0 0 0 22 0 0 0 0 0 0 0 0 0
A 23 1 0 1 0 59 600 0 0 0 0 0 0 0 0 0 0 0 0 0
A 24 10 0 0 0 6 23 1 0 0 0 0 0 0 0 0 0 0 0 0
X 1 22
A 25 2 0 0 0 6 605 0 0 0 25 0 0 0 0 0 0 0 0 0
A 26 10 0 0 24 6 23 4 0 0 0 0 0 0 0 0 0 0 0 0
X 1 25
A 27 4 0 0 0 6 26 0 3 0 0 0 0 2 0 0 0 0 0 0
A 28 4 0 0 0 6 24 0 27 0 0 0 0 1 0 0 0 0 0 0
A 29 2 0 0 0 6 606 0 0 0 29 0 0 0 0 0 0 0 0 0
A 30 10 0 0 26 6 23 7 0 0 0 0 0 0 0 0 0 0 0 0
X 1 29
A 31 2 0 0 0 6 607 0 0 0 31 0 0 0 0 0 0 0 0 0
A 32 10 0 0 30 6 23 10 0 0 0 0 0 0 0 0 0 0 0 0
X 1 31
A 33 4 0 0 0 6 32 0 3 0 0 0 0 2 0 0 0 0 0 0
A 34 4 0 0 0 6 30 0 33 0 0 0 0 1 0 0 0 0 0 0
A 35 2 0 0 0 6 608 0 0 0 35 0 0 0 0 0 0 0 0 0
A 36 10 0 0 32 6 23 13 0 0 0 0 0 0 0 0 0 0 0 0
X 1 35
A 37 2 0 0 0 6 609 0 0 0 37 0 0 0 0 0 0 0 0 0
A 38 10 0 0 36 6 23 16 0 0 0 0 0 0 0 0 0 0 0 0
X 1 37
A 39 4 0 0 0 6 38 0 3 0 0 0 0 2 0 0 0 0 0 0
A 40 4 0 0 0 6 36 0 39 0 0 0 0 1 0 0 0 0 0 0
A 41 2 0 0 0 6 610 0 0 0 41 0 0 0 0 0 0 0 0 0
A 42 10 0 0 38 6 23 19 0 0 0 0 0 0 0 0 0 0 0 0
X 1 41
A 43 2 0 0 0 6 611 0 0 0 43 0 0 0 0 0 0 0 0 0
A 44 10 0 0 42 6 23 22 0 0 0 0 0 0 0 0 0 0 0 0
X 1 43
A 45 4 0 0 0 6 44 0 3 0 0 0 0 2 0 0 0 0 0 0
A 46 4 0 0 0 6 42 0 45 0 0 0 0 1 0 0 0 0 0 0
A 47 2 0 0 0 6 612 0 0 0 47 0 0 0 0 0 0 0 0 0
A 48 10 0 0 44 6 23 25 0 0 0 0 0 0 0 0 0 0 0 0
X 1 47
A 49 2 0 0 0 6 613 0 0 0 49 0 0 0 0 0 0 0 0 0
A 50 10 0 0 48 6 23 28 0 0 0 0 0 0 0 0 0 0 0 0
X 1 49
A 51 2 0 0 0 6 614 0 0 0 51 0 0 0 0 0 0 0 0 0
A 52 10 0 0 50 6 23 31 0 0 0 0 0 0 0 0 0 0 0 0
X 1 51
A 53 2 0 0 0 6 615 0 0 0 53 0 0 0 0 0 0 0 0 0
A 54 10 0 0 52 6 23 34 0 0 0 0 0 0 0 0 0 0 0 0
X 1 53
A 55 2 0 0 0 6 616 0 0 0 55 0 0 0 0 0 0 0 0 0
A 56 10 0 0 54 6 23 37 0 0 0 0 0 0 0 0 0 0 0 0
X 1 55
A 57 10 0 0 56 6 23 40 0 0 0 0 0 0 0 0 0 0 0 0
X 1 13
A 61 2 0 0 28 6 621 0 0 0 61 0 0 0 0 0 0 0 0 0
A 62 1 0 3 0 65 622 0 0 0 0 0 0 0 0 0 0 0 0 0
A 63 10 0 0 62 6 62 1 0 0 0 0 0 0 0 0 0 0 0 0
X 1 22
A 64 10 0 0 63 6 62 4 0 0 0 0 0 0 0 0 0 0 0 0
X 1 25
A 65 4 0 0 0 6 64 0 3 0 0 0 0 2 0 0 0 0 0 0
A 66 4 0 0 0 6 63 0 65 0 0 0 0 1 0 0 0 0 0 0
A 67 10 0 0 64 6 62 7 0 0 0 0 0 0 0 0 0 0 0 0
X 1 29
A 68 10 0 0 67 6 62 10 0 0 0 0 0 0 0 0 0 0 0 0
X 1 31
A 69 4 0 0 0 6 68 0 3 0 0 0 0 2 0 0 0 0 0 0
A 70 4 0 0 0 6 67 0 69 0 0 0 0 1 0 0 0 0 0 0
A 71 10 0 0 68 6 62 13 0 0 0 0 0 0 0 0 0 0 0 0
X 1 35
A 72 10 0 0 71 6 62 16 0 0 0 0 0 0 0 0 0 0 0 0
X 1 37
A 73 4 0 0 0 6 72 0 3 0 0 0 0 2 0 0 0 0 0 0
A 74 4 0 0 0 6 71 0 73 0 0 0 0 1 0 0 0 0 0 0
A 75 10 0 0 72 6 62 25 0 0 0 0 0 0 0 0 0 0 0 0
X 1 47
A 76 10 0 0 75 6 62 28 0 0 0 0 0 0 0 0 0 0 0 0
X 1 49
A 77 10 0 0 76 6 62 31 0 0 0 0 0 0 0 0 0 0 0 0
X 1 51
A 78 10 0 0 77 6 62 37 0 0 0 0 0 0 0 0 0 0 0 0
X 1 55
A 79 10 0 0 78 6 62 40 0 0 0 0 0 0 0 0 0 0 0 0
X 1 13
A 83 1 0 3 0 71 630 0 0 0 0 0 0 0 0 0 0 0 0 0
A 84 10 0 0 14 6 83 1 0 0 0 0 0 0 0 0 0 0 0 0
X 1 22
A 85 10 0 0 84 6 83 4 0 0 0 0 0 0 0 0 0 0 0 0
X 1 25
A 86 4 0 0 0 6 85 0 3 0 0 0 0 2 0 0 0 0 0 0
A 87 4 0 0 0 6 84 0 86 0 0 0 0 1 0 0 0 0 0 0
A 88 10 0 0 85 6 83 7 0 0 0 0 0 0 0 0 0 0 0 0
X 1 29
A 89 10 0 0 88 6 83 10 0 0 0 0 0 0 0 0 0 0 0 0
X 1 31
A 90 4 0 0 0 6 89 0 3 0 0 0 0 2 0 0 0 0 0 0
A 91 4 0 0 0 6 88 0 90 0 0 0 0 1 0 0 0 0 0 0
A 92 10 0 0 89 6 83 13 0 0 0 0 0 0 0 0 0 0 0 0
X 1 35
A 93 10 0 0 92 6 83 16 0 0 0 0 0 0 0 0 0 0 0 0
X 1 37
A 94 4 0 0 0 6 93 0 3 0 0 0 0 2 0 0 0 0 0 0
A 95 4 0 0 0 6 92 0 94 0 0 0 0 1 0 0 0 0 0 0
A 96 10 0 0 93 6 83 25 0 0 0 0 0 0 0 0 0 0 0 0
X 1 47
A 97 10 0 0 96 6 83 28 0 0 0 0 0 0 0 0 0 0 0 0
X 1 49
A 98 10 0 0 97 6 83 31 0 0 0 0 0 0 0 0 0 0 0 0
X 1 51
A 99 10 0 0 98 6 83 37 0 0 0 0 0 0 0 0 0 0 0 0
X 1 55
A 100 10 0 0 99 6 83 40 0 0 0 0 0 0 0 0 0 0 0 0
X 1 13
A 104 1 0 3 0 77 638 0 0 0 0 0 0 0 0 0 0 0 0 0
A 105 10 0 0 0 6 104 1 0 0 0 0 0 0 0 0 0 0 0 0
X 1 22
A 106 10 0 0 105 6 104 4 0 0 0 0 0 0 0 0 0 0 0 0
X 1 25
A 107 4 0 0 0 6 106 0 3 0 0 0 0 2 0 0 0 0 0 0
A 108 4 0 0 0 6 105 0 107 0 0 0 0 1 0 0 0 0 0 0
A 109 10 0 0 106 6 104 7 0 0 0 0 0 0 0 0 0 0 0 0
X 1 29
A 110 10 0 0 109 6 104 10 0 0 0 0 0 0 0 0 0 0 0 0
X 1 31
A 111 4 0 0 21 6 110 0 3 0 0 0 0 2 0 0 0 0 0 0
A 112 4 0 0 0 6 109 0 111 0 0 0 0 1 0 0 0 0 0 0
A 113 10 0 0 110 6 104 13 0 0 0 0 0 0 0 0 0 0 0 0
X 1 35
A 114 10 0 0 113 6 104 16 0 0 0 0 0 0 0 0 0 0 0 0
X 1 37
A 115 4 0 0 0 6 114 0 3 0 0 0 0 2 0 0 0 0 0 0
A 116 4 0 0 115 6 113 0 115 0 0 0 0 1 0 0 0 0 0 0
A 117 10 0 0 114 6 104 25 0 0 0 0 0 0 0 0 0 0 0 0
X 1 47
A 118 10 0 0 117 6 104 28 0 0 0 0 0 0 0 0 0 0 0 0
X 1 49
A 119 10 0 0 118 6 104 31 0 0 0 0 0 0 0 0 0 0 0 0
X 1 51
A 120 10 0 0 119 6 104 37 0 0 0 0 0 0 0 0 0 0 0 0
X 1 55
A 121 10 0 0 120 6 104 40 0 0 0 0 0 0 0 0 0 0 0 0
X 1 13
A 125 1 0 3 0 83 646 0 0 0 0 0 0 0 0 0 0 0 0 0
A 126 10 0 0 0 6 125 1 0 0 0 0 0 0 0 0 0 0 0 0
X 1 22
A 127 10 0 0 126 6 125 4 0 0 0 0 0 0 0 0 0 0 0 0
X 1 25
A 128 4 0 0 55 6 127 0 3 0 0 0 0 2 0 0 0 0 0 0
A 129 4 0 0 0 6 126 0 128 0 0 0 0 1 0 0 0 0 0 0
A 130 10 0 0 127 6 125 7 0 0 0 0 0 0 0 0 0 0 0 0
X 1 29
A 131 10 0 0 130 6 125 10 0 0 0 0 0 0 0 0 0 0 0 0
X 1 31
A 132 4 0 0 0 6 131 0 3 0 0 0 0 2 0 0 0 0 0 0
A 133 4 0 0 0 6 130 0 132 0 0 0 0 1 0 0 0 0 0 0
A 134 10 0 0 131 6 125 13 0 0 0 0 0 0 0 0 0 0 0 0
X 1 35
A 135 10 0 0 134 6 125 16 0 0 0 0 0 0 0 0 0 0 0 0
X 1 37
A 136 4 0 0 0 6 135 0 3 0 0 0 0 2 0 0 0 0 0 0
A 137 4 0 0 0 6 134 0 136 0 0 0 0 1 0 0 0 0 0 0
A 138 10 0 0 135 6 125 25 0 0 0 0 0 0 0 0 0 0 0 0
X 1 47
A 139 10 0 0 138 6 125 28 0 0 0 0 0 0 0 0 0 0 0 0
X 1 49
A 140 10 0 0 139 6 125 31 0 0 0 0 0 0 0 0 0 0 0 0
X 1 51
A 141 10 0 0 140 6 125 37 0 0 0 0 0 0 0 0 0 0 0 0
X 1 55
A 142 10 0 0 141 6 125 40 0 0 0 0 0 0 0 0 0 0 0 0
X 1 13
A 147 1 0 1 0 89 655 0 0 0 0 0 0 0 0 0 0 0 0 0
A 148 10 0 0 144 6 147 1 0 0 0 0 0 0 0 0 0 0 0 0
X 1 22
A 149 10 0 0 148 6 147 4 0 0 0 0 0 0 0 0 0 0 0 0
X 1 25
A 150 4 0 0 0 6 149 0 3 0 0 0 0 2 0 0 0 0 0 0
A 151 4 0 0 0 6 148 0 150 0 0 0 0 1 0 0 0 0 0 0
A 152 10 0 0 149 6 147 7 0 0 0 0 0 0 0 0 0 0 0 0
X 1 29
A 153 10 0 0 152 6 147 10 0 0 0 0 0 0 0 0 0 0 0 0
X 1 31
A 154 4 0 0 0 6 153 0 3 0 0 0 0 2 0 0 0 0 0 0
A 155 4 0 0 0 6 152 0 154 0 0 0 0 1 0 0 0 0 0 0
A 156 10 0 0 153 6 147 13 0 0 0 0 0 0 0 0 0 0 0 0
X 1 35
A 157 10 0 0 156 6 147 16 0 0 0 0 0 0 0 0 0 0 0 0
X 1 37
A 158 4 0 0 0 6 157 0 3 0 0 0 0 2 0 0 0 0 0 0
A 159 4 0 0 0 6 156 0 158 0 0 0 0 1 0 0 0 0 0 0
A 160 10 0 0 157 6 147 19 0 0 0 0 0 0 0 0 0 0 0 0
X 1 41
A 161 10 0 0 160 6 147 22 0 0 0 0 0 0 0 0 0 0 0 0
X 1 43
A 162 4 0 0 0 6 161 0 3 0 0 0 0 2 0 0 0 0 0 0
A 163 4 0 0 41 6 160 0 162 0 0 0 0 1 0 0 0 0 0 0
A 164 10 0 0 161 6 147 25 0 0 0 0 0 0 0 0 0 0 0 0
X 1 47
A 165 10 0 0 164 6 147 28 0 0 0 0 0 0 0 0 0 0 0 0
X 1 49
A 166 10 0 0 165 6 147 31 0 0 0 0 0 0 0 0 0 0 0 0
X 1 51
A 167 10 0 0 166 6 147 34 0 0 0 0 0 0 0 0 0 0 0 0
X 1 53
A 168 10 0 0 167 6 147 37 0 0 0 0 0 0 0 0 0 0 0 0
X 1 55
A 169 10 0 0 168 6 147 40 0 0 0 0 0 0 0 0 0 0 0 0
X 1 13
A 174 1 0 1 0 95 664 0 0 0 0 0 0 0 0 0 0 0 0 0
A 175 10 0 0 0 6 174 1 0 0 0 0 0 0 0 0 0 0 0 0
X 1 22
A 176 10 0 0 175 6 174 4 0 0 0 0 0 0 0 0 0 0 0 0
X 1 25
A 177 4 0 0 0 6 176 0 3 0 0 0 0 2 0 0 0 0 0 0
A 178 4 0 0 0 6 175 0 177 0 0 0 0 1 0 0 0 0 0 0
A 179 10 0 0 176 6 174 7 0 0 0 0 0 0 0 0 0 0 0 0
X 1 29
A 180 10 0 0 179 6 174 10 0 0 0 0 0 0 0 0 0 0 0 0
X 1 31
A 181 4 0 0 0 6 180 0 3 0 0 0 0 2 0 0 0 0 0 0
A 182 4 0 0 83 6 179 0 181 0 0 0 0 1 0 0 0 0 0 0
A 183 10 0 0 180 6 174 13 0 0 0 0 0 0 0 0 0 0 0 0
X 1 35
A 184 10 0 0 183 6 174 16 0 0 0 0 0 0 0 0 0 0 0 0
X 1 37
A 185 4 0 0 0 6 184 0 3 0 0 0 0 2 0 0 0 0 0 0
A 186 4 0 0 19 6 183 0 185 0 0 0 0 1 0 0 0 0 0 0
A 187 10 0 0 184 6 174 19 0 0 0 0 0 0 0 0 0 0 0 0
X 1 41
A 188 10 0 0 187 6 174 22 0 0 0 0 0 0 0 0 0 0 0 0
X 1 43
A 189 4 0 0 0 6 188 0 3 0 0 0 0 2 0 0 0 0 0 0
A 190 4 0 0 59 6 187 0 189 0 0 0 0 1 0 0 0 0 0 0
A 191 10 0 0 188 6 174 25 0 0 0 0 0 0 0 0 0 0 0 0
X 1 47
A 192 10 0 0 191 6 174 28 0 0 0 0 0 0 0 0 0 0 0 0
X 1 49
A 193 10 0 0 192 6 174 31 0 0 0 0 0 0 0 0 0 0 0 0
X 1 51
A 194 10 0 0 193 6 174 34 0 0 0 0 0 0 0 0 0 0 0 0
X 1 53
A 195 10 0 0 194 6 174 37 0 0 0 0 0 0 0 0 0 0 0 0
X 1 55
A 196 10 0 0 195 6 174 40 0 0 0 0 0 0 0 0 0 0 0 0
X 1 13
A 200 1 0 3 0 101 672 0 0 0 0 0 0 0 0 0 0 0 0 0
A 201 10 0 0 0 6 200 1 0 0 0 0 0 0 0 0 0 0 0 0
X 1 22
A 202 10 0 0 201 6 200 4 0 0 0 0 0 0 0 0 0 0 0 0
X 1 25
A 203 4 0 0 0 6 202 0 3 0 0 0 0 2 0 0 0 0 0 0
A 204 4 0 0 0 6 201 0 203 0 0 0 0 1 0 0 0 0 0 0
A 205 10 0 0 202 6 200 7 0 0 0 0 0 0 0 0 0 0 0 0
X 1 29
A 206 10 0 0 205 6 200 10 0 0 0 0 0 0 0 0 0 0 0 0
X 1 31
A 207 4 0 0 87 6 206 0 3 0 0 0 0 2 0 0 0 0 0 0
A 208 4 0 0 29 6 205 0 207 0 0 0 0 1 0 0 0 0 0 0
A 209 10 0 0 206 6 200 13 0 0 0 0 0 0 0 0 0 0 0 0
X 1 35
A 210 10 0 0 209 6 200 16 0 0 0 0 0 0 0 0 0 0 0 0
X 1 37
A 211 4 0 0 0 6 210 0 3 0 0 0 0 2 0 0 0 0 0 0
A 212 4 0 0 0 6 209 0 211 0 0 0 0 1 0 0 0 0 0 0
A 213 10 0 0 210 6 200 25 0 0 0 0 0 0 0 0 0 0 0 0
X 1 47
A 214 10 0 0 213 6 200 28 0 0 0 0 0 0 0 0 0 0 0 0
X 1 49
A 215 10 0 0 214 6 200 31 0 0 0 0 0 0 0 0 0 0 0 0
X 1 51
A 216 10 0 0 215 6 200 37 0 0 0 0 0 0 0 0 0 0 0 0
X 1 55
A 217 10 0 0 216 6 200 40 0 0 0 0 0 0 0 0 0 0 0 0
X 1 13
A 222 1 0 1 0 107 681 0 0 0 0 0 0 0 0 0 0 0 0 0
A 223 10 0 0 53 6 222 1 0 0 0 0 0 0 0 0 0 0 0 0
X 1 22
A 224 10 0 0 223 6 222 4 0 0 0 0 0 0 0 0 0 0 0 0
X 1 25
A 225 4 0 0 0 6 224 0 3 0 0 0 0 2 0 0 0 0 0 0
A 226 4 0 0 0 6 223 0 225 0 0 0 0 1 0 0 0 0 0 0
A 227 10 0 0 224 6 222 7 0 0 0 0 0 0 0 0 0 0 0 0
X 1 29
A 228 10 0 0 227 6 222 10 0 0 0 0 0 0 0 0 0 0 0 0
X 1 31
A 229 4 0 0 91 6 228 0 3 0 0 0 0 2 0 0 0 0 0 0
A 230 4 0 0 0 6 227 0 229 0 0 0 0 1 0 0 0 0 0 0
A 231 10 0 0 228 6 222 13 0 0 0 0 0 0 0 0 0 0 0 0
X 1 35
A 232 10 0 0 231 6 222 16 0 0 0 0 0 0 0 0 0 0 0 0
X 1 37
A 233 4 0 0 0 6 232 0 3 0 0 0 0 2 0 0 0 0 0 0
A 234 4 0 0 0 6 231 0 233 0 0 0 0 1 0 0 0 0 0 0
A 235 10 0 0 232 6 222 19 0 0 0 0 0 0 0 0 0 0 0 0
X 1 41
A 236 10 0 0 235 6 222 22 0 0 0 0 0 0 0 0 0 0 0 0
X 1 43
A 237 4 0 0 0 6 236 0 3 0 0 0 0 2 0 0 0 0 0 0
A 238 4 0 0 0 6 235 0 237 0 0 0 0 1 0 0 0 0 0 0
A 239 10 0 0 236 6 222 25 0 0 0 0 0 0 0 0 0 0 0 0
X 1 47
A 240 10 0 0 239 6 222 28 0 0 0 0 0 0 0 0 0 0 0 0
X 1 49
A 241 10 0 0 240 6 222 31 0 0 0 0 0 0 0 0 0 0 0 0
X 1 51
A 242 10 0 0 241 6 222 34 0 0 0 0 0 0 0 0 0 0 0 0
X 1 53
A 243 10 0 0 242 6 222 37 0 0 0 0 0 0 0 0 0 0 0 0
X 1 55
A 244 10 0 0 243 6 222 40 0 0 0 0 0 0 0 0 0 0 0 0
X 1 13
A 248 1 0 3 0 113 689 0 0 0 0 0 0 0 0 0 0 0 0 0
A 249 10 0 0 0 6 248 1 0 0 0 0 0 0 0 0 0 0 0 0
X 1 22
A 250 10 0 0 249 6 248 4 0 0 0 0 0 0 0 0 0 0 0 0
X 1 25
A 251 4 0 0 95 6 250 0 3 0 0 0 0 2 0 0 0 0 0 0
A 252 4 0 0 0 6 249 0 251 0 0 0 0 1 0 0 0 0 0 0
A 253 10 0 0 250 6 248 7 0 0 0 0 0 0 0 0 0 0 0 0
X 1 29
A 254 10 0 0 253 6 248 10 0 0 0 0 0 0 0 0 0 0 0 0
X 1 31
A 255 4 0 0 0 6 254 0 3 0 0 0 0 2 0 0 0 0 0 0
A 256 4 0 0 125 6 253 0 255 0 0 0 0 1 0 0 0 0 0 0
A 257 10 0 0 254 6 248 13 0 0 0 0 0 0 0 0 0 0 0 0
X 1 35
A 258 10 0 0 257 6 248 16 0 0 0 0 0 0 0 0 0 0 0 0
X 1 37
A 259 4 0 0 222 6 258 0 3 0 0 0 0 2 0 0 0 0 0 0
A 260 4 0 0 0 6 257 0 259 0 0 0 0 1 0 0 0 0 0 0
A 261 10 0 0 258 6 248 25 0 0 0 0 0 0 0 0 0 0 0 0
X 1 47
A 262 10 0 0 261 6 248 28 0 0 0 0 0 0 0 0 0 0 0 0
X 1 49
A 263 10 0 0 262 6 248 31 0 0 0 0 0 0 0 0 0 0 0 0
X 1 51
A 264 10 0 0 263 6 248 37 0 0 0 0 0 0 0 0 0 0 0 0
X 1 55
A 265 10 0 0 264 6 248 40 0 0 0 0 0 0 0 0 0 0 0 0
X 1 13
A 269 1 0 3 154 119 697 0 0 0 0 0 0 0 0 0 0 0 0 0
A 270 10 0 0 0 6 269 1 0 0 0 0 0 0 0 0 0 0 0 0
X 1 22
A 271 10 0 0 270 6 269 4 0 0 0 0 0 0 0 0 0 0 0 0
X 1 25
A 272 4 0 0 0 6 271 0 3 0 0 0 0 2 0 0 0 0 0 0
A 273 4 0 0 0 6 270 0 272 0 0 0 0 1 0 0 0 0 0 0
A 274 10 0 0 271 6 269 7 0 0 0 0 0 0 0 0 0 0 0 0
X 1 29
A 275 10 0 0 274 6 269 10 0 0 0 0 0 0 0 0 0 0 0 0
X 1 31
A 276 4 0 0 0 6 275 0 3 0 0 0 0 2 0 0 0 0 0 0
A 277 4 0 0 0 6 274 0 276 0 0 0 0 1 0 0 0 0 0 0
A 278 10 0 0 275 6 269 13 0 0 0 0 0 0 0 0 0 0 0 0
X 1 35
A 279 10 0 0 278 6 269 16 0 0 0 0 0 0 0 0 0 0 0 0
X 1 37
A 280 4 0 0 0 6 279 0 3 0 0 0 0 2 0 0 0 0 0 0
A 281 4 0 0 0 6 278 0 280 0 0 0 0 1 0 0 0 0 0 0
A 282 10 0 0 279 6 269 25 0 0 0 0 0 0 0 0 0 0 0 0
X 1 47
A 283 10 0 0 282 6 269 28 0 0 0 0 0 0 0 0 0 0 0 0
X 1 49
A 284 10 0 0 283 6 269 31 0 0 0 0 0 0 0 0 0 0 0 0
X 1 51
A 285 10 0 0 284 6 269 37 0 0 0 0 0 0 0 0 0 0 0 0
X 1 55
A 286 10 0 0 285 6 269 40 0 0 0 0 0 0 0 0 0 0 0 0
X 1 13
A 290 1 0 3 162 125 705 0 0 0 0 0 0 0 0 0 0 0 0 0
A 291 10 0 0 0 6 290 1 0 0 0 0 0 0 0 0 0 0 0 0
X 1 22
A 292 10 0 0 291 6 290 4 0 0 0 0 0 0 0 0 0 0 0 0
X 1 25
A 293 4 0 0 0 6 292 0 3 0 0 0 0 2 0 0 0 0 0 0
A 294 4 0 0 220 6 291 0 293 0 0 0 0 1 0 0 0 0 0 0
A 295 10 0 0 292 6 290 7 0 0 0 0 0 0 0 0 0 0 0 0
X 1 29
A 296 10 0 0 295 6 290 10 0 0 0 0 0 0 0 0 0 0 0 0
X 1 31
A 297 4 0 0 0 6 296 0 3 0 0 0 0 2 0 0 0 0 0 0
A 298 4 0 0 0 6 295 0 297 0 0 0 0 1 0 0 0 0 0 0
A 299 10 0 0 296 6 290 13 0 0 0 0 0 0 0 0 0 0 0 0
X 1 35
A 300 10 0 0 299 6 290 16 0 0 0 0 0 0 0 0 0 0 0 0
X 1 37
A 301 4 0 0 0 6 300 0 3 0 0 0 0 2 0 0 0 0 0 0
A 302 4 0 0 43 6 299 0 301 0 0 0 0 1 0 0 0 0 0 0
A 303 10 0 0 300 6 290 25 0 0 0 0 0 0 0 0 0 0 0 0
X 1 47
A 304 10 0 0 303 6 290 28 0 0 0 0 0 0 0 0 0 0 0 0
X 1 49
A 305 10 0 0 304 6 290 31 0 0 0 0 0 0 0 0 0 0 0 0
X 1 51
A 306 10 0 0 305 6 290 37 0 0 0 0 0 0 0 0 0 0 0 0
X 1 55
A 307 10 0 0 306 6 290 40 0 0 0 0 0 0 0 0 0 0 0 0
X 1 13
A 311 1 0 3 0 131 713 0 0 0 0 0 0 0 0 0 0 0 0 0
A 312 10 0 0 0 6 311 1 0 0 0 0 0 0 0 0 0 0 0 0
X 1 22
A 313 10 0 0 312 6 311 4 0 0 0 0 0 0 0 0 0 0 0 0
X 1 25
A 314 4 0 0 0 6 313 0 3 0 0 0 0 2 0 0 0 0 0 0
A 315 4 0 0 0 6 312 0 314 0 0 0 0 1 0 0 0 0 0 0
A 316 10 0 0 313 6 311 7 0 0 0 0 0 0 0 0 0 0 0 0
X 1 29
A 317 10 0 0 316 6 311 10 0 0 0 0 0 0 0 0 0 0 0 0
X 1 31
A 318 4 0 0 0 6 317 0 3 0 0 0 0 2 0 0 0 0 0 0
A 319 4 0 0 0 6 316 0 318 0 0 0 0 1 0 0 0 0 0 0
A 320 10 0 0 317 6 311 13 0 0 0 0 0 0 0 0 0 0 0 0
X 1 35
A 321 10 0 0 320 6 311 16 0 0 0 0 0 0 0 0 0 0 0 0
X 1 37
A 322 4 0 0 0 6 321 0 3 0 0 0 0 2 0 0 0 0 0 0
A 323 4 0 0 18 6 320 0 322 0 0 0 0 1 0 0 0 0 0 0
A 324 10 0 0 321 6 311 25 0 0 0 0 0 0 0 0 0 0 0 0
X 1 47
A 325 10 0 0 324 6 311 28 0 0 0 0 0 0 0 0 0 0 0 0
X 1 49
A 326 10 0 0 325 6 311 31 0 0 0 0 0 0 0 0 0 0 0 0
X 1 51
A 327 10 0 0 326 6 311 37 0 0 0 0 0 0 0 0 0 0 0 0
X 1 55
A 328 10 0 0 327 6 311 40 0 0 0 0 0 0 0 0 0 0 0 0
X 1 13
A 332 1 0 3 0 137 721 0 0 0 0 0 0 0 0 0 0 0 0 0
A 333 10 0 0 237 6 332 1 0 0 0 0 0 0 0 0 0 0 0 0
X 1 22
A 334 10 0 0 333 6 332 4 0 0 0 0 0 0 0 0 0 0 0 0
X 1 25
A 335 4 0 0 0 6 334 0 3 0 0 0 0 2 0 0 0 0 0 0
A 336 4 0 0 0 6 333 0 335 0 0 0 0 1 0 0 0 0 0 0
A 337 10 0 0 334 6 332 7 0 0 0 0 0 0 0 0 0 0 0 0
X 1 29
A 338 10 0 0 337 6 332 10 0 0 0 0 0 0 0 0 0 0 0 0
X 1 31
A 339 4 0 0 0 6 338 0 3 0 0 0 0 2 0 0 0 0 0 0
A 340 4 0 0 0 6 337 0 339 0 0 0 0 1 0 0 0 0 0 0
A 341 10 0 0 338 6 332 13 0 0 0 0 0 0 0 0 0 0 0 0
X 1 35
A 342 10 0 0 341 6 332 16 0 0 0 0 0 0 0 0 0 0 0 0
X 1 37
A 343 4 0 0 0 6 342 0 3 0 0 0 0 2 0 0 0 0 0 0
A 344 4 0 0 0 6 341 0 343 0 0 0 0 1 0 0 0 0 0 0
A 345 10 0 0 342 6 332 25 0 0 0 0 0 0 0 0 0 0 0 0
X 1 47
A 346 10 0 0 345 6 332 28 0 0 0 0 0 0 0 0 0 0 0 0
X 1 49
A 347 10 0 0 346 6 332 31 0 0 0 0 0 0 0 0 0 0 0 0
X 1 51
A 348 10 0 0 347 6 332 37 0 0 0 0 0 0 0 0 0 0 0 0
X 1 55
A 349 10 0 0 348 6 332 40 0 0 0 0 0 0 0 0 0 0 0 0
X 1 13
A 355 2 0 0 0 6 731 0 0 0 355 0 0 0 0 0 0 0 0 0
A 356 1 0 5 0 143 732 0 0 0 0 0 0 0 0 0 0 0 0 0
A 357 10 0 0 234 6 356 1 0 0 0 0 0 0 0 0 0 0 0 0
X 1 22
A 358 10 0 0 357 6 356 4 0 0 0 0 0 0 0 0 0 0 0 0
X 1 25
A 359 4 0 0 0 6 358 0 3 0 0 0 0 2 0 0 0 0 0 0
A 360 4 0 0 0 6 357 0 359 0 0 0 0 1 0 0 0 0 0 0
A 361 10 0 0 358 6 356 7 0 0 0 0 0 0 0 0 0 0 0 0
X 1 29
A 362 10 0 0 361 6 356 10 0 0 0 0 0 0 0 0 0 0 0 0
X 1 31
A 363 4 0 0 344 6 362 0 3 0 0 0 0 2 0 0 0 0 0 0
A 364 4 0 0 0 6 361 0 363 0 0 0 0 1 0 0 0 0 0 0
A 365 10 0 0 362 6 356 13 0 0 0 0 0 0 0 0 0 0 0 0
X 1 35
A 366 10 0 0 365 6 356 16 0 0 0 0 0 0 0 0 0 0 0 0
X 1 37
A 367 4 0 0 0 6 366 0 3 0 0 0 0 2 0 0 0 0 0 0
A 368 4 0 0 104 6 365 0 367 0 0 0 0 1 0 0 0 0 0 0
A 369 10 0 0 366 6 356 19 0 0 0 0 0 0 0 0 0 0 0 0
X 1 41
A 370 10 0 0 369 6 356 22 0 0 0 0 0 0 0 0 0 0 0 0
X 1 43
A 371 4 0 0 0 6 370 0 3 0 0 0 0 2 0 0 0 0 0 0
A 372 4 0 0 0 6 369 0 371 0 0 0 0 1 0 0 0 0 0 0
A 373 2 0 0 0 6 736 0 0 0 373 0 0 0 0 0 0 0 0 0
A 374 10 0 0 370 6 356 43 0 0 0 0 0 0 0 0 0 0 0 0
X 1 373
A 375 2 0 0 0 6 737 0 0 0 375 0 0 0 0 0 0 0 0 0
A 376 10 0 0 374 6 356 46 0 0 0 0 0 0 0 0 0 0 0 0
X 1 375
A 377 4 0 0 0 6 376 0 3 0 0 0 0 2 0 0 0 0 0 0
A 378 4 0 0 103 6 374 0 377 0 0 0 0 1 0 0 0 0 0 0
A 379 10 0 0 376 6 356 25 0 0 0 0 0 0 0 0 0 0 0 0
X 1 47
A 380 10 0 0 379 6 356 28 0 0 0 0 0 0 0 0 0 0 0 0
X 1 49
A 381 10 0 0 380 6 356 31 0 0 0 0 0 0 0 0 0 0 0 0
X 1 51
A 382 10 0 0 381 6 356 34 0 0 0 0 0 0 0 0 0 0 0 0
X 1 53
A 383 2 0 0 259 6 738 0 0 0 383 0 0 0 0 0 0 0 0 0
A 384 10 0 0 382 6 356 49 0 0 0 0 0 0 0 0 0 0 0 0
X 1 383
A 385 10 0 0 384 6 356 37 0 0 0 0 0 0 0 0 0 0 0 0
X 1 55
A 386 10 0 0 385 6 356 40 0 0 0 0 0 0 0 0 0 0 0 0
X 1 13
A 392 1 0 5 0 149 745 0 0 0 0 0 0 0 0 0 0 0 0 0
A 393 10 0 0 0 6 392 1 0 0 0 0 0 0 0 0 0 0 0 0
X 1 22
A 394 10 0 0 393 6 392 4 0 0 0 0 0 0 0 0 0 0 0 0
X 1 25
A 395 4 0 0 0 6 394 0 3 0 0 0 0 2 0 0 0 0 0 0
A 396 4 0 0 0 6 393 0 395 0 0 0 0 1 0 0 0 0 0 0
A 397 10 0 0 394 6 392 7 0 0 0 0 0 0 0 0 0 0 0 0
X 1 29
A 398 10 0 0 397 6 392 10 0 0 0 0 0 0 0 0 0 0 0 0
X 1 31
A 399 4 0 0 0 6 398 0 3 0 0 0 0 2 0 0 0 0 0 0
A 400 4 0 0 0 6 397 0 399 0 0 0 0 1 0 0 0 0 0 0
A 401 10 0 0 398 6 392 13 0 0 0 0 0 0 0 0 0 0 0 0
X 1 35
A 402 10 0 0 401 6 392 16 0 0 0 0 0 0 0 0 0 0 0 0
X 1 37
A 403 4 0 0 0 6 402 0 3 0 0 0 0 2 0 0 0 0 0 0
A 404 4 0 0 181 6 401 0 403 0 0 0 0 1 0 0 0 0 0 0
A 405 10 0 0 402 6 392 19 0 0 0 0 0 0 0 0 0 0 0 0
X 1 41
A 406 10 0 0 405 6 392 22 0 0 0 0 0 0 0 0 0 0 0 0
X 1 43
A 407 4 0 0 0 6 406 0 3 0 0 0 0 2 0 0 0 0 0 0
A 408 4 0 0 203 6 405 0 407 0 0 0 0 1 0 0 0 0 0 0
A 409 10 0 0 406 6 392 43 0 0 0 0 0 0 0 0 0 0 0 0
X 1 373
A 410 10 0 0 409 6 392 46 0 0 0 0 0 0 0 0 0 0 0 0
X 1 375
A 411 4 0 0 0 6 410 0 3 0 0 0 0 2 0 0 0 0 0 0
A 412 4 0 0 225 6 409 0 411 0 0 0 0 1 0 0 0 0 0 0
A 413 10 0 0 410 6 392 25 0 0 0 0 0 0 0 0 0 0 0 0
X 1 47
A 414 10 0 0 413 6 392 28 0 0 0 0 0 0 0 0 0 0 0 0
X 1 49
A 415 10 0 0 414 6 392 31 0 0 0 0 0 0 0 0 0 0 0 0
X 1 51
A 416 10 0 0 415 6 392 34 0 0 0 0 0 0 0 0 0 0 0 0
X 1 53
A 417 10 0 0 416 6 392 49 0 0 0 0 0 0 0 0 0 0 0 0
X 1 383
A 418 10 0 0 417 6 392 37 0 0 0 0 0 0 0 0 0 0 0 0
X 1 55
A 419 10 0 0 418 6 392 40 0 0 0 0 0 0 0 0 0 0 0 0
X 1 13
A 425 1 0 5 0 155 755 0 0 0 0 0 0 0 0 0 0 0 0 0
A 426 10 0 0 339 6 425 1 0 0 0 0 0 0 0 0 0 0 0 0
X 1 22
A 427 10 0 0 426 6 425 4 0 0 0 0 0 0 0 0 0 0 0 0
X 1 25
A 428 4 0 0 0 6 427 0 3 0 0 0 0 2 0 0 0 0 0 0
A 429 4 0 0 0 6 426 0 428 0 0 0 0 1 0 0 0 0 0 0
A 430 10 0 0 427 6 425 7 0 0 0 0 0 0 0 0 0 0 0 0
X 1 29
A 431 10 0 0 430 6 425 10 0 0 0 0 0 0 0 0 0 0 0 0
X 1 31
A 432 4 0 0 0 6 431 0 3 0 0 0 0 2 0 0 0 0 0 0
A 433 4 0 0 15 6 430 0 432 0 0 0 0 1 0 0 0 0 0 0
A 434 10 0 0 431 6 425 13 0 0 0 0 0 0 0 0 0 0 0 0
X 1 35
A 435 10 0 0 434 6 425 16 0 0 0 0 0 0 0 0 0 0 0 0
X 1 37
A 436 4 0 0 0 6 435 0 3 0 0 0 0 2 0 0 0 0 0 0
A 437 4 0 0 331 6 434 0 436 0 0 0 0 1 0 0 0 0 0 0
A 438 10 0 0 435 6 425 19 0 0 0 0 0 0 0 0 0 0 0 0
X 1 41
A 439 10 0 0 438 6 425 22 0 0 0 0 0 0 0 0 0 0 0 0
X 1 43
A 440 4 0 0 57 6 439 0 3 0 0 0 0 2 0 0 0 0 0 0
A 441 4 0 0 389 6 438 0 440 0 0 0 0 1 0 0 0 0 0 0
A 442 10 0 0 439 6 425 43 0 0 0 0 0 0 0 0 0 0 0 0
X 1 373
A 443 10 0 0 442 6 425 46 0 0 0 0 0 0 0 0 0 0 0 0
X 1 375
A 444 4 0 0 0 6 443 0 3 0 0 0 0 2 0 0 0 0 0 0
A 445 4 0 0 0 6 442 0 444 0 0 0 0 1 0 0 0 0 0 0
A 446 10 0 0 443 6 425 25 0 0 0 0 0 0 0 0 0 0 0 0
X 1 47
A 447 10 0 0 446 6 425 28 0 0 0 0 0 0 0 0 0 0 0 0
X 1 49
A 448 10 0 0 447 6 425 31 0 0 0 0 0 0 0 0 0 0 0 0
X 1 51
A 449 10 0 0 448 6 425 34 0 0 0 0 0 0 0 0 0 0 0 0
X 1 53
A 450 10 0 0 449 6 425 49 0 0 0 0 0 0 0 0 0 0 0 0
X 1 383
A 451 10 0 0 450 6 425 37 0 0 0 0 0 0 0 0 0 0 0 0
X 1 55
A 452 10 0 0 451 6 425 40 0 0 0 0 0 0 0 0 0 0 0 0
X 1 13
A 457 1 0 1 0 161 764 0 0 0 0 0 0 0 0 0 0 0 0 0
A 458 10 0 0 371 6 457 1 0 0 0 0 0 0 0 0 0 0 0 0
X 1 22
A 459 10 0 0 458 6 457 4 0 0 0 0 0 0 0 0 0 0 0 0
X 1 25
A 460 4 0 0 0 6 459 0 3 0 0 0 0 2 0 0 0 0 0 0
A 461 4 0 0 0 6 458 0 460 0 0 0 0 1 0 0 0 0 0 0
A 462 10 0 0 459 6 457 7 0 0 0 0 0 0 0 0 0 0 0 0
X 1 29
A 463 10 0 0 462 6 457 10 0 0 0 0 0 0 0 0 0 0 0 0
X 1 31
A 464 4 0 0 315 6 463 0 3 0 0 0 0 2 0 0 0 0 0 0
A 465 4 0 0 0 6 462 0 464 0 0 0 0 1 0 0 0 0 0 0
A 466 10 0 0 463 6 457 13 0 0 0 0 0 0 0 0 0 0 0 0
X 1 35
A 467 10 0 0 466 6 457 16 0 0 0 0 0 0 0 0 0 0 0 0
X 1 37
A 468 4 0 0 0 6 467 0 3 0 0 0 0 2 0 0 0 0 0 0
A 469 4 0 0 0 6 466 0 468 0 0 0 0 1 0 0 0 0 0 0
A 470 10 0 0 467 6 457 19 0 0 0 0 0 0 0 0 0 0 0 0
X 1 41
A 471 10 0 0 470 6 457 22 0 0 0 0 0 0 0 0 0 0 0 0
X 1 43
A 472 4 0 0 0 6 471 0 3 0 0 0 0 2 0 0 0 0 0 0
A 473 4 0 0 0 6 470 0 472 0 0 0 0 1 0 0 0 0 0 0
A 474 10 0 0 471 6 457 25 0 0 0 0 0 0 0 0 0 0 0 0
X 1 47
A 475 10 0 0 474 6 457 28 0 0 0 0 0 0 0 0 0 0 0 0
X 1 49
A 476 10 0 0 475 6 457 31 0 0 0 0 0 0 0 0 0 0 0 0
X 1 51
A 477 10 0 0 476 6 457 34 0 0 0 0 0 0 0 0 0 0 0 0
X 1 53
A 478 10 0 0 477 6 457 37 0 0 0 0 0 0 0 0 0 0 0 0
X 1 55
A 479 10 0 0 478 6 457 40 0 0 0 0 0 0 0 0 0 0 0 0
X 1 13
A 484 1 0 1 0 167 773 0 0 0 0 0 0 0 0 0 0 0 0 0
A 485 10 0 0 0 6 484 1 0 0 0 0 0 0 0 0 0 0 0 0
X 1 22
A 486 10 0 0 485 6 484 4 0 0 0 0 0 0 0 0 0 0 0 0
X 1 25
A 487 4 0 0 182 6 486 0 3 0 0 0 0 2 0 0 0 0 0 0
A 488 4 0 0 387 6 485 0 487 0 0 0 0 1 0 0 0 0 0 0
A 489 10 0 0 486 6 484 7 0 0 0 0 0 0 0 0 0 0 0 0
X 1 29
A 490 10 0 0 489 6 484 10 0 0 0 0 0 0 0 0 0 0 0 0
X 1 31
A 491 4 0 0 137 6 490 0 3 0 0 0 0 2 0 0 0 0 0 0
A 492 4 0 0 455 6 489 0 491 0 0 0 0 1 0 0 0 0 0 0
A 493 10 0 0 490 6 484 13 0 0 0 0 0 0 0 0 0 0 0 0
X 1 35
A 494 10 0 0 493 6 484 16 0 0 0 0 0 0 0 0 0 0 0 0
X 1 37
A 495 4 0 0 368 6 494 0 3 0 0 0 0 2 0 0 0 0 0 0
A 496 4 0 0 0 6 493 0 495 0 0 0 0 1 0 0 0 0 0 0
A 497 10 0 0 494 6 484 19 0 0 0 0 0 0 0 0 0 0 0 0
X 1 41
A 498 10 0 0 497 6 484 22 0 0 0 0 0 0 0 0 0 0 0 0
X 1 43
A 499 4 0 0 12 6 498 0 3 0 0 0 0 2 0 0 0 0 0 0
A 500 4 0 0 0 6 497 0 499 0 0 0 0 1 0 0 0 0 0 0
A 501 10 0 0 498 6 484 25 0 0 0 0 0 0 0 0 0 0 0 0
X 1 47
A 502 10 0 0 501 6 484 28 0 0 0 0 0 0 0 0 0 0 0 0
X 1 49
A 503 10 0 0 502 6 484 31 0 0 0 0 0 0 0 0 0 0 0 0
X 1 51
A 504 10 0 0 503 6 484 34 0 0 0 0 0 0 0 0 0 0 0 0
X 1 53
A 505 10 0 0 504 6 484 37 0 0 0 0 0 0 0 0 0 0 0 0
X 1 55
A 506 10 0 0 505 6 484 40 0 0 0 0 0 0 0 0 0 0 0 0
X 1 13
A 511 1 0 1 469 173 782 0 0 0 0 0 0 0 0 0 0 0 0 0
A 512 10 0 0 0 6 511 1 0 0 0 0 0 0 0 0 0 0 0 0
X 1 22
A 513 10 0 0 512 6 511 4 0 0 0 0 0 0 0 0 0 0 0 0
X 1 25
A 514 4 0 0 0 6 513 0 3 0 0 0 0 2 0 0 0 0 0 0
A 515 4 0 0 81 6 512 0 514 0 0 0 0 1 0 0 0 0 0 0
A 516 10 0 0 513 6 511 7 0 0 0 0 0 0 0 0 0 0 0 0
X 1 29
A 517 10 0 0 516 6 511 10 0 0 0 0 0 0 0 0 0 0 0 0
X 1 31
A 518 4 0 0 186 6 517 0 3 0 0 0 0 2 0 0 0 0 0 0
A 519 4 0 0 0 6 516 0 518 0 0 0 0 1 0 0 0 0 0 0
A 520 10 0 0 517 6 511 13 0 0 0 0 0 0 0 0 0 0 0 0
X 1 35
A 521 10 0 0 520 6 511 16 0 0 0 0 0 0 0 0 0 0 0 0
X 1 37
A 522 4 0 0 0 6 521 0 3 0 0 0 0 2 0 0 0 0 0 0
A 523 4 0 0 0 6 520 0 522 0 0 0 0 1 0 0 0 0 0 0
A 524 10 0 0 521 6 511 19 0 0 0 0 0 0 0 0 0 0 0 0
X 1 41
A 525 10 0 0 524 6 511 22 0 0 0 0 0 0 0 0 0 0 0 0
X 1 43
A 526 4 0 0 372 6 525 0 3 0 0 0 0 2 0 0 0 0 0 0
A 527 4 0 0 266 6 524 0 526 0 0 0 0 1 0 0 0 0 0 0
A 528 10 0 0 525 6 511 25 0 0 0 0 0 0 0 0 0 0 0 0
X 1 47
A 529 10 0 0 528 6 511 28 0 0 0 0 0 0 0 0 0 0 0 0
X 1 49
A 530 10 0 0 529 6 511 31 0 0 0 0 0 0 0 0 0 0 0 0
X 1 51
A 531 10 0 0 530 6 511 34 0 0 0 0 0 0 0 0 0 0 0 0
X 1 53
A 532 10 0 0 531 6 511 37 0 0 0 0 0 0 0 0 0 0 0 0
X 1 55
A 533 10 0 0 532 6 511 40 0 0 0 0 0 0 0 0 0 0 0 0
X 1 13
A 536 2 0 0 0 6 789 0 0 0 536 0 0 0 0 0 0 0 0 0
A 537 1 0 7 0 179 790 0 0 0 0 0 0 0 0 0 0 0 0 0
A 538 10 0 0 360 6 537 1 0 0 0 0 0 0 0 0 0 0 0 0
X 1 22
A 539 10 0 0 538 6 537 4 0 0 0 0 0 0 0 0 0 0 0 0
X 1 25
A 540 4 0 0 190 6 539 0 3 0 0 0 0 2 0 0 0 0 0 0
A 541 4 0 0 189 6 538 0 540 0 0 0 0 1 0 0 0 0 0 0
A 542 10 0 0 539 6 537 7 0 0 0 0 0 0 0 0 0 0 0 0
X 1 29
A 543 10 0 0 542 6 537 10 0 0 0 0 0 0 0 0 0 0 0 0
X 1 31
A 544 4 0 0 0 6 543 0 3 0 0 0 0 2 0 0 0 0 0 0
A 545 4 0 0 211 6 542 0 544 0 0 0 0 1 0 0 0 0 0 0
A 546 10 0 0 543 6 537 25 0 0 0 0 0 0 0 0 0 0 0 0
X 1 47
A 547 10 0 0 546 6 537 28 0 0 0 0 0 0 0 0 0 0 0 0
X 1 49
A 548 10 0 0 547 6 537 37 0 0 0 0 0 0 0 0 0 0 0 0
X 1 55
A 549 10 0 0 548 6 537 40 0 0 0 0 0 0 0 0 0 0 0 0
X 1 13
A 552 1 0 7 40 185 797 0 0 0 0 0 0 0 0 0 0 0 0 0
A 553 10 0 0 0 6 552 1 0 0 0 0 0 0 0 0 0 0 0 0
X 1 22
A 554 10 0 0 553 6 552 4 0 0 0 0 0 0 0 0 0 0 0 0
X 1 25
A 555 4 0 0 0 6 554 0 3 0 0 0 0 2 0 0 0 0 0 0
A 556 4 0 0 0 6 553 0 555 0 0 0 0 1 0 0 0 0 0 0
A 557 10 0 0 554 6 552 7 0 0 0 0 0 0 0 0 0 0 0 0
X 1 29
A 558 10 0 0 557 6 552 10 0 0 0 0 0 0 0 0 0 0 0 0
X 1 31
A 559 4 0 0 0 6 558 0 3 0 0 0 0 2 0 0 0 0 0 0
A 560 4 0 0 0 6 557 0 559 0 0 0 0 1 0 0 0 0 0 0
A 561 10 0 0 558 6 552 25 0 0 0 0 0 0 0 0 0 0 0 0
X 1 47
A 562 10 0 0 561 6 552 28 0 0 0 0 0 0 0 0 0 0 0 0
X 1 49
A 563 10 0 0 562 6 552 37 0 0 0 0 0 0 0 0 0 0 0 0
X 1 55
A 564 10 0 0 563 6 552 40 0 0 0 0 0 0 0 0 0 0 0 0
X 1 13
A 567 1 0 7 500 191 804 0 0 0 0 0 0 0 0 0 0 0 0 0
A 568 10 0 0 0 6 567 1 0 0 0 0 0 0 0 0 0 0 0 0
X 1 22
A 569 10 0 0 568 6 567 4 0 0 0 0 0 0 0 0 0 0 0 0
X 1 25
A 570 4 0 0 0 6 569 0 3 0 0 0 0 2 0 0 0 0 0 0
A 571 4 0 0 0 6 568 0 570 0 0 0 0 1 0 0 0 0 0 0
A 572 10 0 0 569 6 567 7 0 0 0 0 0 0 0 0 0 0 0 0
X 1 29
A 573 10 0 0 572 6 567 10 0 0 0 0 0 0 0 0 0 0 0 0
X 1 31
A 574 4 0 0 145 6 573 0 3 0 0 0 0 2 0 0 0 0 0 0
A 575 4 0 0 367 6 572 0 574 0 0 0 0 1 0 0 0 0 0 0
A 576 10 0 0 573 6 567 25 0 0 0 0 0 0 0 0 0 0 0 0
X 1 47
A 577 10 0 0 576 6 567 28 0 0 0 0 0 0 0 0 0 0 0 0
X 1 49
A 578 10 0 0 577 6 567 37 0 0 0 0 0 0 0 0 0 0 0 0
X 1 55
A 579 10 0 0 578 6 567 40 0 0 0 0 0 0 0 0 0 0 0 0
X 1 13
A 582 1 0 7 0 197 811 0 0 0 0 0 0 0 0 0 0 0 0 0
A 583 10 0 0 0 6 582 1 0 0 0 0 0 0 0 0 0 0 0 0
X 1 22
A 584 10 0 0 583 6 582 4 0 0 0 0 0 0 0 0 0 0 0 0
X 1 25
A 585 4 0 0 0 6 584 0 3 0 0 0 0 2 0 0 0 0 0 0
A 586 4 0 0 185 6 583 0 585 0 0 0 0 1 0 0 0 0 0 0
A 587 10 0 0 584 6 582 7 0 0 0 0 0 0 0 0 0 0 0 0
X 1 29
A 588 10 0 0 587 6 582 10 0 0 0 0 0 0 0 0 0 0 0 0
X 1 31
A 589 4 0 0 0 6 588 0 3 0 0 0 0 2 0 0 0 0 0 0
A 590 4 0 0 207 6 587 0 589 0 0 0 0 1 0 0 0 0 0 0
A 591 10 0 0 588 6 582 25 0 0 0 0 0 0 0 0 0 0 0 0
X 1 47
A 592 10 0 0 591 6 582 28 0 0 0 0 0 0 0 0 0 0 0 0
X 1 49
A 593 10 0 0 592 6 582 37 0 0 0 0 0 0 0 0 0 0 0 0
X 1 55
A 594 10 0 0 593 6 582 40 0 0 0 0 0 0 0 0 0 0 0 0
X 1 13
A 597 1 0 7 574 203 818 0 0 0 0 0 0 0 0 0 0 0 0 0
A 598 10 0 0 0 6 597 1 0 0 0 0 0 0 0 0 0 0 0 0
X 1 22
A 599 10 0 0 598 6 597 4 0 0 0 0 0 0 0 0 0 0 0 0
X 1 25
A 600 4 0 0 294 6 599 0 3 0 0 0 0 2 0 0 0 0 0 0
A 601 4 0 0 0 6 598 0 600 0 0 0 0 1 0 0 0 0 0 0
A 602 10 0 0 599 6 597 7 0 0 0 0 0 0 0 0 0 0 0 0
X 1 29
A 603 10 0 0 602 6 597 10 0 0 0 0 0 0 0 0 0 0 0 0
X 1 31
A 604 4 0 0 3 6 603 0 3 0 0 0 0 2 0 0 0 0 0 0
A 605 4 0 0 559 6 602 0 604 0 0 0 0 1 0 0 0 0 0 0
A 606 10 0 0 603 6 597 25 0 0 0 0 0 0 0 0 0 0 0 0
X 1 47
A 607 10 0 0 606 6 597 28 0 0 0 0 0 0 0 0 0 0 0 0
X 1 49
A 608 10 0 0 607 6 597 37 0 0 0 0 0 0 0 0 0 0 0 0
X 1 55
A 609 10 0 0 608 6 597 40 0 0 0 0 0 0 0 0 0 0 0 0
X 1 13
A 612 1 0 7 460 209 825 0 0 0 0 0 0 0 0 0 0 0 0 0
A 613 10 0 0 0 6 612 1 0 0 0 0 0 0 0 0 0 0 0 0
X 1 22
A 614 10 0 0 613 6 612 4 0 0 0 0 0 0 0 0 0 0 0 0
X 1 25
A 615 4 0 0 527 6 614 0 3 0 0 0 0 2 0 0 0 0 0 0
A 616 4 0 0 340 6 613 0 615 0 0 0 0 1 0 0 0 0 0 0
A 617 10 0 0 614 6 612 7 0 0 0 0 0 0 0 0 0 0 0 0
X 1 29
A 618 10 0 0 617 6 612 10 0 0 0 0 0 0 0 0 0 0 0 0
X 1 31
A 619 4 0 0 433 6 618 0 3 0 0 0 0 2 0 0 0 0 0 0
A 620 4 0 0 363 6 617 0 619 0 0 0 0 1 0 0 0 0 0 0
A 621 10 0 0 618 6 612 25 0 0 0 0 0 0 0 0 0 0 0 0
X 1 47
A 622 10 0 0 621 6 612 28 0 0 0 0 0 0 0 0 0 0 0 0
X 1 49
A 623 10 0 0 622 6 612 37 0 0 0 0 0 0 0 0 0 0 0 0
X 1 55
A 624 10 0 0 623 6 612 40 0 0 0 0 0 0 0 0 0 0 0 0
X 1 13
A 627 1 0 7 0 215 832 0 0 0 0 0 0 0 0 0 0 0 0 0
A 628 10 0 0 82 6 627 1 0 0 0 0 0 0 0 0 0 0 0 0
X 1 22
A 629 10 0 0 628 6 627 4 0 0 0 0 0 0 0 0 0 0 0 0
X 1 25
A 630 4 0 0 0 6 629 0 3 0 0 0 0 2 0 0 0 0 0 0
A 631 4 0 0 456 6 628 0 630 0 0 0 0 1 0 0 0 0 0 0
A 632 10 0 0 629 6 627 7 0 0 0 0 0 0 0 0 0 0 0 0
X 1 29
A 633 10 0 0 632 6 627 10 0 0 0 0 0 0 0 0 0 0 0 0
X 1 31
A 634 4 0 0 0 6 633 0 3 0 0 0 0 2 0 0 0 0 0 0
A 635 4 0 0 586 6 632 0 634 0 0 0 0 1 0 0 0 0 0 0
A 636 10 0 0 633 6 627 25 0 0 0 0 0 0 0 0 0 0 0 0
X 1 47
A 637 10 0 0 636 6 627 28 0 0 0 0 0 0 0 0 0 0 0 0
X 1 49
A 638 10 0 0 637 6 627 37 0 0 0 0 0 0 0 0 0 0 0 0
X 1 55
A 639 10 0 0 638 6 627 40 0 0 0 0 0 0 0 0 0 0 0 0
X 1 13
A 641 2 0 0 359 6 838 0 0 0 641 0 0 0 0 0 0 0 0 0
A 642 1 0 9 0 221 839 0 0 0 0 0 0 0 0 0 0 0 0 0
A 643 10 0 0 123 6 642 1 0 0 0 0 0 0 0 0 0 0 0 0
X 1 22
A 644 10 0 0 643 6 642 4 0 0 0 0 0 0 0 0 0 0 0 0
X 1 25
A 645 4 0 0 47 6 644 0 3 0 0 0 0 2 0 0 0 0 0 0
A 646 4 0 0 0 6 643 0 645 0 0 0 0 1 0 0 0 0 0 0
A 647 10 0 0 644 6 642 25 0 0 0 0 0 0 0 0 0 0 0 0
X 1 47
A 648 10 0 0 647 6 642 37 0 0 0 0 0 0 0 0 0 0 0 0
X 1 55
A 649 10 0 0 648 6 642 40 0 0 0 0 0 0 0 0 0 0 0 0
X 1 13
A 652 1 0 7 314 227 846 0 0 0 0 0 0 0 0 0 0 0 0 0
A 653 10 0 0 146 6 652 1 0 0 0 0 0 0 0 0 0 0 0 0
X 1 22
A 654 10 0 0 653 6 652 4 0 0 0 0 0 0 0 0 0 0 0 0
X 1 25
A 655 4 0 0 0 6 654 0 3 0 0 0 0 2 0 0 0 0 0 0
A 656 4 0 0 570 6 653 0 655 0 0 0 0 1 0 0 0 0 0 0
A 657 10 0 0 654 6 652 7 0 0 0 0 0 0 0 0 0 0 0 0
X 1 29
A 658 10 0 0 657 6 652 10 0 0 0 0 0 0 0 0 0 0 0 0
X 1 31
A 659 4 0 0 0 6 658 0 3 0 0 0 0 2 0 0 0 0 0 0
A 660 4 0 0 199 6 657 0 659 0 0 0 0 1 0 0 0 0 0 0
A 661 10 0 0 658 6 652 25 0 0 0 0 0 0 0 0 0 0 0 0
X 1 47
A 662 10 0 0 661 6 652 28 0 0 0 0 0 0 0 0 0 0 0 0
X 1 49
A 663 10 0 0 662 6 652 37 0 0 0 0 0 0 0 0 0 0 0 0
X 1 55
A 664 10 0 0 663 6 652 40 0 0 0 0 0 0 0 0 0 0 0 0
X 1 13
A 666 1 0 9 0 233 852 0 0 0 0 0 0 0 0 0 0 0 0 0
A 667 10 0 0 589 6 666 1 0 0 0 0 0 0 0 0 0 0 0 0
X 1 22
A 668 10 0 0 667 6 666 4 0 0 0 0 0 0 0 0 0 0 0 0
X 1 25
A 669 4 0 0 0 6 668 0 3 0 0 0 0 2 0 0 0 0 0 0
A 670 4 0 0 391 6 667 0 669 0 0 0 0 1 0 0 0 0 0 0
A 671 10 0 0 668 6 666 25 0 0 0 0 0 0 0 0 0 0 0 0
X 1 47
A 672 10 0 0 671 6 666 37 0 0 0 0 0 0 0 0 0 0 0 0
X 1 55
A 673 10 0 0 672 6 666 40 0 0 0 0 0 0 0 0 0 0 0 0
X 1 13
A 676 1 0 7 473 239 859 0 0 0 0 0 0 0 0 0 0 0 0 0
A 677 10 0 0 219 6 676 1 0 0 0 0 0 0 0 0 0 0 0 0
X 1 22
A 678 10 0 0 677 6 676 4 0 0 0 0 0 0 0 0 0 0 0 0
X 1 25
A 679 4 0 0 158 6 678 0 3 0 0 0 0 2 0 0 0 0 0 0
A 680 4 0 0 510 6 677 0 679 0 0 0 0 1 0 0 0 0 0 0
A 681 10 0 0 678 6 676 7 0 0 0 0 0 0 0 0 0 0 0 0
X 1 29
A 682 10 0 0 681 6 676 10 0 0 0 0 0 0 0 0 0 0 0 0
X 1 31
A 683 4 0 0 492 6 682 0 3 0 0 0 0 2 0 0 0 0 0 0
A 684 4 0 0 566 6 681 0 683 0 0 0 0 1 0 0 0 0 0 0
A 685 10 0 0 682 6 676 25 0 0 0 0 0 0 0 0 0 0 0 0
X 1 47
A 686 10 0 0 685 6 676 28 0 0 0 0 0 0 0 0 0 0 0 0
X 1 49
A 687 10 0 0 686 6 676 37 0 0 0 0 0 0 0 0 0 0 0 0
X 1 55
A 688 10 0 0 687 6 676 40 0 0 0 0 0 0 0 0 0 0 0 0
X 1 13
A 691 1 0 7 0 245 866 0 0 0 0 0 0 0 0 0 0 0 0 0
A 692 10 0 0 112 6 691 1 0 0 0 0 0 0 0 0 0 0 0 0
X 1 22
A 693 10 0 0 692 6 691 4 0 0 0 0 0 0 0 0 0 0 0 0
X 1 25
A 694 4 0 0 0 6 693 0 3 0 0 0 0 2 0 0 0 0 0 0
A 695 4 0 0 646 6 692 0 694 0 0 0 0 1 0 0 0 0 0 0
A 696 10 0 0 693 6 691 7 0 0 0 0 0 0 0 0 0 0 0 0
X 1 29
A 697 10 0 0 696 6 691 10 0 0 0 0 0 0 0 0 0 0 0 0
X 1 31
A 698 4 0 0 177 6 697 0 3 0 0 0 0 2 0 0 0 0 0 0
A 699 4 0 0 555 6 696 0 698 0 0 0 0 1 0 0 0 0 0 0
A 700 10 0 0 697 6 691 25 0 0 0 0 0 0 0 0 0 0 0 0
X 1 47
A 701 10 0 0 700 6 691 28 0 0 0 0 0 0 0 0 0 0 0 0
X 1 49
A 702 10 0 0 701 6 691 37 0 0 0 0 0 0 0 0 0 0 0 0
X 1 55
A 703 10 0 0 702 6 691 40 0 0 0 0 0 0 0 0 0 0 0 0
X 1 13
A 706 1 0 7 0 251 873 0 0 0 0 0 0 0 0 0 0 0 0 0
A 707 10 0 0 0 6 706 1 0 0 0 0 0 0 0 0 0 0 0 0
X 1 22
A 708 10 0 0 707 6 706 4 0 0 0 0 0 0 0 0 0 0 0 0
X 1 25
A 709 4 0 0 535 6 708 0 3 0 0 0 0 2 0 0 0 0 0 0
A 710 4 0 0 0 6 707 0 709 0 0 0 0 1 0 0 0 0 0 0
A 711 10 0 0 708 6 706 7 0 0 0 0 0 0 0 0 0 0 0 0
X 1 29
A 712 10 0 0 711 6 706 10 0 0 0 0 0 0 0 0 0 0 0 0
X 1 31
A 713 4 0 0 537 6 712 0 3 0 0 0 0 2 0 0 0 0 0 0
A 714 4 0 0 395 6 711 0 713 0 0 0 0 1 0 0 0 0 0 0
A 715 10 0 0 712 6 706 25 0 0 0 0 0 0 0 0 0 0 0 0
X 1 47
A 716 10 0 0 715 6 706 28 0 0 0 0 0 0 0 0 0 0 0 0
X 1 49
A 717 10 0 0 716 6 706 37 0 0 0 0 0 0 0 0 0 0 0 0
X 1 55
A 718 10 0 0 717 6 706 40 0 0 0 0 0 0 0 0 0 0 0 0
X 1 13
A 720 1 0 9 0 257 879 0 0 0 0 0 0 0 0 0 0 0 0 0
A 721 10 0 0 163 6 720 1 0 0 0 0 0 0 0 0 0 0 0 0
X 1 22
A 722 10 0 0 721 6 720 4 0 0 0 0 0 0 0 0 0 0 0 0
X 1 25
A 723 4 0 0 565 6 722 0 3 0 0 0 0 2 0 0 0 0 0 0
A 724 4 0 0 432 6 721 0 723 0 0 0 0 1 0 0 0 0 0 0
A 725 10 0 0 722 6 720 25 0 0 0 0 0 0 0 0 0 0 0 0
X 1 47
A 726 10 0 0 725 6 720 37 0 0 0 0 0 0 0 0 0 0 0 0
X 1 55
A 727 10 0 0 726 6 720 40 0 0 0 0 0 0 0 0 0 0 0 0
X 1 13
A 731 1 0 3 0 263 887 0 0 0 0 0 0 0 0 0 0 0 0 0
A 732 10 0 0 61 6 731 1 0 0 0 0 0 0 0 0 0 0 0 0
X 1 22
A 733 10 0 0 732 6 731 4 0 0 0 0 0 0 0 0 0 0 0 0
X 1 25
A 734 4 0 0 691 6 733 0 3 0 0 0 0 2 0 0 0 0 0 0
A 735 4 0 0 46 6 732 0 734 0 0 0 0 1 0 0 0 0 0 0
A 736 10 0 0 733 6 731 7 0 0 0 0 0 0 0 0 0 0 0 0
X 1 29
A 737 10 0 0 736 6 731 10 0 0 0 0 0 0 0 0 0 0 0 0
X 1 31
A 738 4 0 0 596 6 737 0 3 0 0 0 0 2 0 0 0 0 0 0
A 739 4 0 0 0 6 736 0 738 0 0 0 0 1 0 0 0 0 0 0
A 740 10 0 0 737 6 731 13 0 0 0 0 0 0 0 0 0 0 0 0
X 1 35
A 741 10 0 0 740 6 731 16 0 0 0 0 0 0 0 0 0 0 0 0
X 1 37
A 742 4 0 0 0 6 741 0 3 0 0 0 0 2 0 0 0 0 0 0
A 743 4 0 0 0 6 740 0 742 0 0 0 0 1 0 0 0 0 0 0
A 744 10 0 0 741 6 731 25 0 0 0 0 0 0 0 0 0 0 0 0
X 1 47
A 745 10 0 0 744 6 731 28 0 0 0 0 0 0 0 0 0 0 0 0
X 1 49
A 746 10 0 0 745 6 731 31 0 0 0 0 0 0 0 0 0 0 0 0
X 1 51
A 747 10 0 0 746 6 731 37 0 0 0 0 0 0 0 0 0 0 0 0
X 1 55
A 748 10 0 0 747 6 731 40 0 0 0 0 0 0 0 0 0 0 0 0
X 1 13
A 752 1 0 3 0 269 895 0 0 0 0 0 0 0 0 0 0 0 0 0
A 753 10 0 0 424 6 752 1 0 0 0 0 0 0 0 0 0 0 0 0
X 1 22
A 754 10 0 0 753 6 752 4 0 0 0 0 0 0 0 0 0 0 0 0
X 1 25
A 755 4 0 0 0 6 754 0 3 0 0 0 0 2 0 0 0 0 0 0
A 756 4 0 0 268 6 753 0 755 0 0 0 0 1 0 0 0 0 0 0
A 757 10 0 0 754 6 752 7 0 0 0 0 0 0 0 0 0 0 0 0
X 1 29
A 758 10 0 0 757 6 752 10 0 0 0 0 0 0 0 0 0 0 0 0
X 1 31
A 759 4 0 0 0 6 758 0 3 0 0 0 0 2 0 0 0 0 0 0
A 760 4 0 0 329 6 757 0 759 0 0 0 0 1 0 0 0 0 0 0
A 761 10 0 0 758 6 752 13 0 0 0 0 0 0 0 0 0 0 0 0
X 1 35
A 762 10 0 0 761 6 752 16 0 0 0 0 0 0 0 0 0 0 0 0
X 1 37
A 763 4 0 0 0 6 762 0 3 0 0 0 0 2 0 0 0 0 0 0
A 764 4 0 0 488 6 761 0 763 0 0 0 0 1 0 0 0 0 0 0
A 765 10 0 0 762 6 752 25 0 0 0 0 0 0 0 0 0 0 0 0
X 1 47
A 766 10 0 0 765 6 752 28 0 0 0 0 0 0 0 0 0 0 0 0
X 1 49
A 767 10 0 0 766 6 752 31 0 0 0 0 0 0 0 0 0 0 0 0
X 1 51
A 768 10 0 0 767 6 752 37 0 0 0 0 0 0 0 0 0 0 0 0
X 1 55
A 769 10 0 0 768 6 752 40 0 0 0 0 0 0 0 0 0 0 0 0
X 1 13
A 773 1 0 3 0 275 903 0 0 0 0 0 0 0 0 0 0 0 0 0
A 774 10 0 0 0 6 773 1 0 0 0 0 0 0 0 0 0 0 0 0
X 1 22
A 775 10 0 0 774 6 773 4 0 0 0 0 0 0 0 0 0 0 0 0
X 1 25
A 776 4 0 0 277 6 775 0 3 0 0 0 0 2 0 0 0 0 0 0
A 777 4 0 0 0 6 774 0 776 0 0 0 0 1 0 0 0 0 0 0
A 778 10 0 0 775 6 773 7 0 0 0 0 0 0 0 0 0 0 0 0
X 1 29
A 779 10 0 0 778 6 773 10 0 0 0 0 0 0 0 0 0 0 0 0
X 1 31
A 780 4 0 0 383 6 779 0 3 0 0 0 0 2 0 0 0 0 0 0
A 781 4 0 0 0 6 778 0 780 0 0 0 0 1 0 0 0 0 0 0
A 782 10 0 0 779 6 773 13 0 0 0 0 0 0 0 0 0 0 0 0
X 1 35
A 783 10 0 0 782 6 773 16 0 0 0 0 0 0 0 0 0 0 0 0
X 1 37
A 784 4 0 0 739 6 783 0 3 0 0 0 0 2 0 0 0 0 0 0
A 785 4 0 0 356 6 782 0 784 0 0 0 0 1 0 0 0 0 0 0
A 786 10 0 0 783 6 773 25 0 0 0 0 0 0 0 0 0 0 0 0
X 1 47
A 787 10 0 0 786 6 773 28 0 0 0 0 0 0 0 0 0 0 0 0
X 1 49
A 788 10 0 0 787 6 773 31 0 0 0 0 0 0 0 0 0 0 0 0
X 1 51
A 789 10 0 0 788 6 773 37 0 0 0 0 0 0 0 0 0 0 0 0
X 1 55
A 790 10 0 0 789 6 773 40 0 0 0 0 0 0 0 0 0 0 0 0
X 1 13
A 792 1 0 9 0 281 909 0 0 0 0 0 0 0 0 0 0 0 0 0
A 793 10 0 0 0 6 792 1 0 0 0 0 0 0 0 0 0 0 0 0
X 1 22
A 794 10 0 0 793 6 792 4 0 0 0 0 0 0 0 0 0 0 0 0
X 1 25
A 795 4 0 0 690 6 794 0 3 0 0 0 0 2 0 0 0 0 0 0
A 796 4 0 0 0 6 793 0 795 0 0 0 0 1 0 0 0 0 0 0
A 797 10 0 0 794 6 792 25 0 0 0 0 0 0 0 0 0 0 0 0
X 1 47
A 798 10 0 0 797 6 792 37 0 0 0 0 0 0 0 0 0 0 0 0
X 1 55
A 799 10 0 0 798 6 792 40 0 0 0 0 0 0 0 0 0 0 0 0
X 1 13
A 806 2 0 0 0 6 920 0 0 0 806 0 0 0 0 0 0 0 0 0
A 807 1 0 11 16 287 921 0 0 0 0 0 0 0 0 0 0 0 0 0
A 808 10 0 0 580 6 807 1 0 0 0 0 0 0 0 0 0 0 0 0
X 1 22
A 809 10 0 0 808 6 807 4 0 0 0 0 0 0 0 0 0 0 0 0
X 1 25
A 810 4 0 0 0 6 809 0 3 0 0 0 0 2 0 0 0 0 0 0
A 811 4 0 0 0 6 808 0 810 0 0 0 0 1 0 0 0 0 0 0
A 812 10 0 0 809 6 807 7 0 0 0 0 0 0 0 0 0 0 0 0
X 1 29
A 813 10 0 0 812 6 807 10 0 0 0 0 0 0 0 0 0 0 0 0
X 1 31
A 814 4 0 0 728 6 813 0 3 0 0 0 0 2 0 0 0 0 0 0
A 815 4 0 0 480 6 812 0 814 0 0 0 0 1 0 0 0 0 0 0
A 816 10 0 0 813 6 807 13 0 0 0 0 0 0 0 0 0 0 0 0
X 1 35
A 817 10 0 0 816 6 807 16 0 0 0 0 0 0 0 0 0 0 0 0
X 1 37
A 818 4 0 0 297 6 817 0 3 0 0 0 0 2 0 0 0 0 0 0
A 819 4 0 0 0 6 816 0 818 0 0 0 0 1 0 0 0 0 0 0
A 820 10 0 0 817 6 807 19 0 0 0 0 0 0 0 0 0 0 0 0
X 1 41
A 821 10 0 0 820 6 807 22 0 0 0 0 0 0 0 0 0 0 0 0
X 1 43
A 822 4 0 0 749 6 821 0 3 0 0 0 0 2 0 0 0 0 0 0
A 823 4 0 0 734 6 820 0 822 0 0 0 0 1 0 0 0 0 0 0
A 824 10 0 0 821 6 807 43 0 0 0 0 0 0 0 0 0 0 0 0
X 1 373
A 825 10 0 0 824 6 807 46 0 0 0 0 0 0 0 0 0 0 0 0
X 1 375
A 826 4 0 0 511 6 825 0 3 0 0 0 0 2 0 0 0 0 0 0
A 827 4 0 0 0 6 824 0 826 0 0 0 0 1 0 0 0 0 0 0
A 828 2 0 0 0 6 925 0 0 0 828 0 0 0 0 0 0 0 0 0
A 829 10 0 0 825 6 807 52 0 0 0 0 0 0 0 0 0 0 0 0
X 1 828
A 830 2 0 0 129 6 926 0 0 0 830 0 0 0 0 0 0 0 0 0
A 831 10 0 0 829 6 807 55 0 0 0 0 0 0 0 0 0 0 0 0
X 1 830
A 832 4 0 0 772 6 831 0 3 0 0 0 0 2 0 0 0 0 0 0
A 833 4 0 0 729 6 829 0 832 0 0 0 0 1 0 0 0 0 0 0
A 834 10 0 0 831 6 807 25 0 0 0 0 0 0 0 0 0 0 0 0
X 1 47
A 835 10 0 0 834 6 807 28 0 0 0 0 0 0 0 0 0 0 0 0
X 1 49
A 836 10 0 0 835 6 807 31 0 0 0 0 0 0 0 0 0 0 0 0
X 1 51
A 837 10 0 0 836 6 807 34 0 0 0 0 0 0 0 0 0 0 0 0
X 1 53
A 838 10 0 0 837 6 807 49 0 0 0 0 0 0 0 0 0 0 0 0
X 1 383
A 839 2 0 0 0 6 927 0 0 0 839 0 0 0 0 0 0 0 0 0
A 840 10 0 0 838 6 807 58 0 0 0 0 0 0 0 0 0 0 0 0
X 1 839
A 841 10 0 0 840 6 807 37 0 0 0 0 0 0 0 0 0 0 0 0
X 1 55
A 842 10 0 0 841 6 807 40 0 0 0 0 0 0 0 0 0 0 0 0
X 1 13
A 845 1 0 7 0 293 940 0 0 0 0 0 0 0 0 0 0 0 0 0
A 846 10 0 0 9 6 845 1 0 0 0 0 0 0 0 0 0 0 0 0
X 1 22
A 847 10 0 0 846 6 845 4 0 0 0 0 0 0 0 0 0 0 0 0
X 1 25
A 848 4 0 0 804 6 847 0 3 0 0 0 0 2 0 0 0 0 0 0
A 849 4 0 0 0 6 846 0 848 0 0 0 0 1 0 0 0 0 0 0
A 850 10 0 0 847 6 845 7 0 0 0 0 0 0 0 0 0 0 0 0
X 1 29
A 851 10 0 0 850 6 845 10 0 0 0 0 0 0 0 0 0 0 0 0
X 1 31
A 852 4 0 0 0 6 851 0 3 0 0 0 0 2 0 0 0 0 0 0
A 853 4 0 0 0 6 850 0 852 0 0 0 0 1 0 0 0 0 0 0
A 854 10 0 0 851 6 845 25 0 0 0 0 0 0 0 0 0 0 0 0
X 1 47
A 855 10 0 0 854 6 845 28 0 0 0 0 0 0 0 0 0 0 0 0
X 1 49
A 856 10 0 0 855 6 845 37 0 0 0 0 0 0 0 0 0 0 0 0
X 1 55
A 857 10 0 0 856 6 845 40 0 0 0 0 0 0 0 0 0 0 0 0
X 1 13
A 859 1 0 9 641 299 946 0 0 0 0 0 0 0 0 0 0 0 0 0
A 860 10 0 0 386 6 859 1 0 0 0 0 0 0 0 0 0 0 0 0
X 1 22
A 861 10 0 0 860 6 859 4 0 0 0 0 0 0 0 0 0 0 0 0
X 1 25
A 862 4 0 0 616 6 861 0 3 0 0 0 0 2 0 0 0 0 0 0
A 863 4 0 0 0 6 860 0 862 0 0 0 0 1 0 0 0 0 0 0
A 864 10 0 0 861 6 859 25 0 0 0 0 0 0 0 0 0 0 0 0
X 1 47
A 865 10 0 0 864 6 859 37 0 0 0 0 0 0 0 0 0 0 0 0
X 1 55
A 866 10 0 0 865 6 859 40 0 0 0 0 0 0 0 0 0 0 0 0
X 1 13
A 868 1 0 9 650 305 952 0 0 0 0 0 0 0 0 0 0 0 0 0
A 869 10 0 0 0 6 868 1 0 0 0 0 0 0 0 0 0 0 0 0
X 1 22
A 870 10 0 0 869 6 868 4 0 0 0 0 0 0 0 0 0 0 0 0
X 1 25
A 871 4 0 0 0 6 870 0 3 0 0 0 0 2 0 0 0 0 0 0
A 872 4 0 0 0 6 869 0 871 0 0 0 0 1 0 0 0 0 0 0
A 873 10 0 0 870 6 868 25 0 0 0 0 0 0 0 0 0 0 0 0
X 1 47
A 874 10 0 0 873 6 868 37 0 0 0 0 0 0 0 0 0 0 0 0
X 1 55
A 875 10 0 0 874 6 868 40 0 0 0 0 0 0 0 0 0 0 0 0
X 1 13
A 877 1 0 9 780 311 958 0 0 0 0 0 0 0 0 0 0 0 0 0
A 878 10 0 0 0 6 877 1 0 0 0 0 0 0 0 0 0 0 0 0
X 1 22
A 879 10 0 0 878 6 877 4 0 0 0 0 0 0 0 0 0 0 0 0
X 1 25
A 880 4 0 0 859 6 879 0 3 0 0 0 0 2 0 0 0 0 0 0
A 881 4 0 0 0 6 878 0 880 0 0 0 0 1 0 0 0 0 0 0
A 882 10 0 0 879 6 877 25 0 0 0 0 0 0 0 0 0 0 0 0
X 1 47
A 883 10 0 0 882 6 877 37 0 0 0 0 0 0 0 0 0 0 0 0
X 1 55
A 884 10 0 0 883 6 877 40 0 0 0 0 0 0 0 0 0 0 0 0
X 1 13
A 886 1 0 9 0 317 964 0 0 0 0 0 0 0 0 0 0 0 0 0
A 887 10 0 0 818 6 886 1 0 0 0 0 0 0 0 0 0 0 0 0
X 1 22
A 888 10 0 0 887 6 886 4 0 0 0 0 0 0 0 0 0 0 0 0
X 1 25
A 889 4 0 0 0 6 888 0 3 0 0 0 0 2 0 0 0 0 0 0
A 890 4 0 0 844 6 887 0 889 0 0 0 0 1 0 0 0 0 0 0
A 891 10 0 0 888 6 886 25 0 0 0 0 0 0 0 0 0 0 0 0
X 1 47
A 892 10 0 0 891 6 886 37 0 0 0 0 0 0 0 0 0 0 0 0
X 1 55
A 893 10 0 0 892 6 886 40 0 0 0 0 0 0 0 0 0 0 0 0
X 1 13
A 895 1 0 9 267 323 970 0 0 0 0 0 0 0 0 0 0 0 0 0
A 896 10 0 0 419 6 895 1 0 0 0 0 0 0 0 0 0 0 0 0
X 1 22
A 897 10 0 0 896 6 895 4 0 0 0 0 0 0 0 0 0 0 0 0
X 1 25
A 898 4 0 0 377 6 897 0 3 0 0 0 0 2 0 0 0 0 0 0
A 899 4 0 0 352 6 896 0 898 0 0 0 0 1 0 0 0 0 0 0
A 900 10 0 0 897 6 895 25 0 0 0 0 0 0 0 0 0 0 0 0
X 1 47
A 901 10 0 0 900 6 895 37 0 0 0 0 0 0 0 0 0 0 0 0
X 1 55
A 902 10 0 0 901 6 895 40 0 0 0 0 0 0 0 0 0 0 0 0
X 1 13
Z
Z
