V26 epwcom
10 epwcom.F90 S582 0
04/27/2012  15:03:18
use control_epw public 0 direct
use units_epw public 0 direct
use output_epw public 0 direct
use klist_epw public 0 direct
enduse
S 582 24 0 0 0 9 1 0 4658 5 0 A 0 0 0 0 0 0 0 0 0 0 0 0 172 0 0 0 0 0 0 0 0 167 0 0 0 0 0 0 epwcom
Z
Z
