V26 kfold
9 kfold.F90 S582 0
04/27/2012  15:03:22
use kinds private
use kinds private
enduse
D 56 21 6 2 15 19 0 0 0 0 0
 0 17 3 3 17 17
 0 18 17 3 18 18
D 59 21 6 1 33 32 0 1 0 0 1
 24 28 30 24 28 26
D 62 21 6 1 0 21 0 0 0 0 0
 0 21 0 3 21 0
D 65 21 6 2 52 51 0 1 0 0 1
 38 41 48 38 41 39
 43 47 50 43 47 45
D 68 21 6 1 0 36 0 0 0 0 0
 0 36 0 3 36 0
D 71 21 9 2 15 19 0 0 0 0 0
 0 17 3 3 17 17
 0 18 17 3 18 18
S 582 24 0 0 0 6 1 0 4658 5 0 A 0 0 0 0 0 0 0 0 0 0 0 0 29 0 0 0 0 0 0 0 0 11 0 0 0 0 0 0 kfold
S 584 23 0 0 0 9 587 582 4670 4 0 A 0 0 0 0 0 0 0 0 0 0 0 0 0 0 0 0 0 0 0 0 0 0 0 582 0 0 0 0 dp
S 585 3 0 0 0 6 1 1 0 0 0 A 0 0 0 0 0 0 0 0 0 8 0 0 0 0 0 0 0 0 0 0 0 0 0 0 0 0 0 0 6
S 586 3 0 0 0 6 1 1 0 0 0 A 0 0 0 0 0 0 0 0 0 4 0 0 0 0 0 0 0 0 0 0 0 0 0 0 0 0 0 0 6
R 587 16 1 kinds dp
S 594 7 4 0 4 56 598 582 4704 800004 100 A 0 0 0 0 0 0 0 0 0 0 0 0 622 0 0 0 0 0 0 0 0 0 0 582 0 0 0 0 g0vec_all
S 595 3 0 0 0 6 0 1 0 0 0 A 0 0 0 0 0 0 0 0 0 3 0 0 0 0 0 0 0 0 0 0 0 0 0 0 0 0 0 0 6
S 596 3 0 0 0 6 0 1 0 0 0 A 0 0 0 0 0 0 0 0 0 125 0 0 0 0 0 0 0 0 0 0 0 0 0 0 0 0 0 0 6
S 597 3 0 0 0 6 0 1 0 0 0 A 0 0 0 0 0 0 0 0 0 375 0 0 0 0 0 0 0 0 0 0 0 0 0 0 0 0 0 0 6
S 598 6 4 0 0 6 599 582 4714 4 0 A 0 0 0 0 0 1500 0 0 0 0 0 0 622 0 0 0 0 0 0 0 0 0 0 582 0 0 0 0 ng0vec
S 599 6 4 0 0 6 611 582 4721 40800006 0 A 0 0 0 0 0 1504 0 0 0 0 0 0 622 0 0 0 0 0 0 0 0 0 0 582 0 0 0 0 z_b_0
S 600 7 6 0 0 59 1 582 2777 10a00004 51 A 0 0 0 0 0 0 603 0 0 0 605 0 0 0 0 0 0 0 0 602 0 0 604 582 0 0 0 0 shift
S 601 3 0 0 0 6 0 1 0 0 0 A 0 0 0 0 0 0 0 0 0 18 0 0 0 0 0 0 0 0 0 0 0 0 0 0 0 0 0 0 6
S 602 8 4 0 0 62 615 582 4727 40822004 1020 A 0 0 0 0 0 0 0 0 0 0 0 0 622 0 0 0 0 0 0 0 0 0 0 582 0 0 0 0 shift$sd
S 603 6 4 0 0 7 604 582 4736 40802001 1020 A 0 0 0 0 0 0 0 0 0 0 0 0 622 0 0 0 0 0 0 0 0 0 0 582 0 0 0 0 shift$p
S 604 6 4 0 0 7 602 582 4744 40802000 1020 A 0 0 0 0 0 0 0 0 0 0 0 0 622 0 0 0 0 0 0 0 0 0 0 582 0 0 0 0 shift$o
S 605 22 1 0 0 9 1 582 4752 40000000 1000 A 0 0 0 0 0 0 0 600 0 0 0 0 602 0 0 0 0 0 0 0 0 0 0 582 0 0 0 0 shift$arrdsc
S 606 3 0 0 0 6 0 1 0 0 0 A 0 0 0 0 0 0 0 0 0 13 0 0 0 0 0 0 0 0 0 0 0 0 0 0 0 0 0 0 6
S 607 3 0 0 0 6 0 1 0 0 0 A 0 0 0 0 0 0 0 0 0 14 0 0 0 0 0 0 0 0 0 0 0 0 0 0 0 0 0 0 6
S 608 3 0 0 0 6 0 1 0 0 0 A 0 0 0 0 0 0 0 0 0 17 0 0 0 0 0 0 0 0 0 0 0 0 0 0 0 0 0 0 6
S 609 3 0 0 0 6 0 1 0 0 0 A 0 0 0 0 0 0 0 0 0 7 0 0 0 0 0 0 0 0 0 0 0 0 0 0 0 0 0 0 6
S 610 7 6 0 0 65 1 582 4765 10a00004 51 A 0 0 0 0 0 0 615 0 0 0 617 0 0 0 0 0 0 0 0 614 0 0 616 582 0 0 0 0 gmap
S 611 6 4 0 0 6 612 582 4770 40800006 0 A 0 0 0 0 0 1508 0 0 0 0 0 0 622 0 0 0 0 0 0 0 0 0 0 582 0 0 0 0 z_b_1
S 612 6 4 0 0 6 1 582 4776 40800006 0 A 0 0 0 0 0 1512 0 0 0 0 0 0 622 0 0 0 0 0 0 0 0 0 0 582 0 0 0 0 z_b_2
S 613 3 0 0 0 6 0 1 0 0 0 A 0 0 0 0 0 0 0 0 0 24 0 0 0 0 0 0 0 0 0 0 0 0 0 0 0 0 0 0 6
S 614 8 4 0 0 68 594 582 4782 40822004 1020 A 0 0 0 0 0 0 0 0 0 0 0 0 622 0 0 0 0 0 0 0 0 0 0 582 0 0 0 0 gmap$sd
S 615 6 4 0 0 7 616 582 4790 40802001 1020 A 0 0 0 0 0 0 0 0 0 0 0 0 622 0 0 0 0 0 0 0 0 0 0 582 0 0 0 0 gmap$p
S 616 6 4 0 0 7 614 582 4797 40802000 1020 A 0 0 0 0 0 0 0 0 0 0 0 0 622 0 0 0 0 0 0 0 0 0 0 582 0 0 0 0 gmap$o
S 617 22 1 0 0 9 1 582 4804 40000000 1000 A 0 0 0 0 0 0 0 610 0 0 0 0 614 0 0 0 0 0 0 0 0 0 0 582 0 0 0 0 gmap$arrdsc
S 618 3 0 0 0 6 0 1 0 0 0 A 0 0 0 0 0 0 0 0 0 19 0 0 0 0 0 0 0 0 0 0 0 0 0 0 0 0 0 0 6
S 619 3 0 0 0 6 0 1 0 0 0 A 0 0 0 0 0 0 0 0 0 20 0 0 0 0 0 0 0 0 0 0 0 0 0 0 0 0 0 0 6
S 620 3 0 0 0 6 0 1 0 0 0 A 0 0 0 0 0 0 0 0 0 23 0 0 0 0 0 0 0 0 0 0 0 0 0 0 0 0 0 0 6
S 621 7 4 0 4 71 1 582 4816 800004 100 A 0 0 0 0 0 0 0 0 0 0 0 0 623 0 0 0 0 0 0 0 0 0 0 582 0 0 0 0 g0vec_all_r
S 622 11 0 0 4 9 1 582 4828 40800000 801000 A 0 0 0 0 0 1716 0 0 603 612 0 0 0 0 0 0 0 0 0 0 0 0 0 0 0 0 0 0 _kfold$0
S 623 11 0 0 4 9 622 582 4837 40800000 801000 A 0 0 0 0 0 3000 0 0 621 621 0 0 0 0 0 0 0 0 0 0 0 0 0 0 0 0 0 0 _kfold$2
A 13 2 0 0 0 6 585 0 0 0 13 0 0 0 0 0 0 0 0 0
A 15 2 0 0 0 6 586 0 0 0 15 0 0 0 0 0 0 0 0 0
A 17 2 0 0 0 6 595 0 0 0 17 0 0 0 0 0 0 0 0 0
A 18 2 0 0 0 6 596 0 0 0 18 0 0 0 0 0 0 0 0 0
A 19 2 0 0 0 6 597 0 0 0 19 0 0 0 0 0 0 0 0 0
A 21 2 0 0 0 6 601 0 0 0 21 0 0 0 0 0 0 0 0 0
A 22 2 0 0 0 6 606 0 0 0 22 0 0 0 0 0 0 0 0 0
A 23 1 0 1 0 62 602 0 0 0 0 0 0 0 0 0 0 0 0 0
A 24 10 0 0 0 6 23 1 0 0 0 0 0 0 0 0 0 0 0 0
X 1 22
A 25 2 0 0 0 6 607 0 0 0 25 0 0 0 0 0 0 0 0 0
A 26 10 0 0 24 6 23 4 0 0 0 0 0 0 0 0 0 0 0 0
X 1 25
A 27 4 0 0 0 6 26 0 3 0 0 0 0 2 0 0 0 0 0 0
A 28 4 0 0 0 6 24 0 27 0 0 0 0 1 0 0 0 0 0 0
A 29 2 0 0 0 6 608 0 0 0 29 0 0 0 0 0 0 0 0 0
A 30 10 0 0 26 6 23 7 0 0 0 0 0 0 0 0 0 0 0 0
X 1 29
A 31 2 0 0 0 6 609 0 0 0 31 0 0 0 0 0 0 0 0 0
A 32 10 0 0 30 6 23 10 0 0 0 0 0 0 0 0 0 0 0 0
X 1 31
A 33 10 0 0 32 6 23 13 0 0 0 0 0 0 0 0 0 0 0 0
X 1 13
A 36 2 0 0 0 6 613 0 0 0 36 0 0 0 0 0 0 0 0 0
A 37 1 0 3 0 68 614 0 0 0 0 0 0 0 0 0 0 0 0 0
A 38 10 0 0 0 6 37 1 0 0 0 0 0 0 0 0 0 0 0 0
X 1 22
A 39 10 0 0 38 6 37 4 0 0 0 0 0 0 0 0 0 0 0 0
X 1 25
A 40 4 0 0 0 6 39 0 3 0 0 0 0 2 0 0 0 0 0 0
A 41 4 0 0 0 6 38 0 40 0 0 0 0 1 0 0 0 0 0 0
A 42 2 0 0 0 6 618 0 0 0 42 0 0 0 0 0 0 0 0 0
A 43 10 0 0 39 6 37 16 0 0 0 0 0 0 0 0 0 0 0 0
X 1 42
A 44 2 0 0 0 6 619 0 0 0 44 0 0 0 0 0 0 0 0 0
A 45 10 0 0 43 6 37 19 0 0 0 0 0 0 0 0 0 0 0 0
X 1 44
A 46 4 0 0 0 6 45 0 3 0 0 0 0 2 0 0 0 0 0 0
A 47 4 0 0 0 6 43 0 46 0 0 0 0 1 0 0 0 0 0 0
A 48 10 0 0 45 6 37 7 0 0 0 0 0 0 0 0 0 0 0 0
X 1 29
A 49 2 0 0 0 6 620 0 0 0 49 0 0 0 0 0 0 0 0 0
A 50 10 0 0 48 6 37 22 0 0 0 0 0 0 0 0 0 0 0 0
X 1 49
A 51 10 0 0 50 6 37 10 0 0 0 0 0 0 0 0 0 0 0 0
X 1 31
A 52 10 0 0 51 6 37 13 0 0 0 0 0 0 0 0 0 0 0 0
X 1 13
Z
Z
