V26 klist_epw
10 epwcom.F90 S582 0
04/27/2012  15:03:18
use parameters private
use kinds private
use parameters private
use kinds private
enduse
D 56 21 6 1 3 21 0 0 0 0 0
 0 21 3 3 21 21
D 59 21 9 2 15 34 0 0 0 0 0
 0 23 3 3 23 23
 0 21 23 3 21 21
S 582 24 0 0 0 6 1 0 4658 5 0 A 0 0 0 0 0 0 0 0 0 0 0 0 121 0 0 0 0 0 0 0 0 110 0 0 0 0 0 0 klist_epw
S 584 23 0 0 0 9 589 582 4674 4 0 A 0 0 0 0 0 0 0 0 0 0 0 0 0 0 0 0 0 0 0 0 0 0 0 582 0 0 0 0 dp
S 586 23 0 0 0 6 604 582 4688 4 0 A 0 0 0 0 0 0 0 0 0 0 0 0 0 0 0 0 0 0 0 0 0 0 0 582 0 0 0 0 npk
S 588 3 0 0 0 6 1 1 0 0 0 A 0 0 0 0 0 0 0 0 0 4 0 0 0 0 0 0 0 0 0 0 0 0 0 0 0 0 0 0 6
R 589 16 1 kinds dp
S 597 3 0 0 0 6 1 1 0 0 0 A 0 0 0 0 0 0 0 0 0 40000 0 0 0 0 0 0 0 0 0 0 0 0 0 0 0 0 0 0 6
S 598 3 0 0 0 6 1 1 0 0 0 A 0 0 0 0 0 0 0 0 0 3 0 0 0 0 0 0 0 0 0 0 0 0 0 0 0 0 0 0 6
R 604 16 3 parameters npk
S 613 7 4 0 4 56 614 582 4785 800004 100 A 0 0 0 0 0 0 0 0 0 0 0 0 617 0 0 0 0 0 0 0 0 0 0 582 0 0 0 0 kmap
S 614 6 4 0 0 16 1 582 4790 4 0 A 0 0 0 0 0 160064 0 0 0 0 0 0 617 0 0 0 0 0 0 0 0 0 0 582 0 0 0 0 tshuffle
S 615 7 4 0 4 59 1 582 4799 800004 100 A 0 0 0 0 0 0 0 0 0 0 0 0 618 0 0 0 0 0 0 0 0 0 0 582 0 0 0 0 xk_cryst
S 616 3 0 0 0 6 0 1 0 0 0 A 0 0 0 0 0 0 0 0 0 120000 0 0 0 0 0 0 0 0 0 0 0 0 0 0 0 0 0 0 6
S 617 11 0 0 4 9 1 582 4808 40800000 801000 A 0 0 0 0 0 160068 0 0 613 614 0 0 0 0 0 0 0 0 0 0 0 0 0 0 0 0 0 0 _klist_epw$0
S 618 11 0 0 4 9 617 582 4821 40800000 801000 A 0 0 0 0 0 960064 0 0 615 615 0 0 0 0 0 0 0 0 0 0 0 0 0 0 0 0 0 0 _klist_epw$2
A 15 2 0 0 0 6 588 0 0 0 15 0 0 0 0 0 0 0 0 0
A 21 2 0 0 0 6 597 0 0 0 21 0 0 0 0 0 0 0 0 0
A 23 2 0 0 0 6 598 0 0 0 23 0 0 0 0 0 0 0 0 0
A 34 2 0 0 0 6 616 0 0 0 34 0 0 0 0 0 0 0 0 0
Z
Z
