V26 output_epw
10 epwcom.F90 S582 0
04/27/2012  15:03:18
enduse
D 56 18 12
S 582 24 0 0 0 9 1 0 4658 5 0 A 0 0 0 0 0 0 0 0 0 0 0 0 165 0 0 0 0 0 0 0 0 150 0 0 0 0 0 0 output_epw
S 583 3 0 0 0 6 0 1 0 0 0 A 0 0 0 0 0 0 0 0 0 80 0 0 0 0 0 0 0 0 0 0 0 0 0 0 0 0 0 0 6
S 584 6 4 0 0 56 585 582 4669 4 0 A 0 0 0 0 0 0 0 0 0 0 0 0 589 0 0 0 0 0 0 0 0 0 0 582 0 0 0 0 filqf
S 585 6 4 0 0 56 586 582 4675 4 0 A 0 0 0 0 0 80 0 0 0 0 0 0 589 0 0 0 0 0 0 0 0 0 0 582 0 0 0 0 filkf
S 586 6 4 0 0 56 587 582 4681 4 0 A 0 0 0 0 0 160 0 0 0 0 0 0 589 0 0 0 0 0 0 0 0 0 0 582 0 0 0 0 filukk
S 587 6 4 0 0 56 588 582 4688 4 0 A 0 0 0 0 0 240 0 0 0 0 0 0 589 0 0 0 0 0 0 0 0 0 0 582 0 0 0 0 filukq
S 588 6 4 0 0 56 1 582 4695 4 0 A 0 0 0 0 0 320 0 0 0 0 0 0 589 0 0 0 0 0 0 0 0 0 0 582 0 0 0 0 fildvscf0
S 589 11 0 0 0 9 1 582 4705 40800000 801000 A 0 0 0 0 0 400 0 0 584 588 0 0 0 0 0 0 0 0 0 0 0 0 0 0 0 0 0 0 _output_epw$1
A 12 2 0 0 0 6 583 0 0 0 12 0 0 0 0 0 0 0 0 0
Z
Z
