V26 units_epw
10 epwcom.F90 S582 0
04/27/2012  15:03:18
enduse
D 56 21 16 1 26 24 0 1 0 0 1
 16 20 22 16 20 18
D 59 21 6 1 0 13 0 0 0 0 0
 0 13 0 3 13 0
D 62 21 16 2 45 44 0 1 0 0 1
 31 34 41 31 34 32
 36 40 43 36 40 38
D 65 21 6 1 0 29 0 0 0 0 0
 0 29 0 3 29 0
S 582 24 0 0 0 9 1 0 4658 5 0 A 0 0 0 0 0 0 0 0 0 0 0 0 147 0 0 0 0 0 0 0 0 124 0 0 0 0 0 0 units_epw
S 583 6 4 0 0 6 584 582 4668 4 0 A 0 0 0 0 0 0 0 0 0 0 0 0 615 0 0 0 0 0 0 0 0 0 0 582 0 0 0 0 iudvscf0
S 584 6 4 0 0 6 585 582 4677 4 0 A 0 0 0 0 0 4 0 0 0 0 0 0 615 0 0 0 0 0 0 0 0 0 0 582 0 0 0 0 iuncuf
S 585 6 4 0 0 6 586 582 4684 4 0 A 0 0 0 0 0 8 0 0 0 0 0 0 615 0 0 0 0 0 0 0 0 0 0 582 0 0 0 0 iunepmatf
S 586 6 4 0 0 6 587 582 4694 4 0 A 0 0 0 0 0 12 0 0 0 0 0 0 615 0 0 0 0 0 0 0 0 0 0 582 0 0 0 0 lrcuf
S 587 6 4 0 0 6 588 582 4700 4 0 A 0 0 0 0 0 16 0 0 0 0 0 0 615 0 0 0 0 0 0 0 0 0 0 582 0 0 0 0 lrepmatf
S 588 6 4 0 0 6 589 582 4709 4 0 A 0 0 0 0 0 20 0 0 0 0 0 0 615 0 0 0 0 0 0 0 0 0 0 582 0 0 0 0 lretf
S 589 6 4 0 0 6 590 582 4715 4 0 A 0 0 0 0 0 24 0 0 0 0 0 0 615 0 0 0 0 0 0 0 0 0 0 582 0 0 0 0 iuetf
S 590 6 4 0 0 6 591 582 4721 4 0 A 0 0 0 0 0 28 0 0 0 0 0 0 615 0 0 0 0 0 0 0 0 0 0 582 0 0 0 0 iunepmatwe
S 591 6 4 0 0 6 593 582 4732 4 0 A 0 0 0 0 0 32 0 0 0 0 0 0 615 0 0 0 0 0 0 0 0 0 0 582 0 0 0 0 iunepmatwp
S 592 7 6 0 0 56 1 582 4743 10a00004 51 A 0 0 0 0 0 0 596 0 0 0 598 0 0 0 0 0 0 0 0 595 0 0 597 582 0 0 0 0 this_dvkb3_is_on_file
S 593 6 4 0 0 6 605 582 4765 40800006 0 A 0 0 0 0 0 36 0 0 0 0 0 0 615 0 0 0 0 0 0 0 0 0 0 582 0 0 0 0 z_b_0
S 594 3 0 0 0 6 0 1 0 0 0 A 0 0 0 0 0 0 0 0 0 18 0 0 0 0 0 0 0 0 0 0 0 0 0 0 0 0 0 0 6
S 595 8 4 0 0 59 609 582 4771 40822064 1020 A 0 0 0 0 0 0 0 0 0 0 0 0 615 0 0 0 0 0 0 0 0 0 0 582 0 0 0 0 this_dvkb3_is_on_file$sd
S 596 6 4 0 0 7 597 582 4796 40802061 1020 A 0 0 0 0 0 72 0 0 0 0 0 0 615 0 0 0 0 0 0 0 0 0 0 582 0 0 0 0 this_dvkb3_is_on_file$p
S 597 6 4 0 0 7 595 582 4820 40802060 1020 A 0 0 0 0 0 80 0 0 0 0 0 0 615 0 0 0 0 0 0 0 0 0 0 582 0 0 0 0 this_dvkb3_is_on_file$o
S 598 22 1 0 0 9 1 582 4844 40000000 1000 A 0 0 0 0 0 0 0 592 0 0 0 0 595 0 0 0 0 0 0 0 0 0 0 582 0 0 0 0 this_dvkb3_is_on_file$arrdsc
S 599 3 0 0 0 6 0 1 0 0 0 A 0 0 0 0 0 0 0 0 0 13 0 0 0 0 0 0 0 0 0 0 0 0 0 0 0 0 0 0 6
S 600 3 0 0 0 6 0 1 0 0 0 A 0 0 0 0 0 0 0 0 0 14 0 0 0 0 0 0 0 0 0 0 0 0 0 0 0 0 0 0 6
S 601 3 0 0 0 6 0 1 0 0 0 A 0 0 0 0 0 0 0 0 0 17 0 0 0 0 0 0 0 0 0 0 0 0 0 0 0 0 0 0 6
S 602 3 0 0 0 6 0 1 0 0 0 A 0 0 0 0 0 0 0 0 0 7 0 0 0 0 0 0 0 0 0 0 0 0 0 0 0 0 0 0 6
S 603 3 0 0 0 6 0 1 0 0 0 A 0 0 0 0 0 0 0 0 0 8 0 0 0 0 0 0 0 0 0 0 0 0 0 0 0 0 0 0 6
S 604 7 6 0 0 62 1 582 4873 10a00004 51 A 0 0 0 0 0 0 609 0 0 0 611 0 0 0 0 0 0 0 0 608 0 0 610 582 0 0 0 0 this_pcxpsi_is_on_file
S 605 6 4 0 0 6 606 582 4896 40800006 0 A 0 0 0 0 0 40 0 0 0 0 0 0 615 0 0 0 0 0 0 0 0 0 0 582 0 0 0 0 z_b_1
S 606 6 4 0 0 6 1 582 4902 40800006 0 A 0 0 0 0 0 44 0 0 0 0 0 0 615 0 0 0 0 0 0 0 0 0 0 582 0 0 0 0 z_b_2
S 607 3 0 0 0 6 0 1 0 0 0 A 0 0 0 0 0 0 0 0 0 24 0 0 0 0 0 0 0 0 0 0 0 0 0 0 0 0 0 0 6
S 608 8 4 0 0 65 583 582 4908 40822064 1020 A 0 0 0 0 0 88 0 0 0 0 0 0 615 0 0 0 0 0 0 0 0 0 0 582 0 0 0 0 this_pcxpsi_is_on_file$sd
S 609 6 4 0 0 7 610 582 4934 40802061 1020 A 0 0 0 0 0 184 0 0 0 0 0 0 615 0 0 0 0 0 0 0 0 0 0 582 0 0 0 0 this_pcxpsi_is_on_file$p
S 610 6 4 0 0 7 608 582 4959 40802060 1020 A 0 0 0 0 0 192 0 0 0 0 0 0 615 0 0 0 0 0 0 0 0 0 0 582 0 0 0 0 this_pcxpsi_is_on_file$o
S 611 22 1 0 0 9 1 582 4984 40000000 1000 A 0 0 0 0 0 0 0 604 0 0 0 0 608 0 0 0 0 0 0 0 0 0 0 582 0 0 0 0 this_pcxpsi_is_on_file$arrdsc
S 612 3 0 0 0 6 0 1 0 0 0 A 0 0 0 0 0 0 0 0 0 19 0 0 0 0 0 0 0 0 0 0 0 0 0 0 0 0 0 0 6
S 613 3 0 0 0 6 0 1 0 0 0 A 0 0 0 0 0 0 0 0 0 20 0 0 0 0 0 0 0 0 0 0 0 0 0 0 0 0 0 0 6
S 614 3 0 0 0 6 0 1 0 0 0 A 0 0 0 0 0 0 0 0 0 23 0 0 0 0 0 0 0 0 0 0 0 0 0 0 0 0 0 0 6
S 615 11 0 0 0 9 1 582 5014 40800000 801000 A 0 0 0 0 0 248 0 0 596 606 0 0 0 0 0 0 0 0 0 0 0 0 0 0 0 0 0 0 _units_epw$0
A 13 2 0 0 0 6 594 0 0 0 13 0 0 0 0 0 0 0 0 0
A 14 2 0 0 0 6 599 0 0 0 14 0 0 0 0 0 0 0 0 0
A 15 1 0 1 0 59 595 0 0 0 0 0 0 0 0 0 0 0 0 0
A 16 10 0 0 0 6 15 1 0 0 0 0 0 0 0 0 0 0 0 0
X 1 14
A 17 2 0 0 0 6 600 0 0 0 17 0 0 0 0 0 0 0 0 0
A 18 10 0 0 16 6 15 4 0 0 0 0 0 0 0 0 0 0 0 0
X 1 17
A 19 4 0 0 0 6 18 0 3 0 0 0 0 2 0 0 0 0 0 0
A 20 4 0 0 0 6 16 0 19 0 0 0 0 1 0 0 0 0 0 0
A 21 2 0 0 0 6 601 0 0 0 21 0 0 0 0 0 0 0 0 0
A 22 10 0 0 18 6 15 7 0 0 0 0 0 0 0 0 0 0 0 0
X 1 21
A 23 2 0 0 0 6 602 0 0 0 23 0 0 0 0 0 0 0 0 0
A 24 10 0 0 22 6 15 10 0 0 0 0 0 0 0 0 0 0 0 0
X 1 23
A 25 2 0 0 0 6 603 0 0 0 25 0 0 0 0 0 0 0 0 0
A 26 10 0 0 24 6 15 13 0 0 0 0 0 0 0 0 0 0 0 0
X 1 25
A 29 2 0 0 0 6 607 0 0 0 29 0 0 0 0 0 0 0 0 0
A 30 1 0 3 0 65 608 0 0 0 0 0 0 0 0 0 0 0 0 0
A 31 10 0 0 0 6 30 1 0 0 0 0 0 0 0 0 0 0 0 0
X 1 14
A 32 10 0 0 31 6 30 4 0 0 0 0 0 0 0 0 0 0 0 0
X 1 17
A 33 4 0 0 0 6 32 0 3 0 0 0 0 2 0 0 0 0 0 0
A 34 4 0 0 0 6 31 0 33 0 0 0 0 1 0 0 0 0 0 0
A 35 2 0 0 0 6 612 0 0 0 35 0 0 0 0 0 0 0 0 0
A 36 10 0 0 32 6 30 16 0 0 0 0 0 0 0 0 0 0 0 0
X 1 35
A 37 2 0 0 0 6 613 0 0 0 37 0 0 0 0 0 0 0 0 0
A 38 10 0 0 36 6 30 19 0 0 0 0 0 0 0 0 0 0 0 0
X 1 37
A 39 4 0 0 0 6 38 0 3 0 0 0 0 2 0 0 0 0 0 0
A 40 4 0 0 0 6 36 0 39 0 0 0 0 1 0 0 0 0 0 0
A 41 10 0 0 38 6 30 7 0 0 0 0 0 0 0 0 0 0 0 0
X 1 21
A 42 2 0 0 0 6 614 0 0 0 42 0 0 0 0 0 0 0 0 0
A 43 10 0 0 41 6 30 22 0 0 0 0 0 0 0 0 0 0 0 0
X 1 42
A 44 10 0 0 43 6 30 10 0 0 0 0 0 0 0 0 0 0 0 0
X 1 23
A 45 10 0 0 44 6 30 13 0 0 0 0 0 0 0 0 0 0 0 0
X 1 25
Z
Z
