V26 control_ph
9 phcom.F90 S582 0
04/24/2012  16:05:16
use parameters private
use kinds private
use parameters private
use kinds private
enduse
D 56 21 6 1 3 21 0 0 0 0 0
 0 21 3 3 21 21
D 59 21 9 1 3 33 0 0 0 0 0
 0 33 3 3 33 33
S 582 24 0 0 0 9 1 0 4658 5 0 A 0 0 0 0 0 0 0 0 0 0 0 0 302 0 0 0 0 0 0 0 0 264 0 0 0 0 0 0 control_ph
S 584 23 0 0 0 9 589 582 4675 4 0 A 0 0 0 0 0 0 0 0 0 0 0 0 0 0 0 0 0 0 0 0 0 0 0 582 0 0 0 0 dp
S 586 23 0 0 0 6 604 582 4689 4 0 A 0 0 0 0 0 0 0 0 0 0 0 0 0 0 0 0 0 0 0 0 0 0 0 582 0 0 0 0 npk
R 589 16 1 kinds dp
S 597 3 0 0 0 6 1 1 0 0 0 A 0 0 0 0 0 0 0 0 0 40000 0 0 0 0 0 0 0 0 0 0 0 0 0 0 0 0 0 0 6
S 601 3 0 0 0 6 1 1 0 0 0 A 0 0 0 0 0 0 0 0 0 100 0 0 0 0 0 0 0 0 0 0 0 0 0 0 0 0 0 0 6
R 604 16 3 parameters npk
S 613 16 1 0 0 6 0 582 4786 800004 400000 A 0 0 0 0 0 0 0 0 100 33 0 0 0 0 0 0 0 0 0 0 0 0 0 582 0 0 0 0 maxter
S 614 6 4 0 0 6 615 582 4793 4 0 A 0 0 0 0 0 0 0 0 0 0 0 0 637 0 0 0 0 0 0 0 0 0 0 582 0 0 0 0 niter_ph
S 615 6 4 0 0 6 616 582 4802 4 0 A 0 0 0 0 0 4 0 0 0 0 0 0 637 0 0 0 0 0 0 0 0 0 0 582 0 0 0 0 nmix_ph
S 616 7 4 0 4 56 617 582 4810 800004 100 A 0 0 0 0 0 16 0 0 0 0 0 0 637 0 0 0 0 0 0 0 0 0 0 582 0 0 0 0 nbnd_occ
S 617 6 4 0 0 6 618 582 4819 4 0 A 0 0 0 0 0 160080 0 0 0 0 0 0 637 0 0 0 0 0 0 0 0 0 0 582 0 0 0 0 irr0
S 618 6 4 0 0 6 623 582 4824 4 0 A 0 0 0 0 0 160084 0 0 0 0 0 0 637 0 0 0 0 0 0 0 0 0 0 582 0 0 0 0 maxirr
S 619 6 4 0 0 9 620 582 4831 4 0 A 0 0 0 0 0 0 0 0 0 0 0 0 638 0 0 0 0 0 0 0 0 0 0 582 0 0 0 0 tr2_ph
S 620 7 4 0 4 59 621 582 4838 800004 100 A 0 0 0 0 0 16 0 0 0 0 0 0 638 0 0 0 0 0 0 0 0 0 0 582 0 0 0 0 alpha_mix
S 621 6 4 0 0 9 622 582 4848 4 0 A 0 0 0 0 0 816 0 0 0 0 0 0 638 0 0 0 0 0 0 0 0 0 0 582 0 0 0 0 time_now
S 622 6 4 0 0 9 1 582 4857 4 0 A 0 0 0 0 0 824 0 0 0 0 0 0 638 0 0 0 0 0 0 0 0 0 0 582 0 0 0 0 alpha_pv
S 623 6 4 0 0 16 624 582 4866 4 0 A 0 0 0 0 0 160088 0 0 0 0 0 0 637 0 0 0 0 0 0 0 0 0 0 582 0 0 0 0 lgamma
S 624 6 4 0 0 16 625 582 4873 4 0 A 0 0 0 0 0 160092 0 0 0 0 0 0 637 0 0 0 0 0 0 0 0 0 0 582 0 0 0 0 lgamma_gamma
S 625 6 4 0 0 16 626 582 4886 4 0 A 0 0 0 0 0 160096 0 0 0 0 0 0 637 0 0 0 0 0 0 0 0 0 0 582 0 0 0 0 convt
S 626 6 4 0 0 16 627 582 4892 4 0 A 0 0 0 0 0 160100 0 0 0 0 0 0 637 0 0 0 0 0 0 0 0 0 0 582 0 0 0 0 epsil
S 627 6 4 0 0 16 628 582 4898 4 0 A 0 0 0 0 0 160104 0 0 0 0 0 0 637 0 0 0 0 0 0 0 0 0 0 582 0 0 0 0 trans
S 628 6 4 0 0 16 629 582 4904 4 0 A 0 0 0 0 0 160108 0 0 0 0 0 0 637 0 0 0 0 0 0 0 0 0 0 582 0 0 0 0 elph
S 629 6 4 0 0 16 630 582 4909 4 0 A 0 0 0 0 0 160112 0 0 0 0 0 0 637 0 0 0 0 0 0 0 0 0 0 582 0 0 0 0 zue
S 630 6 4 0 0 16 631 582 4913 4 0 A 0 0 0 0 0 160116 0 0 0 0 0 0 637 0 0 0 0 0 0 0 0 0 0 582 0 0 0 0 recover
S 631 6 4 0 0 16 632 582 4921 4 0 A 0 0 0 0 0 160120 0 0 0 0 0 0 637 0 0 0 0 0 0 0 0 0 0 582 0 0 0 0 lrpa
S 632 6 4 0 0 16 633 582 4926 4 0 A 0 0 0 0 0 160124 0 0 0 0 0 0 637 0 0 0 0 0 0 0 0 0 0 582 0 0 0 0 lnoloc
S 633 6 4 0 0 16 634 582 4933 4 0 A 0 0 0 0 0 160128 0 0 0 0 0 0 637 0 0 0 0 0 0 0 0 0 0 582 0 0 0 0 search_sym
S 634 6 4 0 0 16 635 582 4944 4 0 A 0 0 0 0 0 160132 0 0 0 0 0 0 637 0 0 0 0 0 0 0 0 0 0 582 0 0 0 0 lnscf
S 635 6 4 0 0 16 636 582 4950 4 0 A 0 0 0 0 0 160136 0 0 0 0 0 0 637 0 0 0 0 0 0 0 0 0 0 582 0 0 0 0 ldisp
S 636 6 4 0 0 16 1 582 4956 4 0 A 0 0 0 0 0 160140 0 0 0 0 0 0 637 0 0 0 0 0 0 0 0 0 0 582 0 0 0 0 reduce_io
S 637 11 0 0 4 9 1 582 4966 40800000 801000 A 0 0 0 0 0 160144 0 0 614 636 0 0 0 0 0 0 0 0 0 0 0 0 0 0 0 0 0 0 _control_ph$0
S 638 11 0 0 4 9 637 582 4980 40800000 801000 A 0 0 0 0 0 832 0 0 619 622 0 0 0 0 0 0 0 0 0 0 0 0 0 0 0 0 0 0 _control_ph$2
A 21 2 0 0 0 6 597 0 0 0 21 0 0 0 0 0 0 0 0 0
A 33 2 0 0 0 6 601 0 0 0 33 0 0 0 0 0 0 0 0 0
Z
Z
