V26 disp
9 phcom.F90 S582 0
04/24/2012  16:05:16
use kinds private
use kinds private
enduse
D 56 21 9 2 41 40 0 1 0 0 1
 24 28 36 24 28 26
 30 34 38 30 34 32
D 59 21 6 1 0 21 0 0 0 0 0
 0 21 0 3 21 0
S 582 24 0 0 0 9 1 0 4658 5 0 A 0 0 0 0 0 0 0 0 0 0 0 0 389 0 0 0 0 0 0 0 0 371 0 0 0 0 0 0 disp
S 584 23 0 0 0 9 587 582 4669 4 0 A 0 0 0 0 0 0 0 0 0 0 0 0 0 0 0 0 0 0 0 0 0 0 0 582 0 0 0 0 dp
S 585 3 0 0 0 6 1 1 0 0 0 A 0 0 0 0 0 0 0 0 0 8 0 0 0 0 0 0 0 0 0 0 0 0 0 0 0 0 0 0 6
R 587 16 1 kinds dp
S 594 16 0 0 0 6 0 582 4703 800004 400000 A 0 0 0 0 0 0 0 0 1000 17 0 0 0 0 0 0 0 0 0 0 0 0 0 582 0 0 0 0 nqmax
S 595 3 0 0 0 6 0 1 0 0 0 A 0 0 0 0 0 0 0 0 0 1000 0 0 0 0 0 0 0 0 0 0 0 0 0 0 0 0 0 0 6
S 596 6 4 0 0 6 597 582 4709 4 0 A 0 0 0 0 0 0 0 0 0 0 0 0 618 0 0 0 0 0 0 0 0 0 0 582 0 0 0 0 nq1
S 597 6 4 0 0 6 598 582 4713 4 0 A 0 0 0 0 0 4 0 0 0 0 0 0 618 0 0 0 0 0 0 0 0 0 0 582 0 0 0 0 nq2
S 598 6 4 0 0 6 599 582 4717 4 0 A 0 0 0 0 0 8 0 0 0 0 0 0 618 0 0 0 0 0 0 0 0 0 0 582 0 0 0 0 nq3
S 599 6 4 0 0 6 600 582 4721 4 0 A 0 0 0 0 0 12 0 0 0 0 0 0 618 0 0 0 0 0 0 0 0 0 0 582 0 0 0 0 iq1
S 600 6 4 0 0 6 601 582 4725 4 0 A 0 0 0 0 0 16 0 0 0 0 0 0 618 0 0 0 0 0 0 0 0 0 0 582 0 0 0 0 iq2
S 601 6 4 0 0 6 602 582 4729 4 0 A 0 0 0 0 0 20 0 0 0 0 0 0 618 0 0 0 0 0 0 0 0 0 0 582 0 0 0 0 iq3
S 602 6 4 0 0 6 604 582 4733 4 0 A 0 0 0 0 0 24 0 0 0 0 0 0 618 0 0 0 0 0 0 0 0 0 0 582 0 0 0 0 nqs
S 603 7 6 0 0 56 1 582 4737 10a00004 51 A 0 0 0 0 0 0 608 0 0 0 610 0 0 0 0 0 0 0 0 607 0 0 609 582 0 0 0 0 x_q
S 604 6 4 0 0 6 605 582 4741 40800006 0 A 0 0 0 0 0 28 0 0 0 0 0 0 618 0 0 0 0 0 0 0 0 0 0 582 0 0 0 0 z_b_0
S 605 6 4 0 0 6 1 582 4747 40800006 0 A 0 0 0 0 0 32 0 0 0 0 0 0 618 0 0 0 0 0 0 0 0 0 0 582 0 0 0 0 z_b_1
S 606 3 0 0 0 6 0 1 0 0 0 A 0 0 0 0 0 0 0 0 0 24 0 0 0 0 0 0 0 0 0 0 0 0 0 0 0 0 0 0 6
S 607 8 4 0 0 59 596 582 4753 40822064 1020 A 0 0 0 0 0 0 0 0 0 0 0 0 618 0 0 0 0 0 0 0 0 0 0 582 0 0 0 0 x_q$sd
S 608 6 4 0 0 7 609 582 4760 40802061 1020 A 0 0 0 0 0 96 0 0 0 0 0 0 618 0 0 0 0 0 0 0 0 0 0 582 0 0 0 0 x_q$p
S 609 6 4 0 0 7 607 582 4766 40802060 1020 A 0 0 0 0 0 104 0 0 0 0 0 0 618 0 0 0 0 0 0 0 0 0 0 582 0 0 0 0 x_q$o
S 610 22 1 0 0 9 1 582 4772 40000000 1000 A 0 0 0 0 0 0 0 603 0 0 0 0 607 0 0 0 0 0 0 0 0 0 0 582 0 0 0 0 x_q$arrdsc
S 611 3 0 0 0 6 0 1 0 0 0 A 0 0 0 0 0 0 0 0 0 13 0 0 0 0 0 0 0 0 0 0 0 0 0 0 0 0 0 0 6
S 612 3 0 0 0 6 0 1 0 0 0 A 0 0 0 0 0 0 0 0 0 14 0 0 0 0 0 0 0 0 0 0 0 0 0 0 0 0 0 0 6
S 613 3 0 0 0 6 0 1 0 0 0 A 0 0 0 0 0 0 0 0 0 19 0 0 0 0 0 0 0 0 0 0 0 0 0 0 0 0 0 0 6
S 614 3 0 0 0 6 0 1 0 0 0 A 0 0 0 0 0 0 0 0 0 20 0 0 0 0 0 0 0 0 0 0 0 0 0 0 0 0 0 0 6
S 615 3 0 0 0 6 0 1 0 0 0 A 0 0 0 0 0 0 0 0 0 17 0 0 0 0 0 0 0 0 0 0 0 0 0 0 0 0 0 0 6
S 616 3 0 0 0 6 0 1 0 0 0 A 0 0 0 0 0 0 0 0 0 23 0 0 0 0 0 0 0 0 0 0 0 0 0 0 0 0 0 0 6
S 617 3 0 0 0 6 0 1 0 0 0 A 0 0 0 0 0 0 0 0 0 7 0 0 0 0 0 0 0 0 0 0 0 0 0 0 0 0 0 0 6
S 618 11 0 0 0 9 1 582 4783 40800000 801000 A 0 0 0 0 0 148 0 0 608 605 0 0 0 0 0 0 0 0 0 0 0 0 0 0 0 0 0 0 _disp$0
A 13 2 0 0 0 6 585 0 0 0 13 0 0 0 0 0 0 0 0 0
A 17 2 0 0 0 6 595 0 0 0 17 0 0 0 0 0 0 0 0 0
A 21 2 0 0 0 6 606 0 0 0 21 0 0 0 0 0 0 0 0 0
A 22 2 0 0 0 6 611 0 0 0 22 0 0 0 0 0 0 0 0 0
A 23 1 0 1 0 59 607 0 0 0 0 0 0 0 0 0 0 0 0 0
A 24 10 0 0 0 6 23 1 0 0 0 0 0 0 0 0 0 0 0 0
X 1 22
A 25 2 0 0 0 6 612 0 0 0 25 0 0 0 0 0 0 0 0 0
A 26 10 0 0 24 6 23 4 0 0 0 0 0 0 0 0 0 0 0 0
X 1 25
A 27 4 0 0 0 6 26 0 3 0 0 0 0 2 0 0 0 0 0 0
A 28 4 0 0 0 6 24 0 27 0 0 0 0 1 0 0 0 0 0 0
A 29 2 0 0 0 6 613 0 0 0 29 0 0 0 0 0 0 0 0 0
A 30 10 0 0 26 6 23 7 0 0 0 0 0 0 0 0 0 0 0 0
X 1 29
A 31 2 0 0 0 6 614 0 0 0 31 0 0 0 0 0 0 0 0 0
A 32 10 0 0 30 6 23 10 0 0 0 0 0 0 0 0 0 0 0 0
X 1 31
A 33 4 0 0 0 6 32 0 3 0 0 0 0 2 0 0 0 0 0 0
A 34 4 0 0 0 6 30 0 33 0 0 0 0 1 0 0 0 0 0 0
A 35 2 0 0 0 6 615 0 0 0 35 0 0 0 0 0 0 0 0 0
A 36 10 0 0 32 6 23 13 0 0 0 0 0 0 0 0 0 0 0 0
X 1 35
A 37 2 0 0 0 6 616 0 0 0 37 0 0 0 0 0 0 0 0 0
A 38 10 0 0 36 6 23 16 0 0 0 0 0 0 0 0 0 0 0 0
X 1 37
A 39 2 0 0 0 6 617 0 0 0 39 0 0 0 0 0 0 0 0 0
A 40 10 0 0 38 6 23 19 0 0 0 0 0 0 0 0 0 0 0 0
X 1 39
A 41 10 0 0 40 6 23 22 0 0 0 0 0 0 0 0 0 0 0 0
X 1 13
Z
Z
