V26 dynamicalq
7 q2r.F90 S582 0
04/24/2012  16:05:16
use kinds private
use kinds private
enduse
D 56 21 12 5 66 65 0 1 0 0 1
 25 29 55 25 29 27
 31 35 57 31 35 33
 37 41 59 37 41 39
 43 47 61 43 47 45
 49 53 63 49 53 51
D 59 21 6 1 0 22 0 0 0 0 0
 0 22 0 3 22 0
D 62 21 9 2 82 81 0 1 0 0 1
 71 74 79 71 74 72
 75 78 80 75 78 76
D 65 21 6 1 0 69 0 0 0 0 0
 0 69 0 3 69 0
D 68 21 9 3 104 103 0 1 0 0 1
 88 91 100 88 91 89
 92 95 101 92 95 93
 96 99 102 96 99 97
D 71 21 6 1 0 86 0 0 0 0 0
 0 86 0 3 86 0
D 74 21 6 1 114 113 0 1 0 0 1
 108 111 112 108 111 109
D 77 21 6 1 0 106 0 0 0 0 0
 0 106 0 3 106 0
S 582 24 0 0 0 9 1 0 4658 5 0 A 0 0 0 0 0 0 0 0 0 0 0 0 35 0 0 0 0 0 0 0 0 26 0 0 0 0 0 0 dynamicalq
S 584 23 0 0 0 9 587 582 4675 4 0 A 0 0 0 0 0 0 0 0 0 0 0 0 0 0 0 0 0 0 0 0 0 0 0 582 0 0 0 0 dp
S 585 3 0 0 0 6 1 1 0 0 0 A 0 0 0 0 0 0 0 0 0 8 0 0 0 0 0 0 0 0 0 0 0 0 0 0 0 0 0 0 6
R 587 16 1 kinds dp
S 594 7 6 0 0 56 1 582 4709 10a00004 51 A 0 0 0 0 0 0 602 0 0 0 604 0 0 0 0 0 0 0 0 601 0 0 603 582 0 0 0 0 phiq
S 595 6 4 0 0 6 596 582 4714 40800006 0 A 0 0 0 0 0 0 0 0 0 0 0 0 645 0 0 0 0 0 0 0 0 0 0 582 0 0 0 0 z_b_0
S 596 6 4 0 0 6 597 582 4720 40800006 0 A 0 0 0 0 0 4 0 0 0 0 0 0 645 0 0 0 0 0 0 0 0 0 0 582 0 0 0 0 z_b_1
S 597 6 4 0 0 6 598 582 4726 40800006 0 A 0 0 0 0 0 8 0 0 0 0 0 0 645 0 0 0 0 0 0 0 0 0 0 582 0 0 0 0 z_b_2
S 598 6 4 0 0 6 599 582 4732 40800006 0 A 0 0 0 0 0 12 0 0 0 0 0 0 645 0 0 0 0 0 0 0 0 0 0 582 0 0 0 0 z_b_3
S 599 6 4 0 0 6 622 582 4738 40800006 0 A 0 0 0 0 0 16 0 0 0 0 0 0 645 0 0 0 0 0 0 0 0 0 0 582 0 0 0 0 z_b_4
S 600 3 0 0 0 6 0 1 0 0 0 A 0 0 0 0 0 0 0 0 0 42 0 0 0 0 0 0 0 0 0 0 0 0 0 0 0 0 0 0 6
S 601 8 4 0 0 59 626 582 4744 40822004 1020 A 0 0 0 0 0 0 0 0 0 0 0 0 645 0 0 0 0 0 0 0 0 0 0 582 0 0 0 0 phiq$sd
S 602 6 4 0 0 7 603 582 4752 40802001 1020 A 0 0 0 0 0 0 0 0 0 0 0 0 645 0 0 0 0 0 0 0 0 0 0 582 0 0 0 0 phiq$p
S 603 6 4 0 0 7 601 582 4759 40802000 1020 A 0 0 0 0 0 0 0 0 0 0 0 0 645 0 0 0 0 0 0 0 0 0 0 582 0 0 0 0 phiq$o
S 604 22 1 0 0 9 1 582 4766 40000000 1000 A 0 0 0 0 0 0 0 594 0 0 0 0 601 0 0 0 0 0 0 0 0 0 0 582 0 0 0 0 phiq$arrdsc
S 605 3 0 0 0 6 0 1 0 0 0 A 0 0 0 0 0 0 0 0 0 13 0 0 0 0 0 0 0 0 0 0 0 0 0 0 0 0 0 0 6
S 606 3 0 0 0 6 0 1 0 0 0 A 0 0 0 0 0 0 0 0 0 14 0 0 0 0 0 0 0 0 0 0 0 0 0 0 0 0 0 0 6
S 607 3 0 0 0 6 0 1 0 0 0 A 0 0 0 0 0 0 0 0 0 19 0 0 0 0 0 0 0 0 0 0 0 0 0 0 0 0 0 0 6
S 608 3 0 0 0 6 0 1 0 0 0 A 0 0 0 0 0 0 0 0 0 20 0 0 0 0 0 0 0 0 0 0 0 0 0 0 0 0 0 0 6
S 609 3 0 0 0 6 0 1 0 0 0 A 0 0 0 0 0 0 0 0 0 25 0 0 0 0 0 0 0 0 0 0 0 0 0 0 0 0 0 0 6
S 610 3 0 0 0 6 0 1 0 0 0 A 0 0 0 0 0 0 0 0 0 26 0 0 0 0 0 0 0 0 0 0 0 0 0 0 0 0 0 0 6
S 611 3 0 0 0 6 0 1 0 0 0 A 0 0 0 0 0 0 0 0 0 31 0 0 0 0 0 0 0 0 0 0 0 0 0 0 0 0 0 0 6
S 612 3 0 0 0 6 0 1 0 0 0 A 0 0 0 0 0 0 0 0 0 32 0 0 0 0 0 0 0 0 0 0 0 0 0 0 0 0 0 0 6
S 613 3 0 0 0 6 0 1 0 0 0 A 0 0 0 0 0 0 0 0 0 37 0 0 0 0 0 0 0 0 0 0 0 0 0 0 0 0 0 0 6
S 614 3 0 0 0 6 0 1 0 0 0 A 0 0 0 0 0 0 0 0 0 38 0 0 0 0 0 0 0 0 0 0 0 0 0 0 0 0 0 0 6
S 615 3 0 0 0 6 0 1 0 0 0 A 0 0 0 0 0 0 0 0 0 17 0 0 0 0 0 0 0 0 0 0 0 0 0 0 0 0 0 0 6
S 616 3 0 0 0 6 0 1 0 0 0 A 0 0 0 0 0 0 0 0 0 23 0 0 0 0 0 0 0 0 0 0 0 0 0 0 0 0 0 0 6
S 617 3 0 0 0 6 0 1 0 0 0 A 0 0 0 0 0 0 0 0 0 29 0 0 0 0 0 0 0 0 0 0 0 0 0 0 0 0 0 0 6
S 618 3 0 0 0 6 0 1 0 0 0 A 0 0 0 0 0 0 0 0 0 35 0 0 0 0 0 0 0 0 0 0 0 0 0 0 0 0 0 0 6
S 619 3 0 0 0 6 0 1 0 0 0 A 0 0 0 0 0 0 0 0 0 41 0 0 0 0 0 0 0 0 0 0 0 0 0 0 0 0 0 0 6
S 620 3 0 0 0 6 0 1 0 0 0 A 0 0 0 0 0 0 0 0 0 7 0 0 0 0 0 0 0 0 0 0 0 0 0 0 0 0 0 0 6
S 621 7 6 0 0 62 1 582 4778 10a00004 51 A 0 0 0 0 0 0 626 0 0 0 628 0 0 0 0 0 0 0 0 625 0 0 627 582 0 0 0 0 tau
S 622 6 4 0 0 6 623 582 4782 40800006 0 A 0 0 0 0 0 20 0 0 0 0 0 0 645 0 0 0 0 0 0 0 0 0 0 582 0 0 0 0 z_b_5
S 623 6 4 0 0 6 630 582 4788 40800006 0 A 0 0 0 0 0 24 0 0 0 0 0 0 645 0 0 0 0 0 0 0 0 0 0 582 0 0 0 0 z_b_6
S 624 3 0 0 0 6 0 1 0 0 0 A 0 0 0 0 0 0 0 0 0 24 0 0 0 0 0 0 0 0 0 0 0 0 0 0 0 0 0 0 6
S 625 8 4 0 0 65 635 582 4794 40822004 1020 A 0 0 0 0 0 0 0 0 0 0 0 0 645 0 0 0 0 0 0 0 0 0 0 582 0 0 0 0 tau$sd
S 626 6 4 0 0 7 627 582 4801 40802001 1020 A 0 0 0 0 0 0 0 0 0 0 0 0 645 0 0 0 0 0 0 0 0 0 0 582 0 0 0 0 tau$p
S 627 6 4 0 0 7 625 582 4807 40802000 1020 A 0 0 0 0 0 0 0 0 0 0 0 0 645 0 0 0 0 0 0 0 0 0 0 582 0 0 0 0 tau$o
S 628 22 1 0 0 9 1 582 4813 40000000 1000 A 0 0 0 0 0 0 0 621 0 0 0 0 625 0 0 0 0 0 0 0 0 0 0 582 0 0 0 0 tau$arrdsc
S 629 7 6 0 0 68 1 582 4824 10a00004 51 A 0 0 0 0 0 0 635 0 0 0 637 0 0 0 0 0 0 0 0 634 0 0 636 582 0 0 0 0 zeu
S 630 6 4 0 0 6 631 582 4828 40800006 0 A 0 0 0 0 0 28 0 0 0 0 0 0 645 0 0 0 0 0 0 0 0 0 0 582 0 0 0 0 z_b_7
S 631 6 4 0 0 6 632 582 4834 40800006 0 A 0 0 0 0 0 32 0 0 0 0 0 0 645 0 0 0 0 0 0 0 0 0 0 582 0 0 0 0 z_b_8
S 632 6 4 0 0 6 639 582 4840 40800006 0 A 0 0 0 0 0 36 0 0 0 0 0 0 645 0 0 0 0 0 0 0 0 0 0 582 0 0 0 0 z_b_9
S 633 3 0 0 0 6 0 1 0 0 0 A 0 0 0 0 0 0 0 0 0 30 0 0 0 0 0 0 0 0 0 0 0 0 0 0 0 0 0 0 6
S 634 8 4 0 0 71 642 582 4846 40822004 1020 A 0 0 0 0 0 0 0 0 0 0 0 0 645 0 0 0 0 0 0 0 0 0 0 582 0 0 0 0 zeu$sd
S 635 6 4 0 0 7 636 582 4853 40802001 1020 A 0 0 0 0 0 0 0 0 0 0 0 0 645 0 0 0 0 0 0 0 0 0 0 582 0 0 0 0 zeu$p
S 636 6 4 0 0 7 634 582 4859 40802000 1020 A 0 0 0 0 0 0 0 0 0 0 0 0 645 0 0 0 0 0 0 0 0 0 0 582 0 0 0 0 zeu$o
S 637 22 1 0 0 9 1 582 4865 40000000 1000 A 0 0 0 0 0 0 0 629 0 0 0 0 634 0 0 0 0 0 0 0 0 0 0 582 0 0 0 0 zeu$arrdsc
S 638 7 6 0 0 74 1 582 4876 10a00004 51 A 0 0 0 0 0 0 642 0 0 0 644 0 0 0 0 0 0 0 0 641 0 0 643 582 0 0 0 0 ityp
S 639 6 4 0 0 6 1 582 4881 40800006 0 A 0 0 0 0 0 40 0 0 0 0 0 0 645 0 0 0 0 0 0 0 0 0 0 582 0 0 0 0 z_b_10
S 640 3 0 0 0 6 0 1 0 0 0 A 0 0 0 0 0 0 0 0 0 18 0 0 0 0 0 0 0 0 0 0 0 0 0 0 0 0 0 0 6
S 641 8 4 0 0 77 595 582 4888 40822004 1020 A 0 0 0 0 0 0 0 0 0 0 0 0 645 0 0 0 0 0 0 0 0 0 0 582 0 0 0 0 ityp$sd
S 642 6 4 0 0 7 643 582 4896 40802001 1020 A 0 0 0 0 0 0 0 0 0 0 0 0 645 0 0 0 0 0 0 0 0 0 0 582 0 0 0 0 ityp$p
S 643 6 4 0 0 7 641 582 4903 40802000 1020 A 0 0 0 0 0 0 0 0 0 0 0 0 645 0 0 0 0 0 0 0 0 0 0 582 0 0 0 0 ityp$o
S 644 22 1 0 0 6 1 582 4910 40000000 1000 A 0 0 0 0 0 0 0 638 0 0 0 0 641 0 0 0 0 0 0 0 0 0 0 582 0 0 0 0 ityp$arrdsc
S 645 11 0 0 0 9 1 582 4922 40800000 801000 A 0 0 0 0 0 564 0 0 602 639 0 0 0 0 0 0 0 0 0 0 0 0 0 0 0 0 0 0 _dynamicalq$0
A 13 2 0 0 0 6 585 0 0 0 13 0 0 0 0 0 0 0 0 0
A 22 2 0 0 0 6 600 0 0 0 22 0 0 0 0 0 0 0 0 0
A 23 2 0 0 0 6 605 0 0 0 23 0 0 0 0 0 0 0 0 0
A 24 1 0 1 0 59 601 0 0 0 0 0 0 0 0 0 0 0 0 0
A 25 10 0 0 0 6 24 1 0 0 0 0 0 0 0 0 0 0 0 0
X 1 23
A 26 2 0 0 0 6 606 0 0 0 26 0 0 0 0 0 0 0 0 0
A 27 10 0 0 25 6 24 4 0 0 0 0 0 0 0 0 0 0 0 0
X 1 26
A 28 4 0 0 0 6 27 0 3 0 0 0 0 2 0 0 0 0 0 0
A 29 4 0 0 0 6 25 0 28 0 0 0 0 1 0 0 0 0 0 0
A 30 2 0 0 0 6 607 0 0 0 30 0 0 0 0 0 0 0 0 0
A 31 10 0 0 27 6 24 7 0 0 0 0 0 0 0 0 0 0 0 0
X 1 30
A 32 2 0 0 0 6 608 0 0 0 32 0 0 0 0 0 0 0 0 0
A 33 10 0 0 31 6 24 10 0 0 0 0 0 0 0 0 0 0 0 0
X 1 32
A 34 4 0 0 0 6 33 0 3 0 0 0 0 2 0 0 0 0 0 0
A 35 4 0 0 0 6 31 0 34 0 0 0 0 1 0 0 0 0 0 0
A 36 2 0 0 0 6 609 0 0 0 36 0 0 0 0 0 0 0 0 0
A 37 10 0 0 33 6 24 13 0 0 0 0 0 0 0 0 0 0 0 0
X 1 36
A 38 2 0 0 0 6 610 0 0 0 38 0 0 0 0 0 0 0 0 0
A 39 10 0 0 37 6 24 16 0 0 0 0 0 0 0 0 0 0 0 0
X 1 38
A 40 4 0 0 0 6 39 0 3 0 0 0 0 2 0 0 0 0 0 0
A 41 4 0 0 0 6 37 0 40 0 0 0 0 1 0 0 0 0 0 0
A 42 2 0 0 0 6 611 0 0 0 42 0 0 0 0 0 0 0 0 0
A 43 10 0 0 39 6 24 19 0 0 0 0 0 0 0 0 0 0 0 0
X 1 42
A 44 2 0 0 0 6 612 0 0 0 44 0 0 0 0 0 0 0 0 0
A 45 10 0 0 43 6 24 22 0 0 0 0 0 0 0 0 0 0 0 0
X 1 44
A 46 4 0 0 0 6 45 0 3 0 0 0 0 2 0 0 0 0 0 0
A 47 4 0 0 0 6 43 0 46 0 0 0 0 1 0 0 0 0 0 0
A 48 2 0 0 0 6 613 0 0 0 48 0 0 0 0 0 0 0 0 0
A 49 10 0 0 45 6 24 25 0 0 0 0 0 0 0 0 0 0 0 0
X 1 48
A 50 2 0 0 0 6 614 0 0 0 50 0 0 0 0 0 0 0 0 0
A 51 10 0 0 49 6 24 28 0 0 0 0 0 0 0 0 0 0 0 0
X 1 50
A 52 4 0 0 0 6 51 0 3 0 0 0 0 2 0 0 0 0 0 0
A 53 4 0 0 0 6 49 0 52 0 0 0 0 1 0 0 0 0 0 0
A 54 2 0 0 0 6 615 0 0 0 54 0 0 0 0 0 0 0 0 0
A 55 10 0 0 51 6 24 31 0 0 0 0 0 0 0 0 0 0 0 0
X 1 54
A 56 2 0 0 0 6 616 0 0 0 56 0 0 0 0 0 0 0 0 0
A 57 10 0 0 55 6 24 34 0 0 0 0 0 0 0 0 0 0 0 0
X 1 56
A 58 2 0 0 0 6 617 0 0 0 58 0 0 0 0 0 0 0 0 0
A 59 10 0 0 57 6 24 37 0 0 0 0 0 0 0 0 0 0 0 0
X 1 58
A 60 2 0 0 0 6 618 0 0 0 60 0 0 0 0 0 0 0 0 0
A 61 10 0 0 59 6 24 40 0 0 0 0 0 0 0 0 0 0 0 0
X 1 60
A 62 2 0 0 0 6 619 0 0 0 62 0 0 0 0 0 0 0 0 0
A 63 10 0 0 61 6 24 43 0 0 0 0 0 0 0 0 0 0 0 0
X 1 62
A 64 2 0 0 0 6 620 0 0 0 64 0 0 0 0 0 0 0 0 0
A 65 10 0 0 63 6 24 46 0 0 0 0 0 0 0 0 0 0 0 0
X 1 64
A 66 10 0 0 65 6 24 49 0 0 0 0 0 0 0 0 0 0 0 0
X 1 13
A 69 2 0 0 0 6 624 0 0 0 69 0 0 0 0 0 0 0 0 0
A 70 1 0 3 0 65 625 0 0 0 0 0 0 0 0 0 0 0 0 0
A 71 10 0 0 0 6 70 1 0 0 0 0 0 0 0 0 0 0 0 0
X 1 23
A 72 10 0 0 71 6 70 4 0 0 0 0 0 0 0 0 0 0 0 0
X 1 26
A 73 4 0 0 0 6 72 0 3 0 0 0 0 2 0 0 0 0 0 0
A 74 4 0 0 0 6 71 0 73 0 0 0 0 1 0 0 0 0 0 0
A 75 10 0 0 72 6 70 7 0 0 0 0 0 0 0 0 0 0 0 0
X 1 30
A 76 10 0 0 75 6 70 10 0 0 0 0 0 0 0 0 0 0 0 0
X 1 32
A 77 4 0 0 0 6 76 0 3 0 0 0 0 2 0 0 0 0 0 0
A 78 4 0 0 0 6 75 0 77 0 0 0 0 1 0 0 0 0 0 0
A 79 10 0 0 76 6 70 31 0 0 0 0 0 0 0 0 0 0 0 0
X 1 54
A 80 10 0 0 79 6 70 34 0 0 0 0 0 0 0 0 0 0 0 0
X 1 56
A 81 10 0 0 80 6 70 46 0 0 0 0 0 0 0 0 0 0 0 0
X 1 64
A 82 10 0 0 81 6 70 49 0 0 0 0 0 0 0 0 0 0 0 0
X 1 13
A 86 2 0 0 0 6 633 0 0 0 86 0 0 0 0 0 0 0 0 0
A 87 1 0 5 0 71 634 0 0 0 0 0 0 0 0 0 0 0 0 0
A 88 10 0 0 0 6 87 1 0 0 0 0 0 0 0 0 0 0 0 0
X 1 23
A 89 10 0 0 88 6 87 4 0 0 0 0 0 0 0 0 0 0 0 0
X 1 26
A 90 4 0 0 0 6 89 0 3 0 0 0 0 2 0 0 0 0 0 0
A 91 4 0 0 0 6 88 0 90 0 0 0 0 1 0 0 0 0 0 0
A 92 10 0 0 89 6 87 7 0 0 0 0 0 0 0 0 0 0 0 0
X 1 30
A 93 10 0 0 92 6 87 10 0 0 0 0 0 0 0 0 0 0 0 0
X 1 32
A 94 4 0 0 0 6 93 0 3 0 0 0 0 2 0 0 0 0 0 0
A 95 4 0 0 0 6 92 0 94 0 0 0 0 1 0 0 0 0 0 0
A 96 10 0 0 93 6 87 13 0 0 0 0 0 0 0 0 0 0 0 0
X 1 36
A 97 10 0 0 96 6 87 16 0 0 0 0 0 0 0 0 0 0 0 0
X 1 38
A 98 4 0 0 15 6 97 0 3 0 0 0 0 2 0 0 0 0 0 0
A 99 4 0 0 0 6 96 0 98 0 0 0 0 1 0 0 0 0 0 0
A 100 10 0 0 97 6 87 31 0 0 0 0 0 0 0 0 0 0 0 0
X 1 54
A 101 10 0 0 100 6 87 34 0 0 0 0 0 0 0 0 0 0 0 0
X 1 56
A 102 10 0 0 101 6 87 37 0 0 0 0 0 0 0 0 0 0 0 0
X 1 58
A 103 10 0 0 102 6 87 46 0 0 0 0 0 0 0 0 0 0 0 0
X 1 64
A 104 10 0 0 103 6 87 49 0 0 0 0 0 0 0 0 0 0 0 0
X 1 13
A 106 2 0 0 0 6 640 0 0 0 106 0 0 0 0 0 0 0 0 0
A 107 1 0 7 47 77 641 0 0 0 0 0 0 0 0 0 0 0 0 0
A 108 10 0 0 0 6 107 1 0 0 0 0 0 0 0 0 0 0 0 0
X 1 23
A 109 10 0 0 108 6 107 4 0 0 0 0 0 0 0 0 0 0 0 0
X 1 26
A 110 4 0 0 0 6 109 0 3 0 0 0 0 2 0 0 0 0 0 0
A 111 4 0 0 0 6 108 0 110 0 0 0 0 1 0 0 0 0 0 0
A 112 10 0 0 109 6 107 31 0 0 0 0 0 0 0 0 0 0 0 0
X 1 54
A 113 10 0 0 112 6 107 46 0 0 0 0 0 0 0 0 0 0 0 0
X 1 64
A 114 10 0 0 113 6 107 49 0 0 0 0 0 0 0 0 0 0 0 0
X 1 13
Z
Z
