V26 dynamical
10 dynmat.F90 S582 0
04/24/2012  16:05:16
use kinds private
use kinds private
enduse
D 56 21 12 4 57 56 0 1 0 0 1
 24 28 48 24 28 26
 30 34 50 30 34 32
 36 40 52 36 40 38
 42 46 54 42 46 44
D 59 21 6 1 0 21 0 0 0 0 0
 0 21 0 3 21 0
D 62 21 9 2 73 72 0 1 0 0 1
 62 65 70 62 65 63
 66 69 71 66 69 67
D 65 21 6 1 0 60 0 0 0 0 0
 0 60 0 3 60 0
D 68 21 9 3 95 94 0 1 0 0 1
 79 82 91 79 82 80
 83 86 92 83 86 84
 87 90 93 87 90 88
D 71 21 6 1 0 77 0 0 0 0 0
 0 77 0 3 77 0
D 74 21 9 4 122 121 0 1 0 0 1
 101 104 117 101 104 102
 105 108 118 105 108 106
 109 112 119 109 112 110
 113 116 120 113 116 114
D 77 21 6 1 0 21 0 0 0 0 0
 0 21 0 3 21 0
D 80 21 6 1 132 131 0 1 0 0 1
 126 129 130 126 129 127
D 83 21 6 1 0 124 0 0 0 0 0
 0 124 0 3 124 0
S 582 24 0 0 0 9 1 0 4658 5 0 A 0 0 0 0 0 0 0 0 0 0 0 0 19 0 0 0 0 0 0 0 0 10 0 0 0 0 0 0 dynamical
S 584 23 0 0 0 9 587 582 4674 4 0 A 0 0 0 0 0 0 0 0 0 0 0 0 0 0 0 0 0 0 0 0 0 0 0 582 0 0 0 0 dp
S 585 3 0 0 0 6 1 1 0 0 0 A 0 0 0 0 0 0 0 0 0 8 0 0 0 0 0 0 0 0 0 0 0 0 0 0 0 0 0 0 6
R 587 16 1 kinds dp
S 594 7 6 0 0 56 1 582 4708 10a00004 51 A 0 0 0 0 0 0 601 0 0 0 603 0 0 0 0 0 0 0 0 600 0 0 602 582 0 0 0 0 dyn
S 595 6 4 0 0 6 596 582 4712 40800006 0 A 0 0 0 0 0 0 0 0 0 0 0 0 650 0 0 0 0 0 0 0 0 0 0 582 0 0 0 0 z_b_0
S 596 6 4 0 0 6 597 582 4718 40800006 0 A 0 0 0 0 0 4 0 0 0 0 0 0 650 0 0 0 0 0 0 0 0 0 0 582 0 0 0 0 z_b_1
S 597 6 4 0 0 6 598 582 4724 40800006 0 A 0 0 0 0 0 8 0 0 0 0 0 0 650 0 0 0 0 0 0 0 0 0 0 582 0 0 0 0 z_b_2
S 598 6 4 0 0 6 618 582 4730 40800006 0 A 0 0 0 0 0 12 0 0 0 0 0 0 650 0 0 0 0 0 0 0 0 0 0 582 0 0 0 0 z_b_3
S 599 3 0 0 0 6 0 1 0 0 0 A 0 0 0 0 0 0 0 0 0 36 0 0 0 0 0 0 0 0 0 0 0 0 0 0 0 0 0 0 6
S 600 8 4 0 0 59 622 582 4736 40822004 1020 A 0 0 0 0 0 0 0 0 0 0 0 0 650 0 0 0 0 0 0 0 0 0 0 582 0 0 0 0 dyn$sd
S 601 6 4 0 0 7 602 582 4743 40802001 1020 A 0 0 0 0 0 0 0 0 0 0 0 0 650 0 0 0 0 0 0 0 0 0 0 582 0 0 0 0 dyn$p
S 602 6 4 0 0 7 600 582 4749 40802000 1020 A 0 0 0 0 0 0 0 0 0 0 0 0 650 0 0 0 0 0 0 0 0 0 0 582 0 0 0 0 dyn$o
S 603 22 1 0 0 9 1 582 4755 40000000 1000 A 0 0 0 0 0 0 0 594 0 0 0 0 600 0 0 0 0 0 0 0 0 0 0 582 0 0 0 0 dyn$arrdsc
S 604 3 0 0 0 6 0 1 0 0 0 A 0 0 0 0 0 0 0 0 0 13 0 0 0 0 0 0 0 0 0 0 0 0 0 0 0 0 0 0 6
S 605 3 0 0 0 6 0 1 0 0 0 A 0 0 0 0 0 0 0 0 0 14 0 0 0 0 0 0 0 0 0 0 0 0 0 0 0 0 0 0 6
S 606 3 0 0 0 6 0 1 0 0 0 A 0 0 0 0 0 0 0 0 0 19 0 0 0 0 0 0 0 0 0 0 0 0 0 0 0 0 0 0 6
S 607 3 0 0 0 6 0 1 0 0 0 A 0 0 0 0 0 0 0 0 0 20 0 0 0 0 0 0 0 0 0 0 0 0 0 0 0 0 0 0 6
S 608 3 0 0 0 6 0 1 0 0 0 A 0 0 0 0 0 0 0 0 0 25 0 0 0 0 0 0 0 0 0 0 0 0 0 0 0 0 0 0 6
S 609 3 0 0 0 6 0 1 0 0 0 A 0 0 0 0 0 0 0 0 0 26 0 0 0 0 0 0 0 0 0 0 0 0 0 0 0 0 0 0 6
S 610 3 0 0 0 6 0 1 0 0 0 A 0 0 0 0 0 0 0 0 0 31 0 0 0 0 0 0 0 0 0 0 0 0 0 0 0 0 0 0 6
S 611 3 0 0 0 6 0 1 0 0 0 A 0 0 0 0 0 0 0 0 0 32 0 0 0 0 0 0 0 0 0 0 0 0 0 0 0 0 0 0 6
S 612 3 0 0 0 6 0 1 0 0 0 A 0 0 0 0 0 0 0 0 0 17 0 0 0 0 0 0 0 0 0 0 0 0 0 0 0 0 0 0 6
S 613 3 0 0 0 6 0 1 0 0 0 A 0 0 0 0 0 0 0 0 0 23 0 0 0 0 0 0 0 0 0 0 0 0 0 0 0 0 0 0 6
S 614 3 0 0 0 6 0 1 0 0 0 A 0 0 0 0 0 0 0 0 0 29 0 0 0 0 0 0 0 0 0 0 0 0 0 0 0 0 0 0 6
S 615 3 0 0 0 6 0 1 0 0 0 A 0 0 0 0 0 0 0 0 0 35 0 0 0 0 0 0 0 0 0 0 0 0 0 0 0 0 0 0 6
S 616 3 0 0 0 6 0 1 0 0 0 A 0 0 0 0 0 0 0 0 0 7 0 0 0 0 0 0 0 0 0 0 0 0 0 0 0 0 0 0 6
S 617 7 6 0 0 62 1 582 4766 10a00004 51 A 0 0 0 0 0 0 622 0 0 0 624 0 0 0 0 0 0 0 0 621 0 0 623 582 0 0 0 0 tau
S 618 6 4 0 0 6 619 582 4770 40800006 0 A 0 0 0 0 0 16 0 0 0 0 0 0 650 0 0 0 0 0 0 0 0 0 0 582 0 0 0 0 z_b_4
S 619 6 4 0 0 6 626 582 4776 40800006 0 A 0 0 0 0 0 20 0 0 0 0 0 0 650 0 0 0 0 0 0 0 0 0 0 582 0 0 0 0 z_b_5
S 620 3 0 0 0 6 0 1 0 0 0 A 0 0 0 0 0 0 0 0 0 24 0 0 0 0 0 0 0 0 0 0 0 0 0 0 0 0 0 0 6
S 621 8 4 0 0 65 631 582 4782 40822004 1020 A 0 0 0 0 0 0 0 0 0 0 0 0 650 0 0 0 0 0 0 0 0 0 0 582 0 0 0 0 tau$sd
S 622 6 4 0 0 7 623 582 4789 40802001 1020 A 0 0 0 0 0 0 0 0 0 0 0 0 650 0 0 0 0 0 0 0 0 0 0 582 0 0 0 0 tau$p
S 623 6 4 0 0 7 621 582 4795 40802000 1020 A 0 0 0 0 0 0 0 0 0 0 0 0 650 0 0 0 0 0 0 0 0 0 0 582 0 0 0 0 tau$o
S 624 22 1 0 0 9 1 582 4801 40000000 1000 A 0 0 0 0 0 0 0 617 0 0 0 0 621 0 0 0 0 0 0 0 0 0 0 582 0 0 0 0 tau$arrdsc
S 625 7 6 0 0 68 1 582 4812 10a00004 51 A 0 0 0 0 0 0 631 0 0 0 633 0 0 0 0 0 0 0 0 630 0 0 632 582 0 0 0 0 zstar
S 626 6 4 0 0 6 627 582 4818 40800006 0 A 0 0 0 0 0 24 0 0 0 0 0 0 650 0 0 0 0 0 0 0 0 0 0 582 0 0 0 0 z_b_6
S 627 6 4 0 0 6 628 582 4824 40800006 0 A 0 0 0 0 0 28 0 0 0 0 0 0 650 0 0 0 0 0 0 0 0 0 0 582 0 0 0 0 z_b_7
S 628 6 4 0 0 6 635 582 4830 40800006 0 A 0 0 0 0 0 32 0 0 0 0 0 0 650 0 0 0 0 0 0 0 0 0 0 582 0 0 0 0 z_b_8
S 629 3 0 0 0 6 0 1 0 0 0 A 0 0 0 0 0 0 0 0 0 30 0 0 0 0 0 0 0 0 0 0 0 0 0 0 0 0 0 0 6
S 630 8 4 0 0 71 640 582 4836 40822004 1020 A 0 0 0 0 0 0 0 0 0 0 0 0 650 0 0 0 0 0 0 0 0 0 0 582 0 0 0 0 zstar$sd
S 631 6 4 0 0 7 632 582 4845 40802001 1020 A 0 0 0 0 0 0 0 0 0 0 0 0 650 0 0 0 0 0 0 0 0 0 0 582 0 0 0 0 zstar$p
S 632 6 4 0 0 7 630 582 4853 40802000 1020 A 0 0 0 0 0 0 0 0 0 0 0 0 650 0 0 0 0 0 0 0 0 0 0 582 0 0 0 0 zstar$o
S 633 22 1 0 0 9 1 582 4861 40000000 1000 A 0 0 0 0 0 0 0 625 0 0 0 0 630 0 0 0 0 0 0 0 0 0 0 582 0 0 0 0 zstar$arrdsc
S 634 7 6 0 0 74 1 582 4874 10a00004 51 A 0 0 0 0 0 0 640 0 0 0 642 0 0 0 0 0 0 0 0 639 0 0 641 582 0 0 0 0 dchi_dtau
S 635 6 4 0 0 6 636 582 4884 40800006 0 A 0 0 0 0 0 36 0 0 0 0 0 0 650 0 0 0 0 0 0 0 0 0 0 582 0 0 0 0 z_b_9
S 636 6 4 0 0 6 637 582 4890 40800006 0 A 0 0 0 0 0 40 0 0 0 0 0 0 650 0 0 0 0 0 0 0 0 0 0 582 0 0 0 0 z_b_10
S 637 6 4 0 0 6 638 582 4897 40800006 0 A 0 0 0 0 0 44 0 0 0 0 0 0 650 0 0 0 0 0 0 0 0 0 0 582 0 0 0 0 z_b_11
S 638 6 4 0 0 6 644 582 4904 40800006 0 A 0 0 0 0 0 48 0 0 0 0 0 0 650 0 0 0 0 0 0 0 0 0 0 582 0 0 0 0 z_b_12
S 639 8 4 0 0 77 647 582 4911 40822004 1020 A 0 0 0 0 0 0 0 0 0 0 0 0 650 0 0 0 0 0 0 0 0 0 0 582 0 0 0 0 dchi_dtau$sd
S 640 6 4 0 0 7 641 582 4924 40802001 1020 A 0 0 0 0 0 0 0 0 0 0 0 0 650 0 0 0 0 0 0 0 0 0 0 582 0 0 0 0 dchi_dtau$p
S 641 6 4 0 0 7 639 582 4936 40802000 1020 A 0 0 0 0 0 0 0 0 0 0 0 0 650 0 0 0 0 0 0 0 0 0 0 582 0 0 0 0 dchi_dtau$o
S 642 22 1 0 0 9 1 582 4948 40000000 1000 A 0 0 0 0 0 0 0 634 0 0 0 0 639 0 0 0 0 0 0 0 0 0 0 582 0 0 0 0 dchi_dtau$arrdsc
S 643 7 6 0 0 80 1 582 4965 10a00004 51 A 0 0 0 0 0 0 647 0 0 0 649 0 0 0 0 0 0 0 0 646 0 0 648 582 0 0 0 0 ityp
S 644 6 4 0 0 6 1 582 4970 40800006 0 A 0 0 0 0 0 52 0 0 0 0 0 0 650 0 0 0 0 0 0 0 0 0 0 582 0 0 0 0 z_b_13
S 645 3 0 0 0 6 0 1 0 0 0 A 0 0 0 0 0 0 0 0 0 18 0 0 0 0 0 0 0 0 0 0 0 0 0 0 0 0 0 0 6
S 646 8 4 0 0 83 595 582 4977 40822004 1020 A 0 0 0 0 0 0 0 0 0 0 0 0 650 0 0 0 0 0 0 0 0 0 0 582 0 0 0 0 ityp$sd
S 647 6 4 0 0 7 648 582 4985 40802001 1020 A 0 0 0 0 0 0 0 0 0 0 0 0 650 0 0 0 0 0 0 0 0 0 0 582 0 0 0 0 ityp$p
S 648 6 4 0 0 7 646 582 4992 40802000 1020 A 0 0 0 0 0 0 0 0 0 0 0 0 650 0 0 0 0 0 0 0 0 0 0 582 0 0 0 0 ityp$o
S 649 22 1 0 0 6 1 582 4999 40000000 1000 A 0 0 0 0 0 0 0 643 0 0 0 0 646 0 0 0 0 0 0 0 0 0 0 582 0 0 0 0 ityp$arrdsc
S 650 11 0 0 0 9 1 582 5011 40800000 801000 A 0 0 0 0 0 712 0 0 601 644 0 0 0 0 0 0 0 0 0 0 0 0 0 0 0 0 0 0 _dynamical$0
A 13 2 0 0 0 6 585 0 0 0 13 0 0 0 0 0 0 0 0 0
A 21 2 0 0 0 6 599 0 0 0 21 0 0 0 0 0 0 0 0 0
A 22 2 0 0 0 6 604 0 0 0 22 0 0 0 0 0 0 0 0 0
A 23 1 0 1 0 59 600 0 0 0 0 0 0 0 0 0 0 0 0 0
A 24 10 0 0 0 6 23 1 0 0 0 0 0 0 0 0 0 0 0 0
X 1 22
A 25 2 0 0 0 6 605 0 0 0 25 0 0 0 0 0 0 0 0 0
A 26 10 0 0 24 6 23 4 0 0 0 0 0 0 0 0 0 0 0 0
X 1 25
A 27 4 0 0 0 6 26 0 3 0 0 0 0 2 0 0 0 0 0 0
A 28 4 0 0 0 6 24 0 27 0 0 0 0 1 0 0 0 0 0 0
A 29 2 0 0 0 6 606 0 0 0 29 0 0 0 0 0 0 0 0 0
A 30 10 0 0 26 6 23 7 0 0 0 0 0 0 0 0 0 0 0 0
X 1 29
A 31 2 0 0 0 6 607 0 0 0 31 0 0 0 0 0 0 0 0 0
A 32 10 0 0 30 6 23 10 0 0 0 0 0 0 0 0 0 0 0 0
X 1 31
A 33 4 0 0 0 6 32 0 3 0 0 0 0 2 0 0 0 0 0 0
A 34 4 0 0 0 6 30 0 33 0 0 0 0 1 0 0 0 0 0 0
A 35 2 0 0 0 6 608 0 0 0 35 0 0 0 0 0 0 0 0 0
A 36 10 0 0 32 6 23 13 0 0 0 0 0 0 0 0 0 0 0 0
X 1 35
A 37 2 0 0 0 6 609 0 0 0 37 0 0 0 0 0 0 0 0 0
A 38 10 0 0 36 6 23 16 0 0 0 0 0 0 0 0 0 0 0 0
X 1 37
A 39 4 0 0 0 6 38 0 3 0 0 0 0 2 0 0 0 0 0 0
A 40 4 0 0 0 6 36 0 39 0 0 0 0 1 0 0 0 0 0 0
A 41 2 0 0 0 6 610 0 0 0 41 0 0 0 0 0 0 0 0 0
A 42 10 0 0 38 6 23 19 0 0 0 0 0 0 0 0 0 0 0 0
X 1 41
A 43 2 0 0 0 6 611 0 0 0 43 0 0 0 0 0 0 0 0 0
A 44 10 0 0 42 6 23 22 0 0 0 0 0 0 0 0 0 0 0 0
X 1 43
A 45 4 0 0 0 6 44 0 3 0 0 0 0 2 0 0 0 0 0 0
A 46 4 0 0 0 6 42 0 45 0 0 0 0 1 0 0 0 0 0 0
A 47 2 0 0 0 6 612 0 0 0 47 0 0 0 0 0 0 0 0 0
A 48 10 0 0 44 6 23 25 0 0 0 0 0 0 0 0 0 0 0 0
X 1 47
A 49 2 0 0 0 6 613 0 0 0 49 0 0 0 0 0 0 0 0 0
A 50 10 0 0 48 6 23 28 0 0 0 0 0 0 0 0 0 0 0 0
X 1 49
A 51 2 0 0 0 6 614 0 0 0 51 0 0 0 0 0 0 0 0 0
A 52 10 0 0 50 6 23 31 0 0 0 0 0 0 0 0 0 0 0 0
X 1 51
A 53 2 0 0 0 6 615 0 0 0 53 0 0 0 0 0 0 0 0 0
A 54 10 0 0 52 6 23 34 0 0 0 0 0 0 0 0 0 0 0 0
X 1 53
A 55 2 0 0 0 6 616 0 0 0 55 0 0 0 0 0 0 0 0 0
A 56 10 0 0 54 6 23 37 0 0 0 0 0 0 0 0 0 0 0 0
X 1 55
A 57 10 0 0 56 6 23 40 0 0 0 0 0 0 0 0 0 0 0 0
X 1 13
A 60 2 0 0 0 6 620 0 0 0 60 0 0 0 0 0 0 0 0 0
A 61 1 0 3 0 65 621 0 0 0 0 0 0 0 0 0 0 0 0 0
A 62 10 0 0 61 6 61 1 0 0 0 0 0 0 0 0 0 0 0 0
X 1 22
A 63 10 0 0 62 6 61 4 0 0 0 0 0 0 0 0 0 0 0 0
X 1 25
A 64 4 0 0 0 6 63 0 3 0 0 0 0 2 0 0 0 0 0 0
A 65 4 0 0 0 6 62 0 64 0 0 0 0 1 0 0 0 0 0 0
A 66 10 0 0 63 6 61 7 0 0 0 0 0 0 0 0 0 0 0 0
X 1 29
A 67 10 0 0 66 6 61 10 0 0 0 0 0 0 0 0 0 0 0 0
X 1 31
A 68 4 0 0 0 6 67 0 3 0 0 0 0 2 0 0 0 0 0 0
A 69 4 0 0 0 6 66 0 68 0 0 0 0 1 0 0 0 0 0 0
A 70 10 0 0 67 6 61 25 0 0 0 0 0 0 0 0 0 0 0 0
X 1 47
A 71 10 0 0 70 6 61 28 0 0 0 0 0 0 0 0 0 0 0 0
X 1 49
A 72 10 0 0 71 6 61 37 0 0 0 0 0 0 0 0 0 0 0 0
X 1 55
A 73 10 0 0 72 6 61 40 0 0 0 0 0 0 0 0 0 0 0 0
X 1 13
A 77 2 0 0 0 6 629 0 0 0 77 0 0 0 0 0 0 0 0 0
A 78 1 0 5 0 71 630 0 0 0 0 0 0 0 0 0 0 0 0 0
A 79 10 0 0 0 6 78 1 0 0 0 0 0 0 0 0 0 0 0 0
X 1 22
A 80 10 0 0 79 6 78 4 0 0 0 0 0 0 0 0 0 0 0 0
X 1 25
A 81 4 0 0 2 6 80 0 3 0 0 0 0 2 0 0 0 0 0 0
A 82 4 0 0 57 6 79 0 81 0 0 0 0 1 0 0 0 0 0 0
A 83 10 0 0 80 6 78 7 0 0 0 0 0 0 0 0 0 0 0 0
X 1 29
A 84 10 0 0 83 6 78 10 0 0 0 0 0 0 0 0 0 0 0 0
X 1 31
A 85 4 0 0 0 6 84 0 3 0 0 0 0 2 0 0 0 0 0 0
A 86 4 0 0 0 6 83 0 85 0 0 0 0 1 0 0 0 0 0 0
A 87 10 0 0 84 6 78 13 0 0 0 0 0 0 0 0 0 0 0 0
X 1 35
A 88 10 0 0 87 6 78 16 0 0 0 0 0 0 0 0 0 0 0 0
X 1 37
A 89 4 0 0 0 6 88 0 3 0 0 0 0 2 0 0 0 0 0 0
A 90 4 0 0 0 6 87 0 89 0 0 0 0 1 0 0 0 0 0 0
A 91 10 0 0 88 6 78 25 0 0 0 0 0 0 0 0 0 0 0 0
X 1 47
A 92 10 0 0 91 6 78 28 0 0 0 0 0 0 0 0 0 0 0 0
X 1 49
A 93 10 0 0 92 6 78 31 0 0 0 0 0 0 0 0 0 0 0 0
X 1 51
A 94 10 0 0 93 6 78 37 0 0 0 0 0 0 0 0 0 0 0 0
X 1 55
A 95 10 0 0 94 6 78 40 0 0 0 0 0 0 0 0 0 0 0 0
X 1 13
A 100 1 0 1 0 77 639 0 0 0 0 0 0 0 0 0 0 0 0 0
A 101 10 0 0 0 6 100 1 0 0 0 0 0 0 0 0 0 0 0 0
X 1 22
A 102 10 0 0 101 6 100 4 0 0 0 0 0 0 0 0 0 0 0 0
X 1 25
A 103 4 0 0 0 6 102 0 3 0 0 0 0 2 0 0 0 0 0 0
A 104 4 0 0 0 6 101 0 103 0 0 0 0 1 0 0 0 0 0 0
A 105 10 0 0 102 6 100 7 0 0 0 0 0 0 0 0 0 0 0 0
X 1 29
A 106 10 0 0 105 6 100 10 0 0 0 0 0 0 0 0 0 0 0 0
X 1 31
A 107 4 0 0 0 6 106 0 3 0 0 0 0 2 0 0 0 0 0 0
A 108 4 0 0 0 6 105 0 107 0 0 0 0 1 0 0 0 0 0 0
A 109 10 0 0 106 6 100 13 0 0 0 0 0 0 0 0 0 0 0 0
X 1 35
A 110 10 0 0 109 6 100 16 0 0 0 0 0 0 0 0 0 0 0 0
X 1 37
A 111 4 0 0 21 6 110 0 3 0 0 0 0 2 0 0 0 0 0 0
A 112 4 0 0 0 6 109 0 111 0 0 0 0 1 0 0 0 0 0 0
A 113 10 0 0 110 6 100 19 0 0 0 0 0 0 0 0 0 0 0 0
X 1 41
A 114 10 0 0 113 6 100 22 0 0 0 0 0 0 0 0 0 0 0 0
X 1 43
A 115 4 0 0 0 6 114 0 3 0 0 0 0 2 0 0 0 0 0 0
A 116 4 0 0 115 6 113 0 115 0 0 0 0 1 0 0 0 0 0 0
A 117 10 0 0 114 6 100 25 0 0 0 0 0 0 0 0 0 0 0 0
X 1 47
A 118 10 0 0 117 6 100 28 0 0 0 0 0 0 0 0 0 0 0 0
X 1 49
A 119 10 0 0 118 6 100 31 0 0 0 0 0 0 0 0 0 0 0 0
X 1 51
A 120 10 0 0 119 6 100 34 0 0 0 0 0 0 0 0 0 0 0 0
X 1 53
A 121 10 0 0 120 6 100 37 0 0 0 0 0 0 0 0 0 0 0 0
X 1 55
A 122 10 0 0 121 6 100 40 0 0 0 0 0 0 0 0 0 0 0 0
X 1 13
A 124 2 0 0 0 6 645 0 0 0 124 0 0 0 0 0 0 0 0 0
A 125 1 0 7 0 83 646 0 0 0 0 0 0 0 0 0 0 0 0 0
A 126 10 0 0 0 6 125 1 0 0 0 0 0 0 0 0 0 0 0 0
X 1 22
A 127 10 0 0 126 6 125 4 0 0 0 0 0 0 0 0 0 0 0 0
X 1 25
A 128 4 0 0 55 6 127 0 3 0 0 0 0 2 0 0 0 0 0 0
A 129 4 0 0 0 6 126 0 128 0 0 0 0 1 0 0 0 0 0 0
A 130 10 0 0 127 6 125 25 0 0 0 0 0 0 0 0 0 0 0 0
X 1 47
A 131 10 0 0 130 6 125 37 0 0 0 0 0 0 0 0 0 0 0 0
X 1 55
A 132 10 0 0 131 6 125 40 0 0 0 0 0 0 0 0 0 0 0 0
X 1 13
Z
Z
