V26 dynmat
9 phcom.F90 S582 0
04/24/2012  16:05:16
use kinds private
use kinds private
enduse
D 56 21 12 2 39 38 0 1 0 0 1
 22 26 34 22 26 24
 28 32 36 28 32 30
D 59 21 6 1 0 19 0 0 0 0 0
 0 19 0 3 19 0
D 62 21 12 2 54 53 0 1 0 0 1
 43 46 51 43 46 44
 47 50 52 47 50 48
D 65 21 6 1 0 19 0 0 0 0 0
 0 19 0 3 19 0
D 68 21 9 1 64 63 0 1 0 0 1
 58 61 62 58 61 59
D 71 21 6 1 0 56 0 0 0 0 0
 0 56 0 3 56 0
S 582 24 0 0 0 9 1 0 4658 5 0 A 0 0 0 0 0 0 0 0 0 0 0 0 71 0 0 0 0 0 0 0 0 55 0 0 0 0 0 0 dynmat
S 584 23 0 0 0 9 587 582 4671 4 0 A 0 0 0 0 0 0 0 0 0 0 0 0 0 0 0 0 0 0 0 0 0 0 0 582 0 0 0 0 dp
S 585 3 0 0 0 6 1 1 0 0 0 A 0 0 0 0 0 0 0 0 0 8 0 0 0 0 0 0 0 0 0 0 0 0 0 0 0 0 0 0 6
R 587 16 1 kinds dp
S 594 7 6 0 0 56 1 582 4705 10a00004 51 A 0 0 0 0 0 0 599 0 0 0 601 0 0 0 0 0 0 0 0 598 0 0 600 582 0 0 0 0 dyn00
S 595 6 4 0 0 6 596 582 4711 40800006 0 A 0 0 0 0 0 0 0 0 0 0 0 0 623 0 0 0 0 0 0 0 0 0 0 582 0 0 0 0 z_b_0
S 596 6 4 0 0 6 610 582 4717 40800006 0 A 0 0 0 0 0 4 0 0 0 0 0 0 623 0 0 0 0 0 0 0 0 0 0 582 0 0 0 0 z_b_1
S 597 3 0 0 0 6 0 1 0 0 0 A 0 0 0 0 0 0 0 0 0 24 0 0 0 0 0 0 0 0 0 0 0 0 0 0 0 0 0 0 6
S 598 8 4 0 0 59 613 582 4723 40822064 1020 A 0 0 0 0 0 0 0 0 0 0 0 0 623 0 0 0 0 0 0 0 0 0 0 582 0 0 0 0 dyn00$sd
S 599 6 4 0 0 7 600 582 4732 40802061 1020 A 0 0 0 0 0 96 0 0 0 0 0 0 623 0 0 0 0 0 0 0 0 0 0 582 0 0 0 0 dyn00$p
S 600 6 4 0 0 7 598 582 4740 40802060 1020 A 0 0 0 0 0 104 0 0 0 0 0 0 623 0 0 0 0 0 0 0 0 0 0 582 0 0 0 0 dyn00$o
S 601 22 1 0 0 9 1 582 4748 40000000 1000 A 0 0 0 0 0 0 0 594 0 0 0 0 598 0 0 0 0 0 0 0 0 0 0 582 0 0 0 0 dyn00$arrdsc
S 602 3 0 0 0 6 0 1 0 0 0 A 0 0 0 0 0 0 0 0 0 13 0 0 0 0 0 0 0 0 0 0 0 0 0 0 0 0 0 0 6
S 603 3 0 0 0 6 0 1 0 0 0 A 0 0 0 0 0 0 0 0 0 14 0 0 0 0 0 0 0 0 0 0 0 0 0 0 0 0 0 0 6
S 604 3 0 0 0 6 0 1 0 0 0 A 0 0 0 0 0 0 0 0 0 19 0 0 0 0 0 0 0 0 0 0 0 0 0 0 0 0 0 0 6
S 605 3 0 0 0 6 0 1 0 0 0 A 0 0 0 0 0 0 0 0 0 20 0 0 0 0 0 0 0 0 0 0 0 0 0 0 0 0 0 0 6
S 606 3 0 0 0 6 0 1 0 0 0 A 0 0 0 0 0 0 0 0 0 17 0 0 0 0 0 0 0 0 0 0 0 0 0 0 0 0 0 0 6
S 607 3 0 0 0 6 0 1 0 0 0 A 0 0 0 0 0 0 0 0 0 23 0 0 0 0 0 0 0 0 0 0 0 0 0 0 0 0 0 0 6
S 608 3 0 0 0 6 0 1 0 0 0 A 0 0 0 0 0 0 0 0 0 7 0 0 0 0 0 0 0 0 0 0 0 0 0 0 0 0 0 0 6
S 609 7 6 0 0 62 1 582 4761 10a00004 51 A 0 0 0 0 0 0 613 0 0 0 615 0 0 0 0 0 0 0 0 612 0 0 614 582 0 0 0 0 dyn
S 610 6 4 0 0 6 611 582 4765 40800006 0 A 0 0 0 0 0 8 0 0 0 0 0 0 623 0 0 0 0 0 0 0 0 0 0 582 0 0 0 0 z_b_2
S 611 6 4 0 0 6 617 582 4771 40800006 0 A 0 0 0 0 0 12 0 0 0 0 0 0 623 0 0 0 0 0 0 0 0 0 0 582 0 0 0 0 z_b_3
S 612 8 4 0 0 65 620 582 4777 40822064 1020 A 0 0 0 0 0 112 0 0 0 0 0 0 623 0 0 0 0 0 0 0 0 0 0 582 0 0 0 0 dyn$sd
S 613 6 4 0 0 7 614 582 4784 40802061 1020 A 0 0 0 0 0 208 0 0 0 0 0 0 623 0 0 0 0 0 0 0 0 0 0 582 0 0 0 0 dyn$p
S 614 6 4 0 0 7 612 582 4790 40802060 1020 A 0 0 0 0 0 216 0 0 0 0 0 0 623 0 0 0 0 0 0 0 0 0 0 582 0 0 0 0 dyn$o
S 615 22 1 0 0 9 1 582 4796 40000000 1000 A 0 0 0 0 0 0 0 609 0 0 0 0 612 0 0 0 0 0 0 0 0 0 0 582 0 0 0 0 dyn$arrdsc
S 616 7 6 0 0 68 1 582 4807 10a00004 51 A 0 0 0 0 0 0 620 0 0 0 622 0 0 0 0 0 0 0 0 619 0 0 621 582 0 0 0 0 w2
S 617 6 4 0 0 6 1 582 4810 40800006 0 A 0 0 0 0 0 16 0 0 0 0 0 0 623 0 0 0 0 0 0 0 0 0 0 582 0 0 0 0 z_b_4
S 618 3 0 0 0 6 0 1 0 0 0 A 0 0 0 0 0 0 0 0 0 18 0 0 0 0 0 0 0 0 0 0 0 0 0 0 0 0 0 0 6
S 619 8 4 0 0 71 595 582 4816 40822064 1020 A 0 0 0 0 0 224 0 0 0 0 0 0 623 0 0 0 0 0 0 0 0 0 0 582 0 0 0 0 w2$sd
S 620 6 4 0 0 7 621 582 4822 40802061 1020 A 0 0 0 0 0 296 0 0 0 0 0 0 623 0 0 0 0 0 0 0 0 0 0 582 0 0 0 0 w2$p
S 621 6 4 0 0 7 619 582 4827 40802060 1020 A 0 0 0 0 0 304 0 0 0 0 0 0 623 0 0 0 0 0 0 0 0 0 0 582 0 0 0 0 w2$o
S 622 22 1 0 0 9 1 582 4832 40000000 1000 A 0 0 0 0 0 0 0 616 0 0 0 0 619 0 0 0 0 0 0 0 0 0 0 582 0 0 0 0 w2$arrdsc
S 623 11 0 0 0 9 1 582 4842 40800000 801000 A 0 0 0 0 0 332 0 0 599 617 0 0 0 0 0 0 0 0 0 0 0 0 0 0 0 0 0 0 _dynmat$0
A 13 2 0 0 0 6 585 0 0 0 13 0 0 0 0 0 0 0 0 0
A 19 2 0 0 0 6 597 0 0 0 19 0 0 0 0 0 0 0 0 0
A 20 2 0 0 0 6 602 0 0 0 20 0 0 0 0 0 0 0 0 0
A 21 1 0 1 0 59 598 0 0 0 0 0 0 0 0 0 0 0 0 0
A 22 10 0 0 0 6 21 1 0 0 0 0 0 0 0 0 0 0 0 0
X 1 20
A 23 2 0 0 0 6 603 0 0 0 23 0 0 0 0 0 0 0 0 0
A 24 10 0 0 22 6 21 4 0 0 0 0 0 0 0 0 0 0 0 0
X 1 23
A 25 4 0 0 0 6 24 0 3 0 0 0 0 2 0 0 0 0 0 0
A 26 4 0 0 0 6 22 0 25 0 0 0 0 1 0 0 0 0 0 0
A 27 2 0 0 0 6 604 0 0 0 27 0 0 0 0 0 0 0 0 0
A 28 10 0 0 24 6 21 7 0 0 0 0 0 0 0 0 0 0 0 0
X 1 27
A 29 2 0 0 0 6 605 0 0 0 29 0 0 0 0 0 0 0 0 0
A 30 10 0 0 28 6 21 10 0 0 0 0 0 0 0 0 0 0 0 0
X 1 29
A 31 4 0 0 0 6 30 0 3 0 0 0 0 2 0 0 0 0 0 0
A 32 4 0 0 0 6 28 0 31 0 0 0 0 1 0 0 0 0 0 0
A 33 2 0 0 0 6 606 0 0 0 33 0 0 0 0 0 0 0 0 0
A 34 10 0 0 30 6 21 13 0 0 0 0 0 0 0 0 0 0 0 0
X 1 33
A 35 2 0 0 0 6 607 0 0 0 35 0 0 0 0 0 0 0 0 0
A 36 10 0 0 34 6 21 16 0 0 0 0 0 0 0 0 0 0 0 0
X 1 35
A 37 2 0 0 0 6 608 0 0 0 37 0 0 0 0 0 0 0 0 0
A 38 10 0 0 36 6 21 19 0 0 0 0 0 0 0 0 0 0 0 0
X 1 37
A 39 10 0 0 38 6 21 22 0 0 0 0 0 0 0 0 0 0 0 0
X 1 13
A 42 1 0 1 0 65 612 0 0 0 0 0 0 0 0 0 0 0 0 0
A 43 10 0 0 0 6 42 1 0 0 0 0 0 0 0 0 0 0 0 0
X 1 20
A 44 10 0 0 43 6 42 4 0 0 0 0 0 0 0 0 0 0 0 0
X 1 23
A 45 4 0 0 0 6 44 0 3 0 0 0 0 2 0 0 0 0 0 0
A 46 4 0 0 0 6 43 0 45 0 0 0 0 1 0 0 0 0 0 0
A 47 10 0 0 44 6 42 7 0 0 0 0 0 0 0 0 0 0 0 0
X 1 27
A 48 10 0 0 47 6 42 10 0 0 0 0 0 0 0 0 0 0 0 0
X 1 29
A 49 4 0 0 0 6 48 0 3 0 0 0 0 2 0 0 0 0 0 0
A 50 4 0 0 0 6 47 0 49 0 0 0 0 1 0 0 0 0 0 0
A 51 10 0 0 48 6 42 13 0 0 0 0 0 0 0 0 0 0 0 0
X 1 33
A 52 10 0 0 51 6 42 16 0 0 0 0 0 0 0 0 0 0 0 0
X 1 35
A 53 10 0 0 52 6 42 19 0 0 0 0 0 0 0 0 0 0 0 0
X 1 37
A 54 10 0 0 53 6 42 22 0 0 0 0 0 0 0 0 0 0 0 0
X 1 13
A 56 2 0 0 0 6 618 0 0 0 56 0 0 0 0 0 0 0 0 0
A 57 1 0 3 0 71 619 0 0 0 0 0 0 0 0 0 0 0 0 0
A 58 10 0 0 0 6 57 1 0 0 0 0 0 0 0 0 0 0 0 0
X 1 20
A 59 10 0 0 58 6 57 4 0 0 0 0 0 0 0 0 0 0 0 0
X 1 23
A 60 4 0 0 0 6 59 0 3 0 0 0 0 2 0 0 0 0 0 0
A 61 4 0 0 0 6 58 0 60 0 0 0 0 1 0 0 0 0 0 0
A 62 10 0 0 59 6 57 13 0 0 0 0 0 0 0 0 0 0 0 0
X 1 33
A 63 10 0 0 62 6 57 19 0 0 0 0 0 0 0 0 0 0 0 0
X 1 37
A 64 10 0 0 63 6 57 22 0 0 0 0 0 0 0 0 0 0 0 0
X 1 13
Z
Z
