V26 efield_mod
9 phcom.F90 S582 0
04/24/2012  16:05:16
use kinds private
use kinds private
enduse
D 56 21 9 2 15 18 0 0 0 0 0
 0 17 3 3 17 17
 0 17 17 3 17 17
D 59 21 9 3 50 49 0 1 0 0 1
 25 29 43 25 29 27
 31 35 45 31 35 33
 37 41 47 37 41 39
D 62 21 6 1 0 22 0 0 0 0 0
 0 22 0 3 22 0
D 65 21 9 3 71 70 0 1 0 0 1
 55 58 67 55 58 56
 59 62 68 59 62 60
 63 66 69 63 66 64
D 68 21 6 1 0 22 0 0 0 0 0
 0 22 0 3 22 0
D 71 21 12 2 87 86 0 1 0 0 1
 76 79 84 76 79 77
 80 83 85 80 83 81
D 74 21 6 1 0 74 0 0 0 0 0
 0 74 0 3 74 0
D 77 21 12 2 102 101 0 1 0 0 1
 91 94 99 91 94 92
 95 98 100 95 98 96
D 80 21 6 1 0 74 0 0 0 0 0
 0 74 0 3 74 0
S 582 24 0 0 0 9 1 0 4658 5 0 A 0 0 0 0 0 0 0 0 0 0 0 0 135 0 0 0 0 0 0 0 0 116 0 0 0 0 0 0 efield_mod
S 584 23 0 0 0 9 587 582 4675 4 0 A 0 0 0 0 0 0 0 0 0 0 0 0 0 0 0 0 0 0 0 0 0 0 0 582 0 0 0 0 dp
S 585 3 0 0 0 6 1 1 0 0 0 A 0 0 0 0 0 0 0 0 0 8 0 0 0 0 0 0 0 0 0 0 0 0 0 0 0 0 0 0 6
S 586 3 0 0 0 6 1 1 0 0 0 A 0 0 0 0 0 0 0 0 0 4 0 0 0 0 0 0 0 0 0 0 0 0 0 0 0 0 0 0 6
R 587 16 1 kinds dp
S 594 3 0 0 0 6 0 1 0 0 0 A 0 0 0 0 0 0 0 0 0 3 0 0 0 0 0 0 0 0 0 0 0 0 0 0 0 0 0 0 6
S 595 3 0 0 0 6 0 1 0 0 0 A 0 0 0 0 0 0 0 0 0 9 0 0 0 0 0 0 0 0 0 0 0 0 0 0 0 0 0 0 6
S 596 7 4 0 4 56 1 582 3069 800004 100 A 0 0 0 0 0 0 0 0 0 0 0 0 639 0 0 0 0 0 0 0 0 0 0 582 0 0 0 0 epsilon
S 597 7 6 0 0 59 1 582 4709 10a00004 51 A 0 0 0 0 0 0 603 0 0 0 605 0 0 0 0 0 0 0 0 602 0 0 604 582 0 0 0 0 zstareu
S 598 6 4 0 0 6 599 582 4717 40800006 0 A 0 0 0 0 0 0 0 0 0 0 0 0 640 0 0 0 0 0 0 0 0 0 0 582 0 0 0 0 z_b_0
S 599 6 4 0 0 6 600 582 4723 40800006 0 A 0 0 0 0 0 4 0 0 0 0 0 0 640 0 0 0 0 0 0 0 0 0 0 582 0 0 0 0 z_b_1
S 600 6 4 0 0 6 617 582 4729 40800006 0 A 0 0 0 0 0 8 0 0 0 0 0 0 640 0 0 0 0 0 0 0 0 0 0 582 0 0 0 0 z_b_2
S 601 3 0 0 0 6 0 1 0 0 0 A 0 0 0 0 0 0 0 0 0 30 0 0 0 0 0 0 0 0 0 0 0 0 0 0 0 0 0 0 6
S 602 8 4 0 0 62 621 582 4735 40822064 1020 A 0 0 0 0 0 0 0 0 0 0 0 0 640 0 0 0 0 0 0 0 0 0 0 582 0 0 0 0 zstareu$sd
S 603 6 4 0 0 7 604 582 4746 40802061 1020 A 0 0 0 0 0 120 0 0 0 0 0 0 640 0 0 0 0 0 0 0 0 0 0 582 0 0 0 0 zstareu$p
S 604 6 4 0 0 7 602 582 4756 40802060 1020 A 0 0 0 0 0 128 0 0 0 0 0 0 640 0 0 0 0 0 0 0 0 0 0 582 0 0 0 0 zstareu$o
S 605 22 1 0 0 9 1 582 4766 40000000 1000 A 0 0 0 0 0 0 0 597 0 0 0 0 602 0 0 0 0 0 0 0 0 0 0 582 0 0 0 0 zstareu$arrdsc
S 606 3 0 0 0 6 0 1 0 0 0 A 0 0 0 0 0 0 0 0 0 13 0 0 0 0 0 0 0 0 0 0 0 0 0 0 0 0 0 0 6
S 607 3 0 0 0 6 0 1 0 0 0 A 0 0 0 0 0 0 0 0 0 14 0 0 0 0 0 0 0 0 0 0 0 0 0 0 0 0 0 0 6
S 608 3 0 0 0 6 0 1 0 0 0 A 0 0 0 0 0 0 0 0 0 19 0 0 0 0 0 0 0 0 0 0 0 0 0 0 0 0 0 0 6
S 609 3 0 0 0 6 0 1 0 0 0 A 0 0 0 0 0 0 0 0 0 20 0 0 0 0 0 0 0 0 0 0 0 0 0 0 0 0 0 0 6
S 610 3 0 0 0 6 0 1 0 0 0 A 0 0 0 0 0 0 0 0 0 25 0 0 0 0 0 0 0 0 0 0 0 0 0 0 0 0 0 0 6
S 611 3 0 0 0 6 0 1 0 0 0 A 0 0 0 0 0 0 0 0 0 26 0 0 0 0 0 0 0 0 0 0 0 0 0 0 0 0 0 0 6
S 612 3 0 0 0 6 0 1 0 0 0 A 0 0 0 0 0 0 0 0 0 17 0 0 0 0 0 0 0 0 0 0 0 0 0 0 0 0 0 0 6
S 613 3 0 0 0 6 0 1 0 0 0 A 0 0 0 0 0 0 0 0 0 23 0 0 0 0 0 0 0 0 0 0 0 0 0 0 0 0 0 0 6
S 614 3 0 0 0 6 0 1 0 0 0 A 0 0 0 0 0 0 0 0 0 29 0 0 0 0 0 0 0 0 0 0 0 0 0 0 0 0 0 0 6
S 615 3 0 0 0 6 0 1 0 0 0 A 0 0 0 0 0 0 0 0 0 7 0 0 0 0 0 0 0 0 0 0 0 0 0 0 0 0 0 0 6
S 616 7 6 0 0 65 1 582 4781 10a00004 51 A 0 0 0 0 0 0 621 0 0 0 623 0 0 0 0 0 0 0 0 620 0 0 622 582 0 0 0 0 zstarue
S 617 6 4 0 0 6 618 582 4789 40800006 0 A 0 0 0 0 0 12 0 0 0 0 0 0 640 0 0 0 0 0 0 0 0 0 0 582 0 0 0 0 z_b_3
S 618 6 4 0 0 6 619 582 4795 40800006 0 A 0 0 0 0 0 16 0 0 0 0 0 0 640 0 0 0 0 0 0 0 0 0 0 582 0 0 0 0 z_b_4
S 619 6 4 0 0 6 625 582 4801 40800006 0 A 0 0 0 0 0 20 0 0 0 0 0 0 640 0 0 0 0 0 0 0 0 0 0 582 0 0 0 0 z_b_5
S 620 8 4 0 0 68 629 582 4807 40822064 1020 A 0 0 0 0 0 136 0 0 0 0 0 0 640 0 0 0 0 0 0 0 0 0 0 582 0 0 0 0 zstarue$sd
S 621 6 4 0 0 7 622 582 4818 40802061 1020 A 0 0 0 0 0 256 0 0 0 0 0 0 640 0 0 0 0 0 0 0 0 0 0 582 0 0 0 0 zstarue$p
S 622 6 4 0 0 7 620 582 4828 40802060 1020 A 0 0 0 0 0 264 0 0 0 0 0 0 640 0 0 0 0 0 0 0 0 0 0 582 0 0 0 0 zstarue$o
S 623 22 1 0 0 9 1 582 4838 40000000 1000 A 0 0 0 0 0 0 0 616 0 0 0 0 620 0 0 0 0 0 0 0 0 0 0 582 0 0 0 0 zstarue$arrdsc
S 624 7 6 0 0 71 1 582 4853 10a00004 51 A 0 0 0 0 0 0 629 0 0 0 631 0 0 0 0 0 0 0 0 628 0 0 630 582 0 0 0 0 zstareu0
S 625 6 4 0 0 6 626 582 4862 40800006 0 A 0 0 0 0 0 24 0 0 0 0 0 0 640 0 0 0 0 0 0 0 0 0 0 582 0 0 0 0 z_b_6
S 626 6 4 0 0 6 633 582 4868 40800006 0 A 0 0 0 0 0 28 0 0 0 0 0 0 640 0 0 0 0 0 0 0 0 0 0 582 0 0 0 0 z_b_7
S 627 3 0 0 0 6 0 1 0 0 0 A 0 0 0 0 0 0 0 0 0 24 0 0 0 0 0 0 0 0 0 0 0 0 0 0 0 0 0 0 6
S 628 8 4 0 0 74 636 582 4874 40822064 1020 A 0 0 0 0 0 272 0 0 0 0 0 0 640 0 0 0 0 0 0 0 0 0 0 582 0 0 0 0 zstareu0$sd
S 629 6 4 0 0 7 630 582 4886 40802061 1020 A 0 0 0 0 0 368 0 0 0 0 0 0 640 0 0 0 0 0 0 0 0 0 0 582 0 0 0 0 zstareu0$p
S 630 6 4 0 0 7 628 582 4897 40802060 1020 A 0 0 0 0 0 376 0 0 0 0 0 0 640 0 0 0 0 0 0 0 0 0 0 582 0 0 0 0 zstareu0$o
S 631 22 1 0 0 9 1 582 4908 40000000 1000 A 0 0 0 0 0 0 0 624 0 0 0 0 628 0 0 0 0 0 0 0 0 0 0 582 0 0 0 0 zstareu0$arrdsc
S 632 7 6 0 0 77 1 582 4924 10a00004 51 A 0 0 0 0 0 0 636 0 0 0 638 0 0 0 0 0 0 0 0 635 0 0 637 582 0 0 0 0 zstarue0
S 633 6 4 0 0 6 634 582 4933 40800006 0 A 0 0 0 0 0 32 0 0 0 0 0 0 640 0 0 0 0 0 0 0 0 0 0 582 0 0 0 0 z_b_8
S 634 6 4 0 0 6 1 582 4939 40800006 0 A 0 0 0 0 0 36 0 0 0 0 0 0 640 0 0 0 0 0 0 0 0 0 0 582 0 0 0 0 z_b_9
S 635 8 4 0 0 80 598 582 4945 40822064 1020 A 0 0 0 0 0 384 0 0 0 0 0 0 640 0 0 0 0 0 0 0 0 0 0 582 0 0 0 0 zstarue0$sd
S 636 6 4 0 0 7 637 582 4957 40802061 1020 A 0 0 0 0 0 480 0 0 0 0 0 0 640 0 0 0 0 0 0 0 0 0 0 582 0 0 0 0 zstarue0$p
S 637 6 4 0 0 7 635 582 4968 40802060 1020 A 0 0 0 0 0 488 0 0 0 0 0 0 640 0 0 0 0 0 0 0 0 0 0 582 0 0 0 0 zstarue0$o
S 638 22 1 0 0 9 1 582 4979 40000000 1000 A 0 0 0 0 0 0 0 632 0 0 0 0 635 0 0 0 0 0 0 0 0 0 0 582 0 0 0 0 zstarue0$arrdsc
S 639 11 0 0 4 9 1 582 4995 40800000 801000 A 0 0 0 0 0 72 0 0 596 596 0 0 0 0 0 0 0 0 0 0 0 0 0 0 0 0 0 0 _efield_mod$2
S 640 11 0 0 0 9 639 582 5009 40800000 801000 A 0 0 0 0 0 536 0 0 603 634 0 0 0 0 0 0 0 0 0 0 0 0 0 0 0 0 0 0 _efield_mod$0
A 13 2 0 0 0 6 585 0 0 0 13 0 0 0 0 0 0 0 0 0
A 15 2 0 0 0 6 586 0 0 0 15 0 0 0 0 0 0 0 0 0
A 17 2 0 0 0 6 594 0 0 0 17 0 0 0 0 0 0 0 0 0
A 18 2 0 0 0 6 595 0 0 0 18 0 0 0 0 0 0 0 0 0
A 22 2 0 0 0 6 601 0 0 0 22 0 0 0 0 0 0 0 0 0
A 23 2 0 0 0 6 606 0 0 0 23 0 0 0 0 0 0 0 0 0
A 24 1 0 1 0 62 602 0 0 0 0 0 0 0 0 0 0 0 0 0
A 25 10 0 0 0 6 24 1 0 0 0 0 0 0 0 0 0 0 0 0
X 1 23
A 26 2 0 0 0 6 607 0 0 0 26 0 0 0 0 0 0 0 0 0
A 27 10 0 0 25 6 24 4 0 0 0 0 0 0 0 0 0 0 0 0
X 1 26
A 28 4 0 0 0 6 27 0 3 0 0 0 0 2 0 0 0 0 0 0
A 29 4 0 0 0 6 25 0 28 0 0 0 0 1 0 0 0 0 0 0
A 30 2 0 0 0 6 608 0 0 0 30 0 0 0 0 0 0 0 0 0
A 31 10 0 0 27 6 24 7 0 0 0 0 0 0 0 0 0 0 0 0
X 1 30
A 32 2 0 0 0 6 609 0 0 0 32 0 0 0 0 0 0 0 0 0
A 33 10 0 0 31 6 24 10 0 0 0 0 0 0 0 0 0 0 0 0
X 1 32
A 34 4 0 0 0 6 33 0 3 0 0 0 0 2 0 0 0 0 0 0
A 35 4 0 0 0 6 31 0 34 0 0 0 0 1 0 0 0 0 0 0
A 36 2 0 0 0 6 610 0 0 0 36 0 0 0 0 0 0 0 0 0
A 37 10 0 0 33 6 24 13 0 0 0 0 0 0 0 0 0 0 0 0
X 1 36
A 38 2 0 0 0 6 611 0 0 0 38 0 0 0 0 0 0 0 0 0
A 39 10 0 0 37 6 24 16 0 0 0 0 0 0 0 0 0 0 0 0
X 1 38
A 40 4 0 0 0 6 39 0 3 0 0 0 0 2 0 0 0 0 0 0
A 41 4 0 0 0 6 37 0 40 0 0 0 0 1 0 0 0 0 0 0
A 42 2 0 0 0 6 612 0 0 0 42 0 0 0 0 0 0 0 0 0
A 43 10 0 0 39 6 24 19 0 0 0 0 0 0 0 0 0 0 0 0
X 1 42
A 44 2 0 0 0 6 613 0 0 0 44 0 0 0 0 0 0 0 0 0
A 45 10 0 0 43 6 24 22 0 0 0 0 0 0 0 0 0 0 0 0
X 1 44
A 46 2 0 0 0 6 614 0 0 0 46 0 0 0 0 0 0 0 0 0
A 47 10 0 0 45 6 24 25 0 0 0 0 0 0 0 0 0 0 0 0
X 1 46
A 48 2 0 0 0 6 615 0 0 0 48 0 0 0 0 0 0 0 0 0
A 49 10 0 0 47 6 24 28 0 0 0 0 0 0 0 0 0 0 0 0
X 1 48
A 50 10 0 0 49 6 24 31 0 0 0 0 0 0 0 0 0 0 0 0
X 1 13
A 54 1 0 1 0 68 620 0 0 0 0 0 0 0 0 0 0 0 0 0
A 55 10 0 0 0 6 54 1 0 0 0 0 0 0 0 0 0 0 0 0
X 1 23
A 56 10 0 0 55 6 54 4 0 0 0 0 0 0 0 0 0 0 0 0
X 1 26
A 57 4 0 0 0 6 56 0 3 0 0 0 0 2 0 0 0 0 0 0
A 58 4 0 0 0 6 55 0 57 0 0 0 0 1 0 0 0 0 0 0
A 59 10 0 0 56 6 54 7 0 0 0 0 0 0 0 0 0 0 0 0
X 1 30
A 60 10 0 0 59 6 54 10 0 0 0 0 0 0 0 0 0 0 0 0
X 1 32
A 61 4 0 0 0 6 60 0 3 0 0 0 0 2 0 0 0 0 0 0
A 62 4 0 0 0 6 59 0 61 0 0 0 0 1 0 0 0 0 0 0
A 63 10 0 0 60 6 54 13 0 0 0 0 0 0 0 0 0 0 0 0
X 1 36
A 64 10 0 0 63 6 54 16 0 0 0 0 0 0 0 0 0 0 0 0
X 1 38
A 65 4 0 0 0 6 64 0 3 0 0 0 0 2 0 0 0 0 0 0
A 66 4 0 0 0 6 63 0 65 0 0 0 0 1 0 0 0 0 0 0
A 67 10 0 0 64 6 54 19 0 0 0 0 0 0 0 0 0 0 0 0
X 1 42
A 68 10 0 0 67 6 54 22 0 0 0 0 0 0 0 0 0 0 0 0
X 1 44
A 69 10 0 0 68 6 54 25 0 0 0 0 0 0 0 0 0 0 0 0
X 1 46
A 70 10 0 0 69 6 54 28 0 0 0 0 0 0 0 0 0 0 0 0
X 1 48
A 71 10 0 0 70 6 54 31 0 0 0 0 0 0 0 0 0 0 0 0
X 1 13
A 74 2 0 0 0 6 627 0 0 0 74 0 0 0 0 0 0 0 0 0
A 75 1 0 3 0 74 628 0 0 0 0 0 0 0 0 0 0 0 0 0
A 76 10 0 0 0 6 75 1 0 0 0 0 0 0 0 0 0 0 0 0
X 1 23
A 77 10 0 0 76 6 75 4 0 0 0 0 0 0 0 0 0 0 0 0
X 1 26
A 78 4 0 0 0 6 77 0 3 0 0 0 0 2 0 0 0 0 0 0
A 79 4 0 0 0 6 76 0 78 0 0 0 0 1 0 0 0 0 0 0
A 80 10 0 0 77 6 75 7 0 0 0 0 0 0 0 0 0 0 0 0
X 1 30
A 81 10 0 0 80 6 75 10 0 0 0 0 0 0 0 0 0 0 0 0
X 1 32
A 82 4 0 0 10 6 81 0 3 0 0 0 0 2 0 0 0 0 0 0
A 83 4 0 0 0 6 80 0 82 0 0 0 0 1 0 0 0 0 0 0
A 84 10 0 0 81 6 75 19 0 0 0 0 0 0 0 0 0 0 0 0
X 1 42
A 85 10 0 0 84 6 75 22 0 0 0 0 0 0 0 0 0 0 0 0
X 1 44
A 86 10 0 0 85 6 75 28 0 0 0 0 0 0 0 0 0 0 0 0
X 1 48
A 87 10 0 0 86 6 75 31 0 0 0 0 0 0 0 0 0 0 0 0
X 1 13
A 90 1 0 3 0 80 635 0 0 0 0 0 0 0 0 0 0 0 0 0
A 91 10 0 0 0 6 90 1 0 0 0 0 0 0 0 0 0 0 0 0
X 1 23
A 92 10 0 0 91 6 90 4 0 0 0 0 0 0 0 0 0 0 0 0
X 1 26
A 93 4 0 0 0 6 92 0 3 0 0 0 0 2 0 0 0 0 0 0
A 94 4 0 0 0 6 91 0 93 0 0 0 0 1 0 0 0 0 0 0
A 95 10 0 0 92 6 90 7 0 0 0 0 0 0 0 0 0 0 0 0
X 1 30
A 96 10 0 0 95 6 90 10 0 0 0 0 0 0 0 0 0 0 0 0
X 1 32
A 97 4 0 0 13 6 96 0 3 0 0 0 0 2 0 0 0 0 0 0
A 98 4 0 0 0 6 95 0 97 0 0 0 0 1 0 0 0 0 0 0
A 99 10 0 0 96 6 90 19 0 0 0 0 0 0 0 0 0 0 0 0
X 1 42
A 100 10 0 0 99 6 90 22 0 0 0 0 0 0 0 0 0 0 0 0
X 1 44
A 101 10 0 0 100 6 90 28 0 0 0 0 0 0 0 0 0 0 0 0
X 1 48
A 102 10 0 0 101 6 90 31 0 0 0 0 0 0 0 0 0 0 0 0
X 1 13
Z
Z
