V26 el_phon
8 elph.F90 S582 0
04/24/2012  16:05:16
use kinds private
use kinds private
enduse
D 56 21 12 4 57 56 0 1 0 0 1
 24 28 48 24 28 26
 30 34 50 30 34 32
 36 40 52 36 40 38
 42 46 54 42 46 44
D 59 21 6 1 0 21 0 0 0 0 0
 0 21 0 3 21 0
S 582 24 0 0 0 9 1 0 4658 5 0 A 0 0 0 0 0 0 0 0 0 0 0 0 20 0 0 0 0 0 0 0 0 12 0 0 0 0 0 0 el_phon
S 584 23 0 0 0 9 587 582 4672 4 0 A 0 0 0 0 0 0 0 0 0 0 0 0 0 0 0 0 0 0 0 0 0 0 0 582 0 0 0 0 dp
S 585 3 0 0 0 6 1 1 0 0 0 A 0 0 0 0 0 0 0 0 0 8 0 0 0 0 0 0 0 0 0 0 0 0 0 0 0 0 0 0 6
R 587 16 1 kinds dp
S 594 7 6 0 0 56 1 582 4706 10a00004 51 A 0 0 0 0 0 0 601 0 0 0 603 0 0 0 0 0 0 0 0 600 0 0 602 582 0 0 0 0 el_ph_mat
S 595 6 4 0 0 6 596 582 4716 40800006 0 A 0 0 0 0 0 0 0 0 0 0 0 0 617 0 0 0 0 0 0 0 0 0 0 582 0 0 0 0 z_b_0
S 596 6 4 0 0 6 597 582 4722 40800006 0 A 0 0 0 0 0 4 0 0 0 0 0 0 617 0 0 0 0 0 0 0 0 0 0 582 0 0 0 0 z_b_1
S 597 6 4 0 0 6 598 582 4728 40800006 0 A 0 0 0 0 0 8 0 0 0 0 0 0 617 0 0 0 0 0 0 0 0 0 0 582 0 0 0 0 z_b_2
S 598 6 4 0 0 6 1 582 4734 40800006 0 A 0 0 0 0 0 12 0 0 0 0 0 0 617 0 0 0 0 0 0 0 0 0 0 582 0 0 0 0 z_b_3
S 599 3 0 0 0 6 0 1 0 0 0 A 0 0 0 0 0 0 0 0 0 36 0 0 0 0 0 0 0 0 0 0 0 0 0 0 0 0 0 0 6
S 600 8 4 0 0 59 595 582 4740 40822064 1020 A 0 0 0 0 0 0 0 0 0 0 0 0 617 0 0 0 0 0 0 0 0 0 0 582 0 0 0 0 el_ph_mat$sd
S 601 6 4 0 0 7 602 582 4753 40802061 1020 A 0 0 0 0 0 144 0 0 0 0 0 0 617 0 0 0 0 0 0 0 0 0 0 582 0 0 0 0 el_ph_mat$p
S 602 6 4 0 0 7 600 582 4765 40802060 1020 A 0 0 0 0 0 152 0 0 0 0 0 0 617 0 0 0 0 0 0 0 0 0 0 582 0 0 0 0 el_ph_mat$o
S 603 22 1 0 0 9 1 582 4777 40000000 1000 A 0 0 0 0 0 0 0 594 0 0 0 0 600 0 0 0 0 0 0 0 0 0 0 582 0 0 0 0 el_ph_mat$arrdsc
S 604 3 0 0 0 6 0 1 0 0 0 A 0 0 0 0 0 0 0 0 0 13 0 0 0 0 0 0 0 0 0 0 0 0 0 0 0 0 0 0 6
S 605 3 0 0 0 6 0 1 0 0 0 A 0 0 0 0 0 0 0 0 0 14 0 0 0 0 0 0 0 0 0 0 0 0 0 0 0 0 0 0 6
S 606 3 0 0 0 6 0 1 0 0 0 A 0 0 0 0 0 0 0 0 0 19 0 0 0 0 0 0 0 0 0 0 0 0 0 0 0 0 0 0 6
S 607 3 0 0 0 6 0 1 0 0 0 A 0 0 0 0 0 0 0 0 0 20 0 0 0 0 0 0 0 0 0 0 0 0 0 0 0 0 0 0 6
S 608 3 0 0 0 6 0 1 0 0 0 A 0 0 0 0 0 0 0 0 0 25 0 0 0 0 0 0 0 0 0 0 0 0 0 0 0 0 0 0 6
S 609 3 0 0 0 6 0 1 0 0 0 A 0 0 0 0 0 0 0 0 0 26 0 0 0 0 0 0 0 0 0 0 0 0 0 0 0 0 0 0 6
S 610 3 0 0 0 6 0 1 0 0 0 A 0 0 0 0 0 0 0 0 0 31 0 0 0 0 0 0 0 0 0 0 0 0 0 0 0 0 0 0 6
S 611 3 0 0 0 6 0 1 0 0 0 A 0 0 0 0 0 0 0 0 0 32 0 0 0 0 0 0 0 0 0 0 0 0 0 0 0 0 0 0 6
S 612 3 0 0 0 6 0 1 0 0 0 A 0 0 0 0 0 0 0 0 0 17 0 0 0 0 0 0 0 0 0 0 0 0 0 0 0 0 0 0 6
S 613 3 0 0 0 6 0 1 0 0 0 A 0 0 0 0 0 0 0 0 0 23 0 0 0 0 0 0 0 0 0 0 0 0 0 0 0 0 0 0 6
S 614 3 0 0 0 6 0 1 0 0 0 A 0 0 0 0 0 0 0 0 0 29 0 0 0 0 0 0 0 0 0 0 0 0 0 0 0 0 0 0 6
S 615 3 0 0 0 6 0 1 0 0 0 A 0 0 0 0 0 0 0 0 0 35 0 0 0 0 0 0 0 0 0 0 0 0 0 0 0 0 0 0 6
S 616 3 0 0 0 6 0 1 0 0 0 A 0 0 0 0 0 0 0 0 0 7 0 0 0 0 0 0 0 0 0 0 0 0 0 0 0 0 0 0 6
S 617 11 0 0 0 9 1 582 4794 40800000 801000 A 0 0 0 0 0 176 0 0 601 598 0 0 0 0 0 0 0 0 0 0 0 0 0 0 0 0 0 0 _el_phon$0
A 13 2 0 0 0 6 585 0 0 0 13 0 0 0 0 0 0 0 0 0
A 21 2 0 0 0 6 599 0 0 0 21 0 0 0 0 0 0 0 0 0
A 22 2 0 0 0 6 604 0 0 0 22 0 0 0 0 0 0 0 0 0
A 23 1 0 1 0 59 600 0 0 0 0 0 0 0 0 0 0 0 0 0
A 24 10 0 0 0 6 23 1 0 0 0 0 0 0 0 0 0 0 0 0
X 1 22
A 25 2 0 0 0 6 605 0 0 0 25 0 0 0 0 0 0 0 0 0
A 26 10 0 0 24 6 23 4 0 0 0 0 0 0 0 0 0 0 0 0
X 1 25
A 27 4 0 0 0 6 26 0 3 0 0 0 0 2 0 0 0 0 0 0
A 28 4 0 0 0 6 24 0 27 0 0 0 0 1 0 0 0 0 0 0
A 29 2 0 0 0 6 606 0 0 0 29 0 0 0 0 0 0 0 0 0
A 30 10 0 0 26 6 23 7 0 0 0 0 0 0 0 0 0 0 0 0
X 1 29
A 31 2 0 0 0 6 607 0 0 0 31 0 0 0 0 0 0 0 0 0
A 32 10 0 0 30 6 23 10 0 0 0 0 0 0 0 0 0 0 0 0
X 1 31
A 33 4 0 0 0 6 32 0 3 0 0 0 0 2 0 0 0 0 0 0
A 34 4 0 0 0 6 30 0 33 0 0 0 0 1 0 0 0 0 0 0
A 35 2 0 0 0 6 608 0 0 0 35 0 0 0 0 0 0 0 0 0
A 36 10 0 0 32 6 23 13 0 0 0 0 0 0 0 0 0 0 0 0
X 1 35
A 37 2 0 0 0 6 609 0 0 0 37 0 0 0 0 0 0 0 0 0
A 38 10 0 0 36 6 23 16 0 0 0 0 0 0 0 0 0 0 0 0
X 1 37
A 39 4 0 0 0 6 38 0 3 0 0 0 0 2 0 0 0 0 0 0
A 40 4 0 0 0 6 36 0 39 0 0 0 0 1 0 0 0 0 0 0
A 41 2 0 0 0 6 610 0 0 0 41 0 0 0 0 0 0 0 0 0
A 42 10 0 0 38 6 23 19 0 0 0 0 0 0 0 0 0 0 0 0
X 1 41
A 43 2 0 0 0 6 611 0 0 0 43 0 0 0 0 0 0 0 0 0
A 44 10 0 0 42 6 23 22 0 0 0 0 0 0 0 0 0 0 0 0
X 1 43
A 45 4 0 0 0 6 44 0 3 0 0 0 0 2 0 0 0 0 0 0
A 46 4 0 0 0 6 42 0 45 0 0 0 0 1 0 0 0 0 0 0
A 47 2 0 0 0 6 612 0 0 0 47 0 0 0 0 0 0 0 0 0
A 48 10 0 0 44 6 23 25 0 0 0 0 0 0 0 0 0 0 0 0
X 1 47
A 49 2 0 0 0 6 613 0 0 0 49 0 0 0 0 0 0 0 0 0
A 50 10 0 0 48 6 23 28 0 0 0 0 0 0 0 0 0 0 0 0
X 1 49
A 51 2 0 0 0 6 614 0 0 0 51 0 0 0 0 0 0 0 0 0
A 52 10 0 0 50 6 23 31 0 0 0 0 0 0 0 0 0 0 0 0
X 1 51
A 53 2 0 0 0 6 615 0 0 0 53 0 0 0 0 0 0 0 0 0
A 54 10 0 0 52 6 23 34 0 0 0 0 0 0 0 0 0 0 0 0
X 1 53
A 55 2 0 0 0 6 616 0 0 0 55 0 0 0 0 0 0 0 0 0
A 56 10 0 0 54 6 23 37 0 0 0 0 0 0 0 0 0 0 0 0
X 1 55
A 57 10 0 0 56 6 23 40 0 0 0 0 0 0 0 0 0 0 0 0
X 1 13
Z
Z
