V26 eqv
9 phcom.F90 S582 0
04/24/2012  16:05:16
use kinds private
use kinds private
enduse
D 56 21 12 2 39 38 0 1 0 0 1
 22 26 34 22 26 24
 28 32 36 28 32 30
D 59 21 6 1 0 19 0 0 0 0 0
 0 19 0 3 19 0
D 62 21 12 2 54 53 0 1 0 0 1
 43 46 51 43 46 44
 47 50 52 47 50 48
D 65 21 6 1 0 19 0 0 0 0 0
 0 19 0 3 19 0
D 68 21 12 2 69 68 0 1 0 0 1
 58 61 66 58 61 59
 62 65 67 62 65 63
D 71 21 6 1 0 19 0 0 0 0 0
 0 19 0 3 19 0
D 74 21 9 3 94 93 0 1 0 0 1
 75 78 89 75 78 76
 79 82 90 79 82 80
 84 88 92 84 88 86
D 77 21 6 1 0 73 0 0 0 0 0
 0 73 0 3 73 0
D 80 21 9 2 109 108 0 1 0 0 1
 98 101 106 98 101 99
 102 105 107 102 105 103
D 83 21 6 1 0 19 0 0 0 0 0
 0 19 0 3 19 0
S 582 24 0 0 0 9 1 0 2683 5 0 A 0 0 0 0 0 0 0 0 0 0 0 0 113 0 0 0 0 0 0 0 0 94 0 0 0 0 0 0 eqv
S 584 23 0 0 0 9 587 582 4664 4 0 A 0 0 0 0 0 0 0 0 0 0 0 0 0 0 0 0 0 0 0 0 0 0 0 582 0 0 0 0 dp
S 585 3 0 0 0 6 1 1 0 0 0 A 0 0 0 0 0 0 0 0 0 8 0 0 0 0 0 0 0 0 0 0 0 0 0 0 0 0 0 0 6
R 587 16 1 kinds dp
S 594 7 6 0 0 56 1 582 4698 10a00004 14 A 0 0 0 0 0 0 599 0 0 0 601 0 0 0 0 0 0 0 0 598 0 0 600 582 0 0 0 0 evq
S 595 6 4 0 0 6 596 582 4702 40800006 0 A 0 0 0 0 0 0 0 0 0 0 0 0 642 0 0 0 0 0 0 0 0 0 0 582 0 0 0 0 z_b_0
S 596 6 4 0 0 6 610 582 4708 40800006 0 A 0 0 0 0 0 4 0 0 0 0 0 0 642 0 0 0 0 0 0 0 0 0 0 582 0 0 0 0 z_b_1
S 597 3 0 0 0 6 0 1 0 0 0 A 0 0 0 0 0 0 0 0 0 24 0 0 0 0 0 0 0 0 0 0 0 0 0 0 0 0 0 0 6
S 598 8 4 0 0 59 613 582 4714 40822064 1020 A 0 0 0 0 0 0 0 0 0 0 0 0 642 0 0 0 0 0 0 0 0 0 0 582 0 0 0 0 evq$sd
S 599 6 4 0 0 7 600 582 4721 40802061 1020 A 0 0 0 0 0 96 0 0 0 0 0 0 642 0 0 0 0 0 0 0 0 0 0 582 0 0 0 0 evq$p
S 600 6 4 0 0 7 598 582 4727 40802060 1020 A 0 0 0 0 0 104 0 0 0 0 0 0 642 0 0 0 0 0 0 0 0 0 0 582 0 0 0 0 evq$o
S 601 22 1 0 0 9 1 582 4733 40000000 1000 A 0 0 0 0 0 0 0 594 0 0 0 0 598 0 0 0 0 0 0 0 0 0 0 582 0 0 0 0 evq$arrdsc
S 602 3 0 0 0 6 0 1 0 0 0 A 0 0 0 0 0 0 0 0 0 13 0 0 0 0 0 0 0 0 0 0 0 0 0 0 0 0 0 0 6
S 603 3 0 0 0 6 0 1 0 0 0 A 0 0 0 0 0 0 0 0 0 14 0 0 0 0 0 0 0 0 0 0 0 0 0 0 0 0 0 0 6
S 604 3 0 0 0 6 0 1 0 0 0 A 0 0 0 0 0 0 0 0 0 19 0 0 0 0 0 0 0 0 0 0 0 0 0 0 0 0 0 0 6
S 605 3 0 0 0 6 0 1 0 0 0 A 0 0 0 0 0 0 0 0 0 20 0 0 0 0 0 0 0 0 0 0 0 0 0 0 0 0 0 0 6
S 606 3 0 0 0 6 0 1 0 0 0 A 0 0 0 0 0 0 0 0 0 17 0 0 0 0 0 0 0 0 0 0 0 0 0 0 0 0 0 0 6
S 607 3 0 0 0 6 0 1 0 0 0 A 0 0 0 0 0 0 0 0 0 23 0 0 0 0 0 0 0 0 0 0 0 0 0 0 0 0 0 0 6
S 608 3 0 0 0 6 0 1 0 0 0 A 0 0 0 0 0 0 0 0 0 7 0 0 0 0 0 0 0 0 0 0 0 0 0 0 0 0 0 0 6
S 609 7 6 0 0 62 1 582 4744 10a00004 51 A 0 0 0 0 0 0 613 0 0 0 615 0 0 0 0 0 0 0 0 612 0 0 614 582 0 0 0 0 dvpsi
S 610 6 4 0 0 6 611 582 4750 40800006 0 A 0 0 0 0 0 8 0 0 0 0 0 0 642 0 0 0 0 0 0 0 0 0 0 582 0 0 0 0 z_b_2
S 611 6 4 0 0 6 617 582 4756 40800006 0 A 0 0 0 0 0 12 0 0 0 0 0 0 642 0 0 0 0 0 0 0 0 0 0 582 0 0 0 0 z_b_3
S 612 8 4 0 0 65 620 582 4762 40822064 1020 A 0 0 0 0 0 112 0 0 0 0 0 0 642 0 0 0 0 0 0 0 0 0 0 582 0 0 0 0 dvpsi$sd
S 613 6 4 0 0 7 614 582 4771 40802061 1020 A 0 0 0 0 0 208 0 0 0 0 0 0 642 0 0 0 0 0 0 0 0 0 0 582 0 0 0 0 dvpsi$p
S 614 6 4 0 0 7 612 582 4779 40802060 1020 A 0 0 0 0 0 216 0 0 0 0 0 0 642 0 0 0 0 0 0 0 0 0 0 582 0 0 0 0 dvpsi$o
S 615 22 1 0 0 9 1 582 4787 40000000 1000 A 0 0 0 0 0 0 0 609 0 0 0 0 612 0 0 0 0 0 0 0 0 0 0 582 0 0 0 0 dvpsi$arrdsc
S 616 7 6 0 0 68 1 582 4800 10a00004 51 A 0 0 0 0 0 0 620 0 0 0 622 0 0 0 0 0 0 0 0 619 0 0 621 582 0 0 0 0 dpsi
S 617 6 4 0 0 6 618 582 4805 40800006 0 A 0 0 0 0 0 16 0 0 0 0 0 0 642 0 0 0 0 0 0 0 0 0 0 582 0 0 0 0 z_b_4
S 618 6 4 0 0 6 624 582 4811 40800006 0 A 0 0 0 0 0 20 0 0 0 0 0 0 642 0 0 0 0 0 0 0 0 0 0 582 0 0 0 0 z_b_5
S 619 8 4 0 0 71 629 582 4817 40822064 1020 A 0 0 0 0 0 224 0 0 0 0 0 0 642 0 0 0 0 0 0 0 0 0 0 582 0 0 0 0 dpsi$sd
S 620 6 4 0 0 7 621 582 4825 40802061 1020 A 0 0 0 0 0 320 0 0 0 0 0 0 642 0 0 0 0 0 0 0 0 0 0 582 0 0 0 0 dpsi$p
S 621 6 4 0 0 7 619 582 4832 40802060 1020 A 0 0 0 0 0 328 0 0 0 0 0 0 642 0 0 0 0 0 0 0 0 0 0 582 0 0 0 0 dpsi$o
S 622 22 1 0 0 9 1 582 4839 40000000 1000 A 0 0 0 0 0 0 0 616 0 0 0 0 619 0 0 0 0 0 0 0 0 0 0 582 0 0 0 0 dpsi$arrdsc
S 623 7 6 0 0 74 1 582 4851 10a00004 51 A 0 0 0 0 0 0 629 0 0 0 631 0 0 0 0 0 0 0 0 628 0 0 630 582 0 0 0 0 dmuxc
S 624 6 4 0 0 6 625 582 4857 40800006 0 A 0 0 0 0 0 24 0 0 0 0 0 0 642 0 0 0 0 0 0 0 0 0 0 582 0 0 0 0 z_b_6
S 625 6 4 0 0 6 626 582 4863 40800006 0 A 0 0 0 0 0 28 0 0 0 0 0 0 642 0 0 0 0 0 0 0 0 0 0 582 0 0 0 0 z_b_7
S 626 6 4 0 0 6 636 582 4869 40800006 0 A 0 0 0 0 0 32 0 0 0 0 0 0 642 0 0 0 0 0 0 0 0 0 0 582 0 0 0 0 z_b_8
S 627 3 0 0 0 6 0 1 0 0 0 A 0 0 0 0 0 0 0 0 0 30 0 0 0 0 0 0 0 0 0 0 0 0 0 0 0 0 0 0 6
S 628 8 4 0 0 77 639 582 4875 40822064 1020 A 0 0 0 0 0 336 0 0 0 0 0 0 642 0 0 0 0 0 0 0 0 0 0 582 0 0 0 0 dmuxc$sd
S 629 6 4 0 0 7 630 582 4884 40802061 1020 A 0 0 0 0 0 456 0 0 0 0 0 0 642 0 0 0 0 0 0 0 0 0 0 582 0 0 0 0 dmuxc$p
S 630 6 4 0 0 7 628 582 4892 40802060 1020 A 0 0 0 0 0 464 0 0 0 0 0 0 642 0 0 0 0 0 0 0 0 0 0 582 0 0 0 0 dmuxc$o
S 631 22 1 0 0 9 1 582 4900 40000000 1000 A 0 0 0 0 0 0 0 623 0 0 0 0 628 0 0 0 0 0 0 0 0 0 0 582 0 0 0 0 dmuxc$arrdsc
S 632 3 0 0 0 6 0 1 0 0 0 A 0 0 0 0 0 0 0 0 0 25 0 0 0 0 0 0 0 0 0 0 0 0 0 0 0 0 0 0 6
S 633 3 0 0 0 6 0 1 0 0 0 A 0 0 0 0 0 0 0 0 0 26 0 0 0 0 0 0 0 0 0 0 0 0 0 0 0 0 0 0 6
S 634 3 0 0 0 6 0 1 0 0 0 A 0 0 0 0 0 0 0 0 0 29 0 0 0 0 0 0 0 0 0 0 0 0 0 0 0 0 0 0 6
S 635 7 6 0 0 80 1 582 4913 10a00004 59 A 0 0 0 0 0 0 639 0 0 0 641 0 0 0 0 0 0 0 0 638 0 0 640 582 0 0 0 0 vlocq
S 636 6 4 0 0 6 637 582 4919 40800006 0 A 0 0 0 0 0 36 0 0 0 0 0 0 642 0 0 0 0 0 0 0 0 0 0 582 0 0 0 0 z_b_9
S 637 6 4 0 0 6 1 582 4925 40800006 0 A 0 0 0 0 0 40 0 0 0 0 0 0 642 0 0 0 0 0 0 0 0 0 0 582 0 0 0 0 z_b_10
S 638 8 4 0 0 83 595 582 4932 40822064 1020 A 0 0 0 0 0 472 0 0 0 0 0 0 642 0 0 0 0 0 0 0 0 0 0 582 0 0 0 0 vlocq$sd
S 639 6 4 0 0 7 640 582 4941 40802061 1020 A 0 0 0 0 0 568 0 0 0 0 0 0 642 0 0 0 0 0 0 0 0 0 0 582 0 0 0 0 vlocq$p
S 640 6 4 0 0 7 638 582 4949 40802060 1020 A 0 0 0 0 0 576 0 0 0 0 0 0 642 0 0 0 0 0 0 0 0 0 0 582 0 0 0 0 vlocq$o
S 641 22 1 0 0 9 1 582 4957 40000000 1000 A 0 0 0 0 0 0 0 635 0 0 0 0 638 0 0 0 0 0 0 0 0 0 0 582 0 0 0 0 vlocq$arrdsc
S 642 11 0 0 0 9 1 582 4970 40800000 801000 A 0 0 0 0 0 628 0 0 599 637 0 0 0 0 0 0 0 0 0 0 0 0 0 0 0 0 0 0 _eqv$0
A 13 2 0 0 0 6 585 0 0 0 13 0 0 0 0 0 0 0 0 0
A 19 2 0 0 0 6 597 0 0 0 19 0 0 0 0 0 0 0 0 0
A 20 2 0 0 0 6 602 0 0 0 20 0 0 0 0 0 0 0 0 0
A 21 1 0 1 0 59 598 0 0 0 0 0 0 0 0 0 0 0 0 0
A 22 10 0 0 0 6 21 1 0 0 0 0 0 0 0 0 0 0 0 0
X 1 20
A 23 2 0 0 0 6 603 0 0 0 23 0 0 0 0 0 0 0 0 0
A 24 10 0 0 22 6 21 4 0 0 0 0 0 0 0 0 0 0 0 0
X 1 23
A 25 4 0 0 0 6 24 0 3 0 0 0 0 2 0 0 0 0 0 0
A 26 4 0 0 0 6 22 0 25 0 0 0 0 1 0 0 0 0 0 0
A 27 2 0 0 0 6 604 0 0 0 27 0 0 0 0 0 0 0 0 0
A 28 10 0 0 24 6 21 7 0 0 0 0 0 0 0 0 0 0 0 0
X 1 27
A 29 2 0 0 0 6 605 0 0 0 29 0 0 0 0 0 0 0 0 0
A 30 10 0 0 28 6 21 10 0 0 0 0 0 0 0 0 0 0 0 0
X 1 29
A 31 4 0 0 0 6 30 0 3 0 0 0 0 2 0 0 0 0 0 0
A 32 4 0 0 0 6 28 0 31 0 0 0 0 1 0 0 0 0 0 0
A 33 2 0 0 0 6 606 0 0 0 33 0 0 0 0 0 0 0 0 0
A 34 10 0 0 30 6 21 13 0 0 0 0 0 0 0 0 0 0 0 0
X 1 33
A 35 2 0 0 0 6 607 0 0 0 35 0 0 0 0 0 0 0 0 0
A 36 10 0 0 34 6 21 16 0 0 0 0 0 0 0 0 0 0 0 0
X 1 35
A 37 2 0 0 0 6 608 0 0 0 37 0 0 0 0 0 0 0 0 0
A 38 10 0 0 36 6 21 19 0 0 0 0 0 0 0 0 0 0 0 0
X 1 37
A 39 10 0 0 38 6 21 22 0 0 0 0 0 0 0 0 0 0 0 0
X 1 13
A 42 1 0 1 0 65 612 0 0 0 0 0 0 0 0 0 0 0 0 0
A 43 10 0 0 0 6 42 1 0 0 0 0 0 0 0 0 0 0 0 0
X 1 20
A 44 10 0 0 43 6 42 4 0 0 0 0 0 0 0 0 0 0 0 0
X 1 23
A 45 4 0 0 0 6 44 0 3 0 0 0 0 2 0 0 0 0 0 0
A 46 4 0 0 0 6 43 0 45 0 0 0 0 1 0 0 0 0 0 0
A 47 10 0 0 44 6 42 7 0 0 0 0 0 0 0 0 0 0 0 0
X 1 27
A 48 10 0 0 47 6 42 10 0 0 0 0 0 0 0 0 0 0 0 0
X 1 29
A 49 4 0 0 0 6 48 0 3 0 0 0 0 2 0 0 0 0 0 0
A 50 4 0 0 0 6 47 0 49 0 0 0 0 1 0 0 0 0 0 0
A 51 10 0 0 48 6 42 13 0 0 0 0 0 0 0 0 0 0 0 0
X 1 33
A 52 10 0 0 51 6 42 16 0 0 0 0 0 0 0 0 0 0 0 0
X 1 35
A 53 10 0 0 52 6 42 19 0 0 0 0 0 0 0 0 0 0 0 0
X 1 37
A 54 10 0 0 53 6 42 22 0 0 0 0 0 0 0 0 0 0 0 0
X 1 13
A 57 1 0 1 0 71 619 0 0 0 0 0 0 0 0 0 0 0 0 0
A 58 10 0 0 0 6 57 1 0 0 0 0 0 0 0 0 0 0 0 0
X 1 20
A 59 10 0 0 58 6 57 4 0 0 0 0 0 0 0 0 0 0 0 0
X 1 23
A 60 4 0 0 0 6 59 0 3 0 0 0 0 2 0 0 0 0 0 0
A 61 4 0 0 0 6 58 0 60 0 0 0 0 1 0 0 0 0 0 0
A 62 10 0 0 59 6 57 7 0 0 0 0 0 0 0 0 0 0 0 0
X 1 27
A 63 10 0 0 62 6 57 10 0 0 0 0 0 0 0 0 0 0 0 0
X 1 29
A 64 4 0 0 61 6 63 0 3 0 0 0 0 2 0 0 0 0 0 0
A 65 4 0 0 0 6 62 0 64 0 0 0 0 1 0 0 0 0 0 0
A 66 10 0 0 63 6 57 13 0 0 0 0 0 0 0 0 0 0 0 0
X 1 33
A 67 10 0 0 66 6 57 16 0 0 0 0 0 0 0 0 0 0 0 0
X 1 35
A 68 10 0 0 67 6 57 19 0 0 0 0 0 0 0 0 0 0 0 0
X 1 37
A 69 10 0 0 68 6 57 22 0 0 0 0 0 0 0 0 0 0 0 0
X 1 13
A 73 2 0 0 0 6 627 0 0 0 73 0 0 0 0 0 0 0 0 0
A 74 1 0 3 0 77 628 0 0 0 0 0 0 0 0 0 0 0 0 0
A 75 10 0 0 0 6 74 1 0 0 0 0 0 0 0 0 0 0 0 0
X 1 20
A 76 10 0 0 75 6 74 4 0 0 0 0 0 0 0 0 0 0 0 0
X 1 23
A 77 4 0 0 0 6 76 0 3 0 0 0 0 2 0 0 0 0 0 0
A 78 4 0 0 0 6 75 0 77 0 0 0 0 1 0 0 0 0 0 0
A 79 10 0 0 76 6 74 7 0 0 0 0 0 0 0 0 0 0 0 0
X 1 27
A 80 10 0 0 79 6 74 10 0 0 0 0 0 0 0 0 0 0 0 0
X 1 29
A 81 4 0 0 2 6 80 0 3 0 0 0 0 2 0 0 0 0 0 0
A 82 4 0 0 0 6 79 0 81 0 0 0 0 1 0 0 0 0 0 0
A 83 2 0 0 0 6 632 0 0 0 83 0 0 0 0 0 0 0 0 0
A 84 10 0 0 80 6 74 25 0 0 0 0 0 0 0 0 0 0 0 0
X 1 83
A 85 2 0 0 0 6 633 0 0 0 85 0 0 0 0 0 0 0 0 0
A 86 10 0 0 84 6 74 28 0 0 0 0 0 0 0 0 0 0 0 0
X 1 85
A 87 4 0 0 0 6 86 0 3 0 0 0 0 2 0 0 0 0 0 0
A 88 4 0 0 0 6 84 0 87 0 0 0 0 1 0 0 0 0 0 0
A 89 10 0 0 86 6 74 13 0 0 0 0 0 0 0 0 0 0 0 0
X 1 33
A 90 10 0 0 89 6 74 16 0 0 0 0 0 0 0 0 0 0 0 0
X 1 35
A 91 2 0 0 0 6 634 0 0 0 91 0 0 0 0 0 0 0 0 0
A 92 10 0 0 90 6 74 31 0 0 0 0 0 0 0 0 0 0 0 0
X 1 91
A 93 10 0 0 92 6 74 19 0 0 0 0 0 0 0 0 0 0 0 0
X 1 37
A 94 10 0 0 93 6 74 22 0 0 0 0 0 0 0 0 0 0 0 0
X 1 13
A 97 1 0 1 0 83 638 0 0 0 0 0 0 0 0 0 0 0 0 0
A 98 10 0 0 0 6 97 1 0 0 0 0 0 0 0 0 0 0 0 0
X 1 20
A 99 10 0 0 98 6 97 4 0 0 0 0 0 0 0 0 0 0 0 0
X 1 23
A 100 4 0 0 0 6 99 0 3 0 0 0 0 2 0 0 0 0 0 0
A 101 4 0 0 0 6 98 0 100 0 0 0 0 1 0 0 0 0 0 0
A 102 10 0 0 99 6 97 7 0 0 0 0 0 0 0 0 0 0 0 0
X 1 27
A 103 10 0 0 102 6 97 10 0 0 0 0 0 0 0 0 0 0 0 0
X 1 29
A 104 4 0 0 0 6 103 0 3 0 0 0 0 2 0 0 0 0 0 0
A 105 4 0 0 0 6 102 0 104 0 0 0 0 1 0 0 0 0 0 0
A 106 10 0 0 103 6 97 13 0 0 0 0 0 0 0 0 0 0 0 0
X 1 33
A 107 10 0 0 106 6 97 16 0 0 0 0 0 0 0 0 0 0 0 0
X 1 35
A 108 10 0 0 107 6 97 19 0 0 0 0 0 0 0 0 0 0 0 0
X 1 37
A 109 10 0 0 108 6 97 22 0 0 0 0 0 0 0 0 0 0 0 0
X 1 13
Z
Z
