V26 freq_ph
9 phcom.F90 S582 0
04/24/2012  16:05:16
use kinds private
use kinds private
enduse
D 56 21 9 1 3 17 0 0 0 0 0
 0 17 3 3 17 17
S 582 24 0 0 0 9 1 0 4658 5 0 A 0 0 0 0 0 0 0 0 0 0 0 0 320 0 0 0 0 0 0 0 0 305 0 0 0 0 0 0 freq_ph
S 584 23 0 0 0 9 587 582 4672 4 0 A 0 0 0 0 0 0 0 0 0 0 0 0 0 0 0 0 0 0 0 0 0 0 0 582 0 0 0 0 dp
R 587 16 1 kinds dp
S 594 6 4 0 0 16 597 582 4706 4 0 A 0 0 0 0 0 0 0 0 0 0 0 0 599 0 0 0 0 0 0 0 0 0 0 582 0 0 0 0 fpol
S 595 16 1 0 0 6 0 582 4711 800004 400000 A 0 0 0 0 0 0 0 0 50 17 0 0 0 0 0 0 0 0 0 0 0 0 0 582 0 0 0 0 nfsmax
S 596 3 0 0 0 6 0 1 0 0 0 A 0 0 0 0 0 0 0 0 0 50 0 0 0 0 0 0 0 0 0 0 0 0 0 0 0 0 0 0 6
S 597 6 4 0 0 6 1 582 4718 4 0 A 0 0 0 0 0 4 0 0 0 0 0 0 599 0 0 0 0 0 0 0 0 0 0 582 0 0 0 0 nfs
S 598 7 4 0 4 56 1 582 4722 800004 100 A 0 0 0 0 0 0 0 0 0 0 0 0 600 0 0 0 0 0 0 0 0 0 0 582 0 0 0 0 fiu
S 599 11 0 0 0 9 1 582 4726 40800000 801000 A 0 0 0 0 0 8 0 0 594 597 0 0 0 0 0 0 0 0 0 0 0 0 0 0 0 0 0 0 _freq_ph$0
S 600 11 0 0 4 9 599 582 4737 40800000 801000 A 0 0 0 0 0 400 0 0 598 598 0 0 0 0 0 0 0 0 0 0 0 0 0 0 0 0 0 0 _freq_ph$2
A 17 2 0 0 0 6 596 0 0 0 17 0 0 0 0 0 0 0 0 0
Z
Z
