V26 gamma_gamma
9 phcom.F90 S582 0
04/24/2012  16:05:16
enduse
D 56 21 6 1 26 24 0 1 0 0 1
 16 20 22 16 20 18
D 59 21 6 1 0 13 0 0 0 0 0
 0 13 0 3 13 0
D 62 21 6 1 35 34 0 1 0 0 1
 29 32 33 29 32 30
D 65 21 6 1 0 13 0 0 0 0 0
 0 13 0 3 13 0
D 68 21 6 2 54 53 0 1 0 0 1
 40 43 50 40 43 41
 45 49 52 45 49 47
D 71 21 6 1 0 38 0 0 0 0 0
 0 38 0 3 38 0
S 582 24 0 0 0 9 1 0 4658 5 0 A 0 0 0 0 0 0 0 0 0 0 0 0 262 0 0 0 0 0 0 0 0 251 0 0 0 0 0 0 gamma_gamma
S 583 7 6 0 0 56 1 582 4670 10a00004 51 A 0 0 0 0 0 0 587 0 0 0 589 0 0 0 0 0 0 0 0 586 0 0 588 582 0 0 0 0 has_equivalent
S 584 6 4 0 0 6 596 582 4685 40800006 0 A 0 0 0 0 0 0 0 0 0 0 0 0 615 0 0 0 0 0 0 0 0 0 0 582 0 0 0 0 z_b_0
S 585 3 0 0 0 6 0 1 0 0 0 A 0 0 0 0 0 0 0 0 0 18 0 0 0 0 0 0 0 0 0 0 0 0 0 0 0 0 0 0 6
S 586 8 4 0 0 59 598 582 4691 40822004 1020 A 0 0 0 0 0 0 0 0 0 0 0 0 615 0 0 0 0 0 0 0 0 0 0 582 0 0 0 0 has_equivalent$sd
S 587 6 4 0 0 7 588 582 4709 40802001 1020 A 0 0 0 0 0 0 0 0 0 0 0 0 615 0 0 0 0 0 0 0 0 0 0 582 0 0 0 0 has_equivalent$p
S 588 6 4 0 0 7 586 582 4726 40802000 1020 A 0 0 0 0 0 0 0 0 0 0 0 0 615 0 0 0 0 0 0 0 0 0 0 582 0 0 0 0 has_equivalent$o
S 589 22 1 0 0 9 1 582 4743 40000000 1000 A 0 0 0 0 0 0 0 583 0 0 0 0 586 0 0 0 0 0 0 0 0 0 0 582 0 0 0 0 has_equivalent$arrdsc
S 590 3 0 0 0 6 0 1 0 0 0 A 0 0 0 0 0 0 0 0 0 13 0 0 0 0 0 0 0 0 0 0 0 0 0 0 0 0 0 0 6
S 591 3 0 0 0 6 0 1 0 0 0 A 0 0 0 0 0 0 0 0 0 14 0 0 0 0 0 0 0 0 0 0 0 0 0 0 0 0 0 0 6
S 592 3 0 0 0 6 0 1 0 0 0 A 0 0 0 0 0 0 0 0 0 17 0 0 0 0 0 0 0 0 0 0 0 0 0 0 0 0 0 0 6
S 593 3 0 0 0 6 0 1 0 0 0 A 0 0 0 0 0 0 0 0 0 7 0 0 0 0 0 0 0 0 0 0 0 0 0 0 0 0 0 0 6
S 594 3 0 0 0 6 0 1 0 0 0 A 0 0 0 0 0 0 0 0 0 8 0 0 0 0 0 0 0 0 0 0 0 0 0 0 0 0 0 0 6
S 595 7 6 0 0 62 1 582 4765 10a00004 51 A 0 0 0 0 0 0 598 0 0 0 600 0 0 0 0 0 0 0 0 597 0 0 599 582 0 0 0 0 n_equiv_atoms
S 596 6 4 0 0 6 602 582 4779 40800006 0 A 0 0 0 0 0 4 0 0 0 0 0 0 615 0 0 0 0 0 0 0 0 0 0 582 0 0 0 0 z_b_1
S 597 8 4 0 0 65 606 582 4785 40822004 1020 A 0 0 0 0 0 0 0 0 0 0 0 0 615 0 0 0 0 0 0 0 0 0 0 582 0 0 0 0 n_equiv_atoms$sd
S 598 6 4 0 0 7 599 582 4802 40802001 1020 A 0 0 0 0 0 0 0 0 0 0 0 0 615 0 0 0 0 0 0 0 0 0 0 582 0 0 0 0 n_equiv_atoms$p
S 599 6 4 0 0 7 597 582 4818 40802000 1020 A 0 0 0 0 0 0 0 0 0 0 0 0 615 0 0 0 0 0 0 0 0 0 0 582 0 0 0 0 n_equiv_atoms$o
S 600 22 1 0 0 6 1 582 4834 40000000 1000 A 0 0 0 0 0 0 0 595 0 0 0 0 597 0 0 0 0 0 0 0 0 0 0 582 0 0 0 0 n_equiv_atoms$arrdsc
S 601 7 6 0 0 68 1 582 4855 10a00004 51 A 0 0 0 0 0 0 606 0 0 0 608 0 0 0 0 0 0 0 0 605 0 0 607 582 0 0 0 0 equiv_atoms
S 602 6 4 0 0 6 603 582 4867 40800006 0 A 0 0 0 0 0 8 0 0 0 0 0 0 615 0 0 0 0 0 0 0 0 0 0 582 0 0 0 0 z_b_2
S 603 6 4 0 0 6 612 582 4873 40800006 0 A 0 0 0 0 0 12 0 0 0 0 0 0 615 0 0 0 0 0 0 0 0 0 0 582 0 0 0 0 z_b_3
S 604 3 0 0 0 6 0 1 0 0 0 A 0 0 0 0 0 0 0 0 0 24 0 0 0 0 0 0 0 0 0 0 0 0 0 0 0 0 0 0 6
S 605 8 4 0 0 71 584 582 4879 40822004 1020 A 0 0 0 0 0 0 0 0 0 0 0 0 615 0 0 0 0 0 0 0 0 0 0 582 0 0 0 0 equiv_atoms$sd
S 606 6 4 0 0 7 607 582 4894 40802001 1020 A 0 0 0 0 0 0 0 0 0 0 0 0 615 0 0 0 0 0 0 0 0 0 0 582 0 0 0 0 equiv_atoms$p
S 607 6 4 0 0 7 605 582 4908 40802000 1020 A 0 0 0 0 0 0 0 0 0 0 0 0 615 0 0 0 0 0 0 0 0 0 0 582 0 0 0 0 equiv_atoms$o
S 608 22 1 0 0 9 1 582 4922 40000000 1000 A 0 0 0 0 0 0 0 601 0 0 0 0 605 0 0 0 0 0 0 0 0 0 0 582 0 0 0 0 equiv_atoms$arrdsc
S 609 3 0 0 0 6 0 1 0 0 0 A 0 0 0 0 0 0 0 0 0 19 0 0 0 0 0 0 0 0 0 0 0 0 0 0 0 0 0 0 6
S 610 3 0 0 0 6 0 1 0 0 0 A 0 0 0 0 0 0 0 0 0 20 0 0 0 0 0 0 0 0 0 0 0 0 0 0 0 0 0 0 6
S 611 3 0 0 0 6 0 1 0 0 0 A 0 0 0 0 0 0 0 0 0 23 0 0 0 0 0 0 0 0 0 0 0 0 0 0 0 0 0 0 6
S 612 6 4 0 0 6 613 582 4941 4 0 A 0 0 0 0 0 16 0 0 0 0 0 0 615 0 0 0 0 0 0 0 0 0 0 582 0 0 0 0 n_diff_sites
S 613 6 4 0 0 6 614 582 4954 4 0 A 0 0 0 0 0 20 0 0 0 0 0 0 615 0 0 0 0 0 0 0 0 0 0 582 0 0 0 0 nasr
S 614 6 4 0 0 16 1 582 4959 4 0 A 0 0 0 0 0 24 0 0 0 0 0 0 615 0 0 0 0 0 0 0 0 0 0 582 0 0 0 0 asr
S 615 11 0 0 0 9 1 582 4963 40800000 801000 A 0 0 0 0 0 316 0 0 587 614 0 0 0 0 0 0 0 0 0 0 0 0 0 0 0 0 0 0 _gamma_gamma$0
A 13 2 0 0 0 6 585 0 0 0 13 0 0 0 0 0 0 0 0 0
A 14 2 0 0 0 6 590 0 0 0 14 0 0 0 0 0 0 0 0 0
A 15 1 0 1 0 59 586 0 0 0 0 0 0 0 0 0 0 0 0 0
A 16 10 0 0 0 6 15 1 0 0 0 0 0 0 0 0 0 0 0 0
X 1 14
A 17 2 0 0 0 6 591 0 0 0 17 0 0 0 0 0 0 0 0 0
A 18 10 0 0 16 6 15 4 0 0 0 0 0 0 0 0 0 0 0 0
X 1 17
A 19 4 0 0 0 6 18 0 3 0 0 0 0 2 0 0 0 0 0 0
A 20 4 0 0 0 6 16 0 19 0 0 0 0 1 0 0 0 0 0 0
A 21 2 0 0 0 6 592 0 0 0 21 0 0 0 0 0 0 0 0 0
A 22 10 0 0 18 6 15 7 0 0 0 0 0 0 0 0 0 0 0 0
X 1 21
A 23 2 0 0 0 6 593 0 0 0 23 0 0 0 0 0 0 0 0 0
A 24 10 0 0 22 6 15 10 0 0 0 0 0 0 0 0 0 0 0 0
X 1 23
A 25 2 0 0 0 6 594 0 0 0 25 0 0 0 0 0 0 0 0 0
A 26 10 0 0 24 6 15 13 0 0 0 0 0 0 0 0 0 0 0 0
X 1 25
A 28 1 0 1 0 65 597 0 0 0 0 0 0 0 0 0 0 0 0 0
A 29 10 0 0 0 6 28 1 0 0 0 0 0 0 0 0 0 0 0 0
X 1 14
A 30 10 0 0 29 6 28 4 0 0 0 0 0 0 0 0 0 0 0 0
X 1 17
A 31 4 0 0 0 6 30 0 3 0 0 0 0 2 0 0 0 0 0 0
A 32 4 0 0 0 6 29 0 31 0 0 0 0 1 0 0 0 0 0 0
A 33 10 0 0 30 6 28 7 0 0 0 0 0 0 0 0 0 0 0 0
X 1 21
A 34 10 0 0 33 6 28 10 0 0 0 0 0 0 0 0 0 0 0 0
X 1 23
A 35 10 0 0 34 6 28 13 0 0 0 0 0 0 0 0 0 0 0 0
X 1 25
A 38 2 0 0 0 6 604 0 0 0 38 0 0 0 0 0 0 0 0 0
A 39 1 0 3 0 71 605 0 0 0 0 0 0 0 0 0 0 0 0 0
A 40 10 0 0 0 6 39 1 0 0 0 0 0 0 0 0 0 0 0 0
X 1 14
A 41 10 0 0 40 6 39 4 0 0 0 0 0 0 0 0 0 0 0 0
X 1 17
A 42 4 0 0 0 6 41 0 3 0 0 0 0 2 0 0 0 0 0 0
A 43 4 0 0 0 6 40 0 42 0 0 0 0 1 0 0 0 0 0 0
A 44 2 0 0 0 6 609 0 0 0 44 0 0 0 0 0 0 0 0 0
A 45 10 0 0 41 6 39 16 0 0 0 0 0 0 0 0 0 0 0 0
X 1 44
A 46 2 0 0 0 6 610 0 0 0 46 0 0 0 0 0 0 0 0 0
A 47 10 0 0 45 6 39 19 0 0 0 0 0 0 0 0 0 0 0 0
X 1 46
A 48 4 0 0 0 6 47 0 3 0 0 0 0 2 0 0 0 0 0 0
A 49 4 0 0 0 6 45 0 48 0 0 0 0 1 0 0 0 0 0 0
A 50 10 0 0 47 6 39 7 0 0 0 0 0 0 0 0 0 0 0 0
X 1 21
A 51 2 0 0 0 6 611 0 0 0 51 0 0 0 0 0 0 0 0 0
A 52 10 0 0 50 6 39 22 0 0 0 0 0 0 0 0 0 0 0 0
X 1 51
A 53 10 0 0 52 6 39 10 0 0 0 0 0 0 0 0 0 0 0 0
X 1 23
A 54 10 0 0 53 6 39 13 0 0 0 0 0 0 0 0 0 0 0 0
X 1 25
Z
Z
