V26 gc_ph
9 phcom.F90 S582 0
04/24/2012  16:05:16
use kinds private
use kinds private
enduse
D 56 21 9 3 48 47 0 1 0 0 1
 23 27 41 23 27 25
 29 33 43 29 33 31
 35 39 45 35 39 37
D 59 21 6 1 0 20 0 0 0 0 0
 0 20 0 3 20 0
D 62 21 9 3 69 68 0 1 0 0 1
 53 56 65 53 56 54
 57 60 66 57 60 58
 61 64 67 61 64 62
D 65 21 6 1 0 20 0 0 0 0 0
 0 20 0 3 20 0
D 68 21 9 1 79 78 0 1 0 0 1
 73 76 77 73 76 74
D 71 21 6 1 0 71 0 0 0 0 0
 0 71 0 3 71 0
D 74 21 9 1 88 87 0 1 0 0 1
 82 85 86 82 85 83
D 77 21 6 1 0 71 0 0 0 0 0
 0 71 0 3 71 0
D 80 21 9 3 109 108 0 1 0 0 1
 93 96 105 93 96 94
 97 100 106 97 100 98
 101 104 107 101 104 102
D 83 21 6 1 0 20 0 0 0 0 0
 0 20 0 3 20 0
D 86 21 9 3 130 129 0 1 0 0 1
 114 117 126 114 117 115
 118 121 127 118 121 119
 122 125 128 122 125 123
D 89 21 6 1 0 20 0 0 0 0 0
 0 20 0 3 20 0
D 92 21 9 3 151 150 0 1 0 0 1
 135 138 147 135 138 136
 139 142 148 139 142 140
 143 146 149 143 146 144
D 95 21 6 1 0 20 0 0 0 0 0
 0 20 0 3 20 0
D 98 21 9 3 172 171 0 1 0 0 1
 156 159 168 156 159 157
 160 163 169 160 163 161
 164 167 170 164 167 165
D 101 21 6 1 0 20 0 0 0 0 0
 0 20 0 3 20 0
S 582 24 0 0 0 9 1 0 4658 5 0 A 0 0 0 0 0 0 0 0 0 0 0 0 179 0 0 0 0 0 0 0 0 153 0 0 0 0 0 0 gc_ph
S 584 23 0 0 0 9 587 582 4670 4 0 A 0 0 0 0 0 0 0 0 0 0 0 0 0 0 0 0 0 0 0 0 0 0 0 582 0 0 0 0 dp
S 585 3 0 0 0 6 1 1 0 0 0 A 0 0 0 0 0 0 0 0 0 8 0 0 0 0 0 0 0 0 0 0 0 0 0 0 0 0 0 0 6
R 587 16 1 kinds dp
S 594 7 6 0 0 56 1 582 4704 10a00004 51 A 0 0 0 0 0 0 600 0 0 0 602 0 0 0 0 0 0 0 0 599 0 0 601 582 0 0 0 0 grho
S 595 6 4 0 0 6 596 582 4709 40800006 0 A 0 0 0 0 0 0 0 0 0 0 0 0 666 0 0 0 0 0 0 0 0 0 0 582 0 0 0 0 z_b_0
S 596 6 4 0 0 6 597 582 4715 40800006 0 A 0 0 0 0 0 4 0 0 0 0 0 0 666 0 0 0 0 0 0 0 0 0 0 582 0 0 0 0 z_b_1
S 597 6 4 0 0 6 614 582 4721 40800006 0 A 0 0 0 0 0 8 0 0 0 0 0 0 666 0 0 0 0 0 0 0 0 0 0 582 0 0 0 0 z_b_2
S 598 3 0 0 0 6 0 1 0 0 0 A 0 0 0 0 0 0 0 0 0 30 0 0 0 0 0 0 0 0 0 0 0 0 0 0 0 0 0 0 6
S 599 8 4 0 0 59 618 582 4727 40822064 1020 A 0 0 0 0 0 0 0 0 0 0 0 0 666 0 0 0 0 0 0 0 0 0 0 582 0 0 0 0 grho$sd
S 600 6 4 0 0 7 601 582 4735 40802061 1020 A 0 0 0 0 0 120 0 0 0 0 0 0 666 0 0 0 0 0 0 0 0 0 0 582 0 0 0 0 grho$p
S 601 6 4 0 0 7 599 582 4742 40802060 1020 A 0 0 0 0 0 128 0 0 0 0 0 0 666 0 0 0 0 0 0 0 0 0 0 582 0 0 0 0 grho$o
S 602 22 1 0 0 9 1 582 4749 40000000 1000 A 0 0 0 0 0 0 0 594 0 0 0 0 599 0 0 0 0 0 0 0 0 0 0 582 0 0 0 0 grho$arrdsc
S 603 3 0 0 0 6 0 1 0 0 0 A 0 0 0 0 0 0 0 0 0 13 0 0 0 0 0 0 0 0 0 0 0 0 0 0 0 0 0 0 6
S 604 3 0 0 0 6 0 1 0 0 0 A 0 0 0 0 0 0 0 0 0 14 0 0 0 0 0 0 0 0 0 0 0 0 0 0 0 0 0 0 6
S 605 3 0 0 0 6 0 1 0 0 0 A 0 0 0 0 0 0 0 0 0 19 0 0 0 0 0 0 0 0 0 0 0 0 0 0 0 0 0 0 6
S 606 3 0 0 0 6 0 1 0 0 0 A 0 0 0 0 0 0 0 0 0 20 0 0 0 0 0 0 0 0 0 0 0 0 0 0 0 0 0 0 6
S 607 3 0 0 0 6 0 1 0 0 0 A 0 0 0 0 0 0 0 0 0 25 0 0 0 0 0 0 0 0 0 0 0 0 0 0 0 0 0 0 6
S 608 3 0 0 0 6 0 1 0 0 0 A 0 0 0 0 0 0 0 0 0 26 0 0 0 0 0 0 0 0 0 0 0 0 0 0 0 0 0 0 6
S 609 3 0 0 0 6 0 1 0 0 0 A 0 0 0 0 0 0 0 0 0 17 0 0 0 0 0 0 0 0 0 0 0 0 0 0 0 0 0 0 6
S 610 3 0 0 0 6 0 1 0 0 0 A 0 0 0 0 0 0 0 0 0 23 0 0 0 0 0 0 0 0 0 0 0 0 0 0 0 0 0 0 6
S 611 3 0 0 0 6 0 1 0 0 0 A 0 0 0 0 0 0 0 0 0 29 0 0 0 0 0 0 0 0 0 0 0 0 0 0 0 0 0 0 6
S 612 3 0 0 0 6 0 1 0 0 0 A 0 0 0 0 0 0 0 0 0 7 0 0 0 0 0 0 0 0 0 0 0 0 0 0 0 0 0 0 6
S 613 7 6 0 0 62 1 582 4761 10a00004 51 A 0 0 0 0 0 0 618 0 0 0 620 0 0 0 0 0 0 0 0 617 0 0 619 582 0 0 0 0 gmag
S 614 6 4 0 0 6 615 582 4766 40800006 0 A 0 0 0 0 0 12 0 0 0 0 0 0 666 0 0 0 0 0 0 0 0 0 0 582 0 0 0 0 z_b_3
S 615 6 4 0 0 6 616 582 4772 40800006 0 A 0 0 0 0 0 16 0 0 0 0 0 0 666 0 0 0 0 0 0 0 0 0 0 582 0 0 0 0 z_b_4
S 616 6 4 0 0 6 622 582 4778 40800006 0 A 0 0 0 0 0 20 0 0 0 0 0 0 666 0 0 0 0 0 0 0 0 0 0 582 0 0 0 0 z_b_5
S 617 8 4 0 0 65 625 582 4784 40822064 1020 A 0 0 0 0 0 136 0 0 0 0 0 0 666 0 0 0 0 0 0 0 0 0 0 582 0 0 0 0 gmag$sd
S 618 6 4 0 0 7 619 582 4792 40802061 1020 A 0 0 0 0 0 256 0 0 0 0 0 0 666 0 0 0 0 0 0 0 0 0 0 582 0 0 0 0 gmag$p
S 619 6 4 0 0 7 617 582 4799 40802060 1020 A 0 0 0 0 0 264 0 0 0 0 0 0 666 0 0 0 0 0 0 0 0 0 0 582 0 0 0 0 gmag$o
S 620 22 1 0 0 9 1 582 4806 40000000 1000 A 0 0 0 0 0 0 0 613 0 0 0 0 617 0 0 0 0 0 0 0 0 0 0 582 0 0 0 0 gmag$arrdsc
S 621 7 6 0 0 68 1 582 4818 10a00004 51 A 0 0 0 0 0 0 625 0 0 0 627 0 0 0 0 0 0 0 0 624 0 0 626 582 0 0 0 0 vsgga
S 622 6 4 0 0 6 629 582 4824 40800006 0 A 0 0 0 0 0 24 0 0 0 0 0 0 666 0 0 0 0 0 0 0 0 0 0 582 0 0 0 0 z_b_6
S 623 3 0 0 0 6 0 1 0 0 0 A 0 0 0 0 0 0 0 0 0 18 0 0 0 0 0 0 0 0 0 0 0 0 0 0 0 0 0 0 6
S 624 8 4 0 0 71 631 582 4830 40822064 1020 A 0 0 0 0 0 272 0 0 0 0 0 0 666 0 0 0 0 0 0 0 0 0 0 582 0 0 0 0 vsgga$sd
S 625 6 4 0 0 7 626 582 4839 40802061 1020 A 0 0 0 0 0 344 0 0 0 0 0 0 666 0 0 0 0 0 0 0 0 0 0 582 0 0 0 0 vsgga$p
S 626 6 4 0 0 7 624 582 4847 40802060 1020 A 0 0 0 0 0 352 0 0 0 0 0 0 666 0 0 0 0 0 0 0 0 0 0 582 0 0 0 0 vsgga$o
S 627 22 1 0 0 9 1 582 4855 40000000 1000 A 0 0 0 0 0 0 0 621 0 0 0 0 624 0 0 0 0 0 0 0 0 0 0 582 0 0 0 0 vsgga$arrdsc
S 628 7 6 0 0 74 1 582 4868 10a00004 51 A 0 0 0 0 0 0 631 0 0 0 633 0 0 0 0 0 0 0 0 630 0 0 632 582 0 0 0 0 segni
S 629 6 4 0 0 6 635 582 4874 40800006 0 A 0 0 0 0 0 28 0 0 0 0 0 0 666 0 0 0 0 0 0 0 0 0 0 582 0 0 0 0 z_b_7
S 630 8 4 0 0 77 639 582 4880 40822064 1020 A 0 0 0 0 0 360 0 0 0 0 0 0 666 0 0 0 0 0 0 0 0 0 0 582 0 0 0 0 segni$sd
S 631 6 4 0 0 7 632 582 4889 40802061 1020 A 0 0 0 0 0 432 0 0 0 0 0 0 666 0 0 0 0 0 0 0 0 0 0 582 0 0 0 0 segni$p
S 632 6 4 0 0 7 630 582 4897 40802060 1020 A 0 0 0 0 0 440 0 0 0 0 0 0 666 0 0 0 0 0 0 0 0 0 0 582 0 0 0 0 segni$o
S 633 22 1 0 0 9 1 582 4905 40000000 1000 A 0 0 0 0 0 0 0 628 0 0 0 0 630 0 0 0 0 0 0 0 0 0 0 582 0 0 0 0 segni$arrdsc
S 634 7 6 0 0 80 1 582 4918 10a00004 51 A 0 0 0 0 0 0 639 0 0 0 641 0 0 0 0 0 0 0 0 638 0 0 640 582 0 0 0 0 dvxc_rr
S 635 6 4 0 0 6 636 582 4926 40800006 0 A 0 0 0 0 0 32 0 0 0 0 0 0 666 0 0 0 0 0 0 0 0 0 0 582 0 0 0 0 z_b_8
S 636 6 4 0 0 6 637 582 4932 40800006 0 A 0 0 0 0 0 36 0 0 0 0 0 0 666 0 0 0 0 0 0 0 0 0 0 582 0 0 0 0 z_b_9
S 637 6 4 0 0 6 643 582 4938 40800006 0 A 0 0 0 0 0 40 0 0 0 0 0 0 666 0 0 0 0 0 0 0 0 0 0 582 0 0 0 0 z_b_10
S 638 8 4 0 0 83 647 582 4945 40822064 1020 A 0 0 0 0 0 448 0 0 0 0 0 0 666 0 0 0 0 0 0 0 0 0 0 582 0 0 0 0 dvxc_rr$sd
S 639 6 4 0 0 7 640 582 4956 40802061 1020 A 0 0 0 0 0 568 0 0 0 0 0 0 666 0 0 0 0 0 0 0 0 0 0 582 0 0 0 0 dvxc_rr$p
S 640 6 4 0 0 7 638 582 4966 40802060 1020 A 0 0 0 0 0 576 0 0 0 0 0 0 666 0 0 0 0 0 0 0 0 0 0 582 0 0 0 0 dvxc_rr$o
S 641 22 1 0 0 9 1 582 4976 40000000 1000 A 0 0 0 0 0 0 0 634 0 0 0 0 638 0 0 0 0 0 0 0 0 0 0 582 0 0 0 0 dvxc_rr$arrdsc
S 642 7 6 0 0 86 1 582 4991 10a00004 51 A 0 0 0 0 0 0 647 0 0 0 649 0 0 0 0 0 0 0 0 646 0 0 648 582 0 0 0 0 dvxc_sr
S 643 6 4 0 0 6 644 582 4999 40800006 0 A 0 0 0 0 0 44 0 0 0 0 0 0 666 0 0 0 0 0 0 0 0 0 0 582 0 0 0 0 z_b_11
S 644 6 4 0 0 6 645 582 5006 40800006 0 A 0 0 0 0 0 48 0 0 0 0 0 0 666 0 0 0 0 0 0 0 0 0 0 582 0 0 0 0 z_b_12
S 645 6 4 0 0 6 651 582 5013 40800006 0 A 0 0 0 0 0 52 0 0 0 0 0 0 666 0 0 0 0 0 0 0 0 0 0 582 0 0 0 0 z_b_13
S 646 8 4 0 0 89 655 582 5020 40822064 1020 A 0 0 0 0 0 584 0 0 0 0 0 0 666 0 0 0 0 0 0 0 0 0 0 582 0 0 0 0 dvxc_sr$sd
S 647 6 4 0 0 7 648 582 5031 40802061 1020 A 0 0 0 0 0 704 0 0 0 0 0 0 666 0 0 0 0 0 0 0 0 0 0 582 0 0 0 0 dvxc_sr$p
S 648 6 4 0 0 7 646 582 5041 40802060 1020 A 0 0 0 0 0 712 0 0 0 0 0 0 666 0 0 0 0 0 0 0 0 0 0 582 0 0 0 0 dvxc_sr$o
S 649 22 1 0 0 9 1 582 5051 40000000 1000 A 0 0 0 0 0 0 0 642 0 0 0 0 646 0 0 0 0 0 0 0 0 0 0 582 0 0 0 0 dvxc_sr$arrdsc
S 650 7 6 0 0 92 1 582 5066 10a00004 51 A 0 0 0 0 0 0 655 0 0 0 657 0 0 0 0 0 0 0 0 654 0 0 656 582 0 0 0 0 dvxc_ss
S 651 6 4 0 0 6 652 582 5074 40800006 0 A 0 0 0 0 0 56 0 0 0 0 0 0 666 0 0 0 0 0 0 0 0 0 0 582 0 0 0 0 z_b_14
S 652 6 4 0 0 6 653 582 5081 40800006 0 A 0 0 0 0 0 60 0 0 0 0 0 0 666 0 0 0 0 0 0 0 0 0 0 582 0 0 0 0 z_b_15
S 653 6 4 0 0 6 659 582 5088 40800006 0 A 0 0 0 0 0 64 0 0 0 0 0 0 666 0 0 0 0 0 0 0 0 0 0 582 0 0 0 0 z_b_16
S 654 8 4 0 0 95 663 582 5095 40822064 1020 A 0 0 0 0 0 720 0 0 0 0 0 0 666 0 0 0 0 0 0 0 0 0 0 582 0 0 0 0 dvxc_ss$sd
S 655 6 4 0 0 7 656 582 5106 40802061 1020 A 0 0 0 0 0 840 0 0 0 0 0 0 666 0 0 0 0 0 0 0 0 0 0 582 0 0 0 0 dvxc_ss$p
S 656 6 4 0 0 7 654 582 5116 40802060 1020 A 0 0 0 0 0 848 0 0 0 0 0 0 666 0 0 0 0 0 0 0 0 0 0 582 0 0 0 0 dvxc_ss$o
S 657 22 1 0 0 9 1 582 5126 40000000 1000 A 0 0 0 0 0 0 0 650 0 0 0 0 654 0 0 0 0 0 0 0 0 0 0 582 0 0 0 0 dvxc_ss$arrdsc
S 658 7 6 0 0 98 1 582 5141 10a00004 51 A 0 0 0 0 0 0 663 0 0 0 665 0 0 0 0 0 0 0 0 662 0 0 664 582 0 0 0 0 dvxc_s
S 659 6 4 0 0 6 660 582 5148 40800006 0 A 0 0 0 0 0 68 0 0 0 0 0 0 666 0 0 0 0 0 0 0 0 0 0 582 0 0 0 0 z_b_17
S 660 6 4 0 0 6 661 582 5155 40800006 0 A 0 0 0 0 0 72 0 0 0 0 0 0 666 0 0 0 0 0 0 0 0 0 0 582 0 0 0 0 z_b_18
S 661 6 4 0 0 6 1 582 5162 40800006 0 A 0 0 0 0 0 76 0 0 0 0 0 0 666 0 0 0 0 0 0 0 0 0 0 582 0 0 0 0 z_b_19
S 662 8 4 0 0 101 595 582 5169 40822064 1020 A 0 0 0 0 0 856 0 0 0 0 0 0 666 0 0 0 0 0 0 0 0 0 0 582 0 0 0 0 dvxc_s$sd
S 663 6 4 0 0 7 664 582 5179 40802061 1020 A 0 0 0 0 0 976 0 0 0 0 0 0 666 0 0 0 0 0 0 0 0 0 0 582 0 0 0 0 dvxc_s$p
S 664 6 4 0 0 7 662 582 5188 40802060 1020 A 0 0 0 0 0 984 0 0 0 0 0 0 666 0 0 0 0 0 0 0 0 0 0 582 0 0 0 0 dvxc_s$o
S 665 22 1 0 0 9 1 582 5197 40000000 1000 A 0 0 0 0 0 0 0 658 0 0 0 0 662 0 0 0 0 0 0 0 0 0 0 582 0 0 0 0 dvxc_s$arrdsc
S 666 11 0 0 0 9 1 582 5211 40800000 801000 A 0 0 0 0 0 1072 0 0 600 661 0 0 0 0 0 0 0 0 0 0 0 0 0 0 0 0 0 0 _gc_ph$0
A 13 2 0 0 0 6 585 0 0 0 13 0 0 0 0 0 0 0 0 0
A 20 2 0 0 0 6 598 0 0 0 20 0 0 0 0 0 0 0 0 0
A 21 2 0 0 0 6 603 0 0 0 21 0 0 0 0 0 0 0 0 0
A 22 1 0 1 0 59 599 0 0 0 0 0 0 0 0 0 0 0 0 0
A 23 10 0 0 0 6 22 1 0 0 0 0 0 0 0 0 0 0 0 0
X 1 21
A 24 2 0 0 0 6 604 0 0 0 24 0 0 0 0 0 0 0 0 0
A 25 10 0 0 23 6 22 4 0 0 0 0 0 0 0 0 0 0 0 0
X 1 24
A 26 4 0 0 0 6 25 0 3 0 0 0 0 2 0 0 0 0 0 0
A 27 4 0 0 0 6 23 0 26 0 0 0 0 1 0 0 0 0 0 0
A 28 2 0 0 0 6 605 0 0 0 28 0 0 0 0 0 0 0 0 0
A 29 10 0 0 25 6 22 7 0 0 0 0 0 0 0 0 0 0 0 0
X 1 28
A 30 2 0 0 0 6 606 0 0 0 30 0 0 0 0 0 0 0 0 0
A 31 10 0 0 29 6 22 10 0 0 0 0 0 0 0 0 0 0 0 0
X 1 30
A 32 4 0 0 0 6 31 0 3 0 0 0 0 2 0 0 0 0 0 0
A 33 4 0 0 0 6 29 0 32 0 0 0 0 1 0 0 0 0 0 0
A 34 2 0 0 0 6 607 0 0 0 34 0 0 0 0 0 0 0 0 0
A 35 10 0 0 31 6 22 13 0 0 0 0 0 0 0 0 0 0 0 0
X 1 34
A 36 2 0 0 0 6 608 0 0 0 36 0 0 0 0 0 0 0 0 0
A 37 10 0 0 35 6 22 16 0 0 0 0 0 0 0 0 0 0 0 0
X 1 36
A 38 4 0 0 0 6 37 0 3 0 0 0 0 2 0 0 0 0 0 0
A 39 4 0 0 0 6 35 0 38 0 0 0 0 1 0 0 0 0 0 0
A 40 2 0 0 0 6 609 0 0 0 40 0 0 0 0 0 0 0 0 0
A 41 10 0 0 37 6 22 19 0 0 0 0 0 0 0 0 0 0 0 0
X 1 40
A 42 2 0 0 0 6 610 0 0 0 42 0 0 0 0 0 0 0 0 0
A 43 10 0 0 41 6 22 22 0 0 0 0 0 0 0 0 0 0 0 0
X 1 42
A 44 2 0 0 0 6 611 0 0 0 44 0 0 0 0 0 0 0 0 0
A 45 10 0 0 43 6 22 25 0 0 0 0 0 0 0 0 0 0 0 0
X 1 44
A 46 2 0 0 0 6 612 0 0 0 46 0 0 0 0 0 0 0 0 0
A 47 10 0 0 45 6 22 28 0 0 0 0 0 0 0 0 0 0 0 0
X 1 46
A 48 10 0 0 47 6 22 31 0 0 0 0 0 0 0 0 0 0 0 0
X 1 13
A 52 1 0 1 0 65 617 0 0 0 0 0 0 0 0 0 0 0 0 0
A 53 10 0 0 0 6 52 1 0 0 0 0 0 0 0 0 0 0 0 0
X 1 21
A 54 10 0 0 53 6 52 4 0 0 0 0 0 0 0 0 0 0 0 0
X 1 24
A 55 4 0 0 0 6 54 0 3 0 0 0 0 2 0 0 0 0 0 0
A 56 4 0 0 0 6 53 0 55 0 0 0 0 1 0 0 0 0 0 0
A 57 10 0 0 54 6 52 7 0 0 0 0 0 0 0 0 0 0 0 0
X 1 28
A 58 10 0 0 57 6 52 10 0 0 0 0 0 0 0 0 0 0 0 0
X 1 30
A 59 4 0 0 0 6 58 0 3 0 0 0 0 2 0 0 0 0 0 0
A 60 4 0 0 0 6 57 0 59 0 0 0 0 1 0 0 0 0 0 0
A 61 10 0 0 58 6 52 13 0 0 0 0 0 0 0 0 0 0 0 0
X 1 34
A 62 10 0 0 61 6 52 16 0 0 0 0 0 0 0 0 0 0 0 0
X 1 36
A 63 4 0 0 0 6 62 0 3 0 0 0 0 2 0 0 0 0 0 0
A 64 4 0 0 0 6 61 0 63 0 0 0 0 1 0 0 0 0 0 0
A 65 10 0 0 62 6 52 19 0 0 0 0 0 0 0 0 0 0 0 0
X 1 40
A 66 10 0 0 65 6 52 22 0 0 0 0 0 0 0 0 0 0 0 0
X 1 42
A 67 10 0 0 66 6 52 25 0 0 0 0 0 0 0 0 0 0 0 0
X 1 44
A 68 10 0 0 67 6 52 28 0 0 0 0 0 0 0 0 0 0 0 0
X 1 46
A 69 10 0 0 68 6 52 31 0 0 0 0 0 0 0 0 0 0 0 0
X 1 13
A 71 2 0 0 0 6 623 0 0 0 71 0 0 0 0 0 0 0 0 0
A 72 1 0 3 0 71 624 0 0 0 0 0 0 0 0 0 0 0 0 0
A 73 10 0 0 0 6 72 1 0 0 0 0 0 0 0 0 0 0 0 0
X 1 21
A 74 10 0 0 73 6 72 4 0 0 0 0 0 0 0 0 0 0 0 0
X 1 24
A 75 4 0 0 0 6 74 0 3 0 0 0 0 2 0 0 0 0 0 0
A 76 4 0 0 0 6 73 0 75 0 0 0 0 1 0 0 0 0 0 0
A 77 10 0 0 74 6 72 19 0 0 0 0 0 0 0 0 0 0 0 0
X 1 40
A 78 10 0 0 77 6 72 28 0 0 0 0 0 0 0 0 0 0 0 0
X 1 46
A 79 10 0 0 78 6 72 31 0 0 0 0 0 0 0 0 0 0 0 0
X 1 13
A 81 1 0 3 0 77 630 0 0 0 0 0 0 0 0 0 0 0 0 0
A 82 10 0 0 0 6 81 1 0 0 0 0 0 0 0 0 0 0 0 0
X 1 21
A 83 10 0 0 82 6 81 4 0 0 0 0 0 0 0 0 0 0 0 0
X 1 24
A 84 4 0 0 11 6 83 0 3 0 0 0 0 2 0 0 0 0 0 0
A 85 4 0 0 0 6 82 0 84 0 0 0 0 1 0 0 0 0 0 0
A 86 10 0 0 83 6 81 19 0 0 0 0 0 0 0 0 0 0 0 0
X 1 40
A 87 10 0 0 86 6 81 28 0 0 0 0 0 0 0 0 0 0 0 0
X 1 46
A 88 10 0 0 87 6 81 31 0 0 0 0 0 0 0 0 0 0 0 0
X 1 13
A 92 1 0 1 0 83 638 0 0 0 0 0 0 0 0 0 0 0 0 0
A 93 10 0 0 19 6 92 1 0 0 0 0 0 0 0 0 0 0 0 0
X 1 21
A 94 10 0 0 93 6 92 4 0 0 0 0 0 0 0 0 0 0 0 0
X 1 24
A 95 4 0 0 0 6 94 0 3 0 0 0 0 2 0 0 0 0 0 0
A 96 4 0 0 0 6 93 0 95 0 0 0 0 1 0 0 0 0 0 0
A 97 10 0 0 94 6 92 7 0 0 0 0 0 0 0 0 0 0 0 0
X 1 28
A 98 10 0 0 97 6 92 10 0 0 0 0 0 0 0 0 0 0 0 0
X 1 30
A 99 4 0 0 0 6 98 0 3 0 0 0 0 2 0 0 0 0 0 0
A 100 4 0 0 0 6 97 0 99 0 0 0 0 1 0 0 0 0 0 0
A 101 10 0 0 98 6 92 13 0 0 0 0 0 0 0 0 0 0 0 0
X 1 34
A 102 10 0 0 101 6 92 16 0 0 0 0 0 0 0 0 0 0 0 0
X 1 36
A 103 4 0 0 0 6 102 0 3 0 0 0 0 2 0 0 0 0 0 0
A 104 4 0 0 0 6 101 0 103 0 0 0 0 1 0 0 0 0 0 0
A 105 10 0 0 102 6 92 19 0 0 0 0 0 0 0 0 0 0 0 0
X 1 40
A 106 10 0 0 105 6 92 22 0 0 0 0 0 0 0 0 0 0 0 0
X 1 42
A 107 10 0 0 106 6 92 25 0 0 0 0 0 0 0 0 0 0 0 0
X 1 44
A 108 10 0 0 107 6 92 28 0 0 0 0 0 0 0 0 0 0 0 0
X 1 46
A 109 10 0 0 108 6 92 31 0 0 0 0 0 0 0 0 0 0 0 0
X 1 13
A 113 1 0 1 0 89 646 0 0 0 0 0 0 0 0 0 0 0 0 0
A 114 10 0 0 0 6 113 1 0 0 0 0 0 0 0 0 0 0 0 0
X 1 21
A 115 10 0 0 114 6 113 4 0 0 0 0 0 0 0 0 0 0 0 0
X 1 24
A 116 4 0 0 24 6 115 0 3 0 0 0 0 2 0 0 0 0 0 0
A 117 4 0 0 0 6 114 0 116 0 0 0 0 1 0 0 0 0 0 0
A 118 10 0 0 115 6 113 7 0 0 0 0 0 0 0 0 0 0 0 0
X 1 28
A 119 10 0 0 118 6 113 10 0 0 0 0 0 0 0 0 0 0 0 0
X 1 30
A 120 4 0 0 36 6 119 0 3 0 0 0 0 2 0 0 0 0 0 0
A 121 4 0 0 0 6 118 0 120 0 0 0 0 1 0 0 0 0 0 0
A 122 10 0 0 119 6 113 13 0 0 0 0 0 0 0 0 0 0 0 0
X 1 34
A 123 10 0 0 122 6 113 16 0 0 0 0 0 0 0 0 0 0 0 0
X 1 36
A 124 4 0 0 46 6 123 0 3 0 0 0 0 2 0 0 0 0 0 0
A 125 4 0 0 0 6 122 0 124 0 0 0 0 1 0 0 0 0 0 0
A 126 10 0 0 123 6 113 19 0 0 0 0 0 0 0 0 0 0 0 0
X 1 40
A 127 10 0 0 126 6 113 22 0 0 0 0 0 0 0 0 0 0 0 0
X 1 42
A 128 10 0 0 127 6 113 25 0 0 0 0 0 0 0 0 0 0 0 0
X 1 44
A 129 10 0 0 128 6 113 28 0 0 0 0 0 0 0 0 0 0 0 0
X 1 46
A 130 10 0 0 129 6 113 31 0 0 0 0 0 0 0 0 0 0 0 0
X 1 13
A 134 1 0 1 0 95 654 0 0 0 0 0 0 0 0 0 0 0 0 0
A 135 10 0 0 0 6 134 1 0 0 0 0 0 0 0 0 0 0 0 0
X 1 21
A 136 10 0 0 135 6 134 4 0 0 0 0 0 0 0 0 0 0 0 0
X 1 24
A 137 4 0 0 0 6 136 0 3 0 0 0 0 2 0 0 0 0 0 0
A 138 4 0 0 0 6 135 0 137 0 0 0 0 1 0 0 0 0 0 0
A 139 10 0 0 136 6 134 7 0 0 0 0 0 0 0 0 0 0 0 0
X 1 28
A 140 10 0 0 139 6 134 10 0 0 0 0 0 0 0 0 0 0 0 0
X 1 30
A 141 4 0 0 0 6 140 0 3 0 0 0 0 2 0 0 0 0 0 0
A 142 4 0 0 0 6 139 0 141 0 0 0 0 1 0 0 0 0 0 0
A 143 10 0 0 140 6 134 13 0 0 0 0 0 0 0 0 0 0 0 0
X 1 34
A 144 10 0 0 143 6 134 16 0 0 0 0 0 0 0 0 0 0 0 0
X 1 36
A 145 4 0 0 0 6 144 0 3 0 0 0 0 2 0 0 0 0 0 0
A 146 4 0 0 0 6 143 0 145 0 0 0 0 1 0 0 0 0 0 0
A 147 10 0 0 144 6 134 19 0 0 0 0 0 0 0 0 0 0 0 0
X 1 40
A 148 10 0 0 147 6 134 22 0 0 0 0 0 0 0 0 0 0 0 0
X 1 42
A 149 10 0 0 148 6 134 25 0 0 0 0 0 0 0 0 0 0 0 0
X 1 44
A 150 10 0 0 149 6 134 28 0 0 0 0 0 0 0 0 0 0 0 0
X 1 46
A 151 10 0 0 150 6 134 31 0 0 0 0 0 0 0 0 0 0 0 0
X 1 13
A 155 1 0 1 0 101 662 0 0 0 0 0 0 0 0 0 0 0 0 0
A 156 10 0 0 153 6 155 1 0 0 0 0 0 0 0 0 0 0 0 0
X 1 21
A 157 10 0 0 156 6 155 4 0 0 0 0 0 0 0 0 0 0 0 0
X 1 24
A 158 4 0 0 0 6 157 0 3 0 0 0 0 2 0 0 0 0 0 0
A 159 4 0 0 0 6 156 0 158 0 0 0 0 1 0 0 0 0 0 0
A 160 10 0 0 157 6 155 7 0 0 0 0 0 0 0 0 0 0 0 0
X 1 28
A 161 10 0 0 160 6 155 10 0 0 0 0 0 0 0 0 0 0 0 0
X 1 30
A 162 4 0 0 0 6 161 0 3 0 0 0 0 2 0 0 0 0 0 0
A 163 4 0 0 42 6 160 0 162 0 0 0 0 1 0 0 0 0 0 0
A 164 10 0 0 161 6 155 13 0 0 0 0 0 0 0 0 0 0 0 0
X 1 34
A 165 10 0 0 164 6 155 16 0 0 0 0 0 0 0 0 0 0 0 0
X 1 36
A 166 4 0 0 0 6 165 0 3 0 0 0 0 2 0 0 0 0 0 0
A 167 4 0 0 0 6 164 0 166 0 0 0 0 1 0 0 0 0 0 0
A 168 10 0 0 165 6 155 19 0 0 0 0 0 0 0 0 0 0 0 0
X 1 40
A 169 10 0 0 168 6 155 22 0 0 0 0 0 0 0 0 0 0 0 0
X 1 42
A 170 10 0 0 169 6 155 25 0 0 0 0 0 0 0 0 0 0 0 0
X 1 44
A 171 10 0 0 170 6 155 28 0 0 0 0 0 0 0 0 0 0 0 0
X 1 46
A 172 10 0 0 171 6 155 31 0 0 0 0 0 0 0 0 0 0 0 0
X 1 13
Z
Z
