V26 ifconstants
10 matdyn.F90 S582 0
04/24/2012  16:05:16
use kinds private
use kinds private
enduse
D 56 21 9 7 84 83 0 1 0 0 1
 27 31 69 27 31 29
 33 37 71 33 37 35
 39 43 73 39 43 41
 45 49 75 45 49 47
 51 55 77 51 55 53
 57 61 79 57 61 59
 63 67 81 63 67 65
D 59 21 6 1 0 24 0 0 0 0 0
 0 24 0 3 24 0
D 62 21 9 2 100 99 0 1 0 0 1
 89 92 97 89 92 90
 93 96 98 93 96 94
D 65 21 6 1 0 87 0 0 0 0 0
 0 87 0 3 87 0
D 68 21 9 3 122 121 0 1 0 0 1
 106 109 118 106 109 107
 110 113 119 110 113 111
 114 117 120 114 117 115
D 71 21 6 1 0 104 0 0 0 0 0
 0 104 0 3 104 0
D 74 21 6 1 132 131 0 1 0 0 1
 126 129 130 126 129 127
D 77 21 6 1 0 124 0 0 0 0 0
 0 124 0 3 124 0
S 582 24 0 0 0 6 1 0 4658 5 0 A 0 0 0 0 0 0 0 0 0 0 0 0 38 0 0 0 0 0 0 0 0 26 0 0 0 0 0 0 ifconstants
S 584 23 0 0 0 9 587 582 4676 4 0 A 0 0 0 0 0 0 0 0 0 0 0 0 0 0 0 0 0 0 0 0 0 0 0 582 0 0 0 0 dp
S 585 3 0 0 0 6 1 1 0 0 0 A 0 0 0 0 0 0 0 0 0 8 0 0 0 0 0 0 0 0 0 0 0 0 0 0 0 0 0 0 6
R 587 16 1 kinds dp
S 594 7 6 0 0 56 1 582 4710 10a00004 51 A 0 0 0 0 0 0 604 0 0 0 606 0 0 0 0 0 0 0 0 603 0 0 605 582 0 0 0 0 frc
S 595 6 4 0 0 6 596 582 4714 40800006 0 A 0 0 0 0 0 0 0 0 0 0 0 0 653 0 0 0 0 0 0 0 0 0 0 582 0 0 0 0 z_b_0
S 596 6 4 0 0 6 597 582 4720 40800006 0 A 0 0 0 0 0 4 0 0 0 0 0 0 653 0 0 0 0 0 0 0 0 0 0 582 0 0 0 0 z_b_1
S 597 6 4 0 0 6 598 582 4726 40800006 0 A 0 0 0 0 0 8 0 0 0 0 0 0 653 0 0 0 0 0 0 0 0 0 0 582 0 0 0 0 z_b_2
S 598 6 4 0 0 6 599 582 4732 40800006 0 A 0 0 0 0 0 12 0 0 0 0 0 0 653 0 0 0 0 0 0 0 0 0 0 582 0 0 0 0 z_b_3
S 599 6 4 0 0 6 600 582 4738 40800006 0 A 0 0 0 0 0 16 0 0 0 0 0 0 653 0 0 0 0 0 0 0 0 0 0 582 0 0 0 0 z_b_4
S 600 6 4 0 0 6 601 582 4744 40800006 0 A 0 0 0 0 0 20 0 0 0 0 0 0 653 0 0 0 0 0 0 0 0 0 0 582 0 0 0 0 z_b_5
S 601 6 4 0 0 6 630 582 4750 40800006 0 A 0 0 0 0 0 24 0 0 0 0 0 0 653 0 0 0 0 0 0 0 0 0 0 582 0 0 0 0 z_b_6
S 602 3 0 0 0 6 0 1 0 0 0 A 0 0 0 0 0 0 0 0 0 54 0 0 0 0 0 0 0 0 0 0 0 0 0 0 0 0 0 0 6
S 603 8 4 0 0 59 634 582 4756 40822004 1020 A 0 0 0 0 0 0 0 0 0 0 0 0 653 0 0 0 0 0 0 0 0 0 0 582 0 0 0 0 frc$sd
S 604 6 4 0 0 7 605 582 4763 40802001 1020 A 0 0 0 0 0 0 0 0 0 0 0 0 653 0 0 0 0 0 0 0 0 0 0 582 0 0 0 0 frc$p
S 605 6 4 0 0 7 603 582 4769 40802000 1020 A 0 0 0 0 0 0 0 0 0 0 0 0 653 0 0 0 0 0 0 0 0 0 0 582 0 0 0 0 frc$o
S 606 22 1 0 0 9 1 582 4775 40000000 1000 A 0 0 0 0 0 0 0 594 0 0 0 0 603 0 0 0 0 0 0 0 0 0 0 582 0 0 0 0 frc$arrdsc
S 607 3 0 0 0 6 0 1 0 0 0 A 0 0 0 0 0 0 0 0 0 13 0 0 0 0 0 0 0 0 0 0 0 0 0 0 0 0 0 0 6
S 608 3 0 0 0 6 0 1 0 0 0 A 0 0 0 0 0 0 0 0 0 14 0 0 0 0 0 0 0 0 0 0 0 0 0 0 0 0 0 0 6
S 609 3 0 0 0 6 0 1 0 0 0 A 0 0 0 0 0 0 0 0 0 19 0 0 0 0 0 0 0 0 0 0 0 0 0 0 0 0 0 0 6
S 610 3 0 0 0 6 0 1 0 0 0 A 0 0 0 0 0 0 0 0 0 20 0 0 0 0 0 0 0 0 0 0 0 0 0 0 0 0 0 0 6
S 611 3 0 0 0 6 0 1 0 0 0 A 0 0 0 0 0 0 0 0 0 25 0 0 0 0 0 0 0 0 0 0 0 0 0 0 0 0 0 0 6
S 612 3 0 0 0 6 0 1 0 0 0 A 0 0 0 0 0 0 0 0 0 26 0 0 0 0 0 0 0 0 0 0 0 0 0 0 0 0 0 0 6
S 613 3 0 0 0 6 0 1 0 0 0 A 0 0 0 0 0 0 0 0 0 31 0 0 0 0 0 0 0 0 0 0 0 0 0 0 0 0 0 0 6
S 614 3 0 0 0 6 0 1 0 0 0 A 0 0 0 0 0 0 0 0 0 32 0 0 0 0 0 0 0 0 0 0 0 0 0 0 0 0 0 0 6
S 615 3 0 0 0 6 0 1 0 0 0 A 0 0 0 0 0 0 0 0 0 37 0 0 0 0 0 0 0 0 0 0 0 0 0 0 0 0 0 0 6
S 616 3 0 0 0 6 0 1 0 0 0 A 0 0 0 0 0 0 0 0 0 38 0 0 0 0 0 0 0 0 0 0 0 0 0 0 0 0 0 0 6
S 617 3 0 0 0 6 0 1 0 0 0 A 0 0 0 0 0 0 0 0 0 43 0 0 0 0 0 0 0 0 0 0 0 0 0 0 0 0 0 0 6
S 618 3 0 0 0 6 0 1 0 0 0 A 0 0 0 0 0 0 0 0 0 44 0 0 0 0 0 0 0 0 0 0 0 0 0 0 0 0 0 0 6
S 619 3 0 0 0 6 0 1 0 0 0 A 0 0 0 0 0 0 0 0 0 49 0 0 0 0 0 0 0 0 0 0 0 0 0 0 0 0 0 0 6
S 620 3 0 0 0 6 0 1 0 0 0 A 0 0 0 0 0 0 0 0 0 50 0 0 0 0 0 0 0 0 0 0 0 0 0 0 0 0 0 0 6
S 621 3 0 0 0 6 0 1 0 0 0 A 0 0 0 0 0 0 0 0 0 17 0 0 0 0 0 0 0 0 0 0 0 0 0 0 0 0 0 0 6
S 622 3 0 0 0 6 0 1 0 0 0 A 0 0 0 0 0 0 0 0 0 23 0 0 0 0 0 0 0 0 0 0 0 0 0 0 0 0 0 0 6
S 623 3 0 0 0 6 0 1 0 0 0 A 0 0 0 0 0 0 0 0 0 29 0 0 0 0 0 0 0 0 0 0 0 0 0 0 0 0 0 0 6
S 624 3 0 0 0 6 0 1 0 0 0 A 0 0 0 0 0 0 0 0 0 35 0 0 0 0 0 0 0 0 0 0 0 0 0 0 0 0 0 0 6
S 625 3 0 0 0 6 0 1 0 0 0 A 0 0 0 0 0 0 0 0 0 41 0 0 0 0 0 0 0 0 0 0 0 0 0 0 0 0 0 0 6
S 626 3 0 0 0 6 0 1 0 0 0 A 0 0 0 0 0 0 0 0 0 47 0 0 0 0 0 0 0 0 0 0 0 0 0 0 0 0 0 0 6
S 627 3 0 0 0 6 0 1 0 0 0 A 0 0 0 0 0 0 0 0 0 53 0 0 0 0 0 0 0 0 0 0 0 0 0 0 0 0 0 0 6
S 628 3 0 0 0 6 0 1 0 0 0 A 0 0 0 0 0 0 0 0 0 7 0 0 0 0 0 0 0 0 0 0 0 0 0 0 0 0 0 0 6
S 629 7 6 0 0 62 1 582 4786 10a00004 51 A 0 0 0 0 0 0 634 0 0 0 636 0 0 0 0 0 0 0 0 633 0 0 635 582 0 0 0 0 tau_blk
S 630 6 4 0 0 6 631 582 4794 40800006 0 A 0 0 0 0 0 28 0 0 0 0 0 0 653 0 0 0 0 0 0 0 0 0 0 582 0 0 0 0 z_b_7
S 631 6 4 0 0 6 638 582 4800 40800006 0 A 0 0 0 0 0 32 0 0 0 0 0 0 653 0 0 0 0 0 0 0 0 0 0 582 0 0 0 0 z_b_8
S 632 3 0 0 0 6 0 1 0 0 0 A 0 0 0 0 0 0 0 0 0 24 0 0 0 0 0 0 0 0 0 0 0 0 0 0 0 0 0 0 6
S 633 8 4 0 0 65 643 582 4806 40822004 1020 A 0 0 0 0 0 0 0 0 0 0 0 0 653 0 0 0 0 0 0 0 0 0 0 582 0 0 0 0 tau_blk$sd
S 634 6 4 0 0 7 635 582 4817 40802001 1020 A 0 0 0 0 0 0 0 0 0 0 0 0 653 0 0 0 0 0 0 0 0 0 0 582 0 0 0 0 tau_blk$p
S 635 6 4 0 0 7 633 582 4827 40802000 1020 A 0 0 0 0 0 0 0 0 0 0 0 0 653 0 0 0 0 0 0 0 0 0 0 582 0 0 0 0 tau_blk$o
S 636 22 1 0 0 9 1 582 4837 40000000 1000 A 0 0 0 0 0 0 0 629 0 0 0 0 633 0 0 0 0 0 0 0 0 0 0 582 0 0 0 0 tau_blk$arrdsc
S 637 7 6 0 0 68 1 582 4852 10a00004 51 A 0 0 0 0 0 0 643 0 0 0 645 0 0 0 0 0 0 0 0 642 0 0 644 582 0 0 0 0 zeu
S 638 6 4 0 0 6 639 582 4856 40800006 0 A 0 0 0 0 0 36 0 0 0 0 0 0 653 0 0 0 0 0 0 0 0 0 0 582 0 0 0 0 z_b_9
S 639 6 4 0 0 6 640 582 4862 40800006 0 A 0 0 0 0 0 40 0 0 0 0 0 0 653 0 0 0 0 0 0 0 0 0 0 582 0 0 0 0 z_b_10
S 640 6 4 0 0 6 647 582 4869 40800006 0 A 0 0 0 0 0 44 0 0 0 0 0 0 653 0 0 0 0 0 0 0 0 0 0 582 0 0 0 0 z_b_11
S 641 3 0 0 0 6 0 1 0 0 0 A 0 0 0 0 0 0 0 0 0 30 0 0 0 0 0 0 0 0 0 0 0 0 0 0 0 0 0 0 6
S 642 8 4 0 0 71 650 582 4876 40822004 1020 A 0 0 0 0 0 0 0 0 0 0 0 0 653 0 0 0 0 0 0 0 0 0 0 582 0 0 0 0 zeu$sd
S 643 6 4 0 0 7 644 582 4883 40802001 1020 A 0 0 0 0 0 0 0 0 0 0 0 0 653 0 0 0 0 0 0 0 0 0 0 582 0 0 0 0 zeu$p
S 644 6 4 0 0 7 642 582 4889 40802000 1020 A 0 0 0 0 0 0 0 0 0 0 0 0 653 0 0 0 0 0 0 0 0 0 0 582 0 0 0 0 zeu$o
S 645 22 1 0 0 9 1 582 4895 40000000 1000 A 0 0 0 0 0 0 0 637 0 0 0 0 642 0 0 0 0 0 0 0 0 0 0 582 0 0 0 0 zeu$arrdsc
S 646 7 6 0 0 74 1 582 4906 10a00004 51 A 0 0 0 0 0 0 650 0 0 0 652 0 0 0 0 0 0 0 0 649 0 0 651 582 0 0 0 0 ityp_blk
S 647 6 4 0 0 6 1 582 4915 40800006 0 A 0 0 0 0 0 48 0 0 0 0 0 0 653 0 0 0 0 0 0 0 0 0 0 582 0 0 0 0 z_b_12
S 648 3 0 0 0 6 0 1 0 0 0 A 0 0 0 0 0 0 0 0 0 18 0 0 0 0 0 0 0 0 0 0 0 0 0 0 0 0 0 0 6
S 649 8 4 0 0 77 595 582 4922 40822004 1020 A 0 0 0 0 0 0 0 0 0 0 0 0 653 0 0 0 0 0 0 0 0 0 0 582 0 0 0 0 ityp_blk$sd
S 650 6 4 0 0 7 651 582 4934 40802001 1020 A 0 0 0 0 0 0 0 0 0 0 0 0 653 0 0 0 0 0 0 0 0 0 0 582 0 0 0 0 ityp_blk$p
S 651 6 4 0 0 7 649 582 4945 40802000 1020 A 0 0 0 0 0 0 0 0 0 0 0 0 653 0 0 0 0 0 0 0 0 0 0 582 0 0 0 0 ityp_blk$o
S 652 22 1 0 0 6 1 582 4956 40000000 1000 A 0 0 0 0 0 0 0 646 0 0 0 0 649 0 0 0 0 0 0 0 0 0 0 582 0 0 0 0 ityp_blk$arrdsc
S 653 11 0 0 0 9 1 582 4972 40800000 801000 A 0 0 0 0 0 620 0 0 604 647 0 0 0 0 0 0 0 0 0 0 0 0 0 0 0 0 0 0 _ifconstants$0
A 13 2 0 0 0 6 585 0 0 0 13 0 0 0 0 0 0 0 0 0
A 24 2 0 0 0 6 602 0 0 0 24 0 0 0 0 0 0 0 0 0
A 25 2 0 0 0 6 607 0 0 0 25 0 0 0 0 0 0 0 0 0
A 26 1 0 1 0 59 603 0 0 0 0 0 0 0 0 0 0 0 0 0
A 27 10 0 0 0 6 26 1 0 0 0 0 0 0 0 0 0 0 0 0
X 1 25
A 28 2 0 0 0 6 608 0 0 0 28 0 0 0 0 0 0 0 0 0
A 29 10 0 0 27 6 26 4 0 0 0 0 0 0 0 0 0 0 0 0
X 1 28
A 30 4 0 0 0 6 29 0 3 0 0 0 0 2 0 0 0 0 0 0
A 31 4 0 0 0 6 27 0 30 0 0 0 0 1 0 0 0 0 0 0
A 32 2 0 0 0 6 609 0 0 0 32 0 0 0 0 0 0 0 0 0
A 33 10 0 0 29 6 26 7 0 0 0 0 0 0 0 0 0 0 0 0
X 1 32
A 34 2 0 0 0 6 610 0 0 0 34 0 0 0 0 0 0 0 0 0
A 35 10 0 0 33 6 26 10 0 0 0 0 0 0 0 0 0 0 0 0
X 1 34
A 36 4 0 0 0 6 35 0 3 0 0 0 0 2 0 0 0 0 0 0
A 37 4 0 0 35 6 33 0 36 0 0 0 0 1 0 0 0 0 0 0
A 38 2 0 0 0 6 611 0 0 0 38 0 0 0 0 0 0 0 0 0
A 39 10 0 0 37 6 26 13 0 0 0 0 0 0 0 0 0 0 0 0
X 1 38
A 40 2 0 0 0 6 612 0 0 0 40 0 0 0 0 0 0 0 0 0
A 41 10 0 0 39 6 26 16 0 0 0 0 0 0 0 0 0 0 0 0
X 1 40
A 42 4 0 0 0 6 41 0 3 0 0 0 0 2 0 0 0 0 0 0
A 43 4 0 0 0 6 39 0 42 0 0 0 0 1 0 0 0 0 0 0
A 44 2 0 0 0 6 613 0 0 0 44 0 0 0 0 0 0 0 0 0
A 45 10 0 0 41 6 26 19 0 0 0 0 0 0 0 0 0 0 0 0
X 1 44
A 46 2 0 0 0 6 614 0 0 0 46 0 0 0 0 0 0 0 0 0
A 47 10 0 0 45 6 26 22 0 0 0 0 0 0 0 0 0 0 0 0
X 1 46
A 48 4 0 0 0 6 47 0 3 0 0 0 0 2 0 0 0 0 0 0
A 49 4 0 0 19 6 45 0 48 0 0 0 0 1 0 0 0 0 0 0
A 50 2 0 0 0 6 615 0 0 0 50 0 0 0 0 0 0 0 0 0
A 51 10 0 0 47 6 26 25 0 0 0 0 0 0 0 0 0 0 0 0
X 1 50
A 52 2 0 0 0 6 616 0 0 0 52 0 0 0 0 0 0 0 0 0
A 53 10 0 0 51 6 26 28 0 0 0 0 0 0 0 0 0 0 0 0
X 1 52
A 54 4 0 0 0 6 53 0 3 0 0 0 0 2 0 0 0 0 0 0
A 55 4 0 0 30 6 51 0 54 0 0 0 0 1 0 0 0 0 0 0
A 56 2 0 0 0 6 617 0 0 0 56 0 0 0 0 0 0 0 0 0
A 57 10 0 0 53 6 26 31 0 0 0 0 0 0 0 0 0 0 0 0
X 1 56
A 58 2 0 0 0 6 618 0 0 0 58 0 0 0 0 0 0 0 0 0
A 59 10 0 0 57 6 26 34 0 0 0 0 0 0 0 0 0 0 0 0
X 1 58
A 60 4 0 0 0 6 59 0 3 0 0 0 0 2 0 0 0 0 0 0
A 61 4 0 0 0 6 57 0 60 0 0 0 0 1 0 0 0 0 0 0
A 62 2 0 0 0 6 619 0 0 0 62 0 0 0 0 0 0 0 0 0
A 63 10 0 0 59 6 26 37 0 0 0 0 0 0 0 0 0 0 0 0
X 1 62
A 64 2 0 0 0 6 620 0 0 0 64 0 0 0 0 0 0 0 0 0
A 65 10 0 0 63 6 26 40 0 0 0 0 0 0 0 0 0 0 0 0
X 1 64
A 66 4 0 0 0 6 65 0 3 0 0 0 0 2 0 0 0 0 0 0
A 67 4 0 0 0 6 63 0 66 0 0 0 0 1 0 0 0 0 0 0
A 68 2 0 0 0 6 621 0 0 0 68 0 0 0 0 0 0 0 0 0
A 69 10 0 0 65 6 26 43 0 0 0 0 0 0 0 0 0 0 0 0
X 1 68
A 70 2 0 0 0 6 622 0 0 0 70 0 0 0 0 0 0 0 0 0
A 71 10 0 0 69 6 26 46 0 0 0 0 0 0 0 0 0 0 0 0
X 1 70
A 72 2 0 0 0 6 623 0 0 0 72 0 0 0 0 0 0 0 0 0
A 73 10 0 0 71 6 26 49 0 0 0 0 0 0 0 0 0 0 0 0
X 1 72
A 74 2 0 0 0 6 624 0 0 0 74 0 0 0 0 0 0 0 0 0
A 75 10 0 0 73 6 26 52 0 0 0 0 0 0 0 0 0 0 0 0
X 1 74
A 76 2 0 0 0 6 625 0 0 0 76 0 0 0 0 0 0 0 0 0
A 77 10 0 0 75 6 26 55 0 0 0 0 0 0 0 0 0 0 0 0
X 1 76
A 78 2 0 0 0 6 626 0 0 0 78 0 0 0 0 0 0 0 0 0
A 79 10 0 0 77 6 26 58 0 0 0 0 0 0 0 0 0 0 0 0
X 1 78
A 80 2 0 0 0 6 627 0 0 0 80 0 0 0 0 0 0 0 0 0
A 81 10 0 0 79 6 26 61 0 0 0 0 0 0 0 0 0 0 0 0
X 1 80
A 82 2 0 0 0 6 628 0 0 0 82 0 0 0 0 0 0 0 0 0
A 83 10 0 0 81 6 26 64 0 0 0 0 0 0 0 0 0 0 0 0
X 1 82
A 84 10 0 0 83 6 26 67 0 0 0 0 0 0 0 0 0 0 0 0
X 1 13
A 87 2 0 0 0 6 632 0 0 0 87 0 0 0 0 0 0 0 0 0
A 88 1 0 3 0 65 633 0 0 0 0 0 0 0 0 0 0 0 0 0
A 89 10 0 0 0 6 88 1 0 0 0 0 0 0 0 0 0 0 0 0
X 1 25
A 90 10 0 0 89 6 88 4 0 0 0 0 0 0 0 0 0 0 0 0
X 1 28
A 91 4 0 0 0 6 90 0 3 0 0 0 0 2 0 0 0 0 0 0
A 92 4 0 0 0 6 89 0 91 0 0 0 0 1 0 0 0 0 0 0
A 93 10 0 0 90 6 88 7 0 0 0 0 0 0 0 0 0 0 0 0
X 1 32
A 94 10 0 0 93 6 88 10 0 0 0 0 0 0 0 0 0 0 0 0
X 1 34
A 95 4 0 0 0 6 94 0 3 0 0 0 0 2 0 0 0 0 0 0
A 96 4 0 0 0 6 93 0 95 0 0 0 0 1 0 0 0 0 0 0
A 97 10 0 0 94 6 88 43 0 0 0 0 0 0 0 0 0 0 0 0
X 1 68
A 98 10 0 0 97 6 88 46 0 0 0 0 0 0 0 0 0 0 0 0
X 1 70
A 99 10 0 0 98 6 88 64 0 0 0 0 0 0 0 0 0 0 0 0
X 1 82
A 100 10 0 0 99 6 88 67 0 0 0 0 0 0 0 0 0 0 0 0
X 1 13
A 104 2 0 0 0 6 641 0 0 0 104 0 0 0 0 0 0 0 0 0
A 105 1 0 5 12 71 642 0 0 0 0 0 0 0 0 0 0 0 0 0
A 106 10 0 0 0 6 105 1 0 0 0 0 0 0 0 0 0 0 0 0
X 1 25
A 107 10 0 0 106 6 105 4 0 0 0 0 0 0 0 0 0 0 0 0
X 1 28
A 108 4 0 0 0 6 107 0 3 0 0 0 0 2 0 0 0 0 0 0
A 109 4 0 0 0 6 106 0 108 0 0 0 0 1 0 0 0 0 0 0
A 110 10 0 0 107 6 105 7 0 0 0 0 0 0 0 0 0 0 0 0
X 1 32
A 111 10 0 0 110 6 105 10 0 0 0 0 0 0 0 0 0 0 0 0
X 1 34
A 112 4 0 0 0 6 111 0 3 0 0 0 0 2 0 0 0 0 0 0
A 113 4 0 0 0 6 110 0 112 0 0 0 0 1 0 0 0 0 0 0
A 114 10 0 0 111 6 105 13 0 0 0 0 0 0 0 0 0 0 0 0
X 1 38
A 115 10 0 0 114 6 105 16 0 0 0 0 0 0 0 0 0 0 0 0
X 1 40
A 116 4 0 0 0 6 115 0 3 0 0 0 0 2 0 0 0 0 0 0
A 117 4 0 0 0 6 114 0 116 0 0 0 0 1 0 0 0 0 0 0
A 118 10 0 0 115 6 105 43 0 0 0 0 0 0 0 0 0 0 0 0
X 1 68
A 119 10 0 0 118 6 105 46 0 0 0 0 0 0 0 0 0 0 0 0
X 1 70
A 120 10 0 0 119 6 105 49 0 0 0 0 0 0 0 0 0 0 0 0
X 1 72
A 121 10 0 0 120 6 105 64 0 0 0 0 0 0 0 0 0 0 0 0
X 1 82
A 122 10 0 0 121 6 105 67 0 0 0 0 0 0 0 0 0 0 0 0
X 1 13
A 124 2 0 0 0 6 648 0 0 0 124 0 0 0 0 0 0 0 0 0
A 125 1 0 7 0 77 649 0 0 0 0 0 0 0 0 0 0 0 0 0
A 126 10 0 0 85 6 125 1 0 0 0 0 0 0 0 0 0 0 0 0
X 1 25
A 127 10 0 0 126 6 125 4 0 0 0 0 0 0 0 0 0 0 0 0
X 1 28
A 128 4 0 0 52 6 127 0 3 0 0 0 0 2 0 0 0 0 0 0
A 129 4 0 0 0 6 126 0 128 0 0 0 0 1 0 0 0 0 0 0
A 130 10 0 0 127 6 125 43 0 0 0 0 0 0 0 0 0 0 0 0
X 1 68
A 131 10 0 0 130 6 125 64 0 0 0 0 0 0 0 0 0 0 0 0
X 1 82
A 132 10 0 0 131 6 125 67 0 0 0 0 0 0 0 0 0 0 0 0
X 1 13
Z
Z
