V26 modes
9 phcom.F90 S582 0
04/24/2012  16:05:16
use kinds private
use kinds private
enduse
D 56 21 6 1 3 17 0 0 0 0 0
 0 17 3 3 17 17
D 59 21 6 1 31 30 0 1 0 0 1
 22 26 28 22 26 24
D 62 21 6 1 0 19 0 0 0 0 0
 0 19 0 3 19 0
D 65 21 6 1 3 17 0 0 0 0 0
 0 17 3 3 17 17
D 68 21 9 3 59 58 0 1 0 0 1
 37 40 53 37 40 38
 42 46 55 42 46 44
 48 52 57 48 52 50
D 71 21 6 1 0 35 0 0 0 0 0
 0 35 0 3 35 0
D 74 21 9 2 15 61 0 0 0 0 0
 0 60 3 3 60 60
 0 17 60 3 17 17
D 77 21 9 1 3 60 0 0 0 0 0
 0 60 3 3 60 60
D 80 21 12 2 78 77 0 1 0 0 1
 67 70 75 67 70 68
 71 74 76 71 74 72
D 83 21 6 1 0 65 0 0 0 0 0
 0 65 0 3 65 0
D 86 21 12 1 87 86 0 1 0 0 1
 81 84 85 81 84 82
D 89 21 6 1 0 19 0 0 0 0 0
 0 19 0 3 19 0
D 92 21 12 4 118 117 0 1 0 0 1
 94 97 112 94 97 95
 98 101 113 98 101 99
 102 105 114 102 105 103
 107 111 116 107 111 109
D 95 21 6 1 0 92 0 0 0 0 0
 0 92 0 3 92 0
D 98 21 12 3 139 138 0 1 0 0 1
 123 126 135 123 126 124
 127 130 136 127 130 128
 131 134 137 131 134 132
D 101 21 6 1 0 35 0 0 0 0 0
 0 35 0 3 35 0
S 582 24 0 0 0 6 1 0 4658 5 0 A 0 0 0 0 0 0 0 0 0 0 0 0 52 0 0 0 0 0 0 0 0 14 0 0 0 0 0 0 modes
S 584 23 0 0 0 9 587 582 4670 4 0 A 0 0 0 0 0 0 0 0 0 0 0 0 0 0 0 0 0 0 0 0 0 0 0 582 0 0 0 0 dp
S 585 3 0 0 0 6 1 1 0 0 0 A 0 0 0 0 0 0 0 0 0 8 0 0 0 0 0 0 0 0 0 0 0 0 0 0 0 0 0 0 6
S 586 3 0 0 0 6 1 1 0 0 0 A 0 0 0 0 0 0 0 0 0 4 0 0 0 0 0 0 0 0 0 0 0 0 0 0 0 0 0 0 6
R 587 16 1 kinds dp
S 594 7 4 0 4 56 596 582 4704 800004 100 A 0 0 0 0 0 0 0 0 0 0 0 0 669 0 0 0 0 0 0 0 0 0 0 582 0 0 0 0 irgq
S 595 3 0 0 0 6 0 1 0 0 0 A 0 0 0 0 0 0 0 0 0 48 0 0 0 0 0 0 0 0 0 0 0 0 0 0 0 0 0 0 6
S 596 6 4 0 0 6 597 582 4709 4 0 A 0 0 0 0 0 192 0 0 0 0 0 0 669 0 0 0 0 0 0 0 0 0 0 582 0 0 0 0 nsymq
S 597 6 4 0 0 6 598 582 4715 4 0 A 0 0 0 0 0 196 0 0 0 0 0 0 669 0 0 0 0 0 0 0 0 0 0 582 0 0 0 0 irotmq
S 598 6 4 0 0 6 599 582 4722 4 0 A 0 0 0 0 0 200 0 0 0 0 0 0 669 0 0 0 0 0 0 0 0 0 0 582 0 0 0 0 nirr
S 599 6 4 0 0 6 601 582 4727 4 0 A 0 0 0 0 0 204 0 0 0 0 0 0 669 0 0 0 0 0 0 0 0 0 0 582 0 0 0 0 nmodes
S 600 7 6 0 0 59 1 582 4734 10a00004 59 A 0 0 0 0 0 0 604 0 0 0 606 0 0 0 0 0 0 0 0 603 0 0 605 582 0 0 0 0 npert
S 601 6 4 0 0 6 611 582 4740 40800006 0 A 0 0 0 0 0 208 0 0 0 0 0 0 669 0 0 0 0 0 0 0 0 0 0 582 0 0 0 0 z_b_0
S 602 3 0 0 0 6 0 1 0 0 0 A 0 0 0 0 0 0 0 0 0 18 0 0 0 0 0 0 0 0 0 0 0 0 0 0 0 0 0 0 6
S 603 8 4 0 0 62 619 582 4746 40822064 1020 A 0 0 0 0 0 0 0 0 0 0 0 0 669 0 0 0 0 0 0 0 0 0 0 582 0 0 0 0 npert$sd
S 604 6 4 0 0 7 605 582 4755 40802061 1020 A 0 0 0 0 0 72 0 0 0 0 0 0 669 0 0 0 0 0 0 0 0 0 0 582 0 0 0 0 npert$p
S 605 6 4 0 0 7 603 582 4763 40802060 1020 A 0 0 0 0 0 80 0 0 0 0 0 0 669 0 0 0 0 0 0 0 0 0 0 582 0 0 0 0 npert$o
S 606 22 1 0 0 6 1 582 4771 40000000 1000 A 0 0 0 0 0 0 0 600 0 0 0 0 603 0 0 0 0 0 0 0 0 0 0 582 0 0 0 0 npert$arrdsc
S 607 3 0 0 0 6 0 1 0 0 0 A 0 0 0 0 0 0 0 0 0 13 0 0 0 0 0 0 0 0 0 0 0 0 0 0 0 0 0 0 6
S 608 3 0 0 0 6 0 1 0 0 0 A 0 0 0 0 0 0 0 0 0 14 0 0 0 0 0 0 0 0 0 0 0 0 0 0 0 0 0 0 6
S 609 3 0 0 0 6 0 1 0 0 0 A 0 0 0 0 0 0 0 0 0 17 0 0 0 0 0 0 0 0 0 0 0 0 0 0 0 0 0 0 6
S 610 3 0 0 0 6 0 1 0 0 0 A 0 0 0 0 0 0 0 0 0 7 0 0 0 0 0 0 0 0 0 0 0 0 0 0 0 0 0 0 6
S 611 6 4 0 0 6 612 582 4784 4 0 A 0 0 0 0 0 212 0 0 0 0 0 0 669 0 0 0 0 0 0 0 0 0 0 582 0 0 0 0 npertx
S 612 7 4 0 4 65 614 582 4791 800004 100 A 0 0 0 0 0 224 0 0 0 0 0 0 669 0 0 0 0 0 0 0 0 0 0 582 0 0 0 0 invs
S 613 7 6 0 0 68 1 582 4796 10a00004 51 A 0 0 0 0 0 0 619 0 0 0 621 0 0 0 0 0 0 0 0 618 0 0 620 582 0 0 0 0 rtau
S 614 6 4 0 0 6 615 582 4801 40800006 0 A 0 0 0 0 0 416 0 0 0 0 0 0 669 0 0 0 0 0 0 0 0 0 0 582 0 0 0 0 z_b_1
S 615 6 4 0 0 6 616 582 4807 40800006 0 A 0 0 0 0 0 420 0 0 0 0 0 0 669 0 0 0 0 0 0 0 0 0 0 582 0 0 0 0 z_b_2
S 616 6 4 0 0 6 634 582 4813 40800006 0 A 0 0 0 0 0 424 0 0 0 0 0 0 669 0 0 0 0 0 0 0 0 0 0 582 0 0 0 0 z_b_3
S 617 3 0 0 0 6 0 1 0 0 0 A 0 0 0 0 0 0 0 0 0 30 0 0 0 0 0 0 0 0 0 0 0 0 0 0 0 0 0 0 6
S 618 8 4 0 0 71 594 582 4819 40822064 1020 A 0 0 0 0 0 88 0 0 0 0 0 0 669 0 0 0 0 0 0 0 0 0 0 582 0 0 0 0 rtau$sd
S 619 6 4 0 0 7 620 582 4827 40802061 1020 A 0 0 0 0 0 208 0 0 0 0 0 0 669 0 0 0 0 0 0 0 0 0 0 582 0 0 0 0 rtau$p
S 620 6 4 0 0 7 618 582 4834 40802060 1020 A 0 0 0 0 0 216 0 0 0 0 0 0 669 0 0 0 0 0 0 0 0 0 0 582 0 0 0 0 rtau$o
S 621 22 1 0 0 9 1 582 4841 40000000 1000 A 0 0 0 0 0 0 0 613 0 0 0 0 618 0 0 0 0 0 0 0 0 0 0 582 0 0 0 0 rtau$arrdsc
S 622 3 0 0 0 6 0 1 0 0 0 A 0 0 0 0 0 0 0 0 0 19 0 0 0 0 0 0 0 0 0 0 0 0 0 0 0 0 0 0 6
S 623 3 0 0 0 6 0 1 0 0 0 A 0 0 0 0 0 0 0 0 0 20 0 0 0 0 0 0 0 0 0 0 0 0 0 0 0 0 0 0 6
S 624 3 0 0 0 6 0 1 0 0 0 A 0 0 0 0 0 0 0 0 0 25 0 0 0 0 0 0 0 0 0 0 0 0 0 0 0 0 0 0 6
S 625 3 0 0 0 6 0 1 0 0 0 A 0 0 0 0 0 0 0 0 0 26 0 0 0 0 0 0 0 0 0 0 0 0 0 0 0 0 0 0 6
S 626 3 0 0 0 6 0 1 0 0 0 A 0 0 0 0 0 0 0 0 0 23 0 0 0 0 0 0 0 0 0 0 0 0 0 0 0 0 0 0 6
S 627 3 0 0 0 6 0 1 0 0 0 A 0 0 0 0 0 0 0 0 0 29 0 0 0 0 0 0 0 0 0 0 0 0 0 0 0 0 0 0 6
S 628 7 4 0 4 74 631 582 4853 800004 100 A 0 0 0 0 0 0 0 0 0 0 0 0 670 0 0 0 0 0 0 0 0 0 0 582 0 0 0 0 gi
S 629 3 0 0 0 6 0 1 0 0 0 A 0 0 0 0 0 0 0 0 0 3 0 0 0 0 0 0 0 0 0 0 0 0 0 0 0 0 0 0 6
S 630 3 0 0 0 6 0 1 0 0 0 A 0 0 0 0 0 0 0 0 0 144 0 0 0 0 0 0 0 0 0 0 0 0 0 0 0 0 0 0 6
S 631 7 4 0 4 77 1 582 4856 800004 100 A 0 0 0 0 0 1152 0 0 0 0 0 0 670 0 0 0 0 0 0 0 0 0 0 582 0 0 0 0 gimq
S 632 16 0 0 0 6 0 582 4861 800004 400000 A 0 0 0 0 0 0 0 0 4 15 0 0 0 0 0 0 0 0 0 0 0 0 0 582 0 0 0 0 max_irr_dim
S 633 7 6 0 0 80 1 582 4873 10a00004 14 A 0 0 0 0 0 0 638 0 0 0 640 0 0 0 0 0 0 0 0 637 0 0 639 582 0 0 0 0 u
S 634 6 4 0 0 6 635 582 4875 40800006 0 A 0 0 0 0 0 428 0 0 0 0 0 0 669 0 0 0 0 0 0 0 0 0 0 582 0 0 0 0 z_b_4
S 635 6 4 0 0 6 642 582 4881 40800006 0 A 0 0 0 0 0 432 0 0 0 0 0 0 669 0 0 0 0 0 0 0 0 0 0 582 0 0 0 0 z_b_5
S 636 3 0 0 0 6 0 1 0 0 0 A 0 0 0 0 0 0 0 0 0 24 0 0 0 0 0 0 0 0 0 0 0 0 0 0 0 0 0 0 6
S 637 8 4 0 0 83 644 582 4887 40822064 1020 A 0 0 0 0 0 224 0 0 0 0 0 0 669 0 0 0 0 0 0 0 0 0 0 582 0 0 0 0 u$sd
S 638 6 4 0 0 7 639 582 4892 40802061 1020 A 0 0 0 0 0 320 0 0 0 0 0 0 669 0 0 0 0 0 0 0 0 0 0 582 0 0 0 0 u$p
S 639 6 4 0 0 7 637 582 4896 40802060 1020 A 0 0 0 0 0 328 0 0 0 0 0 0 669 0 0 0 0 0 0 0 0 0 0 582 0 0 0 0 u$o
S 640 22 1 0 0 9 1 582 4900 40000000 1000 A 0 0 0 0 0 0 0 633 0 0 0 0 637 0 0 0 0 0 0 0 0 0 0 582 0 0 0 0 u$arrdsc
S 641 7 6 0 0 86 1 582 4909 10a00004 14 A 0 0 0 0 0 0 644 0 0 0 646 0 0 0 0 0 0 0 0 643 0 0 645 582 0 0 0 0 ubar
S 642 6 4 0 0 6 648 582 4914 40800006 0 A 0 0 0 0 0 436 0 0 0 0 0 0 669 0 0 0 0 0 0 0 0 0 0 582 0 0 0 0 z_b_6
S 643 8 4 0 0 89 654 582 4920 40822064 1020 A 0 0 0 0 0 336 0 0 0 0 0 0 669 0 0 0 0 0 0 0 0 0 0 582 0 0 0 0 ubar$sd
S 644 6 4 0 0 7 645 582 4928 40802061 1020 A 0 0 0 0 0 408 0 0 0 0 0 0 669 0 0 0 0 0 0 0 0 0 0 582 0 0 0 0 ubar$p
S 645 6 4 0 0 7 643 582 4935 40802060 1020 A 0 0 0 0 0 416 0 0 0 0 0 0 669 0 0 0 0 0 0 0 0 0 0 582 0 0 0 0 ubar$o
S 646 22 1 0 0 9 1 582 4942 40000000 1000 A 0 0 0 0 0 0 0 641 0 0 0 0 643 0 0 0 0 0 0 0 0 0 0 582 0 0 0 0 ubar$arrdsc
S 647 7 6 0 0 92 1 582 4954 10a00004 14 A 0 0 0 0 0 0 654 0 0 0 656 0 0 0 0 0 0 0 0 653 0 0 655 582 0 0 0 0 t
S 648 6 4 0 0 6 649 582 4956 40800006 0 A 0 0 0 0 0 440 0 0 0 0 0 0 669 0 0 0 0 0 0 0 0 0 0 582 0 0 0 0 z_b_7
S 649 6 4 0 0 6 650 582 4962 40800006 0 A 0 0 0 0 0 444 0 0 0 0 0 0 669 0 0 0 0 0 0 0 0 0 0 582 0 0 0 0 z_b_8
S 650 6 4 0 0 6 651 582 4968 40800006 0 A 0 0 0 0 0 448 0 0 0 0 0 0 669 0 0 0 0 0 0 0 0 0 0 582 0 0 0 0 z_b_9
S 651 6 4 0 0 6 661 582 4974 40800006 0 A 0 0 0 0 0 452 0 0 0 0 0 0 669 0 0 0 0 0 0 0 0 0 0 582 0 0 0 0 z_b_10
S 652 3 0 0 0 6 0 1 0 0 0 A 0 0 0 0 0 0 0 0 0 36 0 0 0 0 0 0 0 0 0 0 0 0 0 0 0 0 0 0 6
S 653 8 4 0 0 95 665 582 4981 40822064 1020 A 0 0 0 0 0 424 0 0 0 0 0 0 669 0 0 0 0 0 0 0 0 0 0 582 0 0 0 0 t$sd
S 654 6 4 0 0 7 655 582 4986 40802061 1020 A 0 0 0 0 0 568 0 0 0 0 0 0 669 0 0 0 0 0 0 0 0 0 0 582 0 0 0 0 t$p
S 655 6 4 0 0 7 653 582 4990 40802060 1020 A 0 0 0 0 0 576 0 0 0 0 0 0 669 0 0 0 0 0 0 0 0 0 0 582 0 0 0 0 t$o
S 656 22 1 0 0 9 1 582 4994 40000000 1000 A 0 0 0 0 0 0 0 647 0 0 0 0 653 0 0 0 0 0 0 0 0 0 0 582 0 0 0 0 t$arrdsc
S 657 3 0 0 0 6 0 1 0 0 0 A 0 0 0 0 0 0 0 0 0 31 0 0 0 0 0 0 0 0 0 0 0 0 0 0 0 0 0 0 6
S 658 3 0 0 0 6 0 1 0 0 0 A 0 0 0 0 0 0 0 0 0 32 0 0 0 0 0 0 0 0 0 0 0 0 0 0 0 0 0 0 6
S 659 3 0 0 0 6 0 1 0 0 0 A 0 0 0 0 0 0 0 0 0 35 0 0 0 0 0 0 0 0 0 0 0 0 0 0 0 0 0 0 6
S 660 7 6 0 0 98 1 582 5003 10a00004 14 A 0 0 0 0 0 0 665 0 0 0 667 0 0 0 0 0 0 0 0 664 0 0 666 582 0 0 0 0 tmq
S 661 6 4 0 0 6 662 582 5007 40800006 0 A 0 0 0 0 0 456 0 0 0 0 0 0 669 0 0 0 0 0 0 0 0 0 0 582 0 0 0 0 z_b_11
S 662 6 4 0 0 6 663 582 5014 40800006 0 A 0 0 0 0 0 460 0 0 0 0 0 0 669 0 0 0 0 0 0 0 0 0 0 582 0 0 0 0 z_b_12
S 663 6 4 0 0 6 668 582 5021 40800006 0 A 0 0 0 0 0 464 0 0 0 0 0 0 669 0 0 0 0 0 0 0 0 0 0 582 0 0 0 0 z_b_13
S 664 8 4 0 0 101 604 582 5028 40822064 1020 A 0 0 0 0 0 584 0 0 0 0 0 0 669 0 0 0 0 0 0 0 0 0 0 582 0 0 0 0 tmq$sd
S 665 6 4 0 0 7 666 582 5035 40802061 1020 A 0 0 0 0 0 704 0 0 0 0 0 0 669 0 0 0 0 0 0 0 0 0 0 582 0 0 0 0 tmq$p
S 666 6 4 0 0 7 664 582 5041 40802060 1020 A 0 0 0 0 0 712 0 0 0 0 0 0 669 0 0 0 0 0 0 0 0 0 0 582 0 0 0 0 tmq$o
S 667 22 1 0 0 9 1 582 5047 40000000 1000 A 0 0 0 0 0 0 0 660 0 0 0 0 664 0 0 0 0 0 0 0 0 0 0 582 0 0 0 0 tmq$arrdsc
S 668 6 4 0 0 16 1 582 5058 4 0 A 0 0 0 0 0 468 0 0 0 0 0 0 669 0 0 0 0 0 0 0 0 0 0 582 0 0 0 0 minus_q
S 669 11 0 0 4 9 1 582 5066 40800000 801000 A 0 0 0 0 0 1192 0 0 638 668 0 0 0 0 0 0 0 0 0 0 0 0 0 0 0 0 0 0 _modes$0
S 670 11 0 0 4 9 669 582 5075 40800000 801000 A 0 0 0 0 0 1176 0 0 628 631 0 0 0 0 0 0 0 0 0 0 0 0 0 0 0 0 0 0 _modes$2
A 13 2 0 0 0 6 585 0 0 0 13 0 0 0 0 0 0 0 0 0
A 15 2 0 0 0 6 586 0 0 0 15 0 0 0 0 0 0 0 0 0
A 17 2 0 0 0 6 595 0 0 0 17 0 0 0 0 0 0 0 0 0
A 19 2 0 0 0 6 602 0 0 0 19 0 0 0 0 0 0 0 0 0
A 20 2 0 0 0 6 607 0 0 0 20 0 0 0 0 0 0 0 0 0
A 21 1 0 1 0 62 603 0 0 0 0 0 0 0 0 0 0 0 0 0
A 22 10 0 0 0 6 21 1 0 0 0 0 0 0 0 0 0 0 0 0
X 1 20
A 23 2 0 0 0 6 608 0 0 0 23 0 0 0 0 0 0 0 0 0
A 24 10 0 0 22 6 21 4 0 0 0 0 0 0 0 0 0 0 0 0
X 1 23
A 25 4 0 0 0 6 24 0 3 0 0 0 0 2 0 0 0 0 0 0
A 26 4 0 0 0 6 22 0 25 0 0 0 0 1 0 0 0 0 0 0
A 27 2 0 0 0 6 609 0 0 0 27 0 0 0 0 0 0 0 0 0
A 28 10 0 0 24 6 21 7 0 0 0 0 0 0 0 0 0 0 0 0
X 1 27
A 29 2 0 0 26 6 610 0 0 0 29 0 0 0 0 0 0 0 0 0
A 30 10 0 0 28 6 21 10 0 0 0 0 0 0 0 0 0 0 0 0
X 1 29
A 31 10 0 0 30 6 21 13 0 0 0 0 0 0 0 0 0 0 0 0
X 1 13
A 35 2 0 0 0 6 617 0 0 0 35 0 0 0 0 0 0 0 0 0
A 36 1 0 3 0 71 618 0 0 0 0 0 0 0 0 0 0 0 0 0
A 37 10 0 0 0 6 36 1 0 0 0 0 0 0 0 0 0 0 0 0
X 1 20
A 38 10 0 0 37 6 36 4 0 0 0 0 0 0 0 0 0 0 0 0
X 1 23
A 39 4 0 0 0 6 38 0 3 0 0 0 0 2 0 0 0 0 0 0
A 40 4 0 0 0 6 37 0 39 0 0 0 0 1 0 0 0 0 0 0
A 41 2 0 0 0 6 622 0 0 0 41 0 0 0 0 0 0 0 0 0
A 42 10 0 0 38 6 36 16 0 0 0 0 0 0 0 0 0 0 0 0
X 1 41
A 43 2 0 0 0 6 623 0 0 0 43 0 0 0 0 0 0 0 0 0
A 44 10 0 0 42 6 36 19 0 0 0 0 0 0 0 0 0 0 0 0
X 1 43
A 45 4 0 0 0 6 44 0 3 0 0 0 0 2 0 0 0 0 0 0
A 46 4 0 0 0 6 42 0 45 0 0 0 0 1 0 0 0 0 0 0
A 47 2 0 0 0 6 624 0 0 0 47 0 0 0 0 0 0 0 0 0
A 48 10 0 0 44 6 36 22 0 0 0 0 0 0 0 0 0 0 0 0
X 1 47
A 49 2 0 0 0 6 625 0 0 0 49 0 0 0 0 0 0 0 0 0
A 50 10 0 0 48 6 36 25 0 0 0 0 0 0 0 0 0 0 0 0
X 1 49
A 51 4 0 0 0 6 50 0 3 0 0 0 0 2 0 0 0 0 0 0
A 52 4 0 0 0 6 48 0 51 0 0 0 0 1 0 0 0 0 0 0
A 53 10 0 0 50 6 36 7 0 0 0 0 0 0 0 0 0 0 0 0
X 1 27
A 54 2 0 0 0 6 626 0 0 0 54 0 0 0 0 0 0 0 0 0
A 55 10 0 0 53 6 36 28 0 0 0 0 0 0 0 0 0 0 0 0
X 1 54
A 56 2 0 0 0 6 627 0 0 0 56 0 0 0 0 0 0 0 0 0
A 57 10 0 0 55 6 36 31 0 0 0 0 0 0 0 0 0 0 0 0
X 1 56
A 58 10 0 0 57 6 36 10 0 0 0 0 0 0 0 0 0 0 0 0
X 1 29
A 59 10 0 0 58 6 36 13 0 0 0 0 0 0 0 0 0 0 0 0
X 1 13
A 60 2 0 0 0 6 629 0 0 0 60 0 0 0 0 0 0 0 0 0
A 61 2 0 0 0 6 630 0 0 0 61 0 0 0 0 0 0 0 0 0
A 65 2 0 0 0 6 636 0 0 0 65 0 0 0 0 0 0 0 0 0
A 66 1 0 5 0 83 637 0 0 0 0 0 0 0 0 0 0 0 0 0
A 67 10 0 0 0 6 66 1 0 0 0 0 0 0 0 0 0 0 0 0
X 1 20
A 68 10 0 0 67 6 66 4 0 0 0 0 0 0 0 0 0 0 0 0
X 1 23
A 69 4 0 0 0 6 68 0 3 0 0 0 0 2 0 0 0 0 0 0
A 70 4 0 0 0 6 67 0 69 0 0 0 0 1 0 0 0 0 0 0
A 71 10 0 0 68 6 66 16 0 0 0 0 0 0 0 0 0 0 0 0
X 1 41
A 72 10 0 0 71 6 66 19 0 0 0 0 0 0 0 0 0 0 0 0
X 1 43
A 73 4 0 0 0 6 72 0 3 0 0 0 0 2 0 0 0 0 0 0
A 74 4 0 0 0 6 71 0 73 0 0 0 0 1 0 0 0 0 0 0
A 75 10 0 0 72 6 66 7 0 0 0 0 0 0 0 0 0 0 0 0
X 1 27
A 76 10 0 0 75 6 66 28 0 0 0 0 0 0 0 0 0 0 0 0
X 1 54
A 77 10 0 0 76 6 66 10 0 0 0 0 0 0 0 0 0 0 0 0
X 1 29
A 78 10 0 0 77 6 66 13 0 0 0 0 0 0 0 0 0 0 0 0
X 1 13
A 80 1 0 1 0 89 643 0 0 0 0 0 0 0 0 0 0 0 0 0
A 81 10 0 0 0 6 80 1 0 0 0 0 0 0 0 0 0 0 0 0
X 1 20
A 82 10 0 0 81 6 80 4 0 0 0 0 0 0 0 0 0 0 0 0
X 1 23
A 83 4 0 0 3 6 82 0 3 0 0 0 0 2 0 0 0 0 0 0
A 84 4 0 0 0 6 81 0 83 0 0 0 0 1 0 0 0 0 0 0
A 85 10 0 0 82 6 80 7 0 0 0 0 0 0 0 0 0 0 0 0
X 1 27
A 86 10 0 0 85 6 80 10 0 0 0 0 0 0 0 0 0 0 0 0
X 1 29
A 87 10 0 0 86 6 80 13 0 0 0 0 0 0 0 0 0 0 0 0
X 1 13
A 92 2 0 0 0 6 652 0 0 0 92 0 0 0 0 0 0 0 0 0
A 93 1 0 7 0 95 653 0 0 0 0 0 0 0 0 0 0 0 0 0
A 94 10 0 0 0 6 93 1 0 0 0 0 0 0 0 0 0 0 0 0
X 1 20
A 95 10 0 0 94 6 93 4 0 0 0 0 0 0 0 0 0 0 0 0
X 1 23
A 96 4 0 0 0 6 95 0 3 0 0 0 0 2 0 0 0 0 0 0
A 97 4 0 0 0 6 94 0 96 0 0 0 0 1 0 0 0 0 0 0
A 98 10 0 0 95 6 93 16 0 0 0 0 0 0 0 0 0 0 0 0
X 1 41
A 99 10 0 0 98 6 93 19 0 0 0 0 0 0 0 0 0 0 0 0
X 1 43
A 100 4 0 0 0 6 99 0 3 0 0 0 0 2 0 0 0 0 0 0
A 101 4 0 0 0 6 98 0 100 0 0 0 0 1 0 0 0 0 0 0
A 102 10 0 0 99 6 93 22 0 0 0 0 0 0 0 0 0 0 0 0
X 1 47
A 103 10 0 0 102 6 93 25 0 0 0 0 0 0 0 0 0 0 0 0
X 1 49
A 104 4 0 0 0 6 103 0 3 0 0 0 0 2 0 0 0 0 0 0
A 105 4 0 0 0 6 102 0 104 0 0 0 0 1 0 0 0 0 0 0
A 106 2 0 0 0 6 657 0 0 0 106 0 0 0 0 0 0 0 0 0
A 107 10 0 0 103 6 93 34 0 0 0 0 0 0 0 0 0 0 0 0
X 1 106
A 108 2 0 0 0 6 658 0 0 0 108 0 0 0 0 0 0 0 0 0
A 109 10 0 0 107 6 93 37 0 0 0 0 0 0 0 0 0 0 0 0
X 1 108
A 110 4 0 0 0 6 109 0 3 0 0 0 0 2 0 0 0 0 0 0
A 111 4 0 0 0 6 107 0 110 0 0 0 0 1 0 0 0 0 0 0
A 112 10 0 0 109 6 93 7 0 0 0 0 0 0 0 0 0 0 0 0
X 1 27
A 113 10 0 0 112 6 93 28 0 0 0 0 0 0 0 0 0 0 0 0
X 1 54
A 114 10 0 0 113 6 93 31 0 0 0 0 0 0 0 0 0 0 0 0
X 1 56
A 115 2 0 0 0 6 659 0 0 0 115 0 0 0 0 0 0 0 0 0
A 116 10 0 0 114 6 93 40 0 0 0 0 0 0 0 0 0 0 0 0
X 1 115
A 117 10 0 0 116 6 93 10 0 0 0 0 0 0 0 0 0 0 0 0
X 1 29
A 118 10 0 0 117 6 93 13 0 0 0 0 0 0 0 0 0 0 0 0
X 1 13
A 122 1 0 3 0 101 664 0 0 0 0 0 0 0 0 0 0 0 0 0
A 123 10 0 0 0 6 122 1 0 0 0 0 0 0 0 0 0 0 0 0
X 1 20
A 124 10 0 0 123 6 122 4 0 0 0 0 0 0 0 0 0 0 0 0
X 1 23
A 125 4 0 0 0 6 124 0 3 0 0 0 0 2 0 0 0 0 0 0
A 126 4 0 0 108 6 123 0 125 0 0 0 0 1 0 0 0 0 0 0
A 127 10 0 0 124 6 122 16 0 0 0 0 0 0 0 0 0 0 0 0
X 1 41
A 128 10 0 0 127 6 122 19 0 0 0 0 0 0 0 0 0 0 0 0
X 1 43
A 129 4 0 0 35 6 128 0 3 0 0 0 0 2 0 0 0 0 0 0
A 130 4 0 0 0 6 127 0 129 0 0 0 0 1 0 0 0 0 0 0
A 131 10 0 0 128 6 122 22 0 0 0 0 0 0 0 0 0 0 0 0
X 1 47
A 132 10 0 0 131 6 122 25 0 0 0 0 0 0 0 0 0 0 0 0
X 1 49
A 133 4 0 0 0 6 132 0 3 0 0 0 0 2 0 0 0 0 0 0
A 134 4 0 0 0 6 131 0 133 0 0 0 0 1 0 0 0 0 0 0
A 135 10 0 0 132 6 122 7 0 0 0 0 0 0 0 0 0 0 0 0
X 1 27
A 136 10 0 0 135 6 122 28 0 0 0 0 0 0 0 0 0 0 0 0
X 1 54
A 137 10 0 0 136 6 122 31 0 0 0 0 0 0 0 0 0 0 0 0
X 1 56
A 138 10 0 0 137 6 122 10 0 0 0 0 0 0 0 0 0 0 0 0
X 1 29
A 139 10 0 0 138 6 122 13 0 0 0 0 0 0 0 0 0 0 0 0
X 1 13
Z
Z
