V26 output
9 phcom.F90 S582 0
04/24/2012  16:05:16
enduse
D 56 18 12
S 582 24 0 0 0 9 1 0 4658 5 0 A 0 0 0 0 0 0 0 0 0 0 0 0 368 0 0 0 0 0 0 0 0 357 0 0 0 0 0 0 output
S 583 3 0 0 0 6 0 1 0 0 0 A 0 0 0 0 0 0 0 0 0 256 0 0 0 0 0 0 0 0 0 0 0 0 0 0 0 0 0 0 6
S 584 6 4 0 0 56 585 582 4665 4 0 A 0 0 0 0 0 0 0 0 0 0 0 0 587 0 0 0 0 0 0 0 0 0 0 582 0 0 0 0 fildyn
S 585 6 4 0 0 56 586 582 4672 4 0 A 0 0 0 0 0 256 0 0 0 0 0 0 587 0 0 0 0 0 0 0 0 0 0 582 0 0 0 0 fildvscf
S 586 6 4 0 0 56 1 582 4681 4 0 A 0 0 0 0 0 512 0 0 0 0 0 0 587 0 0 0 0 0 0 0 0 0 0 582 0 0 0 0 fildrho
S 587 11 0 0 0 9 1 582 4689 40800000 801000 A 0 0 0 0 0 768 0 0 584 586 0 0 0 0 0 0 0 0 0 0 0 0 0 0 0 0 0 0 _output$1
A 12 2 0 0 0 6 583 0 0 0 12 0 0 0 0 0 0 0 0 0
Z
Z
