V26 partial
9 phcom.F90 S582 0
04/24/2012  16:05:16
use kinds private
use kinds private
enduse
D 56 21 6 1 30 29 0 1 0 0 1
 21 25 27 21 25 23
D 59 21 6 1 0 18 0 0 0 0 0
 0 18 0 3 18 0
D 62 21 6 1 39 38 0 1 0 0 1
 33 36 37 33 36 34
D 65 21 6 1 0 18 0 0 0 0 0
 0 18 0 3 18 0
D 68 21 6 1 48 47 0 1 0 0 1
 42 45 46 42 45 43
D 71 21 6 1 0 18 0 0 0 0 0
 0 18 0 3 18 0
D 74 21 6 1 57 56 0 1 0 0 1
 51 54 55 51 54 52
D 77 21 6 1 0 18 0 0 0 0 0
 0 18 0 3 18 0
D 80 21 6 1 66 65 0 1 0 0 1
 60 63 64 60 63 61
D 83 21 6 1 0 18 0 0 0 0 0
 0 18 0 3 18 0
S 582 24 0 0 0 9 1 0 4658 5 0 A 0 0 0 0 0 0 0 0 0 0 0 0 249 0 0 0 0 0 0 0 0 225 0 0 0 0 0 0 partial
S 584 23 0 0 0 9 587 582 4672 4 0 A 0 0 0 0 0 0 0 0 0 0 0 0 0 0 0 0 0 0 0 0 0 0 0 582 0 0 0 0 dp
S 585 3 0 0 0 6 1 1 0 0 0 A 0 0 0 0 0 0 0 0 0 8 0 0 0 0 0 0 0 0 0 0 0 0 0 0 0 0 0 0 6
R 587 16 1 kinds dp
S 594 7 6 0 0 56 1 582 4706 10a00004 51 A 0 0 0 0 0 0 598 0 0 0 600 0 0 0 0 0 0 0 0 597 0 0 599 582 0 0 0 0 comp_irr
S 595 6 4 0 0 6 606 582 4715 40800006 0 A 0 0 0 0 0 0 0 0 0 0 0 0 632 0 0 0 0 0 0 0 0 0 0 582 0 0 0 0 z_b_0
S 596 3 0 0 0 6 0 1 0 0 0 A 0 0 0 0 0 0 0 0 0 18 0 0 0 0 0 0 0 0 0 0 0 0 0 0 0 0 0 0 6
S 597 8 4 0 0 59 608 582 4721 40822064 1020 A 0 0 0 0 0 0 0 0 0 0 0 0 632 0 0 0 0 0 0 0 0 0 0 582 0 0 0 0 comp_irr$sd
S 598 6 4 0 0 7 599 582 4733 40802061 1020 A 0 0 0 0 0 72 0 0 0 0 0 0 632 0 0 0 0 0 0 0 0 0 0 582 0 0 0 0 comp_irr$p
S 599 6 4 0 0 7 597 582 4744 40802060 1020 A 0 0 0 0 0 80 0 0 0 0 0 0 632 0 0 0 0 0 0 0 0 0 0 582 0 0 0 0 comp_irr$o
S 600 22 1 0 0 9 1 582 4755 40000000 1000 A 0 0 0 0 0 0 0 594 0 0 0 0 597 0 0 0 0 0 0 0 0 0 0 582 0 0 0 0 comp_irr$arrdsc
S 601 3 0 0 0 6 0 1 0 0 0 A 0 0 0 0 0 0 0 0 0 13 0 0 0 0 0 0 0 0 0 0 0 0 0 0 0 0 0 0 6
S 602 3 0 0 0 6 0 1 0 0 0 A 0 0 0 0 0 0 0 0 0 14 0 0 0 0 0 0 0 0 0 0 0 0 0 0 0 0 0 0 6
S 603 3 0 0 0 6 0 1 0 0 0 A 0 0 0 0 0 0 0 0 0 17 0 0 0 0 0 0 0 0 0 0 0 0 0 0 0 0 0 0 6
S 604 3 0 0 0 6 0 1 0 0 0 A 0 0 0 0 0 0 0 0 0 7 0 0 0 0 0 0 0 0 0 0 0 0 0 0 0 0 0 0 6
S 605 7 6 0 0 62 1 582 4771 10a00004 51 A 0 0 0 0 0 0 608 0 0 0 610 0 0 0 0 0 0 0 0 607 0 0 609 582 0 0 0 0 ifat
S 606 6 4 0 0 6 612 582 4776 40800006 0 A 0 0 0 0 0 4 0 0 0 0 0 0 632 0 0 0 0 0 0 0 0 0 0 582 0 0 0 0 z_b_1
S 607 8 4 0 0 65 614 582 4782 40822064 1020 A 0 0 0 0 0 88 0 0 0 0 0 0 632 0 0 0 0 0 0 0 0 0 0 582 0 0 0 0 ifat$sd
S 608 6 4 0 0 7 609 582 4790 40802061 1020 A 0 0 0 0 0 160 0 0 0 0 0 0 632 0 0 0 0 0 0 0 0 0 0 582 0 0 0 0 ifat$p
S 609 6 4 0 0 7 607 582 4797 40802060 1020 A 0 0 0 0 0 168 0 0 0 0 0 0 632 0 0 0 0 0 0 0 0 0 0 582 0 0 0 0 ifat$o
S 610 22 1 0 0 6 1 582 4804 40000000 1000 A 0 0 0 0 0 0 0 605 0 0 0 0 607 0 0 0 0 0 0 0 0 0 0 582 0 0 0 0 ifat$arrdsc
S 611 7 6 0 0 68 1 582 4816 10a00004 51 A 0 0 0 0 0 0 614 0 0 0 616 0 0 0 0 0 0 0 0 613 0 0 615 582 0 0 0 0 done_irr
S 612 6 4 0 0 6 618 582 4825 40800006 0 A 0 0 0 0 0 8 0 0 0 0 0 0 632 0 0 0 0 0 0 0 0 0 0 582 0 0 0 0 z_b_2
S 613 8 4 0 0 71 620 582 4831 40822064 1020 A 0 0 0 0 0 176 0 0 0 0 0 0 632 0 0 0 0 0 0 0 0 0 0 582 0 0 0 0 done_irr$sd
S 614 6 4 0 0 7 615 582 4843 40802061 1020 A 0 0 0 0 0 248 0 0 0 0 0 0 632 0 0 0 0 0 0 0 0 0 0 582 0 0 0 0 done_irr$p
S 615 6 4 0 0 7 613 582 4854 40802060 1020 A 0 0 0 0 0 256 0 0 0 0 0 0 632 0 0 0 0 0 0 0 0 0 0 582 0 0 0 0 done_irr$o
S 616 22 1 0 0 9 1 582 4865 40000000 1000 A 0 0 0 0 0 0 0 611 0 0 0 0 613 0 0 0 0 0 0 0 0 0 0 582 0 0 0 0 done_irr$arrdsc
S 617 7 6 0 0 74 1 582 4881 10a00004 51 A 0 0 0 0 0 0 620 0 0 0 622 0 0 0 0 0 0 0 0 619 0 0 621 582 0 0 0 0 list
S 618 6 4 0 0 6 624 582 4886 40800006 0 A 0 0 0 0 0 12 0 0 0 0 0 0 632 0 0 0 0 0 0 0 0 0 0 582 0 0 0 0 z_b_3
S 619 8 4 0 0 77 626 582 4892 40822064 1020 A 0 0 0 0 0 264 0 0 0 0 0 0 632 0 0 0 0 0 0 0 0 0 0 582 0 0 0 0 list$sd
S 620 6 4 0 0 7 621 582 4900 40802061 1020 A 0 0 0 0 0 336 0 0 0 0 0 0 632 0 0 0 0 0 0 0 0 0 0 582 0 0 0 0 list$p
S 621 6 4 0 0 7 619 582 4907 40802060 1020 A 0 0 0 0 0 344 0 0 0 0 0 0 632 0 0 0 0 0 0 0 0 0 0 582 0 0 0 0 list$o
S 622 22 1 0 0 6 1 582 4914 40000000 1000 A 0 0 0 0 0 0 0 617 0 0 0 0 619 0 0 0 0 0 0 0 0 0 0 582 0 0 0 0 list$arrdsc
S 623 7 6 0 0 80 1 582 4926 10a00004 51 A 0 0 0 0 0 0 626 0 0 0 628 0 0 0 0 0 0 0 0 625 0 0 627 582 0 0 0 0 atomo
S 624 6 4 0 0 6 629 582 4932 40800006 0 A 0 0 0 0 0 16 0 0 0 0 0 0 632 0 0 0 0 0 0 0 0 0 0 582 0 0 0 0 z_b_4
S 625 8 4 0 0 83 595 582 4938 40822064 1020 A 0 0 0 0 0 352 0 0 0 0 0 0 632 0 0 0 0 0 0 0 0 0 0 582 0 0 0 0 atomo$sd
S 626 6 4 0 0 7 627 582 4947 40802061 1020 A 0 0 0 0 0 424 0 0 0 0 0 0 632 0 0 0 0 0 0 0 0 0 0 582 0 0 0 0 atomo$p
S 627 6 4 0 0 7 625 582 4955 40802060 1020 A 0 0 0 0 0 432 0 0 0 0 0 0 632 0 0 0 0 0 0 0 0 0 0 582 0 0 0 0 atomo$o
S 628 22 1 0 0 9 1 582 4963 40000000 1000 A 0 0 0 0 0 0 0 623 0 0 0 0 625 0 0 0 0 0 0 0 0 0 0 582 0 0 0 0 atomo$arrdsc
S 629 6 4 0 0 6 630 582 4976 4 0 A 0 0 0 0 0 20 0 0 0 0 0 0 632 0 0 0 0 0 0 0 0 0 0 582 0 0 0 0 nat_todo
S 630 6 4 0 0 6 631 582 4985 4 0 A 0 0 0 0 0 24 0 0 0 0 0 0 632 0 0 0 0 0 0 0 0 0 0 582 0 0 0 0 nrapp
S 631 6 4 0 0 16 1 582 4991 4 0 A 0 0 0 0 0 28 0 0 0 0 0 0 632 0 0 0 0 0 0 0 0 0 0 582 0 0 0 0 all_comp
S 632 11 0 0 0 9 1 582 5000 40800000 801000 A 0 0 0 0 0 472 0 0 598 631 0 0 0 0 0 0 0 0 0 0 0 0 0 0 0 0 0 0 _partial$0
A 13 2 0 0 0 6 585 0 0 0 13 0 0 0 0 0 0 0 0 0
A 18 2 0 0 0 6 596 0 0 0 18 0 0 0 0 0 0 0 0 0
A 19 2 0 0 0 6 601 0 0 0 19 0 0 0 0 0 0 0 0 0
A 20 1 0 1 0 59 597 0 0 0 0 0 0 0 0 0 0 0 0 0
A 21 10 0 0 0 6 20 1 0 0 0 0 0 0 0 0 0 0 0 0
X 1 19
A 22 2 0 0 0 6 602 0 0 0 22 0 0 0 0 0 0 0 0 0
A 23 10 0 0 21 6 20 4 0 0 0 0 0 0 0 0 0 0 0 0
X 1 22
A 24 4 0 0 0 6 23 0 3 0 0 0 0 2 0 0 0 0 0 0
A 25 4 0 0 0 6 21 0 24 0 0 0 0 1 0 0 0 0 0 0
A 26 2 0 0 0 6 603 0 0 0 26 0 0 0 0 0 0 0 0 0
A 27 10 0 0 23 6 20 7 0 0 0 0 0 0 0 0 0 0 0 0
X 1 26
A 28 2 0 0 0 6 604 0 0 0 28 0 0 0 0 0 0 0 0 0
A 29 10 0 0 27 6 20 10 0 0 0 0 0 0 0 0 0 0 0 0
X 1 28
A 30 10 0 0 29 6 20 13 0 0 0 0 0 0 0 0 0 0 0 0
X 1 13
A 32 1 0 1 0 65 607 0 0 0 0 0 0 0 0 0 0 0 0 0
A 33 10 0 0 0 6 32 1 0 0 0 0 0 0 0 0 0 0 0 0
X 1 19
A 34 10 0 0 33 6 32 4 0 0 0 0 0 0 0 0 0 0 0 0
X 1 22
A 35 4 0 0 0 6 34 0 3 0 0 0 0 2 0 0 0 0 0 0
A 36 4 0 0 0 6 33 0 35 0 0 0 0 1 0 0 0 0 0 0
A 37 10 0 0 34 6 32 7 0 0 0 0 0 0 0 0 0 0 0 0
X 1 26
A 38 10 0 0 37 6 32 10 0 0 0 0 0 0 0 0 0 0 0 0
X 1 28
A 39 10 0 0 38 6 32 13 0 0 0 0 0 0 0 0 0 0 0 0
X 1 13
A 41 1 0 1 0 71 613 0 0 0 0 0 0 0 0 0 0 0 0 0
A 42 10 0 0 0 6 41 1 0 0 0 0 0 0 0 0 0 0 0 0
X 1 19
A 43 10 0 0 42 6 41 4 0 0 0 0 0 0 0 0 0 0 0 0
X 1 22
A 44 4 0 0 0 6 43 0 3 0 0 0 0 2 0 0 0 0 0 0
A 45 4 0 0 0 6 42 0 44 0 0 0 0 1 0 0 0 0 0 0
A 46 10 0 0 43 6 41 7 0 0 0 0 0 0 0 0 0 0 0 0
X 1 26
A 47 10 0 0 46 6 41 10 0 0 0 0 0 0 0 0 0 0 0 0
X 1 28
A 48 10 0 0 47 6 41 13 0 0 0 0 0 0 0 0 0 0 0 0
X 1 13
A 50 1 0 1 0 77 619 0 0 0 0 0 0 0 0 0 0 0 0 0
A 51 10 0 0 0 6 50 1 0 0 0 0 0 0 0 0 0 0 0 0
X 1 19
A 52 10 0 0 51 6 50 4 0 0 0 0 0 0 0 0 0 0 0 0
X 1 22
A 53 4 0 0 0 6 52 0 3 0 0 0 0 2 0 0 0 0 0 0
A 54 4 0 0 0 6 51 0 53 0 0 0 0 1 0 0 0 0 0 0
A 55 10 0 0 52 6 50 7 0 0 0 0 0 0 0 0 0 0 0 0
X 1 26
A 56 10 0 0 55 6 50 10 0 0 0 0 0 0 0 0 0 0 0 0
X 1 28
A 57 10 0 0 56 6 50 13 0 0 0 0 0 0 0 0 0 0 0 0
X 1 13
A 59 1 0 1 0 83 625 0 0 0 0 0 0 0 0 0 0 0 0 0
A 60 10 0 0 50 6 59 1 0 0 0 0 0 0 0 0 0 0 0 0
X 1 19
A 61 10 0 0 60 6 59 4 0 0 0 0 0 0 0 0 0 0 0 0
X 1 22
A 62 4 0 0 0 6 61 0 3 0 0 0 0 2 0 0 0 0 0 0
A 63 4 0 0 0 6 60 0 62 0 0 0 0 1 0 0 0 0 0 0
A 64 10 0 0 61 6 59 7 0 0 0 0 0 0 0 0 0 0 0 0
X 1 26
A 65 10 0 0 64 6 59 10 0 0 0 0 0 0 0 0 0 0 0 0
X 1 28
A 66 10 0 0 65 6 59 13 0 0 0 0 0 0 0 0 0 0 0 0
X 1 13
Z
Z
