V26 phcom
9 phcom.F90 S582 0
04/24/2012  16:05:16
use modes public 0 direct
use dynmat public 0 direct
use qpoint public 0 direct
use eqv public 0 direct
use efield_mod public 0 direct
use nlcc_ph public 0 direct
use gc_ph public 0 direct
use phus public 0 direct
use partial public 0 direct
use control_ph public 0 direct
use freq_ph public 0 direct
use units_ph public 0 direct
use output public 0 direct
use gamma_gamma public 0 direct
use disp public 0 direct
enduse
S 582 24 0 0 0 9 1 0 4658 5 0 A 0 0 0 0 0 0 0 0 0 0 0 0 408 0 0 0 0 0 0 0 0 392 0 0 0 0 0 0 phcom
Z
Z
