V26 phus
9 phcom.F90 S582 0
04/24/2012  16:05:16
use kinds private
use kinds private
enduse
D 56 21 9 4 57 56 0 1 0 0 1
 24 28 48 24 28 26
 30 34 50 30 34 32
 36 40 52 36 40 38
 42 46 54 42 46 44
D 59 21 6 1 0 21 0 0 0 0 0
 0 21 0 3 21 0
D 62 21 9 4 84 83 0 1 0 0 1
 63 66 79 63 66 64
 67 70 80 67 70 68
 71 74 81 71 74 72
 75 78 82 75 78 76
D 65 21 6 1 0 21 0 0 0 0 0
 0 21 0 3 21 0
D 68 21 12 5 121 120 0 1 0 0 1
 92 95 114 92 95 93
 96 99 115 96 99 97
 100 103 116 100 103 101
 104 107 117 104 107 105
 109 113 119 109 113 111
D 71 21 6 1 0 90 0 0 0 0 0
 0 90 0 3 90 0
D 74 21 12 5 154 153 0 1 0 0 1
 128 131 148 128 131 129
 132 135 149 132 135 133
 136 139 150 136 139 137
 140 143 151 140 143 141
 144 147 152 144 147 145
D 77 21 6 1 0 90 0 0 0 0 0
 0 90 0 3 90 0
D 80 21 12 5 187 186 0 1 0 0 1
 161 164 181 161 164 162
 165 168 182 165 168 166
 169 172 183 169 172 170
 173 176 184 173 176 174
 177 180 185 177 180 178
D 83 21 6 1 0 90 0 0 0 0 0
 0 90 0 3 90 0
D 86 21 12 5 220 219 0 1 0 0 1
 194 197 214 194 197 195
 198 201 215 198 201 199
 202 205 216 202 205 203
 206 209 217 206 209 207
 210 213 218 210 213 211
D 89 21 6 1 0 90 0 0 0 0 0
 0 90 0 3 90 0
D 92 21 12 5 253 252 0 1 0 0 1
 227 230 247 227 230 228
 231 234 248 231 234 232
 235 238 249 235 238 236
 239 242 250 239 242 240
 243 246 251 243 246 244
D 95 21 6 1 0 90 0 0 0 0 0
 0 90 0 3 90 0
D 98 21 12 5 286 285 0 1 0 0 1
 260 263 280 260 263 261
 264 267 281 264 267 265
 268 271 282 268 271 269
 272 275 283 272 275 273
 276 279 284 276 279 277
D 101 21 6 1 0 90 0 0 0 0 0
 0 90 0 3 90 0
D 104 21 12 6 329 328 0 1 0 0 1
 295 298 321 295 298 296
 299 302 322 299 302 300
 303 306 323 303 306 304
 307 310 324 307 310 308
 311 314 325 311 314 312
 316 320 327 316 320 318
D 107 21 6 1 0 293 0 0 0 0 0
 0 293 0 3 293 0
D 110 21 12 5 362 361 0 1 0 0 1
 336 339 356 336 339 337
 340 343 357 340 343 341
 344 347 358 344 347 345
 348 351 359 348 351 349
 352 355 360 352 355 353
D 113 21 6 1 0 90 0 0 0 0 0
 0 90 0 3 90 0
D 116 21 12 6 401 400 0 1 0 0 1
 370 373 394 370 373 371
 374 377 395 374 377 375
 378 381 396 378 381 379
 382 385 397 382 385 383
 386 389 398 386 389 387
 390 393 399 390 393 391
D 119 21 6 1 0 293 0 0 0 0 0
 0 293 0 3 293 0
D 122 21 12 7 450 449 0 1 0 0 1
 411 414 441 411 414 412
 415 418 442 415 418 416
 419 422 443 419 422 420
 423 426 444 423 426 424
 427 430 445 427 430 428
 431 434 446 431 434 432
 436 440 448 436 440 438
D 125 21 6 1 0 409 0 0 0 0 0
 0 409 0 3 409 0
D 128 21 12 4 477 476 0 1 0 0 1
 456 459 472 456 459 457
 460 463 473 460 463 461
 464 467 474 464 467 465
 468 471 475 468 471 469
D 131 21 6 1 0 21 0 0 0 0 0
 0 21 0 3 21 0
D 134 21 12 5 510 509 0 1 0 0 1
 484 487 504 484 487 485
 488 491 505 488 491 489
 492 495 506 492 495 493
 496 499 507 496 499 497
 500 503 508 500 503 501
D 137 21 6 1 0 90 0 0 0 0 0
 0 90 0 3 90 0
D 140 21 12 5 543 542 0 1 0 0 1
 517 520 537 517 520 518
 521 524 538 521 524 522
 525 528 539 525 528 526
 529 532 540 529 532 530
 533 536 541 533 536 534
D 143 21 6 1 0 90 0 0 0 0 0
 0 90 0 3 90 0
D 146 21 12 3 565 564 0 1 0 0 1
 549 552 561 549 552 550
 553 556 562 553 556 554
 557 560 563 557 560 558
D 149 21 6 1 0 547 0 0 0 0 0
 0 547 0 3 547 0
D 152 21 12 4 592 591 0 1 0 0 1
 571 574 587 571 574 572
 575 578 588 575 578 576
 579 582 589 579 582 580
 583 586 590 583 586 584
D 155 21 6 1 0 21 0 0 0 0 0
 0 21 0 3 21 0
D 158 21 12 4 619 618 0 1 0 0 1
 598 601 614 598 601 599
 602 605 615 602 605 603
 606 609 616 606 609 607
 610 613 617 610 613 611
D 161 21 6 1 0 21 0 0 0 0 0
 0 21 0 3 21 0
D 164 21 12 5 652 651 0 1 0 0 1
 626 629 646 626 629 627
 630 633 647 630 633 631
 634 637 648 634 637 635
 638 641 649 638 641 639
 642 645 650 642 645 643
D 167 21 6 1 0 90 0 0 0 0 0
 0 90 0 3 90 0
S 582 24 0 0 0 9 1 0 4658 5 0 A 0 0 0 0 0 0 0 0 0 0 0 0 222 0 0 0 0 0 0 0 0 182 0 0 0 0 0 0 phus
S 584 23 0 0 0 9 587 582 4669 4 0 A 0 0 0 0 0 0 0 0 0 0 0 0 0 0 0 0 0 0 0 0 0 0 0 582 0 0 0 0 dp
S 585 3 0 0 0 6 1 1 0 0 0 A 0 0 0 0 0 0 0 0 0 8 0 0 0 0 0 0 0 0 0 0 0 0 0 0 0 0 0 0 6
R 587 16 1 kinds dp
S 594 7 6 0 0 56 1 582 4703 10a00004 51 A 0 0 0 0 0 0 601 0 0 0 603 0 0 0 0 0 0 0 0 600 0 0 602 582 0 0 0 0 alphasum
S 595 6 4 0 0 6 596 582 4712 40800006 0 A 0 0 0 0 0 0 0 0 0 0 0 0 808 0 0 0 0 0 0 0 0 0 0 582 0 0 0 0 z_b_0
S 596 6 4 0 0 6 597 582 4718 40800006 0 A 0 0 0 0 0 4 0 0 0 0 0 0 808 0 0 0 0 0 0 0 0 0 0 582 0 0 0 0 z_b_1
S 597 6 4 0 0 6 598 582 4724 40800006 0 A 0 0 0 0 0 8 0 0 0 0 0 0 808 0 0 0 0 0 0 0 0 0 0 582 0 0 0 0 z_b_2
S 598 6 4 0 0 6 618 582 4730 40800006 0 A 0 0 0 0 0 12 0 0 0 0 0 0 808 0 0 0 0 0 0 0 0 0 0 582 0 0 0 0 z_b_3
S 599 3 0 0 0 6 0 1 0 0 0 A 0 0 0 0 0 0 0 0 0 36 0 0 0 0 0 0 0 0 0 0 0 0 0 0 0 0 0 0 6
S 600 8 4 0 0 59 623 582 4736 40822064 1020 A 0 0 0 0 0 0 0 0 0 0 0 0 808 0 0 0 0 0 0 0 0 0 0 582 0 0 0 0 alphasum$sd
S 601 6 4 0 0 7 602 582 4748 40802061 1020 A 0 0 0 0 0 144 0 0 0 0 0 0 808 0 0 0 0 0 0 0 0 0 0 582 0 0 0 0 alphasum$p
S 602 6 4 0 0 7 600 582 4759 40802060 1020 A 0 0 0 0 0 152 0 0 0 0 0 0 808 0 0 0 0 0 0 0 0 0 0 582 0 0 0 0 alphasum$o
S 603 22 1 0 0 9 1 582 4770 40000000 1000 A 0 0 0 0 0 0 0 594 0 0 0 0 600 0 0 0 0 0 0 0 0 0 0 582 0 0 0 0 alphasum$arrdsc
S 604 3 0 0 0 6 0 1 0 0 0 A 0 0 0 0 0 0 0 0 0 13 0 0 0 0 0 0 0 0 0 0 0 0 0 0 0 0 0 0 6
S 605 3 0 0 0 6 0 1 0 0 0 A 0 0 0 0 0 0 0 0 0 14 0 0 0 0 0 0 0 0 0 0 0 0 0 0 0 0 0 0 6
S 606 3 0 0 0 6 0 1 0 0 0 A 0 0 0 0 0 0 0 0 0 19 0 0 0 0 0 0 0 0 0 0 0 0 0 0 0 0 0 0 6
S 607 3 0 0 0 6 0 1 0 0 0 A 0 0 0 0 0 0 0 0 0 20 0 0 0 0 0 0 0 0 0 0 0 0 0 0 0 0 0 0 6
S 608 3 0 0 0 6 0 1 0 0 0 A 0 0 0 0 0 0 0 0 0 25 0 0 0 0 0 0 0 0 0 0 0 0 0 0 0 0 0 0 6
S 609 3 0 0 0 6 0 1 0 0 0 A 0 0 0 0 0 0 0 0 0 26 0 0 0 0 0 0 0 0 0 0 0 0 0 0 0 0 0 0 6
S 610 3 0 0 0 6 0 1 0 0 0 A 0 0 0 0 0 0 0 0 0 31 0 0 0 0 0 0 0 0 0 0 0 0 0 0 0 0 0 0 6
S 611 3 0 0 0 6 0 1 0 0 0 A 0 0 0 0 0 0 0 0 0 32 0 0 0 0 0 0 0 0 0 0 0 0 0 0 0 0 0 0 6
S 612 3 0 0 0 6 0 1 0 0 0 A 0 0 0 0 0 0 0 0 0 17 0 0 0 0 0 0 0 0 0 0 0 0 0 0 0 0 0 0 6
S 613 3 0 0 0 6 0 1 0 0 0 A 0 0 0 0 0 0 0 0 0 23 0 0 0 0 0 0 0 0 0 0 0 0 0 0 0 0 0 0 6
S 614 3 0 0 0 6 0 1 0 0 0 A 0 0 0 0 0 0 0 0 0 29 0 0 0 0 0 0 0 0 0 0 0 0 0 0 0 0 0 0 6
S 615 3 0 0 0 6 0 1 0 0 0 A 0 0 0 0 0 0 0 0 0 35 0 0 0 0 0 0 0 0 0 0 0 0 0 0 0 0 0 0 6
S 616 3 0 0 0 6 0 1 0 0 0 A 0 0 0 0 0 0 0 0 0 7 0 0 0 0 0 0 0 0 0 0 0 0 0 0 0 0 0 0 6
S 617 7 6 0 0 62 1 582 4786 10a00004 51 A 0 0 0 0 0 0 623 0 0 0 625 0 0 0 0 0 0 0 0 622 0 0 624 582 0 0 0 0 dpqq
S 618 6 4 0 0 6 619 582 4791 40800006 0 A 0 0 0 0 0 16 0 0 0 0 0 0 808 0 0 0 0 0 0 0 0 0 0 582 0 0 0 0 z_b_4
S 619 6 4 0 0 6 620 582 4797 40800006 0 A 0 0 0 0 0 20 0 0 0 0 0 0 808 0 0 0 0 0 0 0 0 0 0 582 0 0 0 0 z_b_5
S 620 6 4 0 0 6 621 582 4803 40800006 0 A 0 0 0 0 0 24 0 0 0 0 0 0 808 0 0 0 0 0 0 0 0 0 0 582 0 0 0 0 z_b_6
S 621 6 4 0 0 6 626 582 4809 40800006 0 A 0 0 0 0 0 28 0 0 0 0 0 0 808 0 0 0 0 0 0 0 0 0 0 582 0 0 0 0 z_b_7
S 622 8 4 0 0 65 634 582 4815 40822064 1020 A 0 0 0 0 0 160 0 0 0 0 0 0 808 0 0 0 0 0 0 0 0 0 0 582 0 0 0 0 dpqq$sd
S 623 6 4 0 0 7 624 582 4823 40802061 1020 A 0 0 0 0 0 304 0 0 0 0 0 0 808 0 0 0 0 0 0 0 0 0 0 582 0 0 0 0 dpqq$p
S 624 6 4 0 0 7 622 582 4830 40802060 1020 A 0 0 0 0 0 312 0 0 0 0 0 0 808 0 0 0 0 0 0 0 0 0 0 582 0 0 0 0 dpqq$o
S 625 22 1 0 0 9 1 582 4837 40000000 1000 A 0 0 0 0 0 0 0 617 0 0 0 0 622 0 0 0 0 0 0 0 0 0 0 582 0 0 0 0 dpqq$arrdsc
S 626 6 4 0 0 6 627 582 4849 40800006 0 A 0 0 0 0 0 32 0 0 0 0 0 0 808 0 0 0 0 0 0 0 0 0 0 582 0 0 0 0 z_b_8
S 627 6 4 0 0 6 628 582 4855 40800006 0 A 0 0 0 0 0 36 0 0 0 0 0 0 808 0 0 0 0 0 0 0 0 0 0 582 0 0 0 0 z_b_9
S 628 6 4 0 0 6 629 582 4861 40800006 0 A 0 0 0 0 0 40 0 0 0 0 0 0 808 0 0 0 0 0 0 0 0 0 0 582 0 0 0 0 z_b_10
S 629 6 4 0 0 6 630 582 4868 40800006 0 A 0 0 0 0 0 44 0 0 0 0 0 0 808 0 0 0 0 0 0 0 0 0 0 582 0 0 0 0 z_b_11
S 630 6 4 0 0 6 640 582 4875 40800006 0 A 0 0 0 0 0 48 0 0 0 0 0 0 808 0 0 0 0 0 0 0 0 0 0 582 0 0 0 0 z_b_12
S 631 7 6 0 0 68 1 582 2112 10a00004 51 A 0 0 0 0 0 0 634 0 0 0 636 0 0 0 0 0 0 0 0 633 0 0 635 582 0 0 0 0 int1
S 632 3 0 0 0 6 0 1 0 0 0 A 0 0 0 0 0 0 0 0 0 42 0 0 0 0 0 0 0 0 0 0 0 0 0 0 0 0 0 0 6
S 633 8 4 0 0 71 647 582 4882 40822064 1020 A 0 0 0 0 0 320 0 0 0 0 0 0 808 0 0 0 0 0 0 0 0 0 0 582 0 0 0 0 int1$sd
S 634 6 4 0 0 7 635 582 4890 40802061 1020 A 0 0 0 0 0 488 0 0 0 0 0 0 808 0 0 0 0 0 0 0 0 0 0 582 0 0 0 0 int1$p
S 635 6 4 0 0 7 633 582 4897 40802060 1020 A 0 0 0 0 0 496 0 0 0 0 0 0 808 0 0 0 0 0 0 0 0 0 0 582 0 0 0 0 int1$o
S 636 22 1 0 0 6 1 582 4904 40000000 1000 A 0 0 0 0 0 0 0 631 0 0 0 0 633 0 0 0 0 0 0 0 0 0 0 582 0 0 0 0 int1$arrdsc
S 637 3 0 0 0 6 0 1 0 0 0 A 0 0 0 0 0 0 0 0 0 37 0 0 0 0 0 0 0 0 0 0 0 0 0 0 0 0 0 0 6
S 638 3 0 0 0 6 0 1 0 0 0 A 0 0 0 0 0 0 0 0 0 38 0 0 0 0 0 0 0 0 0 0 0 0 0 0 0 0 0 0 6
S 639 3 0 0 0 6 0 1 0 0 0 A 0 0 0 0 0 0 0 0 0 41 0 0 0 0 0 0 0 0 0 0 0 0 0 0 0 0 0 0 6
S 640 6 4 0 0 6 641 582 4916 40800006 0 A 0 0 0 0 0 52 0 0 0 0 0 0 808 0 0 0 0 0 0 0 0 0 0 582 0 0 0 0 z_b_13
S 641 6 4 0 0 6 642 582 4923 40800006 0 A 0 0 0 0 0 56 0 0 0 0 0 0 808 0 0 0 0 0 0 0 0 0 0 582 0 0 0 0 z_b_14
S 642 6 4 0 0 6 643 582 4930 40800006 0 A 0 0 0 0 0 60 0 0 0 0 0 0 808 0 0 0 0 0 0 0 0 0 0 582 0 0 0 0 z_b_15
S 643 6 4 0 0 6 644 582 4937 40800006 0 A 0 0 0 0 0 64 0 0 0 0 0 0 808 0 0 0 0 0 0 0 0 0 0 582 0 0 0 0 z_b_16
S 644 6 4 0 0 6 651 582 4944 40800006 0 A 0 0 0 0 0 68 0 0 0 0 0 0 808 0 0 0 0 0 0 0 0 0 0 582 0 0 0 0 z_b_17
S 645 7 6 0 0 74 1 582 2117 10a00004 51 A 0 0 0 0 0 0 647 0 0 0 649 0 0 0 0 0 0 0 0 646 0 0 648 582 0 0 0 0 int2
S 646 8 4 0 0 77 657 582 4951 40822064 1020 A 0 0 0 0 0 504 0 0 0 0 0 0 808 0 0 0 0 0 0 0 0 0 0 582 0 0 0 0 int2$sd
S 647 6 4 0 0 7 648 582 4959 40802061 1020 A 0 0 0 0 0 672 0 0 0 0 0 0 808 0 0 0 0 0 0 0 0 0 0 582 0 0 0 0 int2$p
S 648 6 4 0 0 7 646 582 4966 40802060 1020 A 0 0 0 0 0 680 0 0 0 0 0 0 808 0 0 0 0 0 0 0 0 0 0 582 0 0 0 0 int2$o
S 649 22 1 0 0 6 1 582 4973 40000000 1000 A 0 0 0 0 0 0 0 645 0 0 0 0 646 0 0 0 0 0 0 0 0 0 0 582 0 0 0 0 int2$arrdsc
S 650 7 6 0 0 80 1 582 4985 10a00004 51 A 0 0 0 0 0 0 657 0 0 0 659 0 0 0 0 0 0 0 0 656 0 0 658 582 0 0 0 0 int3
S 651 6 4 0 0 6 652 582 4990 40800006 0 A 0 0 0 0 0 72 0 0 0 0 0 0 808 0 0 0 0 0 0 0 0 0 0 582 0 0 0 0 z_b_18
S 652 6 4 0 0 6 653 582 4997 40800006 0 A 0 0 0 0 0 76 0 0 0 0 0 0 808 0 0 0 0 0 0 0 0 0 0 582 0 0 0 0 z_b_19
S 653 6 4 0 0 6 654 582 5004 40800006 0 A 0 0 0 0 0 80 0 0 0 0 0 0 808 0 0 0 0 0 0 0 0 0 0 582 0 0 0 0 z_b_20
S 654 6 4 0 0 6 655 582 5011 40800006 0 A 0 0 0 0 0 84 0 0 0 0 0 0 808 0 0 0 0 0 0 0 0 0 0 582 0 0 0 0 z_b_21
S 655 6 4 0 0 6 660 582 5018 40800006 0 A 0 0 0 0 0 88 0 0 0 0 0 0 808 0 0 0 0 0 0 0 0 0 0 582 0 0 0 0 z_b_22
S 656 8 4 0 0 83 667 582 5025 40822064 1020 A 0 0 0 0 0 688 0 0 0 0 0 0 808 0 0 0 0 0 0 0 0 0 0 582 0 0 0 0 int3$sd
S 657 6 4 0 0 7 658 582 5033 40802061 1020 A 0 0 0 0 0 856 0 0 0 0 0 0 808 0 0 0 0 0 0 0 0 0 0 582 0 0 0 0 int3$p
S 658 6 4 0 0 7 656 582 5040 40802060 1020 A 0 0 0 0 0 864 0 0 0 0 0 0 808 0 0 0 0 0 0 0 0 0 0 582 0 0 0 0 int3$o
S 659 22 1 0 0 6 1 582 5047 40000000 1000 A 0 0 0 0 0 0 0 650 0 0 0 0 656 0 0 0 0 0 0 0 0 0 0 582 0 0 0 0 int3$arrdsc
S 660 6 4 0 0 6 661 582 5059 40800006 0 A 0 0 0 0 0 92 0 0 0 0 0 0 808 0 0 0 0 0 0 0 0 0 0 582 0 0 0 0 z_b_23
S 661 6 4 0 0 6 662 582 5066 40800006 0 A 0 0 0 0 0 96 0 0 0 0 0 0 808 0 0 0 0 0 0 0 0 0 0 582 0 0 0 0 z_b_24
S 662 6 4 0 0 6 663 582 5073 40800006 0 A 0 0 0 0 0 100 0 0 0 0 0 0 808 0 0 0 0 0 0 0 0 0 0 582 0 0 0 0 z_b_25
S 663 6 4 0 0 6 664 582 5080 40800006 0 A 0 0 0 0 0 104 0 0 0 0 0 0 808 0 0 0 0 0 0 0 0 0 0 582 0 0 0 0 z_b_26
S 664 6 4 0 0 6 671 582 5087 40800006 0 A 0 0 0 0 0 108 0 0 0 0 0 0 808 0 0 0 0 0 0 0 0 0 0 582 0 0 0 0 z_b_27
S 665 7 6 0 0 86 1 582 2122 10a00004 51 A 0 0 0 0 0 0 667 0 0 0 669 0 0 0 0 0 0 0 0 666 0 0 668 582 0 0 0 0 int4
S 666 8 4 0 0 89 677 582 5094 40822064 1020 A 0 0 0 0 0 872 0 0 0 0 0 0 808 0 0 0 0 0 0 0 0 0 0 582 0 0 0 0 int4$sd
S 667 6 4 0 0 7 668 582 5102 40802061 1020 A 0 0 0 0 0 1040 0 0 0 0 0 0 808 0 0 0 0 0 0 0 0 0 0 582 0 0 0 0 int4$p
S 668 6 4 0 0 7 666 582 5109 40802060 1020 A 0 0 0 0 0 1048 0 0 0 0 0 0 808 0 0 0 0 0 0 0 0 0 0 582 0 0 0 0 int4$o
S 669 22 1 0 0 6 1 582 5116 40000000 1000 A 0 0 0 0 0 0 0 665 0 0 0 0 666 0 0 0 0 0 0 0 0 0 0 582 0 0 0 0 int4$arrdsc
S 670 7 6 0 0 92 1 582 5128 10a00004 51 A 0 0 0 0 0 0 677 0 0 0 679 0 0 0 0 0 0 0 0 676 0 0 678 582 0 0 0 0 int5
S 671 6 4 0 0 6 672 582 5133 40800006 0 A 0 0 0 0 0 112 0 0 0 0 0 0 808 0 0 0 0 0 0 0 0 0 0 582 0 0 0 0 z_b_28
S 672 6 4 0 0 6 673 582 5140 40800006 0 A 0 0 0 0 0 116 0 0 0 0 0 0 808 0 0 0 0 0 0 0 0 0 0 582 0 0 0 0 z_b_29
S 673 6 4 0 0 6 674 582 5147 40800006 0 A 0 0 0 0 0 120 0 0 0 0 0 0 808 0 0 0 0 0 0 0 0 0 0 582 0 0 0 0 z_b_30
S 674 6 4 0 0 6 675 582 5154 40800006 0 A 0 0 0 0 0 124 0 0 0 0 0 0 808 0 0 0 0 0 0 0 0 0 0 582 0 0 0 0 z_b_31
S 675 6 4 0 0 6 681 582 5161 40800006 0 A 0 0 0 0 0 128 0 0 0 0 0 0 808 0 0 0 0 0 0 0 0 0 0 582 0 0 0 0 z_b_32
S 676 8 4 0 0 95 687 582 5168 40822064 1020 A 0 0 0 0 0 1056 0 0 0 0 0 0 808 0 0 0 0 0 0 0 0 0 0 582 0 0 0 0 int5$sd
S 677 6 4 0 0 7 678 582 5176 40802061 1020 A 0 0 0 0 0 1224 0 0 0 0 0 0 808 0 0 0 0 0 0 0 0 0 0 582 0 0 0 0 int5$p
S 678 6 4 0 0 7 676 582 5183 40802060 1020 A 0 0 0 0 0 1232 0 0 0 0 0 0 808 0 0 0 0 0 0 0 0 0 0 582 0 0 0 0 int5$o
S 679 22 1 0 0 6 1 582 5190 40000000 1000 A 0 0 0 0 0 0 0 670 0 0 0 0 676 0 0 0 0 0 0 0 0 0 0 582 0 0 0 0 int5$arrdsc
S 680 7 6 0 0 98 1 582 5202 10a00004 51 A 0 0 0 0 0 0 687 0 0 0 689 0 0 0 0 0 0 0 0 686 0 0 688 582 0 0 0 0 int1_nc
S 681 6 4 0 0 6 682 582 5210 40800006 0 A 0 0 0 0 0 132 0 0 0 0 0 0 808 0 0 0 0 0 0 0 0 0 0 582 0 0 0 0 z_b_33
S 682 6 4 0 0 6 683 582 5217 40800006 0 A 0 0 0 0 0 136 0 0 0 0 0 0 808 0 0 0 0 0 0 0 0 0 0 582 0 0 0 0 z_b_34
S 683 6 4 0 0 6 684 582 5224 40800006 0 A 0 0 0 0 0 140 0 0 0 0 0 0 808 0 0 0 0 0 0 0 0 0 0 582 0 0 0 0 z_b_35
S 684 6 4 0 0 6 685 582 5231 40800006 0 A 0 0 0 0 0 144 0 0 0 0 0 0 808 0 0 0 0 0 0 0 0 0 0 582 0 0 0 0 z_b_36
S 685 6 4 0 0 6 691 582 5238 40800006 0 A 0 0 0 0 0 148 0 0 0 0 0 0 808 0 0 0 0 0 0 0 0 0 0 582 0 0 0 0 z_b_37
S 686 8 4 0 0 101 699 582 5245 40822064 1020 A 0 0 0 0 0 1240 0 0 0 0 0 0 808 0 0 0 0 0 0 0 0 0 0 582 0 0 0 0 int1_nc$sd
S 687 6 4 0 0 7 688 582 5256 40802061 1020 A 0 0 0 0 0 1408 0 0 0 0 0 0 808 0 0 0 0 0 0 0 0 0 0 582 0 0 0 0 int1_nc$p
S 688 6 4 0 0 7 686 582 5266 40802060 1020 A 0 0 0 0 0 1416 0 0 0 0 0 0 808 0 0 0 0 0 0 0 0 0 0 582 0 0 0 0 int1_nc$o
S 689 22 1 0 0 6 1 582 5276 40000000 1000 A 0 0 0 0 0 0 0 680 0 0 0 0 686 0 0 0 0 0 0 0 0 0 0 582 0 0 0 0 int1_nc$arrdsc
S 690 7 6 0 0 104 1 582 5291 10a00004 51 A 0 0 0 0 0 0 699 0 0 0 701 0 0 0 0 0 0 0 0 698 0 0 700 582 0 0 0 0 int2_so
S 691 6 4 0 0 6 692 582 5299 40800006 0 A 0 0 0 0 0 152 0 0 0 0 0 0 808 0 0 0 0 0 0 0 0 0 0 582 0 0 0 0 z_b_38
S 692 6 4 0 0 6 693 582 5306 40800006 0 A 0 0 0 0 0 156 0 0 0 0 0 0 808 0 0 0 0 0 0 0 0 0 0 582 0 0 0 0 z_b_39
S 693 6 4 0 0 6 694 582 5313 40800006 0 A 0 0 0 0 0 160 0 0 0 0 0 0 808 0 0 0 0 0 0 0 0 0 0 582 0 0 0 0 z_b_40
S 694 6 4 0 0 6 695 582 5320 40800006 0 A 0 0 0 0 0 164 0 0 0 0 0 0 808 0 0 0 0 0 0 0 0 0 0 582 0 0 0 0 z_b_41
S 695 6 4 0 0 6 696 582 5327 40800006 0 A 0 0 0 0 0 168 0 0 0 0 0 0 808 0 0 0 0 0 0 0 0 0 0 582 0 0 0 0 z_b_42
S 696 6 4 0 0 6 706 582 5334 40800006 0 A 0 0 0 0 0 172 0 0 0 0 0 0 808 0 0 0 0 0 0 0 0 0 0 582 0 0 0 0 z_b_43
S 697 3 0 0 0 6 0 1 0 0 0 A 0 0 0 0 0 0 0 0 0 48 0 0 0 0 0 0 0 0 0 0 0 0 0 0 0 0 0 0 6
S 698 8 4 0 0 107 712 582 5341 40822064 1020 A 0 0 0 0 0 1424 0 0 0 0 0 0 808 0 0 0 0 0 0 0 0 0 0 582 0 0 0 0 int2_so$sd
S 699 6 4 0 0 7 700 582 5352 40802061 1020 A 0 0 0 0 0 1616 0 0 0 0 0 0 808 0 0 0 0 0 0 0 0 0 0 582 0 0 0 0 int2_so$p
S 700 6 4 0 0 7 698 582 5362 40802060 1020 A 0 0 0 0 0 1624 0 0 0 0 0 0 808 0 0 0 0 0 0 0 0 0 0 582 0 0 0 0 int2_so$o
S 701 22 1 0 0 6 1 582 5372 40000000 1000 A 0 0 0 0 0 0 0 690 0 0 0 0 698 0 0 0 0 0 0 0 0 0 0 582 0 0 0 0 int2_so$arrdsc
S 702 3 0 0 0 6 0 1 0 0 0 A 0 0 0 0 0 0 0 0 0 43 0 0 0 0 0 0 0 0 0 0 0 0 0 0 0 0 0 0 6
S 703 3 0 0 0 6 0 1 0 0 0 A 0 0 0 0 0 0 0 0 0 44 0 0 0 0 0 0 0 0 0 0 0 0 0 0 0 0 0 0 6
S 704 3 0 0 0 6 0 1 0 0 0 A 0 0 0 0 0 0 0 0 0 47 0 0 0 0 0 0 0 0 0 0 0 0 0 0 0 0 0 0 6
S 705 7 6 0 0 110 1 582 5387 10a00004 51 A 0 0 0 0 0 0 712 0 0 0 714 0 0 0 0 0 0 0 0 711 0 0 713 582 0 0 0 0 int3_nc
S 706 6 4 0 0 6 707 582 5395 40800006 0 A 0 0 0 0 0 176 0 0 0 0 0 0 808 0 0 0 0 0 0 0 0 0 0 582 0 0 0 0 z_b_44
S 707 6 4 0 0 6 708 582 5402 40800006 0 A 0 0 0 0 0 180 0 0 0 0 0 0 808 0 0 0 0 0 0 0 0 0 0 582 0 0 0 0 z_b_45
S 708 6 4 0 0 6 709 582 5409 40800006 0 A 0 0 0 0 0 184 0 0 0 0 0 0 808 0 0 0 0 0 0 0 0 0 0 582 0 0 0 0 z_b_46
S 709 6 4 0 0 6 710 582 5416 40800006 0 A 0 0 0 0 0 188 0 0 0 0 0 0 808 0 0 0 0 0 0 0 0 0 0 582 0 0 0 0 z_b_47
S 710 6 4 0 0 6 716 582 5423 40800006 0 A 0 0 0 0 0 192 0 0 0 0 0 0 808 0 0 0 0 0 0 0 0 0 0 582 0 0 0 0 z_b_48
S 711 8 4 0 0 113 723 582 5430 40822064 1020 A 0 0 0 0 0 1632 0 0 0 0 0 0 808 0 0 0 0 0 0 0 0 0 0 582 0 0 0 0 int3_nc$sd
S 712 6 4 0 0 7 713 582 5441 40802061 1020 A 0 0 0 0 0 1800 0 0 0 0 0 0 808 0 0 0 0 0 0 0 0 0 0 582 0 0 0 0 int3_nc$p
S 713 6 4 0 0 7 711 582 5451 40802060 1020 A 0 0 0 0 0 1808 0 0 0 0 0 0 808 0 0 0 0 0 0 0 0 0 0 582 0 0 0 0 int3_nc$o
S 714 22 1 0 0 6 1 582 5461 40000000 1000 A 0 0 0 0 0 0 0 705 0 0 0 0 711 0 0 0 0 0 0 0 0 0 0 582 0 0 0 0 int3_nc$arrdsc
S 715 7 6 0 0 116 1 582 5476 10a00004 51 A 0 0 0 0 0 0 723 0 0 0 725 0 0 0 0 0 0 0 0 722 0 0 724 582 0 0 0 0 int4_nc
S 716 6 4 0 0 6 717 582 5484 40800006 0 A 0 0 0 0 0 196 0 0 0 0 0 0 808 0 0 0 0 0 0 0 0 0 0 582 0 0 0 0 z_b_49
S 717 6 4 0 0 6 718 582 5491 40800006 0 A 0 0 0 0 0 200 0 0 0 0 0 0 808 0 0 0 0 0 0 0 0 0 0 582 0 0 0 0 z_b_50
S 718 6 4 0 0 6 719 582 5498 40800006 0 A 0 0 0 0 0 204 0 0 0 0 0 0 808 0 0 0 0 0 0 0 0 0 0 582 0 0 0 0 z_b_51
S 719 6 4 0 0 6 720 582 5505 40800006 0 A 0 0 0 0 0 208 0 0 0 0 0 0 808 0 0 0 0 0 0 0 0 0 0 582 0 0 0 0 z_b_52
S 720 6 4 0 0 6 721 582 5512 40800006 0 A 0 0 0 0 0 212 0 0 0 0 0 0 808 0 0 0 0 0 0 0 0 0 0 582 0 0 0 0 z_b_53
S 721 6 4 0 0 6 727 582 5519 40800006 0 A 0 0 0 0 0 216 0 0 0 0 0 0 808 0 0 0 0 0 0 0 0 0 0 582 0 0 0 0 z_b_54
S 722 8 4 0 0 119 736 582 5526 40822064 1020 A 0 0 0 0 0 1816 0 0 0 0 0 0 808 0 0 0 0 0 0 0 0 0 0 582 0 0 0 0 int4_nc$sd
S 723 6 4 0 0 7 724 582 5537 40802061 1020 A 0 0 0 0 0 2008 0 0 0 0 0 0 808 0 0 0 0 0 0 0 0 0 0 582 0 0 0 0 int4_nc$p
S 724 6 4 0 0 7 722 582 5547 40802060 1020 A 0 0 0 0 0 2016 0 0 0 0 0 0 808 0 0 0 0 0 0 0 0 0 0 582 0 0 0 0 int4_nc$o
S 725 22 1 0 0 6 1 582 5557 40000000 1000 A 0 0 0 0 0 0 0 715 0 0 0 0 722 0 0 0 0 0 0 0 0 0 0 582 0 0 0 0 int4_nc$arrdsc
S 726 7 6 0 0 122 1 582 5572 10a00004 51 A 0 0 0 0 0 0 736 0 0 0 738 0 0 0 0 0 0 0 0 735 0 0 737 582 0 0 0 0 int5_so
S 727 6 4 0 0 6 728 582 5580 40800006 0 A 0 0 0 0 0 220 0 0 0 0 0 0 808 0 0 0 0 0 0 0 0 0 0 582 0 0 0 0 z_b_55
S 728 6 4 0 0 6 729 582 5587 40800006 0 A 0 0 0 0 0 224 0 0 0 0 0 0 808 0 0 0 0 0 0 0 0 0 0 582 0 0 0 0 z_b_56
S 729 6 4 0 0 6 730 582 5594 40800006 0 A 0 0 0 0 0 228 0 0 0 0 0 0 808 0 0 0 0 0 0 0 0 0 0 582 0 0 0 0 z_b_57
S 730 6 4 0 0 6 731 582 5601 40800006 0 A 0 0 0 0 0 232 0 0 0 0 0 0 808 0 0 0 0 0 0 0 0 0 0 582 0 0 0 0 z_b_58
S 731 6 4 0 0 6 732 582 5608 40800006 0 A 0 0 0 0 0 236 0 0 0 0 0 0 808 0 0 0 0 0 0 0 0 0 0 582 0 0 0 0 z_b_59
S 732 6 4 0 0 6 733 582 5615 40800006 0 A 0 0 0 0 0 240 0 0 0 0 0 0 808 0 0 0 0 0 0 0 0 0 0 582 0 0 0 0 z_b_60
S 733 6 4 0 0 6 743 582 5622 40800006 0 A 0 0 0 0 0 244 0 0 0 0 0 0 808 0 0 0 0 0 0 0 0 0 0 582 0 0 0 0 z_b_61
S 734 3 0 0 0 6 0 1 0 0 0 A 0 0 0 0 0 0 0 0 0 54 0 0 0 0 0 0 0 0 0 0 0 0 0 0 0 0 0 0 6
S 735 8 4 0 0 125 748 582 5629 40822064 1020 A 0 0 0 0 0 2024 0 0 0 0 0 0 808 0 0 0 0 0 0 0 0 0 0 582 0 0 0 0 int5_so$sd
S 736 6 4 0 0 7 737 582 5640 40802061 1020 A 0 0 0 0 0 2240 0 0 0 0 0 0 808 0 0 0 0 0 0 0 0 0 0 582 0 0 0 0 int5_so$p
S 737 6 4 0 0 7 735 582 5650 40802060 1020 A 0 0 0 0 0 2248 0 0 0 0 0 0 808 0 0 0 0 0 0 0 0 0 0 582 0 0 0 0 int5_so$o
S 738 22 1 0 0 6 1 582 5660 40000000 1000 A 0 0 0 0 0 0 0 726 0 0 0 0 735 0 0 0 0 0 0 0 0 0 0 582 0 0 0 0 int5_so$arrdsc
S 739 3 0 0 0 6 0 1 0 0 0 A 0 0 0 0 0 0 0 0 0 49 0 0 0 0 0 0 0 0 0 0 0 0 0 0 0 0 0 0 6
S 740 3 0 0 0 6 0 1 0 0 0 A 0 0 0 0 0 0 0 0 0 50 0 0 0 0 0 0 0 0 0 0 0 0 0 0 0 0 0 0 6
S 741 3 0 0 0 6 0 1 0 0 0 A 0 0 0 0 0 0 0 0 0 53 0 0 0 0 0 0 0 0 0 0 0 0 0 0 0 0 0 0 6
S 742 7 6 0 0 128 1 582 5675 10a00004 51 A 0 0 0 0 0 0 748 0 0 0 750 0 0 0 0 0 0 0 0 747 0 0 749 582 0 0 0 0 becsum_nc
S 743 6 4 0 0 6 744 582 5685 40800006 0 A 0 0 0 0 0 248 0 0 0 0 0 0 808 0 0 0 0 0 0 0 0 0 0 582 0 0 0 0 z_b_62
S 744 6 4 0 0 6 745 582 5692 40800006 0 A 0 0 0 0 0 252 0 0 0 0 0 0 808 0 0 0 0 0 0 0 0 0 0 582 0 0 0 0 z_b_63
S 745 6 4 0 0 6 746 582 5699 40800006 0 A 0 0 0 0 0 256 0 0 0 0 0 0 808 0 0 0 0 0 0 0 0 0 0 582 0 0 0 0 z_b_64
S 746 6 4 0 0 6 752 582 5706 40800006 0 A 0 0 0 0 0 260 0 0 0 0 0 0 808 0 0 0 0 0 0 0 0 0 0 582 0 0 0 0 z_b_65
S 747 8 4 0 0 131 758 582 5713 40822064 1020 A 0 0 0 0 0 2256 0 0 0 0 0 0 808 0 0 0 0 0 0 0 0 0 0 582 0 0 0 0 becsum_nc$sd
S 748 6 4 0 0 7 749 582 5726 40802061 1020 A 0 0 0 0 0 2400 0 0 0 0 0 0 808 0 0 0 0 0 0 0 0 0 0 582 0 0 0 0 becsum_nc$p
S 749 6 4 0 0 7 747 582 5738 40802060 1020 A 0 0 0 0 0 2408 0 0 0 0 0 0 808 0 0 0 0 0 0 0 0 0 0 582 0 0 0 0 becsum_nc$o
S 750 22 1 0 0 9 1 582 5750 40000000 1000 A 0 0 0 0 0 0 0 742 0 0 0 0 747 0 0 0 0 0 0 0 0 0 0 582 0 0 0 0 becsum_nc$arrdsc
S 751 7 6 0 0 134 1 582 5767 10a00004 51 A 0 0 0 0 0 0 758 0 0 0 760 0 0 0 0 0 0 0 0 757 0 0 759 582 0 0 0 0 alphasum_nc
S 752 6 4 0 0 6 753 582 5779 40800006 0 A 0 0 0 0 0 264 0 0 0 0 0 0 808 0 0 0 0 0 0 0 0 0 0 582 0 0 0 0 z_b_66
S 753 6 4 0 0 6 754 582 5786 40800006 0 A 0 0 0 0 0 268 0 0 0 0 0 0 808 0 0 0 0 0 0 0 0 0 0 582 0 0 0 0 z_b_67
S 754 6 4 0 0 6 755 582 5793 40800006 0 A 0 0 0 0 0 272 0 0 0 0 0 0 808 0 0 0 0 0 0 0 0 0 0 582 0 0 0 0 z_b_68
S 755 6 4 0 0 6 756 582 5800 40800006 0 A 0 0 0 0 0 276 0 0 0 0 0 0 808 0 0 0 0 0 0 0 0 0 0 582 0 0 0 0 z_b_69
S 756 6 4 0 0 6 762 582 5807 40800006 0 A 0 0 0 0 0 280 0 0 0 0 0 0 808 0 0 0 0 0 0 0 0 0 0 582 0 0 0 0 z_b_70
S 757 8 4 0 0 137 768 582 5814 40822064 1020 A 0 0 0 0 0 2416 0 0 0 0 0 0 808 0 0 0 0 0 0 0 0 0 0 582 0 0 0 0 alphasum_nc$sd
S 758 6 4 0 0 7 759 582 5829 40802061 1020 A 0 0 0 0 0 2584 0 0 0 0 0 0 808 0 0 0 0 0 0 0 0 0 0 582 0 0 0 0 alphasum_nc$p
S 759 6 4 0 0 7 757 582 5843 40802060 1020 A 0 0 0 0 0 2592 0 0 0 0 0 0 808 0 0 0 0 0 0 0 0 0 0 582 0 0 0 0 alphasum_nc$o
S 760 22 1 0 0 9 1 582 5857 40000000 1000 A 0 0 0 0 0 0 0 751 0 0 0 0 757 0 0 0 0 0 0 0 0 0 0 582 0 0 0 0 alphasum_nc$arrdsc
S 761 7 6 0 0 140 1 582 5876 10a00004 51 A 0 0 0 0 0 0 768 0 0 0 770 0 0 0 0 0 0 0 0 767 0 0 769 582 0 0 0 0 dpqq_so
S 762 6 4 0 0 6 763 582 5884 40800006 0 A 0 0 0 0 0 284 0 0 0 0 0 0 808 0 0 0 0 0 0 0 0 0 0 582 0 0 0 0 z_b_71
S 763 6 4 0 0 6 764 582 5891 40800006 0 A 0 0 0 0 0 288 0 0 0 0 0 0 808 0 0 0 0 0 0 0 0 0 0 582 0 0 0 0 z_b_72
S 764 6 4 0 0 6 765 582 5898 40800006 0 A 0 0 0 0 0 292 0 0 0 0 0 0 808 0 0 0 0 0 0 0 0 0 0 582 0 0 0 0 z_b_73
S 765 6 4 0 0 6 766 582 5905 40800006 0 A 0 0 0 0 0 296 0 0 0 0 0 0 808 0 0 0 0 0 0 0 0 0 0 582 0 0 0 0 z_b_74
S 766 6 4 0 0 6 772 582 5912 40800006 0 A 0 0 0 0 0 300 0 0 0 0 0 0 808 0 0 0 0 0 0 0 0 0 0 582 0 0 0 0 z_b_75
S 767 8 4 0 0 143 777 582 5919 40822064 1020 A 0 0 0 0 0 2600 0 0 0 0 0 0 808 0 0 0 0 0 0 0 0 0 0 582 0 0 0 0 dpqq_so$sd
S 768 6 4 0 0 7 769 582 5930 40802061 1020 A 0 0 0 0 0 2768 0 0 0 0 0 0 808 0 0 0 0 0 0 0 0 0 0 582 0 0 0 0 dpqq_so$p
S 769 6 4 0 0 7 767 582 5940 40802060 1020 A 0 0 0 0 0 2776 0 0 0 0 0 0 808 0 0 0 0 0 0 0 0 0 0 582 0 0 0 0 dpqq_so$o
S 770 22 1 0 0 9 1 582 5950 40000000 1000 A 0 0 0 0 0 0 0 761 0 0 0 0 767 0 0 0 0 0 0 0 0 0 0 582 0 0 0 0 dpqq_so$arrdsc
S 771 7 6 0 0 146 1 582 5965 10a00004 59 A 0 0 0 0 0 0 777 0 0 0 779 0 0 0 0 0 0 0 0 776 0 0 778 582 0 0 0 0 becp1
S 772 6 4 0 0 6 773 582 5971 40800006 0 A 0 0 0 0 0 304 0 0 0 0 0 0 808 0 0 0 0 0 0 0 0 0 0 582 0 0 0 0 z_b_76
S 773 6 4 0 0 6 774 582 5978 40800006 0 A 0 0 0 0 0 308 0 0 0 0 0 0 808 0 0 0 0 0 0 0 0 0 0 582 0 0 0 0 z_b_77
S 774 6 4 0 0 6 781 582 5985 40800006 0 A 0 0 0 0 0 312 0 0 0 0 0 0 808 0 0 0 0 0 0 0 0 0 0 582 0 0 0 0 z_b_78
S 775 3 0 0 0 6 0 1 0 0 0 A 0 0 0 0 0 0 0 0 0 30 0 0 0 0 0 0 0 0 0 0 0 0 0 0 0 0 0 0 6
S 776 8 4 0 0 149 786 582 5992 40822064 1020 A 0 0 0 0 0 2784 0 0 0 0 0 0 808 0 0 0 0 0 0 0 0 0 0 582 0 0 0 0 becp1$sd
S 777 6 4 0 0 7 778 582 6001 40802061 1020 A 0 0 0 0 0 2904 0 0 0 0 0 0 808 0 0 0 0 0 0 0 0 0 0 582 0 0 0 0 becp1$p
S 778 6 4 0 0 7 776 582 6009 40802060 1020 A 0 0 0 0 0 2912 0 0 0 0 0 0 808 0 0 0 0 0 0 0 0 0 0 582 0 0 0 0 becp1$o
S 779 22 1 0 0 9 1 582 6017 40000000 1000 A 0 0 0 0 0 0 0 771 0 0 0 0 776 0 0 0 0 0 0 0 0 0 0 582 0 0 0 0 becp1$arrdsc
S 780 7 6 0 0 152 1 582 6030 10a00004 59 A 0 0 0 0 0 0 786 0 0 0 788 0 0 0 0 0 0 0 0 785 0 0 787 582 0 0 0 0 becp1_nc
S 781 6 4 0 0 6 782 582 6039 40800006 0 A 0 0 0 0 0 316 0 0 0 0 0 0 808 0 0 0 0 0 0 0 0 0 0 582 0 0 0 0 z_b_79
S 782 6 4 0 0 6 783 582 6046 40800006 0 A 0 0 0 0 0 320 0 0 0 0 0 0 808 0 0 0 0 0 0 0 0 0 0 582 0 0 0 0 z_b_80
S 783 6 4 0 0 6 784 582 6053 40800006 0 A 0 0 0 0 0 324 0 0 0 0 0 0 808 0 0 0 0 0 0 0 0 0 0 582 0 0 0 0 z_b_81
S 784 6 4 0 0 6 790 582 6060 40800006 0 A 0 0 0 0 0 328 0 0 0 0 0 0 808 0 0 0 0 0 0 0 0 0 0 582 0 0 0 0 z_b_82
S 785 8 4 0 0 155 795 582 6067 40822064 1020 A 0 0 0 0 0 2920 0 0 0 0 0 0 808 0 0 0 0 0 0 0 0 0 0 582 0 0 0 0 becp1_nc$sd
S 786 6 4 0 0 7 787 582 6079 40802061 1020 A 0 0 0 0 0 3064 0 0 0 0 0 0 808 0 0 0 0 0 0 0 0 0 0 582 0 0 0 0 becp1_nc$p
S 787 6 4 0 0 7 785 582 6090 40802060 1020 A 0 0 0 0 0 3072 0 0 0 0 0 0 808 0 0 0 0 0 0 0 0 0 0 582 0 0 0 0 becp1_nc$o
S 788 22 1 0 0 9 1 582 6101 40000000 1000 A 0 0 0 0 0 0 0 780 0 0 0 0 785 0 0 0 0 0 0 0 0 0 0 582 0 0 0 0 becp1_nc$arrdsc
S 789 7 6 0 0 158 1 582 6117 10a00004 59 A 0 0 0 0 0 0 795 0 0 0 797 0 0 0 0 0 0 0 0 794 0 0 796 582 0 0 0 0 alphap
S 790 6 4 0 0 6 791 582 6124 40800006 0 A 0 0 0 0 0 332 0 0 0 0 0 0 808 0 0 0 0 0 0 0 0 0 0 582 0 0 0 0 z_b_83
S 791 6 4 0 0 6 792 582 6131 40800006 0 A 0 0 0 0 0 336 0 0 0 0 0 0 808 0 0 0 0 0 0 0 0 0 0 582 0 0 0 0 z_b_84
S 792 6 4 0 0 6 793 582 6138 40800006 0 A 0 0 0 0 0 340 0 0 0 0 0 0 808 0 0 0 0 0 0 0 0 0 0 582 0 0 0 0 z_b_85
S 793 6 4 0 0 6 799 582 6145 40800006 0 A 0 0 0 0 0 344 0 0 0 0 0 0 808 0 0 0 0 0 0 0 0 0 0 582 0 0 0 0 z_b_86
S 794 8 4 0 0 161 805 582 6152 40822064 1020 A 0 0 0 0 0 3080 0 0 0 0 0 0 808 0 0 0 0 0 0 0 0 0 0 582 0 0 0 0 alphap$sd
S 795 6 4 0 0 7 796 582 6162 40802061 1020 A 0 0 0 0 0 3224 0 0 0 0 0 0 808 0 0 0 0 0 0 0 0 0 0 582 0 0 0 0 alphap$p
S 796 6 4 0 0 7 794 582 6171 40802060 1020 A 0 0 0 0 0 3232 0 0 0 0 0 0 808 0 0 0 0 0 0 0 0 0 0 582 0 0 0 0 alphap$o
S 797 22 1 0 0 9 1 582 6180 40000000 1000 A 0 0 0 0 0 0 0 789 0 0 0 0 794 0 0 0 0 0 0 0 0 0 0 582 0 0 0 0 alphap$arrdsc
S 798 7 6 0 0 164 1 582 6194 10a00004 59 A 0 0 0 0 0 0 805 0 0 0 807 0 0 0 0 0 0 0 0 804 0 0 806 582 0 0 0 0 alphap_nc
S 799 6 4 0 0 6 800 582 6204 40800006 0 A 0 0 0 0 0 348 0 0 0 0 0 0 808 0 0 0 0 0 0 0 0 0 0 582 0 0 0 0 z_b_87
S 800 6 4 0 0 6 801 582 6211 40800006 0 A 0 0 0 0 0 352 0 0 0 0 0 0 808 0 0 0 0 0 0 0 0 0 0 582 0 0 0 0 z_b_88
S 801 6 4 0 0 6 802 582 6218 40800006 0 A 0 0 0 0 0 356 0 0 0 0 0 0 808 0 0 0 0 0 0 0 0 0 0 582 0 0 0 0 z_b_89
S 802 6 4 0 0 6 803 582 6225 40800006 0 A 0 0 0 0 0 360 0 0 0 0 0 0 808 0 0 0 0 0 0 0 0 0 0 582 0 0 0 0 z_b_90
S 803 6 4 0 0 6 1 582 6232 40800006 0 A 0 0 0 0 0 364 0 0 0 0 0 0 808 0 0 0 0 0 0 0 0 0 0 582 0 0 0 0 z_b_91
S 804 8 4 0 0 167 595 582 6239 40822064 1020 A 0 0 0 0 0 3240 0 0 0 0 0 0 808 0 0 0 0 0 0 0 0 0 0 582 0 0 0 0 alphap_nc$sd
S 805 6 4 0 0 7 806 582 6252 40802061 1020 A 0 0 0 0 0 3408 0 0 0 0 0 0 808 0 0 0 0 0 0 0 0 0 0 582 0 0 0 0 alphap_nc$p
S 806 6 4 0 0 7 804 582 6264 40802060 1020 A 0 0 0 0 0 3416 0 0 0 0 0 0 808 0 0 0 0 0 0 0 0 0 0 582 0 0 0 0 alphap_nc$o
S 807 22 1 0 0 9 1 582 6276 40000000 1000 A 0 0 0 0 0 0 0 798 0 0 0 0 804 0 0 0 0 0 0 0 0 0 0 582 0 0 0 0 alphap_nc$arrdsc
S 808 11 0 0 0 9 1 582 6293 40800000 801000 A 0 0 0 0 0 3792 0 0 601 803 0 0 0 0 0 0 0 0 0 0 0 0 0 0 0 0 0 0 _phus$0
A 13 2 0 0 0 6 585 0 0 0 13 0 0 0 0 0 0 0 0 0
A 21 2 0 0 0 6 599 0 0 0 21 0 0 0 0 0 0 0 0 0
A 22 2 0 0 0 6 604 0 0 0 22 0 0 0 0 0 0 0 0 0
A 23 1 0 1 0 59 600 0 0 0 0 0 0 0 0 0 0 0 0 0
A 24 10 0 0 0 6 23 1 0 0 0 0 0 0 0 0 0 0 0 0
X 1 22
A 25 2 0 0 0 6 605 0 0 0 25 0 0 0 0 0 0 0 0 0
A 26 10 0 0 24 6 23 4 0 0 0 0 0 0 0 0 0 0 0 0
X 1 25
A 27 4 0 0 0 6 26 0 3 0 0 0 0 2 0 0 0 0 0 0
A 28 4 0 0 0 6 24 0 27 0 0 0 0 1 0 0 0 0 0 0
A 29 2 0 0 0 6 606 0 0 0 29 0 0 0 0 0 0 0 0 0
A 30 10 0 0 26 6 23 7 0 0 0 0 0 0 0 0 0 0 0 0
X 1 29
A 31 2 0 0 0 6 607 0 0 0 31 0 0 0 0 0 0 0 0 0
A 32 10 0 0 30 6 23 10 0 0 0 0 0 0 0 0 0 0 0 0
X 1 31
A 33 4 0 0 0 6 32 0 3 0 0 0 0 2 0 0 0 0 0 0
A 34 4 0 0 0 6 30 0 33 0 0 0 0 1 0 0 0 0 0 0
A 35 2 0 0 0 6 608 0 0 0 35 0 0 0 0 0 0 0 0 0
A 36 10 0 0 32 6 23 13 0 0 0 0 0 0 0 0 0 0 0 0
X 1 35
A 37 2 0 0 0 6 609 0 0 0 37 0 0 0 0 0 0 0 0 0
A 38 10 0 0 36 6 23 16 0 0 0 0 0 0 0 0 0 0 0 0
X 1 37
A 39 4 0 0 0 6 38 0 3 0 0 0 0 2 0 0 0 0 0 0
A 40 4 0 0 0 6 36 0 39 0 0 0 0 1 0 0 0 0 0 0
A 41 2 0 0 0 6 610 0 0 0 41 0 0 0 0 0 0 0 0 0
A 42 10 0 0 38 6 23 19 0 0 0 0 0 0 0 0 0 0 0 0
X 1 41
A 43 2 0 0 0 6 611 0 0 0 43 0 0 0 0 0 0 0 0 0
A 44 10 0 0 42 6 23 22 0 0 0 0 0 0 0 0 0 0 0 0
X 1 43
A 45 4 0 0 0 6 44 0 3 0 0 0 0 2 0 0 0 0 0 0
A 46 4 0 0 0 6 42 0 45 0 0 0 0 1 0 0 0 0 0 0
A 47 2 0 0 0 6 612 0 0 0 47 0 0 0 0 0 0 0 0 0
A 48 10 0 0 44 6 23 25 0 0 0 0 0 0 0 0 0 0 0 0
X 1 47
A 49 2 0 0 0 6 613 0 0 0 49 0 0 0 0 0 0 0 0 0
A 50 10 0 0 48 6 23 28 0 0 0 0 0 0 0 0 0 0 0 0
X 1 49
A 51 2 0 0 0 6 614 0 0 0 51 0 0 0 0 0 0 0 0 0
A 52 10 0 0 50 6 23 31 0 0 0 0 0 0 0 0 0 0 0 0
X 1 51
A 53 2 0 0 0 6 615 0 0 0 53 0 0 0 0 0 0 0 0 0
A 54 10 0 0 52 6 23 34 0 0 0 0 0 0 0 0 0 0 0 0
X 1 53
A 55 2 0 0 0 6 616 0 0 0 55 0 0 0 0 0 0 0 0 0
A 56 10 0 0 54 6 23 37 0 0 0 0 0 0 0 0 0 0 0 0
X 1 55
A 57 10 0 0 56 6 23 40 0 0 0 0 0 0 0 0 0 0 0 0
X 1 13
A 62 1 0 1 0 65 622 0 0 0 0 0 0 0 0 0 0 0 0 0
A 63 10 0 0 62 6 62 1 0 0 0 0 0 0 0 0 0 0 0 0
X 1 22
A 64 10 0 0 63 6 62 4 0 0 0 0 0 0 0 0 0 0 0 0
X 1 25
A 65 4 0 0 0 6 64 0 3 0 0 0 0 2 0 0 0 0 0 0
A 66 4 0 0 0 6 63 0 65 0 0 0 0 1 0 0 0 0 0 0
A 67 10 0 0 64 6 62 7 0 0 0 0 0 0 0 0 0 0 0 0
X 1 29
A 68 10 0 0 67 6 62 10 0 0 0 0 0 0 0 0 0 0 0 0
X 1 31
A 69 4 0 0 0 6 68 0 3 0 0 0 0 2 0 0 0 0 0 0
A 70 4 0 0 0 6 67 0 69 0 0 0 0 1 0 0 0 0 0 0
A 71 10 0 0 68 6 62 13 0 0 0 0 0 0 0 0 0 0 0 0
X 1 35
A 72 10 0 0 71 6 62 16 0 0 0 0 0 0 0 0 0 0 0 0
X 1 37
A 73 4 0 0 0 6 72 0 3 0 0 0 0 2 0 0 0 0 0 0
A 74 4 0 0 0 6 71 0 73 0 0 0 0 1 0 0 0 0 0 0
A 75 10 0 0 72 6 62 19 0 0 0 0 0 0 0 0 0 0 0 0
X 1 41
A 76 10 0 0 75 6 62 22 0 0 0 0 0 0 0 0 0 0 0 0
X 1 43
A 77 4 0 0 0 6 76 0 3 0 0 0 0 2 0 0 0 0 0 0
A 78 4 0 0 0 6 75 0 77 0 0 0 0 1 0 0 0 0 0 0
A 79 10 0 0 76 6 62 25 0 0 0 0 0 0 0 0 0 0 0 0
X 1 47
A 80 10 0 0 79 6 62 28 0 0 0 0 0 0 0 0 0 0 0 0
X 1 49
A 81 10 0 0 80 6 62 31 0 0 0 0 0 0 0 0 0 0 0 0
X 1 51
A 82 10 0 0 81 6 62 34 0 0 0 0 0 0 0 0 0 0 0 0
X 1 53
A 83 10 0 0 82 6 62 37 0 0 0 0 0 0 0 0 0 0 0 0
X 1 55
A 84 10 0 0 83 6 62 40 0 0 0 0 0 0 0 0 0 0 0 0
X 1 13
A 90 2 0 0 0 6 632 0 0 0 90 0 0 0 0 0 0 0 0 0
A 91 1 0 3 0 71 633 0 0 0 0 0 0 0 0 0 0 0 0 0
A 92 10 0 0 18 6 91 1 0 0 0 0 0 0 0 0 0 0 0 0
X 1 22
A 93 10 0 0 92 6 91 4 0 0 0 0 0 0 0 0 0 0 0 0
X 1 25
A 94 4 0 0 0 6 93 0 3 0 0 0 0 2 0 0 0 0 0 0
A 95 4 0 0 0 6 92 0 94 0 0 0 0 1 0 0 0 0 0 0
A 96 10 0 0 93 6 91 7 0 0 0 0 0 0 0 0 0 0 0 0
X 1 29
A 97 10 0 0 96 6 91 10 0 0 0 0 0 0 0 0 0 0 0 0
X 1 31
A 98 4 0 0 15 6 97 0 3 0 0 0 0 2 0 0 0 0 0 0
A 99 4 0 0 0 6 96 0 98 0 0 0 0 1 0 0 0 0 0 0
A 100 10 0 0 97 6 91 13 0 0 0 0 0 0 0 0 0 0 0 0
X 1 35
A 101 10 0 0 100 6 91 16 0 0 0 0 0 0 0 0 0 0 0 0
X 1 37
A 102 4 0 0 0 6 101 0 3 0 0 0 0 2 0 0 0 0 0 0
A 103 4 0 0 0 6 100 0 102 0 0 0 0 1 0 0 0 0 0 0
A 104 10 0 0 101 6 91 19 0 0 0 0 0 0 0 0 0 0 0 0
X 1 41
A 105 10 0 0 104 6 91 22 0 0 0 0 0 0 0 0 0 0 0 0
X 1 43
A 106 4 0 0 0 6 105 0 3 0 0 0 0 2 0 0 0 0 0 0
A 107 4 0 0 0 6 104 0 106 0 0 0 0 1 0 0 0 0 0 0
A 108 2 0 0 0 6 637 0 0 0 108 0 0 0 0 0 0 0 0 0
A 109 10 0 0 105 6 91 43 0 0 0 0 0 0 0 0 0 0 0 0
X 1 108
A 110 2 0 0 0 6 638 0 0 0 110 0 0 0 0 0 0 0 0 0
A 111 10 0 0 109 6 91 46 0 0 0 0 0 0 0 0 0 0 0 0
X 1 110
A 112 4 0 0 23 6 111 0 3 0 0 0 0 2 0 0 0 0 0 0
A 113 4 0 0 0 6 109 0 112 0 0 0 0 1 0 0 0 0 0 0
A 114 10 0 0 111 6 91 25 0 0 0 0 0 0 0 0 0 0 0 0
X 1 47
A 115 10 0 0 114 6 91 28 0 0 0 0 0 0 0 0 0 0 0 0
X 1 49
A 116 10 0 0 115 6 91 31 0 0 0 0 0 0 0 0 0 0 0 0
X 1 51
A 117 10 0 0 116 6 91 34 0 0 0 0 0 0 0 0 0 0 0 0
X 1 53
A 118 2 0 0 0 6 639 0 0 0 118 0 0 0 0 0 0 0 0 0
A 119 10 0 0 117 6 91 49 0 0 0 0 0 0 0 0 0 0 0 0
X 1 118
A 120 10 0 0 119 6 91 37 0 0 0 0 0 0 0 0 0 0 0 0
X 1 55
A 121 10 0 0 120 6 91 40 0 0 0 0 0 0 0 0 0 0 0 0
X 1 13
A 127 1 0 3 0 77 646 0 0 0 0 0 0 0 0 0 0 0 0 0
A 128 10 0 0 0 6 127 1 0 0 0 0 0 0 0 0 0 0 0 0
X 1 22
A 129 10 0 0 128 6 127 4 0 0 0 0 0 0 0 0 0 0 0 0
X 1 25
A 130 4 0 0 0 6 129 0 3 0 0 0 0 2 0 0 0 0 0 0
A 131 4 0 0 0 6 128 0 130 0 0 0 0 1 0 0 0 0 0 0
A 132 10 0 0 129 6 127 7 0 0 0 0 0 0 0 0 0 0 0 0
X 1 29
A 133 10 0 0 132 6 127 10 0 0 0 0 0 0 0 0 0 0 0 0
X 1 31
A 134 4 0 0 0 6 133 0 3 0 0 0 0 2 0 0 0 0 0 0
A 135 4 0 0 0 6 132 0 134 0 0 0 0 1 0 0 0 0 0 0
A 136 10 0 0 133 6 127 13 0 0 0 0 0 0 0 0 0 0 0 0
X 1 35
A 137 10 0 0 136 6 127 16 0 0 0 0 0 0 0 0 0 0 0 0
X 1 37
A 138 4 0 0 0 6 137 0 3 0 0 0 0 2 0 0 0 0 0 0
A 139 4 0 0 0 6 136 0 138 0 0 0 0 1 0 0 0 0 0 0
A 140 10 0 0 137 6 127 19 0 0 0 0 0 0 0 0 0 0 0 0
X 1 41
A 141 10 0 0 140 6 127 22 0 0 0 0 0 0 0 0 0 0 0 0
X 1 43
A 142 4 0 0 0 6 141 0 3 0 0 0 0 2 0 0 0 0 0 0
A 143 4 0 0 0 6 140 0 142 0 0 0 0 1 0 0 0 0 0 0
A 144 10 0 0 141 6 127 43 0 0 0 0 0 0 0 0 0 0 0 0
X 1 108
A 145 10 0 0 144 6 127 46 0 0 0 0 0 0 0 0 0 0 0 0
X 1 110
A 146 4 0 0 0 6 145 0 3 0 0 0 0 2 0 0 0 0 0 0
A 147 4 0 0 0 6 144 0 146 0 0 0 0 1 0 0 0 0 0 0
A 148 10 0 0 145 6 127 25 0 0 0 0 0 0 0 0 0 0 0 0
X 1 47
A 149 10 0 0 148 6 127 28 0 0 0 0 0 0 0 0 0 0 0 0
X 1 49
A 150 10 0 0 149 6 127 31 0 0 0 0 0 0 0 0 0 0 0 0
X 1 51
A 151 10 0 0 150 6 127 34 0 0 0 0 0 0 0 0 0 0 0 0
X 1 53
A 152 10 0 0 151 6 127 49 0 0 0 0 0 0 0 0 0 0 0 0
X 1 118
A 153 10 0 0 152 6 127 37 0 0 0 0 0 0 0 0 0 0 0 0
X 1 55
A 154 10 0 0 153 6 127 40 0 0 0 0 0 0 0 0 0 0 0 0
X 1 13
A 160 1 0 3 0 83 656 0 0 0 0 0 0 0 0 0 0 0 0 0
A 161 10 0 0 65 6 160 1 0 0 0 0 0 0 0 0 0 0 0 0
X 1 22
A 162 10 0 0 161 6 160 4 0 0 0 0 0 0 0 0 0 0 0 0
X 1 25
A 163 4 0 0 0 6 162 0 3 0 0 0 0 2 0 0 0 0 0 0
A 164 4 0 0 0 6 161 0 163 0 0 0 0 1 0 0 0 0 0 0
A 165 10 0 0 162 6 160 7 0 0 0 0 0 0 0 0 0 0 0 0
X 1 29
A 166 10 0 0 165 6 160 10 0 0 0 0 0 0 0 0 0 0 0 0
X 1 31
A 167 4 0 0 0 6 166 0 3 0 0 0 0 2 0 0 0 0 0 0
A 168 4 0 0 0 6 165 0 167 0 0 0 0 1 0 0 0 0 0 0
A 169 10 0 0 166 6 160 13 0 0 0 0 0 0 0 0 0 0 0 0
X 1 35
A 170 10 0 0 169 6 160 16 0 0 0 0 0 0 0 0 0 0 0 0
X 1 37
A 171 4 0 0 0 6 170 0 3 0 0 0 0 2 0 0 0 0 0 0
A 172 4 0 0 0 6 169 0 171 0 0 0 0 1 0 0 0 0 0 0
A 173 10 0 0 170 6 160 19 0 0 0 0 0 0 0 0 0 0 0 0
X 1 41
A 174 10 0 0 173 6 160 22 0 0 0 0 0 0 0 0 0 0 0 0
X 1 43
A 175 4 0 0 0 6 174 0 3 0 0 0 0 2 0 0 0 0 0 0
A 176 4 0 0 0 6 173 0 175 0 0 0 0 1 0 0 0 0 0 0
A 177 10 0 0 174 6 160 43 0 0 0 0 0 0 0 0 0 0 0 0
X 1 108
A 178 10 0 0 177 6 160 46 0 0 0 0 0 0 0 0 0 0 0 0
X 1 110
A 179 4 0 0 0 6 178 0 3 0 0 0 0 2 0 0 0 0 0 0
A 180 4 0 0 0 6 177 0 179 0 0 0 0 1 0 0 0 0 0 0
A 181 10 0 0 178 6 160 25 0 0 0 0 0 0 0 0 0 0 0 0
X 1 47
A 182 10 0 0 181 6 160 28 0 0 0 0 0 0 0 0 0 0 0 0
X 1 49
A 183 10 0 0 182 6 160 31 0 0 0 0 0 0 0 0 0 0 0 0
X 1 51
A 184 10 0 0 183 6 160 34 0 0 0 0 0 0 0 0 0 0 0 0
X 1 53
A 185 10 0 0 184 6 160 49 0 0 0 0 0 0 0 0 0 0 0 0
X 1 118
A 186 10 0 0 185 6 160 37 0 0 0 0 0 0 0 0 0 0 0 0
X 1 55
A 187 10 0 0 186 6 160 40 0 0 0 0 0 0 0 0 0 0 0 0
X 1 13
A 193 1 0 3 0 89 666 0 0 0 0 0 0 0 0 0 0 0 0 0
A 194 10 0 0 98 6 193 1 0 0 0 0 0 0 0 0 0 0 0 0
X 1 22
A 195 10 0 0 194 6 193 4 0 0 0 0 0 0 0 0 0 0 0 0
X 1 25
A 196 4 0 0 0 6 195 0 3 0 0 0 0 2 0 0 0 0 0 0
A 197 4 0 0 0 6 194 0 196 0 0 0 0 1 0 0 0 0 0 0
A 198 10 0 0 195 6 193 7 0 0 0 0 0 0 0 0 0 0 0 0
X 1 29
A 199 10 0 0 198 6 193 10 0 0 0 0 0 0 0 0 0 0 0 0
X 1 31
A 200 4 0 0 0 6 199 0 3 0 0 0 0 2 0 0 0 0 0 0
A 201 4 0 0 0 6 198 0 200 0 0 0 0 1 0 0 0 0 0 0
A 202 10 0 0 199 6 193 13 0 0 0 0 0 0 0 0 0 0 0 0
X 1 35
A 203 10 0 0 202 6 193 16 0 0 0 0 0 0 0 0 0 0 0 0
X 1 37
A 204 4 0 0 0 6 203 0 3 0 0 0 0 2 0 0 0 0 0 0
A 205 4 0 0 0 6 202 0 204 0 0 0 0 1 0 0 0 0 0 0
A 206 10 0 0 203 6 193 19 0 0 0 0 0 0 0 0 0 0 0 0
X 1 41
A 207 10 0 0 206 6 193 22 0 0 0 0 0 0 0 0 0 0 0 0
X 1 43
A 208 4 0 0 0 6 207 0 3 0 0 0 0 2 0 0 0 0 0 0
A 209 4 0 0 0 6 206 0 208 0 0 0 0 1 0 0 0 0 0 0
A 210 10 0 0 207 6 193 43 0 0 0 0 0 0 0 0 0 0 0 0
X 1 108
A 211 10 0 0 210 6 193 46 0 0 0 0 0 0 0 0 0 0 0 0
X 1 110
A 212 4 0 0 0 6 211 0 3 0 0 0 0 2 0 0 0 0 0 0
A 213 4 0 0 0 6 210 0 212 0 0 0 0 1 0 0 0 0 0 0
A 214 10 0 0 211 6 193 25 0 0 0 0 0 0 0 0 0 0 0 0
X 1 47
A 215 10 0 0 214 6 193 28 0 0 0 0 0 0 0 0 0 0 0 0
X 1 49
A 216 10 0 0 215 6 193 31 0 0 0 0 0 0 0 0 0 0 0 0
X 1 51
A 217 10 0 0 216 6 193 34 0 0 0 0 0 0 0 0 0 0 0 0
X 1 53
A 218 10 0 0 217 6 193 49 0 0 0 0 0 0 0 0 0 0 0 0
X 1 118
A 219 10 0 0 218 6 193 37 0 0 0 0 0 0 0 0 0 0 0 0
X 1 55
A 220 10 0 0 219 6 193 40 0 0 0 0 0 0 0 0 0 0 0 0
X 1 13
A 226 1 0 3 0 95 676 0 0 0 0 0 0 0 0 0 0 0 0 0
A 227 10 0 0 0 6 226 1 0 0 0 0 0 0 0 0 0 0 0 0
X 1 22
A 228 10 0 0 227 6 226 4 0 0 0 0 0 0 0 0 0 0 0 0
X 1 25
A 229 4 0 0 0 6 228 0 3 0 0 0 0 2 0 0 0 0 0 0
A 230 4 0 0 0 6 227 0 229 0 0 0 0 1 0 0 0 0 0 0
A 231 10 0 0 228 6 226 7 0 0 0 0 0 0 0 0 0 0 0 0
X 1 29
A 232 10 0 0 231 6 226 10 0 0 0 0 0 0 0 0 0 0 0 0
X 1 31
A 233 4 0 0 0 6 232 0 3 0 0 0 0 2 0 0 0 0 0 0
A 234 4 0 0 0 6 231 0 233 0 0 0 0 1 0 0 0 0 0 0
A 235 10 0 0 232 6 226 13 0 0 0 0 0 0 0 0 0 0 0 0
X 1 35
A 236 10 0 0 235 6 226 16 0 0 0 0 0 0 0 0 0 0 0 0
X 1 37
A 237 4 0 0 0 6 236 0 3 0 0 0 0 2 0 0 0 0 0 0
A 238 4 0 0 0 6 235 0 237 0 0 0 0 1 0 0 0 0 0 0
A 239 10 0 0 236 6 226 19 0 0 0 0 0 0 0 0 0 0 0 0
X 1 41
A 240 10 0 0 239 6 226 22 0 0 0 0 0 0 0 0 0 0 0 0
X 1 43
A 241 4 0 0 0 6 240 0 3 0 0 0 0 2 0 0 0 0 0 0
A 242 4 0 0 0 6 239 0 241 0 0 0 0 1 0 0 0 0 0 0
A 243 10 0 0 240 6 226 43 0 0 0 0 0 0 0 0 0 0 0 0
X 1 108
A 244 10 0 0 243 6 226 46 0 0 0 0 0 0 0 0 0 0 0 0
X 1 110
A 245 4 0 0 0 6 244 0 3 0 0 0 0 2 0 0 0 0 0 0
A 246 4 0 0 0 6 243 0 245 0 0 0 0 1 0 0 0 0 0 0
A 247 10 0 0 244 6 226 25 0 0 0 0 0 0 0 0 0 0 0 0
X 1 47
A 248 10 0 0 247 6 226 28 0 0 0 0 0 0 0 0 0 0 0 0
X 1 49
A 249 10 0 0 248 6 226 31 0 0 0 0 0 0 0 0 0 0 0 0
X 1 51
A 250 10 0 0 249 6 226 34 0 0 0 0 0 0 0 0 0 0 0 0
X 1 53
A 251 10 0 0 250 6 226 49 0 0 0 0 0 0 0 0 0 0 0 0
X 1 118
A 252 10 0 0 251 6 226 37 0 0 0 0 0 0 0 0 0 0 0 0
X 1 55
A 253 10 0 0 252 6 226 40 0 0 0 0 0 0 0 0 0 0 0 0
X 1 13
A 259 1 0 3 0 101 686 0 0 0 0 0 0 0 0 0 0 0 0 0
A 260 10 0 0 0 6 259 1 0 0 0 0 0 0 0 0 0 0 0 0
X 1 22
A 261 10 0 0 260 6 259 4 0 0 0 0 0 0 0 0 0 0 0 0
X 1 25
A 262 4 0 0 0 6 261 0 3 0 0 0 0 2 0 0 0 0 0 0
A 263 4 0 0 0 6 260 0 262 0 0 0 0 1 0 0 0 0 0 0
A 264 10 0 0 261 6 259 7 0 0 0 0 0 0 0 0 0 0 0 0
X 1 29
A 265 10 0 0 264 6 259 10 0 0 0 0 0 0 0 0 0 0 0 0
X 1 31
A 266 4 0 0 0 6 265 0 3 0 0 0 0 2 0 0 0 0 0 0
A 267 4 0 0 0 6 264 0 266 0 0 0 0 1 0 0 0 0 0 0
A 268 10 0 0 265 6 259 13 0 0 0 0 0 0 0 0 0 0 0 0
X 1 35
A 269 10 0 0 268 6 259 16 0 0 0 0 0 0 0 0 0 0 0 0
X 1 37
A 270 4 0 0 234 6 269 0 3 0 0 0 0 2 0 0 0 0 0 0
A 271 4 0 0 0 6 268 0 270 0 0 0 0 1 0 0 0 0 0 0
A 272 10 0 0 269 6 259 19 0 0 0 0 0 0 0 0 0 0 0 0
X 1 41
A 273 10 0 0 272 6 259 22 0 0 0 0 0 0 0 0 0 0 0 0
X 1 43
A 274 4 0 0 0 6 273 0 3 0 0 0 0 2 0 0 0 0 0 0
A 275 4 0 0 0 6 272 0 274 0 0 0 0 1 0 0 0 0 0 0
A 276 10 0 0 273 6 259 43 0 0 0 0 0 0 0 0 0 0 0 0
X 1 108
A 277 10 0 0 276 6 259 46 0 0 0 0 0 0 0 0 0 0 0 0
X 1 110
A 278 4 0 0 0 6 277 0 3 0 0 0 0 2 0 0 0 0 0 0
A 279 4 0 0 266 6 276 0 278 0 0 0 0 1 0 0 0 0 0 0
A 280 10 0 0 277 6 259 25 0 0 0 0 0 0 0 0 0 0 0 0
X 1 47
A 281 10 0 0 280 6 259 28 0 0 0 0 0 0 0 0 0 0 0 0
X 1 49
A 282 10 0 0 281 6 259 31 0 0 0 0 0 0 0 0 0 0 0 0
X 1 51
A 283 10 0 0 282 6 259 34 0 0 0 0 0 0 0 0 0 0 0 0
X 1 53
A 284 10 0 0 283 6 259 49 0 0 0 0 0 0 0 0 0 0 0 0
X 1 118
A 285 10 0 0 284 6 259 37 0 0 0 0 0 0 0 0 0 0 0 0
X 1 55
A 286 10 0 0 285 6 259 40 0 0 0 0 0 0 0 0 0 0 0 0
X 1 13
A 293 2 0 0 0 6 697 0 0 0 293 0 0 0 0 0 0 0 0 0
A 294 1 0 5 0 107 698 0 0 0 0 0 0 0 0 0 0 0 0 0
A 295 10 0 0 40 6 294 1 0 0 0 0 0 0 0 0 0 0 0 0
X 1 22
A 296 10 0 0 295 6 294 4 0 0 0 0 0 0 0 0 0 0 0 0
X 1 25
A 297 4 0 0 0 6 296 0 3 0 0 0 0 2 0 0 0 0 0 0
A 298 4 0 0 0 6 295 0 297 0 0 0 0 1 0 0 0 0 0 0
A 299 10 0 0 296 6 294 7 0 0 0 0 0 0 0 0 0 0 0 0
X 1 29
A 300 10 0 0 299 6 294 10 0 0 0 0 0 0 0 0 0 0 0 0
X 1 31
A 301 4 0 0 0 6 300 0 3 0 0 0 0 2 0 0 0 0 0 0
A 302 4 0 0 43 6 299 0 301 0 0 0 0 1 0 0 0 0 0 0
A 303 10 0 0 300 6 294 13 0 0 0 0 0 0 0 0 0 0 0 0
X 1 35
A 304 10 0 0 303 6 294 16 0 0 0 0 0 0 0 0 0 0 0 0
X 1 37
A 305 4 0 0 0 6 304 0 3 0 0 0 0 2 0 0 0 0 0 0
A 306 4 0 0 0 6 303 0 305 0 0 0 0 1 0 0 0 0 0 0
A 307 10 0 0 304 6 294 19 0 0 0 0 0 0 0 0 0 0 0 0
X 1 41
A 308 10 0 0 307 6 294 22 0 0 0 0 0 0 0 0 0 0 0 0
X 1 43
A 309 4 0 0 0 6 308 0 3 0 0 0 0 2 0 0 0 0 0 0
A 310 4 0 0 167 6 307 0 309 0 0 0 0 1 0 0 0 0 0 0
A 311 10 0 0 308 6 294 43 0 0 0 0 0 0 0 0 0 0 0 0
X 1 108
A 312 10 0 0 311 6 294 46 0 0 0 0 0 0 0 0 0 0 0 0
X 1 110
A 313 4 0 0 0 6 312 0 3 0 0 0 0 2 0 0 0 0 0 0
A 314 4 0 0 0 6 311 0 313 0 0 0 0 1 0 0 0 0 0 0
A 315 2 0 0 0 6 702 0 0 0 315 0 0 0 0 0 0 0 0 0
A 316 10 0 0 312 6 294 52 0 0 0 0 0 0 0 0 0 0 0 0
X 1 315
A 317 2 0 0 0 6 703 0 0 0 317 0 0 0 0 0 0 0 0 0
A 318 10 0 0 316 6 294 55 0 0 0 0 0 0 0 0 0 0 0 0
X 1 317
A 319 4 0 0 0 6 318 0 3 0 0 0 0 2 0 0 0 0 0 0
A 320 4 0 0 0 6 316 0 319 0 0 0 0 1 0 0 0 0 0 0
A 321 10 0 0 318 6 294 25 0 0 0 0 0 0 0 0 0 0 0 0
X 1 47
A 322 10 0 0 321 6 294 28 0 0 0 0 0 0 0 0 0 0 0 0
X 1 49
A 323 10 0 0 322 6 294 31 0 0 0 0 0 0 0 0 0 0 0 0
X 1 51
A 324 10 0 0 323 6 294 34 0 0 0 0 0 0 0 0 0 0 0 0
X 1 53
A 325 10 0 0 324 6 294 49 0 0 0 0 0 0 0 0 0 0 0 0
X 1 118
A 326 2 0 0 0 6 704 0 0 0 326 0 0 0 0 0 0 0 0 0
A 327 10 0 0 325 6 294 58 0 0 0 0 0 0 0 0 0 0 0 0
X 1 326
A 328 10 0 0 327 6 294 37 0 0 0 0 0 0 0 0 0 0 0 0
X 1 55
A 329 10 0 0 328 6 294 40 0 0 0 0 0 0 0 0 0 0 0 0
X 1 13
A 335 1 0 3 0 113 711 0 0 0 0 0 0 0 0 0 0 0 0 0
A 336 10 0 0 0 6 335 1 0 0 0 0 0 0 0 0 0 0 0 0
X 1 22
A 337 10 0 0 336 6 335 4 0 0 0 0 0 0 0 0 0 0 0 0
X 1 25
A 338 4 0 0 0 6 337 0 3 0 0 0 0 2 0 0 0 0 0 0
A 339 4 0 0 257 6 336 0 338 0 0 0 0 1 0 0 0 0 0 0
A 340 10 0 0 337 6 335 7 0 0 0 0 0 0 0 0 0 0 0 0
X 1 29
A 341 10 0 0 340 6 335 10 0 0 0 0 0 0 0 0 0 0 0 0
X 1 31
A 342 4 0 0 0 6 341 0 3 0 0 0 0 2 0 0 0 0 0 0
A 343 4 0 0 330 6 340 0 342 0 0 0 0 1 0 0 0 0 0 0
A 344 10 0 0 341 6 335 13 0 0 0 0 0 0 0 0 0 0 0 0
X 1 35
A 345 10 0 0 344 6 335 16 0 0 0 0 0 0 0 0 0 0 0 0
X 1 37
A 346 4 0 0 0 6 345 0 3 0 0 0 0 2 0 0 0 0 0 0
A 347 4 0 0 55 6 344 0 346 0 0 0 0 1 0 0 0 0 0 0
A 348 10 0 0 345 6 335 19 0 0 0 0 0 0 0 0 0 0 0 0
X 1 41
A 349 10 0 0 348 6 335 22 0 0 0 0 0 0 0 0 0 0 0 0
X 1 43
A 350 4 0 0 0 6 349 0 3 0 0 0 0 2 0 0 0 0 0 0
A 351 4 0 0 110 6 348 0 350 0 0 0 0 1 0 0 0 0 0 0
A 352 10 0 0 349 6 335 43 0 0 0 0 0 0 0 0 0 0 0 0
X 1 108
A 353 10 0 0 352 6 335 46 0 0 0 0 0 0 0 0 0 0 0 0
X 1 110
A 354 4 0 0 0 6 353 0 3 0 0 0 0 2 0 0 0 0 0 0
A 355 4 0 0 0 6 352 0 354 0 0 0 0 1 0 0 0 0 0 0
A 356 10 0 0 353 6 335 25 0 0 0 0 0 0 0 0 0 0 0 0
X 1 47
A 357 10 0 0 356 6 335 28 0 0 0 0 0 0 0 0 0 0 0 0
X 1 49
A 358 10 0 0 357 6 335 31 0 0 0 0 0 0 0 0 0 0 0 0
X 1 51
A 359 10 0 0 358 6 335 34 0 0 0 0 0 0 0 0 0 0 0 0
X 1 53
A 360 10 0 0 359 6 335 49 0 0 0 0 0 0 0 0 0 0 0 0
X 1 118
A 361 10 0 0 360 6 335 37 0 0 0 0 0 0 0 0 0 0 0 0
X 1 55
A 362 10 0 0 361 6 335 40 0 0 0 0 0 0 0 0 0 0 0 0
X 1 13
A 369 1 0 5 179 119 722 0 0 0 0 0 0 0 0 0 0 0 0 0
A 370 10 0 0 0 6 369 1 0 0 0 0 0 0 0 0 0 0 0 0
X 1 22
A 371 10 0 0 370 6 369 4 0 0 0 0 0 0 0 0 0 0 0 0
X 1 25
A 372 4 0 0 0 6 371 0 3 0 0 0 0 2 0 0 0 0 0 0
A 373 4 0 0 0 6 370 0 372 0 0 0 0 1 0 0 0 0 0 0
A 374 10 0 0 371 6 369 7 0 0 0 0 0 0 0 0 0 0 0 0
X 1 29
A 375 10 0 0 374 6 369 10 0 0 0 0 0 0 0 0 0 0 0 0
X 1 31
A 376 4 0 0 0 6 375 0 3 0 0 0 0 2 0 0 0 0 0 0
A 377 4 0 0 0 6 374 0 376 0 0 0 0 1 0 0 0 0 0 0
A 378 10 0 0 375 6 369 13 0 0 0 0 0 0 0 0 0 0 0 0
X 1 35
A 379 10 0 0 378 6 369 16 0 0 0 0 0 0 0 0 0 0 0 0
X 1 37
A 380 4 0 0 0 6 379 0 3 0 0 0 0 2 0 0 0 0 0 0
A 381 4 0 0 0 6 378 0 380 0 0 0 0 1 0 0 0 0 0 0
A 382 10 0 0 379 6 369 19 0 0 0 0 0 0 0 0 0 0 0 0
X 1 41
A 383 10 0 0 382 6 369 22 0 0 0 0 0 0 0 0 0 0 0 0
X 1 43
A 384 4 0 0 209 6 383 0 3 0 0 0 0 2 0 0 0 0 0 0
A 385 4 0 0 346 6 382 0 384 0 0 0 0 1 0 0 0 0 0 0
A 386 10 0 0 383 6 369 43 0 0 0 0 0 0 0 0 0 0 0 0
X 1 108
A 387 10 0 0 386 6 369 46 0 0 0 0 0 0 0 0 0 0 0 0
X 1 110
A 388 4 0 0 164 6 387 0 3 0 0 0 0 2 0 0 0 0 0 0
A 389 4 0 0 0 6 386 0 388 0 0 0 0 1 0 0 0 0 0 0
A 390 10 0 0 387 6 369 52 0 0 0 0 0 0 0 0 0 0 0 0
X 1 315
A 391 10 0 0 390 6 369 55 0 0 0 0 0 0 0 0 0 0 0 0
X 1 317
A 392 4 0 0 0 6 391 0 3 0 0 0 0 2 0 0 0 0 0 0
A 393 4 0 0 0 6 390 0 392 0 0 0 0 1 0 0 0 0 0 0
A 394 10 0 0 391 6 369 25 0 0 0 0 0 0 0 0 0 0 0 0
X 1 47
A 395 10 0 0 394 6 369 28 0 0 0 0 0 0 0 0 0 0 0 0
X 1 49
A 396 10 0 0 395 6 369 31 0 0 0 0 0 0 0 0 0 0 0 0
X 1 51
A 397 10 0 0 396 6 369 34 0 0 0 0 0 0 0 0 0 0 0 0
X 1 53
A 398 10 0 0 397 6 369 49 0 0 0 0 0 0 0 0 0 0 0 0
X 1 118
A 399 10 0 0 398 6 369 58 0 0 0 0 0 0 0 0 0 0 0 0
X 1 326
A 400 10 0 0 399 6 369 37 0 0 0 0 0 0 0 0 0 0 0 0
X 1 55
A 401 10 0 0 400 6 369 40 0 0 0 0 0 0 0 0 0 0 0 0
X 1 13
A 409 2 0 0 0 6 734 0 0 0 409 0 0 0 0 0 0 0 0 0
A 410 1 0 7 0 125 735 0 0 0 0 0 0 0 0 0 0 0 0 0
A 411 10 0 0 381 6 410 1 0 0 0 0 0 0 0 0 0 0 0 0
X 1 22
A 412 10 0 0 411 6 410 4 0 0 0 0 0 0 0 0 0 0 0 0
X 1 25
A 413 4 0 0 0 6 412 0 3 0 0 0 0 2 0 0 0 0 0 0
A 414 4 0 0 0 6 411 0 413 0 0 0 0 1 0 0 0 0 0 0
A 415 10 0 0 412 6 410 7 0 0 0 0 0 0 0 0 0 0 0 0
X 1 29
A 416 10 0 0 415 6 410 10 0 0 0 0 0 0 0 0 0 0 0 0
X 1 31
A 417 4 0 0 0 6 416 0 3 0 0 0 0 2 0 0 0 0 0 0
A 418 4 0 0 0 6 415 0 417 0 0 0 0 1 0 0 0 0 0 0
A 419 10 0 0 416 6 410 13 0 0 0 0 0 0 0 0 0 0 0 0
X 1 35
A 420 10 0 0 419 6 410 16 0 0 0 0 0 0 0 0 0 0 0 0
X 1 37
A 421 4 0 0 226 6 420 0 3 0 0 0 0 2 0 0 0 0 0 0
A 422 4 0 0 0 6 419 0 421 0 0 0 0 1 0 0 0 0 0 0
A 423 10 0 0 420 6 410 19 0 0 0 0 0 0 0 0 0 0 0 0
X 1 41
A 424 10 0 0 423 6 410 22 0 0 0 0 0 0 0 0 0 0 0 0
X 1 43
A 425 4 0 0 0 6 424 0 3 0 0 0 0 2 0 0 0 0 0 0
A 426 4 0 0 0 6 423 0 425 0 0 0 0 1 0 0 0 0 0 0
A 427 10 0 0 424 6 410 43 0 0 0 0 0 0 0 0 0 0 0 0
X 1 108
A 428 10 0 0 427 6 410 46 0 0 0 0 0 0 0 0 0 0 0 0
X 1 110
A 429 4 0 0 0 6 428 0 3 0 0 0 0 2 0 0 0 0 0 0
A 430 4 0 0 0 6 427 0 429 0 0 0 0 1 0 0 0 0 0 0
A 431 10 0 0 428 6 410 52 0 0 0 0 0 0 0 0 0 0 0 0
X 1 315
A 432 10 0 0 431 6 410 55 0 0 0 0 0 0 0 0 0 0 0 0
X 1 317
A 433 4 0 0 0 6 432 0 3 0 0 0 0 2 0 0 0 0 0 0
A 434 4 0 0 0 6 431 0 433 0 0 0 0 1 0 0 0 0 0 0
A 435 2 0 0 95 6 739 0 0 0 435 0 0 0 0 0 0 0 0 0
A 436 10 0 0 432 6 410 61 0 0 0 0 0 0 0 0 0 0 0 0
X 1 435
A 437 2 0 0 0 6 740 0 0 0 437 0 0 0 0 0 0 0 0 0
A 438 10 0 0 436 6 410 64 0 0 0 0 0 0 0 0 0 0 0 0
X 1 437
A 439 4 0 0 0 6 438 0 3 0 0 0 0 2 0 0 0 0 0 0
A 440 4 0 0 0 6 436 0 439 0 0 0 0 1 0 0 0 0 0 0
A 441 10 0 0 438 6 410 25 0 0 0 0 0 0 0 0 0 0 0 0
X 1 47
A 442 10 0 0 441 6 410 28 0 0 0 0 0 0 0 0 0 0 0 0
X 1 49
A 443 10 0 0 442 6 410 31 0 0 0 0 0 0 0 0 0 0 0 0
X 1 51
A 444 10 0 0 443 6 410 34 0 0 0 0 0 0 0 0 0 0 0 0
X 1 53
A 445 10 0 0 444 6 410 49 0 0 0 0 0 0 0 0 0 0 0 0
X 1 118
A 446 10 0 0 445 6 410 58 0 0 0 0 0 0 0 0 0 0 0 0
X 1 326
A 447 2 0 0 262 6 741 0 0 0 447 0 0 0 0 0 0 0 0 0
A 448 10 0 0 446 6 410 67 0 0 0 0 0 0 0 0 0 0 0 0
X 1 447
A 449 10 0 0 448 6 410 37 0 0 0 0 0 0 0 0 0 0 0 0
X 1 55
A 450 10 0 0 449 6 410 40 0 0 0 0 0 0 0 0 0 0 0 0
X 1 13
A 455 1 0 1 0 131 747 0 0 0 0 0 0 0 0 0 0 0 0 0
A 456 10 0 0 0 6 455 1 0 0 0 0 0 0 0 0 0 0 0 0
X 1 22
A 457 10 0 0 456 6 455 4 0 0 0 0 0 0 0 0 0 0 0 0
X 1 25
A 458 4 0 0 131 6 457 0 3 0 0 0 0 2 0 0 0 0 0 0
A 459 4 0 0 241 6 456 0 458 0 0 0 0 1 0 0 0 0 0 0
A 460 10 0 0 457 6 455 7 0 0 0 0 0 0 0 0 0 0 0 0
X 1 29
A 461 10 0 0 460 6 455 10 0 0 0 0 0 0 0 0 0 0 0 0
X 1 31
A 462 4 0 0 0 6 461 0 3 0 0 0 0 2 0 0 0 0 0 0
A 463 4 0 0 0 6 460 0 462 0 0 0 0 1 0 0 0 0 0 0
A 464 10 0 0 461 6 455 13 0 0 0 0 0 0 0 0 0 0 0 0
X 1 35
A 465 10 0 0 464 6 455 16 0 0 0 0 0 0 0 0 0 0 0 0
X 1 37
A 466 4 0 0 0 6 465 0 3 0 0 0 0 2 0 0 0 0 0 0
A 467 4 0 0 0 6 464 0 466 0 0 0 0 1 0 0 0 0 0 0
A 468 10 0 0 465 6 455 19 0 0 0 0 0 0 0 0 0 0 0 0
X 1 41
A 469 10 0 0 468 6 455 22 0 0 0 0 0 0 0 0 0 0 0 0
X 1 43
A 470 4 0 0 0 6 469 0 3 0 0 0 0 2 0 0 0 0 0 0
A 471 4 0 0 0 6 468 0 470 0 0 0 0 1 0 0 0 0 0 0
A 472 10 0 0 469 6 455 25 0 0 0 0 0 0 0 0 0 0 0 0
X 1 47
A 473 10 0 0 472 6 455 28 0 0 0 0 0 0 0 0 0 0 0 0
X 1 49
A 474 10 0 0 473 6 455 31 0 0 0 0 0 0 0 0 0 0 0 0
X 1 51
A 475 10 0 0 474 6 455 34 0 0 0 0 0 0 0 0 0 0 0 0
X 1 53
A 476 10 0 0 475 6 455 37 0 0 0 0 0 0 0 0 0 0 0 0
X 1 55
A 477 10 0 0 476 6 455 40 0 0 0 0 0 0 0 0 0 0 0 0
X 1 13
A 483 1 0 3 0 137 757 0 0 0 0 0 0 0 0 0 0 0 0 0
A 484 10 0 0 0 6 483 1 0 0 0 0 0 0 0 0 0 0 0 0
X 1 22
A 485 10 0 0 484 6 483 4 0 0 0 0 0 0 0 0 0 0 0 0
X 1 25
A 486 4 0 0 0 6 485 0 3 0 0 0 0 2 0 0 0 0 0 0
A 487 4 0 0 0 6 484 0 486 0 0 0 0 1 0 0 0 0 0 0
A 488 10 0 0 485 6 483 7 0 0 0 0 0 0 0 0 0 0 0 0
X 1 29
A 489 10 0 0 488 6 483 10 0 0 0 0 0 0 0 0 0 0 0 0
X 1 31
A 490 4 0 0 91 6 489 0 3 0 0 0 0 2 0 0 0 0 0 0
A 491 4 0 0 0 6 488 0 490 0 0 0 0 1 0 0 0 0 0 0
A 492 10 0 0 489 6 483 13 0 0 0 0 0 0 0 0 0 0 0 0
X 1 35
A 493 10 0 0 492 6 483 16 0 0 0 0 0 0 0 0 0 0 0 0
X 1 37
A 494 4 0 0 0 6 493 0 3 0 0 0 0 2 0 0 0 0 0 0
A 495 4 0 0 0 6 492 0 494 0 0 0 0 1 0 0 0 0 0 0
A 496 10 0 0 493 6 483 19 0 0 0 0 0 0 0 0 0 0 0 0
X 1 41
A 497 10 0 0 496 6 483 22 0 0 0 0 0 0 0 0 0 0 0 0
X 1 43
A 498 4 0 0 0 6 497 0 3 0 0 0 0 2 0 0 0 0 0 0
A 499 4 0 0 470 6 496 0 498 0 0 0 0 1 0 0 0 0 0 0
A 500 10 0 0 497 6 483 43 0 0 0 0 0 0 0 0 0 0 0 0
X 1 108
A 501 10 0 0 500 6 483 46 0 0 0 0 0 0 0 0 0 0 0 0
X 1 110
A 502 4 0 0 139 6 501 0 3 0 0 0 0 2 0 0 0 0 0 0
A 503 4 0 0 0 6 500 0 502 0 0 0 0 1 0 0 0 0 0 0
A 504 10 0 0 501 6 483 25 0 0 0 0 0 0 0 0 0 0 0 0
X 1 47
A 505 10 0 0 504 6 483 28 0 0 0 0 0 0 0 0 0 0 0 0
X 1 49
A 506 10 0 0 505 6 483 31 0 0 0 0 0 0 0 0 0 0 0 0
X 1 51
A 507 10 0 0 506 6 483 34 0 0 0 0 0 0 0 0 0 0 0 0
X 1 53
A 508 10 0 0 507 6 483 49 0 0 0 0 0 0 0 0 0 0 0 0
X 1 118
A 509 10 0 0 508 6 483 37 0 0 0 0 0 0 0 0 0 0 0 0
X 1 55
A 510 10 0 0 509 6 483 40 0 0 0 0 0 0 0 0 0 0 0 0
X 1 13
A 516 1 0 3 0 143 767 0 0 0 0 0 0 0 0 0 0 0 0 0
A 517 10 0 0 0 6 516 1 0 0 0 0 0 0 0 0 0 0 0 0
X 1 22
A 518 10 0 0 517 6 516 4 0 0 0 0 0 0 0 0 0 0 0 0
X 1 25
A 519 4 0 0 20 6 518 0 3 0 0 0 0 2 0 0 0 0 0 0
A 520 4 0 0 471 6 517 0 519 0 0 0 0 1 0 0 0 0 0 0
A 521 10 0 0 518 6 516 7 0 0 0 0 0 0 0 0 0 0 0 0
X 1 29
A 522 10 0 0 521 6 516 10 0 0 0 0 0 0 0 0 0 0 0 0
X 1 31
A 523 4 0 0 0 6 522 0 3 0 0 0 0 2 0 0 0 0 0 0
A 524 4 0 0 338 6 521 0 523 0 0 0 0 1 0 0 0 0 0 0
A 525 10 0 0 522 6 516 13 0 0 0 0 0 0 0 0 0 0 0 0
X 1 35
A 526 10 0 0 525 6 516 16 0 0 0 0 0 0 0 0 0 0 0 0
X 1 37
A 527 4 0 0 0 6 526 0 3 0 0 0 0 2 0 0 0 0 0 0
A 528 4 0 0 0 6 525 0 527 0 0 0 0 1 0 0 0 0 0 0
A 529 10 0 0 526 6 516 19 0 0 0 0 0 0 0 0 0 0 0 0
X 1 41
A 530 10 0 0 529 6 516 22 0 0 0 0 0 0 0 0 0 0 0 0
X 1 43
A 531 4 0 0 0 6 530 0 3 0 0 0 0 2 0 0 0 0 0 0
A 532 4 0 0 0 6 529 0 531 0 0 0 0 1 0 0 0 0 0 0
A 533 10 0 0 530 6 516 43 0 0 0 0 0 0 0 0 0 0 0 0
X 1 108
A 534 10 0 0 533 6 516 46 0 0 0 0 0 0 0 0 0 0 0 0
X 1 110
A 535 4 0 0 0 6 534 0 3 0 0 0 0 2 0 0 0 0 0 0
A 536 4 0 0 487 6 533 0 535 0 0 0 0 1 0 0 0 0 0 0
A 537 10 0 0 534 6 516 25 0 0 0 0 0 0 0 0 0 0 0 0
X 1 47
A 538 10 0 0 537 6 516 28 0 0 0 0 0 0 0 0 0 0 0 0
X 1 49
A 539 10 0 0 538 6 516 31 0 0 0 0 0 0 0 0 0 0 0 0
X 1 51
A 540 10 0 0 539 6 516 34 0 0 0 0 0 0 0 0 0 0 0 0
X 1 53
A 541 10 0 0 540 6 516 49 0 0 0 0 0 0 0 0 0 0 0 0
X 1 118
A 542 10 0 0 541 6 516 37 0 0 0 0 0 0 0 0 0 0 0 0
X 1 55
A 543 10 0 0 542 6 516 40 0 0 0 0 0 0 0 0 0 0 0 0
X 1 13
A 547 2 0 0 0 6 775 0 0 0 547 0 0 0 0 0 0 0 0 0
A 548 1 0 9 466 149 776 0 0 0 0 0 0 0 0 0 0 0 0 0
A 549 10 0 0 462 6 548 1 0 0 0 0 0 0 0 0 0 0 0 0
X 1 22
A 550 10 0 0 549 6 548 4 0 0 0 0 0 0 0 0 0 0 0 0
X 1 25
A 551 4 0 0 89 6 550 0 3 0 0 0 0 2 0 0 0 0 0 0
A 552 4 0 0 503 6 549 0 551 0 0 0 0 1 0 0 0 0 0 0
A 553 10 0 0 550 6 548 7 0 0 0 0 0 0 0 0 0 0 0 0
X 1 29
A 554 10 0 0 553 6 548 10 0 0 0 0 0 0 0 0 0 0 0 0
X 1 31
A 555 4 0 0 147 6 554 0 3 0 0 0 0 2 0 0 0 0 0 0
A 556 4 0 0 523 6 553 0 555 0 0 0 0 1 0 0 0 0 0 0
A 557 10 0 0 554 6 548 13 0 0 0 0 0 0 0 0 0 0 0 0
X 1 35
A 558 10 0 0 557 6 548 16 0 0 0 0 0 0 0 0 0 0 0 0
X 1 37
A 559 4 0 0 0 6 558 0 3 0 0 0 0 2 0 0 0 0 0 0
A 560 4 0 0 0 6 557 0 559 0 0 0 0 1 0 0 0 0 0 0
A 561 10 0 0 558 6 548 25 0 0 0 0 0 0 0 0 0 0 0 0
X 1 47
A 562 10 0 0 561 6 548 28 0 0 0 0 0 0 0 0 0 0 0 0
X 1 49
A 563 10 0 0 562 6 548 31 0 0 0 0 0 0 0 0 0 0 0 0
X 1 51
A 564 10 0 0 563 6 548 37 0 0 0 0 0 0 0 0 0 0 0 0
X 1 55
A 565 10 0 0 564 6 548 40 0 0 0 0 0 0 0 0 0 0 0 0
X 1 13
A 570 1 0 1 0 155 785 0 0 0 0 0 0 0 0 0 0 0 0 0
A 571 10 0 0 0 6 570 1 0 0 0 0 0 0 0 0 0 0 0 0
X 1 22
A 572 10 0 0 571 6 570 4 0 0 0 0 0 0 0 0 0 0 0 0
X 1 25
A 573 4 0 0 156 6 572 0 3 0 0 0 0 2 0 0 0 0 0 0
A 574 4 0 0 366 6 571 0 573 0 0 0 0 1 0 0 0 0 0 0
A 575 10 0 0 572 6 570 7 0 0 0 0 0 0 0 0 0 0 0 0
X 1 29
A 576 10 0 0 575 6 570 10 0 0 0 0 0 0 0 0 0 0 0 0
X 1 31
A 577 4 0 0 0 6 576 0 3 0 0 0 0 2 0 0 0 0 0 0
A 578 4 0 0 0 6 575 0 577 0 0 0 0 1 0 0 0 0 0 0
A 579 10 0 0 576 6 570 13 0 0 0 0 0 0 0 0 0 0 0 0
X 1 35
A 580 10 0 0 579 6 570 16 0 0 0 0 0 0 0 0 0 0 0 0
X 1 37
A 581 4 0 0 188 6 580 0 3 0 0 0 0 2 0 0 0 0 0 0
A 582 4 0 0 512 6 579 0 581 0 0 0 0 1 0 0 0 0 0 0
A 583 10 0 0 580 6 570 19 0 0 0 0 0 0 0 0 0 0 0 0
X 1 41
A 584 10 0 0 583 6 570 22 0 0 0 0 0 0 0 0 0 0 0 0
X 1 43
A 585 4 0 0 192 6 584 0 3 0 0 0 0 2 0 0 0 0 0 0
A 586 4 0 0 0 6 583 0 585 0 0 0 0 1 0 0 0 0 0 0
A 587 10 0 0 584 6 570 25 0 0 0 0 0 0 0 0 0 0 0 0
X 1 47
A 588 10 0 0 587 6 570 28 0 0 0 0 0 0 0 0 0 0 0 0
X 1 49
A 589 10 0 0 588 6 570 31 0 0 0 0 0 0 0 0 0 0 0 0
X 1 51
A 590 10 0 0 589 6 570 34 0 0 0 0 0 0 0 0 0 0 0 0
X 1 53
A 591 10 0 0 590 6 570 37 0 0 0 0 0 0 0 0 0 0 0 0
X 1 55
A 592 10 0 0 591 6 570 40 0 0 0 0 0 0 0 0 0 0 0 0
X 1 13
A 597 1 0 1 0 161 794 0 0 0 0 0 0 0 0 0 0 0 0 0
A 598 10 0 0 0 6 597 1 0 0 0 0 0 0 0 0 0 0 0 0
X 1 22
A 599 10 0 0 598 6 597 4 0 0 0 0 0 0 0 0 0 0 0 0
X 1 25
A 600 4 0 0 0 6 599 0 3 0 0 0 0 2 0 0 0 0 0 0
A 601 4 0 0 0 6 598 0 600 0 0 0 0 1 0 0 0 0 0 0
A 602 10 0 0 599 6 597 7 0 0 0 0 0 0 0 0 0 0 0 0
X 1 29
A 603 10 0 0 602 6 597 10 0 0 0 0 0 0 0 0 0 0 0 0
X 1 31
A 604 4 0 0 256 6 603 0 3 0 0 0 0 2 0 0 0 0 0 0
A 605 4 0 0 559 6 602 0 604 0 0 0 0 1 0 0 0 0 0 0
A 606 10 0 0 603 6 597 13 0 0 0 0 0 0 0 0 0 0 0 0
X 1 35
A 607 10 0 0 606 6 597 16 0 0 0 0 0 0 0 0 0 0 0 0
X 1 37
A 608 4 0 0 0 6 607 0 3 0 0 0 0 2 0 0 0 0 0 0
A 609 4 0 0 581 6 606 0 608 0 0 0 0 1 0 0 0 0 0 0
A 610 10 0 0 607 6 597 19 0 0 0 0 0 0 0 0 0 0 0 0
X 1 41
A 611 10 0 0 610 6 597 22 0 0 0 0 0 0 0 0 0 0 0 0
X 1 43
A 612 4 0 0 287 6 611 0 3 0 0 0 0 2 0 0 0 0 0 0
A 613 4 0 0 255 6 610 0 612 0 0 0 0 1 0 0 0 0 0 0
A 614 10 0 0 611 6 597 25 0 0 0 0 0 0 0 0 0 0 0 0
X 1 47
A 615 10 0 0 614 6 597 28 0 0 0 0 0 0 0 0 0 0 0 0
X 1 49
A 616 10 0 0 615 6 597 31 0 0 0 0 0 0 0 0 0 0 0 0
X 1 51
A 617 10 0 0 616 6 597 34 0 0 0 0 0 0 0 0 0 0 0 0
X 1 53
A 618 10 0 0 617 6 597 37 0 0 0 0 0 0 0 0 0 0 0 0
X 1 55
A 619 10 0 0 618 6 597 40 0 0 0 0 0 0 0 0 0 0 0 0
X 1 13
A 625 1 0 3 0 167 804 0 0 0 0 0 0 0 0 0 0 0 0 0
A 626 10 0 0 86 6 625 1 0 0 0 0 0 0 0 0 0 0 0 0
X 1 22
A 627 10 0 0 626 6 625 4 0 0 0 0 0 0 0 0 0 0 0 0
X 1 25
A 628 4 0 0 331 6 627 0 3 0 0 0 0 2 0 0 0 0 0 0
A 629 4 0 0 0 6 626 0 628 0 0 0 0 1 0 0 0 0 0 0
A 630 10 0 0 627 6 625 7 0 0 0 0 0 0 0 0 0 0 0 0
X 1 29
A 631 10 0 0 630 6 625 10 0 0 0 0 0 0 0 0 0 0 0 0
X 1 31
A 632 4 0 0 21 6 631 0 3 0 0 0 0 2 0 0 0 0 0 0
A 633 4 0 0 595 6 630 0 632 0 0 0 0 1 0 0 0 0 0 0
A 634 10 0 0 631 6 625 13 0 0 0 0 0 0 0 0 0 0 0 0
X 1 35
A 635 10 0 0 634 6 625 16 0 0 0 0 0 0 0 0 0 0 0 0
X 1 37
A 636 4 0 0 0 6 635 0 3 0 0 0 0 2 0 0 0 0 0 0
A 637 4 0 0 315 6 634 0 636 0 0 0 0 1 0 0 0 0 0 0
A 638 10 0 0 635 6 625 19 0 0 0 0 0 0 0 0 0 0 0 0
X 1 41
A 639 10 0 0 638 6 625 22 0 0 0 0 0 0 0 0 0 0 0 0
X 1 43
A 640 4 0 0 574 6 639 0 3 0 0 0 0 2 0 0 0 0 0 0
A 641 4 0 0 414 6 638 0 640 0 0 0 0 1 0 0 0 0 0 0
A 642 10 0 0 639 6 625 43 0 0 0 0 0 0 0 0 0 0 0 0
X 1 108
A 643 10 0 0 642 6 625 46 0 0 0 0 0 0 0 0 0 0 0 0
X 1 110
A 644 4 0 0 302 6 643 0 3 0 0 0 0 2 0 0 0 0 0 0
A 645 4 0 0 418 6 642 0 644 0 0 0 0 1 0 0 0 0 0 0
A 646 10 0 0 643 6 625 25 0 0 0 0 0 0 0 0 0 0 0 0
X 1 47
A 647 10 0 0 646 6 625 28 0 0 0 0 0 0 0 0 0 0 0 0
X 1 49
A 648 10 0 0 647 6 625 31 0 0 0 0 0 0 0 0 0 0 0 0
X 1 51
A 649 10 0 0 648 6 625 34 0 0 0 0 0 0 0 0 0 0 0 0
X 1 53
A 650 10 0 0 649 6 625 49 0 0 0 0 0 0 0 0 0 0 0 0
X 1 118
A 651 10 0 0 650 6 625 37 0 0 0 0 0 0 0 0 0 0 0 0
X 1 55
A 652 10 0 0 651 6 625 40 0 0 0 0 0 0 0 0 0 0 0 0
X 1 13
Z
Z
