V26 qpoint
9 phcom.F90 S582 0
04/24/2012  16:05:16
use kinds private
use kinds private
enduse
D 56 21 6 1 30 29 0 1 0 0 1
 21 25 27 21 25 23
D 59 21 6 1 0 18 0 0 0 0 0
 0 18 0 3 18 0
D 62 21 9 1 3 31 0 0 0 0 0
 0 31 3 3 31 31
D 65 21 12 1 40 39 0 1 0 0 1
 34 37 38 34 37 35
D 68 21 6 1 0 18 0 0 0 0 0
 0 18 0 3 18 0
S 582 24 0 0 0 9 1 0 4658 5 0 A 0 0 0 0 0 0 0 0 0 0 0 0 91 0 0 0 0 0 0 0 0 74 0 0 0 0 0 0 qpoint
S 584 23 0 0 0 9 587 582 4671 4 0 A 0 0 0 0 0 0 0 0 0 0 0 0 0 0 0 0 0 0 0 0 0 0 0 582 0 0 0 0 dp
S 585 3 0 0 0 6 1 1 0 0 0 A 0 0 0 0 0 0 0 0 0 8 0 0 0 0 0 0 0 0 0 0 0 0 0 0 0 0 0 0 6
R 587 16 1 kinds dp
S 594 7 6 0 0 56 1 582 4705 10a00004 14 A 0 0 0 0 0 0 598 0 0 0 600 0 0 0 0 0 0 0 0 597 0 0 599 582 0 0 0 0 igkq
S 595 6 4 0 0 6 605 582 4710 40800006 0 A 0 0 0 0 0 0 0 0 0 0 0 0 615 0 0 0 0 0 0 0 0 0 0 582 0 0 0 0 z_b_0
S 596 3 0 0 0 6 0 1 0 0 0 A 0 0 0 0 0 0 0 0 0 18 0 0 0 0 0 0 0 0 0 0 0 0 0 0 0 0 0 0 6
S 597 8 4 0 0 59 612 582 4716 40822064 1020 A 0 0 0 0 0 0 0 0 0 0 0 0 615 0 0 0 0 0 0 0 0 0 0 582 0 0 0 0 igkq$sd
S 598 6 4 0 0 7 599 582 4724 40802061 1020 A 0 0 0 0 0 72 0 0 0 0 0 0 615 0 0 0 0 0 0 0 0 0 0 582 0 0 0 0 igkq$p
S 599 6 4 0 0 7 597 582 4731 40802060 1020 A 0 0 0 0 0 80 0 0 0 0 0 0 615 0 0 0 0 0 0 0 0 0 0 582 0 0 0 0 igkq$o
S 600 22 1 0 0 6 1 582 4738 40000000 1000 A 0 0 0 0 0 0 0 594 0 0 0 0 597 0 0 0 0 0 0 0 0 0 0 582 0 0 0 0 igkq$arrdsc
S 601 3 0 0 0 6 0 1 0 0 0 A 0 0 0 0 0 0 0 0 0 13 0 0 0 0 0 0 0 0 0 0 0 0 0 0 0 0 0 0 6
S 602 3 0 0 0 6 0 1 0 0 0 A 0 0 0 0 0 0 0 0 0 14 0 0 0 0 0 0 0 0 0 0 0 0 0 0 0 0 0 0 6
S 603 3 0 0 0 6 0 1 0 0 0 A 0 0 0 0 0 0 0 0 0 17 0 0 0 0 0 0 0 0 0 0 0 0 0 0 0 0 0 0 6
S 604 3 0 0 0 6 0 1 0 0 0 A 0 0 0 0 0 0 0 0 0 7 0 0 0 0 0 0 0 0 0 0 0 0 0 0 0 0 0 0 6
S 605 6 4 0 0 6 606 582 4750 4 0 A 0 0 0 0 0 4 0 0 0 0 0 0 615 0 0 0 0 0 0 0 0 0 0 582 0 0 0 0 nksq
S 606 6 4 0 0 6 610 582 4755 4 0 A 0 0 0 0 0 8 0 0 0 0 0 0 615 0 0 0 0 0 0 0 0 0 0 582 0 0 0 0 npwq
S 607 7 4 0 4 62 1 582 4760 800004 100 A 0 0 0 0 0 0 0 0 0 0 0 0 616 0 0 0 0 0 0 0 0 0 0 582 0 0 0 0 xq
S 608 3 0 0 0 6 0 1 0 0 0 A 0 0 0 0 0 0 0 0 0 3 0 0 0 0 0 0 0 0 0 0 0 0 0 0 0 0 0 0 6
S 609 7 6 0 0 65 1 582 4763 10a00004 51 A 0 0 0 0 0 0 612 0 0 0 614 0 0 0 0 0 0 0 0 611 0 0 613 582 0 0 0 0 eigqts
S 610 6 4 0 0 6 1 582 4770 40800006 0 A 0 0 0 0 0 12 0 0 0 0 0 0 615 0 0 0 0 0 0 0 0 0 0 582 0 0 0 0 z_b_1
S 611 8 4 0 0 68 595 582 4776 40822064 1020 A 0 0 0 0 0 88 0 0 0 0 0 0 615 0 0 0 0 0 0 0 0 0 0 582 0 0 0 0 eigqts$sd
S 612 6 4 0 0 7 613 582 4786 40802061 1020 A 0 0 0 0 0 160 0 0 0 0 0 0 615 0 0 0 0 0 0 0 0 0 0 582 0 0 0 0 eigqts$p
S 613 6 4 0 0 7 611 582 4795 40802060 1020 A 0 0 0 0 0 168 0 0 0 0 0 0 615 0 0 0 0 0 0 0 0 0 0 582 0 0 0 0 eigqts$o
S 614 22 1 0 0 9 1 582 4804 40000000 1000 A 0 0 0 0 0 0 0 609 0 0 0 0 611 0 0 0 0 0 0 0 0 0 0 582 0 0 0 0 eigqts$arrdsc
S 615 11 0 0 0 9 1 582 4818 40800000 801000 A 0 0 0 0 0 192 0 0 598 610 0 0 0 0 0 0 0 0 0 0 0 0 0 0 0 0 0 0 _qpoint$0
S 616 11 0 0 4 9 615 582 4828 40800000 801000 A 0 0 0 0 0 24 0 0 607 607 0 0 0 0 0 0 0 0 0 0 0 0 0 0 0 0 0 0 _qpoint$2
A 13 2 0 0 0 6 585 0 0 0 13 0 0 0 0 0 0 0 0 0
A 18 2 0 0 0 6 596 0 0 0 18 0 0 0 0 0 0 0 0 0
A 19 2 0 0 0 6 601 0 0 0 19 0 0 0 0 0 0 0 0 0
A 20 1 0 1 0 59 597 0 0 0 0 0 0 0 0 0 0 0 0 0
A 21 10 0 0 0 6 20 1 0 0 0 0 0 0 0 0 0 0 0 0
X 1 19
A 22 2 0 0 0 6 602 0 0 0 22 0 0 0 0 0 0 0 0 0
A 23 10 0 0 21 6 20 4 0 0 0 0 0 0 0 0 0 0 0 0
X 1 22
A 24 4 0 0 0 6 23 0 3 0 0 0 0 2 0 0 0 0 0 0
A 25 4 0 0 0 6 21 0 24 0 0 0 0 1 0 0 0 0 0 0
A 26 2 0 0 0 6 603 0 0 0 26 0 0 0 0 0 0 0 0 0
A 27 10 0 0 23 6 20 7 0 0 0 0 0 0 0 0 0 0 0 0
X 1 26
A 28 2 0 0 0 6 604 0 0 0 28 0 0 0 0 0 0 0 0 0
A 29 10 0 0 27 6 20 10 0 0 0 0 0 0 0 0 0 0 0 0
X 1 28
A 30 10 0 0 29 6 20 13 0 0 0 0 0 0 0 0 0 0 0 0
X 1 13
A 31 2 0 0 0 6 608 0 0 0 31 0 0 0 0 0 0 0 0 0
A 33 1 0 1 0 68 611 0 0 0 0 0 0 0 0 0 0 0 0 0
A 34 10 0 0 0 6 33 1 0 0 0 0 0 0 0 0 0 0 0 0
X 1 19
A 35 10 0 0 34 6 33 4 0 0 0 0 0 0 0 0 0 0 0 0
X 1 22
A 36 4 0 0 0 6 35 0 3 0 0 0 0 2 0 0 0 0 0 0
A 37 4 0 0 0 6 34 0 36 0 0 0 0 1 0 0 0 0 0 0
A 38 10 0 0 35 6 33 7 0 0 0 0 0 0 0 0 0 0 0 0
X 1 26
A 39 10 0 0 38 6 33 10 0 0 0 0 0 0 0 0 0 0 0 0
X 1 28
A 40 10 0 0 39 6 33 13 0 0 0 0 0 0 0 0 0 0 0 0
X 1 13
Z
Z
