V26 ramanm
10 ramanm.F90 S582 0
04/24/2012  16:05:17
use kinds private
use kinds private
enduse
D 56 21 9 4 57 56 0 1 0 0 1
 24 28 48 24 28 26
 30 34 50 30 34 32
 36 40 52 36 40 38
 42 46 54 42 46 44
D 59 21 6 1 0 21 0 0 0 0 0
 0 21 0 3 21 0
D 62 21 9 3 22 60 0 0 0 0 0
 0 58 3 3 58 58
 0 58 58 3 58 58
 0 58 59 3 58 58
D 65 21 6 2 15 59 0 0 0 0 0
 0 58 3 3 58 58
 0 58 58 3 58 58
D 68 21 6 1 3 61 0 0 0 0 0
 0 61 3 3 61 61
D 71 21 6 1 3 61 0 0 0 0 0
 0 61 3 3 61 61
S 582 24 0 0 0 9 1 0 4658 10005 0 A 0 0 0 0 0 0 0 0 0 0 0 0 47 0 0 0 0 0 0 0 0 11 0 0 0 0 0 0 ramanm
S 584 23 0 0 0 9 587 582 4671 4 0 A 0 0 0 0 0 0 0 0 0 0 0 0 0 0 0 0 0 0 0 0 0 0 0 582 0 0 0 0 dp
S 585 3 0 0 0 6 1 1 0 0 0 A 0 0 0 0 0 0 0 0 0 8 0 0 0 0 0 0 0 0 0 0 0 0 0 0 0 0 0 0 6
S 586 3 0 0 0 6 1 1 0 0 0 A 0 0 0 0 0 0 0 0 0 4 0 0 0 0 0 0 0 0 0 0 0 0 0 0 0 0 0 0 6
R 587 16 1 kinds dp
S 594 6 4 0 0 9 595 582 4705 4 0 A 0 0 0 0 0 0 0 0 0 0 0 0 638 0 0 0 0 0 0 0 0 0 0 582 0 0 0 0 eth_rps
S 595 6 4 0 0 9 619 582 4713 4 0 A 0 0 0 0 0 8 0 0 0 0 0 0 638 0 0 0 0 0 0 0 0 0 0 582 0 0 0 0 eth_ns
S 596 7 6 0 0 56 1 582 4720 10a00004 51 A 0 0 0 0 0 0 603 0 0 0 605 0 0 0 0 0 0 0 0 602 0 0 604 582 0 0 0 0 ramtns
S 597 6 4 0 0 6 598 582 4727 40800006 0 A 0 0 0 0 0 0 0 0 0 0 0 0 639 0 0 0 0 0 0 0 0 0 0 582 0 0 0 0 z_b_0
S 598 6 4 0 0 6 599 582 4733 40800006 0 A 0 0 0 0 0 4 0 0 0 0 0 0 639 0 0 0 0 0 0 0 0 0 0 582 0 0 0 0 z_b_1
S 599 6 4 0 0 6 600 582 4739 40800006 0 A 0 0 0 0 0 8 0 0 0 0 0 0 639 0 0 0 0 0 0 0 0 0 0 582 0 0 0 0 z_b_2
S 600 6 4 0 0 6 624 582 4745 40800006 0 A 0 0 0 0 0 12 0 0 0 0 0 0 639 0 0 0 0 0 0 0 0 0 0 582 0 0 0 0 z_b_3
S 601 3 0 0 0 6 0 1 0 0 0 A 0 0 0 0 0 0 0 0 0 36 0 0 0 0 0 0 0 0 0 0 0 0 0 0 0 0 0 0 6
S 602 8 4 0 0 59 597 582 4751 40822064 1020 A 0 0 0 0 0 0 0 0 0 0 0 0 639 0 0 0 0 0 0 0 0 0 0 582 0 0 0 0 ramtns$sd
S 603 6 4 0 0 7 604 582 4761 40802061 1020 A 0 0 0 0 0 144 0 0 0 0 0 0 639 0 0 0 0 0 0 0 0 0 0 582 0 0 0 0 ramtns$p
S 604 6 4 0 0 7 602 582 4770 40802060 1020 A 0 0 0 0 0 152 0 0 0 0 0 0 639 0 0 0 0 0 0 0 0 0 0 582 0 0 0 0 ramtns$o
S 605 22 1 0 0 9 1 582 4779 40000000 1000 A 0 0 0 0 0 0 0 596 0 0 0 0 602 0 0 0 0 0 0 0 0 0 0 582 0 0 0 0 ramtns$arrdsc
S 606 3 0 0 0 6 0 1 0 0 0 A 0 0 0 0 0 0 0 0 0 13 0 0 0 0 0 0 0 0 0 0 0 0 0 0 0 0 0 0 6
S 607 3 0 0 0 6 0 1 0 0 0 A 0 0 0 0 0 0 0 0 0 14 0 0 0 0 0 0 0 0 0 0 0 0 0 0 0 0 0 0 6
S 608 3 0 0 0 6 0 1 0 0 0 A 0 0 0 0 0 0 0 0 0 19 0 0 0 0 0 0 0 0 0 0 0 0 0 0 0 0 0 0 6
S 609 3 0 0 0 6 0 1 0 0 0 A 0 0 0 0 0 0 0 0 0 20 0 0 0 0 0 0 0 0 0 0 0 0 0 0 0 0 0 0 6
S 610 3 0 0 0 6 0 1 0 0 0 A 0 0 0 0 0 0 0 0 0 25 0 0 0 0 0 0 0 0 0 0 0 0 0 0 0 0 0 0 6
S 611 3 0 0 0 6 0 1 0 0 0 A 0 0 0 0 0 0 0 0 0 26 0 0 0 0 0 0 0 0 0 0 0 0 0 0 0 0 0 0 6
S 612 3 0 0 0 6 0 1 0 0 0 A 0 0 0 0 0 0 0 0 0 31 0 0 0 0 0 0 0 0 0 0 0 0 0 0 0 0 0 0 6
S 613 3 0 0 0 6 0 1 0 0 0 A 0 0 0 0 0 0 0 0 0 32 0 0 0 0 0 0 0 0 0 0 0 0 0 0 0 0 0 0 6
S 614 3 0 0 0 6 0 1 0 0 0 A 0 0 0 0 0 0 0 0 0 17 0 0 0 0 0 0 0 0 0 0 0 0 0 0 0 0 0 0 6
S 615 3 0 0 0 6 0 1 0 0 0 A 0 0 0 0 0 0 0 0 0 23 0 0 0 0 0 0 0 0 0 0 0 0 0 0 0 0 0 0 6
S 616 3 0 0 0 6 0 1 0 0 0 A 0 0 0 0 0 0 0 0 0 29 0 0 0 0 0 0 0 0 0 0 0 0 0 0 0 0 0 0 6
S 617 3 0 0 0 6 0 1 0 0 0 A 0 0 0 0 0 0 0 0 0 35 0 0 0 0 0 0 0 0 0 0 0 0 0 0 0 0 0 0 6
S 618 3 0 0 0 6 0 1 0 0 0 A 0 0 0 0 0 0 0 0 0 7 0 0 0 0 0 0 0 0 0 0 0 0 0 0 0 0 0 0 6
S 619 7 4 0 4 62 623 582 4793 800004 100 A 0 0 0 0 0 16 0 0 0 0 0 0 638 0 0 0 0 0 0 0 0 0 0 582 0 0 0 0 eloptns
S 620 3 0 0 0 6 0 1 0 0 0 A 0 0 0 0 0 0 0 0 0 3 0 0 0 0 0 0 0 0 0 0 0 0 0 0 0 0 0 0 6
S 621 3 0 0 0 6 0 1 0 0 0 A 0 0 0 0 0 0 0 0 0 9 0 0 0 0 0 0 0 0 0 0 0 0 0 0 0 0 0 0 6
S 622 3 0 0 0 6 0 1 0 0 0 A 0 0 0 0 0 0 0 0 0 27 0 0 0 0 0 0 0 0 0 0 0 0 0 0 0 0 0 0 6
S 623 6 4 0 0 9 1 582 4801 4 0 A 0 0 0 0 0 232 0 0 0 0 0 0 638 0 0 0 0 0 0 0 0 0 0 582 0 0 0 0 dek
S 624 6 4 0 0 16 625 582 4805 4 0 A 0 0 0 0 0 16 0 0 0 0 0 0 639 0 0 0 0 0 0 0 0 0 0 582 0 0 0 0 lraman
S 625 6 4 0 0 16 626 582 4812 4 0 A 0 0 0 0 0 20 0 0 0 0 0 0 639 0 0 0 0 0 0 0 0 0 0 582 0 0 0 0 elop
S 626 6 4 0 0 6 627 582 4817 4 0 A 0 0 0 0 0 24 0 0 0 0 0 0 639 0 0 0 0 0 0 0 0 0 0 582 0 0 0 0 iuchf
S 627 6 4 0 0 6 628 582 4823 4 0 A 0 0 0 0 0 28 0 0 0 0 0 0 639 0 0 0 0 0 0 0 0 0 0 582 0 0 0 0 iud2w
S 628 6 4 0 0 6 629 582 4829 4 0 A 0 0 0 0 0 32 0 0 0 0 0 0 639 0 0 0 0 0 0 0 0 0 0 582 0 0 0 0 iuba2
S 629 6 4 0 0 6 630 582 4835 4 0 A 0 0 0 0 0 36 0 0 0 0 0 0 639 0 0 0 0 0 0 0 0 0 0 582 0 0 0 0 lrchf
S 630 6 4 0 0 6 631 582 4841 4 0 A 0 0 0 0 0 40 0 0 0 0 0 0 639 0 0 0 0 0 0 0 0 0 0 582 0 0 0 0 lrd2w
S 631 6 4 0 0 6 1 582 4847 4 0 A 0 0 0 0 0 44 0 0 0 0 0 0 639 0 0 0 0 0 0 0 0 0 0 582 0 0 0 0 lrba2
S 632 7 4 0 4 65 633 582 4853 80006c 100 A 0 0 0 0 0 0 0 0 0 0 0 0 640 0 0 0 0 0 0 0 0 0 0 582 0 0 0 0 jab
S 633 7 4 0 4 68 635 582 4857 80006c 100 A 0 0 0 0 0 48 0 0 0 0 0 0 640 0 0 0 0 0 0 0 0 0 0 582 0 0 0 0 a1j
S 634 3 0 0 0 6 0 1 0 0 0 A 0 0 0 0 0 0 0 0 0 6 0 0 0 0 0 0 0 0 0 0 0 0 0 0 0 0 0 0 6
S 635 7 4 0 4 71 1 582 4861 80006c 100 A 0 0 0 0 0 80 0 0 0 0 0 0 640 0 0 0 0 0 0 0 0 0 0 582 0 0 0 0 a2j
S 636 3 0 0 0 6 0 1 0 0 0 A 0 0 0 0 0 0 0 0 0 2 0 0 0 0 0 0 0 0 0 0 0 0 0 0 0 0 0 0 6
S 637 3 0 0 0 6 0 1 0 0 0 A 0 0 0 0 0 0 0 0 0 5 0 0 0 0 0 0 0 0 0 0 0 0 0 0 0 0 0 0 6
S 638 11 0 0 4 9 1 582 4865 40800000 801000 A 0 0 0 0 0 240 0 0 594 623 0 0 0 0 0 0 0 0 0 0 0 0 0 0 0 0 0 0 _ramanm$2
S 639 11 0 0 0 9 638 582 4875 40800000 801000 A 0 0 0 0 0 208 0 0 603 631 0 0 0 0 0 0 0 0 0 0 0 0 0 0 0 0 0 0 _ramanm$0
S 640 11 0 0 4 9 639 582 4885 40800008 801000 A 0 0 0 0 0 104 0 0 632 635 0 0 0 0 0 0 0 0 0 0 0 0 0 0 0 0 0 0 _ramanm$8
A 13 2 0 0 0 6 585 0 0 0 13 0 0 0 0 0 0 0 0 0
A 15 2 0 0 0 6 586 0 0 0 15 0 0 0 0 0 0 0 0 0
A 21 2 0 0 0 6 601 0 0 0 21 0 0 0 0 0 0 0 0 0
A 22 2 0 0 0 6 606 0 0 0 22 0 0 0 0 0 0 0 0 0
A 23 1 0 1 0 59 602 0 0 0 0 0 0 0 0 0 0 0 0 0
A 24 10 0 0 0 6 23 1 0 0 0 0 0 0 0 0 0 0 0 0
X 1 22
A 25 2 0 0 0 6 607 0 0 0 25 0 0 0 0 0 0 0 0 0
A 26 10 0 0 24 6 23 4 0 0 0 0 0 0 0 0 0 0 0 0
X 1 25
A 27 4 0 0 0 6 26 0 3 0 0 0 0 2 0 0 0 0 0 0
A 28 4 0 0 0 6 24 0 27 0 0 0 0 1 0 0 0 0 0 0
A 29 2 0 0 0 6 608 0 0 0 29 0 0 0 0 0 0 0 0 0
A 30 10 0 0 26 6 23 7 0 0 0 0 0 0 0 0 0 0 0 0
X 1 29
A 31 2 0 0 0 6 609 0 0 0 31 0 0 0 0 0 0 0 0 0
A 32 10 0 0 30 6 23 10 0 0 0 0 0 0 0 0 0 0 0 0
X 1 31
A 33 4 0 0 0 6 32 0 3 0 0 0 0 2 0 0 0 0 0 0
A 34 4 0 0 0 6 30 0 33 0 0 0 0 1 0 0 0 0 0 0
A 35 2 0 0 0 6 610 0 0 0 35 0 0 0 0 0 0 0 0 0
A 36 10 0 0 32 6 23 13 0 0 0 0 0 0 0 0 0 0 0 0
X 1 35
A 37 2 0 0 0 6 611 0 0 0 37 0 0 0 0 0 0 0 0 0
A 38 10 0 0 36 6 23 16 0 0 0 0 0 0 0 0 0 0 0 0
X 1 37
A 39 4 0 0 0 6 38 0 3 0 0 0 0 2 0 0 0 0 0 0
A 40 4 0 0 0 6 36 0 39 0 0 0 0 1 0 0 0 0 0 0
A 41 2 0 0 0 6 612 0 0 0 41 0 0 0 0 0 0 0 0 0
A 42 10 0 0 38 6 23 19 0 0 0 0 0 0 0 0 0 0 0 0
X 1 41
A 43 2 0 0 0 6 613 0 0 0 43 0 0 0 0 0 0 0 0 0
A 44 10 0 0 42 6 23 22 0 0 0 0 0 0 0 0 0 0 0 0
X 1 43
A 45 4 0 0 0 6 44 0 3 0 0 0 0 2 0 0 0 0 0 0
A 46 4 0 0 0 6 42 0 45 0 0 0 0 1 0 0 0 0 0 0
A 47 2 0 0 0 6 614 0 0 0 47 0 0 0 0 0 0 0 0 0
A 48 10 0 0 44 6 23 25 0 0 0 0 0 0 0 0 0 0 0 0
X 1 47
A 49 2 0 0 0 6 615 0 0 0 49 0 0 0 0 0 0 0 0 0
A 50 10 0 0 48 6 23 28 0 0 0 0 0 0 0 0 0 0 0 0
X 1 49
A 51 2 0 0 0 6 616 0 0 0 51 0 0 0 0 0 0 0 0 0
A 52 10 0 0 50 6 23 31 0 0 0 0 0 0 0 0 0 0 0 0
X 1 51
A 53 2 0 0 0 6 617 0 0 0 53 0 0 0 0 0 0 0 0 0
A 54 10 0 0 52 6 23 34 0 0 0 0 0 0 0 0 0 0 0 0
X 1 53
A 55 2 0 0 0 6 618 0 0 0 55 0 0 0 0 0 0 0 0 0
A 56 10 0 0 54 6 23 37 0 0 0 0 0 0 0 0 0 0 0 0
X 1 55
A 57 10 0 0 56 6 23 40 0 0 0 0 0 0 0 0 0 0 0 0
X 1 13
A 58 2 0 0 0 6 620 0 0 0 58 0 0 0 0 0 0 0 0 0
A 59 2 0 0 28 6 621 0 0 0 59 0 0 0 0 0 0 0 0 0
A 60 2 0 0 0 6 622 0 0 0 60 0 0 0 0 0 0 0 0 0
A 61 2 0 0 0 6 634 0 0 0 61 0 0 0 0 0 0 0 0 0
A 62 1 0 3 0 65 632 0 0 0 0 0 0 0 0 0 0 0 0 0
A 63 2 0 0 0 6 636 0 0 0 63 0 0 0 0 0 0 0 0 0
A 64 2 0 0 0 6 637 0 0 0 64 0 0 0 0 0 0 0 0 0
A 65 1 0 6 0 68 633 0 0 0 0 0 0 0 0 0 0 0 0 0
A 66 1 0 6 0 71 635 0 0 0 0 0 0 0 0 0 0 0 0 0
Z
Z
