V26 units_ph
9 phcom.F90 S582 0
04/24/2012  16:05:16
enduse
D 56 21 16 1 26 24 0 1 0 0 1
 16 20 22 16 20 18
D 59 21 6 1 0 13 0 0 0 0 0
 0 13 0 3 13 0
D 62 21 16 2 45 44 0 1 0 0 1
 31 34 41 31 34 32
 36 40 43 36 40 38
D 65 21 6 1 0 29 0 0 0 0 0
 0 29 0 3 29 0
S 582 24 0 0 0 9 1 0 4658 5 0 A 0 0 0 0 0 0 0 0 0 0 0 0 354 0 0 0 0 0 0 0 0 323 0 0 0 0 0 0 units_ph
S 583 6 4 0 0 6 584 582 4667 4 0 A 0 0 0 0 0 0 0 0 0 0 0 0 628 0 0 0 0 0 0 0 0 0 0 582 0 0 0 0 iuwfc
S 584 6 4 0 0 6 585 582 4673 4 0 A 0 0 0 0 0 4 0 0 0 0 0 0 628 0 0 0 0 0 0 0 0 0 0 582 0 0 0 0 lrwfc
S 585 6 4 0 0 6 586 582 4679 4 0 A 0 0 0 0 0 8 0 0 0 0 0 0 628 0 0 0 0 0 0 0 0 0 0 582 0 0 0 0 iuvkb
S 586 6 4 0 0 6 587 582 4685 4 0 A 0 0 0 0 0 12 0 0 0 0 0 0 628 0 0 0 0 0 0 0 0 0 0 582 0 0 0 0 iubar
S 587 6 4 0 0 6 588 582 4691 4 0 A 0 0 0 0 0 16 0 0 0 0 0 0 628 0 0 0 0 0 0 0 0 0 0 582 0 0 0 0 lrbar
S 588 6 4 0 0 6 589 582 4697 4 0 A 0 0 0 0 0 20 0 0 0 0 0 0 628 0 0 0 0 0 0 0 0 0 0 582 0 0 0 0 iuebar
S 589 6 4 0 0 6 590 582 4704 4 0 A 0 0 0 0 0 24 0 0 0 0 0 0 628 0 0 0 0 0 0 0 0 0 0 582 0 0 0 0 lrebar
S 590 6 4 0 0 6 591 582 4711 4 0 A 0 0 0 0 0 28 0 0 0 0 0 0 628 0 0 0 0 0 0 0 0 0 0 582 0 0 0 0 iudwf
S 591 6 4 0 0 6 592 582 4717 4 0 A 0 0 0 0 0 32 0 0 0 0 0 0 628 0 0 0 0 0 0 0 0 0 0 582 0 0 0 0 iupsir
S 592 6 4 0 0 6 593 582 4724 4 0 A 0 0 0 0 0 36 0 0 0 0 0 0 628 0 0 0 0 0 0 0 0 0 0 582 0 0 0 0 lrdwf
S 593 6 4 0 0 6 594 582 4730 4 0 A 0 0 0 0 0 40 0 0 0 0 0 0 628 0 0 0 0 0 0 0 0 0 0 582 0 0 0 0 iudrhous
S 594 6 4 0 0 6 595 582 4739 4 0 A 0 0 0 0 0 44 0 0 0 0 0 0 628 0 0 0 0 0 0 0 0 0 0 582 0 0 0 0 lrdrhous
S 595 6 4 0 0 6 596 582 4748 4 0 A 0 0 0 0 0 48 0 0 0 0 0 0 628 0 0 0 0 0 0 0 0 0 0 582 0 0 0 0 iudyn
S 596 6 4 0 0 6 597 582 4754 4 0 A 0 0 0 0 0 52 0 0 0 0 0 0 628 0 0 0 0 0 0 0 0 0 0 582 0 0 0 0 iupdyn
S 597 6 4 0 0 6 598 582 4761 4 0 A 0 0 0 0 0 56 0 0 0 0 0 0 628 0 0 0 0 0 0 0 0 0 0 582 0 0 0 0 iunrec
S 598 6 4 0 0 6 599 582 4768 4 0 A 0 0 0 0 0 60 0 0 0 0 0 0 628 0 0 0 0 0 0 0 0 0 0 582 0 0 0 0 iudvscf
S 599 6 4 0 0 6 600 582 4776 4 0 A 0 0 0 0 0 64 0 0 0 0 0 0 628 0 0 0 0 0 0 0 0 0 0 582 0 0 0 0 iudrho
S 600 6 4 0 0 6 601 582 4783 4 0 A 0 0 0 0 0 68 0 0 0 0 0 0 628 0 0 0 0 0 0 0 0 0 0 582 0 0 0 0 lrdrho
S 601 6 4 0 0 6 602 582 4790 4 0 A 0 0 0 0 0 72 0 0 0 0 0 0 628 0 0 0 0 0 0 0 0 0 0 582 0 0 0 0 iucom
S 602 6 4 0 0 6 603 582 4796 4 0 A 0 0 0 0 0 76 0 0 0 0 0 0 628 0 0 0 0 0 0 0 0 0 0 582 0 0 0 0 lrcom
S 603 6 4 0 0 6 604 582 4802 4 0 A 0 0 0 0 0 80 0 0 0 0 0 0 628 0 0 0 0 0 0 0 0 0 0 582 0 0 0 0 iudvkb3
S 604 6 4 0 0 6 606 582 4810 4 0 A 0 0 0 0 0 84 0 0 0 0 0 0 628 0 0 0 0 0 0 0 0 0 0 582 0 0 0 0 lrdvkb3
S 605 7 6 0 0 56 1 582 4818 10a00004 51 A 0 0 0 0 0 0 609 0 0 0 611 0 0 0 0 0 0 0 0 608 0 0 610 582 0 0 0 0 this_dvkb3_is_on_file
S 606 6 4 0 0 6 618 582 4840 40800006 0 A 0 0 0 0 0 88 0 0 0 0 0 0 628 0 0 0 0 0 0 0 0 0 0 582 0 0 0 0 z_b_0
S 607 3 0 0 0 6 0 1 0 0 0 A 0 0 0 0 0 0 0 0 0 18 0 0 0 0 0 0 0 0 0 0 0 0 0 0 0 0 0 0 6
S 608 8 4 0 0 59 622 582 4846 40822064 1020 A 0 0 0 0 0 0 0 0 0 0 0 0 628 0 0 0 0 0 0 0 0 0 0 582 0 0 0 0 this_dvkb3_is_on_file$sd
S 609 6 4 0 0 7 610 582 4871 40802061 1020 A 0 0 0 0 0 72 0 0 0 0 0 0 628 0 0 0 0 0 0 0 0 0 0 582 0 0 0 0 this_dvkb3_is_on_file$p
S 610 6 4 0 0 7 608 582 4895 40802060 1020 A 0 0 0 0 0 80 0 0 0 0 0 0 628 0 0 0 0 0 0 0 0 0 0 582 0 0 0 0 this_dvkb3_is_on_file$o
S 611 22 1 0 0 9 1 582 4919 40000000 1000 A 0 0 0 0 0 0 0 605 0 0 0 0 608 0 0 0 0 0 0 0 0 0 0 582 0 0 0 0 this_dvkb3_is_on_file$arrdsc
S 612 3 0 0 0 6 0 1 0 0 0 A 0 0 0 0 0 0 0 0 0 13 0 0 0 0 0 0 0 0 0 0 0 0 0 0 0 0 0 0 6
S 613 3 0 0 0 6 0 1 0 0 0 A 0 0 0 0 0 0 0 0 0 14 0 0 0 0 0 0 0 0 0 0 0 0 0 0 0 0 0 0 6
S 614 3 0 0 0 6 0 1 0 0 0 A 0 0 0 0 0 0 0 0 0 17 0 0 0 0 0 0 0 0 0 0 0 0 0 0 0 0 0 0 6
S 615 3 0 0 0 6 0 1 0 0 0 A 0 0 0 0 0 0 0 0 0 7 0 0 0 0 0 0 0 0 0 0 0 0 0 0 0 0 0 0 6
S 616 3 0 0 0 6 0 1 0 0 0 A 0 0 0 0 0 0 0 0 0 8 0 0 0 0 0 0 0 0 0 0 0 0 0 0 0 0 0 0 6
S 617 7 6 0 0 62 1 582 4948 10a00004 51 A 0 0 0 0 0 0 622 0 0 0 624 0 0 0 0 0 0 0 0 621 0 0 623 582 0 0 0 0 this_pcxpsi_is_on_file
S 618 6 4 0 0 6 619 582 4971 40800006 0 A 0 0 0 0 0 92 0 0 0 0 0 0 628 0 0 0 0 0 0 0 0 0 0 582 0 0 0 0 z_b_1
S 619 6 4 0 0 6 1 582 4977 40800006 0 A 0 0 0 0 0 96 0 0 0 0 0 0 628 0 0 0 0 0 0 0 0 0 0 582 0 0 0 0 z_b_2
S 620 3 0 0 0 6 0 1 0 0 0 A 0 0 0 0 0 0 0 0 0 24 0 0 0 0 0 0 0 0 0 0 0 0 0 0 0 0 0 0 6
S 621 8 4 0 0 65 583 582 4983 40822064 1020 A 0 0 0 0 0 88 0 0 0 0 0 0 628 0 0 0 0 0 0 0 0 0 0 582 0 0 0 0 this_pcxpsi_is_on_file$sd
S 622 6 4 0 0 7 623 582 5009 40802061 1020 A 0 0 0 0 0 184 0 0 0 0 0 0 628 0 0 0 0 0 0 0 0 0 0 582 0 0 0 0 this_pcxpsi_is_on_file$p
S 623 6 4 0 0 7 621 582 5034 40802060 1020 A 0 0 0 0 0 192 0 0 0 0 0 0 628 0 0 0 0 0 0 0 0 0 0 582 0 0 0 0 this_pcxpsi_is_on_file$o
S 624 22 1 0 0 9 1 582 5059 40000000 1000 A 0 0 0 0 0 0 0 617 0 0 0 0 621 0 0 0 0 0 0 0 0 0 0 582 0 0 0 0 this_pcxpsi_is_on_file$arrdsc
S 625 3 0 0 0 6 0 1 0 0 0 A 0 0 0 0 0 0 0 0 0 19 0 0 0 0 0 0 0 0 0 0 0 0 0 0 0 0 0 0 6
S 626 3 0 0 0 6 0 1 0 0 0 A 0 0 0 0 0 0 0 0 0 20 0 0 0 0 0 0 0 0 0 0 0 0 0 0 0 0 0 0 6
S 627 3 0 0 0 6 0 1 0 0 0 A 0 0 0 0 0 0 0 0 0 23 0 0 0 0 0 0 0 0 0 0 0 0 0 0 0 0 0 0 6
S 628 11 0 0 0 9 1 582 5089 40800000 801000 A 0 0 0 0 0 300 0 0 609 619 0 0 0 0 0 0 0 0 0 0 0 0 0 0 0 0 0 0 _units_ph$0
A 13 2 0 0 0 6 607 0 0 0 13 0 0 0 0 0 0 0 0 0
A 14 2 0 0 0 6 612 0 0 0 14 0 0 0 0 0 0 0 0 0
A 15 1 0 1 0 59 608 0 0 0 0 0 0 0 0 0 0 0 0 0
A 16 10 0 0 0 6 15 1 0 0 0 0 0 0 0 0 0 0 0 0
X 1 14
A 17 2 0 0 0 6 613 0 0 0 17 0 0 0 0 0 0 0 0 0
A 18 10 0 0 16 6 15 4 0 0 0 0 0 0 0 0 0 0 0 0
X 1 17
A 19 4 0 0 0 6 18 0 3 0 0 0 0 2 0 0 0 0 0 0
A 20 4 0 0 0 6 16 0 19 0 0 0 0 1 0 0 0 0 0 0
A 21 2 0 0 0 6 614 0 0 0 21 0 0 0 0 0 0 0 0 0
A 22 10 0 0 18 6 15 7 0 0 0 0 0 0 0 0 0 0 0 0
X 1 21
A 23 2 0 0 0 6 615 0 0 0 23 0 0 0 0 0 0 0 0 0
A 24 10 0 0 22 6 15 10 0 0 0 0 0 0 0 0 0 0 0 0
X 1 23
A 25 2 0 0 0 6 616 0 0 0 25 0 0 0 0 0 0 0 0 0
A 26 10 0 0 24 6 15 13 0 0 0 0 0 0 0 0 0 0 0 0
X 1 25
A 29 2 0 0 0 6 620 0 0 0 29 0 0 0 0 0 0 0 0 0
A 30 1 0 3 0 65 621 0 0 0 0 0 0 0 0 0 0 0 0 0
A 31 10 0 0 0 6 30 1 0 0 0 0 0 0 0 0 0 0 0 0
X 1 14
A 32 10 0 0 31 6 30 4 0 0 0 0 0 0 0 0 0 0 0 0
X 1 17
A 33 4 0 0 0 6 32 0 3 0 0 0 0 2 0 0 0 0 0 0
A 34 4 0 0 0 6 31 0 33 0 0 0 0 1 0 0 0 0 0 0
A 35 2 0 0 0 6 625 0 0 0 35 0 0 0 0 0 0 0 0 0
A 36 10 0 0 32 6 30 16 0 0 0 0 0 0 0 0 0 0 0 0
X 1 35
A 37 2 0 0 0 6 626 0 0 0 37 0 0 0 0 0 0 0 0 0
A 38 10 0 0 36 6 30 19 0 0 0 0 0 0 0 0 0 0 0 0
X 1 37
A 39 4 0 0 0 6 38 0 3 0 0 0 0 2 0 0 0 0 0 0
A 40 4 0 0 0 6 36 0 39 0 0 0 0 1 0 0 0 0 0 0
A 41 10 0 0 38 6 30 7 0 0 0 0 0 0 0 0 0 0 0 0
X 1 21
A 42 2 0 0 0 6 627 0 0 0 42 0 0 0 0 0 0 0 0 0
A 43 10 0 0 41 6 30 22 0 0 0 0 0 0 0 0 0 0 0 0
X 1 42
A 44 10 0 0 43 6 30 10 0 0 0 0 0 0 0 0 0 0 0 0
X 1 23
A 45 10 0 0 44 6 30 13 0 0 0 0 0 0 0 0 0 0 0 0
X 1 25
Z
Z
