V26 a2f
10 a2fmod.F90 S582 0
04/24/2012  15:54:13
use kinds private
use kinds private
enduse
S 582 24 0 0 0 9 1 0 4658 10015 0 A 0 0 0 0 0 0 0 0 0 0 0 0 0 0 0 0 0 0 0 0 0 10 0 0 0 0 0 0 a2f
S 584 23 0 0 0 9 587 582 4668 14 0 A 0 0 0 0 0 0 0 0 0 0 0 0 0 0 0 0 0 0 0 0 0 0 0 582 0 0 0 0 dp
R 587 16 1 kinds dp
S 594 6 4 0 0 16 1 582 4702 4 0 A 0 0 0 0 0 0 0 0 0 0 0 0 596 0 0 0 0 0 0 0 0 0 0 582 0 0 0 0 la2f
S 595 6 4 0 0 9 1 582 4707 0 1000 A 0 0 0 0 0 0 0 0 0 0 0 0 597 0 0 0 0 0 0 0 0 0 0 582 0 0 0 0 a2fsave
S 596 11 0 0 0 9 1 582 4715 40800000 801000 A 0 0 0 0 0 4 0 0 594 594 0 0 0 0 0 0 0 0 0 0 0 0 0 0 0 0 0 0 _a2f$0
S 597 11 0 0 0 9 596 582 4722 40800000 801000 A 0 0 0 0 0 8 0 0 595 595 0 0 0 0 0 0 0 0 0 0 0 0 0 0 0 0 0 0 _a2f$2
S 598 23 5 0 0 0 599 582 4707 0 0 A 0 0 0 0 0 0 0 0 0 0 0 0 0 0 0 0 0 0 0 0 0 0 0 0 0 0 0 0 a2fsave
S 599 14 5 0 0 0 1 598 4707 0 400000 A 0 0 0 0 0 0 0 4 0 0 0 0 0 0 0 0 0 0 0 0 0 23 0 582 0 0 0 0 a2fsave
F 599 0
Z
Z
