V26 basis
9 pwcom.F90 S582 0
04/24/2012  15:53:20
enduse
D 56 18 12
S 582 24 0 0 0 9 1 0 4658 5 0 A 0 0 0 0 0 0 0 0 0 0 0 0 26 0 0 0 0 0 0 0 0 12 0 0 0 0 0 0 basis
S 583 6 4 0 0 6 1 582 4664 4 0 A 0 0 0 0 0 0 0 0 0 0 0 0 589 0 0 0 0 0 0 0 0 0 0 582 0 0 0 0 natomwfc
S 584 3 0 0 0 6 0 1 0 0 0 A 0 0 0 0 0 0 0 0 0 30 0 0 0 0 0 0 0 0 0 0 0 0 0 0 0 0 0 0 6
S 585 6 4 0 0 56 586 582 4673 4 0 A 0 0 0 0 0 0 0 0 0 0 0 0 590 0 0 0 0 0 0 0 0 0 0 582 0 0 0 0 atomic_positions
S 586 6 4 0 0 56 587 582 4690 4 0 A 0 0 0 0 0 30 0 0 0 0 0 0 590 0 0 0 0 0 0 0 0 0 0 582 0 0 0 0 startingwfc
S 587 6 4 0 0 56 588 582 4702 4 0 A 0 0 0 0 0 60 0 0 0 0 0 0 590 0 0 0 0 0 0 0 0 0 0 582 0 0 0 0 startingpot
S 588 6 4 0 0 56 1 582 4714 4 0 A 0 0 0 0 0 90 0 0 0 0 0 0 590 0 0 0 0 0 0 0 0 0 0 582 0 0 0 0 startingconfig
S 589 11 0 0 0 9 1 582 4729 40800000 801000 A 0 0 0 0 0 4 0 0 583 583 0 0 0 0 0 0 0 0 0 0 0 0 0 0 0 0 0 0 _basis$0
S 590 11 0 0 0 9 589 582 4738 40800000 801000 A 0 0 0 0 0 120 0 0 585 588 0 0 0 0 0 0 0 0 0 0 0 0 0 0 0 0 0 0 _basis$1
A 12 2 0 0 0 6 584 0 0 0 12 0 0 0 0 0 0 0 0 0
Z
Z
