V26 becmod
10 becmod.F90 S582 0
04/24/2012  15:54:13
use noncollin_module private
use gvect private
use control_flags private
use kinds private
use noncollin_module private
use gvect private
use control_flags private
use kinds private
enduse
D 310 21 9 2 394 393 0 1 0 0 1
 383 386 391 383 386 384
 387 390 392 387 390 388
D 313 21 6 1 0 55 0 0 0 0 0
 0 55 0 3 55 0
D 316 21 12 2 409 408 0 1 0 0 1
 398 401 406 398 401 399
 402 405 407 402 405 403
D 319 21 6 1 0 55 0 0 0 0 0
 0 55 0 3 55 0
D 322 21 12 3 433 432 0 1 0 0 1
 414 417 428 414 417 415
 418 421 429 418 421 419
 423 427 431 423 427 425
D 325 21 6 1 0 350 0 0 0 0 0
 0 350 0 3 350 0
D 328 21 12 2 434 440 1 1 0 0 1
 3 435 3 3 435 436
 3 437 438 3 437 439
D 331 21 12 2 441 447 1 1 0 0 1
 3 442 3 3 442 443
 3 444 445 3 444 446
D 334 21 9 2 448 454 1 1 0 0 1
 3 449 3 3 449 450
 3 451 452 3 451 453
D 337 21 12 2 455 461 1 1 0 0 1
 3 456 3 3 456 457
 3 458 459 3 458 460
D 340 21 12 2 462 468 1 1 0 0 1
 3 463 3 3 463 464
 3 465 466 3 465 467
D 343 21 12 2 469 475 1 1 0 0 1
 3 470 3 3 470 471
 3 472 473 3 472 474
D 346 21 12 2 476 482 1 1 0 0 1
 3 477 3 3 477 478
 3 479 480 3 479 481
D 349 21 12 2 483 489 1 1 0 0 1
 3 484 3 3 484 485
 3 486 487 3 486 488
D 352 21 12 3 490 499 1 1 0 0 1
 3 491 3 3 491 492
 3 493 494 3 493 495
 3 496 497 3 496 498
S 582 24 0 0 0 9 1 0 4658 10015 0 A 0 0 0 0 0 0 0 0 0 0 0 0 0 0 0 0 0 0 0 0 0 12 0 0 0 0 0 0 becmod
S 584 23 0 0 0 9 594 582 4671 14 0 A 0 0 0 0 0 0 0 0 0 0 0 0 0 0 0 0 0 0 0 0 0 0 0 582 0 0 0 0 dp
S 586 23 0 0 0 9 660 582 4688 14 0 A 0 0 0 0 0 0 0 0 0 0 0 0 0 0 0 0 0 0 0 0 0 0 0 582 0 0 0 0 gamma_only
S 588 23 0 0 0 9 957 582 4705 14 0 A 0 0 0 0 0 0 0 0 0 0 0 0 0 0 0 0 0 0 0 0 0 0 0 582 0 0 0 0 gstart
S 590 23 0 0 0 6 1077 582 4729 14 0 A 0 0 0 0 0 0 0 0 0 0 0 0 0 0 0 0 0 0 0 0 0 0 0 582 0 0 0 0 noncolin
S 591 23 0 0 0 6 1068 582 4738 14 0 A 0 0 0 0 0 0 0 0 0 0 0 0 0 0 0 0 0 0 0 0 0 0 0 582 0 0 0 0 npol
S 592 3 0 0 0 6 1 1 0 0 0 A 0 0 0 0 0 0 0 0 0 8 0 0 0 0 0 0 0 0 0 0 0 0 0 0 0 0 0 0 6
R 594 16 1 kinds dp
R 660 6 59 control_flags gamma_only
S 750 3 0 0 0 6 1 1 0 0 0 A 0 0 0 0 0 0 0 0 0 13 0 0 0 0 0 0 0 0 0 0 0 0 0 0 0 0 0 0 6
S 751 3 0 0 0 6 1 1 0 0 0 A 0 0 0 0 0 0 0 0 0 14 0 0 0 0 0 0 0 0 0 0 0 0 0 0 0 0 0 0 6
S 752 3 0 0 0 6 1 1 0 0 0 A 0 0 0 0 0 0 0 0 0 17 0 0 0 0 0 0 0 0 0 0 0 0 0 0 0 0 0 0 6
S 753 3 0 0 0 6 1 1 0 0 0 A 0 0 0 0 0 0 0 0 0 7 0 0 0 0 0 0 0 0 0 0 0 0 0 0 0 0 0 0 6
S 807 3 0 0 0 6 1 1 0 0 0 A 0 0 0 0 0 0 0 0 0 24 0 0 0 0 0 0 0 0 0 0 0 0 0 0 0 0 0 0 6
S 808 3 0 0 0 6 1 1 0 0 0 A 0 0 0 0 0 0 0 0 0 19 0 0 0 0 0 0 0 0 0 0 0 0 0 0 0 0 0 0 6
S 809 3 0 0 0 6 1 1 0 0 0 A 0 0 0 0 0 0 0 0 0 20 0 0 0 0 0 0 0 0 0 0 0 0 0 0 0 0 0 0 6
S 810 3 0 0 0 6 1 1 0 0 0 A 0 0 0 0 0 0 0 0 0 23 0 0 0 0 0 0 0 0 0 0 0 0 0 0 0 0 0 0 6
R 957 6 7 gvect gstart
S 1065 3 0 0 0 6 1 1 0 0 0 A 0 0 0 0 0 0 0 0 0 30 0 0 0 0 0 0 0 0 0 0 0 0 0 0 0 0 0 0 6
R 1068 6 3 noncollin_module npol
R 1077 6 12 noncollin_module noncolin
S 1112 7 6 0 0 310 1 582 8536 10a00004 51 A 0 0 0 0 0 0 1116 0 0 0 1118 0 0 0 0 0 0 0 0 1115 0 0 1117 582 0 0 0 0 rbecp
S 1113 6 4 0 0 6 1114 582 8542 40800016 0 A 0 0 0 0 0 0 0 0 0 0 0 0 1143 0 0 0 0 0 0 0 0 0 0 582 0 0 0 0 z_b_0_3
S 1114 6 4 0 0 6 1120 582 8550 40800016 0 A 0 0 0 0 0 4 0 0 0 0 0 0 1143 0 0 0 0 0 0 0 0 0 0 582 0 0 0 0 z_b_1_3
S 1115 8 4 0 0 313 1123 582 8558 40822064 1020 A 0 0 0 0 0 0 0 0 0 0 0 0 1145 0 0 0 0 0 0 0 0 0 0 582 0 0 0 0 rbecp$sd
S 1116 6 4 0 0 7 1117 582 8567 40802061 1020 A 0 0 0 0 0 96 0 0 0 0 0 0 1145 0 0 0 0 0 0 0 0 0 0 582 0 0 0 0 rbecp$p
S 1117 6 4 0 0 7 1115 582 8575 40802060 1020 A 0 0 0 0 0 104 0 0 0 0 0 0 1145 0 0 0 0 0 0 0 0 0 0 582 0 0 0 0 rbecp$o
S 1118 22 1 0 0 9 1 582 8583 40000000 1000 A 0 0 0 0 0 0 0 1112 0 0 0 0 1115 0 0 0 0 0 0 0 0 0 0 582 0 0 0 0 rbecp$arrdsc
S 1119 7 6 0 0 316 1 582 8596 10a00004 51 A 0 0 0 0 0 0 1123 0 0 0 1125 0 0 0 0 0 0 0 0 1122 0 0 1124 582 0 0 0 0 becp
S 1120 6 4 0 0 6 1121 582 8601 40800016 0 A 0 0 0 0 0 8 0 0 0 0 0 0 1143 0 0 0 0 0 0 0 0 0 0 582 0 0 0 0 z_b_2_3
S 1121 6 4 0 0 6 1127 582 8609 40800016 0 A 0 0 0 0 0 12 0 0 0 0 0 0 1143 0 0 0 0 0 0 0 0 0 0 582 0 0 0 0 z_b_3_3
S 1122 8 4 0 0 319 1131 582 8617 40822064 1020 A 0 0 0 0 0 112 0 0 0 0 0 0 1145 0 0 0 0 0 0 0 0 0 0 582 0 0 0 0 becp$sd
S 1123 6 4 0 0 7 1124 582 8625 40802061 1020 A 0 0 0 0 0 208 0 0 0 0 0 0 1145 0 0 0 0 0 0 0 0 0 0 582 0 0 0 0 becp$p
S 1124 6 4 0 0 7 1122 582 8632 40802060 1020 A 0 0 0 0 0 216 0 0 0 0 0 0 1145 0 0 0 0 0 0 0 0 0 0 582 0 0 0 0 becp$o
S 1125 22 1 0 0 9 1 582 8639 40000000 1000 A 0 0 0 0 0 0 0 1119 0 0 0 0 1122 0 0 0 0 0 0 0 0 0 0 582 0 0 0 0 becp$arrdsc
S 1126 7 6 0 0 322 1 582 8651 10a00004 51 A 0 0 0 0 0 0 1131 0 0 0 1133 0 0 0 0 0 0 0 0 1130 0 0 1132 582 0 0 0 0 becp_nc
S 1127 6 4 0 0 6 1128 582 8659 40800016 0 A 0 0 0 0 0 16 0 0 0 0 0 0 1143 0 0 0 0 0 0 0 0 0 0 582 0 0 0 0 z_b_4_3
S 1128 6 4 0 0 6 1129 582 8667 40800016 0 A 0 0 0 0 0 20 0 0 0 0 0 0 1143 0 0 0 0 0 0 0 0 0 0 582 0 0 0 0 z_b_5_3
S 1129 6 4 0 0 6 1 582 8675 40800016 0 A 0 0 0 0 0 24 0 0 0 0 0 0 1143 0 0 0 0 0 0 0 0 0 0 582 0 0 0 0 z_b_6_3
S 1130 8 4 0 0 325 1 582 8683 40822064 1020 A 0 0 0 0 0 224 0 0 0 0 0 0 1145 0 0 0 0 0 0 0 0 0 0 582 0 0 0 0 becp_nc$sd
S 1131 6 4 0 0 7 1132 582 8694 40802061 1020 A 0 0 0 0 0 344 0 0 0 0 0 0 1145 0 0 0 0 0 0 0 0 0 0 582 0 0 0 0 becp_nc$p
S 1132 6 4 0 0 7 1130 582 8704 40802060 1020 A 0 0 0 0 0 352 0 0 0 0 0 0 1145 0 0 0 0 0 0 0 0 0 0 582 0 0 0 0 becp_nc$o
S 1133 22 1 0 0 9 1 582 8714 40000000 1000 A 0 0 0 0 0 0 0 1126 0 0 0 0 1130 0 0 0 0 0 0 0 0 0 0 582 0 0 0 0 becp_nc$arrdsc
S 1134 3 0 0 0 6 0 1 0 0 0 A 0 0 0 0 0 0 0 0 0 25 0 0 0 0 0 0 0 0 0 0 0 0 0 0 0 0 0 0 6
S 1135 3 0 0 0 6 0 1 0 0 0 A 0 0 0 0 0 0 0 0 0 26 0 0 0 0 0 0 0 0 0 0 0 0 0 0 0 0 0 0 6
S 1136 3 0 0 0 6 0 1 0 0 0 A 0 0 0 0 0 0 0 0 0 29 0 0 0 0 0 0 0 0 0 0 0 0 0 0 0 0 0 0 6
S 1137 19 0 0 0 9 1 582 8729 4000 0 A 0 0 0 0 0 0 0 0 0 0 0 0 0 0 0 0 11 3 0 0 0 0 0 582 0 0 0 0 calbec
O 1137 3 1140 1139 1138
S 1138 27 0 0 0 9 1174 582 8736 10010 400000 A 0 0 0 0 0 0 13 0 0 0 0 0 0 0 0 0 0 0 0 0 0 0 0 582 0 0 0 0 calbec_k
Q 1138 1137 0
S 1139 27 0 0 0 9 1146 582 8745 10010 400000 A 0 0 0 0 0 0 12 0 0 0 0 0 0 0 0 0 0 0 0 0 0 0 0 582 0 0 0 0 calbec_gamma
Q 1139 1137 0
S 1140 27 0 0 0 9 1202 582 8758 10010 400000 A 0 0 0 0 0 0 14 0 0 0 0 0 0 0 0 0 0 0 0 0 0 0 0 582 0 0 0 0 calbec_nc
Q 1140 1137 0
S 1141 6 4 0 0 9 1142 582 8768 0 1000 A 0 0 0 0 0 0 0 0 0 0 0 0 1144 0 0 0 0 0 0 0 0 0 0 582 0 0 0 0 allocate_bec
S 1142 6 4 0 0 9 1 582 8781 0 1000 A 0 0 0 0 0 8 0 0 0 0 0 0 1144 0 0 0 0 0 0 0 0 0 0 582 0 0 0 0 deallocate_bec
S 1143 11 0 0 0 9 1109 582 8796 40800010 801000 A 0 0 0 0 0 28 0 0 1113 1129 0 0 0 0 0 0 0 0 0 0 0 0 0 0 0 0 0 0 _becmod$4
S 1144 11 0 0 0 9 1143 582 8806 40800000 801000 A 0 0 0 0 0 16 0 0 1141 1142 0 0 0 0 0 0 0 0 0 0 0 0 0 0 0 0 0 0 _becmod$2
S 1145 11 0 0 0 9 1144 582 8816 40800000 801000 A 0 0 0 0 0 360 0 0 1116 1130 0 0 0 0 0 0 0 0 0 0 0 0 0 0 0 0 0 0 _becmod$0
S 1146 23 5 0 0 0 1152 582 8745 10 0 A 0 0 0 0 0 0 0 0 0 0 0 0 0 0 0 0 0 0 0 0 0 0 0 0 0 0 0 0 calbec_gamma
S 1147 1 3 1 0 6 1 1146 8826 14 3000 A 0 0 0 0 0 0 0 0 0 0 0 0 0 0 0 0 0 0 0 0 0 0 0 0 0 0 0 0 npw
S 1148 7 3 1 0 328 1 1146 8830 20000014 10003000 A 0 0 0 0 0 0 0 0 0 0 0 0 0 0 0 0 0 0 0 0 0 0 0 0 0 0 0 0 beta
S 1149 7 3 1 0 331 1 1146 8835 20000014 10003000 A 0 0 0 0 0 0 0 0 0 0 0 0 0 0 0 0 0 0 0 0 0 0 0 0 0 0 0 0 psi
S 1150 7 3 2 0 334 1 1146 8839 20000014 10003000 A 0 0 0 0 0 0 0 0 0 0 0 0 0 0 0 0 0 0 0 0 0 0 0 0 0 0 0 0 betapsi
S 1151 1 3 0 0 6 1 1146 8847 80000014 3000 A 0 0 0 0 0 0 0 0 0 0 0 0 0 0 0 0 0 0 0 0 0 0 0 0 0 0 0 0 nbnd
S 1152 14 5 0 0 0 1 1146 8745 20000010 400000 A 0 0 0 0 0 0 0 14 5 0 0 0 0 0 0 0 0 0 0 0 0 43 0 582 0 0 0 0 calbec_gamma
F 1152 5 1147 1148 1149 1150 1151
S 1153 6 1 0 0 6 1 1146 8852 40800016 3000 A 0 0 0 0 0 0 0 0 0 0 0 0 0 0 0 0 0 0 0 0 0 0 0 0 0 0 0 0 z_b_0_4
S 1154 6 1 0 0 6 1 1146 8860 40800016 3000 A 0 0 0 0 0 0 0 0 0 0 0 0 0 0 0 0 0 0 0 0 0 0 0 0 0 0 0 0 z_b_2_4
S 1155 6 1 0 0 6 1 1146 8868 40800016 3000 A 0 0 0 0 0 0 0 0 0 0 0 0 0 0 0 0 0 0 0 0 0 0 0 0 0 0 0 0 z_b_3_4
S 1156 6 1 0 0 6 1 1146 8876 40800016 3000 A 0 0 0 0 0 0 0 0 0 0 0 0 0 0 0 0 0 0 0 0 0 0 0 0 0 0 0 0 z_b_5_4
S 1157 6 1 0 0 6 1 1146 8884 40800016 3000 A 0 0 0 0 0 0 0 0 0 0 0 0 0 0 0 0 0 0 0 0 0 0 0 0 0 0 0 0 z_b_6_4
S 1158 6 1 0 0 6 1 1146 8892 40800016 3000 A 0 0 0 0 0 0 0 0 0 0 0 0 0 0 0 0 0 0 0 0 0 0 0 0 0 0 0 0 z_e_1277
S 1159 6 1 0 0 6 1 1146 8901 40800016 3000 A 0 0 0 0 0 0 0 0 0 0 0 0 0 0 0 0 0 0 0 0 0 0 0 0 0 0 0 0 z_e_1280
S 1160 6 1 0 0 6 1 1146 8910 40800016 3000 A 0 0 0 0 0 0 0 0 0 0 0 0 0 0 0 0 0 0 0 0 0 0 0 0 0 0 0 0 z_b_7_3
S 1161 6 1 0 0 6 1 1146 8918 40800016 3000 A 0 0 0 0 0 0 0 0 0 0 0 0 0 0 0 0 0 0 0 0 0 0 0 0 0 0 0 0 z_b_9_2
S 1162 6 1 0 0 6 1 1146 8926 40800016 3000 A 0 0 0 0 0 0 0 0 0 0 0 0 0 0 0 0 0 0 0 0 0 0 0 0 0 0 0 0 z_b_10_2
S 1163 6 1 0 0 6 1 1146 8935 40800016 3000 A 0 0 0 0 0 0 0 0 0 0 0 0 0 0 0 0 0 0 0 0 0 0 0 0 0 0 0 0 z_b_12_1
S 1164 6 1 0 0 6 1 1146 8944 40800016 3000 A 0 0 0 0 0 0 0 0 0 0 0 0 0 0 0 0 0 0 0 0 0 0 0 0 0 0 0 0 z_b_13_1
S 1165 6 1 0 0 6 1 1146 8953 40800016 3000 A 0 0 0 0 0 0 0 0 0 0 0 0 0 0 0 0 0 0 0 0 0 0 0 0 0 0 0 0 z_e_1290
S 1166 6 1 0 0 6 1 1146 8962 40800016 3000 A 0 0 0 0 0 0 0 0 0 0 0 0 0 0 0 0 0 0 0 0 0 0 0 0 0 0 0 0 z_e_1293
S 1167 6 1 0 0 6 1 1146 8971 40800016 3000 A 0 0 0 0 0 0 0 0 0 0 0 0 0 0 0 0 0 0 0 0 0 0 0 0 0 0 0 0 z_b_14_1
S 1168 6 1 0 0 6 1 1146 8980 40800016 3000 A 0 0 0 0 0 0 0 0 0 0 0 0 0 0 0 0 0 0 0 0 0 0 0 0 0 0 0 0 z_b_16
S 1169 6 1 0 0 6 1 1146 8987 40800016 3000 A 0 0 0 0 0 0 0 0 0 0 0 0 0 0 0 0 0 0 0 0 0 0 0 0 0 0 0 0 z_b_17
S 1170 6 1 0 0 6 1 1146 8994 40800016 3000 A 0 0 0 0 0 0 0 0 0 0 0 0 0 0 0 0 0 0 0 0 0 0 0 0 0 0 0 0 z_b_19
S 1171 6 1 0 0 6 1 1146 9001 40800016 3000 A 0 0 0 0 0 0 0 0 0 0 0 0 0 0 0 0 0 0 0 0 0 0 0 0 0 0 0 0 z_b_20
S 1172 6 1 0 0 6 1 1146 9008 40800016 3000 A 0 0 0 0 0 0 0 0 0 0 0 0 0 0 0 0 0 0 0 0 0 0 0 0 0 0 0 0 z_e_1303
S 1173 6 1 0 0 6 1 1146 9017 40800016 3000 A 0 0 0 0 0 0 0 0 0 0 0 0 0 0 0 0 0 0 0 0 0 0 0 0 0 0 0 0 z_e_1306
S 1174 23 5 0 0 0 1180 582 8736 10 0 A 0 0 0 0 0 0 0 0 0 0 0 0 0 0 0 0 0 0 0 0 0 0 0 0 0 0 0 0 calbec_k
S 1175 1 3 1 0 6 1 1174 8826 14 3000 A 0 0 0 0 0 0 0 0 0 0 0 0 0 0 0 0 0 0 0 0 0 0 0 0 0 0 0 0 npw
S 1176 7 3 1 0 337 1 1174 8830 20000014 10003000 A 0 0 0 0 0 0 0 0 0 0 0 0 0 0 0 0 0 0 0 0 0 0 0 0 0 0 0 0 beta
S 1177 7 3 1 0 340 1 1174 8835 20000014 10003000 A 0 0 0 0 0 0 0 0 0 0 0 0 0 0 0 0 0 0 0 0 0 0 0 0 0 0 0 0 psi
S 1178 7 3 2 0 343 1 1174 8839 20000014 10003000 A 0 0 0 0 0 0 0 0 0 0 0 0 0 0 0 0 0 0 0 0 0 0 0 0 0 0 0 0 betapsi
S 1179 1 3 0 0 6 1 1174 8847 80000014 3000 A 0 0 0 0 0 0 0 0 0 0 0 0 0 0 0 0 0 0 0 0 0 0 0 0 0 0 0 0 nbnd
S 1180 14 5 0 0 0 1 1174 8736 20000010 400000 A 0 0 0 0 0 0 0 20 5 0 0 0 0 0 0 0 0 0 0 0 0 100 0 582 0 0 0 0 calbec_k
F 1180 5 1175 1176 1177 1178 1179
S 1181 6 1 0 0 6 1 1174 8852 40800016 3000 A 0 0 0 0 0 0 0 0 0 0 0 0 0 0 0 0 0 0 0 0 0 0 0 0 0 0 0 0 z_b_0_4
S 1182 6 1 0 0 6 1 1174 8860 40800016 3000 A 0 0 0 0 0 0 0 0 0 0 0 0 0 0 0 0 0 0 0 0 0 0 0 0 0 0 0 0 z_b_2_4
S 1183 6 1 0 0 6 1 1174 8868 40800016 3000 A 0 0 0 0 0 0 0 0 0 0 0 0 0 0 0 0 0 0 0 0 0 0 0 0 0 0 0 0 z_b_3_4
S 1184 6 1 0 0 6 1 1174 8876 40800016 3000 A 0 0 0 0 0 0 0 0 0 0 0 0 0 0 0 0 0 0 0 0 0 0 0 0 0 0 0 0 z_b_5_4
S 1185 6 1 0 0 6 1 1174 8884 40800016 3000 A 0 0 0 0 0 0 0 0 0 0 0 0 0 0 0 0 0 0 0 0 0 0 0 0 0 0 0 0 z_b_6_4
S 1186 6 1 0 0 6 1 1174 9026 40800016 3000 A 0 0 0 0 0 0 0 0 0 0 0 0 0 0 0 0 0 0 0 0 0 0 0 0 0 0 0 0 z_e_1298
S 1187 6 1 0 0 6 1 1174 9035 40800016 3000 A 0 0 0 0 0 0 0 0 0 0 0 0 0 0 0 0 0 0 0 0 0 0 0 0 0 0 0 0 z_e_1301
S 1188 6 1 0 0 6 1 1174 8910 40800016 3000 A 0 0 0 0 0 0 0 0 0 0 0 0 0 0 0 0 0 0 0 0 0 0 0 0 0 0 0 0 z_b_7_3
S 1189 6 1 0 0 6 1 1174 8918 40800016 3000 A 0 0 0 0 0 0 0 0 0 0 0 0 0 0 0 0 0 0 0 0 0 0 0 0 0 0 0 0 z_b_9_2
S 1190 6 1 0 0 6 1 1174 8926 40800016 3000 A 0 0 0 0 0 0 0 0 0 0 0 0 0 0 0 0 0 0 0 0 0 0 0 0 0 0 0 0 z_b_10_2
S 1191 6 1 0 0 6 1 1174 8935 40800016 3000 A 0 0 0 0 0 0 0 0 0 0 0 0 0 0 0 0 0 0 0 0 0 0 0 0 0 0 0 0 z_b_12_1
S 1192 6 1 0 0 6 1 1174 8944 40800016 3000 A 0 0 0 0 0 0 0 0 0 0 0 0 0 0 0 0 0 0 0 0 0 0 0 0 0 0 0 0 z_b_13_1
S 1193 6 1 0 0 6 1 1174 9044 40800016 3000 A 0 0 0 0 0 0 0 0 0 0 0 0 0 0 0 0 0 0 0 0 0 0 0 0 0 0 0 0 z_e_1311
S 1194 6 1 0 0 6 1 1174 9053 40800016 3000 A 0 0 0 0 0 0 0 0 0 0 0 0 0 0 0 0 0 0 0 0 0 0 0 0 0 0 0 0 z_e_1314
S 1195 6 1 0 0 6 1 1174 8971 40800016 3000 A 0 0 0 0 0 0 0 0 0 0 0 0 0 0 0 0 0 0 0 0 0 0 0 0 0 0 0 0 z_b_14_1
S 1196 6 1 0 0 6 1 1174 8980 40800016 3000 A 0 0 0 0 0 0 0 0 0 0 0 0 0 0 0 0 0 0 0 0 0 0 0 0 0 0 0 0 z_b_16
S 1197 6 1 0 0 6 1 1174 8987 40800016 3000 A 0 0 0 0 0 0 0 0 0 0 0 0 0 0 0 0 0 0 0 0 0 0 0 0 0 0 0 0 z_b_17
S 1198 6 1 0 0 6 1 1174 8994 40800016 3000 A 0 0 0 0 0 0 0 0 0 0 0 0 0 0 0 0 0 0 0 0 0 0 0 0 0 0 0 0 z_b_19
S 1199 6 1 0 0 6 1 1174 9001 40800016 3000 A 0 0 0 0 0 0 0 0 0 0 0 0 0 0 0 0 0 0 0 0 0 0 0 0 0 0 0 0 z_b_20
S 1200 6 1 0 0 6 1 1174 9062 40800016 3000 A 0 0 0 0 0 0 0 0 0 0 0 0 0 0 0 0 0 0 0 0 0 0 0 0 0 0 0 0 z_e_1324
S 1201 6 1 0 0 6 1 1174 9071 40800016 3000 A 0 0 0 0 0 0 0 0 0 0 0 0 0 0 0 0 0 0 0 0 0 0 0 0 0 0 0 0 z_e_1327
S 1202 23 5 0 0 0 1208 582 8758 10 0 A 0 0 0 0 0 0 0 0 0 0 0 0 0 0 0 0 0 0 0 0 0 0 0 0 0 0 0 0 calbec_nc
S 1203 1 3 1 0 6 1 1202 8826 14 3000 A 0 0 0 0 0 0 0 0 0 0 0 0 0 0 0 0 0 0 0 0 0 0 0 0 0 0 0 0 npw
S 1204 7 3 1 0 346 1 1202 8830 20000014 10003000 A 0 0 0 0 0 0 0 0 0 0 0 0 0 0 0 0 0 0 0 0 0 0 0 0 0 0 0 0 beta
S 1205 7 3 1 0 349 1 1202 8835 20000014 10003000 A 0 0 0 0 0 0 0 0 0 0 0 0 0 0 0 0 0 0 0 0 0 0 0 0 0 0 0 0 psi
S 1206 7 3 2 0 352 1 1202 8839 20000014 10003000 A 0 0 0 0 0 0 0 0 0 0 0 0 0 0 0 0 0 0 0 0 0 0 0 0 0 0 0 0 betapsi
S 1207 1 3 0 0 6 1 1202 8847 80000014 3000 A 0 0 0 0 0 0 0 0 0 0 0 0 0 0 0 0 0 0 0 0 0 0 0 0 0 0 0 0 nbnd
S 1208 14 5 0 0 0 1 1202 8758 20000010 400000 A 0 0 0 0 0 0 0 26 5 0 0 0 0 0 0 0 0 0 0 0 0 155 0 582 0 0 0 0 calbec_nc
F 1208 5 1203 1204 1205 1206 1207
S 1209 6 1 0 0 6 1 1202 8852 40800016 3000 A 0 0 0 0 0 0 0 0 0 0 0 0 0 0 0 0 0 0 0 0 0 0 0 0 0 0 0 0 z_b_0_4
S 1210 6 1 0 0 6 1 1202 8860 40800016 3000 A 0 0 0 0 0 0 0 0 0 0 0 0 0 0 0 0 0 0 0 0 0 0 0 0 0 0 0 0 z_b_2_4
S 1211 6 1 0 0 6 1 1202 8868 40800016 3000 A 0 0 0 0 0 0 0 0 0 0 0 0 0 0 0 0 0 0 0 0 0 0 0 0 0 0 0 0 z_b_3_4
S 1212 6 1 0 0 6 1 1202 8876 40800016 3000 A 0 0 0 0 0 0 0 0 0 0 0 0 0 0 0 0 0 0 0 0 0 0 0 0 0 0 0 0 z_b_5_4
S 1213 6 1 0 0 6 1 1202 8884 40800016 3000 A 0 0 0 0 0 0 0 0 0 0 0 0 0 0 0 0 0 0 0 0 0 0 0 0 0 0 0 0 z_b_6_4
S 1214 6 1 0 0 6 1 1202 9080 40800016 3000 A 0 0 0 0 0 0 0 0 0 0 0 0 0 0 0 0 0 0 0 0 0 0 0 0 0 0 0 0 z_e_1319
S 1215 6 1 0 0 6 1 1202 9089 40800016 3000 A 0 0 0 0 0 0 0 0 0 0 0 0 0 0 0 0 0 0 0 0 0 0 0 0 0 0 0 0 z_e_1322
S 1216 6 1 0 0 6 1 1202 8910 40800016 3000 A 0 0 0 0 0 0 0 0 0 0 0 0 0 0 0 0 0 0 0 0 0 0 0 0 0 0 0 0 z_b_7_3
S 1217 6 1 0 0 6 1 1202 8918 40800016 3000 A 0 0 0 0 0 0 0 0 0 0 0 0 0 0 0 0 0 0 0 0 0 0 0 0 0 0 0 0 z_b_9_2
S 1218 6 1 0 0 6 1 1202 8926 40800016 3000 A 0 0 0 0 0 0 0 0 0 0 0 0 0 0 0 0 0 0 0 0 0 0 0 0 0 0 0 0 z_b_10_2
S 1219 6 1 0 0 6 1 1202 8935 40800016 3000 A 0 0 0 0 0 0 0 0 0 0 0 0 0 0 0 0 0 0 0 0 0 0 0 0 0 0 0 0 z_b_12_1
S 1220 6 1 0 0 6 1 1202 8944 40800016 3000 A 0 0 0 0 0 0 0 0 0 0 0 0 0 0 0 0 0 0 0 0 0 0 0 0 0 0 0 0 z_b_13_1
S 1221 6 1 0 0 6 1 1202 9098 40800016 3000 A 0 0 0 0 0 0 0 0 0 0 0 0 0 0 0 0 0 0 0 0 0 0 0 0 0 0 0 0 z_e_1332
S 1222 6 1 0 0 6 1 1202 9107 40800016 3000 A 0 0 0 0 0 0 0 0 0 0 0 0 0 0 0 0 0 0 0 0 0 0 0 0 0 0 0 0 z_e_1335
S 1223 6 1 0 0 6 1 1202 8971 40800016 3000 A 0 0 0 0 0 0 0 0 0 0 0 0 0 0 0 0 0 0 0 0 0 0 0 0 0 0 0 0 z_b_14_1
S 1224 6 1 0 0 6 1 1202 8980 40800016 3000 A 0 0 0 0 0 0 0 0 0 0 0 0 0 0 0 0 0 0 0 0 0 0 0 0 0 0 0 0 z_b_16
S 1225 6 1 0 0 6 1 1202 8987 40800016 3000 A 0 0 0 0 0 0 0 0 0 0 0 0 0 0 0 0 0 0 0 0 0 0 0 0 0 0 0 0 z_b_17
S 1226 6 1 0 0 6 1 1202 8994 40800016 3000 A 0 0 0 0 0 0 0 0 0 0 0 0 0 0 0 0 0 0 0 0 0 0 0 0 0 0 0 0 z_b_19
S 1227 6 1 0 0 6 1 1202 9001 40800016 3000 A 0 0 0 0 0 0 0 0 0 0 0 0 0 0 0 0 0 0 0 0 0 0 0 0 0 0 0 0 z_b_20
S 1228 6 1 0 0 6 1 1202 9116 40800016 3000 A 0 0 0 0 0 0 0 0 0 0 0 0 0 0 0 0 0 0 0 0 0 0 0 0 0 0 0 0 z_b_22
S 1229 6 1 0 0 6 1 1202 9123 40800016 3000 A 0 0 0 0 0 0 0 0 0 0 0 0 0 0 0 0 0 0 0 0 0 0 0 0 0 0 0 0 z_b_23
S 1230 6 1 0 0 6 1 1202 9130 40800016 3000 A 0 0 0 0 0 0 0 0 0 0 0 0 0 0 0 0 0 0 0 0 0 0 0 0 0 0 0 0 z_e_1348
S 1231 6 1 0 0 6 1 1202 9139 40800016 3000 A 0 0 0 0 0 0 0 0 0 0 0 0 0 0 0 0 0 0 0 0 0 0 0 0 0 0 0 0 z_e_1351
S 1232 6 1 0 0 6 1 1202 9148 40800016 3000 A 0 0 0 0 0 0 0 0 0 0 0 0 0 0 0 0 0 0 0 0 0 0 0 0 0 0 0 0 z_e_1354
S 1233 23 5 0 0 0 1236 582 8768 0 0 A 0 0 0 0 0 0 0 0 0 0 0 0 0 0 0 0 0 0 0 0 0 0 0 0 0 0 0 0 allocate_bec
S 1234 1 3 1 0 6 1 1233 9157 14 3000 A 0 0 0 0 0 0 0 0 0 0 0 0 0 0 0 0 0 0 0 0 0 0 0 0 0 0 0 0 nkb
S 1235 1 3 1 0 6 1 1233 8847 14 3000 A 0 0 0 0 0 0 0 0 0 0 0 0 0 0 0 0 0 0 0 0 0 0 0 0 0 0 0 0 nbnd
S 1236 14 5 0 0 0 1 1233 8768 0 400000 A 0 0 0 0 0 0 0 32 2 0 0 0 0 0 0 0 0 0 0 0 0 203 0 582 0 0 0 0 allocate_bec
F 1236 2 1234 1235
S 1237 23 5 0 0 0 1238 582 8781 0 0 A 0 0 0 0 0 0 0 0 0 0 0 0 0 0 0 0 0 0 0 0 0 0 0 0 0 0 0 0 deallocate_bec
S 1238 14 5 0 0 0 1 1237 8781 0 400000 A 0 0 0 0 0 0 0 35 0 0 0 0 0 0 0 0 0 0 0 0 0 228 0 582 0 0 0 0 deallocate_bec
F 1238 0
A 13 2 0 0 0 6 592 0 0 0 13 0 0 0 0 0 0 0 0 0
A 21 2 0 0 0 6 750 0 0 0 21 0 0 0 0 0 0 0 0 0
A 23 2 0 0 0 6 751 0 0 0 23 0 0 0 0 0 0 0 0 0
A 27 2 0 0 0 6 752 0 0 0 27 0 0 0 0 0 0 0 0 0
A 29 2 0 0 0 6 753 0 0 0 29 0 0 0 0 0 0 0 0 0
A 55 2 0 0 0 6 807 0 0 0 55 0 0 0 0 0 0 0 0 0
A 63 2 0 0 0 6 808 0 0 0 63 0 0 0 0 0 0 0 0 0
A 65 2 0 0 0 6 809 0 0 0 65 0 0 0 0 0 0 0 0 0
A 69 2 0 0 0 6 810 0 0 0 69 0 0 0 0 0 0 0 0 0
A 350 2 0 0 200 6 1065 0 0 0 350 0 0 0 0 0 0 0 0 0
A 382 1 0 3 0 313 1115 0 0 0 0 0 0 0 0 0 0 0 0 0
A 383 10 0 0 0 6 382 4 0 0 0 0 0 0 0 0 0 0 0 0
X 1 21
A 384 10 0 0 383 6 382 7 0 0 0 0 0 0 0 0 0 0 0 0
X 1 23
A 385 4 0 0 0 6 384 0 3 0 0 0 0 2 0 0 0 0 0 0
A 386 4 0 0 10 6 383 0 385 0 0 0 0 1 0 0 0 0 0 0
A 387 10 0 0 384 6 382 16 0 0 0 0 0 0 0 0 0 0 0 0
X 1 63
A 388 10 0 0 387 6 382 19 0 0 0 0 0 0 0 0 0 0 0 0
X 1 65
A 389 4 0 0 0 6 388 0 3 0 0 0 0 2 0 0 0 0 0 0
A 390 4 0 0 114 6 387 0 389 0 0 0 0 1 0 0 0 0 0 0
A 391 10 0 0 388 6 382 10 0 0 0 0 0 0 0 0 0 0 0 0
X 1 27
A 392 10 0 0 391 6 382 22 0 0 0 0 0 0 0 0 0 0 0 0
X 1 69
A 393 10 0 0 392 6 382 13 0 0 0 0 0 0 0 0 0 0 0 0
X 1 29
A 394 10 0 0 393 6 382 1 0 0 0 0 0 0 0 0 0 0 0 0
X 1 13
A 397 1 0 3 0 319 1122 0 0 0 0 0 0 0 0 0 0 0 0 0
A 398 10 0 0 150 6 397 4 0 0 0 0 0 0 0 0 0 0 0 0
X 1 21
A 399 10 0 0 398 6 397 7 0 0 0 0 0 0 0 0 0 0 0 0
X 1 23
A 400 4 0 0 0 6 399 0 3 0 0 0 0 2 0 0 0 0 0 0
A 401 4 0 0 0 6 398 0 400 0 0 0 0 1 0 0 0 0 0 0
A 402 10 0 0 399 6 397 16 0 0 0 0 0 0 0 0 0 0 0 0
X 1 63
A 403 10 0 0 402 6 397 19 0 0 0 0 0 0 0 0 0 0 0 0
X 1 65
A 404 4 0 0 0 6 403 0 3 0 0 0 0 2 0 0 0 0 0 0
A 405 4 0 0 46 6 402 0 404 0 0 0 0 1 0 0 0 0 0 0
A 406 10 0 0 403 6 397 10 0 0 0 0 0 0 0 0 0 0 0 0
X 1 27
A 407 10 0 0 406 6 397 22 0 0 0 0 0 0 0 0 0 0 0 0
X 1 69
A 408 10 0 0 407 6 397 13 0 0 0 0 0 0 0 0 0 0 0 0
X 1 29
A 409 10 0 0 408 6 397 1 0 0 0 0 0 0 0 0 0 0 0 0
X 1 13
A 413 1 0 5 0 325 1130 0 0 0 0 0 0 0 0 0 0 0 0 0
A 414 10 0 0 0 6 413 4 0 0 0 0 0 0 0 0 0 0 0 0
X 1 21
A 415 10 0 0 414 6 413 7 0 0 0 0 0 0 0 0 0 0 0 0
X 1 23
A 416 4 0 0 382 6 415 0 3 0 0 0 0 2 0 0 0 0 0 0
A 417 4 0 0 380 6 414 0 416 0 0 0 0 1 0 0 0 0 0 0
A 418 10 0 0 415 6 413 16 0 0 0 0 0 0 0 0 0 0 0 0
X 1 63
A 419 10 0 0 418 6 413 19 0 0 0 0 0 0 0 0 0 0 0 0
X 1 65
A 420 4 0 0 0 6 419 0 3 0 0 0 0 2 0 0 0 0 0 0
A 421 4 0 0 0 6 418 0 420 0 0 0 0 1 0 0 0 0 0 0
A 422 2 0 0 0 6 1134 0 0 0 422 0 0 0 0 0 0 0 0 0
A 423 10 0 0 419 6 413 25 0 0 0 0 0 0 0 0 0 0 0 0
X 1 422
A 424 2 0 0 144 6 1135 0 0 0 424 0 0 0 0 0 0 0 0 0
A 425 10 0 0 423 6 413 28 0 0 0 0 0 0 0 0 0 0 0 0
X 1 424
A 426 4 0 0 0 6 425 0 3 0 0 0 0 2 0 0 0 0 0 0
A 427 4 0 0 61 6 423 0 426 0 0 0 0 1 0 0 0 0 0 0
A 428 10 0 0 425 6 413 10 0 0 0 0 0 0 0 0 0 0 0 0
X 1 27
A 429 10 0 0 428 6 413 22 0 0 0 0 0 0 0 0 0 0 0 0
X 1 69
A 430 2 0 0 0 6 1136 0 0 0 430 0 0 0 0 0 0 0 0 0
A 431 10 0 0 429 6 413 31 0 0 0 0 0 0 0 0 0 0 0 0
X 1 430
A 432 10 0 0 431 6 413 13 0 0 0 0 0 0 0 0 0 0 0 0
X 1 29
A 433 10 0 0 432 6 413 1 0 0 0 0 0 0 0 0 0 0 0 0
X 1 13
A 434 1 0 0 0 6 1157 0 0 0 0 0 0 0 0 0 0 0 0 0
A 435 1 0 0 0 6 1153 0 0 0 0 0 0 0 0 0 0 0 0 0
A 436 1 0 0 0 6 1158 0 0 0 0 0 0 0 0 0 0 0 0 0
A 437 1 0 0 0 6 1155 0 0 0 0 0 0 0 0 0 0 0 0 0
A 438 1 0 0 51 6 1154 0 0 0 0 0 0 0 0 0 0 0 0 0
A 439 1 0 0 0 6 1159 0 0 0 0 0 0 0 0 0 0 0 0 0
A 440 1 0 0 0 6 1156 0 0 0 0 0 0 0 0 0 0 0 0 0
A 441 1 0 0 338 6 1164 0 0 0 0 0 0 0 0 0 0 0 0 0
A 442 1 0 0 0 6 1160 0 0 0 0 0 0 0 0 0 0 0 0 0
A 443 1 0 0 341 6 1165 0 0 0 0 0 0 0 0 0 0 0 0 0
A 444 1 0 0 0 6 1162 0 0 0 0 0 0 0 0 0 0 0 0 0
A 445 1 0 0 160 6 1161 0 0 0 0 0 0 0 0 0 0 0 0 0
A 446 1 0 0 0 6 1166 0 0 0 0 0 0 0 0 0 0 0 0 0
A 447 1 0 0 331 6 1163 0 0 0 0 0 0 0 0 0 0 0 0 0
A 448 1 0 0 0 6 1171 0 0 0 0 0 0 0 0 0 0 0 0 0
A 449 1 0 0 427 6 1167 0 0 0 0 0 0 0 0 0 0 0 0 0
A 450 1 0 0 0 6 1172 0 0 0 0 0 0 0 0 0 0 0 0 0
A 451 1 0 0 173 6 1169 0 0 0 0 0 0 0 0 0 0 0 0 0
A 452 1 0 0 0 6 1168 0 0 0 0 0 0 0 0 0 0 0 0 0
A 453 1 0 0 0 6 1173 0 0 0 0 0 0 0 0 0 0 0 0 0
A 454 1 0 0 67 6 1170 0 0 0 0 0 0 0 0 0 0 0 0 0
A 455 1 0 0 386 6 1185 0 0 0 0 0 0 0 0 0 0 0 0 0
A 456 1 0 0 0 6 1181 0 0 0 0 0 0 0 0 0 0 0 0 0
A 457 1 0 0 3 6 1186 0 0 0 0 0 0 0 0 0 0 0 0 0
A 458 1 0 0 0 6 1183 0 0 0 0 0 0 0 0 0 0 0 0 0
A 459 1 0 0 186 6 1182 0 0 0 0 0 0 0 0 0 0 0 0 0
A 460 1 0 0 84 6 1187 0 0 0 0 0 0 0 0 0 0 0 0 0
A 461 1 0 0 2 6 1184 0 0 0 0 0 0 0 0 0 0 0 0 0
A 462 1 0 0 121 6 1192 0 0 0 0 0 0 0 0 0 0 0 0 0
A 463 1 0 0 153 6 1188 0 0 0 0 0 0 0 0 0 0 0 0 0
A 464 1 0 0 296 6 1193 0 0 0 0 0 0 0 0 0 0 0 0 0
A 465 1 0 0 0 6 1190 0 0 0 0 0 0 0 0 0 0 0 0 0
A 466 1 0 0 0 6 1189 0 0 0 0 0 0 0 0 0 0 0 0 0
A 467 1 0 0 0 6 1194 0 0 0 0 0 0 0 0 0 0 0 0 0
A 468 1 0 0 0 6 1191 0 0 0 0 0 0 0 0 0 0 0 0 0
A 469 1 0 0 0 6 1199 0 0 0 0 0 0 0 0 0 0 0 0 0
A 470 1 0 0 194 6 1195 0 0 0 0 0 0 0 0 0 0 0 0 0
A 471 1 0 0 0 6 1200 0 0 0 0 0 0 0 0 0 0 0 0 0
A 472 1 0 0 0 6 1197 0 0 0 0 0 0 0 0 0 0 0 0 0
A 473 1 0 0 0 6 1196 0 0 0 0 0 0 0 0 0 0 0 0 0
A 474 1 0 0 0 6 1201 0 0 0 0 0 0 0 0 0 0 0 0 0
A 475 1 0 0 0 6 1198 0 0 0 0 0 0 0 0 0 0 0 0 0
A 476 1 0 0 236 6 1213 0 0 0 0 0 0 0 0 0 0 0 0 0
A 477 1 0 0 0 6 1209 0 0 0 0 0 0 0 0 0 0 0 0 0
A 478 1 0 0 0 6 1214 0 0 0 0 0 0 0 0 0 0 0 0 0
A 479 1 0 0 210 6 1211 0 0 0 0 0 0 0 0 0 0 0 0 0
A 480 1 0 0 0 6 1210 0 0 0 0 0 0 0 0 0 0 0 0 0
A 481 1 0 0 0 6 1215 0 0 0 0 0 0 0 0 0 0 0 0 0
A 482 1 0 0 0 6 1212 0 0 0 0 0 0 0 0 0 0 0 0 0
A 483 1 0 0 219 6 1220 0 0 0 0 0 0 0 0 0 0 0 0 0
A 484 1 0 0 113 6 1216 0 0 0 0 0 0 0 0 0 0 0 0 0
A 485 1 0 0 208 6 1221 0 0 0 0 0 0 0 0 0 0 0 0 0
A 486 1 0 0 19 6 1218 0 0 0 0 0 0 0 0 0 0 0 0 0
A 487 1 0 0 0 6 1217 0 0 0 0 0 0 0 0 0 0 0 0 0
A 488 1 0 0 0 6 1222 0 0 0 0 0 0 0 0 0 0 0 0 0
A 489 1 0 0 249 6 1219 0 0 0 0 0 0 0 0 0 0 0 0 0
A 490 1 0 0 0 6 1229 0 0 0 0 0 0 0 0 0 0 0 0 0
A 491 1 0 0 0 6 1223 0 0 0 0 0 0 0 0 0 0 0 0 0
A 492 1 0 0 0 6 1230 0 0 0 0 0 0 0 0 0 0 0 0 0
A 493 1 0 0 26 6 1225 0 0 0 0 0 0 0 0 0 0 0 0 0
A 494 1 0 0 0 6 1224 0 0 0 0 0 0 0 0 0 0 0 0 0
A 495 1 0 0 347 6 1231 0 0 0 0 0 0 0 0 0 0 0 0 0
A 496 1 0 0 0 6 1227 0 0 0 0 0 0 0 0 0 0 0 0 0
A 497 1 0 0 0 6 1226 0 0 0 0 0 0 0 0 0 0 0 0 0
A 498 1 0 0 0 6 1232 0 0 0 0 0 0 0 0 0 0 0 0 0
A 499 1 0 0 227 6 1228 0 0 0 0 0 0 0 0 0 0 0 0 0
Z
Z
