V26 bp
9 pwcom.F90 S582 0
04/24/2012  15:53:20
use kinds private
use kinds private
enduse
D 56 21 12 2 42 41 0 1 0 0 1
 25 29 37 25 29 27
 31 35 39 31 35 33
D 59 21 6 1 0 22 0 0 0 0 0
 0 22 0 3 22 0
D 62 21 12 2 57 56 0 1 0 0 1
 46 49 54 46 49 47
 50 53 55 50 53 51
D 65 21 6 1 0 22 0 0 0 0 0
 0 22 0 3 22 0
D 68 21 12 2 72 71 0 1 0 0 1
 61 64 69 61 64 62
 65 68 70 65 68 66
D 71 21 6 1 0 22 0 0 0 0 0
 0 22 0 3 22 0
D 74 21 12 1 82 81 0 1 0 0 1
 76 79 80 76 79 77
D 77 21 6 1 0 74 0 0 0 0 0
 0 74 0 3 74 0
D 80 21 12 2 97 96 0 1 0 0 1
 86 89 94 86 89 87
 90 93 95 90 93 91
D 83 21 6 1 0 22 0 0 0 0 0
 0 22 0 3 22 0
D 86 21 6 2 112 111 0 1 0 0 1
 101 104 109 101 104 102
 105 108 110 105 108 106
D 89 21 6 1 0 22 0 0 0 0 0
 0 22 0 3 22 0
D 92 21 6 2 127 126 0 1 0 0 1
 116 119 124 116 119 117
 120 123 125 120 123 121
D 95 21 6 1 0 22 0 0 0 0 0
 0 22 0 3 22 0
D 98 21 9 2 142 141 0 1 0 0 1
 131 134 139 131 134 132
 135 138 140 135 138 136
D 101 21 6 1 0 22 0 0 0 0 0
 0 22 0 3 22 0
S 582 24 0 0 0 9 1 0 4658 10005 0 A 0 0 0 0 0 0 0 0 0 0 0 0 578 0 0 0 0 0 0 0 0 546 0 0 0 0 0 0 bp
S 584 23 0 0 0 9 587 582 4667 4 0 A 0 0 0 0 0 0 0 0 0 0 0 0 0 0 0 0 0 0 0 0 0 0 0 582 0 0 0 0 dp
S 585 3 0 0 0 6 1 1 0 0 0 A 0 0 0 0 0 0 0 0 0 8 0 0 0 0 0 0 0 0 0 0 0 0 0 0 0 0 0 0 6
R 587 16 1 kinds dp
S 594 6 4 0 0 16 596 582 4701 80000c 0 A 0 0 0 0 0 0 0 0 0 0 0 0 671 0 0 0 0 0 0 0 0 0 0 582 0 0 0 0 lberry
S 595 3 0 0 0 16 0 1 0 0 0 A 0 0 0 0 0 0 0 0 0 0 0 0 0 0 0 0 0 0 0 0 0 0 0 0 0 0 0 0 16
S 596 6 4 0 0 16 1 582 4708 80000c 0 A 0 0 0 0 0 4 0 0 0 0 0 0 671 0 0 0 0 0 0 0 0 0 0 582 0 0 0 0 lelfield
S 597 6 4 0 0 6 598 582 4717 4 0 A 0 0 0 0 0 0 0 0 0 0 0 0 672 0 0 0 0 0 0 0 0 0 0 582 0 0 0 0 gdir
S 598 6 4 0 0 6 599 582 4722 4 0 A 0 0 0 0 0 4 0 0 0 0 0 0 672 0 0 0 0 0 0 0 0 0 0 582 0 0 0 0 nppstr
S 599 6 4 0 0 6 602 582 4729 4 0 A 0 0 0 0 0 8 0 0 0 0 0 0 672 0 0 0 0 0 0 0 0 0 0 582 0 0 0 0 nberrycyc
S 600 6 4 0 0 9 665 582 4739 4 0 A 0 0 0 0 0 0 0 0 0 0 0 0 673 0 0 0 0 0 0 0 0 0 0 582 0 0 0 0 efield
S 601 7 6 0 0 56 1 582 4746 10a00004 59 A 0 0 0 0 0 0 606 0 0 0 608 0 0 0 0 0 0 0 0 605 0 0 607 582 0 0 0 0 evcel
S 602 6 4 0 0 6 603 582 4752 40800006 0 A 0 0 0 0 0 12 0 0 0 0 0 0 672 0 0 0 0 0 0 0 0 0 0 582 0 0 0 0 z_b_0
S 603 6 4 0 0 6 617 582 4758 40800006 0 A 0 0 0 0 0 16 0 0 0 0 0 0 672 0 0 0 0 0 0 0 0 0 0 582 0 0 0 0 z_b_1
S 604 3 0 0 0 6 0 1 0 0 0 A 0 0 0 0 0 0 0 0 0 24 0 0 0 0 0 0 0 0 0 0 0 0 0 0 0 0 0 0 6
S 605 8 4 0 0 59 620 582 4764 40822064 1020 A 0 0 0 0 0 0 0 0 0 0 0 0 672 0 0 0 0 0 0 0 0 0 0 582 0 0 0 0 evcel$sd
S 606 6 4 0 0 7 607 582 4773 40802061 1020 A 0 0 0 0 0 96 0 0 0 0 0 0 672 0 0 0 0 0 0 0 0 0 0 582 0 0 0 0 evcel$p
S 607 6 4 0 0 7 605 582 4781 40802060 1020 A 0 0 0 0 0 104 0 0 0 0 0 0 672 0 0 0 0 0 0 0 0 0 0 582 0 0 0 0 evcel$o
S 608 22 1 0 0 9 1 582 4789 40000000 1000 A 0 0 0 0 0 0 0 601 0 0 0 0 605 0 0 0 0 0 0 0 0 0 0 582 0 0 0 0 evcel$arrdsc
S 609 3 0 0 0 6 0 1 0 0 0 A 0 0 0 0 0 0 0 0 0 13 0 0 0 0 0 0 0 0 0 0 0 0 0 0 0 0 0 0 6
S 610 3 0 0 0 6 0 1 0 0 0 A 0 0 0 0 0 0 0 0 0 14 0 0 0 0 0 0 0 0 0 0 0 0 0 0 0 0 0 0 6
S 611 3 0 0 0 6 0 1 0 0 0 A 0 0 0 0 0 0 0 0 0 19 0 0 0 0 0 0 0 0 0 0 0 0 0 0 0 0 0 0 6
S 612 3 0 0 0 6 0 1 0 0 0 A 0 0 0 0 0 0 0 0 0 20 0 0 0 0 0 0 0 0 0 0 0 0 0 0 0 0 0 0 6
S 613 3 0 0 0 6 0 1 0 0 0 A 0 0 0 0 0 0 0 0 0 17 0 0 0 0 0 0 0 0 0 0 0 0 0 0 0 0 0 0 6
S 614 3 0 0 0 6 0 1 0 0 0 A 0 0 0 0 0 0 0 0 0 23 0 0 0 0 0 0 0 0 0 0 0 0 0 0 0 0 0 0 6
S 615 3 0 0 0 6 0 1 0 0 0 A 0 0 0 0 0 0 0 0 0 7 0 0 0 0 0 0 0 0 0 0 0 0 0 0 0 0 0 0 6
S 616 7 6 0 0 62 1 582 4802 10a00004 59 A 0 0 0 0 0 0 620 0 0 0 622 0 0 0 0 0 0 0 0 619 0 0 621 582 0 0 0 0 evcelm
S 617 6 4 0 0 6 618 582 4809 40800006 0 A 0 0 0 0 0 20 0 0 0 0 0 0 672 0 0 0 0 0 0 0 0 0 0 582 0 0 0 0 z_b_2
S 618 6 4 0 0 6 624 582 4815 40800006 0 A 0 0 0 0 0 24 0 0 0 0 0 0 672 0 0 0 0 0 0 0 0 0 0 582 0 0 0 0 z_b_3
S 619 8 4 0 0 65 627 582 4821 40822064 1020 A 0 0 0 0 0 112 0 0 0 0 0 0 672 0 0 0 0 0 0 0 0 0 0 582 0 0 0 0 evcelm$sd
S 620 6 4 0 0 7 621 582 4831 40802061 1020 A 0 0 0 0 0 208 0 0 0 0 0 0 672 0 0 0 0 0 0 0 0 0 0 582 0 0 0 0 evcelm$p
S 621 6 4 0 0 7 619 582 4840 40802060 1020 A 0 0 0 0 0 216 0 0 0 0 0 0 672 0 0 0 0 0 0 0 0 0 0 582 0 0 0 0 evcelm$o
S 622 22 1 0 0 9 1 582 4849 40000000 1000 A 0 0 0 0 0 0 0 616 0 0 0 0 619 0 0 0 0 0 0 0 0 0 0 582 0 0 0 0 evcelm$arrdsc
S 623 7 6 0 0 68 1 582 4863 10a00004 59 A 0 0 0 0 0 0 627 0 0 0 629 0 0 0 0 0 0 0 0 626 0 0 628 582 0 0 0 0 evcelp
S 624 6 4 0 0 6 625 582 4870 40800006 0 A 0 0 0 0 0 28 0 0 0 0 0 0 672 0 0 0 0 0 0 0 0 0 0 582 0 0 0 0 z_b_4
S 625 6 4 0 0 6 631 582 4876 40800006 0 A 0 0 0 0 0 32 0 0 0 0 0 0 672 0 0 0 0 0 0 0 0 0 0 582 0 0 0 0 z_b_5
S 626 8 4 0 0 71 634 582 4882 40822064 1020 A 0 0 0 0 0 224 0 0 0 0 0 0 672 0 0 0 0 0 0 0 0 0 0 582 0 0 0 0 evcelp$sd
S 627 6 4 0 0 7 628 582 4892 40802061 1020 A 0 0 0 0 0 320 0 0 0 0 0 0 672 0 0 0 0 0 0 0 0 0 0 582 0 0 0 0 evcelp$p
S 628 6 4 0 0 7 626 582 4901 40802060 1020 A 0 0 0 0 0 328 0 0 0 0 0 0 672 0 0 0 0 0 0 0 0 0 0 582 0 0 0 0 evcelp$o
S 629 22 1 0 0 9 1 582 4910 40000000 1000 A 0 0 0 0 0 0 0 623 0 0 0 0 626 0 0 0 0 0 0 0 0 0 0 582 0 0 0 0 evcelp$arrdsc
S 630 7 6 0 0 74 1 582 4924 10a00004 59 A 0 0 0 0 0 0 634 0 0 0 636 0 0 0 0 0 0 0 0 633 0 0 635 582 0 0 0 0 fact_hepsi
S 631 6 4 0 0 6 638 582 4935 40800006 0 A 0 0 0 0 0 36 0 0 0 0 0 0 672 0 0 0 0 0 0 0 0 0 0 582 0 0 0 0 z_b_6
S 632 3 0 0 0 6 0 1 0 0 0 A 0 0 0 0 0 0 0 0 0 18 0 0 0 0 0 0 0 0 0 0 0 0 0 0 0 0 0 0 6
S 633 8 4 0 0 77 641 582 4941 40822064 1020 A 0 0 0 0 0 336 0 0 0 0 0 0 672 0 0 0 0 0 0 0 0 0 0 582 0 0 0 0 fact_hepsi$sd
S 634 6 4 0 0 7 635 582 4955 40802061 1020 A 0 0 0 0 0 408 0 0 0 0 0 0 672 0 0 0 0 0 0 0 0 0 0 582 0 0 0 0 fact_hepsi$p
S 635 6 4 0 0 7 633 582 4968 40802060 1020 A 0 0 0 0 0 416 0 0 0 0 0 0 672 0 0 0 0 0 0 0 0 0 0 582 0 0 0 0 fact_hepsi$o
S 636 22 1 0 0 9 1 582 4981 40000000 1000 A 0 0 0 0 0 0 0 630 0 0 0 0 633 0 0 0 0 0 0 0 0 0 0 582 0 0 0 0 fact_hepsi$arrdsc
S 637 7 6 0 0 80 1 582 4999 10a00004 59 A 0 0 0 0 0 0 641 0 0 0 643 0 0 0 0 0 0 0 0 640 0 0 642 582 0 0 0 0 bec_evcel
S 638 6 4 0 0 6 639 582 5009 40800006 0 A 0 0 0 0 0 40 0 0 0 0 0 0 672 0 0 0 0 0 0 0 0 0 0 582 0 0 0 0 z_b_7
S 639 6 4 0 0 6 645 582 5015 40800006 0 A 0 0 0 0 0 44 0 0 0 0 0 0 672 0 0 0 0 0 0 0 0 0 0 582 0 0 0 0 z_b_8
S 640 8 4 0 0 83 648 582 5021 40822064 1020 A 0 0 0 0 0 424 0 0 0 0 0 0 672 0 0 0 0 0 0 0 0 0 0 582 0 0 0 0 bec_evcel$sd
S 641 6 4 0 0 7 642 582 5034 40802061 1020 A 0 0 0 0 0 520 0 0 0 0 0 0 672 0 0 0 0 0 0 0 0 0 0 582 0 0 0 0 bec_evcel$p
S 642 6 4 0 0 7 640 582 5046 40802060 1020 A 0 0 0 0 0 528 0 0 0 0 0 0 672 0 0 0 0 0 0 0 0 0 0 582 0 0 0 0 bec_evcel$o
S 643 22 1 0 0 9 1 582 5058 40000000 1000 A 0 0 0 0 0 0 0 637 0 0 0 0 640 0 0 0 0 0 0 0 0 0 0 582 0 0 0 0 bec_evcel$arrdsc
S 644 7 6 0 0 86 1 582 5075 10a00004 59 A 0 0 0 0 0 0 648 0 0 0 650 0 0 0 0 0 0 0 0 647 0 0 649 582 0 0 0 0 mapgp_global
S 645 6 4 0 0 6 646 582 5088 40800006 0 A 0 0 0 0 0 48 0 0 0 0 0 0 672 0 0 0 0 0 0 0 0 0 0 582 0 0 0 0 z_b_9
S 646 6 4 0 0 6 652 582 5094 40800006 0 A 0 0 0 0 0 52 0 0 0 0 0 0 672 0 0 0 0 0 0 0 0 0 0 582 0 0 0 0 z_b_10
S 647 8 4 0 0 89 655 582 5101 40822064 1020 A 0 0 0 0 0 536 0 0 0 0 0 0 672 0 0 0 0 0 0 0 0 0 0 582 0 0 0 0 mapgp_global$sd
S 648 6 4 0 0 7 649 582 5117 40802061 1020 A 0 0 0 0 0 632 0 0 0 0 0 0 672 0 0 0 0 0 0 0 0 0 0 582 0 0 0 0 mapgp_global$p
S 649 6 4 0 0 7 647 582 5132 40802060 1020 A 0 0 0 0 0 640 0 0 0 0 0 0 672 0 0 0 0 0 0 0 0 0 0 582 0 0 0 0 mapgp_global$o
S 650 22 1 0 0 6 1 582 5147 40000000 1000 A 0 0 0 0 0 0 0 644 0 0 0 0 647 0 0 0 0 0 0 0 0 0 0 582 0 0 0 0 mapgp_global$arrdsc
S 651 7 6 0 0 92 1 582 5167 10a00004 59 A 0 0 0 0 0 0 655 0 0 0 657 0 0 0 0 0 0 0 0 654 0 0 656 582 0 0 0 0 mapgm_global
S 652 6 4 0 0 6 653 582 5180 40800006 0 A 0 0 0 0 0 56 0 0 0 0 0 0 672 0 0 0 0 0 0 0 0 0 0 582 0 0 0 0 z_b_11
S 653 6 4 0 0 6 659 582 5187 40800006 0 A 0 0 0 0 0 60 0 0 0 0 0 0 672 0 0 0 0 0 0 0 0 0 0 582 0 0 0 0 z_b_12
S 654 8 4 0 0 95 662 582 5194 40822064 1020 A 0 0 0 0 0 648 0 0 0 0 0 0 672 0 0 0 0 0 0 0 0 0 0 582 0 0 0 0 mapgm_global$sd
S 655 6 4 0 0 7 656 582 5210 40802061 1020 A 0 0 0 0 0 744 0 0 0 0 0 0 672 0 0 0 0 0 0 0 0 0 0 582 0 0 0 0 mapgm_global$p
S 656 6 4 0 0 7 654 582 5225 40802060 1020 A 0 0 0 0 0 752 0 0 0 0 0 0 672 0 0 0 0 0 0 0 0 0 0 582 0 0 0 0 mapgm_global$o
S 657 22 1 0 0 6 1 582 5240 40000000 1000 A 0 0 0 0 0 0 0 651 0 0 0 0 654 0 0 0 0 0 0 0 0 0 0 582 0 0 0 0 mapgm_global$arrdsc
S 658 7 6 0 0 98 1 582 5260 10a00004 59 A 0 0 0 0 0 0 662 0 0 0 664 0 0 0 0 0 0 0 0 661 0 0 663 582 0 0 0 0 forces_bp_efield
S 659 6 4 0 0 6 660 582 5277 40800006 0 A 0 0 0 0 0 64 0 0 0 0 0 0 672 0 0 0 0 0 0 0 0 0 0 582 0 0 0 0 z_b_13
S 660 6 4 0 0 6 668 582 5284 40800006 0 A 0 0 0 0 0 68 0 0 0 0 0 0 672 0 0 0 0 0 0 0 0 0 0 582 0 0 0 0 z_b_14
S 661 8 4 0 0 101 597 582 5291 40822064 1020 A 0 0 0 0 0 760 0 0 0 0 0 0 672 0 0 0 0 0 0 0 0 0 0 582 0 0 0 0 forces_bp_efield$sd
S 662 6 4 0 0 7 663 582 5311 40802061 1020 A 0 0 0 0 0 856 0 0 0 0 0 0 672 0 0 0 0 0 0 0 0 0 0 582 0 0 0 0 forces_bp_efield$p
S 663 6 4 0 0 7 661 582 5330 40802060 1020 A 0 0 0 0 0 864 0 0 0 0 0 0 672 0 0 0 0 0 0 0 0 0 0 582 0 0 0 0 forces_bp_efield$o
S 664 22 1 0 0 9 1 582 5349 40000000 1000 A 0 0 0 0 0 0 0 658 0 0 0 0 661 0 0 0 0 0 0 0 0 0 0 582 0 0 0 0 forces_bp_efield$arrdsc
S 665 6 4 0 0 9 666 582 5373 4 0 A 0 0 0 0 0 8 0 0 0 0 0 0 673 0 0 0 0 0 0 0 0 0 0 582 0 0 0 0 ion_pol
S 666 6 4 0 0 9 667 582 5381 4 0 A 0 0 0 0 0 16 0 0 0 0 0 0 673 0 0 0 0 0 0 0 0 0 0 582 0 0 0 0 el_pol
S 667 6 4 0 0 9 669 582 5388 4 0 A 0 0 0 0 0 24 0 0 0 0 0 0 673 0 0 0 0 0 0 0 0 0 0 582 0 0 0 0 fc_pol
S 668 6 4 0 0 16 1 582 5395 4 0 A 0 0 0 0 0 72 0 0 0 0 0 0 672 0 0 0 0 0 0 0 0 0 0 582 0 0 0 0 l_el_pol_old
S 669 6 4 0 0 9 670 582 5408 4 0 A 0 0 0 0 0 32 0 0 0 0 0 0 673 0 0 0 0 0 0 0 0 0 0 582 0 0 0 0 el_pol_old
S 670 6 4 0 0 9 1 582 5419 4 0 A 0 0 0 0 0 40 0 0 0 0 0 0 673 0 0 0 0 0 0 0 0 0 0 582 0 0 0 0 el_pol_acc
S 671 11 0 0 0 9 1 582 5430 40800008 801000 A 0 0 0 0 0 8 0 0 594 596 0 0 0 0 0 0 0 0 0 0 0 0 0 0 0 0 0 0 _bp$8
S 672 11 0 0 0 9 671 582 5436 40800000 801000 A 0 0 0 0 0 948 0 0 606 668 0 0 0 0 0 0 0 0 0 0 0 0 0 0 0 0 0 0 _bp$0
S 673 11 0 0 0 9 672 582 5442 40800000 801000 A 0 0 0 0 0 48 0 0 600 670 0 0 0 0 0 0 0 0 0 0 0 0 0 0 0 0 0 0 _bp$2
A 13 2 0 0 0 6 585 0 0 0 13 0 0 0 0 0 0 0 0 0
A 17 2 0 0 0 16 595 0 0 0 17 0 0 0 0 0 0 0 0 0
A 18 1 0 0 0 16 594 0 0 0 0 0 0 0 0 0 0 0 0 0
A 19 1 0 0 0 16 596 0 0 0 0 0 0 0 0 0 0 0 0 0
A 22 2 0 0 0 6 604 0 0 0 22 0 0 0 0 0 0 0 0 0
A 23 2 0 0 0 6 609 0 0 0 23 0 0 0 0 0 0 0 0 0
A 24 1 0 1 0 59 605 0 0 0 0 0 0 0 0 0 0 0 0 0
A 25 10 0 0 0 6 24 1 0 0 0 0 0 0 0 0 0 0 0 0
X 1 23
A 26 2 0 0 0 6 610 0 0 0 26 0 0 0 0 0 0 0 0 0
A 27 10 0 0 25 6 24 4 0 0 0 0 0 0 0 0 0 0 0 0
X 1 26
A 28 4 0 0 0 6 27 0 3 0 0 0 0 2 0 0 0 0 0 0
A 29 4 0 0 0 6 25 0 28 0 0 0 0 1 0 0 0 0 0 0
A 30 2 0 0 0 6 611 0 0 0 30 0 0 0 0 0 0 0 0 0
A 31 10 0 0 27 6 24 7 0 0 0 0 0 0 0 0 0 0 0 0
X 1 30
A 32 2 0 0 0 6 612 0 0 0 32 0 0 0 0 0 0 0 0 0
A 33 10 0 0 31 6 24 10 0 0 0 0 0 0 0 0 0 0 0 0
X 1 32
A 34 4 0 0 0 6 33 0 3 0 0 0 0 2 0 0 0 0 0 0
A 35 4 0 0 0 6 31 0 34 0 0 0 0 1 0 0 0 0 0 0
A 36 2 0 0 0 6 613 0 0 0 36 0 0 0 0 0 0 0 0 0
A 37 10 0 0 33 6 24 13 0 0 0 0 0 0 0 0 0 0 0 0
X 1 36
A 38 2 0 0 0 6 614 0 0 0 38 0 0 0 0 0 0 0 0 0
A 39 10 0 0 37 6 24 16 0 0 0 0 0 0 0 0 0 0 0 0
X 1 38
A 40 2 0 0 0 6 615 0 0 0 40 0 0 0 0 0 0 0 0 0
A 41 10 0 0 39 6 24 19 0 0 0 0 0 0 0 0 0 0 0 0
X 1 40
A 42 10 0 0 41 6 24 22 0 0 0 0 0 0 0 0 0 0 0 0
X 1 13
A 45 1 0 1 0 65 619 0 0 0 0 0 0 0 0 0 0 0 0 0
A 46 10 0 0 0 6 45 1 0 0 0 0 0 0 0 0 0 0 0 0
X 1 23
A 47 10 0 0 46 6 45 4 0 0 0 0 0 0 0 0 0 0 0 0
X 1 26
A 48 4 0 0 0 6 47 0 3 0 0 0 0 2 0 0 0 0 0 0
A 49 4 0 0 0 6 46 0 48 0 0 0 0 1 0 0 0 0 0 0
A 50 10 0 0 47 6 45 7 0 0 0 0 0 0 0 0 0 0 0 0
X 1 30
A 51 10 0 0 50 6 45 10 0 0 0 0 0 0 0 0 0 0 0 0
X 1 32
A 52 4 0 0 0 6 51 0 3 0 0 0 0 2 0 0 0 0 0 0
A 53 4 0 0 0 6 50 0 52 0 0 0 0 1 0 0 0 0 0 0
A 54 10 0 0 51 6 45 13 0 0 0 0 0 0 0 0 0 0 0 0
X 1 36
A 55 10 0 0 54 6 45 16 0 0 0 0 0 0 0 0 0 0 0 0
X 1 38
A 56 10 0 0 55 6 45 19 0 0 0 0 0 0 0 0 0 0 0 0
X 1 40
A 57 10 0 0 56 6 45 22 0 0 0 0 0 0 0 0 0 0 0 0
X 1 13
A 60 1 0 1 0 71 626 0 0 0 0 0 0 0 0 0 0 0 0 0
A 61 10 0 0 0 6 60 1 0 0 0 0 0 0 0 0 0 0 0 0
X 1 23
A 62 10 0 0 61 6 60 4 0 0 0 0 0 0 0 0 0 0 0 0
X 1 26
A 63 4 0 0 0 6 62 0 3 0 0 0 0 2 0 0 0 0 0 0
A 64 4 0 0 0 6 61 0 63 0 0 0 0 1 0 0 0 0 0 0
A 65 10 0 0 62 6 60 7 0 0 0 0 0 0 0 0 0 0 0 0
X 1 30
A 66 10 0 0 65 6 60 10 0 0 0 0 0 0 0 0 0 0 0 0
X 1 32
A 67 4 0 0 0 6 66 0 3 0 0 0 0 2 0 0 0 0 0 0
A 68 4 0 0 0 6 65 0 67 0 0 0 0 1 0 0 0 0 0 0
A 69 10 0 0 66 6 60 13 0 0 0 0 0 0 0 0 0 0 0 0
X 1 36
A 70 10 0 0 69 6 60 16 0 0 0 0 0 0 0 0 0 0 0 0
X 1 38
A 71 10 0 0 70 6 60 19 0 0 0 0 0 0 0 0 0 0 0 0
X 1 40
A 72 10 0 0 71 6 60 22 0 0 0 0 0 0 0 0 0 0 0 0
X 1 13
A 74 2 0 0 0 6 632 0 0 0 74 0 0 0 0 0 0 0 0 0
A 75 1 0 3 0 77 633 0 0 0 0 0 0 0 0 0 0 0 0 0
A 76 10 0 0 0 6 75 1 0 0 0 0 0 0 0 0 0 0 0 0
X 1 23
A 77 10 0 0 76 6 75 4 0 0 0 0 0 0 0 0 0 0 0 0
X 1 26
A 78 4 0 0 0 6 77 0 3 0 0 0 0 2 0 0 0 0 0 0
A 79 4 0 0 0 6 76 0 78 0 0 0 0 1 0 0 0 0 0 0
A 80 10 0 0 77 6 75 13 0 0 0 0 0 0 0 0 0 0 0 0
X 1 36
A 81 10 0 0 80 6 75 19 0 0 0 0 0 0 0 0 0 0 0 0
X 1 40
A 82 10 0 0 81 6 75 22 0 0 0 0 0 0 0 0 0 0 0 0
X 1 13
A 85 1 0 1 0 83 640 0 0 0 0 0 0 0 0 0 0 0 0 0
A 86 10 0 0 0 6 85 1 0 0 0 0 0 0 0 0 0 0 0 0
X 1 23
A 87 10 0 0 86 6 85 4 0 0 0 0 0 0 0 0 0 0 0 0
X 1 26
A 88 4 0 0 0 6 87 0 3 0 0 0 0 2 0 0 0 0 0 0
A 89 4 0 0 0 6 86 0 88 0 0 0 0 1 0 0 0 0 0 0
A 90 10 0 0 87 6 85 7 0 0 0 0 0 0 0 0 0 0 0 0
X 1 30
A 91 10 0 0 90 6 85 10 0 0 0 0 0 0 0 0 0 0 0 0
X 1 32
A 92 4 0 0 0 6 91 0 3 0 0 0 0 2 0 0 0 0 0 0
A 93 4 0 0 0 6 90 0 92 0 0 0 0 1 0 0 0 0 0 0
A 94 10 0 0 91 6 85 13 0 0 0 0 0 0 0 0 0 0 0 0
X 1 36
A 95 10 0 0 94 6 85 16 0 0 0 0 0 0 0 0 0 0 0 0
X 1 38
A 96 10 0 0 95 6 85 19 0 0 0 0 0 0 0 0 0 0 0 0
X 1 40
A 97 10 0 0 96 6 85 22 0 0 0 0 0 0 0 0 0 0 0 0
X 1 13
A 100 1 0 1 0 89 647 0 0 0 0 0 0 0 0 0 0 0 0 0
A 101 10 0 0 0 6 100 1 0 0 0 0 0 0 0 0 0 0 0 0
X 1 23
A 102 10 0 0 101 6 100 4 0 0 0 0 0 0 0 0 0 0 0 0
X 1 26
A 103 4 0 0 0 6 102 0 3 0 0 0 0 2 0 0 0 0 0 0
A 104 4 0 0 0 6 101 0 103 0 0 0 0 1 0 0 0 0 0 0
A 105 10 0 0 102 6 100 7 0 0 0 0 0 0 0 0 0 0 0 0
X 1 30
A 106 10 0 0 105 6 100 10 0 0 0 0 0 0 0 0 0 0 0 0
X 1 32
A 107 4 0 0 0 6 106 0 3 0 0 0 0 2 0 0 0 0 0 0
A 108 4 0 0 0 6 105 0 107 0 0 0 0 1 0 0 0 0 0 0
A 109 10 0 0 106 6 100 13 0 0 0 0 0 0 0 0 0 0 0 0
X 1 36
A 110 10 0 0 109 6 100 16 0 0 0 0 0 0 0 0 0 0 0 0
X 1 38
A 111 10 0 0 110 6 100 19 0 0 0 0 0 0 0 0 0 0 0 0
X 1 40
A 112 10 0 0 111 6 100 22 0 0 0 0 0 0 0 0 0 0 0 0
X 1 13
A 115 1 0 1 29 95 654 0 0 0 0 0 0 0 0 0 0 0 0 0
A 116 10 0 0 53 6 115 1 0 0 0 0 0 0 0 0 0 0 0 0
X 1 23
A 117 10 0 0 116 6 115 4 0 0 0 0 0 0 0 0 0 0 0 0
X 1 26
A 118 4 0 0 0 6 117 0 3 0 0 0 0 2 0 0 0 0 0 0
A 119 4 0 0 100 6 116 0 118 0 0 0 0 1 0 0 0 0 0 0
A 120 10 0 0 117 6 115 7 0 0 0 0 0 0 0 0 0 0 0 0
X 1 30
A 121 10 0 0 120 6 115 10 0 0 0 0 0 0 0 0 0 0 0 0
X 1 32
A 122 4 0 0 26 6 121 0 3 0 0 0 0 2 0 0 0 0 0 0
A 123 4 0 0 0 6 120 0 122 0 0 0 0 1 0 0 0 0 0 0
A 124 10 0 0 121 6 115 13 0 0 0 0 0 0 0 0 0 0 0 0
X 1 36
A 125 10 0 0 124 6 115 16 0 0 0 0 0 0 0 0 0 0 0 0
X 1 38
A 126 10 0 0 125 6 115 19 0 0 0 0 0 0 0 0 0 0 0 0
X 1 40
A 127 10 0 0 126 6 115 22 0 0 0 0 0 0 0 0 0 0 0 0
X 1 13
A 130 1 0 1 0 101 661 0 0 0 0 0 0 0 0 0 0 0 0 0
A 131 10 0 0 0 6 130 1 0 0 0 0 0 0 0 0 0 0 0 0
X 1 23
A 132 10 0 0 131 6 130 4 0 0 0 0 0 0 0 0 0 0 0 0
X 1 26
A 133 4 0 0 0 6 132 0 3 0 0 0 0 2 0 0 0 0 0 0
A 134 4 0 0 0 6 131 0 133 0 0 0 0 1 0 0 0 0 0 0
A 135 10 0 0 132 6 130 7 0 0 0 0 0 0 0 0 0 0 0 0
X 1 30
A 136 10 0 0 135 6 130 10 0 0 0 0 0 0 0 0 0 0 0 0
X 1 32
A 137 4 0 0 0 6 136 0 3 0 0 0 0 2 0 0 0 0 0 0
A 138 4 0 0 0 6 135 0 137 0 0 0 0 1 0 0 0 0 0 0
A 139 10 0 0 136 6 130 13 0 0 0 0 0 0 0 0 0 0 0 0
X 1 36
A 140 10 0 0 139 6 130 16 0 0 0 0 0 0 0 0 0 0 0 0
X 1 38
A 141 10 0 0 140 6 130 19 0 0 0 0 0 0 0 0 0 0 0 0
X 1 40
A 142 10 0 0 141 6 130 22 0 0 0 0 0 0 0 0 0 0 0 0
X 1 13
Z
Z
