V26 buffers
11 buffers.F90 S582 0
04/24/2012  15:53:20
use kinds private
use kinds private
enduse
D 56 21 12 2 39 38 0 1 0 0 1
 22 26 34 22 26 24
 28 32 36 28 32 30
D 59 21 6 1 0 19 0 0 0 0 0
 0 19 0 3 19 0
D 62 18 40
D 64 21 12 1 3 42 0 0 1 0 0
 0 41 3 3 42 42
D 67 21 12 1 3 44 0 0 1 0 0
 0 43 3 3 44 44
S 582 24 0 0 0 9 1 0 4658 10015 0 A 0 0 0 0 0 0 0 0 0 0 0 0 0 0 0 0 0 0 0 0 0 11 0 0 0 0 0 0 buffers
S 584 23 0 0 0 9 587 582 4672 14 0 A 0 0 0 0 0 0 0 0 0 0 0 0 0 0 0 0 0 0 0 0 0 0 0 582 0 0 0 0 dp
S 585 3 0 0 0 6 1 1 0 0 0 A 0 0 0 0 0 0 0 0 0 8 0 0 0 0 0 0 0 0 0 0 0 0 0 0 0 0 0 0 6
R 587 16 1 kinds dp
S 594 6 4 0 0 9 595 582 4706 0 1000 A 0 0 0 0 0 0 0 0 0 0 0 0 616 0 0 0 0 0 0 0 0 0 0 582 0 0 0 0 open_buffer
S 595 6 4 0 0 9 596 582 4718 0 1000 A 0 0 0 0 0 8 0 0 0 0 0 0 616 0 0 0 0 0 0 0 0 0 0 582 0 0 0 0 get_buffer
S 596 6 4 0 0 9 597 582 4729 0 1000 A 0 0 0 0 0 16 0 0 0 0 0 0 616 0 0 0 0 0 0 0 0 0 0 582 0 0 0 0 save_buffer
S 597 6 4 0 0 9 1 582 4741 0 1000 A 0 0 0 0 0 24 0 0 0 0 0 0 616 0 0 0 0 0 0 0 0 0 0 582 0 0 0 0 close_buffer
S 598 7 6 0 0 56 1 582 4754 10a00014 51 A 0 0 0 0 0 0 603 0 0 0 605 0 0 0 0 0 0 0 0 602 0 0 604 582 0 0 0 0 buffer1
S 599 6 4 0 0 6 600 582 4762 40800016 0 A 0 0 0 0 0 0 0 0 0 0 0 0 617 0 0 0 0 0 0 0 0 0 0 582 0 0 0 0 z_b_0
S 600 6 4 0 0 6 613 582 4768 40800016 0 A 0 0 0 0 0 4 0 0 0 0 0 0 617 0 0 0 0 0 0 0 0 0 0 582 0 0 0 0 z_b_1
S 601 3 0 0 0 6 0 1 0 0 0 A 0 0 0 0 0 0 0 0 0 24 0 0 0 0 0 0 0 0 0 0 0 0 0 0 0 0 0 0 6
S 602 8 4 0 0 59 599 582 4774 40822074 1020 A 0 0 0 0 0 0 0 0 0 0 0 0 617 0 0 0 0 0 0 0 0 0 0 582 0 0 0 0 buffer1$sd
S 603 6 4 0 0 7 604 582 4785 40802071 1020 A 0 0 0 0 0 96 0 0 0 0 0 0 617 0 0 0 0 0 0 0 0 0 0 582 0 0 0 0 buffer1$p
S 604 6 4 0 0 7 602 582 4795 40802070 1020 A 0 0 0 0 0 104 0 0 0 0 0 0 617 0 0 0 0 0 0 0 0 0 0 582 0 0 0 0 buffer1$o
S 605 22 1 0 0 9 1 582 4805 40000000 1000 A 0 0 0 0 0 0 0 598 0 0 0 0 602 0 0 0 0 0 0 0 0 0 0 582 0 0 0 0 buffer1$arrdsc
S 606 3 0 0 0 6 0 1 0 0 0 A 0 0 0 0 0 0 0 0 0 13 0 0 0 0 0 0 0 0 0 0 0 0 0 0 0 0 0 0 6
S 607 3 0 0 0 6 0 1 0 0 0 A 0 0 0 0 0 0 0 0 0 14 0 0 0 0 0 0 0 0 0 0 0 0 0 0 0 0 0 0 6
S 608 3 0 0 0 6 0 1 0 0 0 A 0 0 0 0 0 0 0 0 0 19 0 0 0 0 0 0 0 0 0 0 0 0 0 0 0 0 0 0 6
S 609 3 0 0 0 6 0 1 0 0 0 A 0 0 0 0 0 0 0 0 0 20 0 0 0 0 0 0 0 0 0 0 0 0 0 0 0 0 0 0 6
S 610 3 0 0 0 6 0 1 0 0 0 A 0 0 0 0 0 0 0 0 0 17 0 0 0 0 0 0 0 0 0 0 0 0 0 0 0 0 0 0 6
S 611 3 0 0 0 6 0 1 0 0 0 A 0 0 0 0 0 0 0 0 0 23 0 0 0 0 0 0 0 0 0 0 0 0 0 0 0 0 0 0 6
S 612 3 0 0 0 6 0 1 0 0 0 A 0 0 0 0 0 0 0 0 0 7 0 0 0 0 0 0 0 0 0 0 0 0 0 0 0 0 0 0 6
S 613 6 4 0 0 6 1 582 4820 14 0 A 0 0 0 0 0 8 0 0 0 0 0 0 617 0 0 0 0 0 0 0 0 0 0 582 0 0 0 0 nword_
S 614 3 0 0 0 6 0 1 0 0 0 A 0 0 0 0 0 0 0 0 0 80 0 0 0 0 0 0 0 0 0 0 0 0 0 0 0 0 0 0 6
S 615 6 4 0 0 62 1 582 4827 14 0 A 0 0 0 0 0 0 0 0 0 0 0 0 618 0 0 0 0 0 0 0 0 0 0 582 0 0 0 0 extension_
S 616 11 0 0 0 9 1 582 4838 40800000 801000 A 0 0 0 0 0 32 0 0 594 597 0 0 0 0 0 0 0 0 0 0 0 0 0 0 0 0 0 0 _buffers$2
S 617 11 0 0 0 9 616 582 4849 40800010 801000 A 0 0 0 0 0 124 0 0 603 613 0 0 0 0 0 0 0 0 0 0 0 0 0 0 0 0 0 0 _buffers$4
S 618 11 0 0 0 9 617 582 4860 40800010 801000 A 0 0 0 0 0 80 0 0 615 615 0 0 0 0 0 0 0 0 0 0 0 0 0 0 0 0 0 0 _buffers$5
S 619 23 5 0 0 0 625 582 4706 0 0 A 0 0 0 0 0 0 0 0 0 0 0 0 0 0 0 0 0 0 0 0 0 0 0 0 0 0 0 0 open_buffer
S 620 1 3 1 0 6 1 619 3864 14 3000 A 0 0 0 0 0 0 0 0 0 0 0 0 0 0 0 0 0 0 0 0 0 0 0 0 0 0 0 0 unit
S 621 1 3 1 0 28 1 619 4871 14 43000 A 0 0 0 0 0 0 0 0 0 0 0 0 0 0 0 0 0 0 0 0 0 0 0 0 0 0 0 0 extension
S 622 1 3 1 0 6 1 619 4881 14 3000 A 0 0 0 0 0 0 0 0 0 0 0 0 0 0 0 0 0 0 0 0 0 0 0 0 0 0 0 0 nword
S 623 1 3 1 0 6 1 619 4887 14 3000 A 0 0 0 0 0 0 0 0 0 0 0 0 0 0 0 0 0 0 0 0 0 0 0 0 0 0 0 0 maxrec
S 624 1 3 2 0 16 1 619 4894 14 3000 A 0 0 0 0 0 0 0 0 0 0 0 0 0 0 0 0 0 0 0 0 0 0 0 0 0 0 0 0 exst
S 625 14 5 0 0 0 1 619 4706 0 400000 A 0 0 0 0 0 0 0 4 5 0 0 0 0 0 0 0 0 0 0 0 0 29 0 582 0 0 0 0 open_buffer
F 625 5 620 621 622 623 624
S 626 23 5 0 0 0 631 582 4729 0 0 A 0 0 0 0 0 0 0 0 0 0 0 0 0 0 0 0 0 0 0 0 0 0 0 0 0 0 0 0 save_buffer
S 627 7 3 1 0 64 1 626 4899 800214 3000 A 0 0 0 0 0 0 0 0 0 0 0 0 0 0 0 0 0 0 0 0 0 0 0 0 0 0 0 0 vect
S 628 6 3 1 0 6 1 626 4881 800014 3000 A 0 0 0 0 0 0 0 0 0 0 0 0 0 0 0 0 0 0 0 0 0 0 0 0 0 0 0 0 nword
S 629 1 3 1 0 6 1 626 3864 14 3000 A 0 0 0 0 0 0 0 0 0 0 0 0 0 0 0 0 0 0 0 0 0 0 0 0 0 0 0 0 unit
S 630 1 3 1 0 6 1 626 4904 14 3000 A 0 0 0 0 0 0 0 0 0 0 0 0 0 0 0 0 0 0 0 0 0 0 0 0 0 0 0 0 nrec
S 631 14 5 0 0 0 1 626 4729 200 400000 A 0 0 0 0 0 0 0 10 4 0 0 0 0 0 0 0 0 0 0 0 0 78 0 582 0 0 0 0 save_buffer
F 631 4 627 628 629 630
S 632 6 1 0 0 6 1 626 4909 40800016 3000 A 0 0 0 0 0 0 0 0 0 0 0 0 0 0 0 0 0 0 0 0 0 0 0 0 0 0 0 0 z_e_41
S 633 23 5 0 0 0 638 582 4718 0 0 A 0 0 0 0 0 0 0 0 0 0 0 0 0 0 0 0 0 0 0 0 0 0 0 0 0 0 0 0 get_buffer
S 634 7 3 2 0 67 1 633 4899 800214 3000 A 0 0 0 0 0 0 0 0 0 0 0 0 0 0 0 0 0 0 0 0 0 0 0 0 0 0 0 0 vect
S 635 6 3 1 0 6 1 633 4881 800014 3000 A 0 0 0 0 0 0 0 0 0 0 0 0 0 0 0 0 0 0 0 0 0 0 0 0 0 0 0 0 nword
S 636 1 3 1 0 6 1 633 3864 14 3000 A 0 0 0 0 0 0 0 0 0 0 0 0 0 0 0 0 0 0 0 0 0 0 0 0 0 0 0 0 unit
S 637 1 3 1 0 6 1 633 4904 14 3000 A 0 0 0 0 0 0 0 0 0 0 0 0 0 0 0 0 0 0 0 0 0 0 0 0 0 0 0 0 nrec
S 638 14 5 0 0 0 1 633 4718 200 400000 A 0 0 0 0 0 0 0 15 4 0 0 0 0 0 0 0 0 0 0 0 0 123 0 582 0 0 0 0 get_buffer
F 638 4 634 635 636 637
S 639 6 1 0 0 6 1 633 4916 40800016 3000 A 0 0 0 0 0 0 0 0 0 0 0 0 0 0 0 0 0 0 0 0 0 0 0 0 0 0 0 0 z_e_43
S 640 23 5 0 0 0 643 582 4741 0 0 A 0 0 0 0 0 0 0 0 0 0 0 0 0 0 0 0 0 0 0 0 0 0 0 0 0 0 0 0 close_buffer
S 641 1 3 1 0 6 1 640 3864 14 3000 A 0 0 0 0 0 0 0 0 0 0 0 0 0 0 0 0 0 0 0 0 0 0 0 0 0 0 0 0 unit
S 642 1 3 1 0 28 1 640 4923 14 43000 A 0 0 0 0 0 0 0 0 0 0 0 0 0 0 0 0 0 0 0 0 0 0 0 0 0 0 0 0 status
S 643 14 5 0 0 0 1 640 4741 0 400000 A 0 0 0 0 0 0 0 20 2 0 0 0 0 0 0 0 0 0 0 0 0 167 0 582 0 0 0 0 close_buffer
F 643 2 641 642
A 13 2 0 0 0 6 585 0 0 0 13 0 0 0 0 0 0 0 0 0
A 19 2 0 0 0 6 601 0 0 0 19 0 0 0 0 0 0 0 0 0
A 20 2 0 0 0 6 606 0 0 0 20 0 0 0 0 0 0 0 0 0
A 21 1 0 1 0 59 602 0 0 0 0 0 0 0 0 0 0 0 0 0
A 22 10 0 0 0 6 21 1 0 0 0 0 0 0 0 0 0 0 0 0
X 1 20
A 23 2 0 0 0 6 607 0 0 0 23 0 0 0 0 0 0 0 0 0
A 24 10 0 0 22 6 21 4 0 0 0 0 0 0 0 0 0 0 0 0
X 1 23
A 25 4 0 0 0 6 24 0 3 0 0 0 0 2 0 0 0 0 0 0
A 26 4 0 0 0 6 22 0 25 0 0 0 0 1 0 0 0 0 0 0
A 27 2 0 0 0 6 608 0 0 0 27 0 0 0 0 0 0 0 0 0
A 28 10 0 0 24 6 21 7 0 0 0 0 0 0 0 0 0 0 0 0
X 1 27
A 29 2 0 0 0 6 609 0 0 0 29 0 0 0 0 0 0 0 0 0
A 30 10 0 0 28 6 21 10 0 0 0 0 0 0 0 0 0 0 0 0
X 1 29
A 31 4 0 0 0 6 30 0 3 0 0 0 0 2 0 0 0 0 0 0
A 32 4 0 0 0 6 28 0 31 0 0 0 0 1 0 0 0 0 0 0
A 33 2 0 0 26 6 610 0 0 0 33 0 0 0 0 0 0 0 0 0
A 34 10 0 0 30 6 21 13 0 0 0 0 0 0 0 0 0 0 0 0
X 1 33
A 35 2 0 0 0 6 611 0 0 0 35 0 0 0 0 0 0 0 0 0
A 36 10 0 0 34 6 21 16 0 0 0 0 0 0 0 0 0 0 0 0
X 1 35
A 37 2 0 0 0 6 612 0 0 0 37 0 0 0 0 0 0 0 0 0
A 38 10 0 0 36 6 21 19 0 0 0 0 0 0 0 0 0 0 0 0
X 1 37
A 39 10 0 0 38 6 21 22 0 0 0 0 0 0 0 0 0 0 0 0
X 1 13
A 40 2 0 0 0 6 614 0 0 0 40 0 0 0 0 0 0 0 0 0
A 41 1 0 0 0 6 628 0 0 0 0 0 0 0 0 0 0 0 0 0
A 42 1 0 0 0 6 632 0 0 0 0 0 0 0 0 0 0 0 0 0
A 43 1 0 0 0 6 635 0 0 0 0 0 0 0 0 0 0 0 0 0
A 44 1 0 0 0 6 639 0 0 0 0 0 0 0 0 0 0 0 0 0
Z
Z
