V26 cellmd
9 pwcom.F90 S582 0
04/24/2012  15:53:20
use kinds private
use kinds private
enduse
D 56 21 9 2 15 18 0 0 0 0 0
 0 17 3 3 17 17
 0 17 17 3 17 17
D 59 18 19
S 582 24 0 0 0 9 1 0 4658 5 0 A 0 0 0 0 0 0 0 0 0 0 0 0 412 0 0 0 0 0 0 0 0 388 0 0 0 0 0 0 cellmd
S 584 23 0 0 0 9 587 582 4671 4 0 A 0 0 0 0 0 0 0 0 0 0 0 0 0 0 0 0 0 0 0 0 0 0 0 582 0 0 0 0 dp
S 586 3 0 0 0 6 1 1 0 0 0 A 0 0 0 0 0 0 0 0 0 4 0 0 0 0 0 0 0 0 0 0 0 0 0 0 0 0 0 0 6
R 587 16 1 kinds dp
S 594 6 4 0 0 9 595 582 4705 4 0 A 0 0 0 0 0 0 0 0 0 0 0 0 607 0 0 0 0 0 0 0 0 0 0 582 0 0 0 0 press
S 595 6 4 0 0 9 596 582 4711 4 0 A 0 0 0 0 0 8 0 0 0 0 0 0 607 0 0 0 0 0 0 0 0 0 0 582 0 0 0 0 cmass
S 596 7 4 0 4 56 599 582 4717 800004 100 A 0 0 0 0 0 16 0 0 0 0 0 0 607 0 0 0 0 0 0 0 0 0 0 582 0 0 0 0 at_old
S 597 3 0 0 0 6 0 1 0 0 0 A 0 0 0 0 0 0 0 0 0 3 0 0 0 0 0 0 0 0 0 0 0 0 0 0 0 0 0 0 6
S 598 3 0 0 0 6 0 1 0 0 0 A 0 0 0 0 0 0 0 0 0 9 0 0 0 0 0 0 0 0 0 0 0 0 0 0 0 0 0 0 6
S 599 6 4 0 0 9 600 582 4724 4 0 A 0 0 0 0 0 88 0 0 0 0 0 0 607 0 0 0 0 0 0 0 0 0 0 582 0 0 0 0 omega_old
S 600 6 4 0 0 9 1 582 4734 4 0 A 0 0 0 0 0 96 0 0 0 0 0 0 607 0 0 0 0 0 0 0 0 0 0 582 0 0 0 0 cell_factor
S 601 6 4 0 0 6 602 582 4746 4 0 A 0 0 0 0 0 0 0 0 0 0 0 0 608 0 0 0 0 0 0 0 0 0 0 582 0 0 0 0 nzero
S 602 6 4 0 0 6 603 582 4752 4 0 A 0 0 0 0 0 4 0 0 0 0 0 0 608 0 0 0 0 0 0 0 0 0 0 582 0 0 0 0 ntimes
S 603 6 4 0 0 6 604 582 4759 4 0 A 0 0 0 0 0 8 0 0 0 0 0 0 608 0 0 0 0 0 0 0 0 0 0 582 0 0 0 0 ntcheck
S 604 6 4 0 0 16 1 582 4767 4 0 A 0 0 0 0 0 12 0 0 0 0 0 0 608 0 0 0 0 0 0 0 0 0 0 582 0 0 0 0 lmovecell
S 605 3 0 0 0 6 0 1 0 0 0 A 0 0 0 0 0 0 0 0 0 2 0 0 0 0 0 0 0 0 0 0 0 0 0 0 0 0 0 0 6
S 606 6 4 0 0 59 1 582 4777 4 0 A 0 0 0 0 0 0 0 0 0 0 0 0 609 0 0 0 0 0 0 0 0 0 0 582 0 0 0 0 calc
S 607 11 0 0 4 9 1 582 4782 40800000 801000 A 0 0 0 0 0 104 0 0 594 600 0 0 0 0 0 0 0 0 0 0 0 0 0 0 0 0 0 0 _cellmd$2
S 608 11 0 0 0 9 607 582 4792 40800000 801000 A 0 0 0 0 0 16 0 0 601 604 0 0 0 0 0 0 0 0 0 0 0 0 0 0 0 0 0 0 _cellmd$0
S 609 11 0 0 0 9 608 582 4802 40800000 801000 A 0 0 0 0 0 2 0 0 606 606 0 0 0 0 0 0 0 0 0 0 0 0 0 0 0 0 0 0 _cellmd$1
A 15 2 0 0 0 6 586 0 0 0 15 0 0 0 0 0 0 0 0 0
A 17 2 0 0 0 6 597 0 0 0 17 0 0 0 0 0 0 0 0 0
A 18 2 0 0 0 6 598 0 0 0 18 0 0 0 0 0 0 0 0 0
A 19 2 0 0 0 6 605 0 0 0 19 0 0 0 0 0 0 0 0 0
Z
Z
