V26 char
9 pwcom.F90 S582 0
04/24/2012  15:53:20
use printout_base private
use printout_base private
enduse
D 82 18 35
D 84 18 36
D 86 21 84 1 3 37 0 0 0 0 0
 0 37 3 3 37 37
S 582 24 0 0 0 9 1 0 2611 5 0 A 0 0 0 0 0 0 0 0 0 0 0 0 427 0 0 0 0 0 0 0 0 416 0 0 0 0 0 0 char
S 584 23 0 0 0 9 593 582 4672 4 0 A 0 0 0 0 0 0 0 0 0 0 0 0 0 0 0 0 0 0 0 0 0 0 0 582 0 0 0 0 title
R 593 6 1 printout_base title
S 654 3 0 0 0 6 0 1 0 0 0 A 0 0 0 0 0 0 0 0 0 20 0 0 0 0 0 0 0 0 0 0 0 0 0 0 0 0 0 0 6
S 655 6 4 0 0 82 657 582 5025 4 0 A 0 0 0 0 0 0 0 0 0 0 0 0 659 0 0 0 0 0 0 0 0 0 0 582 0 0 0 0 crystal
S 656 3 0 0 0 6 0 1 0 0 0 A 0 0 0 0 0 0 0 0 0 45 0 0 0 0 0 0 0 0 0 0 0 0 0 0 0 0 0 0 6
S 657 7 4 0 4 86 1 582 5033 800004 100 A 0 0 0 0 0 32 0 0 0 0 0 0 659 0 0 0 0 0 0 0 0 0 0 582 0 0 0 0 sname
S 658 3 0 0 0 6 0 1 0 0 0 A 0 0 0 0 0 0 0 0 0 48 0 0 0 0 0 0 0 0 0 0 0 0 0 0 0 0 0 0 6
S 659 11 0 0 4 9 596 582 5039 40800000 801000 A 0 0 0 0 0 2192 0 0 655 657 0 0 0 0 0 0 0 0 0 0 0 0 0 0 0 0 0 0 _char$1
A 35 2 0 0 0 6 654 0 0 0 35 0 0 0 0 0 0 0 0 0
A 36 2 0 0 0 6 656 0 0 0 36 0 0 0 0 0 0 0 0 0
A 37 2 0 0 0 6 658 0 0 0 37 0 0 0 0 0 0 0 0 0
Z
Z
