V26 dynamics_module
19 dynamics_module.F90 S582 0
04/24/2012  15:54:31
use basic_algebra_routines public 0 direct
use control_flags private
use constants private
use io_files private
use io_global private
use ions_base private
use kinds private
use control_flags private
use constants private
use io_files private
use io_global private
use ions_base private
use kinds private
enduse
D 497 18 18
D 499 21 9 2 770 769 0 1 0 0 1
 759 762 767 759 762 760
 763 766 768 763 766 764
D 502 21 6 1 0 46 0 0 0 0 0
 0 46 0 3 46 0
D 505 21 9 2 785 784 0 1 0 0 1
 774 777 782 774 777 775
 778 781 783 778 781 779
D 508 21 6 1 0 46 0 0 0 0 0
 0 46 0 3 46 0
D 511 21 9 2 800 799 0 1 0 0 1
 789 792 797 789 792 790
 793 796 798 793 796 794
D 514 21 6 1 0 46 0 0 0 0 0
 0 46 0 3 46 0
D 517 21 9 2 815 814 0 1 0 0 1
 804 807 812 804 807 805
 808 811 813 808 811 809
D 520 21 6 1 0 46 0 0 0 0 0
 0 46 0 3 46 0
D 523 21 9 2 830 829 0 1 0 0 1
 819 822 827 819 822 820
 823 826 828 823 826 824
D 526 21 6 1 0 46 0 0 0 0 0
 0 46 0 3 46 0
D 529 21 9 2 845 844 0 1 0 0 1
 834 837 842 834 837 835
 838 841 843 838 841 839
D 532 21 6 1 0 46 0 0 0 0 0
 0 46 0 3 46 0
D 535 21 9 1 854 853 0 1 0 0 1
 848 851 852 848 851 849
D 538 21 6 1 0 34 0 0 0 0 0
 0 34 0 3 34 0
D 541 21 9 1 863 862 0 1 0 0 1
 857 860 861 857 860 858
D 544 21 6 1 0 34 0 0 0 0 0
 0 34 0 3 34 0
D 547 21 9 2 878 877 0 1 0 0 1
 867 870 875 867 870 868
 871 874 876 871 874 872
D 550 21 6 1 0 46 0 0 0 0 0
 0 46 0 3 46 0
D 553 21 9 2 881 887 1 1 0 0 1
 3 882 3 3 882 883
 3 884 885 3 884 886
S 582 24 0 0 0 9 1 0 4658 10005 0 A 0 0 0 0 0 0 0 0 0 0 0 0 0 0 0 0 0 0 0 0 0 30 0 0 0 0 0 0 dynamics_module
S 584 23 0 0 0 9 606 582 4680 4 0 A 0 0 0 0 0 0 0 0 0 0 0 0 0 0 0 0 0 0 0 0 0 0 0 582 0 0 0 0 dp
S 586 23 0 0 0 9 649 582 4693 4 0 A 0 0 0 0 0 0 0 0 0 0 0 0 0 0 0 0 0 0 0 0 0 0 0 582 0 0 0 0 amass
S 588 23 0 0 0 9 1273 582 4709 4 0 A 0 0 0 0 0 0 0 0 0 0 0 0 0 0 0 0 0 0 0 0 0 0 0 582 0 0 0 0 stdout
S 590 23 0 0 0 9 1316 582 4725 4 0 A 0 0 0 0 0 0 0 0 0 0 0 0 0 0 0 0 0 0 0 0 0 0 0 582 0 0 0 0 prefix
S 591 23 0 0 0 9 1314 582 4732 4 0 A 0 0 0 0 0 0 0 0 0 0 0 0 0 0 0 0 0 0 0 0 0 0 0 582 0 0 0 0 tmp_dir
S 593 23 0 0 0 9 1455 582 4750 4 0 A 0 0 0 0 0 0 0 0 0 0 0 0 0 0 0 0 0 0 0 0 0 0 0 582 0 0 0 0 tpi
S 594 23 0 0 0 9 1456 582 4754 4 0 A 0 0 0 0 0 0 0 0 0 0 0 0 0 0 0 0 0 0 0 0 0 0 0 582 0 0 0 0 fpi
S 595 23 0 0 0 9 1496 582 4758 4 0 A 0 0 0 0 0 0 0 0 0 0 0 0 0 0 0 0 0 0 0 0 0 0 0 582 0 0 0 0 amconv
S 596 23 0 0 0 9 1483 582 4765 4 0 A 0 0 0 0 0 0 0 0 0 0 0 0 0 0 0 0 0 0 0 0 0 0 0 582 0 0 0 0 ry_to_kelvin
S 597 23 0 0 0 9 1477 582 4778 4 0 A 0 0 0 0 0 0 0 0 0 0 0 0 0 0 0 0 0 0 0 0 0 0 0 582 0 0 0 0 au_ps
S 598 23 0 0 0 9 1498 582 4784 4 0 A 0 0 0 0 0 0 0 0 0 0 0 0 0 0 0 0 0 0 0 0 0 0 0 582 0 0 0 0 bohr_radius_cm
S 599 23 0 0 0 9 1497 582 4799 4 0 A 0 0 0 0 0 0 0 0 0 0 0 0 0 0 0 0 0 0 0 0 0 0 0 582 0 0 0 0 uakbar
S 600 23 0 0 0 9 1487 582 4806 4 0 A 0 0 0 0 0 0 0 0 0 0 0 0 0 0 0 0 0 0 0 0 0 0 0 582 0 0 0 0 eps8
S 602 23 0 0 0 9 1556 582 4825 4 0 A 0 0 0 0 0 0 0 0 0 0 0 0 0 0 0 0 0 0 0 0 0 0 0 582 0 0 0 0 tolp
S 604 3 0 0 0 6 1 1 0 0 0 A 0 0 0 0 0 0 0 0 0 8 0 0 0 0 0 0 0 0 0 0 0 0 0 0 0 0 0 0 6
R 606 16 1 kinds dp
S 614 3 0 0 0 6 1 1 0 0 0 A 0 0 0 0 0 0 0 0 0 10 0 0 0 0 0 0 0 0 0 0 0 0 0 0 0 0 0 0 6
S 618 3 0 0 0 6 1 1 0 0 0 A 0 0 0 0 0 0 0 0 0 7 0 0 0 0 0 0 0 0 0 0 0 0 0 0 0 0 0 0 6
S 631 3 0 0 0 6 1 1 0 0 0 A 0 0 0 0 0 0 0 0 0 18 0 0 0 0 0 0 0 0 0 0 0 0 0 0 0 0 0 0 6
S 632 3 0 0 0 6 1 1 0 0 0 A 0 0 0 0 0 0 0 0 0 13 0 0 0 0 0 0 0 0 0 0 0 0 0 0 0 0 0 0 6
S 633 3 0 0 0 6 1 1 0 0 0 A 0 0 0 0 0 0 0 0 0 14 0 0 0 0 0 0 0 0 0 0 0 0 0 0 0 0 0 0 6
S 634 3 0 0 0 6 1 1 0 0 0 A 0 0 0 0 0 0 0 0 0 17 0 0 0 0 0 0 0 0 0 0 0 0 0 0 0 0 0 0 6
S 635 3 0 0 0 6 1 1 0 0 0 A 0 0 0 0 0 0 0 0 0 24 0 0 0 0 0 0 0 0 0 0 0 0 0 0 0 0 0 0 6
S 636 3 0 0 0 6 1 1 0 0 0 A 0 0 0 0 0 0 0 0 0 19 0 0 0 0 0 0 0 0 0 0 0 0 0 0 0 0 0 0 6
S 637 3 0 0 0 6 1 1 0 0 0 A 0 0 0 0 0 0 0 0 0 20 0 0 0 0 0 0 0 0 0 0 0 0 0 0 0 0 0 0 6
S 638 3 0 0 0 6 1 1 0 0 0 A 0 0 0 0 0 0 0 0 0 23 0 0 0 0 0 0 0 0 0 0 0 0 0 0 0 0 0 0 6
R 649 7 9 ions_base amass
R 1273 6 4 io_global stdout
R 1314 6 2 io_files tmp_dir
R 1316 6 4 io_files prefix
R 1455 16 3 constants tpi
R 1456 16 4 constants fpi
R 1477 16 25 constants au_ps
R 1483 16 31 constants ry_to_kelvin
R 1487 16 35 constants eps8
R 1496 16 44 constants amconv
R 1497 16 45 constants uakbar
R 1498 16 46 constants bohr_radius_cm
R 1556 6 53 control_flags tolp
S 1752 6 4 0 0 9 1753 582 6545 4 0 A 0 0 0 0 0 0 0 0 0 0 0 0 1824 0 0 0 0 0 0 0 0 0 0 582 0 0 0 0 dt
S 1753 6 4 0 0 9 1754 582 10460 4 0 A 0 0 0 0 0 8 0 0 0 0 0 0 1824 0 0 0 0 0 0 0 0 0 0 582 0 0 0 0 temperature
S 1754 6 4 0 0 9 1755 582 10472 4 0 A 0 0 0 0 0 16 0 0 0 0 0 0 1824 0 0 0 0 0 0 0 0 0 0 582 0 0 0 0 virial
S 1755 6 4 0 0 9 1 582 10479 4 0 A 0 0 0 0 0 24 0 0 0 0 0 0 1824 0 0 0 0 0 0 0 0 0 0 582 0 0 0 0 delta_t
S 1756 6 4 0 0 6 1757 582 10487 4 0 A 0 0 0 0 0 0 0 0 0 0 0 0 1825 0 0 0 0 0 0 0 0 0 0 582 0 0 0 0 nraise
S 1757 6 4 0 0 6 1758 582 10494 4 0 A 0 0 0 0 0 4 0 0 0 0 0 0 1825 0 0 0 0 0 0 0 0 0 0 582 0 0 0 0 ndof
S 1758 6 4 0 0 16 1759 582 10499 4 0 A 0 0 0 0 0 8 0 0 0 0 0 0 1825 0 0 0 0 0 0 0 0 0 0 582 0 0 0 0 control_temp
S 1759 6 4 0 0 16 1762 582 10512 4 0 A 0 0 0 0 0 12 0 0 0 0 0 0 1825 0 0 0 0 0 0 0 0 0 0 582 0 0 0 0 refold_pos
S 1760 6 4 0 0 497 1 582 10523 4 0 A 0 0 0 0 0 0 0 0 0 0 0 0 1826 0 0 0 0 0 0 0 0 0 0 582 0 0 0 0 thermostat
S 1761 7 6 0 0 499 1 582 10534 10a00004 51 A 0 0 0 0 0 0 1765 0 0 0 1767 0 0 0 0 0 0 0 0 1764 0 0 1766 582 0 0 0 0 tau_old
S 1762 6 4 0 0 6 1763 582 5830 40800006 0 A 0 0 0 0 0 16 0 0 0 0 0 0 1825 0 0 0 0 0 0 0 0 0 0 582 0 0 0 0 z_b_0_1
S 1763 6 4 0 0 6 1769 582 10542 40800006 0 A 0 0 0 0 0 20 0 0 0 0 0 0 1825 0 0 0 0 0 0 0 0 0 0 582 0 0 0 0 z_b_1_1
S 1764 8 4 0 0 502 1772 582 10550 40822064 1020 A 0 0 0 0 0 0 0 0 0 0 0 0 1825 0 0 0 0 0 0 0 0 0 0 582 0 0 0 0 tau_old$sd
S 1765 6 4 0 0 7 1766 582 10561 40802061 1020 A 0 0 0 0 0 96 0 0 0 0 0 0 1825 0 0 0 0 0 0 0 0 0 0 582 0 0 0 0 tau_old$p
S 1766 6 4 0 0 7 1764 582 10571 40802060 1020 A 0 0 0 0 0 104 0 0 0 0 0 0 1825 0 0 0 0 0 0 0 0 0 0 582 0 0 0 0 tau_old$o
S 1767 22 1 0 0 9 1 582 10581 40000000 1000 A 0 0 0 0 0 0 0 1761 0 0 0 0 1764 0 0 0 0 0 0 0 0 0 0 582 0 0 0 0 tau_old$arrdsc
S 1768 7 6 0 0 505 1 582 10596 10a00004 51 A 0 0 0 0 0 0 1772 0 0 0 1774 0 0 0 0 0 0 0 0 1771 0 0 1773 582 0 0 0 0 tau_new
S 1769 6 4 0 0 6 1770 582 5838 40800006 0 A 0 0 0 0 0 24 0 0 0 0 0 0 1825 0 0 0 0 0 0 0 0 0 0 582 0 0 0 0 z_b_2_1
S 1770 6 4 0 0 6 1776 582 5846 40800006 0 A 0 0 0 0 0 28 0 0 0 0 0 0 1825 0 0 0 0 0 0 0 0 0 0 582 0 0 0 0 z_b_3_1
S 1771 8 4 0 0 508 1779 582 10604 40822064 1020 A 0 0 0 0 0 112 0 0 0 0 0 0 1825 0 0 0 0 0 0 0 0 0 0 582 0 0 0 0 tau_new$sd
S 1772 6 4 0 0 7 1773 582 10615 40802061 1020 A 0 0 0 0 0 208 0 0 0 0 0 0 1825 0 0 0 0 0 0 0 0 0 0 582 0 0 0 0 tau_new$p
S 1773 6 4 0 0 7 1771 582 10625 40802060 1020 A 0 0 0 0 0 216 0 0 0 0 0 0 1825 0 0 0 0 0 0 0 0 0 0 582 0 0 0 0 tau_new$o
S 1774 22 1 0 0 9 1 582 10635 40000000 1000 A 0 0 0 0 0 0 0 1768 0 0 0 0 1771 0 0 0 0 0 0 0 0 0 0 582 0 0 0 0 tau_new$arrdsc
S 1775 7 6 0 0 511 1 582 10650 10a00004 51 A 0 0 0 0 0 0 1779 0 0 0 1781 0 0 0 0 0 0 0 0 1778 0 0 1780 582 0 0 0 0 tau_ref
S 1776 6 4 0 0 6 1777 582 6325 40800006 0 A 0 0 0 0 0 32 0 0 0 0 0 0 1825 0 0 0 0 0 0 0 0 0 0 582 0 0 0 0 z_b_4_1
S 1777 6 4 0 0 6 1782 582 5854 40800006 0 A 0 0 0 0 0 36 0 0 0 0 0 0 1825 0 0 0 0 0 0 0 0 0 0 582 0 0 0 0 z_b_5_1
S 1778 8 4 0 0 514 1786 582 10658 40822064 1020 A 0 0 0 0 0 224 0 0 0 0 0 0 1825 0 0 0 0 0 0 0 0 0 0 582 0 0 0 0 tau_ref$sd
S 1779 6 4 0 0 7 1780 582 10669 40802061 1020 A 0 0 0 0 0 320 0 0 0 0 0 0 1825 0 0 0 0 0 0 0 0 0 0 582 0 0 0 0 tau_ref$p
S 1780 6 4 0 0 7 1778 582 10679 40802060 1020 A 0 0 0 0 0 328 0 0 0 0 0 0 1825 0 0 0 0 0 0 0 0 0 0 582 0 0 0 0 tau_ref$o
S 1781 22 1 0 0 9 1 582 10689 40000000 1000 A 0 0 0 0 0 0 0 1775 0 0 0 0 1778 0 0 0 0 0 0 0 0 0 0 582 0 0 0 0 tau_ref$arrdsc
S 1782 6 4 0 0 6 1783 582 5862 40800006 0 A 0 0 0 0 0 40 0 0 0 0 0 0 1825 0 0 0 0 0 0 0 0 0 0 582 0 0 0 0 z_b_6_1
S 1783 6 4 0 0 6 1790 582 5886 40800006 0 A 0 0 0 0 0 44 0 0 0 0 0 0 1825 0 0 0 0 0 0 0 0 0 0 582 0 0 0 0 z_b_7_1
S 1784 7 6 0 0 517 1 582 5075 10a00004 51 A 0 0 0 0 0 0 1786 0 0 0 1788 0 0 0 0 0 0 0 0 1785 0 0 1787 582 0 0 0 0 vel
S 1785 8 4 0 0 520 1793 582 10704 40822064 1020 A 0 0 0 0 0 336 0 0 0 0 0 0 1825 0 0 0 0 0 0 0 0 0 0 582 0 0 0 0 vel$sd1
S 1786 6 4 0 0 7 1787 582 10712 40802061 1020 A 0 0 0 0 0 432 0 0 0 0 0 0 1825 0 0 0 0 0 0 0 0 0 0 582 0 0 0 0 vel$p2
S 1787 6 4 0 0 7 1785 582 10719 40802060 1020 A 0 0 0 0 0 440 0 0 0 0 0 0 1825 0 0 0 0 0 0 0 0 0 0 582 0 0 0 0 vel$o3
S 1788 22 1 0 0 9 1 582 10726 40000000 1000 A 0 0 0 0 0 0 0 1784 0 0 0 0 1785 0 0 0 0 0 0 0 0 0 0 582 0 0 0 0 vel$arrdsc4
S 1789 7 6 0 0 523 1 582 10738 10a00004 51 A 0 0 0 0 0 0 1793 0 0 0 1795 0 0 0 0 0 0 0 0 1792 0 0 1794 582 0 0 0 0 acc
S 1790 6 4 0 0 6 1791 582 6341 40800006 0 A 0 0 0 0 0 48 0 0 0 0 0 0 1825 0 0 0 0 0 0 0 0 0 0 582 0 0 0 0 z_b_8_1
S 1791 6 4 0 0 6 1797 582 5894 40800006 0 A 0 0 0 0 0 52 0 0 0 0 0 0 1825 0 0 0 0 0 0 0 0 0 0 582 0 0 0 0 z_b_9_1
S 1792 8 4 0 0 526 1800 582 10742 40822064 1020 A 0 0 0 0 0 448 0 0 0 0 0 0 1825 0 0 0 0 0 0 0 0 0 0 582 0 0 0 0 acc$sd
S 1793 6 4 0 0 7 1794 582 10749 40802061 1020 A 0 0 0 0 0 544 0 0 0 0 0 0 1825 0 0 0 0 0 0 0 0 0 0 582 0 0 0 0 acc$p
S 1794 6 4 0 0 7 1792 582 10755 40802060 1020 A 0 0 0 0 0 552 0 0 0 0 0 0 1825 0 0 0 0 0 0 0 0 0 0 582 0 0 0 0 acc$o
S 1795 22 1 0 0 9 1 582 10761 40000000 1000 A 0 0 0 0 0 0 0 1789 0 0 0 0 1792 0 0 0 0 0 0 0 0 0 0 582 0 0 0 0 acc$arrdsc
S 1796 7 6 0 0 529 1 582 10772 10a00004 51 A 0 0 0 0 0 0 1800 0 0 0 1802 0 0 0 0 0 0 0 0 1799 0 0 1801 582 0 0 0 0 chi
S 1797 6 4 0 0 6 1798 582 5902 40800006 0 A 0 0 0 0 0 56 0 0 0 0 0 0 1825 0 0 0 0 0 0 0 0 0 0 582 0 0 0 0 z_b_10_1
S 1798 6 4 0 0 6 1804 582 6109 40800006 0 A 0 0 0 0 0 60 0 0 0 0 0 0 1825 0 0 0 0 0 0 0 0 0 0 582 0 0 0 0 z_b_11_1
S 1799 8 4 0 0 532 1806 582 10776 40822064 1020 A 0 0 0 0 0 560 0 0 0 0 0 0 1825 0 0 0 0 0 0 0 0 0 0 582 0 0 0 0 chi$sd
S 1800 6 4 0 0 7 1801 582 10783 40802061 1020 A 0 0 0 0 0 656 0 0 0 0 0 0 1825 0 0 0 0 0 0 0 0 0 0 582 0 0 0 0 chi$p
S 1801 6 4 0 0 7 1799 582 10789 40802060 1020 A 0 0 0 0 0 664 0 0 0 0 0 0 1825 0 0 0 0 0 0 0 0 0 0 582 0 0 0 0 chi$o
S 1802 22 1 0 0 9 1 582 10795 40000000 1000 A 0 0 0 0 0 0 0 1796 0 0 0 0 1799 0 0 0 0 0 0 0 0 0 0 582 0 0 0 0 chi$arrdsc
S 1803 7 6 0 0 535 1 582 10806 10a00004 51 A 0 0 0 0 0 0 1806 0 0 0 1808 0 0 0 0 0 0 0 0 1805 0 0 1807 582 0 0 0 0 mass
S 1804 6 4 0 0 6 1810 582 5911 40800006 0 A 0 0 0 0 0 64 0 0 0 0 0 0 1825 0 0 0 0 0 0 0 0 0 0 582 0 0 0 0 z_b_12_1
S 1805 8 4 0 0 538 1812 582 10811 40822064 1020 A 0 0 0 0 0 672 0 0 0 0 0 0 1825 0 0 0 0 0 0 0 0 0 0 582 0 0 0 0 mass$sd
S 1806 6 4 0 0 7 1807 582 10819 40802061 1020 A 0 0 0 0 0 744 0 0 0 0 0 0 1825 0 0 0 0 0 0 0 0 0 0 582 0 0 0 0 mass$p
S 1807 6 4 0 0 7 1805 582 10826 40802060 1020 A 0 0 0 0 0 752 0 0 0 0 0 0 1825 0 0 0 0 0 0 0 0 0 0 582 0 0 0 0 mass$o
S 1808 22 1 0 0 6 1 582 10833 40000000 1000 A 0 0 0 0 0 0 0 1803 0 0 0 0 1805 0 0 0 0 0 0 0 0 0 0 582 0 0 0 0 mass$arrdsc
S 1809 7 6 0 0 541 1 582 10845 10a00004 51 A 0 0 0 0 0 0 1812 0 0 0 1814 0 0 0 0 0 0 0 0 1811 0 0 1813 582 0 0 0 0 diff_coeff
S 1810 6 4 0 0 6 1816 582 5920 40800006 0 A 0 0 0 0 0 68 0 0 0 0 0 0 1825 0 0 0 0 0 0 0 0 0 0 582 0 0 0 0 z_b_13_1
S 1811 8 4 0 0 544 1819 582 10856 40822064 1020 A 0 0 0 0 0 760 0 0 0 0 0 0 1825 0 0 0 0 0 0 0 0 0 0 582 0 0 0 0 diff_coeff$sd
S 1812 6 4 0 0 7 1813 582 10870 40802061 1020 A 0 0 0 0 0 832 0 0 0 0 0 0 1825 0 0 0 0 0 0 0 0 0 0 582 0 0 0 0 diff_coeff$p
S 1813 6 4 0 0 7 1811 582 10883 40802060 1020 A 0 0 0 0 0 840 0 0 0 0 0 0 1825 0 0 0 0 0 0 0 0 0 0 582 0 0 0 0 diff_coeff$o
S 1814 22 1 0 0 9 1 582 10896 40000000 1000 A 0 0 0 0 0 0 0 1809 0 0 0 0 1811 0 0 0 0 0 0 0 0 0 0 582 0 0 0 0 diff_coeff$arrdsc
S 1815 7 6 0 0 547 1 582 10914 10a00004 51 A 0 0 0 0 0 0 1819 0 0 0 1821 0 0 0 0 0 0 0 0 1818 0 0 1820 582 0 0 0 0 radial_distr
S 1816 6 4 0 0 6 1817 582 6118 40800006 0 A 0 0 0 0 0 72 0 0 0 0 0 0 1825 0 0 0 0 0 0 0 0 0 0 582 0 0 0 0 z_b_14_1
S 1817 6 4 0 0 6 1 582 5929 40800006 0 A 0 0 0 0 0 76 0 0 0 0 0 0 1825 0 0 0 0 0 0 0 0 0 0 582 0 0 0 0 z_b_15_1
S 1818 8 4 0 0 550 1756 582 10927 40822064 1020 A 0 0 0 0 0 848 0 0 0 0 0 0 1825 0 0 0 0 0 0 0 0 0 0 582 0 0 0 0 radial_distr$sd
S 1819 6 4 0 0 7 1820 582 10943 40802061 1020 A 0 0 0 0 0 944 0 0 0 0 0 0 1825 0 0 0 0 0 0 0 0 0 0 582 0 0 0 0 radial_distr$p
S 1820 6 4 0 0 7 1818 582 10958 40802060 1020 A 0 0 0 0 0 952 0 0 0 0 0 0 1825 0 0 0 0 0 0 0 0 0 0 582 0 0 0 0 radial_distr$o
S 1821 22 1 0 0 9 1 582 10973 40000000 1000 A 0 0 0 0 0 0 0 1815 0 0 0 0 1818 0 0 0 0 0 0 0 0 0 0 582 0 0 0 0 radial_distr$arrdsc
S 1822 16 0 0 0 6 1 582 10993 4 400000 A 0 0 0 0 0 0 0 0 1000 879 0 0 0 0 0 0 0 0 0 0 0 0 0 582 0 0 0 0 hist_len
S 1823 3 0 0 0 6 0 1 0 0 0 A 0 0 0 0 0 0 0 0 0 1000 0 0 0 0 0 0 0 0 0 0 0 0 0 0 0 0 0 0 6
S 1824 11 0 0 0 9 1645 582 11002 40800000 801000 A 0 0 0 0 0 32 0 0 1752 1755 0 0 0 0 0 0 0 0 0 0 0 0 0 0 0 0 0 0 _dynamics_module$2
S 1825 11 0 0 0 9 1824 582 11021 40800000 801000 A 0 0 0 0 0 1040 0 0 1765 1817 0 0 0 0 0 0 0 0 0 0 0 0 0 0 0 0 0 0 _dynamics_module$0
S 1826 11 0 0 0 9 1825 582 11040 40800000 801000 A 0 0 0 0 0 10 0 0 1760 1760 0 0 0 0 0 0 0 0 0 0 0 0 0 0 0 0 0 0 _dynamics_module$1
S 1827 23 5 0 0 0 1828 582 11059 0 0 A 0 0 0 0 0 0 0 0 0 0 0 0 0 0 0 0 0 0 0 0 0 0 0 0 0 0 0 0 allocate_dyn_vars
S 1828 14 5 0 0 0 1 1827 11059 0 400000 A 0 0 0 0 0 0 0 162 0 0 0 0 0 0 0 0 0 0 0 0 0 75 0 582 0 0 0 0 allocate_dyn_vars
F 1828 0
S 1829 23 5 0 0 0 1830 582 11077 0 0 A 0 0 0 0 0 0 0 0 0 0 0 0 0 0 0 0 0 0 0 0 0 0 0 0 0 0 0 0 deallocate_dyn_vars
S 1830 14 5 0 0 0 1 1829 11077 0 400000 A 0 0 0 0 0 0 0 163 0 0 0 0 0 0 0 0 0 0 0 0 0 100 0 582 0 0 0 0 deallocate_dyn_vars
F 1830 0
S 1831 23 5 0 0 0 1832 582 11097 0 0 A 0 0 0 0 0 0 0 0 0 0 0 0 0 0 0 0 0 0 0 0 0 0 0 0 0 0 0 0 verlet
S 1832 14 5 0 0 0 1 1831 11097 0 400000 A 0 0 0 0 0 0 0 164 0 0 0 0 0 0 0 0 0 0 0 0 0 118 0 582 0 0 0 0 verlet
F 1832 0
S 1833 23 5 0 0 0 1834 582 11104 0 0 A 0 0 0 0 0 0 0 0 0 0 0 0 0 0 0 0 0 0 0 0 0 0 0 0 0 0 0 0 proj_verlet
S 1834 14 5 0 0 0 1 1833 11104 0 400000 A 0 0 0 0 0 0 0 165 0 0 0 0 0 0 0 0 0 0 0 0 0 573 0 582 0 0 0 0 proj_verlet
F 1834 0
S 1835 23 5 0 0 0 1836 582 11116 0 0 A 0 0 0 0 0 0 0 0 0 0 0 0 0 0 0 0 0 0 0 0 0 0 0 0 0 0 0 0 langevin_md
S 1836 14 5 0 0 0 1 1835 11116 0 400000 A 0 0 0 0 0 0 0 166 0 0 0 0 0 0 0 0 0 0 0 0 0 772 0 582 0 0 0 0 langevin_md
F 1836 0
S 1837 23 5 0 0 0 1838 582 11128 0 0 A 0 0 0 0 0 0 0 0 0 0 0 0 0 0 0 0 0 0 0 0 0 0 0 0 0 0 0 0 refold_tau
S 1838 14 5 0 0 0 1 1837 11128 0 400000 A 0 0 0 0 0 0 0 167 0 0 0 0 0 0 0 0 0 0 0 0 0 944 0 582 0 0 0 0 refold_tau
F 1838 0
S 1839 23 5 0 0 0 1841 582 11139 0 0 A 0 0 0 0 0 0 0 0 0 0 0 0 0 0 0 0 0 0 0 0 0 0 0 0 0 0 0 0 compute_averages
S 1840 1 3 1 0 6 1 1839 9844 4 3000 A 0 0 0 0 0 0 0 0 0 0 0 0 0 0 0 0 0 0 0 0 0 0 0 0 0 0 0 0 istep
S 1841 14 5 0 0 0 1 1839 11139 0 400000 A 0 0 0 0 0 0 0 168 1 0 0 0 0 0 0 0 0 0 0 0 0 965 0 582 0 0 0 0 compute_averages
F 1841 1 1840
S 1842 23 5 0 0 0 1843 582 11156 0 0 A 0 0 0 0 0 0 0 0 0 0 0 0 0 0 0 0 0 0 0 0 0 0 0 0 0 0 0 0 print_averages
S 1843 14 5 0 0 0 1 1842 11156 0 400000 A 0 0 0 0 0 0 0 170 0 0 0 0 0 0 0 0 0 0 0 0 0 1049 0 582 0 0 0 0 print_averages
F 1843 0
S 1844 23 5 0 0 0 1848 582 11171 0 0 A 0 0 0 0 0 0 0 0 0 0 0 0 0 0 0 0 0 0 0 0 0 0 0 0 0 0 0 0 force_precond
S 1845 1 3 1 0 6 1 1844 9844 4 3000 A 0 0 0 0 0 0 0 0 0 0 0 0 0 0 0 0 0 0 0 0 0 0 0 0 0 0 0 0 istep
S 1846 7 3 3 0 553 1 1844 8995 20000004 10003000 A 0 0 0 0 0 0 0 0 0 0 0 0 0 0 0 0 0 0 0 0 0 0 0 0 0 0 0 0 force
S 1847 1 3 1 0 9 1 1844 11185 4 3000 A 0 0 0 0 0 0 0 0 0 0 0 0 0 0 0 0 0 0 0 0 0 0 0 0 0 0 0 0 etotold
S 1848 14 5 0 0 0 1 1844 11171 20000000 400000 A 0 0 0 0 0 0 0 171 3 0 0 0 0 0 0 0 0 0 0 0 0 1110 0 582 0 0 0 0 force_precond
F 1848 3 1845 1846 1847
S 1849 6 1 0 0 6 1 1844 11193 40800006 3000 A 0 0 0 0 0 0 0 0 0 0 0 0 0 0 0 0 0 0 0 0 0 0 0 0 0 0 0 0 z_b_0_2
S 1850 6 1 0 0 6 1 1844 11201 40800006 3000 A 0 0 0 0 0 0 0 0 0 0 0 0 0 0 0 0 0 0 0 0 0 0 0 0 0 0 0 0 z_b_2_2
S 1851 6 1 0 0 6 1 1844 11209 40800006 3000 A 0 0 0 0 0 0 0 0 0 0 0 0 0 0 0 0 0 0 0 0 0 0 0 0 0 0 0 0 z_b_3_2
S 1852 6 1 0 0 6 1 1844 11217 40800006 3000 A 0 0 0 0 0 0 0 0 0 0 0 0 0 0 0 0 0 0 0 0 0 0 0 0 0 0 0 0 z_b_5_2
S 1853 6 1 0 0 6 1 1844 11225 40800006 3000 A 0 0 0 0 0 0 0 0 0 0 0 0 0 0 0 0 0 0 0 0 0 0 0 0 0 0 0 0 z_b_6_2
S 1854 6 1 0 0 6 1 1844 11233 40800006 3000 A 0 0 0 0 0 0 0 0 0 0 0 0 0 0 0 0 0 0 0 0 0 0 0 0 0 0 0 0 z_e_996
S 1855 6 1 0 0 6 1 1844 11241 40800006 3000 A 0 0 0 0 0 0 0 0 0 0 0 0 0 0 0 0 0 0 0 0 0 0 0 0 0 0 0 0 z_e_999
S 1856 23 5 0 0 0 1857 582 11249 0 0 A 0 0 0 0 0 0 0 0 0 0 0 0 0 0 0 0 0 0 0 0 0 0 0 0 0 0 0 0 project_velocity
S 1857 14 5 0 0 0 1 1856 11249 0 400000 A 0 0 0 0 0 0 0 175 0 0 0 0 0 0 0 0 0 0 0 0 0 1246 0 582 0 0 0 0 project_velocity
F 1857 0
S 1858 23 5 0 0 0 1859 582 11266 0 0 A 0 0 0 0 0 0 0 0 0 0 0 0 0 0 0 0 0 0 0 0 0 0 0 0 0 0 0 0 start_therm
S 1859 14 5 0 0 0 1 1858 11266 0 400000 A 0 0 0 0 0 0 0 176 0 0 0 0 0 0 0 0 0 0 0 0 0 1284 0 582 0 0 0 0 start_therm
F 1859 0
S 1860 23 5 0 0 0 1864 582 11278 0 0 A 0 0 0 0 0 0 0 0 0 0 0 0 0 0 0 0 0 0 0 0 0 0 0 0 0 0 0 0 thermalize
S 1861 1 3 1 0 9 1 1860 11289 4 3000 A 0 0 0 0 0 0 0 0 0 0 0 0 0 0 0 0 0 0 0 0 0 0 0 0 0 0 0 0 system_temp
S 1862 1 3 1 0 9 1 1860 11301 4 3000 A 0 0 0 0 0 0 0 0 0 0 0 0 0 0 0 0 0 0 0 0 0 0 0 0 0 0 0 0 required_temp
S 1863 1 3 1 0 6 1 1860 10487 4 3000 A 0 0 0 0 0 0 0 0 0 0 0 0 0 0 0 0 0 0 0 0 0 0 0 0 0 0 0 0 nraise
S 1864 14 5 0 0 0 1 1860 11278 0 400000 A 0 0 0 0 0 0 0 177 3 0 0 0 0 0 0 0 0 0 0 0 0 1399 0 582 0 0 0 0 thermalize
F 1864 3 1863 1861 1862
A 13 2 0 0 0 6 604 0 0 0 13 0 0 0 0 0 0 0 0 0
A 18 2 0 0 0 6 614 0 0 0 18 0 0 0 0 0 0 0 0 0
A 25 2 0 0 0 6 618 0 0 0 25 0 0 0 0 0 0 0 0 0
A 34 2 0 0 0 6 631 0 0 0 34 0 0 0 0 0 0 0 0 0
A 37 2 0 0 0 6 632 0 0 0 37 0 0 0 0 0 0 0 0 0
A 39 2 0 0 0 6 633 0 0 0 39 0 0 0 0 0 0 0 0 0
A 43 2 0 0 0 6 634 0 0 0 43 0 0 0 0 0 0 0 0 0
A 46 2 0 0 0 6 635 0 0 0 46 0 0 0 0 0 0 0 0 0
A 54 2 0 0 0 6 636 0 0 0 54 0 0 0 0 0 0 0 0 0
A 56 2 0 0 0 6 637 0 0 0 56 0 0 0 0 0 0 0 0 0
A 60 2 0 0 0 6 638 0 0 0 60 0 0 0 0 0 0 0 0 0
A 758 1 0 3 659 502 1764 0 0 0 0 0 0 0 0 0 0 0 0 0
A 759 10 0 0 547 6 758 4 0 0 0 0 0 0 0 0 0 0 0 0
X 1 37
A 760 10 0 0 759 6 758 7 0 0 0 0 0 0 0 0 0 0 0 0
X 1 39
A 761 4 0 0 232 6 760 0 3 0 0 0 0 2 0 0 0 0 0 0
A 762 4 0 0 533 6 759 0 761 0 0 0 0 1 0 0 0 0 0 0
A 763 10 0 0 760 6 758 16 0 0 0 0 0 0 0 0 0 0 0 0
X 1 54
A 764 10 0 0 763 6 758 19 0 0 0 0 0 0 0 0 0 0 0 0
X 1 56
A 765 4 0 0 237 6 764 0 3 0 0 0 0 2 0 0 0 0 0 0
A 766 4 0 0 186 6 763 0 765 0 0 0 0 1 0 0 0 0 0 0
A 767 10 0 0 764 6 758 10 0 0 0 0 0 0 0 0 0 0 0 0
X 1 43
A 768 10 0 0 767 6 758 22 0 0 0 0 0 0 0 0 0 0 0 0
X 1 60
A 769 10 0 0 768 6 758 13 0 0 0 0 0 0 0 0 0 0 0 0
X 1 25
A 770 10 0 0 769 6 758 1 0 0 0 0 0 0 0 0 0 0 0 0
X 1 13
A 773 1 0 3 669 508 1771 0 0 0 0 0 0 0 0 0 0 0 0 0
A 774 10 0 0 0 6 773 4 0 0 0 0 0 0 0 0 0 0 0 0
X 1 37
A 775 10 0 0 774 6 773 7 0 0 0 0 0 0 0 0 0 0 0 0
X 1 39
A 776 4 0 0 242 6 775 0 3 0 0 0 0 2 0 0 0 0 0 0
A 777 4 0 0 565 6 774 0 776 0 0 0 0 1 0 0 0 0 0 0
A 778 10 0 0 775 6 773 16 0 0 0 0 0 0 0 0 0 0 0 0
X 1 54
A 779 10 0 0 778 6 773 19 0 0 0 0 0 0 0 0 0 0 0 0
X 1 56
A 780 4 0 0 241 6 779 0 3 0 0 0 0 2 0 0 0 0 0 0
A 781 4 0 0 425 6 778 0 780 0 0 0 0 1 0 0 0 0 0 0
A 782 10 0 0 779 6 773 10 0 0 0 0 0 0 0 0 0 0 0 0
X 1 43
A 783 10 0 0 782 6 773 22 0 0 0 0 0 0 0 0 0 0 0 0
X 1 60
A 784 10 0 0 783 6 773 13 0 0 0 0 0 0 0 0 0 0 0 0
X 1 25
A 785 10 0 0 784 6 773 1 0 0 0 0 0 0 0 0 0 0 0 0
X 1 13
A 788 1 0 3 231 514 1778 0 0 0 0 0 0 0 0 0 0 0 0 0
A 789 10 0 0 203 6 788 4 0 0 0 0 0 0 0 0 0 0 0 0
X 1 37
A 790 10 0 0 789 6 788 7 0 0 0 0 0 0 0 0 0 0 0 0
X 1 39
A 791 4 0 0 0 6 790 0 3 0 0 0 0 2 0 0 0 0 0 0
A 792 4 0 0 264 6 789 0 791 0 0 0 0 1 0 0 0 0 0 0
A 793 10 0 0 790 6 788 16 0 0 0 0 0 0 0 0 0 0 0 0
X 1 54
A 794 10 0 0 793 6 788 19 0 0 0 0 0 0 0 0 0 0 0 0
X 1 56
A 795 4 0 0 0 6 794 0 3 0 0 0 0 2 0 0 0 0 0 0
A 796 4 0 0 286 6 793 0 795 0 0 0 0 1 0 0 0 0 0 0
A 797 10 0 0 794 6 788 10 0 0 0 0 0 0 0 0 0 0 0 0
X 1 43
A 798 10 0 0 797 6 788 22 0 0 0 0 0 0 0 0 0 0 0 0
X 1 60
A 799 10 0 0 798 6 788 13 0 0 0 0 0 0 0 0 0 0 0 0
X 1 25
A 800 10 0 0 799 6 788 1 0 0 0 0 0 0 0 0 0 0 0 0
X 1 13
A 803 1 0 3 238 520 1785 0 0 0 0 0 0 0 0 0 0 0 0 0
A 804 10 0 0 0 6 803 4 0 0 0 0 0 0 0 0 0 0 0 0
X 1 37
A 805 10 0 0 804 6 803 7 0 0 0 0 0 0 0 0 0 0 0 0
X 1 39
A 806 4 0 0 252 6 805 0 3 0 0 0 0 2 0 0 0 0 0 0
A 807 4 0 0 0 6 804 0 806 0 0 0 0 1 0 0 0 0 0 0
A 808 10 0 0 805 6 803 16 0 0 0 0 0 0 0 0 0 0 0 0
X 1 54
A 809 10 0 0 808 6 803 19 0 0 0 0 0 0 0 0 0 0 0 0
X 1 56
A 810 4 0 0 259 6 809 0 3 0 0 0 0 2 0 0 0 0 0 0
A 811 4 0 0 762 6 808 0 810 0 0 0 0 1 0 0 0 0 0 0
A 812 10 0 0 809 6 803 10 0 0 0 0 0 0 0 0 0 0 0 0
X 1 43
A 813 10 0 0 812 6 803 22 0 0 0 0 0 0 0 0 0 0 0 0
X 1 60
A 814 10 0 0 813 6 803 13 0 0 0 0 0 0 0 0 0 0 0 0
X 1 25
A 815 10 0 0 814 6 803 1 0 0 0 0 0 0 0 0 0 0 0 0
X 1 13
A 818 1 0 3 247 526 1792 0 0 0 0 0 0 0 0 0 0 0 0 0
A 819 10 0 0 222 6 818 4 0 0 0 0 0 0 0 0 0 0 0 0
X 1 37
A 820 10 0 0 819 6 818 7 0 0 0 0 0 0 0 0 0 0 0 0
X 1 39
A 821 4 0 0 268 6 820 0 3 0 0 0 0 2 0 0 0 0 0 0
A 822 4 0 0 0 6 819 0 821 0 0 0 0 1 0 0 0 0 0 0
A 823 10 0 0 820 6 818 16 0 0 0 0 0 0 0 0 0 0 0 0
X 1 54
A 824 10 0 0 823 6 818 19 0 0 0 0 0 0 0 0 0 0 0 0
X 1 56
A 825 4 0 0 272 6 824 0 3 0 0 0 0 2 0 0 0 0 0 0
A 826 4 0 0 415 6 823 0 825 0 0 0 0 1 0 0 0 0 0 0
A 827 10 0 0 824 6 818 10 0 0 0 0 0 0 0 0 0 0 0 0
X 1 43
A 828 10 0 0 827 6 818 22 0 0 0 0 0 0 0 0 0 0 0 0
X 1 60
A 829 10 0 0 828 6 818 13 0 0 0 0 0 0 0 0 0 0 0 0
X 1 25
A 830 10 0 0 829 6 818 1 0 0 0 0 0 0 0 0 0 0 0 0
X 1 13
A 833 1 0 3 747 532 1799 0 0 0 0 0 0 0 0 0 0 0 0 0
A 834 10 0 0 788 6 833 4 0 0 0 0 0 0 0 0 0 0 0 0
X 1 37
A 835 10 0 0 834 6 833 7 0 0 0 0 0 0 0 0 0 0 0 0
X 1 39
A 836 4 0 0 283 6 835 0 3 0 0 0 0 2 0 0 0 0 0 0
A 837 4 0 0 288 6 834 0 836 0 0 0 0 1 0 0 0 0 0 0
A 838 10 0 0 835 6 833 16 0 0 0 0 0 0 0 0 0 0 0 0
X 1 54
A 839 10 0 0 838 6 833 19 0 0 0 0 0 0 0 0 0 0 0 0
X 1 56
A 840 4 0 0 552 6 839 0 3 0 0 0 0 2 0 0 0 0 0 0
A 841 4 0 0 299 6 838 0 840 0 0 0 0 1 0 0 0 0 0 0
A 842 10 0 0 839 6 833 10 0 0 0 0 0 0 0 0 0 0 0 0
X 1 43
A 843 10 0 0 842 6 833 22 0 0 0 0 0 0 0 0 0 0 0 0
X 1 60
A 844 10 0 0 843 6 833 13 0 0 0 0 0 0 0 0 0 0 0 0
X 1 25
A 845 10 0 0 844 6 833 1 0 0 0 0 0 0 0 0 0 0 0 0
X 1 13
A 847 1 0 1 532 538 1805 0 0 0 0 0 0 0 0 0 0 0 0 0
A 848 10 0 0 818 6 847 4 0 0 0 0 0 0 0 0 0 0 0 0
X 1 37
A 849 10 0 0 848 6 847 7 0 0 0 0 0 0 0 0 0 0 0 0
X 1 39
A 850 4 0 0 0 6 849 0 3 0 0 0 0 2 0 0 0 0 0 0
A 851 4 0 0 617 6 848 0 850 0 0 0 0 1 0 0 0 0 0 0
A 852 10 0 0 849 6 847 10 0 0 0 0 0 0 0 0 0 0 0 0
X 1 43
A 853 10 0 0 852 6 847 13 0 0 0 0 0 0 0 0 0 0 0 0
X 1 25
A 854 10 0 0 853 6 847 1 0 0 0 0 0 0 0 0 0 0 0 0
X 1 13
A 856 1 0 1 414 544 1811 0 0 0 0 0 0 0 0 0 0 0 0 0
A 857 10 0 0 0 6 856 4 0 0 0 0 0 0 0 0 0 0 0 0
X 1 37
A 858 10 0 0 857 6 856 7 0 0 0 0 0 0 0 0 0 0 0 0
X 1 39
A 859 4 0 0 695 6 858 0 3 0 0 0 0 2 0 0 0 0 0 0
A 860 4 0 0 756 6 857 0 859 0 0 0 0 1 0 0 0 0 0 0
A 861 10 0 0 858 6 856 10 0 0 0 0 0 0 0 0 0 0 0 0
X 1 43
A 862 10 0 0 861 6 856 13 0 0 0 0 0 0 0 0 0 0 0 0
X 1 25
A 863 10 0 0 862 6 856 1 0 0 0 0 0 0 0 0 0 0 0 0
X 1 13
A 866 1 0 3 420 550 1818 0 0 0 0 0 0 0 0 0 0 0 0 0
A 867 10 0 0 0 6 866 4 0 0 0 0 0 0 0 0 0 0 0 0
X 1 37
A 868 10 0 0 867 6 866 7 0 0 0 0 0 0 0 0 0 0 0 0
X 1 39
A 869 4 0 0 303 6 868 0 3 0 0 0 0 2 0 0 0 0 0 0
A 870 4 0 0 0 6 867 0 869 0 0 0 0 1 0 0 0 0 0 0
A 871 10 0 0 868 6 866 16 0 0 0 0 0 0 0 0 0 0 0 0
X 1 54
A 872 10 0 0 871 6 866 19 0 0 0 0 0 0 0 0 0 0 0 0
X 1 56
A 873 4 0 0 313 6 872 0 3 0 0 0 0 2 0 0 0 0 0 0
A 874 4 0 0 243 6 871 0 873 0 0 0 0 1 0 0 0 0 0 0
A 875 10 0 0 872 6 866 10 0 0 0 0 0 0 0 0 0 0 0 0
X 1 43
A 876 10 0 0 875 6 866 22 0 0 0 0 0 0 0 0 0 0 0 0
X 1 60
A 877 10 0 0 876 6 866 13 0 0 0 0 0 0 0 0 0 0 0 0
X 1 25
A 878 10 0 0 877 6 866 1 0 0 0 0 0 0 0 0 0 0 0 0
X 1 13
A 879 2 0 0 859 6 1823 0 0 0 879 0 0 0 0 0 0 0 0 0
A 881 1 0 0 245 6 1853 0 0 0 0 0 0 0 0 0 0 0 0 0
A 882 1 0 0 240 6 1849 0 0 0 0 0 0 0 0 0 0 0 0 0
A 883 1 0 0 244 6 1854 0 0 0 0 0 0 0 0 0 0 0 0 0
A 884 1 0 0 239 6 1851 0 0 0 0 0 0 0 0 0 0 0 0 0
A 885 1 0 0 765 6 1850 0 0 0 0 0 0 0 0 0 0 0 0 0
A 886 1 0 0 854 6 1855 0 0 0 0 0 0 0 0 0 0 0 0 0
A 887 1 0 0 776 6 1852 0 0 0 0 0 0 0 0 0 0 0 0 0
Z
Z
