V26 ener
9 pwcom.F90 S582 0
04/24/2012  15:53:20
use kinds private
use kinds private
enduse
S 582 24 0 0 0 9 1 0 4658 5 0 A 0 0 0 0 0 0 0 0 0 0 0 0 349 0 0 0 0 0 0 0 0 327 0 0 0 0 0 0 ener
S 584 23 0 0 0 9 587 582 4669 4 0 A 0 0 0 0 0 0 0 0 0 0 0 0 0 0 0 0 0 0 0 0 0 0 0 582 0 0 0 0 dp
R 587 16 1 kinds dp
S 594 6 4 0 0 9 595 582 4703 4 0 A 0 0 0 0 0 0 0 0 0 0 0 0 608 0 0 0 0 0 0 0 0 0 0 582 0 0 0 0 etot
S 595 6 4 0 0 9 596 582 4708 4 0 A 0 0 0 0 0 8 0 0 0 0 0 0 608 0 0 0 0 0 0 0 0 0 0 582 0 0 0 0 hwf_energy
S 596 6 4 0 0 9 597 582 4719 4 0 A 0 0 0 0 0 16 0 0 0 0 0 0 608 0 0 0 0 0 0 0 0 0 0 582 0 0 0 0 eband
S 597 6 4 0 0 9 598 582 4725 4 0 A 0 0 0 0 0 24 0 0 0 0 0 0 608 0 0 0 0 0 0 0 0 0 0 582 0 0 0 0 deband
S 598 6 4 0 0 9 599 582 4732 4 0 A 0 0 0 0 0 32 0 0 0 0 0 0 608 0 0 0 0 0 0 0 0 0 0 582 0 0 0 0 ehart
S 599 6 4 0 0 9 600 582 4738 4 0 A 0 0 0 0 0 40 0 0 0 0 0 0 608 0 0 0 0 0 0 0 0 0 0 582 0 0 0 0 etxc
S 600 6 4 0 0 9 601 582 4743 4 0 A 0 0 0 0 0 48 0 0 0 0 0 0 608 0 0 0 0 0 0 0 0 0 0 582 0 0 0 0 vtxc
S 601 6 4 0 0 9 602 582 4748 4 0 A 0 0 0 0 0 56 0 0 0 0 0 0 608 0 0 0 0 0 0 0 0 0 0 582 0 0 0 0 etxcc
S 602 6 4 0 0 9 603 582 4754 4 0 A 0 0 0 0 0 64 0 0 0 0 0 0 608 0 0 0 0 0 0 0 0 0 0 582 0 0 0 0 ewld
S 603 6 4 0 0 9 604 582 4759 4 0 A 0 0 0 0 0 72 0 0 0 0 0 0 608 0 0 0 0 0 0 0 0 0 0 582 0 0 0 0 demet
S 604 6 4 0 0 9 605 582 4765 4 0 A 0 0 0 0 0 80 0 0 0 0 0 0 608 0 0 0 0 0 0 0 0 0 0 582 0 0 0 0 epaw
S 605 6 4 0 0 9 606 582 4770 4 0 A 0 0 0 0 0 88 0 0 0 0 0 0 608 0 0 0 0 0 0 0 0 0 0 582 0 0 0 0 ef
S 606 6 4 0 0 9 607 582 4773 4 0 A 0 0 0 0 0 96 0 0 0 0 0 0 608 0 0 0 0 0 0 0 0 0 0 582 0 0 0 0 ef_up
S 607 6 4 0 0 9 1 582 4779 4 0 A 0 0 0 0 0 104 0 0 0 0 0 0 608 0 0 0 0 0 0 0 0 0 0 582 0 0 0 0 ef_dw
S 608 11 0 0 0 9 1 582 4785 40800000 801000 A 0 0 0 0 0 112 0 0 594 607 0 0 0 0 0 0 0 0 0 0 0 0 0 0 0 0 0 0 _ener$2
Z
Z
