V26 extfield
9 pwcom.F90 S582 0
04/24/2012  15:53:20
use kinds private
use kinds private
enduse
D 56 21 9 2 39 38 0 1 0 0 1
 22 26 34 22 26 24
 28 32 36 28 32 30
D 59 21 6 1 0 19 0 0 0 0 0
 0 19 0 3 19 0
S 582 24 0 0 0 9 1 0 4658 5 0 A 0 0 0 0 0 0 0 0 0 0 0 0 507 0 0 0 0 0 0 0 0 485 0 0 0 0 0 0 extfield
S 584 23 0 0 0 9 587 582 4673 4 0 A 0 0 0 0 0 0 0 0 0 0 0 0 0 0 0 0 0 0 0 0 0 0 0 582 0 0 0 0 dp
S 585 3 0 0 0 6 1 1 0 0 0 A 0 0 0 0 0 0 0 0 0 8 0 0 0 0 0 0 0 0 0 0 0 0 0 0 0 0 0 0 6
R 587 16 1 kinds dp
S 594 6 4 0 0 16 595 582 4707 4 0 A 0 0 0 0 0 0 0 0 0 0 0 0 616 0 0 0 0 0 0 0 0 0 0 582 0 0 0 0 tefield
S 595 6 4 0 0 16 596 582 4715 4 0 A 0 0 0 0 0 4 0 0 0 0 0 0 616 0 0 0 0 0 0 0 0 0 0 582 0 0 0 0 dipfield
S 596 6 4 0 0 6 602 582 4724 4 0 A 0 0 0 0 0 8 0 0 0 0 0 0 616 0 0 0 0 0 0 0 0 0 0 582 0 0 0 0 edir
S 597 6 4 0 0 9 598 582 4729 4 0 A 0 0 0 0 0 0 0 0 0 0 0 0 617 0 0 0 0 0 0 0 0 0 0 582 0 0 0 0 emaxpos
S 598 6 4 0 0 9 599 582 4737 4 0 A 0 0 0 0 0 8 0 0 0 0 0 0 617 0 0 0 0 0 0 0 0 0 0 582 0 0 0 0 eopreg
S 599 6 4 0 0 9 600 582 4744 4 0 A 0 0 0 0 0 16 0 0 0 0 0 0 617 0 0 0 0 0 0 0 0 0 0 582 0 0 0 0 eamp
S 600 6 4 0 0 9 1 582 4749 4 0 A 0 0 0 0 0 24 0 0 0 0 0 0 617 0 0 0 0 0 0 0 0 0 0 582 0 0 0 0 etotefield
S 601 7 6 0 0 56 1 582 4760 10a00004 51 A 0 0 0 0 0 0 606 0 0 0 608 0 0 0 0 0 0 0 0 605 0 0 607 582 0 0 0 0 forcefield
S 602 6 4 0 0 6 603 582 4771 40800006 0 A 0 0 0 0 0 12 0 0 0 0 0 0 616 0 0 0 0 0 0 0 0 0 0 582 0 0 0 0 z_b_0
S 603 6 4 0 0 6 1 582 4777 40800006 0 A 0 0 0 0 0 16 0 0 0 0 0 0 616 0 0 0 0 0 0 0 0 0 0 582 0 0 0 0 z_b_1
S 604 3 0 0 0 6 0 1 0 0 0 A 0 0 0 0 0 0 0 0 0 24 0 0 0 0 0 0 0 0 0 0 0 0 0 0 0 0 0 0 6
S 605 8 4 0 0 59 594 582 4783 40822064 1020 A 0 0 0 0 0 0 0 0 0 0 0 0 616 0 0 0 0 0 0 0 0 0 0 582 0 0 0 0 forcefield$sd
S 606 6 4 0 0 7 607 582 4797 40802061 1020 A 0 0 0 0 0 96 0 0 0 0 0 0 616 0 0 0 0 0 0 0 0 0 0 582 0 0 0 0 forcefield$p
S 607 6 4 0 0 7 605 582 4810 40802060 1020 A 0 0 0 0 0 104 0 0 0 0 0 0 616 0 0 0 0 0 0 0 0 0 0 582 0 0 0 0 forcefield$o
S 608 22 1 0 0 9 1 582 4823 40000000 1000 A 0 0 0 0 0 0 0 601 0 0 0 0 605 0 0 0 0 0 0 0 0 0 0 582 0 0 0 0 forcefield$arrdsc
S 609 3 0 0 0 6 0 1 0 0 0 A 0 0 0 0 0 0 0 0 0 13 0 0 0 0 0 0 0 0 0 0 0 0 0 0 0 0 0 0 6
S 610 3 0 0 0 6 0 1 0 0 0 A 0 0 0 0 0 0 0 0 0 14 0 0 0 0 0 0 0 0 0 0 0 0 0 0 0 0 0 0 6
S 611 3 0 0 0 6 0 1 0 0 0 A 0 0 0 0 0 0 0 0 0 19 0 0 0 0 0 0 0 0 0 0 0 0 0 0 0 0 0 0 6
S 612 3 0 0 0 6 0 1 0 0 0 A 0 0 0 0 0 0 0 0 0 20 0 0 0 0 0 0 0 0 0 0 0 0 0 0 0 0 0 0 6
S 613 3 0 0 0 6 0 1 0 0 0 A 0 0 0 0 0 0 0 0 0 17 0 0 0 0 0 0 0 0 0 0 0 0 0 0 0 0 0 0 6
S 614 3 0 0 0 6 0 1 0 0 0 A 0 0 0 0 0 0 0 0 0 23 0 0 0 0 0 0 0 0 0 0 0 0 0 0 0 0 0 0 6
S 615 3 0 0 0 6 0 1 0 0 0 A 0 0 0 0 0 0 0 0 0 7 0 0 0 0 0 0 0 0 0 0 0 0 0 0 0 0 0 0 6
S 616 11 0 0 0 9 1 582 4841 40800000 801000 A 0 0 0 0 0 132 0 0 606 603 0 0 0 0 0 0 0 0 0 0 0 0 0 0 0 0 0 0 _extfield$0
S 617 11 0 0 0 9 616 582 4853 40800000 801000 A 0 0 0 0 0 32 0 0 597 600 0 0 0 0 0 0 0 0 0 0 0 0 0 0 0 0 0 0 _extfield$2
A 13 2 0 0 0 6 585 0 0 0 13 0 0 0 0 0 0 0 0 0
A 19 2 0 0 0 6 604 0 0 0 19 0 0 0 0 0 0 0 0 0
A 20 2 0 0 0 6 609 0 0 0 20 0 0 0 0 0 0 0 0 0
A 21 1 0 1 0 59 605 0 0 0 0 0 0 0 0 0 0 0 0 0
A 22 10 0 0 0 6 21 1 0 0 0 0 0 0 0 0 0 0 0 0
X 1 20
A 23 2 0 0 0 6 610 0 0 0 23 0 0 0 0 0 0 0 0 0
A 24 10 0 0 22 6 21 4 0 0 0 0 0 0 0 0 0 0 0 0
X 1 23
A 25 4 0 0 0 6 24 0 3 0 0 0 0 2 0 0 0 0 0 0
A 26 4 0 0 23 6 22 0 25 0 0 0 0 1 0 0 0 0 0 0
A 27 2 0 0 0 6 611 0 0 0 27 0 0 0 0 0 0 0 0 0
A 28 10 0 0 24 6 21 7 0 0 0 0 0 0 0 0 0 0 0 0
X 1 27
A 29 2 0 0 0 6 612 0 0 0 29 0 0 0 0 0 0 0 0 0
A 30 10 0 0 28 6 21 10 0 0 0 0 0 0 0 0 0 0 0 0
X 1 29
A 31 4 0 0 0 6 30 0 3 0 0 0 0 2 0 0 0 0 0 0
A 32 4 0 0 0 6 28 0 31 0 0 0 0 1 0 0 0 0 0 0
A 33 2 0 0 0 6 613 0 0 0 33 0 0 0 0 0 0 0 0 0
A 34 10 0 0 30 6 21 13 0 0 0 0 0 0 0 0 0 0 0 0
X 1 33
A 35 2 0 0 0 6 614 0 0 0 35 0 0 0 0 0 0 0 0 0
A 36 10 0 0 34 6 21 16 0 0 0 0 0 0 0 0 0 0 0 0
X 1 35
A 37 2 0 0 0 6 615 0 0 0 37 0 0 0 0 0 0 0 0 0
A 38 10 0 0 36 6 21 19 0 0 0 0 0 0 0 0 0 0 0 0
X 1 37
A 39 10 0 0 38 6 21 22 0 0 0 0 0 0 0 0 0 0 0 0
X 1 13
Z
Z
