V26 exx
7 exx.F90 S582 0
04/24/2012  15:54:13
use kinds private
use kinds private
enduse
D 56 21 9 2 46 45 0 1 0 0 1
 29 33 41 29 33 31
 35 39 43 35 39 37
D 59 21 6 1 0 26 0 0 0 0 0
 0 26 0 3 26 0
D 62 21 9 2 61 60 0 1 0 0 1
 50 53 58 50 53 51
 54 57 59 54 57 55
D 65 21 6 1 0 26 0 0 0 0 0
 0 26 0 3 26 0
D 68 21 6 2 76 75 0 1 0 0 1
 65 68 73 65 68 66
 69 72 74 69 72 70
D 71 21 6 1 0 26 0 0 0 0 0
 0 26 0 3 26 0
D 74 21 6 1 86 85 0 1 0 0 1
 80 83 84 80 83 81
D 77 21 6 1 0 78 0 0 0 0 0
 0 78 0 3 78 0
D 80 21 6 1 95 94 0 1 0 0 1
 89 92 93 89 92 90
D 83 21 6 1 0 78 0 0 0 0 0
 0 78 0 3 78 0
D 86 21 12 2 106 111 0 0 1 0 0
 0 107 3 3 108 108
 0 109 108 3 110 110
D 89 21 12 2 106 111 0 0 1 0 0
 0 107 3 3 108 108
 0 109 108 3 110 110
S 582 24 0 0 0 9 1 0 4658 10005 0 A 0 0 0 0 0 0 0 0 0 0 0 0 0 0 0 0 0 0 0 0 0 26 0 0 0 0 0 0 exx
S 584 23 0 0 0 9 587 582 4668 4 0 A 0 0 0 0 0 0 0 0 0 0 0 0 0 0 0 0 0 0 0 0 0 0 0 582 0 0 0 0 dp
S 585 3 0 0 0 6 1 1 0 0 0 A 0 0 0 0 0 0 0 0 0 8 0 0 0 0 0 0 0 0 0 0 0 0 0 0 0 0 0 0 6
R 587 16 1 kinds dp
S 594 6 4 0 0 9 595 582 4702 80000c 0 A 0 0 0 0 0 0 0 0 0 0 0 0 656 0 0 0 0 0 0 0 0 0 0 582 0 0 0 0 exxalfa
S 595 6 4 0 0 9 650 582 4715 80000c 0 A 0 0 0 0 0 8 0 0 0 0 0 0 656 0 0 0 0 0 0 0 0 0 0 582 0 0 0 0 yukawa
S 596 6 4 0 0 6 597 582 4727 4 0 A 0 0 0 0 0 0 0 0 0 0 0 0 657 0 0 0 0 0 0 0 0 0 0 582 0 0 0 0 iunexx
S 597 6 4 0 0 6 602 582 4734 4 0 A 0 0 0 0 0 4 0 0 0 0 0 0 657 0 0 0 0 0 0 0 0 0 0 582 0 0 0 0 exx_nwordwfc
S 598 6 4 0 0 6 599 582 4747 80000c 0 A 0 0 0 0 0 0 0 0 0 0 0 0 658 0 0 0 0 0 0 0 0 0 0 582 0 0 0 0 nq1
S 599 6 4 0 0 6 600 582 4751 80000c 0 A 0 0 0 0 0 4 0 0 0 0 0 0 658 0 0 0 0 0 0 0 0 0 0 582 0 0 0 0 nq2
S 600 6 4 0 0 6 601 582 4755 80000c 0 A 0 0 0 0 0 8 0 0 0 0 0 0 658 0 0 0 0 0 0 0 0 0 0 582 0 0 0 0 nq3
S 601 6 4 0 0 6 646 582 4759 80000c 0 A 0 0 0 0 0 12 0 0 0 0 0 0 658 0 0 0 0 0 0 0 0 0 0 582 0 0 0 0 nqs
S 602 6 4 0 0 6 604 582 4763 4 0 A 0 0 0 0 0 8 0 0 0 0 0 0 657 0 0 0 0 0 0 0 0 0 0 582 0 0 0 0 nkqs
S 603 7 6 0 0 56 1 582 4768 10a00004 51 A 0 0 0 0 0 0 608 0 0 0 610 0 0 0 0 0 0 0 0 607 0 0 609 582 0 0 0 0 xkq
S 604 6 4 0 0 6 605 582 4772 40800006 0 A 0 0 0 0 0 12 0 0 0 0 0 0 657 0 0 0 0 0 0 0 0 0 0 582 0 0 0 0 z_b_0
S 605 6 4 0 0 6 619 582 4778 40800006 0 A 0 0 0 0 0 16 0 0 0 0 0 0 657 0 0 0 0 0 0 0 0 0 0 582 0 0 0 0 z_b_1
S 606 3 0 0 0 6 0 1 0 0 0 A 0 0 0 0 0 0 0 0 0 24 0 0 0 0 0 0 0 0 0 0 0 0 0 0 0 0 0 0 6
S 607 8 4 0 0 59 622 582 4784 40822004 1020 A 0 0 0 0 0 0 0 0 0 0 0 0 657 0 0 0 0 0 0 0 0 0 0 582 0 0 0 0 xkq$sd
S 608 6 4 0 0 7 609 582 4791 40802001 1020 A 0 0 0 0 0 0 0 0 0 0 0 0 657 0 0 0 0 0 0 0 0 0 0 582 0 0 0 0 xkq$p
S 609 6 4 0 0 7 607 582 4797 40802000 1020 A 0 0 0 0 0 0 0 0 0 0 0 0 657 0 0 0 0 0 0 0 0 0 0 582 0 0 0 0 xkq$o
S 610 22 1 0 0 9 1 582 4803 40000000 1000 A 0 0 0 0 0 0 0 603 0 0 0 0 607 0 0 0 0 0 0 0 0 0 0 582 0 0 0 0 xkq$arrdsc
S 611 3 0 0 0 6 0 1 0 0 0 A 0 0 0 0 0 0 0 0 0 13 0 0 0 0 0 0 0 0 0 0 0 0 0 0 0 0 0 0 6
S 612 3 0 0 0 6 0 1 0 0 0 A 0 0 0 0 0 0 0 0 0 14 0 0 0 0 0 0 0 0 0 0 0 0 0 0 0 0 0 0 6
S 613 3 0 0 0 6 0 1 0 0 0 A 0 0 0 0 0 0 0 0 0 19 0 0 0 0 0 0 0 0 0 0 0 0 0 0 0 0 0 0 6
S 614 3 0 0 0 6 0 1 0 0 0 A 0 0 0 0 0 0 0 0 0 20 0 0 0 0 0 0 0 0 0 0 0 0 0 0 0 0 0 0 6
S 615 3 0 0 0 6 0 1 0 0 0 A 0 0 0 0 0 0 0 0 0 17 0 0 0 0 0 0 0 0 0 0 0 0 0 0 0 0 0 0 6
S 616 3 0 0 0 6 0 1 0 0 0 A 0 0 0 0 0 0 0 0 0 23 0 0 0 0 0 0 0 0 0 0 0 0 0 0 0 0 0 0 6
S 617 3 0 0 0 6 0 1 0 0 0 A 0 0 0 0 0 0 0 0 0 7 0 0 0 0 0 0 0 0 0 0 0 0 0 0 0 0 0 0 6
S 618 7 6 0 0 62 1 582 4814 10a00004 51 A 0 0 0 0 0 0 622 0 0 0 624 0 0 0 0 0 0 0 0 621 0 0 623 582 0 0 0 0 x_occupation
S 619 6 4 0 0 6 620 582 4827 40800006 0 A 0 0 0 0 0 20 0 0 0 0 0 0 657 0 0 0 0 0 0 0 0 0 0 582 0 0 0 0 z_b_2
S 620 6 4 0 0 6 626 582 4833 40800006 0 A 0 0 0 0 0 24 0 0 0 0 0 0 657 0 0 0 0 0 0 0 0 0 0 582 0 0 0 0 z_b_3
S 621 8 4 0 0 65 629 582 4839 40822004 1020 A 0 0 0 0 0 0 0 0 0 0 0 0 657 0 0 0 0 0 0 0 0 0 0 582 0 0 0 0 x_occupation$sd
S 622 6 4 0 0 7 623 582 4855 40802001 1020 A 0 0 0 0 0 0 0 0 0 0 0 0 657 0 0 0 0 0 0 0 0 0 0 582 0 0 0 0 x_occupation$p
S 623 6 4 0 0 7 621 582 4870 40802000 1020 A 0 0 0 0 0 0 0 0 0 0 0 0 657 0 0 0 0 0 0 0 0 0 0 582 0 0 0 0 x_occupation$o
S 624 22 1 0 0 9 1 582 4885 40000000 1000 A 0 0 0 0 0 0 0 618 0 0 0 0 621 0 0 0 0 0 0 0 0 0 0 582 0 0 0 0 x_occupation$arrdsc
S 625 7 6 0 0 68 1 582 4905 10a00004 51 A 0 0 0 0 0 0 629 0 0 0 631 0 0 0 0 0 0 0 0 628 0 0 630 582 0 0 0 0 index_xkq
S 626 6 4 0 0 6 627 582 4915 40800006 0 A 0 0 0 0 0 28 0 0 0 0 0 0 657 0 0 0 0 0 0 0 0 0 0 582 0 0 0 0 z_b_4
S 627 6 4 0 0 6 633 582 4921 40800006 0 A 0 0 0 0 0 32 0 0 0 0 0 0 657 0 0 0 0 0 0 0 0 0 0 582 0 0 0 0 z_b_5
S 628 8 4 0 0 71 636 582 4927 40822004 1020 A 0 0 0 0 0 0 0 0 0 0 0 0 657 0 0 0 0 0 0 0 0 0 0 582 0 0 0 0 index_xkq$sd
S 629 6 4 0 0 7 630 582 4940 40802001 1020 A 0 0 0 0 0 0 0 0 0 0 0 0 657 0 0 0 0 0 0 0 0 0 0 582 0 0 0 0 index_xkq$p
S 630 6 4 0 0 7 628 582 4952 40802000 1020 A 0 0 0 0 0 0 0 0 0 0 0 0 657 0 0 0 0 0 0 0 0 0 0 582 0 0 0 0 index_xkq$o
S 631 22 1 0 0 6 1 582 4964 40000000 1000 A 0 0 0 0 0 0 0 625 0 0 0 0 628 0 0 0 0 0 0 0 0 0 0 582 0 0 0 0 index_xkq$arrdsc
S 632 7 6 0 0 74 1 582 4981 10a00004 51 A 0 0 0 0 0 0 636 0 0 0 638 0 0 0 0 0 0 0 0 635 0 0 637 582 0 0 0 0 index_xk
S 633 6 4 0 0 6 640 582 4990 40800006 0 A 0 0 0 0 0 36 0 0 0 0 0 0 657 0 0 0 0 0 0 0 0 0 0 582 0 0 0 0 z_b_6
S 634 3 0 0 0 6 0 1 0 0 0 A 0 0 0 0 0 0 0 0 0 18 0 0 0 0 0 0 0 0 0 0 0 0 0 0 0 0 0 0 6
S 635 8 4 0 0 77 642 582 4996 40822004 1020 A 0 0 0 0 0 0 0 0 0 0 0 0 657 0 0 0 0 0 0 0 0 0 0 582 0 0 0 0 index_xk$sd
S 636 6 4 0 0 7 637 582 5008 40802001 1020 A 0 0 0 0 0 0 0 0 0 0 0 0 657 0 0 0 0 0 0 0 0 0 0 582 0 0 0 0 index_xk$p
S 637 6 4 0 0 7 635 582 5019 40802000 1020 A 0 0 0 0 0 0 0 0 0 0 0 0 657 0 0 0 0 0 0 0 0 0 0 582 0 0 0 0 index_xk$o
S 638 22 1 0 0 6 1 582 5030 40000000 1000 A 0 0 0 0 0 0 0 632 0 0 0 0 635 0 0 0 0 0 0 0 0 0 0 582 0 0 0 0 index_xk$arrdsc
S 639 7 6 0 0 80 1 582 5046 10a00004 51 A 0 0 0 0 0 0 642 0 0 0 644 0 0 0 0 0 0 0 0 641 0 0 643 582 0 0 0 0 index_sym
S 640 6 4 0 0 6 1 582 5056 40800006 0 A 0 0 0 0 0 40 0 0 0 0 0 0 657 0 0 0 0 0 0 0 0 0 0 582 0 0 0 0 z_b_7
S 641 8 4 0 0 83 596 582 5062 40822004 1020 A 0 0 0 0 0 0 0 0 0 0 0 0 657 0 0 0 0 0 0 0 0 0 0 582 0 0 0 0 index_sym$sd
S 642 6 4 0 0 7 643 582 5075 40802001 1020 A 0 0 0 0 0 0 0 0 0 0 0 0 657 0 0 0 0 0 0 0 0 0 0 582 0 0 0 0 index_sym$p
S 643 6 4 0 0 7 641 582 5087 40802000 1020 A 0 0 0 0 0 0 0 0 0 0 0 0 657 0 0 0 0 0 0 0 0 0 0 582 0 0 0 0 index_sym$o
S 644 22 1 0 0 6 1 582 5099 40000000 1000 A 0 0 0 0 0 0 0 639 0 0 0 0 641 0 0 0 0 0 0 0 0 0 0 582 0 0 0 0 index_sym$arrdsc
S 645 6 4 0 0 9 1 582 5116 4 0 A 0 0 0 0 0 0 0 0 0 0 0 0 659 0 0 0 0 0 0 0 0 0 0 582 0 0 0 0 exxdiv
S 646 6 4 0 0 16 648 582 5123 80000c 0 A 0 0 0 0 0 16 0 0 0 0 0 0 658 0 0 0 0 0 0 0 0 0 0 582 0 0 0 0 x_gamma_extrapolation
S 648 6 4 0 0 16 1 582 5145 80000c 0 A 0 0 0 0 0 20 0 0 0 0 0 0 658 0 0 0 0 0 0 0 0 0 0 582 0 0 0 0 on_double_grid
S 650 6 4 0 0 9 654 582 5160 80000c 0 A 0 0 0 0 0 16 0 0 0 0 0 0 656 0 0 0 0 0 0 0 0 0 0 582 0 0 0 0 grid_factor
S 654 6 4 0 0 9 1 582 5182 80000c 0 A 0 0 0 0 0 24 0 0 0 0 0 0 656 0 0 0 0 0 0 0 0 0 0 582 0 0 0 0 eps
S 656 11 0 0 0 9 1 582 5192 40800000 801000 A 0 0 0 0 0 32 0 0 594 654 0 0 0 0 0 0 0 0 0 0 0 0 0 0 0 0 0 0 _exx$10
S 657 11 0 0 0 9 656 582 5200 40800000 801000 A 0 0 0 0 0 556 0 0 608 640 0 0 0 0 0 0 0 0 0 0 0 0 0 0 0 0 0 0 _exx$0
S 658 11 0 0 0 9 657 582 5207 40800000 801000 A 0 0 0 0 0 24 0 0 598 648 0 0 0 0 0 0 0 0 0 0 0 0 0 0 0 0 0 0 _exx$8
S 659 11 0 0 0 9 658 582 5214 40800000 801000 A 0 0 0 0 0 8 0 0 645 645 0 0 0 0 0 0 0 0 0 0 0 0 0 0 0 0 0 0 _exx$2
S 660 23 5 0 0 0 661 582 5221 0 0 A 0 0 0 0 0 0 0 0 0 0 0 0 0 0 0 0 0 0 0 0 0 0 0 0 0 0 0 0 exx_grid_init
S 661 14 5 0 0 0 1 660 5221 0 400000 A 0 0 0 0 0 0 0 4 0 0 0 0 0 0 0 0 0 0 0 0 0 66 0 582 0 0 0 0 exx_grid_init
F 661 0
S 662 23 5 0 0 0 663 582 5235 0 0 A 0 0 0 0 0 0 0 0 0 0 0 0 0 0 0 0 0 0 0 0 0 0 0 0 0 0 0 0 exx_grid_check
S 663 14 5 0 0 0 1 662 5235 0 400000 A 0 0 0 0 0 0 0 5 0 0 0 0 0 0 0 0 0 0 0 0 0 262 0 582 0 0 0 0 exx_grid_check
F 663 0
S 664 23 5 0 0 0 665 582 5250 0 0 A 0 0 0 0 0 0 0 0 0 0 0 0 0 0 0 0 0 0 0 0 0 0 0 0 0 0 0 0 exxinit
S 665 14 5 0 0 0 1 664 5250 0 400000 A 0 0 0 0 0 0 0 6 0 0 0 0 0 0 0 0 0 0 0 0 0 323 0 582 0 0 0 0 exxinit
F 665 0
S 666 23 5 0 0 0 672 582 5258 0 0 A 0 0 0 0 0 0 0 0 0 0 0 0 0 0 0 0 0 0 0 0 0 0 0 0 0 0 0 0 vexx
S 667 6 3 0 0 6 1 666 5263 800004 3000 A 0 0 0 0 0 0 0 0 0 0 0 0 0 0 0 0 0 0 0 0 0 0 0 0 0 0 0 0 lda
S 668 1 3 0 0 6 1 666 5267 4 3000 A 0 0 0 0 0 0 0 0 0 0 0 0 0 0 0 0 0 0 0 0 0 0 0 0 0 0 0 0 n
S 669 6 3 0 0 6 1 666 5269 800004 3000 A 0 0 0 0 0 0 0 0 0 0 0 0 0 0 0 0 0 0 0 0 0 0 0 0 0 0 0 0 m
S 670 7 3 0 0 86 1 666 5271 800204 3000 A 0 0 0 0 0 0 0 0 0 0 0 0 0 0 0 0 0 0 0 0 0 0 0 0 0 0 0 0 psi
S 671 7 3 0 0 89 1 666 5275 800204 3000 A 0 0 0 0 0 0 0 0 0 0 0 0 0 0 0 0 0 0 0 0 0 0 0 0 0 0 0 0 hpsi
S 672 14 5 0 0 0 1 666 5258 200 400000 A 0 0 0 0 0 0 0 7 5 0 0 0 0 0 0 0 0 0 0 0 0 485 0 582 0 0 0 0 vexx
F 672 5 667 668 669 670 671
S 673 6 1 0 0 6 1 666 5280 40800006 3000 A 0 0 0 0 0 0 0 0 0 0 0 0 0 0 0 0 0 0 0 0 0 0 0 0 0 0 0 0 z_e_726
S 674 6 1 0 0 6 1 666 5288 40800006 3000 A 0 0 0 0 0 0 0 0 0 0 0 0 0 0 0 0 0 0 0 0 0 0 0 0 0 0 0 0 z_e_727
S 675 6 1 0 0 6 1 666 5296 40800006 3000 A 0 0 0 0 0 0 0 0 0 0 0 0 0 0 0 0 0 0 0 0 0 0 0 0 0 0 0 0 z_e_730
S 676 6 1 0 0 6 1 666 5304 40800006 3000 A 0 0 0 0 0 0 0 0 0 0 0 0 0 0 0 0 0 0 0 0 0 0 0 0 0 0 0 0 z_e_732
S 677 23 5 0 0 9 678 582 5312 0 0 A 0 0 0 0 0 0 0 0 0 0 0 0 0 0 0 0 0 0 0 0 0 0 0 0 0 0 0 0 exxenergy
S 678 14 5 0 0 9 1 677 5312 4 400000 A 0 0 0 0 0 0 0 13 0 0 0 679 0 0 0 0 0 0 0 0 0 655 0 582 0 0 0 0 exxenergy
F 678 0
S 679 1 3 0 0 9 1 677 5312 4 1003000 A 0 0 0 0 0 0 0 0 0 0 0 0 0 0 0 0 0 0 0 0 0 0 0 0 0 0 0 0 exxenergy
S 680 23 5 0 0 9 681 582 5322 0 0 A 0 0 0 0 0 0 0 0 0 0 0 0 0 0 0 0 0 0 0 0 0 0 0 0 0 0 0 0 exxenergy2
S 681 14 5 0 0 9 1 680 5322 4 400000 A 0 0 0 0 0 0 0 14 0 0 0 682 0 0 0 0 0 0 0 0 0 715 0 582 0 0 0 0 exxenergy2
F 681 0
S 682 1 3 0 0 9 1 680 5322 4 1003000 A 0 0 0 0 0 0 0 0 0 0 0 0 0 0 0 0 0 0 0 0 0 0 0 0 0 0 0 0 exxenergy2
S 683 23 5 0 0 9 684 582 5333 0 0 A 0 0 0 0 0 0 0 0 0 0 0 0 0 0 0 0 0 0 0 0 0 0 0 0 0 0 0 0 exx_divergence
S 684 14 5 0 0 9 1 683 5333 4 400000 A 0 0 0 0 0 0 0 15 0 0 0 685 0 0 0 0 0 0 0 0 0 882 0 582 0 0 0 0 exx_divergence
F 684 0
S 685 1 3 0 0 9 1 683 5333 4 1003000 A 0 0 0 0 0 0 0 0 0 0 0 0 0 0 0 0 0 0 0 0 0 0 0 0 0 0 0 0 exx_divergence
A 13 2 0 0 0 6 585 0 0 0 13 0 0 0 0 0 0 0 0 0
A 26 2 0 0 0 6 606 0 0 0 26 0 0 0 0 0 0 0 0 0
A 27 2 0 0 0 6 611 0 0 0 27 0 0 0 0 0 0 0 0 0
A 28 1 0 1 0 59 607 0 0 0 0 0 0 0 0 0 0 0 0 0
A 29 10 0 0 0 6 28 1 0 0 0 0 0 0 0 0 0 0 0 0
X 1 27
A 30 2 0 0 0 6 612 0 0 0 30 0 0 0 0 0 0 0 0 0
A 31 10 0 0 29 6 28 4 0 0 0 0 0 0 0 0 0 0 0 0
X 1 30
A 32 4 0 0 0 6 31 0 3 0 0 0 0 2 0 0 0 0 0 0
A 33 4 0 0 0 6 29 0 32 0 0 0 0 1 0 0 0 0 0 0
A 34 2 0 0 0 6 613 0 0 0 34 0 0 0 0 0 0 0 0 0
A 35 10 0 0 31 6 28 7 0 0 0 0 0 0 0 0 0 0 0 0
X 1 34
A 36 2 0 0 0 6 614 0 0 0 36 0 0 0 0 0 0 0 0 0
A 37 10 0 0 35 6 28 10 0 0 0 0 0 0 0 0 0 0 0 0
X 1 36
A 38 4 0 0 0 6 37 0 3 0 0 0 0 2 0 0 0 0 0 0
A 39 4 0 0 0 6 35 0 38 0 0 0 0 1 0 0 0 0 0 0
A 40 2 0 0 0 6 615 0 0 0 40 0 0 0 0 0 0 0 0 0
A 41 10 0 0 37 6 28 13 0 0 0 0 0 0 0 0 0 0 0 0
X 1 40
A 42 2 0 0 0 6 616 0 0 0 42 0 0 0 0 0 0 0 0 0
A 43 10 0 0 41 6 28 16 0 0 0 0 0 0 0 0 0 0 0 0
X 1 42
A 44 2 0 0 0 6 617 0 0 0 44 0 0 0 0 0 0 0 0 0
A 45 10 0 0 43 6 28 19 0 0 0 0 0 0 0 0 0 0 0 0
X 1 44
A 46 10 0 0 45 6 28 22 0 0 0 0 0 0 0 0 0 0 0 0
X 1 13
A 49 1 0 1 0 65 621 0 0 0 0 0 0 0 0 0 0 0 0 0
A 50 10 0 0 0 6 49 1 0 0 0 0 0 0 0 0 0 0 0 0
X 1 27
A 51 10 0 0 50 6 49 4 0 0 0 0 0 0 0 0 0 0 0 0
X 1 30
A 52 4 0 0 0 6 51 0 3 0 0 0 0 2 0 0 0 0 0 0
A 53 4 0 0 48 6 50 0 52 0 0 0 0 1 0 0 0 0 0 0
A 54 10 0 0 51 6 49 7 0 0 0 0 0 0 0 0 0 0 0 0
X 1 34
A 55 10 0 0 54 6 49 10 0 0 0 0 0 0 0 0 0 0 0 0
X 1 36
A 56 4 0 0 0 6 55 0 3 0 0 0 0 2 0 0 0 0 0 0
A 57 4 0 0 0 6 54 0 56 0 0 0 0 1 0 0 0 0 0 0
A 58 10 0 0 55 6 49 13 0 0 0 0 0 0 0 0 0 0 0 0
X 1 40
A 59 10 0 0 58 6 49 16 0 0 0 0 0 0 0 0 0 0 0 0
X 1 42
A 60 10 0 0 59 6 49 19 0 0 0 0 0 0 0 0 0 0 0 0
X 1 44
A 61 10 0 0 60 6 49 22 0 0 0 0 0 0 0 0 0 0 0 0
X 1 13
A 64 1 0 1 0 71 628 0 0 0 0 0 0 0 0 0 0 0 0 0
A 65 10 0 0 0 6 64 1 0 0 0 0 0 0 0 0 0 0 0 0
X 1 27
A 66 10 0 0 65 6 64 4 0 0 0 0 0 0 0 0 0 0 0 0
X 1 30
A 67 4 0 0 0 6 66 0 3 0 0 0 0 2 0 0 0 0 0 0
A 68 4 0 0 0 6 65 0 67 0 0 0 0 1 0 0 0 0 0 0
A 69 10 0 0 66 6 64 7 0 0 0 0 0 0 0 0 0 0 0 0
X 1 34
A 70 10 0 0 69 6 64 10 0 0 0 0 0 0 0 0 0 0 0 0
X 1 36
A 71 4 0 0 0 6 70 0 3 0 0 0 0 2 0 0 0 0 0 0
A 72 4 0 0 0 6 69 0 71 0 0 0 0 1 0 0 0 0 0 0
A 73 10 0 0 70 6 64 13 0 0 0 0 0 0 0 0 0 0 0 0
X 1 40
A 74 10 0 0 73 6 64 16 0 0 0 0 0 0 0 0 0 0 0 0
X 1 42
A 75 10 0 0 74 6 64 19 0 0 0 0 0 0 0 0 0 0 0 0
X 1 44
A 76 10 0 0 75 6 64 22 0 0 0 0 0 0 0 0 0 0 0 0
X 1 13
A 78 2 0 0 0 6 634 0 0 0 78 0 0 0 0 0 0 0 0 0
A 79 1 0 3 0 77 635 0 0 0 0 0 0 0 0 0 0 0 0 0
A 80 10 0 0 0 6 79 1 0 0 0 0 0 0 0 0 0 0 0 0
X 1 27
A 81 10 0 0 80 6 79 4 0 0 0 0 0 0 0 0 0 0 0 0
X 1 30
A 82 4 0 0 10 6 81 0 3 0 0 0 0 2 0 0 0 0 0 0
A 83 4 0 0 0 6 80 0 82 0 0 0 0 1 0 0 0 0 0 0
A 84 10 0 0 81 6 79 13 0 0 0 0 0 0 0 0 0 0 0 0
X 1 40
A 85 10 0 0 84 6 79 19 0 0 0 0 0 0 0 0 0 0 0 0
X 1 44
A 86 10 0 0 85 6 79 22 0 0 0 0 0 0 0 0 0 0 0 0
X 1 13
A 88 1 0 3 0 83 641 0 0 0 0 0 0 0 0 0 0 0 0 0
A 89 10 0 0 0 6 88 1 0 0 0 0 0 0 0 0 0 0 0 0
X 1 27
A 90 10 0 0 89 6 88 4 0 0 0 0 0 0 0 0 0 0 0 0
X 1 30
A 91 4 0 0 0 6 90 0 3 0 0 0 0 2 0 0 0 0 0 0
A 92 4 0 0 0 6 89 0 91 0 0 0 0 1 0 0 0 0 0 0
A 93 10 0 0 90 6 88 13 0 0 0 0 0 0 0 0 0 0 0 0
X 1 40
A 94 10 0 0 93 6 88 19 0 0 0 0 0 0 0 0 0 0 0 0
X 1 44
A 95 10 0 0 94 6 88 22 0 0 0 0 0 0 0 0 0 0 0 0
X 1 13
A 106 1 0 0 0 6 676 0 0 0 0 0 0 0 0 0 0 0 0 0
A 107 1 0 0 67 6 667 0 0 0 0 0 0 0 0 0 0 0 0 0
A 108 1 0 0 0 6 673 0 0 0 0 0 0 0 0 0 0 0 0 0
A 109 1 0 0 0 6 669 0 0 0 0 0 0 0 0 0 0 0 0 0
A 110 1 0 0 0 6 674 0 0 0 0 0 0 0 0 0 0 0 0 0
A 111 1 0 0 0 6 675 0 0 0 0 0 0 0 0 0 0 0 0 0
Z
Z
