V26 fixed_occ
9 pwcom.F90 S582 0
04/24/2012  15:53:20
use kinds private
use kinds private
enduse
D 56 21 9 2 39 38 0 1 0 0 1
 22 26 34 22 26 24
 28 32 36 28 32 30
D 59 21 6 1 0 19 0 0 0 0 0
 0 19 0 3 19 0
S 582 24 0 0 0 9 1 0 4658 5 0 A 0 0 0 0 0 0 0 0 0 0 0 0 524 0 0 0 0 0 0 0 0 511 0 0 0 0 0 0 fixed_occ
S 584 23 0 0 0 9 587 582 4674 4 0 A 0 0 0 0 0 0 0 0 0 0 0 0 0 0 0 0 0 0 0 0 0 0 0 582 0 0 0 0 dp
S 585 3 0 0 0 6 1 1 0 0 0 A 0 0 0 0 0 0 0 0 0 8 0 0 0 0 0 0 0 0 0 0 0 0 0 0 0 0 0 0 6
R 587 16 1 kinds dp
S 594 7 6 0 0 56 1 582 4708 10a00004 51 A 0 0 0 0 0 0 599 0 0 0 601 0 0 0 0 0 0 0 0 598 0 0 600 582 0 0 0 0 f_inp
S 595 6 4 0 0 6 596 582 4714 40800006 0 A 0 0 0 0 0 0 0 0 0 0 0 0 610 0 0 0 0 0 0 0 0 0 0 582 0 0 0 0 z_b_0
S 596 6 4 0 0 6 609 582 4720 40800006 0 A 0 0 0 0 0 4 0 0 0 0 0 0 610 0 0 0 0 0 0 0 0 0 0 582 0 0 0 0 z_b_1
S 597 3 0 0 0 6 0 1 0 0 0 A 0 0 0 0 0 0 0 0 0 24 0 0 0 0 0 0 0 0 0 0 0 0 0 0 0 0 0 0 6
S 598 8 4 0 0 59 595 582 4726 40822064 1020 A 0 0 0 0 0 0 0 0 0 0 0 0 610 0 0 0 0 0 0 0 0 0 0 582 0 0 0 0 f_inp$sd
S 599 6 4 0 0 7 600 582 4735 40802061 1020 A 0 0 0 0 0 96 0 0 0 0 0 0 610 0 0 0 0 0 0 0 0 0 0 582 0 0 0 0 f_inp$p
S 600 6 4 0 0 7 598 582 4743 40802060 1020 A 0 0 0 0 0 104 0 0 0 0 0 0 610 0 0 0 0 0 0 0 0 0 0 582 0 0 0 0 f_inp$o
S 601 22 1 0 0 9 1 582 4751 40000000 1000 A 0 0 0 0 0 0 0 594 0 0 0 0 598 0 0 0 0 0 0 0 0 0 0 582 0 0 0 0 f_inp$arrdsc
S 602 3 0 0 0 6 0 1 0 0 0 A 0 0 0 0 0 0 0 0 0 13 0 0 0 0 0 0 0 0 0 0 0 0 0 0 0 0 0 0 6
S 603 3 0 0 0 6 0 1 0 0 0 A 0 0 0 0 0 0 0 0 0 14 0 0 0 0 0 0 0 0 0 0 0 0 0 0 0 0 0 0 6
S 604 3 0 0 0 6 0 1 0 0 0 A 0 0 0 0 0 0 0 0 0 19 0 0 0 0 0 0 0 0 0 0 0 0 0 0 0 0 0 0 6
S 605 3 0 0 0 6 0 1 0 0 0 A 0 0 0 0 0 0 0 0 0 20 0 0 0 0 0 0 0 0 0 0 0 0 0 0 0 0 0 0 6
S 606 3 0 0 0 6 0 1 0 0 0 A 0 0 0 0 0 0 0 0 0 17 0 0 0 0 0 0 0 0 0 0 0 0 0 0 0 0 0 0 6
S 607 3 0 0 0 6 0 1 0 0 0 A 0 0 0 0 0 0 0 0 0 23 0 0 0 0 0 0 0 0 0 0 0 0 0 0 0 0 0 0 6
S 608 3 0 0 0 6 0 1 0 0 0 A 0 0 0 0 0 0 0 0 0 7 0 0 0 0 0 0 0 0 0 0 0 0 0 0 0 0 0 0 6
S 609 6 4 0 0 16 1 582 4764 4 0 A 0 0 0 0 0 8 0 0 0 0 0 0 610 0 0 0 0 0 0 0 0 0 0 582 0 0 0 0 tfixed_occ
S 610 11 0 0 0 9 1 582 4775 40800000 801000 A 0 0 0 0 0 124 0 0 599 609 0 0 0 0 0 0 0 0 0 0 0 0 0 0 0 0 0 0 _fixed_occ$0
A 13 2 0 0 0 6 585 0 0 0 13 0 0 0 0 0 0 0 0 0
A 19 2 0 0 0 6 597 0 0 0 19 0 0 0 0 0 0 0 0 0
A 20 2 0 0 0 6 602 0 0 0 20 0 0 0 0 0 0 0 0 0
A 21 1 0 1 0 59 598 0 0 0 0 0 0 0 0 0 0 0 0 0
A 22 10 0 0 0 6 21 1 0 0 0 0 0 0 0 0 0 0 0 0
X 1 20
A 23 2 0 0 0 6 603 0 0 0 23 0 0 0 0 0 0 0 0 0
A 24 10 0 0 22 6 21 4 0 0 0 0 0 0 0 0 0 0 0 0
X 1 23
A 25 4 0 0 0 6 24 0 3 0 0 0 0 2 0 0 0 0 0 0
A 26 4 0 0 0 6 22 0 25 0 0 0 0 1 0 0 0 0 0 0
A 27 2 0 0 0 6 604 0 0 0 27 0 0 0 0 0 0 0 0 0
A 28 10 0 0 24 6 21 7 0 0 0 0 0 0 0 0 0 0 0 0
X 1 27
A 29 2 0 0 0 6 605 0 0 0 29 0 0 0 0 0 0 0 0 0
A 30 10 0 0 28 6 21 10 0 0 0 0 0 0 0 0 0 0 0 0
X 1 29
A 31 4 0 0 0 6 30 0 3 0 0 0 0 2 0 0 0 0 0 0
A 32 4 0 0 0 6 28 0 31 0 0 0 0 1 0 0 0 0 0 0
A 33 2 0 0 0 6 606 0 0 0 33 0 0 0 0 0 0 0 0 0
A 34 10 0 0 30 6 21 13 0 0 0 0 0 0 0 0 0 0 0 0
X 1 33
A 35 2 0 0 0 6 607 0 0 0 35 0 0 0 0 0 0 0 0 0
A 36 10 0 0 34 6 21 16 0 0 0 0 0 0 0 0 0 0 0 0
X 1 35
A 37 2 0 0 0 6 608 0 0 0 37 0 0 0 0 0 0 0 0 0
A 38 10 0 0 36 6 21 19 0 0 0 0 0 0 0 0 0 0 0 0
X 1 37
A 39 10 0 0 38 6 21 22 0 0 0 0 0 0 0 0 0 0 0 0
X 1 13
Z
Z
