V26 g_psi_mod
13 g_psi_mod.F90 S582 0
04/24/2012  15:53:22
use kinds private
use kinds private
enduse
D 56 21 9 2 39 38 0 1 0 0 1
 22 26 34 22 26 24
 28 32 36 28 32 30
D 59 21 6 1 0 19 0 0 0 0 0
 0 19 0 3 19 0
D 62 21 9 2 54 53 0 1 0 0 1
 43 46 51 43 46 44
 47 50 52 47 50 48
D 65 21 6 1 0 19 0 0 0 0 0
 0 19 0 3 19 0
S 582 24 0 0 0 9 1 0 4658 5 0 A 0 0 0 0 0 0 0 0 0 0 0 0 22 0 0 0 0 0 0 0 0 10 0 0 0 0 0 0 g_psi_mod
S 584 23 0 0 0 9 587 582 4674 4 0 A 0 0 0 0 0 0 0 0 0 0 0 0 0 0 0 0 0 0 0 0 0 0 0 582 0 0 0 0 dp
S 585 3 0 0 0 6 1 1 0 0 0 A 0 0 0 0 0 0 0 0 0 8 0 0 0 0 0 0 0 0 0 0 0 0 0 0 0 0 0 0 6
R 587 16 1 kinds dp
S 594 7 6 0 0 56 1 582 4708 10a00004 51 A 0 0 0 0 0 0 599 0 0 0 601 0 0 0 0 0 0 0 0 598 0 0 600 582 0 0 0 0 h_diag
S 595 6 4 0 0 6 596 582 4715 40800006 0 A 0 0 0 0 0 0 0 0 0 0 0 0 616 0 0 0 0 0 0 0 0 0 0 582 0 0 0 0 z_b_0
S 596 6 4 0 0 6 610 582 4721 40800006 0 A 0 0 0 0 0 4 0 0 0 0 0 0 616 0 0 0 0 0 0 0 0 0 0 582 0 0 0 0 z_b_1
S 597 3 0 0 0 6 0 1 0 0 0 A 0 0 0 0 0 0 0 0 0 24 0 0 0 0 0 0 0 0 0 0 0 0 0 0 0 0 0 0 6
S 598 8 4 0 0 59 613 582 4727 40822004 1020 A 0 0 0 0 0 0 0 0 0 0 0 0 616 0 0 0 0 0 0 0 0 0 0 582 0 0 0 0 h_diag$sd
S 599 6 4 0 0 7 600 582 4737 40802001 1020 A 0 0 0 0 0 0 0 0 0 0 0 0 616 0 0 0 0 0 0 0 0 0 0 582 0 0 0 0 h_diag$p
S 600 6 4 0 0 7 598 582 4746 40802000 1020 A 0 0 0 0 0 0 0 0 0 0 0 0 616 0 0 0 0 0 0 0 0 0 0 582 0 0 0 0 h_diag$o
S 601 22 1 0 0 9 1 582 4755 40000000 1000 A 0 0 0 0 0 0 0 594 0 0 0 0 598 0 0 0 0 0 0 0 0 0 0 582 0 0 0 0 h_diag$arrdsc
S 602 3 0 0 0 6 0 1 0 0 0 A 0 0 0 0 0 0 0 0 0 13 0 0 0 0 0 0 0 0 0 0 0 0 0 0 0 0 0 0 6
S 603 3 0 0 0 6 0 1 0 0 0 A 0 0 0 0 0 0 0 0 0 14 0 0 0 0 0 0 0 0 0 0 0 0 0 0 0 0 0 0 6
S 604 3 0 0 0 6 0 1 0 0 0 A 0 0 0 0 0 0 0 0 0 19 0 0 0 0 0 0 0 0 0 0 0 0 0 0 0 0 0 0 6
S 605 3 0 0 0 6 0 1 0 0 0 A 0 0 0 0 0 0 0 0 0 20 0 0 0 0 0 0 0 0 0 0 0 0 0 0 0 0 0 0 6
S 606 3 0 0 0 6 0 1 0 0 0 A 0 0 0 0 0 0 0 0 0 17 0 0 0 0 0 0 0 0 0 0 0 0 0 0 0 0 0 0 6
S 607 3 0 0 0 6 0 1 0 0 0 A 0 0 0 0 0 0 0 0 0 23 0 0 0 0 0 0 0 0 0 0 0 0 0 0 0 0 0 0 6
S 608 3 0 0 0 6 0 1 0 0 0 A 0 0 0 0 0 0 0 0 0 7 0 0 0 0 0 0 0 0 0 0 0 0 0 0 0 0 0 0 6
S 609 7 6 0 0 62 1 582 4769 10a00004 51 A 0 0 0 0 0 0 613 0 0 0 615 0 0 0 0 0 0 0 0 612 0 0 614 582 0 0 0 0 s_diag
S 610 6 4 0 0 6 611 582 4776 40800006 0 A 0 0 0 0 0 8 0 0 0 0 0 0 616 0 0 0 0 0 0 0 0 0 0 582 0 0 0 0 z_b_2
S 611 6 4 0 0 6 1 582 4782 40800006 0 A 0 0 0 0 0 12 0 0 0 0 0 0 616 0 0 0 0 0 0 0 0 0 0 582 0 0 0 0 z_b_3
S 612 8 4 0 0 65 595 582 4788 40822004 1020 A 0 0 0 0 0 0 0 0 0 0 0 0 616 0 0 0 0 0 0 0 0 0 0 582 0 0 0 0 s_diag$sd
S 613 6 4 0 0 7 614 582 4798 40802001 1020 A 0 0 0 0 0 0 0 0 0 0 0 0 616 0 0 0 0 0 0 0 0 0 0 582 0 0 0 0 s_diag$p
S 614 6 4 0 0 7 612 582 4807 40802000 1020 A 0 0 0 0 0 0 0 0 0 0 0 0 616 0 0 0 0 0 0 0 0 0 0 582 0 0 0 0 s_diag$o
S 615 22 1 0 0 9 1 582 4816 40000000 1000 A 0 0 0 0 0 0 0 609 0 0 0 0 612 0 0 0 0 0 0 0 0 0 0 582 0 0 0 0 s_diag$arrdsc
S 616 11 0 0 0 9 1 582 4830 40800000 801000 A 0 0 0 0 0 240 0 0 599 611 0 0 0 0 0 0 0 0 0 0 0 0 0 0 0 0 0 0 _g_psi_mod$0
A 13 2 0 0 0 6 585 0 0 0 13 0 0 0 0 0 0 0 0 0
A 19 2 0 0 0 6 597 0 0 0 19 0 0 0 0 0 0 0 0 0
A 20 2 0 0 0 6 602 0 0 0 20 0 0 0 0 0 0 0 0 0
A 21 1 0 1 0 59 598 0 0 0 0 0 0 0 0 0 0 0 0 0
A 22 10 0 0 0 6 21 1 0 0 0 0 0 0 0 0 0 0 0 0
X 1 20
A 23 2 0 0 0 6 603 0 0 0 23 0 0 0 0 0 0 0 0 0
A 24 10 0 0 22 6 21 4 0 0 0 0 0 0 0 0 0 0 0 0
X 1 23
A 25 4 0 0 0 6 24 0 3 0 0 0 0 2 0 0 0 0 0 0
A 26 4 0 0 0 6 22 0 25 0 0 0 0 1 0 0 0 0 0 0
A 27 2 0 0 0 6 604 0 0 0 27 0 0 0 0 0 0 0 0 0
A 28 10 0 0 24 6 21 7 0 0 0 0 0 0 0 0 0 0 0 0
X 1 27
A 29 2 0 0 0 6 605 0 0 0 29 0 0 0 0 0 0 0 0 0
A 30 10 0 0 28 6 21 10 0 0 0 0 0 0 0 0 0 0 0 0
X 1 29
A 31 4 0 0 0 6 30 0 3 0 0 0 0 2 0 0 0 0 0 0
A 32 4 0 0 0 6 28 0 31 0 0 0 0 1 0 0 0 0 0 0
A 33 2 0 0 0 6 606 0 0 0 33 0 0 0 0 0 0 0 0 0
A 34 10 0 0 30 6 21 13 0 0 0 0 0 0 0 0 0 0 0 0
X 1 33
A 35 2 0 0 0 6 607 0 0 0 35 0 0 0 0 0 0 0 0 0
A 36 10 0 0 34 6 21 16 0 0 0 0 0 0 0 0 0 0 0 0
X 1 35
A 37 2 0 0 0 6 608 0 0 0 37 0 0 0 0 0 0 0 0 0
A 38 10 0 0 36 6 21 19 0 0 0 0 0 0 0 0 0 0 0 0
X 1 37
A 39 10 0 0 38 6 21 22 0 0 0 0 0 0 0 0 0 0 0 0
X 1 13
A 42 1 0 1 0 65 612 0 0 0 0 0 0 0 0 0 0 0 0 0
A 43 10 0 0 0 6 42 1 0 0 0 0 0 0 0 0 0 0 0 0
X 1 20
A 44 10 0 0 43 6 42 4 0 0 0 0 0 0 0 0 0 0 0 0
X 1 23
A 45 4 0 0 0 6 44 0 3 0 0 0 0 2 0 0 0 0 0 0
A 46 4 0 0 0 6 43 0 45 0 0 0 0 1 0 0 0 0 0 0
A 47 10 0 0 44 6 42 7 0 0 0 0 0 0 0 0 0 0 0 0
X 1 27
A 48 10 0 0 47 6 42 10 0 0 0 0 0 0 0 0 0 0 0 0
X 1 29
A 49 4 0 0 0 6 48 0 3 0 0 0 0 2 0 0 0 0 0 0
A 50 4 0 0 0 6 47 0 49 0 0 0 0 1 0 0 0 0 0 0
A 51 10 0 0 48 6 42 13 0 0 0 0 0 0 0 0 0 0 0 0
X 1 33
A 52 10 0 0 51 6 42 16 0 0 0 0 0 0 0 0 0 0 0 0
X 1 35
A 53 10 0 0 52 6 42 19 0 0 0 0 0 0 0 0 0 0 0 0
X 1 37
A 54 10 0 0 53 6 42 22 0 0 0 0 0 0 0 0 0 0 0 0
X 1 13
Z
Z
