V26 gsmooth
9 pwcom.F90 S582 0
04/24/2012  15:53:20
use kinds private
use kinds private
enduse
D 56 21 6 1 30 29 0 1 0 0 1
 21 25 27 21 25 23
D 59 21 6 1 0 18 0 0 0 0 0
 0 18 0 3 18 0
D 62 21 6 1 39 38 0 1 0 0 1
 33 36 37 33 36 34
D 65 21 6 1 0 18 0 0 0 0 0
 0 18 0 3 18 0
S 582 24 0 0 0 9 1 0 4658 5 0 A 0 0 0 0 0 0 0 0 0 0 0 0 115 0 0 0 0 0 0 0 0 85 0 0 0 0 0 0 gsmooth
S 584 23 0 0 0 9 587 582 4672 4 0 A 0 0 0 0 0 0 0 0 0 0 0 0 0 0 0 0 0 0 0 0 0 0 0 582 0 0 0 0 dp
S 585 3 0 0 0 6 1 1 0 0 0 A 0 0 0 0 0 0 0 0 0 8 0 0 0 0 0 0 0 0 0 0 0 0 0 0 0 0 0 0 6
R 587 16 1 kinds dp
S 594 6 4 0 0 6 595 582 4706 4 0 A 0 0 0 0 0 0 0 0 0 0 0 0 623 0 0 0 0 0 0 0 0 0 0 582 0 0 0 0 ngms
S 595 6 4 0 0 6 596 582 4711 4 0 A 0 0 0 0 0 4 0 0 0 0 0 0 623 0 0 0 0 0 0 0 0 0 0 582 0 0 0 0 ngms_g
S 596 6 4 0 0 6 597 582 4718 4 0 A 0 0 0 0 0 8 0 0 0 0 0 0 623 0 0 0 0 0 0 0 0 0 0 582 0 0 0 0 ngms_l
S 597 6 4 0 0 6 598 582 4725 4 0 A 0 0 0 0 0 12 0 0 0 0 0 0 623 0 0 0 0 0 0 0 0 0 0 582 0 0 0 0 nr1s
S 598 6 4 0 0 6 599 582 4730 4 0 A 0 0 0 0 0 16 0 0 0 0 0 0 623 0 0 0 0 0 0 0 0 0 0 582 0 0 0 0 nr2s
S 599 6 4 0 0 6 600 582 4735 4 0 A 0 0 0 0 0 20 0 0 0 0 0 0 623 0 0 0 0 0 0 0 0 0 0 582 0 0 0 0 nr3s
S 600 6 4 0 0 6 601 582 4740 4 0 A 0 0 0 0 0 24 0 0 0 0 0 0 623 0 0 0 0 0 0 0 0 0 0 582 0 0 0 0 nrx1s
S 601 6 4 0 0 6 602 582 4746 4 0 A 0 0 0 0 0 28 0 0 0 0 0 0 623 0 0 0 0 0 0 0 0 0 0 582 0 0 0 0 nrx2s
S 602 6 4 0 0 6 603 582 4752 4 0 A 0 0 0 0 0 32 0 0 0 0 0 0 623 0 0 0 0 0 0 0 0 0 0 582 0 0 0 0 nrx3s
S 603 6 4 0 0 6 605 582 4758 4 0 A 0 0 0 0 0 36 0 0 0 0 0 0 623 0 0 0 0 0 0 0 0 0 0 582 0 0 0 0 nrxxs
S 604 7 6 0 0 56 1 582 4764 10a00004 14 A 0 0 0 0 0 0 608 0 0 0 610 0 0 0 0 0 0 0 0 607 0 0 609 582 0 0 0 0 nls
S 605 6 4 0 0 6 616 582 4768 40800006 0 A 0 0 0 0 0 40 0 0 0 0 0 0 623 0 0 0 0 0 0 0 0 0 0 582 0 0 0 0 z_b_0
S 606 3 0 0 0 6 0 1 0 0 0 A 0 0 0 0 0 0 0 0 0 18 0 0 0 0 0 0 0 0 0 0 0 0 0 0 0 0 0 0 6
S 607 8 4 0 0 59 618 582 4774 40822064 1020 A 0 0 0 0 0 0 0 0 0 0 0 0 623 0 0 0 0 0 0 0 0 0 0 582 0 0 0 0 nls$sd
S 608 6 4 0 0 7 609 582 4781 40802061 1020 A 0 0 0 0 0 72 0 0 0 0 0 0 623 0 0 0 0 0 0 0 0 0 0 582 0 0 0 0 nls$p
S 609 6 4 0 0 7 607 582 4787 40802060 1020 A 0 0 0 0 0 80 0 0 0 0 0 0 623 0 0 0 0 0 0 0 0 0 0 582 0 0 0 0 nls$o
S 610 22 1 0 0 6 1 582 4793 40000000 1000 A 0 0 0 0 0 0 0 604 0 0 0 0 607 0 0 0 0 0 0 0 0 0 0 582 0 0 0 0 nls$arrdsc
S 611 3 0 0 0 6 0 1 0 0 0 A 0 0 0 0 0 0 0 0 0 13 0 0 0 0 0 0 0 0 0 0 0 0 0 0 0 0 0 0 6
S 612 3 0 0 0 6 0 1 0 0 0 A 0 0 0 0 0 0 0 0 0 14 0 0 0 0 0 0 0 0 0 0 0 0 0 0 0 0 0 0 6
S 613 3 0 0 0 6 0 1 0 0 0 A 0 0 0 0 0 0 0 0 0 17 0 0 0 0 0 0 0 0 0 0 0 0 0 0 0 0 0 0 6
S 614 3 0 0 0 6 0 1 0 0 0 A 0 0 0 0 0 0 0 0 0 7 0 0 0 0 0 0 0 0 0 0 0 0 0 0 0 0 0 0 6
S 615 7 6 0 0 62 1 582 4804 10a00004 14 A 0 0 0 0 0 0 618 0 0 0 620 0 0 0 0 0 0 0 0 617 0 0 619 582 0 0 0 0 nlsm
S 616 6 4 0 0 6 621 582 4809 40800006 0 A 0 0 0 0 0 44 0 0 0 0 0 0 623 0 0 0 0 0 0 0 0 0 0 582 0 0 0 0 z_b_1
S 617 8 4 0 0 65 594 582 4815 40822064 1020 A 0 0 0 0 0 88 0 0 0 0 0 0 623 0 0 0 0 0 0 0 0 0 0 582 0 0 0 0 nlsm$sd
S 618 6 4 0 0 7 619 582 4823 40802061 1020 A 0 0 0 0 0 160 0 0 0 0 0 0 623 0 0 0 0 0 0 0 0 0 0 582 0 0 0 0 nlsm$p
S 619 6 4 0 0 7 617 582 4830 40802060 1020 A 0 0 0 0 0 168 0 0 0 0 0 0 623 0 0 0 0 0 0 0 0 0 0 582 0 0 0 0 nlsm$o
S 620 22 1 0 0 6 1 582 4837 40000000 1000 A 0 0 0 0 0 0 0 615 0 0 0 0 617 0 0 0 0 0 0 0 0 0 0 582 0 0 0 0 nlsm$arrdsc
S 621 6 4 0 0 16 1 582 4849 4 0 A 0 0 0 0 0 48 0 0 0 0 0 0 623 0 0 0 0 0 0 0 0 0 0 582 0 0 0 0 doublegrid
S 622 6 4 0 0 9 1 582 4860 4 0 A 0 0 0 0 0 0 0 0 0 0 0 0 624 0 0 0 0 0 0 0 0 0 0 582 0 0 0 0 gcutms
S 623 11 0 0 0 9 1 582 4867 40800000 801000 A 0 0 0 0 0 228 0 0 608 621 0 0 0 0 0 0 0 0 0 0 0 0 0 0 0 0 0 0 _gsmooth$0
S 624 11 0 0 0 9 623 582 4878 40800000 801000 A 0 0 0 0 0 8 0 0 622 622 0 0 0 0 0 0 0 0 0 0 0 0 0 0 0 0 0 0 _gsmooth$2
A 13 2 0 0 0 6 585 0 0 0 13 0 0 0 0 0 0 0 0 0
A 18 2 0 0 0 6 606 0 0 0 18 0 0 0 0 0 0 0 0 0
A 19 2 0 0 0 6 611 0 0 0 19 0 0 0 0 0 0 0 0 0
A 20 1 0 1 0 59 607 0 0 0 0 0 0 0 0 0 0 0 0 0
A 21 10 0 0 0 6 20 1 0 0 0 0 0 0 0 0 0 0 0 0
X 1 19
A 22 2 0 0 0 6 612 0 0 0 22 0 0 0 0 0 0 0 0 0
A 23 10 0 0 21 6 20 4 0 0 0 0 0 0 0 0 0 0 0 0
X 1 22
A 24 4 0 0 0 6 23 0 3 0 0 0 0 2 0 0 0 0 0 0
A 25 4 0 0 0 6 21 0 24 0 0 0 0 1 0 0 0 0 0 0
A 26 2 0 0 0 6 613 0 0 0 26 0 0 0 0 0 0 0 0 0
A 27 10 0 0 23 6 20 7 0 0 0 0 0 0 0 0 0 0 0 0
X 1 26
A 28 2 0 0 0 6 614 0 0 0 28 0 0 0 0 0 0 0 0 0
A 29 10 0 0 27 6 20 10 0 0 0 0 0 0 0 0 0 0 0 0
X 1 28
A 30 10 0 0 29 6 20 13 0 0 0 0 0 0 0 0 0 0 0 0
X 1 13
A 32 1 0 1 0 65 617 0 0 0 0 0 0 0 0 0 0 0 0 0
A 33 10 0 0 0 6 32 1 0 0 0 0 0 0 0 0 0 0 0 0
X 1 19
A 34 10 0 0 33 6 32 4 0 0 0 0 0 0 0 0 0 0 0 0
X 1 22
A 35 4 0 0 0 6 34 0 3 0 0 0 0 2 0 0 0 0 0 0
A 36 4 0 0 0 6 33 0 35 0 0 0 0 1 0 0 0 0 0 0
A 37 10 0 0 34 6 32 7 0 0 0 0 0 0 0 0 0 0 0 0
X 1 26
A 38 10 0 0 37 6 32 10 0 0 0 0 0 0 0 0 0 0 0 0
X 1 28
A 39 10 0 0 38 6 32 13 0 0 0 0 0 0 0 0 0 0 0 0
X 1 13
Z
Z
