V26 gvect
9 pwcom.F90 S582 0
04/24/2012  15:53:20
use reciprocal_vectors private
use kinds private
use reciprocal_vectors private
use kinds private
enduse
D 179 21 6 1 219 218 0 1 0 0 1
 213 216 217 213 216 214
D 182 21 6 1 0 24 0 0 0 0 0
 0 24 0 3 24 0
D 185 21 6 1 228 227 0 1 0 0 1
 222 225 226 222 225 223
D 188 21 6 1 0 24 0 0 0 0 0
 0 24 0 3 24 0
D 191 21 6 1 237 236 0 1 0 0 1
 231 234 235 231 234 232
D 194 21 6 1 0 24 0 0 0 0 0
 0 24 0 3 24 0
D 197 21 9 2 252 251 0 1 0 0 1
 241 244 249 241 244 242
 245 248 250 245 248 246
D 200 21 6 1 0 37 0 0 0 0 0
 0 37 0 3 37 0
D 203 21 9 1 261 260 0 1 0 0 1
 255 258 259 255 258 256
D 206 21 6 1 0 24 0 0 0 0 0
 0 24 0 3 24 0
D 209 21 9 1 270 269 0 1 0 0 1
 264 267 268 264 267 265
D 212 21 6 1 0 24 0 0 0 0 0
 0 24 0 3 24 0
D 215 21 12 2 285 284 0 1 0 0 1
 274 277 282 274 277 275
 278 281 283 278 281 279
D 218 21 6 1 0 37 0 0 0 0 0
 0 37 0 3 37 0
D 221 21 12 2 300 299 0 1 0 0 1
 289 292 297 289 292 290
 293 296 298 293 296 294
D 224 21 6 1 0 37 0 0 0 0 0
 0 37 0 3 37 0
D 227 21 12 2 315 314 0 1 0 0 1
 304 307 312 304 307 305
 308 311 313 308 311 309
D 230 21 6 1 0 37 0 0 0 0 0
 0 37 0 3 37 0
D 233 21 6 1 324 323 0 1 0 0 1
 318 321 322 318 321 319
D 236 21 6 1 0 24 0 0 0 0 0
 0 24 0 3 24 0
D 239 21 6 1 333 332 0 1 0 0 1
 327 330 331 327 330 328
D 242 21 6 1 0 24 0 0 0 0 0
 0 24 0 3 24 0
D 245 21 6 1 342 341 0 1 0 0 1
 336 339 340 336 339 337
D 248 21 6 1 0 24 0 0 0 0 0
 0 24 0 3 24 0
S 582 24 0 0 0 9 1 0 4658 5 0 A 0 0 0 0 0 0 0 0 0 0 0 0 82 0 0 0 0 0 0 0 0 29 0 0 0 0 0 0 gvect
S 584 23 0 0 0 9 590 582 4670 4 0 A 0 0 0 0 0 0 0 0 0 0 0 0 0 0 0 0 0 0 0 0 0 0 0 582 0 0 0 0 dp
S 586 23 0 0 0 6 773 582 4692 4 0 A 0 0 0 0 0 0 0 0 0 0 0 0 0 0 0 0 0 0 0 0 0 0 0 582 0 0 0 0 ig_l2g
S 587 23 0 0 0 9 779 582 4699 4 0 A 0 0 0 0 0 0 0 0 0 0 0 0 0 0 0 0 0 0 0 0 0 0 0 582 0 0 0 0 sortedig_l2g
S 588 3 0 0 0 6 1 1 0 0 0 A 0 0 0 0 0 0 0 0 0 8 0 0 0 0 0 0 0 0 0 0 0 0 0 0 0 0 0 0 6
R 590 16 1 kinds dp
S 608 3 0 0 0 6 1 1 0 0 0 A 0 0 0 0 0 0 0 0 0 18 0 0 0 0 0 0 0 0 0 0 0 0 0 0 0 0 0 0 6
S 609 3 0 0 0 6 1 1 0 0 0 A 0 0 0 0 0 0 0 0 0 13 0 0 0 0 0 0 0 0 0 0 0 0 0 0 0 0 0 0 6
S 610 3 0 0 0 6 1 1 0 0 0 A 0 0 0 0 0 0 0 0 0 14 0 0 0 0 0 0 0 0 0 0 0 0 0 0 0 0 0 0 6
S 611 3 0 0 0 6 1 1 0 0 0 A 0 0 0 0 0 0 0 0 0 17 0 0 0 0 0 0 0 0 0 0 0 0 0 0 0 0 0 0 6
S 612 3 0 0 0 6 1 1 0 0 0 A 0 0 0 0 0 0 0 0 0 7 0 0 0 0 0 0 0 0 0 0 0 0 0 0 0 0 0 0 6
S 613 3 0 0 0 6 1 1 0 0 0 A 0 0 0 0 0 0 0 0 0 24 0 0 0 0 0 0 0 0 0 0 0 0 0 0 0 0 0 0 6
S 614 3 0 0 0 6 1 1 0 0 0 A 0 0 0 0 0 0 0 0 0 19 0 0 0 0 0 0 0 0 0 0 0 0 0 0 0 0 0 0 6
S 615 3 0 0 0 6 1 1 0 0 0 A 0 0 0 0 0 0 0 0 0 20 0 0 0 0 0 0 0 0 0 0 0 0 0 0 0 0 0 0 6
S 616 3 0 0 0 6 1 1 0 0 0 A 0 0 0 0 0 0 0 0 0 23 0 0 0 0 0 0 0 0 0 0 0 0 0 0 0 0 0 0 6
R 773 7 43 reciprocal_vectors ig_l2g
R 779 7 49 reciprocal_vectors sortedig_l2g
S 799 6 4 0 0 6 800 582 4749 4 0 A 0 0 0 0 0 0 0 0 0 0 0 0 893 0 0 0 0 0 0 0 0 0 0 582 0 0 0 0 ngm
S 800 6 4 0 0 6 801 582 6097 4 0 A 0 0 0 0 0 4 0 0 0 0 0 0 893 0 0 0 0 0 0 0 0 0 0 582 0 0 0 0 ngm_g
S 801 6 4 0 0 6 802 582 6103 4 0 A 0 0 0 0 0 8 0 0 0 0 0 0 893 0 0 0 0 0 0 0 0 0 0 582 0 0 0 0 ngm_l
S 802 6 4 0 0 6 803 582 5539 4 0 A 0 0 0 0 0 12 0 0 0 0 0 0 893 0 0 0 0 0 0 0 0 0 0 582 0 0 0 0 gstart
S 803 6 4 0 0 6 804 582 6109 4 0 A 0 0 0 0 0 16 0 0 0 0 0 0 893 0 0 0 0 0 0 0 0 0 0 582 0 0 0 0 nr1
S 804 6 4 0 0 6 805 582 6113 4 0 A 0 0 0 0 0 20 0 0 0 0 0 0 893 0 0 0 0 0 0 0 0 0 0 582 0 0 0 0 nr2
S 805 6 4 0 0 6 806 582 6117 4 0 A 0 0 0 0 0 24 0 0 0 0 0 0 893 0 0 0 0 0 0 0 0 0 0 582 0 0 0 0 nr3
S 806 6 4 0 0 6 807 582 6121 4 0 A 0 0 0 0 0 28 0 0 0 0 0 0 893 0 0 0 0 0 0 0 0 0 0 582 0 0 0 0 nrx1
S 807 6 4 0 0 6 808 582 6126 4 0 A 0 0 0 0 0 32 0 0 0 0 0 0 893 0 0 0 0 0 0 0 0 0 0 582 0 0 0 0 nrx2
S 808 6 4 0 0 6 809 582 6131 4 0 A 0 0 0 0 0 36 0 0 0 0 0 0 893 0 0 0 0 0 0 0 0 0 0 582 0 0 0 0 nrx3
S 809 6 4 0 0 6 810 582 6136 4 0 A 0 0 0 0 0 40 0 0 0 0 0 0 893 0 0 0 0 0 0 0 0 0 0 582 0 0 0 0 nrxx
S 810 6 4 0 0 6 812 582 6141 4 0 A 0 0 0 0 0 44 0 0 0 0 0 0 893 0 0 0 0 0 0 0 0 0 0 582 0 0 0 0 ngl
S 811 7 6 0 0 179 1 582 6145 10a00004 59 A 0 0 0 0 0 0 814 0 0 0 816 0 0 0 0 0 0 0 0 813 0 0 815 582 0 0 0 0 nl
S 812 6 4 0 0 6 818 582 6148 40800006 0 A 0 0 0 0 0 48 0 0 0 0 0 0 893 0 0 0 0 0 0 0 0 0 0 582 0 0 0 0 z_b_0_2
S 813 8 4 0 0 182 820 582 6156 40822064 1020 A 0 0 0 0 0 0 0 0 0 0 0 0 893 0 0 0 0 0 0 0 0 0 0 582 0 0 0 0 nl$sd
S 814 6 4 0 0 7 815 582 6162 40802061 1020 A 0 0 0 0 0 72 0 0 0 0 0 0 893 0 0 0 0 0 0 0 0 0 0 582 0 0 0 0 nl$p
S 815 6 4 0 0 7 813 582 6167 40802060 1020 A 0 0 0 0 0 80 0 0 0 0 0 0 893 0 0 0 0 0 0 0 0 0 0 582 0 0 0 0 nl$o
S 816 22 1 0 0 6 1 582 6172 40000000 1000 A 0 0 0 0 0 0 0 811 0 0 0 0 813 0 0 0 0 0 0 0 0 0 0 582 0 0 0 0 nl$arrdsc
S 817 7 6 0 0 185 1 582 6182 10a00004 59 A 0 0 0 0 0 0 820 0 0 0 822 0 0 0 0 0 0 0 0 819 0 0 821 582 0 0 0 0 nlm
S 818 6 4 0 0 6 824 582 6186 40800006 0 A 0 0 0 0 0 52 0 0 0 0 0 0 893 0 0 0 0 0 0 0 0 0 0 582 0 0 0 0 z_b_1_2
S 819 8 4 0 0 188 826 582 6194 40822064 1020 A 0 0 0 0 0 88 0 0 0 0 0 0 893 0 0 0 0 0 0 0 0 0 0 582 0 0 0 0 nlm$sd
S 820 6 4 0 0 7 821 582 6201 40802061 1020 A 0 0 0 0 0 160 0 0 0 0 0 0 893 0 0 0 0 0 0 0 0 0 0 582 0 0 0 0 nlm$p
S 821 6 4 0 0 7 819 582 6207 40802060 1020 A 0 0 0 0 0 168 0 0 0 0 0 0 893 0 0 0 0 0 0 0 0 0 0 582 0 0 0 0 nlm$o
S 822 22 1 0 0 6 1 582 6213 40000000 1000 A 0 0 0 0 0 0 0 817 0 0 0 0 819 0 0 0 0 0 0 0 0 0 0 582 0 0 0 0 nlm$arrdsc
S 823 7 6 0 0 191 1 582 6224 10a00004 59 A 0 0 0 0 0 0 826 0 0 0 828 0 0 0 0 0 0 0 0 825 0 0 827 582 0 0 0 0 igtongl
S 824 6 4 0 0 6 829 582 6232 40800006 0 A 0 0 0 0 0 56 0 0 0 0 0 0 893 0 0 0 0 0 0 0 0 0 0 582 0 0 0 0 z_b_2_2
S 825 8 4 0 0 194 833 582 6240 40822064 1020 A 0 0 0 0 0 176 0 0 0 0 0 0 893 0 0 0 0 0 0 0 0 0 0 582 0 0 0 0 igtongl$sd
S 826 6 4 0 0 7 827 582 6251 40802061 1020 A 0 0 0 0 0 248 0 0 0 0 0 0 893 0 0 0 0 0 0 0 0 0 0 582 0 0 0 0 igtongl$p
S 827 6 4 0 0 7 825 582 6261 40802060 1020 A 0 0 0 0 0 256 0 0 0 0 0 0 893 0 0 0 0 0 0 0 0 0 0 582 0 0 0 0 igtongl$o
S 828 22 1 0 0 6 1 582 6271 40000000 1000 A 0 0 0 0 0 0 0 823 0 0 0 0 825 0 0 0 0 0 0 0 0 0 0 582 0 0 0 0 igtongl$arrdsc
S 829 6 4 0 0 6 830 582 6286 40800006 0 A 0 0 0 0 0 60 0 0 0 0 0 0 893 0 0 0 0 0 0 0 0 0 0 582 0 0 0 0 z_b_3_2
S 830 6 4 0 0 6 837 582 6294 40800006 0 A 0 0 0 0 0 64 0 0 0 0 0 0 893 0 0 0 0 0 0 0 0 0 0 582 0 0 0 0 z_b_4_2
S 831 7 6 0 0 197 1 582 5546 10a00004 59 A 0 0 0 0 0 0 833 0 0 0 835 0 0 0 0 0 0 0 0 832 0 0 834 582 0 0 0 0 g
S 832 8 4 0 0 200 839 582 6302 40822064 1020 A 0 0 0 0 0 264 0 0 0 0 0 0 893 0 0 0 0 0 0 0 0 0 0 582 0 0 0 0 g$sd9
S 833 6 4 0 0 7 834 582 6308 40802061 1020 A 0 0 0 0 0 360 0 0 0 0 0 0 893 0 0 0 0 0 0 0 0 0 0 582 0 0 0 0 g$p10
S 834 6 4 0 0 7 832 582 6314 40802060 1020 A 0 0 0 0 0 368 0 0 0 0 0 0 893 0 0 0 0 0 0 0 0 0 0 582 0 0 0 0 g$o11
S 835 22 1 0 0 9 1 582 6320 40000000 1000 A 0 0 0 0 0 0 0 831 0 0 0 0 832 0 0 0 0 0 0 0 0 0 0 582 0 0 0 0 g$arrdsc12
S 836 7 6 0 0 203 1 582 6331 10a00004 59 A 0 0 0 0 0 0 839 0 0 0 841 0 0 0 0 0 0 0 0 838 0 0 840 582 0 0 0 0 gg
S 837 6 4 0 0 6 843 582 6334 40800006 0 A 0 0 0 0 0 68 0 0 0 0 0 0 893 0 0 0 0 0 0 0 0 0 0 582 0 0 0 0 z_b_5_2
S 838 8 4 0 0 206 858 582 6342 40822064 1020 A 0 0 0 0 0 376 0 0 0 0 0 0 893 0 0 0 0 0 0 0 0 0 0 582 0 0 0 0 gg$sd
S 839 6 4 0 0 7 840 582 6348 40802061 1020 A 0 0 0 0 0 448 0 0 0 0 0 0 893 0 0 0 0 0 0 0 0 0 0 582 0 0 0 0 gg$p
S 840 6 4 0 0 7 838 582 6353 40802060 1020 A 0 0 0 0 0 456 0 0 0 0 0 0 893 0 0 0 0 0 0 0 0 0 0 582 0 0 0 0 gg$o
S 841 22 1 0 0 9 1 582 6358 40000000 1000 A 0 0 0 0 0 0 0 836 0 0 0 0 838 0 0 0 0 0 0 0 0 0 0 582 0 0 0 0 gg$arrdsc
S 842 6 4 0 0 9 849 582 6368 4 0 A 0 0 0 0 0 0 0 0 0 0 0 0 894 0 0 0 0 0 0 0 0 0 0 582 0 0 0 0 ecutwfc
S 843 6 4 0 0 6 855 582 6376 40800006 0 A 0 0 0 0 0 72 0 0 0 0 0 0 893 0 0 0 0 0 0 0 0 0 0 582 0 0 0 0 z_b_6_2
S 844 7 6 0 0 209 1 582 5578 10a00004 14 A 0 0 0 0 0 0 846 0 0 0 848 0 0 0 0 0 0 0 0 845 0 0 847 582 0 0 0 0 gl
S 845 8 4 0 0 212 814 582 6384 40822064 1020 A 0 0 0 0 0 464 0 0 0 0 0 0 893 0 0 0 0 0 0 0 0 0 0 582 0 0 0 0 gl$sd13
S 846 6 4 0 0 7 847 582 6392 40802061 1020 A 0 0 0 0 0 536 0 0 0 0 0 0 893 0 0 0 0 0 0 0 0 0 0 582 0 0 0 0 gl$p14
S 847 6 4 0 0 7 845 582 6399 40802060 1020 A 0 0 0 0 0 544 0 0 0 0 0 0 893 0 0 0 0 0 0 0 0 0 0 582 0 0 0 0 gl$o15
S 848 22 1 0 0 9 1 582 6406 40000000 1000 A 0 0 0 0 0 0 0 844 0 0 0 0 845 0 0 0 0 0 0 0 0 0 0 582 0 0 0 0 gl$arrdsc16
S 849 6 4 0 0 9 850 582 6418 4 0 A 0 0 0 0 0 8 0 0 0 0 0 0 894 0 0 0 0 0 0 0 0 0 0 582 0 0 0 0 gcutm
S 850 6 4 0 0 9 851 582 5315 4 0 A 0 0 0 0 0 16 0 0 0 0 0 0 894 0 0 0 0 0 0 0 0 0 0 582 0 0 0 0 dual
S 851 6 4 0 0 9 852 582 6424 4 0 A 0 0 0 0 0 24 0 0 0 0 0 0 894 0 0 0 0 0 0 0 0 0 0 582 0 0 0 0 ecfixed
S 852 6 4 0 0 9 853 582 6432 4 0 A 0 0 0 0 0 32 0 0 0 0 0 0 894 0 0 0 0 0 0 0 0 0 0 582 0 0 0 0 qcutz
S 853 6 4 0 0 9 1 582 6438 4 0 A 0 0 0 0 0 40 0 0 0 0 0 0 894 0 0 0 0 0 0 0 0 0 0 582 0 0 0 0 q2sigma
S 854 7 6 0 0 215 1 582 6446 10a00004 51 A 0 0 0 0 0 0 858 0 0 0 860 0 0 0 0 0 0 0 0 857 0 0 859 582 0 0 0 0 eigts1
S 855 6 4 0 0 6 856 582 6453 40800006 0 A 0 0 0 0 0 76 0 0 0 0 0 0 893 0 0 0 0 0 0 0 0 0 0 582 0 0 0 0 z_b_7_2
S 856 6 4 0 0 6 862 582 6461 40800006 0 A 0 0 0 0 0 80 0 0 0 0 0 0 893 0 0 0 0 0 0 0 0 0 0 582 0 0 0 0 z_b_8_2
S 857 8 4 0 0 218 865 582 6469 40822064 1020 A 0 0 0 0 0 552 0 0 0 0 0 0 893 0 0 0 0 0 0 0 0 0 0 582 0 0 0 0 eigts1$sd
S 858 6 4 0 0 7 859 582 6479 40802061 1020 A 0 0 0 0 0 648 0 0 0 0 0 0 893 0 0 0 0 0 0 0 0 0 0 582 0 0 0 0 eigts1$p
S 859 6 4 0 0 7 857 582 6488 40802060 1020 A 0 0 0 0 0 656 0 0 0 0 0 0 893 0 0 0 0 0 0 0 0 0 0 582 0 0 0 0 eigts1$o
S 860 22 1 0 0 9 1 582 6497 40000000 1000 A 0 0 0 0 0 0 0 854 0 0 0 0 857 0 0 0 0 0 0 0 0 0 0 582 0 0 0 0 eigts1$arrdsc
S 861 7 6 0 0 221 1 582 6511 10a00004 51 A 0 0 0 0 0 0 865 0 0 0 867 0 0 0 0 0 0 0 0 864 0 0 866 582 0 0 0 0 eigts2
S 862 6 4 0 0 6 863 582 6518 40800006 0 A 0 0 0 0 0 84 0 0 0 0 0 0 893 0 0 0 0 0 0 0 0 0 0 582 0 0 0 0 z_b_9_1
S 863 6 4 0 0 6 869 582 6526 40800006 0 A 0 0 0 0 0 88 0 0 0 0 0 0 893 0 0 0 0 0 0 0 0 0 0 582 0 0 0 0 z_b_10_1
S 864 8 4 0 0 224 872 582 6535 40822064 1020 A 0 0 0 0 0 664 0 0 0 0 0 0 893 0 0 0 0 0 0 0 0 0 0 582 0 0 0 0 eigts2$sd
S 865 6 4 0 0 7 866 582 6545 40802061 1020 A 0 0 0 0 0 760 0 0 0 0 0 0 893 0 0 0 0 0 0 0 0 0 0 582 0 0 0 0 eigts2$p
S 866 6 4 0 0 7 864 582 6554 40802060 1020 A 0 0 0 0 0 768 0 0 0 0 0 0 893 0 0 0 0 0 0 0 0 0 0 582 0 0 0 0 eigts2$o
S 867 22 1 0 0 9 1 582 6563 40000000 1000 A 0 0 0 0 0 0 0 861 0 0 0 0 864 0 0 0 0 0 0 0 0 0 0 582 0 0 0 0 eigts2$arrdsc
S 868 7 6 0 0 227 1 582 6577 10a00004 51 A 0 0 0 0 0 0 872 0 0 0 874 0 0 0 0 0 0 0 0 871 0 0 873 582 0 0 0 0 eigts3
S 869 6 4 0 0 6 870 582 6584 40800006 0 A 0 0 0 0 0 92 0 0 0 0 0 0 893 0 0 0 0 0 0 0 0 0 0 582 0 0 0 0 z_b_11_1
S 870 6 4 0 0 6 876 582 6593 40800006 0 A 0 0 0 0 0 96 0 0 0 0 0 0 893 0 0 0 0 0 0 0 0 0 0 582 0 0 0 0 z_b_12
S 871 8 4 0 0 230 878 582 6600 40822064 1020 A 0 0 0 0 0 776 0 0 0 0 0 0 893 0 0 0 0 0 0 0 0 0 0 582 0 0 0 0 eigts3$sd
S 872 6 4 0 0 7 873 582 6610 40802061 1020 A 0 0 0 0 0 872 0 0 0 0 0 0 893 0 0 0 0 0 0 0 0 0 0 582 0 0 0 0 eigts3$p
S 873 6 4 0 0 7 871 582 6619 40802060 1020 A 0 0 0 0 0 880 0 0 0 0 0 0 893 0 0 0 0 0 0 0 0 0 0 582 0 0 0 0 eigts3$o
S 874 22 1 0 0 9 1 582 6628 40000000 1000 A 0 0 0 0 0 0 0 868 0 0 0 0 871 0 0 0 0 0 0 0 0 0 0 582 0 0 0 0 eigts3$arrdsc
S 875 7 6 0 0 233 1 582 6642 10a00004 51 A 0 0 0 0 0 0 878 0 0 0 880 0 0 0 0 0 0 0 0 877 0 0 879 582 0 0 0 0 ig1
S 876 6 4 0 0 6 882 582 6646 40800006 0 A 0 0 0 0 0 100 0 0 0 0 0 0 893 0 0 0 0 0 0 0 0 0 0 582 0 0 0 0 z_b_13
S 877 8 4 0 0 236 884 582 6653 40822064 1020 A 0 0 0 0 0 888 0 0 0 0 0 0 893 0 0 0 0 0 0 0 0 0 0 582 0 0 0 0 ig1$sd
S 878 6 4 0 0 7 879 582 6660 40802061 1020 A 0 0 0 0 0 960 0 0 0 0 0 0 893 0 0 0 0 0 0 0 0 0 0 582 0 0 0 0 ig1$p
S 879 6 4 0 0 7 877 582 6666 40802060 1020 A 0 0 0 0 0 968 0 0 0 0 0 0 893 0 0 0 0 0 0 0 0 0 0 582 0 0 0 0 ig1$o
S 880 22 1 0 0 6 1 582 6672 40000000 1000 A 0 0 0 0 0 0 0 875 0 0 0 0 877 0 0 0 0 0 0 0 0 0 0 582 0 0 0 0 ig1$arrdsc
S 881 7 6 0 0 239 1 582 6683 10a00004 51 A 0 0 0 0 0 0 884 0 0 0 886 0 0 0 0 0 0 0 0 883 0 0 885 582 0 0 0 0 ig2
S 882 6 4 0 0 6 888 582 6687 40800006 0 A 0 0 0 0 0 104 0 0 0 0 0 0 893 0 0 0 0 0 0 0 0 0 0 582 0 0 0 0 z_b_14
S 883 8 4 0 0 242 890 582 6694 40822064 1020 A 0 0 0 0 0 976 0 0 0 0 0 0 893 0 0 0 0 0 0 0 0 0 0 582 0 0 0 0 ig2$sd
S 884 6 4 0 0 7 885 582 6701 40802061 1020 A 0 0 0 0 0 1048 0 0 0 0 0 0 893 0 0 0 0 0 0 0 0 0 0 582 0 0 0 0 ig2$p
S 885 6 4 0 0 7 883 582 6707 40802060 1020 A 0 0 0 0 0 1056 0 0 0 0 0 0 893 0 0 0 0 0 0 0 0 0 0 582 0 0 0 0 ig2$o
S 886 22 1 0 0 6 1 582 6713 40000000 1000 A 0 0 0 0 0 0 0 881 0 0 0 0 883 0 0 0 0 0 0 0 0 0 0 582 0 0 0 0 ig2$arrdsc
S 887 7 6 0 0 245 1 582 6724 10a00004 51 A 0 0 0 0 0 0 890 0 0 0 892 0 0 0 0 0 0 0 0 889 0 0 891 582 0 0 0 0 ig3
S 888 6 4 0 0 6 1 582 6728 40800006 0 A 0 0 0 0 0 108 0 0 0 0 0 0 893 0 0 0 0 0 0 0 0 0 0 582 0 0 0 0 z_b_15
S 889 8 4 0 0 248 799 582 6735 40822064 1020 A 0 0 0 0 0 1064 0 0 0 0 0 0 893 0 0 0 0 0 0 0 0 0 0 582 0 0 0 0 ig3$sd
S 890 6 4 0 0 7 891 582 6742 40802061 1020 A 0 0 0 0 0 1136 0 0 0 0 0 0 893 0 0 0 0 0 0 0 0 0 0 582 0 0 0 0 ig3$p
S 891 6 4 0 0 7 889 582 6748 40802060 1020 A 0 0 0 0 0 1144 0 0 0 0 0 0 893 0 0 0 0 0 0 0 0 0 0 582 0 0 0 0 ig3$o
S 892 22 1 0 0 6 1 582 6754 40000000 1000 A 0 0 0 0 0 0 0 887 0 0 0 0 889 0 0 0 0 0 0 0 0 0 0 582 0 0 0 0 ig3$arrdsc
S 893 11 0 0 0 9 796 582 6765 40800000 801000 A 0 0 0 0 0 1264 0 0 846 888 0 0 0 0 0 0 0 0 0 0 0 0 0 0 0 0 0 0 _gvect$0
S 894 11 0 0 0 9 893 582 6774 40800000 801000 A 0 0 0 0 0 48 0 0 842 853 0 0 0 0 0 0 0 0 0 0 0 0 0 0 0 0 0 0 _gvect$2
A 13 2 0 0 0 6 588 0 0 0 13 0 0 0 0 0 0 0 0 0
A 24 2 0 0 0 6 608 0 0 0 24 0 0 0 0 0 0 0 0 0
A 27 2 0 0 0 6 609 0 0 0 27 0 0 0 0 0 0 0 0 0
A 29 2 0 0 0 6 610 0 0 0 29 0 0 0 0 0 0 0 0 0
A 33 2 0 0 0 6 611 0 0 0 33 0 0 0 0 0 0 0 0 0
A 35 2 0 0 0 6 612 0 0 0 35 0 0 0 0 0 0 0 0 0
A 37 2 0 0 0 6 613 0 0 0 37 0 0 0 0 0 0 0 0 0
A 45 2 0 0 0 6 614 0 0 0 45 0 0 0 0 0 0 0 0 0
A 47 2 0 0 0 6 615 0 0 0 47 0 0 0 0 0 0 0 0 0
A 51 2 0 0 0 6 616 0 0 0 51 0 0 0 0 0 0 0 0 0
A 212 1 0 1 0 182 813 0 0 0 0 0 0 0 0 0 0 0 0 0
A 213 10 0 0 0 6 212 4 0 0 0 0 0 0 0 0 0 0 0 0
X 1 27
A 214 10 0 0 213 6 212 7 0 0 0 0 0 0 0 0 0 0 0 0
X 1 29
A 215 4 0 0 212 6 214 0 3 0 0 0 0 2 0 0 0 0 0 0
A 216 4 0 0 0 6 213 0 215 0 0 0 0 1 0 0 0 0 0 0
A 217 10 0 0 214 6 212 10 0 0 0 0 0 0 0 0 0 0 0 0
X 1 33
A 218 10 0 0 217 6 212 13 0 0 0 0 0 0 0 0 0 0 0 0
X 1 35
A 219 10 0 0 218 6 212 1 0 0 0 0 0 0 0 0 0 0 0 0
X 1 13
A 221 1 0 1 0 188 819 0 0 0 0 0 0 0 0 0 0 0 0 0
A 222 10 0 0 45 6 221 4 0 0 0 0 0 0 0 0 0 0 0 0
X 1 27
A 223 10 0 0 222 6 221 7 0 0 0 0 0 0 0 0 0 0 0 0
X 1 29
A 224 4 0 0 0 6 223 0 3 0 0 0 0 2 0 0 0 0 0 0
A 225 4 0 0 0 6 222 0 224 0 0 0 0 1 0 0 0 0 0 0
A 226 10 0 0 223 6 221 10 0 0 0 0 0 0 0 0 0 0 0 0
X 1 33
A 227 10 0 0 226 6 221 13 0 0 0 0 0 0 0 0 0 0 0 0
X 1 35
A 228 10 0 0 227 6 221 1 0 0 0 0 0 0 0 0 0 0 0 0
X 1 13
A 230 1 0 1 0 194 825 0 0 0 0 0 0 0 0 0 0 0 0 0
A 231 10 0 0 135 6 230 4 0 0 0 0 0 0 0 0 0 0 0 0
X 1 27
A 232 10 0 0 231 6 230 7 0 0 0 0 0 0 0 0 0 0 0 0
X 1 29
A 233 4 0 0 0 6 232 0 3 0 0 0 0 2 0 0 0 0 0 0
A 234 4 0 0 0 6 231 0 233 0 0 0 0 1 0 0 0 0 0 0
A 235 10 0 0 232 6 230 10 0 0 0 0 0 0 0 0 0 0 0 0
X 1 33
A 236 10 0 0 235 6 230 13 0 0 0 0 0 0 0 0 0 0 0 0
X 1 35
A 237 10 0 0 236 6 230 1 0 0 0 0 0 0 0 0 0 0 0 0
X 1 13
A 240 1 0 3 0 200 832 0 0 0 0 0 0 0 0 0 0 0 0 0
A 241 10 0 0 0 6 240 4 0 0 0 0 0 0 0 0 0 0 0 0
X 1 27
A 242 10 0 0 241 6 240 7 0 0 0 0 0 0 0 0 0 0 0 0
X 1 29
A 243 4 0 0 0 6 242 0 3 0 0 0 0 2 0 0 0 0 0 0
A 244 4 0 0 0 6 241 0 243 0 0 0 0 1 0 0 0 0 0 0
A 245 10 0 0 242 6 240 16 0 0 0 0 0 0 0 0 0 0 0 0
X 1 45
A 246 10 0 0 245 6 240 19 0 0 0 0 0 0 0 0 0 0 0 0
X 1 47
A 247 4 0 0 9 6 246 0 3 0 0 0 0 2 0 0 0 0 0 0
A 248 4 0 0 0 6 245 0 247 0 0 0 0 1 0 0 0 0 0 0
A 249 10 0 0 246 6 240 10 0 0 0 0 0 0 0 0 0 0 0 0
X 1 33
A 250 10 0 0 249 6 240 22 0 0 0 0 0 0 0 0 0 0 0 0
X 1 51
A 251 10 0 0 250 6 240 13 0 0 0 0 0 0 0 0 0 0 0 0
X 1 35
A 252 10 0 0 251 6 240 1 0 0 0 0 0 0 0 0 0 0 0 0
X 1 13
A 254 1 0 1 0 206 838 0 0 0 0 0 0 0 0 0 0 0 0 0
A 255 10 0 0 0 6 254 4 0 0 0 0 0 0 0 0 0 0 0 0
X 1 27
A 256 10 0 0 255 6 254 7 0 0 0 0 0 0 0 0 0 0 0 0
X 1 29
A 257 4 0 0 0 6 256 0 3 0 0 0 0 2 0 0 0 0 0 0
A 258 4 0 0 0 6 255 0 257 0 0 0 0 1 0 0 0 0 0 0
A 259 10 0 0 256 6 254 10 0 0 0 0 0 0 0 0 0 0 0 0
X 1 33
A 260 10 0 0 259 6 254 13 0 0 0 0 0 0 0 0 0 0 0 0
X 1 35
A 261 10 0 0 260 6 254 1 0 0 0 0 0 0 0 0 0 0 0 0
X 1 13
A 263 1 0 1 0 212 845 0 0 0 0 0 0 0 0 0 0 0 0 0
A 264 10 0 0 0 6 263 4 0 0 0 0 0 0 0 0 0 0 0 0
X 1 27
A 265 10 0 0 264 6 263 7 0 0 0 0 0 0 0 0 0 0 0 0
X 1 29
A 266 4 0 0 0 6 265 0 3 0 0 0 0 2 0 0 0 0 0 0
A 267 4 0 0 0 6 264 0 266 0 0 0 0 1 0 0 0 0 0 0
A 268 10 0 0 265 6 263 10 0 0 0 0 0 0 0 0 0 0 0 0
X 1 33
A 269 10 0 0 268 6 263 13 0 0 0 0 0 0 0 0 0 0 0 0
X 1 35
A 270 10 0 0 269 6 263 1 0 0 0 0 0 0 0 0 0 0 0 0
X 1 13
A 273 1 0 3 0 218 857 0 0 0 0 0 0 0 0 0 0 0 0 0
A 274 10 0 0 115 6 273 4 0 0 0 0 0 0 0 0 0 0 0 0
X 1 27
A 275 10 0 0 274 6 273 7 0 0 0 0 0 0 0 0 0 0 0 0
X 1 29
A 276 4 0 0 0 6 275 0 3 0 0 0 0 2 0 0 0 0 0 0
A 277 4 0 0 0 6 274 0 276 0 0 0 0 1 0 0 0 0 0 0
A 278 10 0 0 275 6 273 16 0 0 0 0 0 0 0 0 0 0 0 0
X 1 45
A 279 10 0 0 278 6 273 19 0 0 0 0 0 0 0 0 0 0 0 0
X 1 47
A 280 4 0 0 0 6 279 0 3 0 0 0 0 2 0 0 0 0 0 0
A 281 4 0 0 0 6 278 0 280 0 0 0 0 1 0 0 0 0 0 0
A 282 10 0 0 279 6 273 10 0 0 0 0 0 0 0 0 0 0 0 0
X 1 33
A 283 10 0 0 282 6 273 22 0 0 0 0 0 0 0 0 0 0 0 0
X 1 51
A 284 10 0 0 283 6 273 13 0 0 0 0 0 0 0 0 0 0 0 0
X 1 35
A 285 10 0 0 284 6 273 1 0 0 0 0 0 0 0 0 0 0 0 0
X 1 13
A 288 1 0 3 0 224 864 0 0 0 0 0 0 0 0 0 0 0 0 0
A 289 10 0 0 123 6 288 4 0 0 0 0 0 0 0 0 0 0 0 0
X 1 27
A 290 10 0 0 289 6 288 7 0 0 0 0 0 0 0 0 0 0 0 0
X 1 29
A 291 4 0 0 0 6 290 0 3 0 0 0 0 2 0 0 0 0 0 0
A 292 4 0 0 0 6 289 0 291 0 0 0 0 1 0 0 0 0 0 0
A 293 10 0 0 290 6 288 16 0 0 0 0 0 0 0 0 0 0 0 0
X 1 45
A 294 10 0 0 293 6 288 19 0 0 0 0 0 0 0 0 0 0 0 0
X 1 47
A 295 4 0 0 0 6 294 0 3 0 0 0 0 2 0 0 0 0 0 0
A 296 4 0 0 90 6 293 0 295 0 0 0 0 1 0 0 0 0 0 0
A 297 10 0 0 294 6 288 10 0 0 0 0 0 0 0 0 0 0 0 0
X 1 33
A 298 10 0 0 297 6 288 22 0 0 0 0 0 0 0 0 0 0 0 0
X 1 51
A 299 10 0 0 298 6 288 13 0 0 0 0 0 0 0 0 0 0 0 0
X 1 35
A 300 10 0 0 299 6 288 1 0 0 0 0 0 0 0 0 0 0 0 0
X 1 13
A 303 1 0 3 0 230 871 0 0 0 0 0 0 0 0 0 0 0 0 0
A 304 10 0 0 0 6 303 4 0 0 0 0 0 0 0 0 0 0 0 0
X 1 27
A 305 10 0 0 304 6 303 7 0 0 0 0 0 0 0 0 0 0 0 0
X 1 29
A 306 4 0 0 0 6 305 0 3 0 0 0 0 2 0 0 0 0 0 0
A 307 4 0 0 0 6 304 0 306 0 0 0 0 1 0 0 0 0 0 0
A 308 10 0 0 305 6 303 16 0 0 0 0 0 0 0 0 0 0 0 0
X 1 45
A 309 10 0 0 308 6 303 19 0 0 0 0 0 0 0 0 0 0 0 0
X 1 47
A 310 4 0 0 202 6 309 0 3 0 0 0 0 2 0 0 0 0 0 0
A 311 4 0 0 36 6 308 0 310 0 0 0 0 1 0 0 0 0 0 0
A 312 10 0 0 309 6 303 10 0 0 0 0 0 0 0 0 0 0 0 0
X 1 33
A 313 10 0 0 312 6 303 22 0 0 0 0 0 0 0 0 0 0 0 0
X 1 51
A 314 10 0 0 313 6 303 13 0 0 0 0 0 0 0 0 0 0 0 0
X 1 35
A 315 10 0 0 314 6 303 1 0 0 0 0 0 0 0 0 0 0 0 0
X 1 13
A 317 1 0 1 0 236 877 0 0 0 0 0 0 0 0 0 0 0 0 0
A 318 10 0 0 0 6 317 4 0 0 0 0 0 0 0 0 0 0 0 0
X 1 27
A 319 10 0 0 318 6 317 7 0 0 0 0 0 0 0 0 0 0 0 0
X 1 29
A 320 4 0 0 0 6 319 0 3 0 0 0 0 2 0 0 0 0 0 0
A 321 4 0 0 0 6 318 0 320 0 0 0 0 1 0 0 0 0 0 0
A 322 10 0 0 319 6 317 10 0 0 0 0 0 0 0 0 0 0 0 0
X 1 33
A 323 10 0 0 322 6 317 13 0 0 0 0 0 0 0 0 0 0 0 0
X 1 35
A 324 10 0 0 323 6 317 1 0 0 0 0 0 0 0 0 0 0 0 0
X 1 13
A 326 1 0 1 239 242 883 0 0 0 0 0 0 0 0 0 0 0 0 0
A 327 10 0 0 0 6 326 4 0 0 0 0 0 0 0 0 0 0 0 0
X 1 27
A 328 10 0 0 327 6 326 7 0 0 0 0 0 0 0 0 0 0 0 0
X 1 29
A 329 4 0 0 199 6 328 0 3 0 0 0 0 2 0 0 0 0 0 0
A 330 4 0 0 0 6 327 0 329 0 0 0 0 1 0 0 0 0 0 0
A 331 10 0 0 328 6 326 10 0 0 0 0 0 0 0 0 0 0 0 0
X 1 33
A 332 10 0 0 331 6 326 13 0 0 0 0 0 0 0 0 0 0 0 0
X 1 35
A 333 10 0 0 332 6 326 1 0 0 0 0 0 0 0 0 0 0 0 0
X 1 13
A 335 1 0 1 0 248 889 0 0 0 0 0 0 0 0 0 0 0 0 0
A 336 10 0 0 0 6 335 4 0 0 0 0 0 0 0 0 0 0 0 0
X 1 27
A 337 10 0 0 336 6 335 7 0 0 0 0 0 0 0 0 0 0 0 0
X 1 29
A 338 4 0 0 0 6 337 0 3 0 0 0 0 2 0 0 0 0 0 0
A 339 4 0 0 11 6 336 0 338 0 0 0 0 1 0 0 0 0 0 0
A 340 10 0 0 337 6 335 10 0 0 0 0 0 0 0 0 0 0 0 0
X 1 33
A 341 10 0 0 340 6 335 13 0 0 0 0 0 0 0 0 0 0 0 0
X 1 35
A 342 10 0 0 341 6 335 1 0 0 0 0 0 0 0 0 0 0 0 0
X 1 13
Z
Z
