V26 klist
9 pwcom.F90 S582 0
04/24/2012  15:53:20
use parameters private
use kinds private
use parameters private
use kinds private
enduse
D 56 21 9 2 15 34 0 0 0 0 0
 0 23 3 3 23 23
 0 21 23 3 21 21
D 59 21 9 1 3 21 0 0 0 0 0
 0 21 3 3 21 21
D 62 21 9 1 3 23 0 0 0 0 0
 0 23 3 3 23 23
D 65 21 6 1 47 46 0 1 0 0 1
 39 43 45 39 43 41
D 68 21 6 1 0 36 0 0 0 0 0
 0 36 0 3 36 0
S 582 24 0 0 0 6 1 0 4658 5 0 A 0 0 0 0 0 0 0 0 0 0 0 0 150 0 0 0 0 0 0 0 0 118 0 0 0 0 0 0 klist
S 584 23 0 0 0 9 589 582 4670 4 0 A 0 0 0 0 0 0 0 0 0 0 0 0 0 0 0 0 0 0 0 0 0 0 0 582 0 0 0 0 dp
S 586 23 0 0 0 6 604 582 4684 4 0 A 0 0 0 0 0 0 0 0 0 0 0 0 0 0 0 0 0 0 0 0 0 0 0 582 0 0 0 0 npk
S 587 3 0 0 0 6 1 1 0 0 0 A 0 0 0 0 0 0 0 0 0 8 0 0 0 0 0 0 0 0 0 0 0 0 0 0 0 0 0 0 6
S 588 3 0 0 0 6 1 1 0 0 0 A 0 0 0 0 0 0 0 0 0 4 0 0 0 0 0 0 0 0 0 0 0 0 0 0 0 0 0 0 6
R 589 16 1 kinds dp
S 597 3 0 0 0 6 1 1 0 0 0 A 0 0 0 0 0 0 0 0 0 40000 0 0 0 0 0 0 0 0 0 0 0 0 0 0 0 0 0 0 6
S 598 3 0 0 0 6 1 1 0 0 0 A 0 0 0 0 0 0 0 0 0 3 0 0 0 0 0 0 0 0 0 0 0 0 0 0 0 0 0 0 6
S 600 3 0 0 0 6 1 1 0 0 0 A 0 0 0 0 0 0 0 0 0 7 0 0 0 0 0 0 0 0 0 0 0 0 0 0 0 0 0 0 6
R 604 16 3 parameters npk
S 613 7 4 0 4 56 615 582 4781 800004 100 A 0 0 0 0 0 0 0 0 0 0 0 0 640 0 0 0 0 0 0 0 0 0 0 582 0 0 0 0 xk
S 614 3 0 0 0 6 0 1 0 0 0 A 0 0 0 0 0 0 0 0 0 120000 0 0 0 0 0 0 0 0 0 0 0 0 0 0 0 0 0 0 6
S 615 7 4 0 4 59 616 582 4784 800004 100 A 0 0 0 0 0 960064 0 0 0 0 0 0 640 0 0 0 0 0 0 0 0 0 0 582 0 0 0 0 wk
S 616 7 4 0 4 62 617 582 4787 800004 100 A 0 0 0 0 0 1280192 0 0 0 0 0 0 640 0 0 0 0 0 0 0 0 0 0 582 0 0 0 0 xqq
S 617 6 4 0 0 9 618 582 4791 4 0 A 0 0 0 0 0 1280216 0 0 0 0 0 0 640 0 0 0 0 0 0 0 0 0 0 582 0 0 0 0 degauss
S 618 6 4 0 0 9 619 582 4799 4 0 A 0 0 0 0 0 1280224 0 0 0 0 0 0 640 0 0 0 0 0 0 0 0 0 0 582 0 0 0 0 nelec
S 619 6 4 0 0 9 620 582 4805 4 0 A 0 0 0 0 0 1280232 0 0 0 0 0 0 640 0 0 0 0 0 0 0 0 0 0 582 0 0 0 0 nelup
S 620 6 4 0 0 9 621 582 4811 4 0 A 0 0 0 0 0 1280240 0 0 0 0 0 0 640 0 0 0 0 0 0 0 0 0 0 582 0 0 0 0 neldw
S 621 6 4 0 0 9 1 582 4817 4 0 A 0 0 0 0 0 1280248 0 0 0 0 0 0 640 0 0 0 0 0 0 0 0 0 0 582 0 0 0 0 tot_charge
S 622 7 6 0 0 65 1 582 4828 10a00004 51 A 0 0 0 0 0 0 626 0 0 0 628 0 0 0 0 0 0 0 0 625 0 0 627 582 0 0 0 0 ngk
S 623 6 4 0 0 6 632 582 4832 40800006 0 A 0 0 0 0 0 0 0 0 0 0 0 0 641 0 0 0 0 0 0 0 0 0 0 582 0 0 0 0 z_b_0
S 624 3 0 0 0 6 0 1 0 0 0 A 0 0 0 0 0 0 0 0 0 18 0 0 0 0 0 0 0 0 0 0 0 0 0 0 0 0 0 0 6
S 625 8 4 0 0 68 623 582 4838 40822064 1020 A 0 0 0 0 0 0 0 0 0 0 0 0 641 0 0 0 0 0 0 0 0 0 0 582 0 0 0 0 ngk$sd
S 626 6 4 0 0 7 627 582 4845 40802061 1020 A 0 0 0 0 0 72 0 0 0 0 0 0 641 0 0 0 0 0 0 0 0 0 0 582 0 0 0 0 ngk$p
S 627 6 4 0 0 7 625 582 4851 40802060 1020 A 0 0 0 0 0 80 0 0 0 0 0 0 641 0 0 0 0 0 0 0 0 0 0 582 0 0 0 0 ngk$o
S 628 22 1 0 0 6 1 582 4857 40000000 1000 A 0 0 0 0 0 0 0 622 0 0 0 0 625 0 0 0 0 0 0 0 0 0 0 582 0 0 0 0 ngk$arrdsc
S 629 3 0 0 0 6 0 1 0 0 0 A 0 0 0 0 0 0 0 0 0 13 0 0 0 0 0 0 0 0 0 0 0 0 0 0 0 0 0 0 6
S 630 3 0 0 0 6 0 1 0 0 0 A 0 0 0 0 0 0 0 0 0 14 0 0 0 0 0 0 0 0 0 0 0 0 0 0 0 0 0 0 6
S 631 3 0 0 0 6 0 1 0 0 0 A 0 0 0 0 0 0 0 0 0 17 0 0 0 0 0 0 0 0 0 0 0 0 0 0 0 0 0 0 6
S 632 6 4 0 0 6 633 582 4868 4 0 A 0 0 0 0 0 4 0 0 0 0 0 0 641 0 0 0 0 0 0 0 0 0 0 582 0 0 0 0 nks
S 633 6 4 0 0 6 634 582 4872 4 0 A 0 0 0 0 0 8 0 0 0 0 0 0 641 0 0 0 0 0 0 0 0 0 0 582 0 0 0 0 nkstot
S 634 6 4 0 0 6 635 582 4879 4 0 A 0 0 0 0 0 12 0 0 0 0 0 0 641 0 0 0 0 0 0 0 0 0 0 582 0 0 0 0 ngauss
S 635 6 4 0 0 6 636 582 4886 4 0 A 0 0 0 0 0 16 0 0 0 0 0 0 641 0 0 0 0 0 0 0 0 0 0 582 0 0 0 0 tot_magnetization
S 636 6 4 0 0 6 637 582 4904 4 0 A 0 0 0 0 0 20 0 0 0 0 0 0 641 0 0 0 0 0 0 0 0 0 0 582 0 0 0 0 multiplicity
S 637 6 4 0 0 16 638 582 4917 4 0 A 0 0 0 0 0 24 0 0 0 0 0 0 641 0 0 0 0 0 0 0 0 0 0 582 0 0 0 0 lgauss
S 638 6 4 0 0 16 639 582 4924 4 0 A 0 0 0 0 0 28 0 0 0 0 0 0 641 0 0 0 0 0 0 0 0 0 0 582 0 0 0 0 lxkcry
S 639 6 4 0 0 16 1 582 4931 4 0 A 0 0 0 0 0 32 0 0 0 0 0 0 641 0 0 0 0 0 0 0 0 0 0 582 0 0 0 0 two_fermi_energies
S 640 11 0 0 4 9 1 582 4950 40800000 801000 A 0 0 0 0 0 1280256 0 0 613 621 0 0 0 0 0 0 0 0 0 0 0 0 0 0 0 0 0 0 _klist$2
S 641 11 0 0 0 9 640 582 4959 40800000 801000 A 0 0 0 0 0 124 0 0 626 639 0 0 0 0 0 0 0 0 0 0 0 0 0 0 0 0 0 0 _klist$0
A 13 2 0 0 0 6 587 0 0 0 13 0 0 0 0 0 0 0 0 0
A 15 2 0 0 0 6 588 0 0 0 15 0 0 0 0 0 0 0 0 0
A 21 2 0 0 0 6 597 0 0 0 21 0 0 0 0 0 0 0 0 0
A 23 2 0 0 0 6 598 0 0 0 23 0 0 0 0 0 0 0 0 0
A 25 2 0 0 0 6 600 0 0 0 25 0 0 0 0 0 0 0 0 0
A 34 2 0 0 0 6 614 0 0 0 34 0 0 0 0 0 0 0 0 0
A 36 2 0 0 0 6 624 0 0 0 36 0 0 0 0 0 0 0 0 0
A 37 2 0 0 0 6 629 0 0 0 37 0 0 0 0 0 0 0 0 0
A 38 1 0 1 0 68 625 0 0 0 0 0 0 0 0 0 0 0 0 0
A 39 10 0 0 0 6 38 1 0 0 0 0 0 0 0 0 0 0 0 0
X 1 37
A 40 2 0 0 0 6 630 0 0 0 40 0 0 0 0 0 0 0 0 0
A 41 10 0 0 39 6 38 4 0 0 0 0 0 0 0 0 0 0 0 0
X 1 40
A 42 4 0 0 0 6 41 0 3 0 0 0 0 2 0 0 0 0 0 0
A 43 4 0 0 0 6 39 0 42 0 0 0 0 1 0 0 0 0 0 0
A 44 2 0 0 0 6 631 0 0 0 44 0 0 0 0 0 0 0 0 0
A 45 10 0 0 41 6 38 7 0 0 0 0 0 0 0 0 0 0 0 0
X 1 44
A 46 10 0 0 45 6 38 10 0 0 0 0 0 0 0 0 0 0 0 0
X 1 25
A 47 10 0 0 46 6 38 13 0 0 0 0 0 0 0 0 0 0 0 0
X 1 13
Z
Z
