V26 ktetra
9 pwcom.F90 S582 0
04/24/2012  15:53:20
enduse
D 56 21 6 2 35 33 0 1 0 0 1
 17 21 29 17 21 19
 23 27 31 23 27 25
D 59 21 6 1 0 14 0 0 0 0 0
 0 14 0 3 14 0
S 582 24 0 0 0 6 1 0 4658 5 0 A 0 0 0 0 0 0 0 0 0 0 0 0 192 0 0 0 0 0 0 0 0 176 0 0 0 0 0 0 ktetra
S 583 6 4 0 0 6 584 582 4665 4 0 A 0 0 0 0 0 0 0 0 0 0 0 0 607 0 0 0 0 0 0 0 0 0 0 582 0 0 0 0 nk1
S 584 6 4 0 0 6 585 582 4669 4 0 A 0 0 0 0 0 4 0 0 0 0 0 0 607 0 0 0 0 0 0 0 0 0 0 582 0 0 0 0 nk2
S 585 6 4 0 0 6 586 582 4673 4 0 A 0 0 0 0 0 8 0 0 0 0 0 0 607 0 0 0 0 0 0 0 0 0 0 582 0 0 0 0 nk3
S 586 6 4 0 0 6 587 582 4677 4 0 A 0 0 0 0 0 12 0 0 0 0 0 0 607 0 0 0 0 0 0 0 0 0 0 582 0 0 0 0 k1
S 587 6 4 0 0 6 588 582 4680 4 0 A 0 0 0 0 0 16 0 0 0 0 0 0 607 0 0 0 0 0 0 0 0 0 0 582 0 0 0 0 k2
S 588 6 4 0 0 6 589 582 4683 4 0 A 0 0 0 0 0 20 0 0 0 0 0 0 607 0 0 0 0 0 0 0 0 0 0 582 0 0 0 0 k3
S 589 6 4 0 0 6 591 582 4686 4 0 A 0 0 0 0 0 24 0 0 0 0 0 0 607 0 0 0 0 0 0 0 0 0 0 582 0 0 0 0 ntetra
S 590 7 6 0 0 56 1 582 4693 10a00004 51 A 0 0 0 0 0 0 595 0 0 0 597 0 0 0 0 0 0 0 0 594 0 0 596 582 0 0 0 0 tetra
S 591 6 4 0 0 6 592 582 4699 40800006 0 A 0 0 0 0 0 28 0 0 0 0 0 0 607 0 0 0 0 0 0 0 0 0 0 582 0 0 0 0 z_b_0
S 592 6 4 0 0 6 606 582 4705 40800006 0 A 0 0 0 0 0 32 0 0 0 0 0 0 607 0 0 0 0 0 0 0 0 0 0 582 0 0 0 0 z_b_1
S 593 3 0 0 0 6 0 1 0 0 0 A 0 0 0 0 0 0 0 0 0 24 0 0 0 0 0 0 0 0 0 0 0 0 0 0 0 0 0 0 6
S 594 8 4 0 0 59 583 582 4711 40822064 1020 A 0 0 0 0 0 0 0 0 0 0 0 0 607 0 0 0 0 0 0 0 0 0 0 582 0 0 0 0 tetra$sd
S 595 6 4 0 0 7 596 582 4720 40802061 1020 A 0 0 0 0 0 96 0 0 0 0 0 0 607 0 0 0 0 0 0 0 0 0 0 582 0 0 0 0 tetra$p
S 596 6 4 0 0 7 594 582 4728 40802060 1020 A 0 0 0 0 0 104 0 0 0 0 0 0 607 0 0 0 0 0 0 0 0 0 0 582 0 0 0 0 tetra$o
S 597 22 1 0 0 9 1 582 4736 40000000 1000 A 0 0 0 0 0 0 0 590 0 0 0 0 594 0 0 0 0 0 0 0 0 0 0 582 0 0 0 0 tetra$arrdsc
S 598 3 0 0 0 6 0 1 0 0 0 A 0 0 0 0 0 0 0 0 0 13 0 0 0 0 0 0 0 0 0 0 0 0 0 0 0 0 0 0 6
S 599 3 0 0 0 6 0 1 0 0 0 A 0 0 0 0 0 0 0 0 0 14 0 0 0 0 0 0 0 0 0 0 0 0 0 0 0 0 0 0 6
S 600 3 0 0 0 6 0 1 0 0 0 A 0 0 0 0 0 0 0 0 0 19 0 0 0 0 0 0 0 0 0 0 0 0 0 0 0 0 0 0 6
S 601 3 0 0 0 6 0 1 0 0 0 A 0 0 0 0 0 0 0 0 0 20 0 0 0 0 0 0 0 0 0 0 0 0 0 0 0 0 0 0 6
S 602 3 0 0 0 6 0 1 0 0 0 A 0 0 0 0 0 0 0 0 0 17 0 0 0 0 0 0 0 0 0 0 0 0 0 0 0 0 0 0 6
S 603 3 0 0 0 6 0 1 0 0 0 A 0 0 0 0 0 0 0 0 0 23 0 0 0 0 0 0 0 0 0 0 0 0 0 0 0 0 0 0 6
S 604 3 0 0 0 6 0 1 0 0 0 A 0 0 0 0 0 0 0 0 0 7 0 0 0 0 0 0 0 0 0 0 0 0 0 0 0 0 0 0 6
S 605 3 0 0 0 6 0 1 0 0 0 A 0 0 0 0 0 0 0 0 0 8 0 0 0 0 0 0 0 0 0 0 0 0 0 0 0 0 0 0 6
S 606 6 4 0 0 16 1 582 4749 4 0 A 0 0 0 0 0 36 0 0 0 0 0 0 607 0 0 0 0 0 0 0 0 0 0 582 0 0 0 0 ltetra
S 607 11 0 0 0 9 1 582 4756 40800000 801000 A 0 0 0 0 0 152 0 0 595 606 0 0 0 0 0 0 0 0 0 0 0 0 0 0 0 0 0 0 _ktetra$0
A 14 2 0 0 0 6 593 0 0 0 14 0 0 0 0 0 0 0 0 0
A 15 2 0 0 0 6 598 0 0 0 15 0 0 0 0 0 0 0 0 0
A 16 1 0 1 0 59 594 0 0 0 0 0 0 0 0 0 0 0 0 0
A 17 10 0 0 0 6 16 1 0 0 0 0 0 0 0 0 0 0 0 0
X 1 15
A 18 2 0 0 0 6 599 0 0 0 18 0 0 0 0 0 0 0 0 0
A 19 10 0 0 17 6 16 4 0 0 0 0 0 0 0 0 0 0 0 0
X 1 18
A 20 4 0 0 0 6 19 0 3 0 0 0 0 2 0 0 0 0 0 0
A 21 4 0 0 0 6 17 0 20 0 0 0 0 1 0 0 0 0 0 0
A 22 2 0 0 0 6 600 0 0 0 22 0 0 0 0 0 0 0 0 0
A 23 10 0 0 19 6 16 7 0 0 0 0 0 0 0 0 0 0 0 0
X 1 22
A 24 2 0 0 0 6 601 0 0 0 24 0 0 0 0 0 0 0 0 0
A 25 10 0 0 23 6 16 10 0 0 0 0 0 0 0 0 0 0 0 0
X 1 24
A 26 4 0 0 0 6 25 0 3 0 0 0 0 2 0 0 0 0 0 0
A 27 4 0 0 0 6 23 0 26 0 0 0 0 1 0 0 0 0 0 0
A 28 2 0 0 0 6 602 0 0 0 28 0 0 0 0 0 0 0 0 0
A 29 10 0 0 25 6 16 13 0 0 0 0 0 0 0 0 0 0 0 0
X 1 28
A 30 2 0 0 0 6 603 0 0 0 30 0 0 0 0 0 0 0 0 0
A 31 10 0 0 29 6 16 16 0 0 0 0 0 0 0 0 0 0 0 0
X 1 30
A 32 2 0 0 0 6 604 0 0 0 32 0 0 0 0 0 0 0 0 0
A 33 10 0 0 31 6 16 19 0 0 0 0 0 0 0 0 0 0 0 0
X 1 32
A 34 2 0 0 0 6 605 0 0 0 34 0 0 0 0 0 0 0 0 0
A 35 10 0 0 33 6 16 22 0 0 0 0 0 0 0 0 0 0 0 0
X 1 34
Z
Z
