V26 ldau
9 pwcom.F90 S582 0
04/24/2012  15:53:20
use parameters private
use kinds private
use parameters private
use kinds private
enduse
D 56 21 12 2 55 54 0 1 0 0 1
 39 43 51 39 43 41
 45 49 53 45 49 47
D 59 21 6 1 0 36 0 0 0 0 0
 0 36 0 3 36 0
D 62 21 9 1 3 18 0 0 0 0 0
 0 18 3 3 18 18
D 65 21 9 1 3 18 0 0 0 0 0
 0 18 3 3 18 18
D 68 21 9 3 57 56 0 0 0 0 0
 0 25 3 3 25 25
 0 30 25 3 30 30
 0 18 40 3 18 18
D 71 21 6 1 3 18 0 0 0 0 0
 0 18 3 3 18 18
D 74 18 59
S 582 24 0 0 0 6 1 0 4658 10005 0 A 0 0 0 0 0 0 0 0 0 0 0 0 482 0 0 0 0 0 0 0 0 454 0 0 0 0 0 0 ldau
S 584 23 0 0 0 9 591 582 4669 4 0 A 0 0 0 0 0 0 0 0 0 0 0 0 0 0 0 0 0 0 0 0 0 0 0 582 0 0 0 0 dp
S 586 23 0 0 0 6 608 582 4683 4 0 A 0 0 0 0 0 0 0 0 0 0 0 0 0 0 0 0 0 0 0 0 0 0 0 582 0 0 0 0 lqmax
S 587 23 0 0 0 6 612 582 4689 4 0 A 0 0 0 0 0 0 0 0 0 0 0 0 0 0 0 0 0 0 0 0 0 0 0 582 0 0 0 0 nspinx
S 588 23 0 0 0 6 604 582 4696 4 0 A 0 0 0 0 0 0 0 0 0 0 0 0 0 0 0 0 0 0 0 0 0 0 0 582 0 0 0 0 ntypx
S 589 3 0 0 0 6 1 1 0 0 0 A 0 0 0 0 0 0 0 0 0 8 0 0 0 0 0 0 0 0 0 0 0 0 0 0 0 0 0 0 6
R 591 16 1 kinds dp
S 598 3 0 0 0 6 1 1 0 0 0 A 0 0 0 0 0 0 0 0 0 10 0 0 0 0 0 0 0 0 0 0 0 0 0 0 0 0 0 0 6
S 601 3 0 0 0 6 1 1 0 0 0 A 0 0 0 0 0 0 0 0 0 2 0 0 0 0 0 0 0 0 0 0 0 0 0 0 0 0 0 0 6
S 602 3 0 0 0 6 1 1 0 0 0 A 0 0 0 0 0 0 0 0 0 7 0 0 0 0 0 0 0 0 0 0 0 0 0 0 0 0 0 0 6
R 604 16 1 parameters ntypx
R 608 16 5 parameters lqmax
R 612 16 9 parameters nspinx
S 615 7 6 0 0 56 1 582 4780 10a00004 51 A 0 0 0 0 0 0 620 0 0 0 622 0 0 0 0 0 0 0 0 619 0 0 621 582 0 0 0 0 swfcatom
S 616 6 4 0 0 6 617 582 4789 40800006 0 A 0 0 0 0 0 0 0 0 0 0 0 0 642 0 0 0 0 0 0 0 0 0 0 582 0 0 0 0 z_b_0
S 617 6 4 0 0 6 635 582 4795 40800006 0 A 0 0 0 0 0 4 0 0 0 0 0 0 642 0 0 0 0 0 0 0 0 0 0 582 0 0 0 0 z_b_1
S 618 3 0 0 0 6 0 1 0 0 0 A 0 0 0 0 0 0 0 0 0 24 0 0 0 0 0 0 0 0 0 0 0 0 0 0 0 0 0 0 6
S 619 8 4 0 0 59 616 582 4801 40822064 1020 A 0 0 0 0 0 0 0 0 0 0 0 0 642 0 0 0 0 0 0 0 0 0 0 582 0 0 0 0 swfcatom$sd
S 620 6 4 0 0 7 621 582 4813 40802061 1020 A 0 0 0 0 0 96 0 0 0 0 0 0 642 0 0 0 0 0 0 0 0 0 0 582 0 0 0 0 swfcatom$p
S 621 6 4 0 0 7 619 582 4824 40802060 1020 A 0 0 0 0 0 104 0 0 0 0 0 0 642 0 0 0 0 0 0 0 0 0 0 582 0 0 0 0 swfcatom$o
S 622 22 1 0 0 9 1 582 4835 40000000 1000 A 0 0 0 0 0 0 0 615 0 0 0 0 619 0 0 0 0 0 0 0 0 0 0 582 0 0 0 0 swfcatom$arrdsc
S 623 3 0 0 0 6 0 1 0 0 0 A 0 0 0 0 0 0 0 0 0 13 0 0 0 0 0 0 0 0 0 0 0 0 0 0 0 0 0 0 6
S 624 3 0 0 0 6 0 1 0 0 0 A 0 0 0 0 0 0 0 0 0 14 0 0 0 0 0 0 0 0 0 0 0 0 0 0 0 0 0 0 6
S 625 3 0 0 0 6 0 1 0 0 0 A 0 0 0 0 0 0 0 0 0 19 0 0 0 0 0 0 0 0 0 0 0 0 0 0 0 0 0 0 6
S 626 3 0 0 0 6 0 1 0 0 0 A 0 0 0 0 0 0 0 0 0 20 0 0 0 0 0 0 0 0 0 0 0 0 0 0 0 0 0 0 6
S 627 3 0 0 0 6 0 1 0 0 0 A 0 0 0 0 0 0 0 0 0 17 0 0 0 0 0 0 0 0 0 0 0 0 0 0 0 0 0 0 6
S 628 3 0 0 0 6 0 1 0 0 0 A 0 0 0 0 0 0 0 0 0 23 0 0 0 0 0 0 0 0 0 0 0 0 0 0 0 0 0 0 6
S 629 6 4 0 0 9 630 582 4851 4 0 A 0 0 0 0 0 0 0 0 0 0 0 0 643 0 0 0 0 0 0 0 0 0 0 582 0 0 0 0 eth
S 630 7 4 0 4 62 631 582 4855 800004 100 A 0 0 0 0 0 16 0 0 0 0 0 0 643 0 0 0 0 0 0 0 0 0 0 582 0 0 0 0 hubbard_u
S 631 7 4 0 4 65 632 582 4865 800004 100 A 0 0 0 0 0 96 0 0 0 0 0 0 643 0 0 0 0 0 0 0 0 0 0 582 0 0 0 0 hubbard_alpha
S 632 7 4 0 4 68 1 582 4879 800004 100 A 0 0 0 0 0 176 0 0 0 0 0 0 643 0 0 0 0 0 0 0 0 0 0 582 0 0 0 0 starting_ns
S 633 3 0 0 0 6 0 1 0 0 0 A 0 0 0 0 0 0 0 0 0 140 0 0 0 0 0 0 0 0 0 0 0 0 0 0 0 0 0 0 6
S 634 3 0 0 0 6 0 1 0 0 0 A 0 0 0 0 0 0 0 0 0 22 0 0 0 0 0 0 0 0 0 0 0 0 0 0 0 0 0 0 6
S 635 6 4 0 0 6 636 582 4891 4 0 A 0 0 0 0 0 8 0 0 0 0 0 0 642 0 0 0 0 0 0 0 0 0 0 582 0 0 0 0 niter_with_fixed_ns
S 636 7 4 0 4 71 638 582 4911 800004 100 A 0 0 0 0 0 16 0 0 0 0 0 0 642 0 0 0 0 0 0 0 0 0 0 582 0 0 0 0 hubbard_l
S 637 6 4 0 0 6 1 582 4921 80000c 0 A 0 0 0 0 0 0 0 0 0 0 0 0 644 0 0 0 0 0 0 0 0 0 0 582 0 0 0 0 hubbard_lmax
S 638 6 4 0 0 16 639 582 4934 4 0 A 0 0 0 0 0 56 0 0 0 0 0 0 642 0 0 0 0 0 0 0 0 0 0 582 0 0 0 0 lda_plus_u
S 639 6 4 0 0 16 1 582 4945 4 0 A 0 0 0 0 0 60 0 0 0 0 0 0 642 0 0 0 0 0 0 0 0 0 0 582 0 0 0 0 conv_ns
S 640 3 0 0 0 6 0 1 0 0 0 A 0 0 0 0 0 0 0 0 0 30 0 0 0 0 0 0 0 0 0 0 0 0 0 0 0 0 0 0 6
S 641 6 4 0 0 74 1 582 4953 4 0 A 0 0 0 0 0 0 0 0 0 0 0 0 645 0 0 0 0 0 0 0 0 0 0 582 0 0 0 0 u_projection
S 642 11 0 0 4 9 1 582 4966 40800000 801000 A 0 0 0 0 0 176 0 0 620 639 0 0 0 0 0 0 0 0 0 0 0 0 0 0 0 0 0 0 _ldau$0
S 643 11 0 0 4 9 642 582 4974 40800000 801000 A 0 0 0 0 0 1296 0 0 629 632 0 0 0 0 0 0 0 0 0 0 0 0 0 0 0 0 0 0 _ldau$2
S 644 11 0 0 0 9 643 582 4982 40800008 801000 A 0 0 0 0 0 4 0 0 637 637 0 0 0 0 0 0 0 0 0 0 0 0 0 0 0 0 0 0 _ldau$8
S 645 11 0 0 0 9 644 582 4990 40800000 801000 A 0 0 0 0 0 30 0 0 641 641 0 0 0 0 0 0 0 0 0 0 0 0 0 0 0 0 0 0 _ldau$1
A 13 2 0 0 0 6 589 0 0 0 13 0 0 0 0 0 0 0 0 0
A 18 2 0 0 0 6 598 0 0 0 18 0 0 0 0 0 0 0 0 0
A 25 2 0 0 0 6 602 0 0 0 25 0 0 0 0 0 0 0 0 0
A 30 2 0 0 0 6 601 0 0 0 30 0 0 0 0 0 0 0 0 0
A 36 2 0 0 0 6 618 0 0 0 36 0 0 0 0 0 0 0 0 0
A 37 2 0 0 0 6 623 0 0 0 37 0 0 0 0 0 0 0 0 0
A 38 1 0 1 0 59 619 0 0 0 0 0 0 0 0 0 0 0 0 0
A 39 10 0 0 0 6 38 1 0 0 0 0 0 0 0 0 0 0 0 0
X 1 37
A 40 2 0 0 0 6 624 0 0 0 40 0 0 0 0 0 0 0 0 0
A 41 10 0 0 39 6 38 4 0 0 0 0 0 0 0 0 0 0 0 0
X 1 40
A 42 4 0 0 0 6 41 0 3 0 0 0 0 2 0 0 0 0 0 0
A 43 4 0 0 0 6 39 0 42 0 0 0 0 1 0 0 0 0 0 0
A 44 2 0 0 0 6 625 0 0 0 44 0 0 0 0 0 0 0 0 0
A 45 10 0 0 41 6 38 7 0 0 0 0 0 0 0 0 0 0 0 0
X 1 44
A 46 2 0 0 0 6 626 0 0 0 46 0 0 0 0 0 0 0 0 0
A 47 10 0 0 45 6 38 10 0 0 0 0 0 0 0 0 0 0 0 0
X 1 46
A 48 4 0 0 0 6 47 0 3 0 0 0 0 2 0 0 0 0 0 0
A 49 4 0 0 0 6 45 0 48 0 0 0 0 1 0 0 0 0 0 0
A 50 2 0 0 0 6 627 0 0 0 50 0 0 0 0 0 0 0 0 0
A 51 10 0 0 47 6 38 13 0 0 0 0 0 0 0 0 0 0 0 0
X 1 50
A 52 2 0 0 0 6 628 0 0 0 52 0 0 0 0 0 0 0 0 0
A 53 10 0 0 51 6 38 16 0 0 0 0 0 0 0 0 0 0 0 0
X 1 52
A 54 10 0 0 53 6 38 19 0 0 0 0 0 0 0 0 0 0 0 0
X 1 25
A 55 10 0 0 54 6 38 22 0 0 0 0 0 0 0 0 0 0 0 0
X 1 13
A 56 2 0 0 0 6 633 0 0 0 56 0 0 0 0 0 0 0 0 0
A 57 2 0 0 0 6 634 0 0 0 57 0 0 0 0 0 0 0 0 0
A 58 1 0 0 0 6 637 0 0 0 0 0 0 0 0 0 0 0 0 0
A 59 2 0 0 0 6 640 0 0 0 59 0 0 0 0 0 0 0 0 0
Z
Z
