V26 lsda_mod
9 pwcom.F90 S582 0
04/24/2012  15:53:20
use parameters private
use kinds private
use parameters private
use kinds private
enduse
D 56 21 9 1 3 18 0 0 0 0 0
 0 18 3 3 18 18
D 59 21 6 1 3 21 0 0 0 0 0
 0 21 3 3 21 21
S 582 24 0 0 0 6 1 0 4658 5 0 A 0 0 0 0 0 0 0 0 0 0 0 0 173 0 0 0 0 0 0 0 0 153 0 0 0 0 0 0 lsda_mod
S 584 23 0 0 0 9 590 582 4673 4 0 A 0 0 0 0 0 0 0 0 0 0 0 0 0 0 0 0 0 0 0 0 0 0 0 582 0 0 0 0 dp
S 586 23 0 0 0 6 603 582 4687 4 0 A 0 0 0 0 0 0 0 0 0 0 0 0 0 0 0 0 0 0 0 0 0 0 0 582 0 0 0 0 ntypx
S 587 23 0 0 0 6 605 582 4693 4 0 A 0 0 0 0 0 0 0 0 0 0 0 0 0 0 0 0 0 0 0 0 0 0 0 582 0 0 0 0 npk
R 590 16 1 kinds dp
S 597 3 0 0 0 6 1 1 0 0 0 A 0 0 0 0 0 0 0 0 0 10 0 0 0 0 0 0 0 0 0 0 0 0 0 0 0 0 0 0 6
S 598 3 0 0 0 6 1 1 0 0 0 A 0 0 0 0 0 0 0 0 0 40000 0 0 0 0 0 0 0 0 0 0 0 0 0 0 0 0 0 0 6
R 603 16 1 parameters ntypx
R 605 16 3 parameters npk
S 614 6 4 0 0 16 618 582 4784 4 0 A 0 0 0 0 0 0 0 0 0 0 0 0 621 0 0 0 0 0 0 0 0 0 0 582 0 0 0 0 lsda
S 615 6 4 0 0 9 616 582 4789 4 0 A 0 0 0 0 0 0 0 0 0 0 0 0 622 0 0 0 0 0 0 0 0 0 0 582 0 0 0 0 magtot
S 616 6 4 0 0 9 617 582 4796 4 0 A 0 0 0 0 0 8 0 0 0 0 0 0 622 0 0 0 0 0 0 0 0 0 0 582 0 0 0 0 absmag
S 617 7 4 0 4 56 1 582 4803 800004 100 A 0 0 0 0 0 16 0 0 0 0 0 0 622 0 0 0 0 0 0 0 0 0 0 582 0 0 0 0 starting_magnetization
S 618 6 4 0 0 6 619 582 4826 4 0 A 0 0 0 0 0 4 0 0 0 0 0 0 621 0 0 0 0 0 0 0 0 0 0 582 0 0 0 0 nspin
S 619 6 4 0 0 6 620 582 4832 4 0 A 0 0 0 0 0 8 0 0 0 0 0 0 621 0 0 0 0 0 0 0 0 0 0 582 0 0 0 0 current_spin
S 620 7 4 0 4 59 1 582 4845 800004 100 A 0 0 0 0 0 16 0 0 0 0 0 0 621 0 0 0 0 0 0 0 0 0 0 582 0 0 0 0 isk
S 621 11 0 0 4 9 1 582 4849 40800000 801000 A 0 0 0 0 0 160080 0 0 614 620 0 0 0 0 0 0 0 0 0 0 0 0 0 0 0 0 0 0 _lsda_mod$0
S 622 11 0 0 4 9 621 582 4861 40800000 801000 A 0 0 0 0 0 96 0 0 615 617 0 0 0 0 0 0 0 0 0 0 0 0 0 0 0 0 0 0 _lsda_mod$2
A 18 2 0 0 0 6 597 0 0 0 18 0 0 0 0 0 0 0 0 0
A 21 2 0 0 0 6 598 0 0 0 21 0 0 0 0 0 0 0 0 0
Z
Z
