V26 noncollin_module
10 noncol.F90 S582 0
04/24/2012  15:53:22
use parameters private
use kinds private
use parameters private
use kinds private
enduse
D 56 21 6 1 47 46 0 1 0 0 1
 39 43 45 39 43 41
D 59 21 6 1 0 36 0 0 0 0 0
 0 36 0 3 36 0
D 62 21 9 1 3 18 0 0 0 0 0
 0 18 3 3 18 18
D 65 21 9 1 3 18 0 0 0 0 0
 0 18 3 3 18 18
D 68 21 9 2 15 48 0 0 0 0 0
 0 23 3 3 23 23
 0 18 23 3 18 18
D 71 21 9 1 3 23 0 0 0 0 0
 0 23 3 3 23 23
D 74 21 9 1 3 23 0 0 0 0 0
 0 23 3 3 23 23
D 77 21 9 1 61 60 0 1 0 0 1
 55 58 59 55 58 56
D 80 21 6 1 0 36 0 0 0 0 0
 0 36 0 3 36 0
D 83 21 9 1 70 69 0 1 0 0 1
 64 67 68 64 67 65
D 86 21 6 1 0 36 0 0 0 0 0
 0 36 0 3 36 0
D 89 21 9 2 89 88 0 1 0 0 1
 75 78 85 75 78 76
 80 84 87 80 84 82
D 92 21 6 1 0 73 0 0 0 0 0
 0 73 0 3 73 0
D 95 21 9 1 3 23 0 0 0 0 0
 0 23 3 3 23 23
S 582 24 0 0 0 6 1 0 4658 10005 0 A 0 0 0 0 0 0 0 0 0 0 0 0 0 0 0 0 0 0 0 0 0 12 0 0 0 0 0 0 noncollin_module
S 584 23 0 0 0 9 589 582 4681 4 0 A 0 0 0 0 0 0 0 0 0 0 0 0 0 0 0 0 0 0 0 0 0 0 0 582 0 0 0 0 dp
S 586 23 0 0 0 6 602 582 4695 4 0 A 0 0 0 0 0 0 0 0 0 0 0 0 0 0 0 0 0 0 0 0 0 0 0 582 0 0 0 0 ntypx
S 587 3 0 0 0 6 1 1 0 0 0 A 0 0 0 0 0 0 0 0 0 8 0 0 0 0 0 0 0 0 0 0 0 0 0 0 0 0 0 0 6
S 588 3 0 0 0 6 1 1 0 0 0 A 0 0 0 0 0 0 0 0 0 4 0 0 0 0 0 0 0 0 0 0 0 0 0 0 0 0 0 0 6
R 589 16 1 kinds dp
S 596 3 0 0 0 6 1 1 0 0 0 A 0 0 0 0 0 0 0 0 0 10 0 0 0 0 0 0 0 0 0 0 0 0 0 0 0 0 0 0 6
S 598 3 0 0 0 6 1 1 0 0 0 A 0 0 0 0 0 0 0 0 0 3 0 0 0 0 0 0 0 0 0 0 0 0 0 0 0 0 0 0 6
S 600 3 0 0 0 6 1 1 0 0 0 A 0 0 0 0 0 0 0 0 0 7 0 0 0 0 0 0 0 0 0 0 0 0 0 0 0 0 0 0 6
R 602 16 1 parameters ntypx
S 613 6 4 0 0 6 614 582 4792 4 0 A 0 0 0 0 0 0 0 0 0 0 0 0 660 0 0 0 0 0 0 0 0 0 0 582 0 0 0 0 npol
S 614 6 4 0 0 6 617 582 4797 4 0 A 0 0 0 0 0 4 0 0 0 0 0 0 660 0 0 0 0 0 0 0 0 0 0 582 0 0 0 0 report
S 615 6 4 0 0 6 1 582 4804 80000c 0 A 0 0 0 0 0 0 0 0 0 0 0 0 661 0 0 0 0 0 0 0 0 0 0 582 0 0 0 0 i_cons
S 616 7 6 0 0 56 1 582 4811 10a00004 51 A 0 0 0 0 0 0 620 0 0 0 622 0 0 0 0 0 0 0 0 619 0 0 621 582 0 0 0 0 pointlist
S 617 6 4 0 0 6 626 582 4821 40800006 0 A 0 0 0 0 0 8 0 0 0 0 0 0 660 0 0 0 0 0 0 0 0 0 0 582 0 0 0 0 z_b_0
S 618 3 0 0 0 6 0 1 0 0 0 A 0 0 0 0 0 0 0 0 0 18 0 0 0 0 0 0 0 0 0 0 0 0 0 0 0 0 0 0 6
S 619 8 4 0 0 59 639 582 4827 40822064 1020 A 0 0 0 0 0 0 0 0 0 0 0 0 660 0 0 0 0 0 0 0 0 0 0 582 0 0 0 0 pointlist$sd
S 620 6 4 0 0 7 621 582 4840 40802061 1020 A 0 0 0 0 0 72 0 0 0 0 0 0 660 0 0 0 0 0 0 0 0 0 0 582 0 0 0 0 pointlist$p
S 621 6 4 0 0 7 619 582 4852 40802060 1020 A 0 0 0 0 0 80 0 0 0 0 0 0 660 0 0 0 0 0 0 0 0 0 0 582 0 0 0 0 pointlist$o
S 622 22 1 0 0 9 1 582 4864 40000000 1000 A 0 0 0 0 0 0 0 616 0 0 0 0 619 0 0 0 0 0 0 0 0 0 0 582 0 0 0 0 pointlist$arrdsc
S 623 3 0 0 0 6 0 1 0 0 0 A 0 0 0 0 0 0 0 0 0 13 0 0 0 0 0 0 0 0 0 0 0 0 0 0 0 0 0 0 6
S 624 3 0 0 0 6 0 1 0 0 0 A 0 0 0 0 0 0 0 0 0 14 0 0 0 0 0 0 0 0 0 0 0 0 0 0 0 0 0 0 6
S 625 3 0 0 0 6 0 1 0 0 0 A 0 0 0 0 0 0 0 0 0 17 0 0 0 0 0 0 0 0 0 0 0 0 0 0 0 0 0 0 6
S 626 6 4 0 0 16 637 582 4881 4 0 A 0 0 0 0 0 12 0 0 0 0 0 0 660 0 0 0 0 0 0 0 0 0 0 582 0 0 0 0 noncolin
S 627 7 4 0 4 62 628 582 4890 800004 100 A 0 0 0 0 0 0 0 0 0 0 0 0 662 0 0 0 0 0 0 0 0 0 0 582 0 0 0 0 angle1
S 628 7 4 0 4 65 631 582 4897 800004 100 A 0 0 0 0 0 80 0 0 0 0 0 0 662 0 0 0 0 0 0 0 0 0 0 582 0 0 0 0 angle2
S 629 7 4 0 4 68 632 582 4904 80000c 100 A 0 0 0 0 0 0 0 0 0 0 0 0 663 0 0 0 0 0 0 0 0 0 0 582 0 0 0 0 mcons
S 630 3 0 0 0 6 0 1 0 0 0 A 0 0 0 0 0 0 0 0 0 30 0 0 0 0 0 0 0 0 0 0 0 0 0 0 0 0 0 0 6
S 631 7 4 0 4 71 633 582 4915 800004 100 A 0 0 0 0 0 160 0 0 0 0 0 0 662 0 0 0 0 0 0 0 0 0 0 582 0 0 0 0 magtot_nc
S 632 7 4 0 4 74 634 582 4925 80000c 100 A 0 0 0 0 0 240 0 0 0 0 0 0 663 0 0 0 0 0 0 0 0 0 0 582 0 0 0 0 bfield
S 633 6 4 0 0 9 635 582 4937 4 0 A 0 0 0 0 0 184 0 0 0 0 0 0 662 0 0 0 0 0 0 0 0 0 0 582 0 0 0 0 vtcon
S 634 6 4 0 0 9 1 582 4943 80000c 0 A 0 0 0 0 0 264 0 0 0 0 0 0 663 0 0 0 0 0 0 0 0 0 0 582 0 0 0 0 r_m
S 635 6 4 0 0 9 659 582 4953 4 0 A 0 0 0 0 0 192 0 0 0 0 0 0 662 0 0 0 0 0 0 0 0 0 0 582 0 0 0 0 lambda
S 636 7 6 0 0 77 1 582 4960 10a00004 51 A 0 0 0 0 0 0 639 0 0 0 641 0 0 0 0 0 0 0 0 638 0 0 640 582 0 0 0 0 factlist
S 637 6 4 0 0 6 643 582 4969 40800006 0 A 0 0 0 0 0 16 0 0 0 0 0 0 660 0 0 0 0 0 0 0 0 0 0 582 0 0 0 0 z_b_1
S 638 8 4 0 0 80 645 582 4975 40822064 1020 A 0 0 0 0 0 88 0 0 0 0 0 0 660 0 0 0 0 0 0 0 0 0 0 582 0 0 0 0 factlist$sd
S 639 6 4 0 0 7 640 582 4987 40802061 1020 A 0 0 0 0 0 160 0 0 0 0 0 0 660 0 0 0 0 0 0 0 0 0 0 582 0 0 0 0 factlist$p
S 640 6 4 0 0 7 638 582 4998 40802060 1020 A 0 0 0 0 0 168 0 0 0 0 0 0 660 0 0 0 0 0 0 0 0 0 0 582 0 0 0 0 factlist$o
S 641 22 1 0 0 9 1 582 5009 40000000 1000 A 0 0 0 0 0 0 0 636 0 0 0 0 638 0 0 0 0 0 0 0 0 0 0 582 0 0 0 0 factlist$arrdsc
S 642 7 6 0 0 83 1 582 5025 10a00004 51 A 0 0 0 0 0 0 645 0 0 0 647 0 0 0 0 0 0 0 0 644 0 0 646 582 0 0 0 0 r_loc
S 643 6 4 0 0 6 649 582 5031 40800006 0 A 0 0 0 0 0 20 0 0 0 0 0 0 660 0 0 0 0 0 0 0 0 0 0 582 0 0 0 0 z_b_2
S 644 8 4 0 0 86 653 582 5037 40822064 1020 A 0 0 0 0 0 176 0 0 0 0 0 0 660 0 0 0 0 0 0 0 0 0 0 582 0 0 0 0 r_loc$sd
S 645 6 4 0 0 7 646 582 5046 40802061 1020 A 0 0 0 0 0 248 0 0 0 0 0 0 660 0 0 0 0 0 0 0 0 0 0 582 0 0 0 0 r_loc$p
S 646 6 4 0 0 7 644 582 5054 40802060 1020 A 0 0 0 0 0 256 0 0 0 0 0 0 660 0 0 0 0 0 0 0 0 0 0 582 0 0 0 0 r_loc$o
S 647 22 1 0 0 9 1 582 5062 40000000 1000 A 0 0 0 0 0 0 0 642 0 0 0 0 644 0 0 0 0 0 0 0 0 0 0 582 0 0 0 0 r_loc$arrdsc
S 648 7 6 0 0 89 1 582 5075 10a00004 51 A 0 0 0 0 0 0 653 0 0 0 655 0 0 0 0 0 0 0 0 652 0 0 654 582 0 0 0 0 m_loc
S 649 6 4 0 0 6 650 582 5081 40800006 0 A 0 0 0 0 0 24 0 0 0 0 0 0 660 0 0 0 0 0 0 0 0 0 0 582 0 0 0 0 z_b_3
S 650 6 4 0 0 6 1 582 5087 40800006 0 A 0 0 0 0 0 28 0 0 0 0 0 0 660 0 0 0 0 0 0 0 0 0 0 582 0 0 0 0 z_b_4
S 651 3 0 0 0 6 0 1 0 0 0 A 0 0 0 0 0 0 0 0 0 24 0 0 0 0 0 0 0 0 0 0 0 0 0 0 0 0 0 0 6
S 652 8 4 0 0 92 613 582 5093 40822064 1020 A 0 0 0 0 0 264 0 0 0 0 0 0 660 0 0 0 0 0 0 0 0 0 0 582 0 0 0 0 m_loc$sd
S 653 6 4 0 0 7 654 582 5102 40802061 1020 A 0 0 0 0 0 360 0 0 0 0 0 0 660 0 0 0 0 0 0 0 0 0 0 582 0 0 0 0 m_loc$p
S 654 6 4 0 0 7 652 582 5110 40802060 1020 A 0 0 0 0 0 368 0 0 0 0 0 0 660 0 0 0 0 0 0 0 0 0 0 582 0 0 0 0 m_loc$o
S 655 22 1 0 0 6 1 582 5118 40000000 1000 A 0 0 0 0 0 0 0 648 0 0 0 0 652 0 0 0 0 0 0 0 0 0 0 582 0 0 0 0 m_loc$arrdsc
S 656 3 0 0 0 6 0 1 0 0 0 A 0 0 0 0 0 0 0 0 0 19 0 0 0 0 0 0 0 0 0 0 0 0 0 0 0 0 0 0 6
S 657 3 0 0 0 6 0 1 0 0 0 A 0 0 0 0 0 0 0 0 0 20 0 0 0 0 0 0 0 0 0 0 0 0 0 0 0 0 0 0 6
S 658 3 0 0 0 6 0 1 0 0 0 A 0 0 0 0 0 0 0 0 0 23 0 0 0 0 0 0 0 0 0 0 0 0 0 0 0 0 0 0 6
S 659 7 4 0 4 95 1 582 5131 800004 100 A 0 0 0 0 0 208 0 0 0 0 0 0 662 0 0 0 0 0 0 0 0 0 0 582 0 0 0 0 ux
S 660 11 0 0 0 9 1 582 5134 40800000 801000 A 0 0 0 0 0 408 0 0 620 650 0 0 0 0 0 0 0 0 0 0 0 0 0 0 0 0 0 0 _noncollin_module$0
S 661 11 0 0 0 9 660 582 5154 40800000 801000 A 0 0 0 0 0 4 0 0 615 615 0 0 0 0 0 0 0 0 0 0 0 0 0 0 0 0 0 0 _noncollin_module$8
S 662 11 0 0 4 9 661 582 5174 40800000 801000 A 0 0 0 0 0 232 0 0 627 659 0 0 0 0 0 0 0 0 0 0 0 0 0 0 0 0 0 0 _noncollin_module$2
S 663 11 0 0 4 9 662 582 5194 40800000 801000 A 0 0 0 0 0 272 0 0 629 634 0 0 0 0 0 0 0 0 0 0 0 0 0 0 0 0 0 0 _noncollin_module$10
S 664 23 5 0 0 0 665 582 5215 0 0 A 0 0 0 0 0 0 0 0 0 0 0 0 0 0 0 0 0 0 0 0 0 0 0 0 0 0 0 0 deallocate_noncol
S 665 14 5 0 0 0 1 664 5215 0 400000 A 0 0 0 0 0 0 0 4 0 0 0 0 0 0 0 0 0 0 0 0 0 57 0 582 0 0 0 0 deallocate_noncol
F 665 0
A 13 2 0 0 0 6 587 0 0 0 13 0 0 0 0 0 0 0 0 0
A 15 2 0 0 0 6 588 0 0 0 15 0 0 0 0 0 0 0 0 0
A 18 2 0 0 0 6 596 0 0 0 18 0 0 0 0 0 0 0 0 0
A 23 2 0 0 0 6 598 0 0 0 23 0 0 0 0 0 0 0 0 0
A 25 2 0 0 0 6 600 0 0 0 25 0 0 0 0 0 0 0 0 0
A 36 2 0 0 0 6 618 0 0 0 36 0 0 0 0 0 0 0 0 0
A 37 2 0 0 0 6 623 0 0 0 37 0 0 0 0 0 0 0 0 0
A 38 1 0 1 0 59 619 0 0 0 0 0 0 0 0 0 0 0 0 0
A 39 10 0 0 0 6 38 1 0 0 0 0 0 0 0 0 0 0 0 0
X 1 37
A 40 2 0 0 0 6 624 0 0 0 40 0 0 0 0 0 0 0 0 0
A 41 10 0 0 39 6 38 4 0 0 0 0 0 0 0 0 0 0 0 0
X 1 40
A 42 4 0 0 0 6 41 0 3 0 0 0 0 2 0 0 0 0 0 0
A 43 4 0 0 0 6 39 0 42 0 0 0 0 1 0 0 0 0 0 0
A 44 2 0 0 0 6 625 0 0 0 44 0 0 0 0 0 0 0 0 0
A 45 10 0 0 41 6 38 7 0 0 0 0 0 0 0 0 0 0 0 0
X 1 44
A 46 10 0 0 45 6 38 10 0 0 0 0 0 0 0 0 0 0 0 0
X 1 25
A 47 10 0 0 46 6 38 13 0 0 0 0 0 0 0 0 0 0 0 0
X 1 13
A 48 2 0 0 0 6 630 0 0 0 48 0 0 0 0 0 0 0 0 0
A 54 1 0 1 0 80 638 0 0 0 0 0 0 0 0 0 0 0 0 0
A 55 10 0 0 0 6 54 1 0 0 0 0 0 0 0 0 0 0 0 0
X 1 37
A 56 10 0 0 55 6 54 4 0 0 0 0 0 0 0 0 0 0 0 0
X 1 40
A 57 4 0 0 0 6 56 0 3 0 0 0 0 2 0 0 0 0 0 0
A 58 4 0 0 0 6 55 0 57 0 0 0 0 1 0 0 0 0 0 0
A 59 10 0 0 56 6 54 7 0 0 0 0 0 0 0 0 0 0 0 0
X 1 44
A 60 10 0 0 59 6 54 10 0 0 0 0 0 0 0 0 0 0 0 0
X 1 25
A 61 10 0 0 60 6 54 13 0 0 0 0 0 0 0 0 0 0 0 0
X 1 13
A 63 1 0 1 0 86 644 0 0 0 0 0 0 0 0 0 0 0 0 0
A 64 10 0 0 0 6 63 1 0 0 0 0 0 0 0 0 0 0 0 0
X 1 37
A 65 10 0 0 64 6 63 4 0 0 0 0 0 0 0 0 0 0 0 0
X 1 40
A 66 4 0 0 0 6 65 0 3 0 0 0 0 2 0 0 0 0 0 0
A 67 4 0 0 0 6 64 0 66 0 0 0 0 1 0 0 0 0 0 0
A 68 10 0 0 65 6 63 7 0 0 0 0 0 0 0 0 0 0 0 0
X 1 44
A 69 10 0 0 68 6 63 10 0 0 0 0 0 0 0 0 0 0 0 0
X 1 25
A 70 10 0 0 69 6 63 13 0 0 0 0 0 0 0 0 0 0 0 0
X 1 13
A 73 2 0 0 0 6 651 0 0 0 73 0 0 0 0 0 0 0 0 0
A 74 1 0 8 0 92 652 0 0 0 0 0 0 0 0 0 0 0 0 0
A 75 10 0 0 0 6 74 1 0 0 0 0 0 0 0 0 0 0 0 0
X 1 37
A 76 10 0 0 75 6 74 4 0 0 0 0 0 0 0 0 0 0 0 0
X 1 40
A 77 4 0 0 0 6 76 0 3 0 0 0 0 2 0 0 0 0 0 0
A 78 4 0 0 0 6 75 0 77 0 0 0 0 1 0 0 0 0 0 0
A 79 2 0 0 0 6 656 0 0 0 79 0 0 0 0 0 0 0 0 0
A 80 10 0 0 76 6 74 16 0 0 0 0 0 0 0 0 0 0 0 0
X 1 79
A 81 2 0 0 0 6 657 0 0 0 81 0 0 0 0 0 0 0 0 0
A 82 10 0 0 80 6 74 19 0 0 0 0 0 0 0 0 0 0 0 0
X 1 81
A 83 4 0 0 3 6 82 0 3 0 0 0 0 2 0 0 0 0 0 0
A 84 4 0 0 0 6 80 0 83 0 0 0 0 1 0 0 0 0 0 0
A 85 10 0 0 82 6 74 7 0 0 0 0 0 0 0 0 0 0 0 0
X 1 44
A 86 2 0 0 0 6 658 0 0 0 86 0 0 0 0 0 0 0 0 0
A 87 10 0 0 85 6 74 22 0 0 0 0 0 0 0 0 0 0 0 0
X 1 86
A 88 10 0 0 87 6 74 10 0 0 0 0 0 0 0 0 0 0 0 0
X 1 25
A 89 10 0 0 88 6 74 13 0 0 0 0 0 0 0 0 0 0 0 0
X 1 13
Z
Z
