V26 paw_onecenter
17 paw_onecenter.F90 S582 0
04/24/2012  15:54:13
use pseudo_types private
use lsda_mod private
use ions_base private
use uspp_param private
use mp private
use mp_global private
use paw_variables private
use kinds private
use pseudo_types private
use lsda_mod private
use ions_base private
use uspp_param private
use mp private
use mp_global private
use paw_variables private
use kinds private
enduse
D 56 24 630 640 629 7
D 98 21 56 1 101 107 0 1 0 0 1
 102 105 106 102 105 103
D 101 21 6 1 0 23 0 0 0 0 0
 0 23 0 3 23 0
D 104 24 681 20 680 3
D 793 24 2926 5360 2925 7
D 799 18 2
D 1080 18 2
D 1100 21 9 3 2055 2066 0 0 1 0 0
 0 2059 3 3 2060 2060
 0 2061 2060 3 2062 2062
 0 2063 2064 3 2065 2065
D 1103 21 9 3 2055 2066 0 0 1 0 0
 0 2059 3 3 2060 2060
 0 2061 2060 3 2062 2062
 0 2063 2064 3 2065 2065
D 1106 21 9 3 2067 2069 0 0 1 0 0
 0 2061 3 3 2062 2062
 0 21 2062 3 21 21
 0 21 2068 3 21 21
D 1109 21 9 3 2070 2075 0 0 1 0 0
 0 2059 3 3 2071 2071
 0 2061 2071 3 2072 2072
 0 2063 2073 3 2074 2074
D 1112 21 9 3 2076 2081 0 0 1 0 0
 0 2059 3 3 2077 2077
 0 2061 2077 3 2078 2078
 0 2063 2079 3 2080 2080
D 1115 21 9 3 2076 2081 0 0 1 0 0
 0 2059 3 3 2077 2077
 0 2061 2077 3 2078 2078
 0 2063 2079 3 2080 2080
D 1118 21 9 3 2082 2093 0 0 1 0 0
 0 2085 3 3 2086 2086
 0 2089 2086 3 2090 2090
 0 2063 2091 3 2092 2092
D 1121 21 9 1 3 2086 0 0 1 0 0
 0 2085 3 3 2086 2086
D 1124 21 9 3 2082 2093 0 0 1 0 0
 0 2085 3 3 2086 2086
 0 2089 2086 3 2090 2090
 0 2063 2091 3 2092 2092
D 1127 21 9 3 2094 2103 0 0 1 0 0
 0 2096 3 3 2097 2097
 0 2099 2097 3 2100 2100
 0 2063 2101 3 2102 2102
D 1130 21 9 1 3 2097 0 0 1 0 0
 0 2096 3 3 2097 2097
D 1133 21 9 3 2094 2103 0 0 1 0 0
 0 2096 3 3 2097 2097
 0 2099 2097 3 2100 2100
 0 2063 2101 3 2102 2102
D 1136 21 9 4 2104 2114 0 0 1 0 0
 0 2106 3 3 2107 2107
 0 18 2107 3 18 18
 0 2109 2110 3 2111 2111
 0 2063 2112 3 2113 2113
D 1139 21 9 3 2115 2120 0 0 1 0 0
 0 2106 3 3 2107 2107
 0 2117 2107 3 2118 2118
 0 2063 2119 3 2113 2113
D 1142 21 9 3 2121 2130 0 0 1 0 0
 0 2123 3 3 2124 2124
 0 2126 2124 3 2127 2127
 0 2063 2128 3 2129 2129
D 1145 21 9 2 2131 2132 0 0 1 0 0
 0 2123 3 3 2124 2124
 0 2063 2124 3 2129 2129
D 1148 21 9 1 3 2124 0 0 1 0 0
 0 2123 3 3 2124 2124
D 1151 21 9 2 2131 2132 0 0 1 0 0
 0 2123 3 3 2124 2124
 0 2063 2124 3 2129 2129
D 1154 21 9 3 2133 2135 0 0 1 0 0
 0 2123 3 3 2124 2124
 0 18 2124 3 18 18
 0 2063 2134 3 2129 2129
D 1157 21 9 3 2136 2145 0 0 1 0 0
 0 2138 3 3 2139 2139
 0 2141 2139 3 2142 2142
 0 2063 2143 3 2144 2144
D 1160 21 9 2 2146 2143 0 0 1 0 0
 0 2138 3 3 2139 2139
 0 2141 2139 3 2142 2142
D 1163 21 9 3 2147 2152 0 0 1 0 0
 0 2059 3 3 2148 2148
 0 2061 2148 3 2149 2149
 0 2063 2150 3 2151 2151
D 1166 21 9 3 2153 2161 0 0 1 0 0
 0 2155 3 3 2156 2156
 0 2158 2156 3 2159 2159
 0 2158 2160 3 2159 2159
D 1169 21 9 3 2162 2167 0 0 1 0 0
 0 2155 3 3 2156 2156
 0 2164 2156 3 2165 2165
 0 2063 2166 3 2151 2151
D 1172 21 9 3 2168 2177 0 0 1 0 0
 0 2155 3 3 2156 2156
 0 2171 2156 3 2172 2172
 2 2173 2174 2 2175 2176
D 1175 21 9 3 2178 2187 0 0 1 0 0
 0 2180 3 3 2181 2181
 0 2183 2181 3 2184 2184
 0 2063 2185 3 2186 2186
D 1178 21 9 2 2188 2189 0 0 1 0 0
 0 2180 3 3 2181 2181
 0 2063 2181 3 2186 2186
D 1181 21 9 3 2190 2199 0 0 1 0 0
 0 2192 3 3 2193 2193
 0 2195 2193 3 2196 2196
 0 2063 2197 3 2198 2198
D 1184 21 9 3 2200 2209 0 0 1 0 0
 0 2192 3 3 2193 2193
 0 2206 2193 3 2207 2207
 0 2063 2208 3 2198 2198
D 1187 21 9 4 2210 2220 0 0 1 0 0
 0 2212 3 3 2213 2213
 0 18 2213 3 18 18
 0 2215 2216 3 2217 2217
 0 2063 2218 3 2219 2219
D 1190 21 9 4 2221 2227 0 0 1 0 0
 0 2212 3 3 2213 2213
 0 18 2213 3 18 18
 0 2224 2216 3 2225 2225
 0 2063 2226 3 2219 2219
S 582 24 0 0 0 9 1 0 4658 10015 0 A 0 0 0 0 0 0 0 0 0 0 0 0 0 0 0 0 0 0 0 0 0 28 0 0 0 0 0 0 paw_onecenter
S 584 23 0 0 0 9 597 582 4678 14 0 A 0 0 0 0 0 0 0 0 0 0 0 0 0 0 0 0 0 0 0 0 0 0 0 582 0 0 0 0 dp
S 586 23 0 0 0 9 680 582 4695 14 0 A 0 0 0 0 0 0 0 0 0 0 0 0 0 0 0 0 0 0 0 0 0 0 0 582 0 0 0 0 paw_info
S 587 23 0 0 0 9 674 582 4704 14 0 A 0 0 0 0 0 0 0 0 0 0 0 0 0 0 0 0 0 0 0 0 0 0 0 582 0 0 0 0 rad
S 588 23 0 0 0 9 628 582 4708 14 0 A 0 0 0 0 0 0 0 0 0 0 0 0 0 0 0 0 0 0 0 0 0 0 0 582 0 0 0 0 radial_grad_style
S 590 23 0 0 0 6 1145 582 4736 14 0 A 0 0 0 0 0 0 0 0 0 0 0 0 0 0 0 0 0 0 0 0 0 0 0 582 0 0 0 0 nproc_image
S 591 23 0 0 0 6 1133 582 4748 14 0 A 0 0 0 0 0 0 0 0 0 0 0 0 0 0 0 0 0 0 0 0 0 0 0 582 0 0 0 0 me_image
S 592 23 0 0 0 6 1163 582 4757 14 0 A 0 0 0 0 0 0 0 0 0 0 0 0 0 0 0 0 0 0 0 0 0 0 0 582 0 0 0 0 intra_image_comm
S 594 19 0 0 0 6 1 582 4777 14 0 A 0 0 0 0 0 0 0 0 0 0 0 0 0 0 0 0 143 18 0 0 0 0 0 582 0 0 0 0 mp_sum
O 594 18 1942 1869 2011 1991 1974 1960 1930 1922 1918 1901 1887 1816 1808 1804 1790 1779 1771 1767
S 595 3 0 0 0 6 1 1 0 0 0 A 0 0 0 0 0 0 0 0 0 8 0 0 0 0 0 0 0 0 0 0 0 0 0 0 0 0 0 0 6
R 597 16 1 kinds dp
S 605 3 0 0 0 6 1 1 0 0 0 A 0 0 0 0 0 0 0 0 0 3 0 0 0 0 0 0 0 0 0 0 0 0 0 0 0 0 0 0 6
S 606 3 0 0 0 6 1 1 0 0 0 A 0 0 0 0 0 0 0 0 0 2 0 0 0 0 0 0 0 0 0 0 0 0 0 0 0 0 0 0 6
S 607 3 0 0 0 6 1 1 0 0 0 A 0 0 0 0 0 0 0 0 0 18 0 0 0 0 0 0 0 0 0 0 0 0 0 0 0 0 0 0 6
S 608 3 0 0 0 6 1 1 0 0 0 A 0 0 0 0 0 0 0 0 0 13 0 0 0 0 0 0 0 0 0 0 0 0 0 0 0 0 0 0 6
S 609 3 0 0 0 6 1 1 0 0 0 A 0 0 0 0 0 0 0 0 0 14 0 0 0 0 0 0 0 0 0 0 0 0 0 0 0 0 0 0 6
S 610 3 0 0 0 6 1 1 0 0 0 A 0 0 0 0 0 0 0 0 0 17 0 0 0 0 0 0 0 0 0 0 0 0 0 0 0 0 0 0 6
S 611 3 0 0 0 6 1 1 0 0 0 A 0 0 0 0 0 0 0 0 0 7 0 0 0 0 0 0 0 0 0 0 0 0 0 0 0 0 0 0 6
R 628 16 9 paw_variables radial_grad_style
R 629 25 10 paw_variables paw_radial_integrator
R 630 5 11 paw_variables lmax paw_radial_integrator
R 631 5 12 paw_variables ladd paw_radial_integrator
R 632 5 13 paw_variables lm_max paw_radial_integrator
R 633 5 14 paw_variables nx paw_radial_integrator
R 634 5 15 paw_variables ww paw_radial_integrator
R 636 5 17 paw_variables ww$sd paw_radial_integrator
R 637 5 18 paw_variables ww$p paw_radial_integrator
R 638 5 19 paw_variables ww$o paw_radial_integrator
R 640 5 21 paw_variables ylm paw_radial_integrator
R 643 5 24 paw_variables ylm$sd paw_radial_integrator
R 644 5 25 paw_variables ylm$p paw_radial_integrator
R 645 5 26 paw_variables ylm$o paw_radial_integrator
R 647 5 28 paw_variables wwylm paw_radial_integrator
R 650 5 31 paw_variables wwylm$sd paw_radial_integrator
R 651 5 32 paw_variables wwylm$p paw_radial_integrator
R 652 5 33 paw_variables wwylm$o paw_radial_integrator
R 654 5 35 paw_variables dylmt paw_radial_integrator
R 657 5 38 paw_variables dylmt$sd paw_radial_integrator
R 658 5 39 paw_variables dylmt$p paw_radial_integrator
R 659 5 40 paw_variables dylmt$o paw_radial_integrator
R 661 5 42 paw_variables dylmp paw_radial_integrator
R 664 5 45 paw_variables dylmp$sd paw_radial_integrator
R 665 5 46 paw_variables dylmp$p paw_radial_integrator
R 666 5 47 paw_variables dylmp$o paw_radial_integrator
R 668 5 49 paw_variables cotg_th paw_radial_integrator
R 670 5 51 paw_variables cotg_th$sd paw_radial_integrator
R 671 5 52 paw_variables cotg_th$p paw_radial_integrator
R 672 5 53 paw_variables cotg_th$o paw_radial_integrator
R 674 7 55 paw_variables rad
R 676 8 57 paw_variables rad$sd
R 680 25 61 paw_variables paw_info
R 681 5 62 paw_variables a paw_info
R 682 5 63 paw_variables t paw_info
R 683 5 64 paw_variables m paw_info
R 684 5 65 paw_variables b paw_info
R 685 5 66 paw_variables l paw_info
R 1133 6 8 mp_global me_image
R 1145 6 20 mp_global nproc_image
R 1163 6 38 mp_global intra_image_comm
R 1767 14 550 mp mp_sum_i1
R 1771 14 554 mp mp_sum_iv
R 1779 14 562 mp mp_sum_im
R 1790 14 573 mp mp_sum_it
R 1804 14 587 mp mp_sum_r1
R 1808 14 591 mp mp_sum_rv
R 1816 14 599 mp mp_sum_rm
R 1869 14 652 mp mp_sum_rmm
R 1887 14 670 mp mp_sum_rt
R 1901 14 684 mp mp_sum_r4d
R 1918 14 701 mp mp_sum_c1
R 1922 14 705 mp mp_sum_cv
R 1930 14 713 mp mp_sum_cm
R 1942 14 725 mp mp_sum_cmm
R 1960 14 743 mp mp_sum_ct
R 1974 14 757 mp mp_sum_c4d
R 1991 14 774 mp mp_sum_c5d
R 2011 14 794 mp mp_sum_c6d
S 2092 27 0 0 0 9 3272 582 12567 0 0 A 0 0 0 0 0 0 0 0 0 0 0 0 0 0 0 0 0 0 0 0 0 0 0 582 0 0 0 0 paw_potential
S 2093 27 0 0 0 9 3296 582 12581 0 0 A 0 0 0 0 0 0 0 0 0 0 0 0 0 0 0 0 0 0 0 0 0 0 0 582 0 0 0 0 paw_ddot
S 2094 27 0 0 0 9 3287 582 12590 0 0 A 0 0 0 0 0 0 0 0 0 0 0 0 0 0 0 0 0 0 0 0 0 0 0 582 0 0 0 0 paw_symmetrize
R 2117 6 8 lsda_mod nspin
R 2128 6 6 ions_base nat
S 2874 3 0 0 0 1080 1 1 0 0 0 A 0 0 0 0 0 0 0 0 15585 0 0 0 0 0 0 0 0 0 0 0 0 0 0 0 0 0 0 0 18 0
R 2925 25 51 pseudo_types pseudo_upf
R 2926 5 52 pseudo_types generated pseudo_upf
R 2927 5 53 pseudo_types author pseudo_upf
R 2928 5 54 pseudo_types date pseudo_upf
R 2929 5 55 pseudo_types comment pseudo_upf
R 2930 5 56 pseudo_types psd pseudo_upf
R 2931 5 57 pseudo_types typ pseudo_upf
R 2932 5 58 pseudo_types rel pseudo_upf
R 2933 5 59 pseudo_types tvanp pseudo_upf
R 2934 5 60 pseudo_types tcoulombp pseudo_upf
R 2935 5 61 pseudo_types nlcc pseudo_upf
R 2936 5 62 pseudo_types dft pseudo_upf
R 2937 5 63 pseudo_types zp pseudo_upf
R 2938 5 64 pseudo_types etotps pseudo_upf
R 2939 5 65 pseudo_types ecutwfc pseudo_upf
R 2940 5 66 pseudo_types ecutrho pseudo_upf
R 2941 5 67 pseudo_types nv pseudo_upf
R 2942 5 68 pseudo_types lmax pseudo_upf
R 2943 5 69 pseudo_types lmax_rho pseudo_upf
R 2944 5 70 pseudo_types nwfc pseudo_upf
R 2945 5 71 pseudo_types nbeta pseudo_upf
R 2946 5 72 pseudo_types kbeta pseudo_upf
R 2948 5 74 pseudo_types kbeta$sd pseudo_upf
R 2949 5 75 pseudo_types kbeta$p pseudo_upf
R 2950 5 76 pseudo_types kbeta$o pseudo_upf
R 2952 5 78 pseudo_types kkbeta pseudo_upf
R 2953 5 79 pseudo_types lll pseudo_upf
R 2955 5 81 pseudo_types lll$sd pseudo_upf
R 2956 5 82 pseudo_types lll$p pseudo_upf
R 2957 5 83 pseudo_types lll$o pseudo_upf
R 2959 5 85 pseudo_types beta pseudo_upf
R 2962 5 88 pseudo_types beta$sd pseudo_upf
R 2963 5 89 pseudo_types beta$p pseudo_upf
R 2964 5 90 pseudo_types beta$o pseudo_upf
R 2966 5 92 pseudo_types els pseudo_upf
R 2968 5 94 pseudo_types els$sd pseudo_upf
R 2969 5 95 pseudo_types els$p pseudo_upf
R 2970 5 96 pseudo_types els$o pseudo_upf
R 2972 5 98 pseudo_types els_beta pseudo_upf
R 2974 5 100 pseudo_types els_beta$sd pseudo_upf
R 2975 5 101 pseudo_types els_beta$p pseudo_upf
R 2976 5 102 pseudo_types els_beta$o pseudo_upf
R 2978 5 104 pseudo_types nchi pseudo_upf
R 2980 5 106 pseudo_types nchi$sd pseudo_upf
R 2981 5 107 pseudo_types nchi$p pseudo_upf
R 2982 5 108 pseudo_types nchi$o pseudo_upf
R 2984 5 110 pseudo_types lchi pseudo_upf
R 2986 5 112 pseudo_types lchi$sd pseudo_upf
R 2987 5 113 pseudo_types lchi$p pseudo_upf
R 2988 5 114 pseudo_types lchi$o pseudo_upf
R 2991 5 117 pseudo_types oc pseudo_upf
R 2992 5 118 pseudo_types oc$sd pseudo_upf
R 2993 5 119 pseudo_types oc$p pseudo_upf
R 2994 5 120 pseudo_types oc$o pseudo_upf
R 2996 5 122 pseudo_types epseu pseudo_upf
R 2998 5 124 pseudo_types epseu$sd pseudo_upf
R 2999 5 125 pseudo_types epseu$p pseudo_upf
R 3000 5 126 pseudo_types epseu$o pseudo_upf
R 3002 5 128 pseudo_types rcut_chi pseudo_upf
R 3004 5 130 pseudo_types rcut_chi$sd pseudo_upf
R 3005 5 131 pseudo_types rcut_chi$p pseudo_upf
R 3006 5 132 pseudo_types rcut_chi$o pseudo_upf
R 3008 5 134 pseudo_types rcutus_chi pseudo_upf
R 3010 5 136 pseudo_types rcutus_chi$sd pseudo_upf
R 3011 5 137 pseudo_types rcutus_chi$p pseudo_upf
R 3012 5 138 pseudo_types rcutus_chi$o pseudo_upf
R 3014 5 140 pseudo_types chi pseudo_upf
R 3017 5 143 pseudo_types chi$sd pseudo_upf
R 3018 5 144 pseudo_types chi$p pseudo_upf
R 3019 5 145 pseudo_types chi$o pseudo_upf
R 3021 5 147 pseudo_types rho_at pseudo_upf
R 3023 5 149 pseudo_types rho_at$sd pseudo_upf
R 3024 5 150 pseudo_types rho_at$p pseudo_upf
R 3025 5 151 pseudo_types rho_at$o pseudo_upf
R 3027 5 153 pseudo_types mesh pseudo_upf
R 3028 5 154 pseudo_types xmin pseudo_upf
R 3029 5 155 pseudo_types rmax pseudo_upf
R 3030 5 156 pseudo_types zmesh pseudo_upf
R 3031 5 157 pseudo_types dx pseudo_upf
R 3033 5 159 pseudo_types r pseudo_upf
R 3034 5 160 pseudo_types r$sd pseudo_upf
R 3035 5 161 pseudo_types r$p pseudo_upf
R 3036 5 162 pseudo_types r$o pseudo_upf
R 3039 5 165 pseudo_types rab pseudo_upf
R 3040 5 166 pseudo_types rab$sd pseudo_upf
R 3041 5 167 pseudo_types rab$p pseudo_upf
R 3042 5 168 pseudo_types rab$o pseudo_upf
R 3044 5 170 pseudo_types rho_atc pseudo_upf
R 3046 5 172 pseudo_types rho_atc$sd pseudo_upf
R 3047 5 173 pseudo_types rho_atc$p pseudo_upf
R 3048 5 174 pseudo_types rho_atc$o pseudo_upf
R 3050 5 176 pseudo_types lloc pseudo_upf
R 3051 5 177 pseudo_types rcloc pseudo_upf
R 3052 5 178 pseudo_types vloc pseudo_upf
R 3054 5 180 pseudo_types vloc$sd pseudo_upf
R 3055 5 181 pseudo_types vloc$p pseudo_upf
R 3056 5 182 pseudo_types vloc$o pseudo_upf
R 3058 5 184 pseudo_types dion pseudo_upf
R 3061 5 187 pseudo_types dion$sd pseudo_upf
R 3062 5 188 pseudo_types dion$p pseudo_upf
R 3063 5 189 pseudo_types dion$o pseudo_upf
R 3065 5 191 pseudo_types q_with_l pseudo_upf
R 3066 5 192 pseudo_types nqf pseudo_upf
R 3067 5 193 pseudo_types nqlc pseudo_upf
R 3068 5 194 pseudo_types qqq_eps pseudo_upf
R 3069 5 195 pseudo_types rinner pseudo_upf
R 3071 5 197 pseudo_types rinner$sd pseudo_upf
R 3072 5 198 pseudo_types rinner$p pseudo_upf
R 3073 5 199 pseudo_types rinner$o pseudo_upf
R 3075 5 201 pseudo_types qqq pseudo_upf
R 3078 5 204 pseudo_types qqq$sd pseudo_upf
R 3079 5 205 pseudo_types qqq$p pseudo_upf
R 3080 5 206 pseudo_types qqq$o pseudo_upf
R 3082 5 208 pseudo_types qfunc pseudo_upf
R 3085 5 211 pseudo_types qfunc$sd pseudo_upf
R 3086 5 212 pseudo_types qfunc$p pseudo_upf
R 3087 5 213 pseudo_types qfunc$o pseudo_upf
R 3089 5 215 pseudo_types qfuncl pseudo_upf
R 3093 5 219 pseudo_types qfuncl$sd pseudo_upf
R 3094 5 220 pseudo_types qfuncl$p pseudo_upf
R 3095 5 221 pseudo_types qfuncl$o pseudo_upf
R 3097 5 223 pseudo_types qfcoef pseudo_upf
R 3102 5 228 pseudo_types qfcoef$sd pseudo_upf
R 3103 5 229 pseudo_types qfcoef$p pseudo_upf
R 3104 5 230 pseudo_types qfcoef$o pseudo_upf
R 3106 5 232 pseudo_types has_wfc pseudo_upf
R 3107 5 233 pseudo_types aewfc pseudo_upf
R 3110 5 236 pseudo_types aewfc$sd pseudo_upf
R 3111 5 237 pseudo_types aewfc$p pseudo_upf
R 3112 5 238 pseudo_types aewfc$o pseudo_upf
R 3114 5 240 pseudo_types pswfc pseudo_upf
R 3117 5 243 pseudo_types pswfc$sd pseudo_upf
R 3118 5 244 pseudo_types pswfc$p pseudo_upf
R 3119 5 245 pseudo_types pswfc$o pseudo_upf
R 3121 5 247 pseudo_types has_so pseudo_upf
R 3122 5 248 pseudo_types nn pseudo_upf
R 3124 5 250 pseudo_types nn$sd pseudo_upf
R 3125 5 251 pseudo_types nn$p pseudo_upf
R 3126 5 252 pseudo_types nn$o pseudo_upf
R 3128 5 254 pseudo_types rcut pseudo_upf
R 3130 5 256 pseudo_types rcut$sd pseudo_upf
R 3131 5 257 pseudo_types rcut$p pseudo_upf
R 3132 5 258 pseudo_types rcut$o pseudo_upf
R 3134 5 260 pseudo_types rcutus pseudo_upf
R 3136 5 262 pseudo_types rcutus$sd pseudo_upf
R 3137 5 263 pseudo_types rcutus$p pseudo_upf
R 3138 5 264 pseudo_types rcutus$o pseudo_upf
R 3140 5 266 pseudo_types jchi pseudo_upf
R 3142 5 268 pseudo_types jchi$sd pseudo_upf
R 3143 5 269 pseudo_types jchi$p pseudo_upf
R 3144 5 270 pseudo_types jchi$o pseudo_upf
R 3146 5 272 pseudo_types jjj pseudo_upf
R 3148 5 274 pseudo_types jjj$sd pseudo_upf
R 3149 5 275 pseudo_types jjj$p pseudo_upf
R 3150 5 276 pseudo_types jjj$o pseudo_upf
R 3152 5 278 pseudo_types paw_data_format pseudo_upf
R 3153 5 279 pseudo_types tpawp pseudo_upf
R 3154 5 280 pseudo_types paw pseudo_upf
R 3155 5 281 pseudo_types grid pseudo_upf
R 3157 5 283 pseudo_types grid$p pseudo_upf
R 3159 5 285 pseudo_types has_gipaw pseudo_upf
R 3160 5 286 pseudo_types gipaw_data_format pseudo_upf
R 3161 5 287 pseudo_types gipaw_ncore_orbitals pseudo_upf
R 3162 5 288 pseudo_types gipaw_core_orbital_n pseudo_upf
R 3164 5 290 pseudo_types gipaw_core_orbital_n$sd pseudo_upf
R 3165 5 291 pseudo_types gipaw_core_orbital_n$p pseudo_upf
R 3166 5 292 pseudo_types gipaw_core_orbital_n$o pseudo_upf
R 3168 5 294 pseudo_types gipaw_core_orbital_l pseudo_upf
R 3170 5 296 pseudo_types gipaw_core_orbital_l$sd pseudo_upf
R 3171 5 297 pseudo_types gipaw_core_orbital_l$p pseudo_upf
R 3172 5 298 pseudo_types gipaw_core_orbital_l$o pseudo_upf
R 3174 5 300 pseudo_types gipaw_core_orbital_el pseudo_upf
R 3176 5 302 pseudo_types gipaw_core_orbital_el$sd pseudo_upf
R 3177 5 303 pseudo_types gipaw_core_orbital_el$p pseudo_upf
R 3178 5 304 pseudo_types gipaw_core_orbital_el$o pseudo_upf
R 3180 5 306 pseudo_types gipaw_core_orbital pseudo_upf
R 3183 5 309 pseudo_types gipaw_core_orbital$sd pseudo_upf
R 3184 5 310 pseudo_types gipaw_core_orbital$p pseudo_upf
R 3185 5 311 pseudo_types gipaw_core_orbital$o pseudo_upf
R 3187 5 313 pseudo_types gipaw_vlocal_ae pseudo_upf
R 3189 5 315 pseudo_types gipaw_vlocal_ae$sd pseudo_upf
R 3190 5 316 pseudo_types gipaw_vlocal_ae$p pseudo_upf
R 3191 5 317 pseudo_types gipaw_vlocal_ae$o pseudo_upf
R 3193 5 319 pseudo_types gipaw_vlocal_ps pseudo_upf
R 3195 5 321 pseudo_types gipaw_vlocal_ps$sd pseudo_upf
R 3196 5 322 pseudo_types gipaw_vlocal_ps$p pseudo_upf
R 3197 5 323 pseudo_types gipaw_vlocal_ps$o pseudo_upf
R 3199 5 325 pseudo_types gipaw_wfs_nchannels pseudo_upf
R 3200 5 326 pseudo_types gipaw_wfs_el pseudo_upf
R 3202 5 328 pseudo_types gipaw_wfs_el$sd pseudo_upf
R 3203 5 329 pseudo_types gipaw_wfs_el$p pseudo_upf
R 3204 5 330 pseudo_types gipaw_wfs_el$o pseudo_upf
R 3206 5 332 pseudo_types gipaw_wfs_ll pseudo_upf
R 3208 5 334 pseudo_types gipaw_wfs_ll$sd pseudo_upf
R 3209 5 335 pseudo_types gipaw_wfs_ll$p pseudo_upf
R 3210 5 336 pseudo_types gipaw_wfs_ll$o pseudo_upf
R 3212 5 338 pseudo_types gipaw_wfs_ae pseudo_upf
R 3215 5 341 pseudo_types gipaw_wfs_ae$sd pseudo_upf
R 3216 5 342 pseudo_types gipaw_wfs_ae$p pseudo_upf
R 3217 5 343 pseudo_types gipaw_wfs_ae$o pseudo_upf
R 3219 5 345 pseudo_types gipaw_wfs_rcut pseudo_upf
R 3221 5 347 pseudo_types gipaw_wfs_rcut$sd pseudo_upf
R 3222 5 348 pseudo_types gipaw_wfs_rcut$p pseudo_upf
R 3223 5 349 pseudo_types gipaw_wfs_rcut$o pseudo_upf
R 3225 5 351 pseudo_types gipaw_wfs_rcutus pseudo_upf
R 3227 5 353 pseudo_types gipaw_wfs_rcutus$sd pseudo_upf
R 3228 5 354 pseudo_types gipaw_wfs_rcutus$p pseudo_upf
R 3229 5 355 pseudo_types gipaw_wfs_rcutus$o pseudo_upf
R 3231 5 357 pseudo_types gipaw_wfs_ps pseudo_upf
R 3234 5 360 pseudo_types gipaw_wfs_ps$sd pseudo_upf
R 3235 5 361 pseudo_types gipaw_wfs_ps$p pseudo_upf
R 3236 5 362 pseudo_types gipaw_wfs_ps$o pseudo_upf
R 3264 6 11 uspp_param nhm
S 3272 23 5 0 0 0 3277 582 12567 0 0 A 0 0 0 0 0 0 0 0 0 0 0 0 0 0 0 0 0 0 0 0 0 0 0 0 0 0 0 0 paw_potential
S 3273 7 3 1 0 1100 1 3272 19062 800214 3000 A 0 0 0 0 0 0 0 0 0 0 0 0 0 0 0 0 0 0 0 0 0 0 0 0 0 0 0 0 becsum
S 3274 7 3 2 0 1103 1 3272 19069 800214 3000 A 0 0 0 0 0 0 0 0 0 0 0 0 0 0 0 0 0 0 0 0 0 0 0 0 0 0 0 0 d
S 3275 1 3 2 0 9 1 3272 19071 80000014 3000 A 0 0 0 0 0 0 0 0 0 0 0 0 0 0 0 0 0 0 0 0 0 0 0 0 0 0 0 0 energy
S 3276 7 3 2 0 1106 1 3272 19078 80800214 3000 A 0 0 0 0 0 0 0 0 0 0 0 0 0 0 0 0 0 0 0 0 0 0 0 0 0 0 0 0 e_cmp
S 3277 14 5 0 0 0 1 3272 12567 200 400000 A 0 0 0 0 0 0 0 492 4 0 0 0 0 0 0 0 0 0 0 0 0 60 0 582 0 0 0 0 paw_potential
F 3277 4 3273 3274 3275 3276
S 3278 6 1 0 0 6 1 3272 19084 40800016 3000 A 0 0 0 0 0 0 0 0 0 0 0 0 0 0 0 0 0 0 0 0 0 0 0 0 0 0 0 0 z_e_2074
S 3279 6 1 0 0 6 1 3272 19093 40800016 3000 A 0 0 0 0 0 0 0 0 0 0 0 0 0 0 0 0 0 0 0 0 0 0 0 0 0 0 0 0 z_e_2075
S 3280 6 1 0 0 6 1 3272 19102 40800016 3000 A 0 0 0 0 0 0 0 0 0 0 0 0 0 0 0 0 0 0 0 0 0 0 0 0 0 0 0 0 z_e_2079
S 3281 6 1 0 0 6 1 3272 19111 40800016 3000 A 0 0 0 0 0 0 0 0 0 0 0 0 0 0 0 0 0 0 0 0 0 0 0 0 0 0 0 0 z_e_2076
S 3282 6 1 0 0 6 1 3272 19120 40800016 3000 A 0 0 0 0 0 0 0 0 0 0 0 0 0 0 0 0 0 0 0 0 0 0 0 0 0 0 0 0 z_e_2082
S 3283 6 1 0 0 6 1 3272 19129 40800016 3000 A 0 0 0 0 0 0 0 0 0 0 0 0 0 0 0 0 0 0 0 0 0 0 0 0 0 0 0 0 z_e_2085
S 3284 6 1 0 0 6 1 3272 19138 40800016 3000 A 0 0 0 0 0 0 0 0 0 0 0 0 0 0 0 0 0 0 0 0 0 0 0 0 0 0 0 0 z_e_2087
S 3285 6 1 0 0 6 1 3272 19147 40800016 3000 A 0 0 0 0 0 0 0 0 0 0 0 0 0 0 0 0 0 0 0 0 0 0 0 0 0 0 0 0 z_e_2089
S 3286 6 1 0 0 6 1 3272 19156 40800016 3000 A 0 0 0 0 0 0 0 0 0 0 0 0 0 0 0 0 0 0 0 0 0 0 0 0 0 0 0 0 z_e_2092
S 3287 23 5 0 0 0 3289 582 12590 0 0 A 0 0 0 0 0 0 0 0 0 0 0 0 0 0 0 0 0 0 0 0 0 0 0 0 0 0 0 0 paw_symmetrize
S 3288 7 3 3 0 1109 1 3287 19062 800214 3000 A 0 0 0 0 0 0 0 0 0 0 0 0 0 0 0 0 0 0 0 0 0 0 0 0 0 0 0 0 becsum
S 3289 14 5 0 0 0 1 3287 12590 200 400000 A 0 0 0 0 0 0 0 497 1 0 0 0 0 0 0 0 0 0 0 0 0 204 0 582 0 0 0 0 paw_symmetrize
F 3289 1 3288
S 3290 6 1 0 0 6 1 3287 19165 40800016 3000 A 0 0 0 0 0 0 0 0 0 0 0 0 0 0 0 0 0 0 0 0 0 0 0 0 0 0 0 0 z_e_2059
S 3291 6 1 0 0 6 1 3287 19174 40800016 3000 A 0 0 0 0 0 0 0 0 0 0 0 0 0 0 0 0 0 0 0 0 0 0 0 0 0 0 0 0 z_e_2061
S 3292 6 1 0 0 6 1 3287 19183 40800016 3000 A 0 0 0 0 0 0 0 0 0 0 0 0 0 0 0 0 0 0 0 0 0 0 0 0 0 0 0 0 z_e_2352
S 3293 6 1 0 0 6 1 3287 19192 40800016 3000 A 0 0 0 0 0 0 0 0 0 0 0 0 0 0 0 0 0 0 0 0 0 0 0 0 0 0 0 0 z_e_2063
S 3294 6 1 0 0 6 1 3287 19201 40800016 3000 A 0 0 0 0 0 0 0 0 0 0 0 0 0 0 0 0 0 0 0 0 0 0 0 0 0 0 0 0 z_e_2355
S 3295 6 1 0 0 6 1 3287 19210 40800016 3000 A 0 0 0 0 0 0 0 0 0 0 0 0 0 0 0 0 0 0 0 0 0 0 0 0 0 0 0 0 z_e_2358
S 3296 23 5 0 0 9 3299 582 12581 0 0 A 0 0 0 0 0 0 0 0 0 0 0 0 0 0 0 0 0 0 0 0 0 0 0 0 0 0 0 0 paw_ddot
S 3297 7 3 1 0 1112 1 3296 19219 800214 3000 A 0 0 0 0 0 0 0 0 0 0 0 0 0 0 0 0 0 0 0 0 0 0 0 0 0 0 0 0 bec1
S 3298 7 3 1 0 1115 1 3296 19224 800214 3000 A 0 0 0 0 0 0 0 0 0 0 0 0 0 0 0 0 0 0 0 0 0 0 0 0 0 0 0 0 bec2
S 3299 14 5 0 0 9 1 3296 12581 204 400000 A 0 0 0 0 0 0 0 499 2 0 0 3300 0 0 0 0 0 0 0 0 0 332 0 582 0 0 0 0 paw_ddot
F 3299 2 3297 3298
S 3300 1 3 0 0 9 1 3296 12581 14 1003000 A 0 0 0 0 0 0 0 0 0 0 0 0 0 0 0 0 0 0 0 0 0 0 0 0 0 0 0 0 paw_ddot
S 3301 6 1 0 0 6 1 3296 19165 40800016 3000 A 0 0 0 0 0 0 0 0 0 0 0 0 0 0 0 0 0 0 0 0 0 0 0 0 0 0 0 0 z_e_2059
S 3302 6 1 0 0 6 1 3296 19174 40800016 3000 A 0 0 0 0 0 0 0 0 0 0 0 0 0 0 0 0 0 0 0 0 0 0 0 0 0 0 0 0 z_e_2061
S 3303 6 1 0 0 6 1 3296 19229 40800016 3000 A 0 0 0 0 0 0 0 0 0 0 0 0 0 0 0 0 0 0 0 0 0 0 0 0 0 0 0 0 z_e_2187
S 3304 6 1 0 0 6 1 3296 19192 40800016 3000 A 0 0 0 0 0 0 0 0 0 0 0 0 0 0 0 0 0 0 0 0 0 0 0 0 0 0 0 0 z_e_2063
S 3305 6 1 0 0 6 1 3296 19238 40800016 3000 A 0 0 0 0 0 0 0 0 0 0 0 0 0 0 0 0 0 0 0 0 0 0 0 0 0 0 0 0 z_e_2190
S 3306 6 1 0 0 6 1 3296 19247 40800016 3000 A 0 0 0 0 0 0 0 0 0 0 0 0 0 0 0 0 0 0 0 0 0 0 0 0 0 0 0 0 z_e_2193
S 3307 23 5 0 0 0 3313 582 19256 10 0 A 0 0 0 0 0 0 0 0 0 0 0 0 0 0 0 0 0 0 0 0 0 0 0 0 0 0 0 0 paw_xc_potential
S 3308 6 3 0 0 104 1 3307 19273 800014 3000 A 0 0 0 0 0 0 0 0 0 0 0 0 0 0 0 0 0 0 0 0 0 0 0 0 0 0 0 0 i
S 3309 7 3 1 0 1118 1 3307 19275 800214 3000 A 0 0 0 0 0 0 0 0 0 0 0 0 0 0 0 0 0 0 0 0 0 0 0 0 0 0 0 0 rho_lm
S 3310 7 3 1 0 1121 1 3307 19282 800214 3000 A 0 0 0 0 0 0 0 0 0 0 0 0 0 0 0 0 0 0 0 0 0 0 0 0 0 0 0 0 rho_core
S 3311 7 3 2 0 1124 1 3307 19291 800214 3000 A 0 0 0 0 0 0 0 0 0 0 0 0 0 0 0 0 0 0 0 0 0 0 0 0 0 0 0 0 v_lm
S 3312 1 3 2 0 9 1 3307 19071 80000014 3000 A 0 0 0 0 0 0 0 0 0 0 0 0 0 0 0 0 0 0 0 0 0 0 0 0 0 0 0 0 energy
S 3313 14 5 0 0 0 1 3307 19256 210 400000 A 0 0 0 0 0 0 0 502 5 0 0 0 0 0 0 0 0 0 0 0 0 431 0 582 0 0 0 0 paw_xc_potential
F 3313 5 3308 3309 3310 3311 3312
S 3314 6 1 0 0 6 1 3307 19296 40800016 3000 A 0 0 0 0 0 0 0 0 0 0 0 0 0 0 0 0 0 0 0 0 0 0 0 0 0 0 0 0 z_e_2198
S 3315 6 1 0 0 6 1 3307 19305 40800016 3000 A 0 0 0 0 0 0 0 0 0 0 0 0 0 0 0 0 0 0 0 0 0 0 0 0 0 0 0 0 z_e_2201
S 3316 6 1 0 0 6 1 3307 19314 40800016 3000 A 0 0 0 0 0 0 0 0 0 0 0 0 0 0 0 0 0 0 0 0 0 0 0 0 0 0 0 0 z_e_2204
S 3317 6 1 0 0 6 1 3307 19192 40800016 3000 A 0 0 0 0 0 0 0 0 0 0 0 0 0 0 0 0 0 0 0 0 0 0 0 0 0 0 0 0 z_e_2063
S 3318 6 1 0 0 6 1 3307 19323 40800016 3000 A 0 0 0 0 0 0 0 0 0 0 0 0 0 0 0 0 0 0 0 0 0 0 0 0 0 0 0 0 z_e_2207
S 3319 6 1 0 0 6 1 3307 19332 40800016 3000 A 0 0 0 0 0 0 0 0 0 0 0 0 0 0 0 0 0 0 0 0 0 0 0 0 0 0 0 0 z_e_2210
S 3320 23 5 0 0 0 3326 582 19341 10 0 A 0 0 0 0 0 0 0 0 0 0 0 0 0 0 0 0 0 0 0 0 0 0 0 0 0 0 0 0 paw_gcxc_potential
S 3321 6 3 0 0 104 1 3320 19273 800014 3000 A 0 0 0 0 0 0 0 0 0 0 0 0 0 0 0 0 0 0 0 0 0 0 0 0 0 0 0 0 i
S 3322 7 3 1 0 1127 1 3320 19275 800214 3000 A 0 0 0 0 0 0 0 0 0 0 0 0 0 0 0 0 0 0 0 0 0 0 0 0 0 0 0 0 rho_lm
S 3323 7 3 1 0 1130 1 3320 19282 800214 3000 A 0 0 0 0 0 0 0 0 0 0 0 0 0 0 0 0 0 0 0 0 0 0 0 0 0 0 0 0 rho_core
S 3324 7 3 3 0 1133 1 3320 19291 800214 3000 A 0 0 0 0 0 0 0 0 0 0 0 0 0 0 0 0 0 0 0 0 0 0 0 0 0 0 0 0 v_lm
S 3325 1 3 3 0 9 1 3320 19071 80000014 3000 A 0 0 0 0 0 0 0 0 0 0 0 0 0 0 0 0 0 0 0 0 0 0 0 0 0 0 0 0 energy
S 3326 14 5 0 0 0 1 3320 19341 210 400000 A 0 0 0 0 0 0 0 508 5 0 0 0 0 0 0 0 0 0 0 0 0 510 0 582 0 0 0 0 paw_gcxc_potential
F 3326 5 3321 3322 3323 3324 3325
S 3327 6 1 0 0 6 1 3320 19360 40800016 3000 A 0 0 0 0 0 0 0 0 0 0 0 0 0 0 0 0 0 0 0 0 0 0 0 0 0 0 0 0 z_e_2209
S 3328 6 1 0 0 6 1 3320 19369 40800016 3000 A 0 0 0 0 0 0 0 0 0 0 0 0 0 0 0 0 0 0 0 0 0 0 0 0 0 0 0 0 z_e_2211
S 3329 6 1 0 0 6 1 3320 19378 40800016 3000 A 0 0 0 0 0 0 0 0 0 0 0 0 0 0 0 0 0 0 0 0 0 0 0 0 0 0 0 0 z_e_2214
S 3330 6 1 0 0 6 1 3320 19192 40800016 3000 A 0 0 0 0 0 0 0 0 0 0 0 0 0 0 0 0 0 0 0 0 0 0 0 0 0 0 0 0 z_e_2063
S 3331 6 1 0 0 6 1 3320 19387 40800016 3000 A 0 0 0 0 0 0 0 0 0 0 0 0 0 0 0 0 0 0 0 0 0 0 0 0 0 0 0 0 z_e_2217
S 3332 6 1 0 0 6 1 3320 19396 40800016 3000 A 0 0 0 0 0 0 0 0 0 0 0 0 0 0 0 0 0 0 0 0 0 0 0 0 0 0 0 0 z_e_2220
S 3333 23 5 0 0 0 3339 582 19405 10 0 A 0 0 0 0 0 0 0 0 0 0 0 0 0 0 0 0 0 0 0 0 0 0 0 0 0 0 0 0 paw_divergence
S 3334 6 3 0 0 104 1 3333 19273 800014 3000 A 0 0 0 0 0 0 0 0 0 0 0 0 0 0 0 0 0 0 0 0 0 0 0 0 0 0 0 0 i
S 3335 7 3 1 0 1136 1 3333 19420 800214 3000 A 0 0 0 0 0 0 0 0 0 0 0 0 0 0 0 0 0 0 0 0 0 0 0 0 0 0 0 0 f_lm
S 3336 7 3 2 0 1139 1 3333 19425 800214 3000 A 0 0 0 0 0 0 0 0 0 0 0 0 0 0 0 0 0 0 0 0 0 0 0 0 0 0 0 0 div_f_lm
S 3337 6 3 1 0 6 1 3333 19434 800014 3000 A 0 0 0 0 0 0 0 0 0 0 0 0 0 0 0 0 0 0 0 0 0 0 0 0 0 0 0 0 lmaxq_in
S 3338 6 3 1 0 6 1 3333 19443 800014 3000 A 0 0 0 0 0 0 0 0 0 0 0 0 0 0 0 0 0 0 0 0 0 0 0 0 0 0 0 0 lmaxq_out
S 3339 14 5 0 0 0 1 3333 19405 210 400000 A 0 0 0 0 0 0 0 514 5 0 0 0 0 0 0 0 0 0 0 0 0 676 0 582 0 0 0 0 paw_divergence
F 3339 5 3334 3335 3336 3337 3338
S 3340 6 1 0 0 6 1 3333 19378 40800016 3000 A 0 0 0 0 0 0 0 0 0 0 0 0 0 0 0 0 0 0 0 0 0 0 0 0 0 0 0 0 z_e_2214
S 3341 6 1 0 0 6 1 3333 19453 40800016 3000 A 0 0 0 0 0 0 0 0 0 0 0 0 0 0 0 0 0 0 0 0 0 0 0 0 0 0 0 0 z_e_2218
S 3342 6 1 0 0 6 1 3333 19462 40800016 3000 A 0 0 0 0 0 0 0 0 0 0 0 0 0 0 0 0 0 0 0 0 0 0 0 0 0 0 0 0 z_e_2216
S 3343 6 1 0 0 6 1 3333 19471 40800016 3000 A 0 0 0 0 0 0 0 0 0 0 0 0 0 0 0 0 0 0 0 0 0 0 0 0 0 0 0 0 z_e_2221
S 3344 6 1 0 0 6 1 3333 19192 40800016 3000 A 0 0 0 0 0 0 0 0 0 0 0 0 0 0 0 0 0 0 0 0 0 0 0 0 0 0 0 0 z_e_2063
S 3345 6 1 0 0 6 1 3333 19480 40800016 3000 A 0 0 0 0 0 0 0 0 0 0 0 0 0 0 0 0 0 0 0 0 0 0 0 0 0 0 0 0 z_e_2224
S 3346 6 1 0 0 6 1 3333 19489 40800016 3000 A 0 0 0 0 0 0 0 0 0 0 0 0 0 0 0 0 0 0 0 0 0 0 0 0 0 0 0 0 z_e_2228
S 3347 6 1 0 0 6 1 3333 19498 40800016 3000 A 0 0 0 0 0 0 0 0 0 0 0 0 0 0 0 0 0 0 0 0 0 0 0 0 0 0 0 0 z_e_2231
S 3348 6 1 0 0 6 1 3333 19507 40800016 3000 A 0 0 0 0 0 0 0 0 0 0 0 0 0 0 0 0 0 0 0 0 0 0 0 0 0 0 0 0 z_e_2233
S 3349 6 1 0 0 6 1 3333 19516 40800016 3000 A 0 0 0 0 0 0 0 0 0 0 0 0 0 0 0 0 0 0 0 0 0 0 0 0 0 0 0 0 z_e_2235
S 3350 6 1 0 0 6 1 3333 19525 40800016 3000 A 0 0 0 0 0 0 0 0 0 0 0 0 0 0 0 0 0 0 0 0 0 0 0 0 0 0 0 0 z_e_2237
S 3351 23 5 0 0 0 3359 582 19534 10 0 A 0 0 0 0 0 0 0 0 0 0 0 0 0 0 0 0 0 0 0 0 0 0 0 0 0 0 0 0 paw_gradient
S 3352 6 3 0 0 104 1 3351 19273 800014 3000 A 0 0 0 0 0 0 0 0 0 0 0 0 0 0 0 0 0 0 0 0 0 0 0 0 0 0 0 0 i
S 3353 1 3 1 0 6 1 3351 19547 14 3000 A 0 0 0 0 0 0 0 0 0 0 0 0 0 0 0 0 0 0 0 0 0 0 0 0 0 0 0 0 ix
S 3354 7 3 1 0 1142 1 3351 19275 800214 3000 A 0 0 0 0 0 0 0 0 0 0 0 0 0 0 0 0 0 0 0 0 0 0 0 0 0 0 0 0 rho_lm
S 3355 7 3 1 0 1145 1 3351 19550 800214 3000 A 0 0 0 0 0 0 0 0 0 0 0 0 0 0 0 0 0 0 0 0 0 0 0 0 0 0 0 0 rho_rad
S 3356 7 3 1 0 1148 1 3351 19282 800214 3000 A 0 0 0 0 0 0 0 0 0 0 0 0 0 0 0 0 0 0 0 0 0 0 0 0 0 0 0 0 rho_core
S 3357 7 3 2 0 1151 1 3351 19558 800214 3000 A 0 0 0 0 0 0 0 0 0 0 0 0 0 0 0 0 0 0 0 0 0 0 0 0 0 0 0 0 grho_rad2
S 3358 7 3 2 0 1154 1 3351 19568 80800214 3000 A 0 0 0 0 0 0 0 0 0 0 0 0 0 0 0 0 0 0 0 0 0 0 0 0 0 0 0 0 grho_rad
S 3359 14 5 0 0 0 1 3351 19534 210 400000 A 0 0 0 0 0 0 0 520 7 0 0 0 0 0 0 0 0 0 0 0 0 765 0 582 0 0 0 0 paw_gradient
F 3359 7 3352 3353 3354 3355 3356 3357 3358
S 3360 6 1 0 0 6 1 3351 19498 40800016 3000 A 0 0 0 0 0 0 0 0 0 0 0 0 0 0 0 0 0 0 0 0 0 0 0 0 0 0 0 0 z_e_2231
S 3361 6 1 0 0 6 1 3351 19507 40800016 3000 A 0 0 0 0 0 0 0 0 0 0 0 0 0 0 0 0 0 0 0 0 0 0 0 0 0 0 0 0 z_e_2233
S 3362 6 1 0 0 6 1 3351 19577 40800016 3000 A 0 0 0 0 0 0 0 0 0 0 0 0 0 0 0 0 0 0 0 0 0 0 0 0 0 0 0 0 z_e_2236
S 3363 6 1 0 0 6 1 3351 19192 40800016 3000 A 0 0 0 0 0 0 0 0 0 0 0 0 0 0 0 0 0 0 0 0 0 0 0 0 0 0 0 0 z_e_2063
S 3364 6 1 0 0 6 1 3351 19586 40800016 3000 A 0 0 0 0 0 0 0 0 0 0 0 0 0 0 0 0 0 0 0 0 0 0 0 0 0 0 0 0 z_e_2239
S 3365 6 1 0 0 6 1 3351 19595 40800016 3000 A 0 0 0 0 0 0 0 0 0 0 0 0 0 0 0 0 0 0 0 0 0 0 0 0 0 0 0 0 z_e_2242
S 3366 6 1 0 0 6 1 3351 19604 40800016 3000 A 0 0 0 0 0 0 0 0 0 0 0 0 0 0 0 0 0 0 0 0 0 0 0 0 0 0 0 0 z_e_2244
S 3367 6 1 0 0 6 1 3351 19613 40800016 3000 A 0 0 0 0 0 0 0 0 0 0 0 0 0 0 0 0 0 0 0 0 0 0 0 0 0 0 0 0 z_e_2241
S 3368 6 1 0 0 6 1 3351 19622 40800016 3000 A 0 0 0 0 0 0 0 0 0 0 0 0 0 0 0 0 0 0 0 0 0 0 0 0 0 0 0 0 z_e_2247
S 3369 6 1 0 0 6 1 3351 19631 40800016 3000 A 0 0 0 0 0 0 0 0 0 0 0 0 0 0 0 0 0 0 0 0 0 0 0 0 0 0 0 0 z_e_2249
S 3370 6 1 0 0 6 1 3351 19640 40800016 3000 A 0 0 0 0 0 0 0 0 0 0 0 0 0 0 0 0 0 0 0 0 0 0 0 0 0 0 0 0 z_e_2251
S 3371 23 5 0 0 0 3376 582 19649 10 0 A 0 0 0 0 0 0 0 0 0 0 0 0 0 0 0 0 0 0 0 0 0 0 0 0 0 0 0 0 paw_h_potential
S 3372 6 3 0 0 104 1 3371 19273 800014 3000 A 0 0 0 0 0 0 0 0 0 0 0 0 0 0 0 0 0 0 0 0 0 0 0 0 0 0 0 0 i
S 3373 7 3 1 0 1157 1 3371 19275 800214 3000 A 0 0 0 0 0 0 0 0 0 0 0 0 0 0 0 0 0 0 0 0 0 0 0 0 0 0 0 0 rho_lm
S 3374 7 3 2 0 1160 1 3371 19291 800214 3000 A 0 0 0 0 0 0 0 0 0 0 0 0 0 0 0 0 0 0 0 0 0 0 0 0 0 0 0 0 v_lm
S 3375 1 3 2 0 9 1 3371 19071 80000014 3000 A 0 0 0 0 0 0 0 0 0 0 0 0 0 0 0 0 0 0 0 0 0 0 0 0 0 0 0 0 energy
S 3376 14 5 0 0 0 1 3371 19649 210 400000 A 0 0 0 0 0 0 0 528 4 0 0 0 0 0 0 0 0 0 0 0 0 831 0 582 0 0 0 0 paw_h_potential
F 3376 4 3372 3373 3374 3375
S 3377 6 1 0 0 6 1 3371 19665 40800016 3000 A 0 0 0 0 0 0 0 0 0 0 0 0 0 0 0 0 0 0 0 0 0 0 0 0 0 0 0 0 z_e_2246
S 3378 6 1 0 0 6 1 3371 19674 40800016 3000 A 0 0 0 0 0 0 0 0 0 0 0 0 0 0 0 0 0 0 0 0 0 0 0 0 0 0 0 0 z_e_2248
S 3379 6 1 0 0 6 1 3371 19640 40800016 3000 A 0 0 0 0 0 0 0 0 0 0 0 0 0 0 0 0 0 0 0 0 0 0 0 0 0 0 0 0 z_e_2251
S 3380 6 1 0 0 6 1 3371 19192 40800016 3000 A 0 0 0 0 0 0 0 0 0 0 0 0 0 0 0 0 0 0 0 0 0 0 0 0 0 0 0 0 z_e_2063
S 3381 6 1 0 0 6 1 3371 19683 40800016 3000 A 0 0 0 0 0 0 0 0 0 0 0 0 0 0 0 0 0 0 0 0 0 0 0 0 0 0 0 0 z_e_2254
S 3382 6 1 0 0 6 1 3371 19692 40800016 3000 A 0 0 0 0 0 0 0 0 0 0 0 0 0 0 0 0 0 0 0 0 0 0 0 0 0 0 0 0 z_e_2257
S 3383 6 1 0 0 6 1 3371 19701 40800016 3000 A 0 0 0 0 0 0 0 0 0 0 0 0 0 0 0 0 0 0 0 0 0 0 0 0 0 0 0 0 z_e_2256
S 3384 23 5 0 0 0 3390 582 19710 10 0 A 0 0 0 0 0 0 0 0 0 0 0 0 0 0 0 0 0 0 0 0 0 0 0 0 0 0 0 0 paw_rho_lm
S 3385 6 3 0 0 104 1 3384 19273 800014 3000 A 0 0 0 0 0 0 0 0 0 0 0 0 0 0 0 0 0 0 0 0 0 0 0 0 0 0 0 0 i
S 3386 7 3 1 0 1163 1 3384 19062 800214 3000 A 0 0 0 0 0 0 0 0 0 0 0 0 0 0 0 0 0 0 0 0 0 0 0 0 0 0 0 0 becsum
S 3387 7 3 1 0 1166 1 3384 15666 800214 3000 A 0 0 0 0 0 0 0 0 0 0 0 0 0 0 0 0 0 0 0 0 0 0 0 0 0 0 0 0 pfunc
S 3388 7 3 2 0 1169 1 3384 19275 800214 3000 A 0 0 0 0 0 0 0 0 0 0 0 0 0 0 0 0 0 0 0 0 0 0 0 0 0 0 0 0 rho_lm
S 3389 7 3 1 0 1172 1 3384 19721 80800214 3000 A 0 0 0 0 0 0 0 0 0 0 0 0 0 0 0 0 0 0 0 0 0 0 0 0 0 0 0 0 aug
S 3390 14 5 0 0 0 1 3384 19710 210 400000 A 0 0 0 0 0 0 0 533 5 0 0 0 0 0 0 0 0 0 0 0 0 895 0 582 0 0 0 0 paw_rho_lm
F 3390 5 3385 3386 3387 3388 3389
S 3391 6 1 0 0 6 1 3384 19165 40800016 3000 A 0 0 0 0 0 0 0 0 0 0 0 0 0 0 0 0 0 0 0 0 0 0 0 0 0 0 0 0 z_e_2059
S 3392 6 1 0 0 6 1 3384 19174 40800016 3000 A 0 0 0 0 0 0 0 0 0 0 0 0 0 0 0 0 0 0 0 0 0 0 0 0 0 0 0 0 z_e_2061
S 3393 6 1 0 0 6 1 3384 19725 40800016 3000 A 0 0 0 0 0 0 0 0 0 0 0 0 0 0 0 0 0 0 0 0 0 0 0 0 0 0 0 0 z_e_2519
S 3394 6 1 0 0 6 1 3384 19192 40800016 3000 A 0 0 0 0 0 0 0 0 0 0 0 0 0 0 0 0 0 0 0 0 0 0 0 0 0 0 0 0 z_e_2063
S 3395 6 1 0 0 6 1 3384 19734 40800016 3000 A 0 0 0 0 0 0 0 0 0 0 0 0 0 0 0 0 0 0 0 0 0 0 0 0 0 0 0 0 z_e_2522
S 3396 6 1 0 0 6 1 3384 19743 40800016 3000 A 0 0 0 0 0 0 0 0 0 0 0 0 0 0 0 0 0 0 0 0 0 0 0 0 0 0 0 0 z_e_2525
S 3397 6 1 0 0 6 1 3384 19752 40800016 3000 A 0 0 0 0 0 0 0 0 0 0 0 0 0 0 0 0 0 0 0 0 0 0 0 0 0 0 0 0 z_e_2528
S 3398 6 1 0 0 6 1 3384 19761 40800016 3000 A 0 0 0 0 0 0 0 0 0 0 0 0 0 0 0 0 0 0 0 0 0 0 0 0 0 0 0 0 z_e_2530
S 3399 6 1 0 0 6 1 3384 19770 40800016 3000 A 0 0 0 0 0 0 0 0 0 0 0 0 0 0 0 0 0 0 0 0 0 0 0 0 0 0 0 0 z_e_2533
S 3400 6 1 0 0 6 1 3384 19779 40800016 3000 A 0 0 0 0 0 0 0 0 0 0 0 0 0 0 0 0 0 0 0 0 0 0 0 0 0 0 0 0 z_e_2535
S 3401 6 1 0 0 6 1 3384 19788 40800016 3000 A 0 0 0 0 0 0 0 0 0 0 0 0 0 0 0 0 0 0 0 0 0 0 0 0 0 0 0 0 z_e_2538
S 3402 6 1 0 0 6 1 3384 19797 40800016 3000 A 0 0 0 0 0 0 0 0 0 0 0 0 0 0 0 0 0 0 0 0 0 0 0 0 0 0 0 0 z_e_2541
S 3403 6 1 0 0 6 1 3384 19806 40800016 3000 A 0 0 0 0 0 0 0 0 0 0 0 0 0 0 0 0 0 0 0 0 0 0 0 0 0 0 0 0 z_e_2543
S 3404 6 1 0 0 6 1 3384 19815 40800016 3000 A 0 0 0 0 0 0 0 0 0 0 0 0 0 0 0 0 0 0 0 0 0 0 0 0 0 0 0 0 z_e_2545
S 3405 6 1 0 0 6 1 3384 19824 40800016 3000 A 0 0 0 0 0 0 0 0 0 0 0 0 0 0 0 0 0 0 0 0 0 0 0 0 0 0 0 0 z_e_2547
S 3406 6 1 0 0 6 1 3384 19833 40800016 3000 A 0 0 0 0 0 0 0 0 0 0 0 0 0 0 0 0 0 0 0 0 0 0 0 0 0 0 0 0 z_e_2551
S 3407 6 1 0 0 6 1 3384 19842 40800016 3000 A 0 0 0 0 0 0 0 0 0 0 0 0 0 0 0 0 0 0 0 0 0 0 0 0 0 0 0 0 z_e_2554
S 3408 6 1 0 0 6 1 3384 19851 40800016 3000 A 0 0 0 0 0 0 0 0 0 0 0 0 0 0 0 0 0 0 0 0 0 0 0 0 0 0 0 0 z_e_2552
S 3409 6 1 0 0 6 1 3384 19860 40800016 3000 A 0 0 0 0 0 0 0 0 0 0 0 0 0 0 0 0 0 0 0 0 0 0 0 0 0 0 0 0 z_e_2557
S 3410 6 1 0 0 6 1 3384 19869 40800016 3000 A 0 0 0 0 0 0 0 0 0 0 0 0 0 0 0 0 0 0 0 0 0 0 0 0 0 0 0 0 z_e_2559
S 3411 6 1 0 0 6 1 3384 19878 40800016 3000 A 0 0 0 0 0 0 0 0 0 0 0 0 0 0 0 0 0 0 0 0 0 0 0 0 0 0 0 0 z_e_2537
S 3412 23 5 0 0 0 3417 582 19887 10 0 A 0 0 0 0 0 0 0 0 0 0 0 0 0 0 0 0 0 0 0 0 0 0 0 0 0 0 0 0 paw_lm2rad
S 3413 6 3 0 0 104 1 3412 19273 800014 3000 A 0 0 0 0 0 0 0 0 0 0 0 0 0 0 0 0 0 0 0 0 0 0 0 0 0 0 0 0 i
S 3414 1 3 0 0 6 1 3412 19547 14 3000 A 0 0 0 0 0 0 0 0 0 0 0 0 0 0 0 0 0 0 0 0 0 0 0 0 0 0 0 0 ix
S 3415 7 3 1 0 1175 1 3412 19420 800214 3000 A 0 0 0 0 0 0 0 0 0 0 0 0 0 0 0 0 0 0 0 0 0 0 0 0 0 0 0 0 f_lm
S 3416 7 3 2 0 1178 1 3412 19898 800214 3000 A 0 0 0 0 0 0 0 0 0 0 0 0 0 0 0 0 0 0 0 0 0 0 0 0 0 0 0 0 f_rad
S 3417 14 5 0 0 0 1 3412 19887 210 400000 A 0 0 0 0 0 0 0 539 4 0 0 0 0 0 0 0 0 0 0 0 0 976 0 582 0 0 0 0 paw_lm2rad
F 3417 4 3413 3414 3415 3416
S 3418 6 1 0 0 6 1 3412 19904 40800016 3000 A 0 0 0 0 0 0 0 0 0 0 0 0 0 0 0 0 0 0 0 0 0 0 0 0 0 0 0 0 z_e_2179
S 3419 6 1 0 0 6 1 3412 19913 40800016 3000 A 0 0 0 0 0 0 0 0 0 0 0 0 0 0 0 0 0 0 0 0 0 0 0 0 0 0 0 0 z_e_2181
S 3420 6 1 0 0 6 1 3412 19922 40800016 3000 A 0 0 0 0 0 0 0 0 0 0 0 0 0 0 0 0 0 0 0 0 0 0 0 0 0 0 0 0 z_e_2184
S 3421 6 1 0 0 6 1 3412 19192 40800016 3000 A 0 0 0 0 0 0 0 0 0 0 0 0 0 0 0 0 0 0 0 0 0 0 0 0 0 0 0 0 z_e_2063
S 3422 6 1 0 0 6 1 3412 19229 40800016 3000 A 0 0 0 0 0 0 0 0 0 0 0 0 0 0 0 0 0 0 0 0 0 0 0 0 0 0 0 0 z_e_2187
S 3423 6 1 0 0 6 1 3412 19238 40800016 3000 A 0 0 0 0 0 0 0 0 0 0 0 0 0 0 0 0 0 0 0 0 0 0 0 0 0 0 0 0 z_e_2190
S 3424 6 1 0 0 6 1 3412 19931 40800016 3000 A 0 0 0 0 0 0 0 0 0 0 0 0 0 0 0 0 0 0 0 0 0 0 0 0 0 0 0 0 z_e_2192
S 3425 6 1 0 0 6 1 3412 19940 40800016 3000 A 0 0 0 0 0 0 0 0 0 0 0 0 0 0 0 0 0 0 0 0 0 0 0 0 0 0 0 0 z_e_2189
S 3426 23 5 0 0 0 3431 582 19949 10 0 A 0 0 0 0 0 0 0 0 0 0 0 0 0 0 0 0 0 0 0 0 0 0 0 0 0 0 0 0 paw_rad2lm
S 3427 6 3 0 0 104 1 3426 19273 800014 3000 A 0 0 0 0 0 0 0 0 0 0 0 0 0 0 0 0 0 0 0 0 0 0 0 0 0 0 0 0 i
S 3428 7 3 1 0 1184 1 3426 19898 800214 3000 A 0 0 0 0 0 0 0 0 0 0 0 0 0 0 0 0 0 0 0 0 0 0 0 0 0 0 0 0 f_rad
S 3429 7 3 2 0 1181 1 3426 19420 800214 3000 A 0 0 0 0 0 0 0 0 0 0 0 0 0 0 0 0 0 0 0 0 0 0 0 0 0 0 0 0 f_lm
S 3430 6 3 1 0 6 1 3426 19960 800014 3000 A 0 0 0 0 0 0 0 0 0 0 0 0 0 0 0 0 0 0 0 0 0 0 0 0 0 0 0 0 lmax_loc
S 3431 14 5 0 0 0 1 3426 19949 210 400000 A 0 0 0 0 0 0 0 544 4 0 0 0 0 0 0 0 0 0 0 0 0 1004 0 582 0 0 0 0 paw_rad2lm
F 3431 4 3427 3428 3429 3430
S 3432 6 1 0 0 6 1 3426 19969 40800016 3000 A 0 0 0 0 0 0 0 0 0 0 0 0 0 0 0 0 0 0 0 0 0 0 0 0 0 0 0 0 z_e_2191
S 3433 6 1 0 0 6 1 3426 19247 40800016 3000 A 0 0 0 0 0 0 0 0 0 0 0 0 0 0 0 0 0 0 0 0 0 0 0 0 0 0 0 0 z_e_2193
S 3434 6 1 0 0 6 1 3426 19978 40800016 3000 A 0 0 0 0 0 0 0 0 0 0 0 0 0 0 0 0 0 0 0 0 0 0 0 0 0 0 0 0 z_e_2196
S 3435 6 1 0 0 6 1 3426 19192 40800016 3000 A 0 0 0 0 0 0 0 0 0 0 0 0 0 0 0 0 0 0 0 0 0 0 0 0 0 0 0 0 z_e_2063
S 3436 6 1 0 0 6 1 3426 19987 40800016 3000 A 0 0 0 0 0 0 0 0 0 0 0 0 0 0 0 0 0 0 0 0 0 0 0 0 0 0 0 0 z_e_2199
S 3437 6 1 0 0 6 1 3426 19996 40800016 3000 A 0 0 0 0 0 0 0 0 0 0 0 0 0 0 0 0 0 0 0 0 0 0 0 0 0 0 0 0 z_e_2202
S 3438 6 1 0 0 6 1 3426 19360 40800016 3000 A 0 0 0 0 0 0 0 0 0 0 0 0 0 0 0 0 0 0 0 0 0 0 0 0 0 0 0 0 z_e_2209
S 3439 6 1 0 0 6 1 3426 19369 40800016 3000 A 0 0 0 0 0 0 0 0 0 0 0 0 0 0 0 0 0 0 0 0 0 0 0 0 0 0 0 0 z_e_2211
S 3440 6 1 0 0 6 1 3426 20005 40800016 3000 A 0 0 0 0 0 0 0 0 0 0 0 0 0 0 0 0 0 0 0 0 0 0 0 0 0 0 0 0 z_e_2213
S 3441 6 1 0 0 6 1 3426 20014 40800016 3000 A 0 0 0 0 0 0 0 0 0 0 0 0 0 0 0 0 0 0 0 0 0 0 0 0 0 0 0 0 z_e_2215
S 3442 23 5 0 0 0 3447 582 20023 10 0 A 0 0 0 0 0 0 0 0 0 0 0 0 0 0 0 0 0 0 0 0 0 0 0 0 0 0 0 0 paw_rad2lm3
S 3443 6 3 0 0 104 1 3442 19273 800014 3000 A 0 0 0 0 0 0 0 0 0 0 0 0 0 0 0 0 0 0 0 0 0 0 0 0 0 0 0 0 i
S 3444 7 3 1 0 1190 1 3442 19898 800214 3000 A 0 0 0 0 0 0 0 0 0 0 0 0 0 0 0 0 0 0 0 0 0 0 0 0 0 0 0 0 f_rad
S 3445 7 3 2 0 1187 1 3442 19420 800214 3000 A 0 0 0 0 0 0 0 0 0 0 0 0 0 0 0 0 0 0 0 0 0 0 0 0 0 0 0 0 f_lm
S 3446 6 3 1 0 6 1 3442 19960 800014 3000 A 0 0 0 0 0 0 0 0 0 0 0 0 0 0 0 0 0 0 0 0 0 0 0 0 0 0 0 0 lmax_loc
S 3447 14 5 0 0 0 1 3442 20023 210 400000 A 0 0 0 0 0 0 0 549 4 0 0 0 0 0 0 0 0 0 0 0 0 1036 0 582 0 0 0 0 paw_rad2lm3
F 3447 4 3443 3444 3445 3446
S 3448 6 1 0 0 6 1 3442 19369 40800016 3000 A 0 0 0 0 0 0 0 0 0 0 0 0 0 0 0 0 0 0 0 0 0 0 0 0 0 0 0 0 z_e_2211
S 3449 6 1 0 0 6 1 3442 20014 40800016 3000 A 0 0 0 0 0 0 0 0 0 0 0 0 0 0 0 0 0 0 0 0 0 0 0 0 0 0 0 0 z_e_2215
S 3450 6 1 0 0 6 1 3442 20005 40800016 3000 A 0 0 0 0 0 0 0 0 0 0 0 0 0 0 0 0 0 0 0 0 0 0 0 0 0 0 0 0 z_e_2213
S 3451 6 1 0 0 6 1 3442 19453 40800016 3000 A 0 0 0 0 0 0 0 0 0 0 0 0 0 0 0 0 0 0 0 0 0 0 0 0 0 0 0 0 z_e_2218
S 3452 6 1 0 0 6 1 3442 19192 40800016 3000 A 0 0 0 0 0 0 0 0 0 0 0 0 0 0 0 0 0 0 0 0 0 0 0 0 0 0 0 0 z_e_2063
S 3453 6 1 0 0 6 1 3442 19471 40800016 3000 A 0 0 0 0 0 0 0 0 0 0 0 0 0 0 0 0 0 0 0 0 0 0 0 0 0 0 0 0 z_e_2221
S 3454 6 1 0 0 6 1 3442 20035 40800016 3000 A 0 0 0 0 0 0 0 0 0 0 0 0 0 0 0 0 0 0 0 0 0 0 0 0 0 0 0 0 z_e_2225
S 3455 6 1 0 0 6 1 3442 20044 40800016 3000 A 0 0 0 0 0 0 0 0 0 0 0 0 0 0 0 0 0 0 0 0 0 0 0 0 0 0 0 0 z_e_2229
S 3456 6 1 0 0 6 1 3442 19498 40800016 3000 A 0 0 0 0 0 0 0 0 0 0 0 0 0 0 0 0 0 0 0 0 0 0 0 0 0 0 0 0 z_e_2231
S 3457 6 1 0 0 6 1 3442 19507 40800016 3000 A 0 0 0 0 0 0 0 0 0 0 0 0 0 0 0 0 0 0 0 0 0 0 0 0 0 0 0 0 z_e_2233
S 3458 6 1 0 0 6 1 3442 19516 40800016 3000 A 0 0 0 0 0 0 0 0 0 0 0 0 0 0 0 0 0 0 0 0 0 0 0 0 0 0 0 0 z_e_2235
A 13 2 0 0 0 6 595 0 0 0 13 0 0 0 0 0 0 0 0 0
A 18 2 0 0 0 6 605 0 0 0 18 0 0 0 0 0 0 0 0 0
A 21 2 0 0 0 6 606 0 0 0 21 0 0 0 0 0 0 0 0 0
A 23 2 0 0 0 6 607 0 0 0 23 0 0 0 0 0 0 0 0 0
A 26 2 0 0 0 6 608 0 0 0 26 0 0 0 0 0 0 0 0 0
A 28 2 0 0 0 6 609 0 0 0 28 0 0 0 0 0 0 0 0 0
A 32 2 0 0 0 6 610 0 0 0 32 0 0 0 0 0 0 0 0 0
A 34 2 0 0 0 6 611 0 0 0 34 0 0 0 0 0 0 0 0 0
A 100 1 0 1 0 101 676 0 0 0 0 0 0 0 0 0 0 0 0 0
A 101 10 0 0 0 6 100 1 0 0 0 0 0 0 0 0 0 0 0 0
X 1 13
A 102 10 0 0 101 6 100 4 0 0 0 0 0 0 0 0 0 0 0 0
X 1 26
A 103 10 0 0 102 6 100 7 0 0 0 0 0 0 0 0 0 0 0 0
X 1 28
A 104 4 0 0 0 6 103 0 3 0 0 0 0 2 0 0 0 0 0 0
A 105 4 0 0 0 6 102 0 104 0 0 0 0 1 0 0 0 0 0 0
A 106 10 0 0 103 6 100 10 0 0 0 0 0 0 0 0 0 0 0 0
X 1 32
A 107 10 0 0 106 6 100 13 0 0 0 0 0 0 0 0 0 0 0 0
X 1 34
A 2045 2 0 0 1261 799 2874 0 0 0 2045 0 0 0 0 0 0 0 0 0
A 2055 1 0 0 1779 6 3283 0 0 0 0 0 0 0 0 0 0 0 0 0
A 2056 1 0 0 767 6 3264 0 0 0 0 0 0 0 0 0 0 0 0 0
A 2057 4 0 0 1417 6 2056 0 3 0 0 0 0 1 0 0 0 0 0 0
A 2058 4 0 0 1141 6 2056 0 2057 0 0 0 0 3 0 0 0 0 0 0
A 2059 4 0 0 1483 6 2058 0 21 0 0 0 0 4 0 0 0 0 0 0
A 2060 1 0 0 1144 6 3278 0 0 0 0 0 0 0 0 0 0 0 0 0
A 2061 1 0 0 1546 6 2128 0 0 0 0 0 0 0 0 0 0 0 0 0
A 2062 1 0 0 1691 6 3279 0 0 0 0 0 0 0 0 0 0 0 0 0
A 2063 1 0 0 702 6 2117 0 0 0 0 0 0 0 0 0 0 0 0 0
A 2064 1 0 0 1137 6 3280 0 0 0 0 0 0 0 0 0 0 0 0 0
A 2065 1 0 0 1140 6 3281 0 0 0 0 0 0 0 0 0 0 0 0 0
A 2066 1 0 0 1764 6 3282 0 0 0 0 0 0 0 0 0 0 0 0 0
A 2067 1 0 0 1547 6 3286 0 0 0 0 0 0 0 0 0 0 0 0 0
A 2068 1 0 0 1148 6 3284 0 0 0 0 0 0 0 0 0 0 0 0 0
A 2069 1 0 0 1684 6 3285 0 0 0 0 0 0 0 0 0 0 0 0 0
A 2070 1 0 0 1707 6 3295 0 0 0 0 0 0 0 0 0 0 0 0 0
A 2071 1 0 0 1772 6 3290 0 0 0 0 0 0 0 0 0 0 0 0 0
A 2072 1 0 0 1792 6 3291 0 0 0 0 0 0 0 0 0 0 0 0 0
A 2073 1 0 0 785 6 3292 0 0 0 0 0 0 0 0 0 0 0 0 0
A 2074 1 0 0 1968 6 3293 0 0 0 0 0 0 0 0 0 0 0 0 0
A 2075 1 0 0 781 6 3294 0 0 0 0 0 0 0 0 0 0 0 0 0
A 2076 1 0 0 1161 6 3306 0 0 0 0 0 0 0 0 0 0 0 0 0
A 2077 1 0 0 1154 6 3301 0 0 0 0 0 0 0 0 0 0 0 0 0
A 2078 1 0 0 1157 6 3302 0 0 0 0 0 0 0 0 0 0 0 0 0
A 2079 1 0 0 1715 6 3303 0 0 0 0 0 0 0 0 0 0 0 0 0
A 2080 1 0 0 1800 6 3304 0 0 0 0 0 0 0 0 0 0 0 0 0
A 2081 1 0 0 1894 6 3305 0 0 0 0 0 0 0 0 0 0 0 0 0
A 2082 1 0 0 1878 6 3319 0 0 0 0 0 0 0 0 0 0 0 0 0
A 2083 1 0 0 1898 104 3308 0 0 0 0 0 0 0 0 0 0 0 0 0
A 2084 1 0 0 1694 6 683 0 0 0 0 0 0 0 0 0 0 0 0 0
A 2085 9 0 0 1367 6 2083 2084 0 0 0 0 0 0 0 0 0 0 0 0
A 2086 1 0 0 1170 6 3314 0 0 0 0 0 0 0 0 0 0 0 0 0
A 2087 1 0 0 1612 6 685 0 0 0 0 0 0 0 0 0 0 0 0 0
A 2088 9 0 0 2085 6 2083 2087 0 0 0 0 0 0 0 0 0 0 0 0
A 2089 4 0 0 1819 6 2088 0 21 0 0 0 0 5 0 0 0 0 0 0
A 2090 1 0 0 1167 6 3315 0 0 0 0 0 0 0 0 0 0 0 0 0
A 2091 1 0 0 2013 6 3316 0 0 0 0 0 0 0 0 0 0 0 0 0
A 2092 1 0 0 0 6 3317 0 0 0 0 0 0 0 0 0 0 0 0 0
A 2093 1 0 0 797 6 3318 0 0 0 0 0 0 0 0 0 0 0 0 0
A 2094 1 0 0 1744 6 3332 0 0 0 0 0 0 0 0 0 0 0 0 0
A 2095 1 0 0 1986 104 3321 0 0 0 0 0 0 0 0 0 0 0 0 0
A 2096 9 0 0 698 6 2095 2084 0 0 0 0 0 0 0 0 0 0 0 0
A 2097 1 0 0 1171 6 3327 0 0 0 0 0 0 0 0 0 0 0 0 0
A 2098 9 0 0 2096 6 2095 2087 0 0 0 0 0 0 0 0 0 0 0 0
A 2099 4 0 0 2055 6 2098 0 21 0 0 0 0 5 0 0 0 0 0 0
A 2100 1 0 0 1987 6 3328 0 0 0 0 0 0 0 0 0 0 0 0 0
A 2101 1 0 0 1692 6 3329 0 0 0 0 0 0 0 0 0 0 0 0 0
A 2102 1 0 0 1179 6 3330 0 0 0 0 0 0 0 0 0 0 0 0 0
A 2103 1 0 0 1181 6 3331 0 0 0 0 0 0 0 0 0 0 0 0 0
A 2104 1 0 0 1518 6 3346 0 0 0 0 0 0 0 0 0 0 0 0 0
A 2105 1 0 0 2054 104 3334 0 0 0 0 0 0 0 0 0 0 0 0 0
A 2106 9 0 0 1607 6 2105 2084 0 0 0 0 0 0 0 0 0 0 0 0
A 2107 1 0 0 1752 6 3340 0 0 0 0 0 0 0 0 0 0 0 0 0
A 2108 1 0 0 1976 6 3337 0 0 0 0 0 0 0 0 0 0 0 0 0
A 2109 4 0 0 2074 6 2108 0 21 0 0 0 0 5 0 0 0 0 0 0
A 2110 1 0 0 1655 6 3341 0 0 0 0 0 0 0 0 0 0 0 0 0
A 2111 1 0 0 1923 6 3342 0 0 0 0 0 0 0 0 0 0 0 0 0
A 2112 1 0 0 1737 6 3343 0 0 0 0 0 0 0 0 0 0 0 0 0
A 2113 1 0 0 809 6 3344 0 0 0 0 0 0 0 0 0 0 0 0 0
A 2114 1 0 0 812 6 3345 0 0 0 0 0 0 0 0 0 0 0 0 0
A 2115 1 0 0 814 6 3350 0 0 0 0 0 0 0 0 0 0 0 0 0
A 2116 1 0 0 1844 6 3338 0 0 0 0 0 0 0 0 0 0 0 0 0
A 2117 4 0 0 2077 6 2116 0 21 0 0 0 0 5 0 0 0 0 0 0
A 2118 1 0 0 1790 6 3347 0 0 0 0 0 0 0 0 0 0 0 0 0
A 2119 1 0 0 1760 6 3348 0 0 0 0 0 0 0 0 0 0 0 0 0
A 2120 1 0 0 820 6 3349 0 0 0 0 0 0 0 0 0 0 0 0 0
A 2121 1 0 0 1195 6 3365 0 0 0 0 0 0 0 0 0 0 0 0 0
A 2122 1 0 0 937 104 3352 0 0 0 0 0 0 0 0 0 0 0 0 0
A 2123 9 0 0 1613 6 2122 2084 0 0 0 0 0 0 0 0 0 0 0 0
A 2124 1 0 0 2021 6 3360 0 0 0 0 0 0 0 0 0 0 0 0 0
A 2125 9 0 0 2123 6 2122 2087 0 0 0 0 0 0 0 0 0 0 0 0
A 2126 4 0 0 1160 6 2125 0 21 0 0 0 0 5 0 0 0 0 0 0
A 2127 1 0 0 1555 6 3361 0 0 0 0 0 0 0 0 0 0 0 0 0
A 2128 1 0 0 1194 6 3362 0 0 0 0 0 0 0 0 0 0 0 0 0
A 2129 1 0 0 1886 6 3363 0 0 0 0 0 0 0 0 0 0 0 0 0
A 2130 1 0 0 1776 6 3364 0 0 0 0 0 0 0 0 0 0 0 0 0
A 2131 1 0 0 1201 6 3367 0 0 0 0 0 0 0 0 0 0 0 0 0
A 2132 1 0 0 1198 6 3366 0 0 0 0 0 0 0 0 0 0 0 0 0
A 2133 1 0 0 1197 6 3370 0 0 0 0 0 0 0 0 0 0 0 0 0
A 2134 1 0 0 1493 6 3368 0 0 0 0 0 0 0 0 0 0 0 0 0
A 2135 1 0 0 1203 6 3369 0 0 0 0 0 0 0 0 0 0 0 0 0
A 2136 1 0 0 1798 6 3382 0 0 0 0 0 0 0 0 0 0 0 0 0
A 2137 1 0 0 1962 104 3372 0 0 0 0 0 0 0 0 0 0 0 0 0
A 2138 9 0 0 1395 6 2137 2084 0 0 0 0 0 0 0 0 0 0 0 0
A 2139 1 0 0 1789 6 3377 0 0 0 0 0 0 0 0 0 0 0 0 0
A 2140 9 0 0 2138 6 2137 2087 0 0 0 0 0 0 0 0 0 0 0 0
A 2141 4 0 0 1826 6 2140 0 21 0 0 0 0 5 0 0 0 0 0 0
A 2142 1 0 0 1206 6 3378 0 0 0 0 0 0 0 0 0 0 0 0 0
A 2143 1 0 0 1880 6 3379 0 0 0 0 0 0 0 0 0 0 0 0 0
A 2144 1 0 0 1212 6 3380 0 0 0 0 0 0 0 0 0 0 0 0 0
A 2145 1 0 0 1984 6 3381 0 0 0 0 0 0 0 0 0 0 0 0 0
A 2146 1 0 0 1213 6 3383 0 0 0 0 0 0 0 0 0 0 0 0 0
A 2147 1 0 0 1229 6 3396 0 0 0 0 0 0 0 0 0 0 0 0 0
A 2148 1 0 0 1225 6 3391 0 0 0 0 0 0 0 0 0 0 0 0 0
A 2149 1 0 0 1893 6 3392 0 0 0 0 0 0 0 0 0 0 0 0 0
A 2150 1 0 0 1556 6 3393 0 0 0 0 0 0 0 0 0 0 0 0 0
A 2151 1 0 0 1224 6 3394 0 0 0 0 0 0 0 0 0 0 0 0 0
A 2152 1 0 0 1227 6 3395 0 0 0 0 0 0 0 0 0 0 0 0 0
A 2153 1 0 0 1564 6 3401 0 0 0 0 0 0 0 0 0 0 0 0 0
A 2154 1 0 0 1975 104 3385 0 0 0 0 0 0 0 0 0 0 0 0 0
A 2155 9 0 0 2057 6 2154 2084 0 0 0 0 0 0 0 0 0 0 0 0
A 2156 1 0 0 1818 6 3397 0 0 0 0 0 0 0 0 0 0 0 0 0
A 2157 1 0 0 1447 6 684 0 0 0 0 0 0 0 0 0 0 0 0 0
A 2158 9 0 0 2155 6 2154 2157 0 0 0 0 0 0 0 0 0 0 0 0
A 2159 1 0 0 1228 6 3398 0 0 0 0 0 0 0 0 0 0 0 0 0
A 2160 1 0 0 852 6 3399 0 0 0 0 0 0 0 0 0 0 0 0 0
A 2161 1 0 0 856 6 3400 0 0 0 0 0 0 0 0 0 0 0 0 0
A 2162 1 0 0 1901 6 3405 0 0 0 0 0 0 0 0 0 0 0 0 0
A 2163 9 0 0 2158 6 2154 2087 0 0 0 0 0 0 0 0 0 0 0 0
A 2164 4 0 0 2119 6 2163 0 21 0 0 0 0 5 0 0 0 0 0 0
A 2165 1 0 0 1823 6 3402 0 0 0 0 0 0 0 0 0 0 0 0 0
A 2166 1 0 0 849 6 3403 0 0 0 0 0 0 0 0 0 0 0 0 0
A 2167 1 0 0 2029 6 3404 0 0 0 0 0 0 0 0 0 0 0 0 0
A 2168 1 0 0 1233 6 3411 0 0 0 0 0 0 0 0 0 0 0 0 0
A 2169 4 0 0 768 6 2158 0 3 0 0 0 0 1 0 0 0 0 0 0
A 2170 4 0 0 2144 6 2158 0 2169 0 0 0 0 3 0 0 0 0 0 0
A 2171 4 0 0 1099 6 2170 0 21 0 0 0 0 4 0 0 0 0 0 0
A 2172 1 0 0 857 6 3406 0 0 0 0 0 0 0 0 0 0 0 0 0
A 2173 4 0 0 2164 6 2163 0 21 0 0 0 0 3 0 0 0 0 0 0
A 2174 1 0 0 587 6 3407 0 0 0 0 0 0 0 0 0 0 0 0 0
A 2175 1 0 0 586 6 3408 0 0 0 0 0 0 0 0 0 0 0 0 0
A 2176 1 0 0 1231 6 3409 0 0 0 0 0 0 0 0 0 0 0 0 0
A 2177 1 0 0 1831 6 3410 0 0 0 0 0 0 0 0 0 0 0 0 0
A 2178 1 0 0 1245 6 3423 0 0 0 0 0 0 0 0 0 0 0 0 0
A 2179 1 0 0 1359 104 3413 0 0 0 0 0 0 0 0 0 0 0 0 0
A 2180 9 0 0 1780 6 2179 2084 0 0 0 0 0 0 0 0 0 0 0 0
A 2181 1 0 0 1240 6 3418 0 0 0 0 0 0 0 0 0 0 0 0 0
A 2182 9 0 0 2180 6 2179 2087 0 0 0 0 0 0 0 0 0 0 0 0
A 2183 4 0 0 2131 6 2182 0 21 0 0 0 0 5 0 0 0 0 0 0
A 2184 1 0 0 1243 6 3419 0 0 0 0 0 0 0 0 0 0 0 0 0
A 2185 1 0 0 1841 6 3420 0 0 0 0 0 0 0 0 0 0 0 0 0
A 2186 1 0 0 1917 6 3421 0 0 0 0 0 0 0 0 0 0 0 0 0
A 2187 1 0 0 1242 6 3422 0 0 0 0 0 0 0 0 0 0 0 0 0
A 2188 1 0 0 1992 6 3425 0 0 0 0 0 0 0 0 0 0 0 0 0
A 2189 1 0 0 1248 6 3424 0 0 0 0 0 0 0 0 0 0 0 0 0
A 2190 1 0 0 1933 6 3437 0 0 0 0 0 0 0 0 0 0 0 0 0
A 2191 1 0 0 1599 104 3427 0 0 0 0 0 0 0 0 0 0 0 0 0
A 2192 9 0 0 1668 6 2191 2084 0 0 0 0 0 0 0 0 0 0 0 0
A 2193 1 0 0 1251 6 3432 0 0 0 0 0 0 0 0 0 0 0 0 0
A 2194 1 0 0 1939 6 3430 0 0 0 0 0 0 0 0 0 0 0 0 0
A 2195 4 0 0 2143 6 2194 0 21 0 0 0 0 5 0 0 0 0 0 0
A 2196 1 0 0 1854 6 3433 0 0 0 0 0 0 0 0 0 0 0 0 0
A 2197 1 0 0 872 6 3434 0 0 0 0 0 0 0 0 0 0 0 0 0
A 2198 1 0 0 1855 6 3435 0 0 0 0 0 0 0 0 0 0 0 0 0
A 2199 1 0 0 555 6 3436 0 0 0 0 0 0 0 0 0 0 0 0 0
A 2200 1 0 0 1256 6 3441 0 0 0 0 0 0 0 0 0 0 0 0 0
A 2201 1 0 9 1190 98 674 0 0 0 0 0 0 0 0 0 0 0 0 0
A 2202 1 0 0 2192 6 682 0 0 0 0 0 0 0 0 0 0 0 0 0
A 2203 9 0 0 2202 6 2191 2202 0 0 0 0 0 0 0 0 0 0 0 0
A 2204 10 0 0 1081 56 2201 43 0 0 0 0 0 0 0 0 0 0 0 0
X 1 2203
A 2205 1 0 0 1560 6 633 0 0 0 0 0 0 0 0 0 0 0 0 0
A 2206 9 0 0 1899 6 2204 2205 0 0 0 0 0 0 0 0 0 0 0 0
A 2207 1 0 0 1859 6 3438 0 0 0 0 0 0 0 0 0 0 0 0 0
A 2208 1 0 0 603 6 3439 0 0 0 0 0 0 0 0 0 0 0 0 0
A 2209 1 0 0 1494 6 3440 0 0 0 0 0 0 0 0 0 0 0 0 0
A 2210 1 0 0 1267 6 3454 0 0 0 0 0 0 0 0 0 0 0 0 0
A 2211 1 0 0 1380 104 3443 0 0 0 0 0 0 0 0 0 0 0 0 0
A 2212 9 0 0 1926 6 2211 2084 0 0 0 0 0 0 0 0 0 0 0 0
A 2213 1 0 0 2037 6 3448 0 0 0 0 0 0 0 0 0 0 0 0 0
A 2214 1 0 0 1502 6 3446 0 0 0 0 0 0 0 0 0 0 0 0 0
A 2215 4 0 0 2160 6 2214 0 21 0 0 0 0 5 0 0 0 0 0 0
A 2216 1 0 0 1266 6 3449 0 0 0 0 0 0 0 0 0 0 0 0 0
A 2217 1 0 0 1845 6 3450 0 0 0 0 0 0 0 0 0 0 0 0 0
A 2218 1 0 0 1872 6 3451 0 0 0 0 0 0 0 0 0 0 0 0 0
A 2219 1 0 0 1262 6 3452 0 0 0 0 0 0 0 0 0 0 0 0 0
A 2220 1 0 0 1949 6 3453 0 0 0 0 0 0 0 0 0 0 0 0 0
A 2221 1 0 0 1868 6 3458 0 0 0 0 0 0 0 0 0 0 0 0 0
A 2222 9 0 0 2212 6 2211 2202 0 0 0 0 0 0 0 0 0 0 0 0
A 2223 10 0 0 2204 56 2201 46 0 0 0 0 0 0 0 0 0 0 0 0
X 1 2222
A 2224 9 0 0 2003 6 2223 2205 0 0 0 0 0 0 0 0 0 0 0 0
A 2225 1 0 0 1270 6 3455 0 0 0 0 0 0 0 0 0 0 0 0 0
A 2226 1 0 0 1877 6 3456 0 0 0 0 0 0 0 0 0 0 0 0 0
A 2227 1 0 0 1272 6 3457 0 0 0 0 0 0 0 0 0 0 0 0 0
Z
T 2925 793 0 3 0 0
A 2926 799 0 0 1 2045 1
A 2927 799 0 0 1 2045 1
A 2928 799 0 0 1 2045 1
A 2929 799 0 0 1 2045 1
A 2930 799 0 0 1 2045 1
A 2931 799 0 0 1 2045 1
A 2932 799 0 0 1 2045 0
Z
