V26 pw_restart
14 pw_restart.F90 S582 0
04/24/2012  15:55:39
use parser private
use mp private
use mp_global private
use io_global private
use io_files private
use constants private
use kinds private
use xml_io_base private
use parser private
use mp private
use mp_global private
use io_global private
use io_files private
use constants private
use kinds private
use xml_io_base private
enduse
D 1193 21 6 1 3 1720 0 0 1 0 0
 0 1719 3 3 1720 1720
D 1196 21 6 1 3 1722 0 0 1 0 0
 0 1721 3 3 1722 1722
D 1199 21 6 1 3 1720 0 0 1 0 0
 0 1719 3 3 1720 1720
D 1202 21 6 1 3 1724 0 0 1 0 0
 0 1723 3 3 1724 1724
D 1205 21 6 1 3 1726 0 0 1 0 0
 0 1725 3 3 1726 1726
D 1208 21 6 1 3 1724 0 0 1 0 0
 0 1723 3 3 1724 1724
S 582 24 0 0 0 9 1 0 4658 10015 0 A 0 0 0 0 0 0 0 0 0 0 0 0 0 0 0 0 0 0 0 0 0 27 0 0 0 0 0 0 pw_restart
S 585 23 0 0 0 9 4478 582 4693 10 0 A 0 0 0 0 0 0 0 0 0 0 0 0 0 0 0 0 0 0 0 0 0 0 0 582 0 0 0 0 default_fmt_version
S 588 23 0 0 0 9 3033 582 4731 14 0 A 0 0 0 0 0 0 0 0 0 0 0 0 0 0 0 0 0 0 0 0 0 0 0 582 0 0 0 0 dp
S 590 23 0 0 0 9 5036 582 4744 14 0 A 0 0 0 0 0 0 0 0 0 0 0 0 0 0 0 0 0 0 0 0 0 0 0 582 0 0 0 0 e2
S 592 23 0 0 0 9 4367 582 4756 14 0 A 0 0 0 0 0 0 0 0 0 0 0 0 0 0 0 0 0 0 0 0 0 0 0 582 0 0 0 0 tmp_dir
S 593 23 0 0 0 9 4369 582 4764 14 0 A 0 0 0 0 0 0 0 0 0 0 0 0 0 0 0 0 0 0 0 0 0 0 0 582 0 0 0 0 prefix
S 594 23 0 0 0 6 4419 582 4771 14 0 A 0 0 0 0 0 0 0 0 0 0 0 0 0 0 0 0 0 0 0 0 0 0 0 582 0 0 0 0 iunpun
S 595 23 0 0 0 9 4407 582 4778 14 0 A 0 0 0 0 0 0 0 0 0 0 0 0 0 0 0 0 0 0 0 0 0 0 0 582 0 0 0 0 xmlpun
S 596 23 0 0 0 9 4375 582 4785 14 0 A 0 0 0 0 0 0 0 0 0 0 0 0 0 0 0 0 0 0 0 0 0 0 0 582 0 0 0 0 qexml_version
S 597 23 0 0 0 9 4376 582 4799 14 0 A 0 0 0 0 0 0 0 0 0 0 0 0 0 0 0 0 0 0 0 0 0 0 0 582 0 0 0 0 qexml_version_init
S 599 23 0 0 0 6 2973 582 4828 14 0 A 0 0 0 0 0 0 0 0 0 0 0 0 0 0 0 0 0 0 0 0 0 0 0 582 0 0 0 0 ionode
S 600 23 0 0 0 6 2974 582 4835 14 0 A 0 0 0 0 0 0 0 0 0 0 0 0 0 0 0 0 0 0 0 0 0 0 0 582 0 0 0 0 ionode_id
S 602 23 0 0 0 6 5056 582 4855 14 0 A 0 0 0 0 0 0 0 0 0 0 0 0 0 0 0 0 0 0 0 0 0 0 0 582 0 0 0 0 my_pool_id
S 603 23 0 0 0 6 5083 582 4866 14 0 A 0 0 0 0 0 0 0 0 0 0 0 0 0 0 0 0 0 0 0 0 0 0 0 582 0 0 0 0 intra_image_comm
S 604 23 0 0 0 6 5081 582 4883 14 0 A 0 0 0 0 0 0 0 0 0 0 0 0 0 0 0 0 0 0 0 0 0 0 0 582 0 0 0 0 intra_pool_comm
S 606 19 0 0 0 6 1 582 4902 14 0 A 0 0 0 0 0 0 0 0 0 0 0 0 0 0 0 0 427 20 0 0 0 0 0 582 0 0 0 0 mp_bcast
O 606 20 3787 3772 3725 3707 3819 3810 3692 3651 3639 3760 3680 3805 3751 3671 3630 3836 3831 3746 3666 3625
S 607 19 0 0 0 6 1 582 4911 14 0 A 0 0 0 0 0 0 0 0 0 0 0 0 0 0 0 0 406 18 0 0 0 0 0 582 0 0 0 0 mp_sum
O 607 18 4188 4115 4257 4237 4220 4206 4176 4168 4164 4147 4133 4062 4054 4050 4036 4025 4017 4013
S 608 19 0 0 0 6 1 582 4918 14 0 A 0 0 0 0 0 0 0 0 0 0 0 0 0 0 0 0 387 4 0 0 0 0 0 582 0 0 0 0 mp_max
O 608 4 4284 4296 4292 4280
S 610 23 0 0 0 9 3031 582 4932 14 0 A 0 0 0 0 0 0 0 0 0 0 0 0 0 0 0 0 0 0 0 0 0 0 0 582 0 0 0 0 version_compare
R 2973 6 5 io_global ionode
R 2974 6 6 io_global ionode_id
R 3031 14 40 parser version_compare
R 3033 16 1 kinds dp
R 3625 14 162 mp mp_bcast_i1
R 3630 14 167 mp mp_bcast_iv
R 3639 14 176 mp mp_bcast_im
R 3651 14 188 mp mp_bcast_it
R 3666 14 203 mp mp_bcast_r1
R 3671 14 208 mp mp_bcast_rv
R 3680 14 217 mp mp_bcast_rm
R 3692 14 229 mp mp_bcast_rt
R 3707 14 244 mp mp_bcast_r4d
R 3725 14 262 mp mp_bcast_r5d
R 3746 14 283 mp mp_bcast_c1
R 3751 14 288 mp mp_bcast_cv
R 3760 14 297 mp mp_bcast_cm
R 3772 14 309 mp mp_bcast_ct
R 3787 14 324 mp mp_bcast_c4d
R 3805 14 342 mp mp_bcast_l
R 3810 14 347 mp mp_bcast_lv
R 3819 14 356 mp mp_bcast_lm
R 3831 14 368 mp mp_bcast_z
R 3836 14 373 mp mp_bcast_zv
R 4013 14 550 mp mp_sum_i1
R 4017 14 554 mp mp_sum_iv
R 4025 14 562 mp mp_sum_im
R 4036 14 573 mp mp_sum_it
R 4050 14 587 mp mp_sum_r1
R 4054 14 591 mp mp_sum_rv
R 4062 14 599 mp mp_sum_rm
R 4115 14 652 mp mp_sum_rmm
R 4133 14 670 mp mp_sum_rt
R 4147 14 684 mp mp_sum_r4d
R 4164 14 701 mp mp_sum_c1
R 4168 14 705 mp mp_sum_cv
R 4176 14 713 mp mp_sum_cm
R 4188 14 725 mp mp_sum_cmm
R 4206 14 743 mp mp_sum_ct
R 4220 14 757 mp mp_sum_c4d
R 4237 14 774 mp mp_sum_c5d
R 4257 14 794 mp mp_sum_c6d
R 4280 14 817 mp mp_max_i
R 4284 14 821 mp mp_max_iv
R 4292 14 829 mp mp_max_r
R 4296 14 833 mp mp_max_rv
R 4367 6 2 io_files tmp_dir
R 4369 6 4 io_files prefix
R 4375 6 10 io_files qexml_version
R 4376 6 11 io_files qexml_version_init
R 4407 16 42 io_files xmlpun
R 4419 6 54 io_files iunpun
R 4478 16 13 xml_io_base fmt_version
R 5036 16 42 constants e2
R 5056 6 11 mp_global my_pool_id
R 5081 6 36 mp_global intra_pool_comm
R 5083 6 38 mp_global intra_image_comm
S 5113 27 0 0 0 9 5131 582 25610 0 0 A 0 0 0 0 0 0 0 0 0 0 0 0 0 0 0 0 0 0 0 0 0 0 0 582 0 0 0 0 pw_writefile
S 5114 27 0 0 0 9 5134 582 25623 0 0 A 0 0 0 0 0 0 0 0 0 0 0 0 0 0 0 0 0 0 0 0 0 0 0 582 0 0 0 0 pw_readfile
S 5115 6 4 0 0 6 1 582 25635 14 0 A 0 0 0 0 0 0 0 0 0 0 0 0 5129 0 0 0 0 0 0 0 0 0 0 582 0 0 0 0 iunout
S 5116 6 4 0 0 16 5117 582 25642 80001c 0 A 0 0 0 0 0 0 0 0 0 0 0 0 5130 0 0 0 0 0 0 0 0 0 0 582 0 0 0 0 lcell_read
S 5117 6 4 0 0 16 5118 582 25653 80001c 0 A 0 0 0 0 0 4 0 0 0 0 0 0 5130 0 0 0 0 0 0 0 0 0 0 582 0 0 0 0 lpw_read
S 5118 6 4 0 0 16 5119 582 25662 80001c 0 A 0 0 0 0 0 8 0 0 0 0 0 0 5130 0 0 0 0 0 0 0 0 0 0 582 0 0 0 0 lions_read
S 5119 6 4 0 0 16 5120 582 25673 80001c 0 A 0 0 0 0 0 12 0 0 0 0 0 0 5130 0 0 0 0 0 0 0 0 0 0 582 0 0 0 0 lspin_read
S 5120 6 4 0 0 16 5121 582 25684 80001c 0 A 0 0 0 0 0 16 0 0 0 0 0 0 5130 0 0 0 0 0 0 0 0 0 0 582 0 0 0 0 lstarting_mag_read
S 5121 6 4 0 0 16 5122 582 25703 80001c 0 A 0 0 0 0 0 20 0 0 0 0 0 0 5130 0 0 0 0 0 0 0 0 0 0 582 0 0 0 0 lxc_read
S 5122 6 4 0 0 16 5123 582 25712 80001c 0 A 0 0 0 0 0 24 0 0 0 0 0 0 5130 0 0 0 0 0 0 0 0 0 0 582 0 0 0 0 locc_read
S 5123 6 4 0 0 16 5124 582 25722 80001c 0 A 0 0 0 0 0 28 0 0 0 0 0 0 5130 0 0 0 0 0 0 0 0 0 0 582 0 0 0 0 lbz_read
S 5124 6 4 0 0 16 5125 582 25731 80001c 0 A 0 0 0 0 0 32 0 0 0 0 0 0 5130 0 0 0 0 0 0 0 0 0 0 582 0 0 0 0 lbs_read
S 5125 6 4 0 0 16 5126 582 25740 80001c 0 A 0 0 0 0 0 36 0 0 0 0 0 0 5130 0 0 0 0 0 0 0 0 0 0 582 0 0 0 0 lefield_read
S 5126 6 4 0 0 16 5127 582 25753 80001c 0 A 0 0 0 0 0 40 0 0 0 0 0 0 5130 0 0 0 0 0 0 0 0 0 0 582 0 0 0 0 lwfc_read
S 5127 6 4 0 0 16 5128 582 25763 80001c 0 A 0 0 0 0 0 44 0 0 0 0 0 0 5130 0 0 0 0 0 0 0 0 0 0 582 0 0 0 0 lsymm_read
S 5128 6 4 0 0 16 1 582 25774 80001c 0 A 0 0 0 0 0 48 0 0 0 0 0 0 5130 0 0 0 0 0 0 0 0 0 0 582 0 0 0 0 qexml_version_before_1_4_0
S 5129 11 0 0 0 9 5089 582 25801 40800010 801000 A 0 0 0 0 0 4 0 0 5115 5115 0 0 0 0 0 0 0 0 0 0 0 0 0 0 0 0 0 0 _pw_restart$4
S 5130 11 0 0 0 9 5129 582 25815 40800010 801000 A 0 0 0 0 0 52 0 0 5116 5128 0 0 0 0 0 0 0 0 0 0 0 0 0 0 0 0 0 0 _pw_restart$12
S 5131 23 5 0 0 0 5133 582 25610 0 0 A 0 0 0 0 0 0 0 0 0 0 0 0 0 0 0 0 0 0 0 0 0 0 0 0 0 0 0 0 pw_writefile
S 5132 1 3 1 0 28 1 5131 25830 14 43000 A 0 0 0 0 0 0 0 0 0 0 0 0 0 0 0 0 0 0 0 0 0 0 0 0 0 0 0 0 what
S 5133 14 5 0 0 0 1 5131 25610 0 400000 A 0 0 0 0 0 0 0 2246 1 0 0 0 0 0 0 0 0 0 0 0 0 79 0 582 0 0 0 0 pw_writefile
F 5133 1 5132
S 5134 23 5 0 0 0 5137 582 25623 0 0 A 0 0 0 0 0 0 0 0 0 0 0 0 0 0 0 0 0 0 0 0 0 0 0 0 0 0 0 0 pw_readfile
S 5135 1 3 1 0 28 1 5134 25830 14 43000 A 0 0 0 0 0 0 0 0 0 0 0 0 0 0 0 0 0 0 0 0 0 0 0 0 0 0 0 0 what
S 5136 1 3 2 0 6 1 5134 6794 14 3000 A 0 0 0 0 0 0 0 0 0 0 0 0 0 0 0 0 0 0 0 0 0 0 0 0 0 0 0 0 ierr
S 5137 14 5 0 0 0 1 5134 25623 0 400000 A 0 0 0 0 0 0 0 2248 2 0 0 0 0 0 0 0 0 0 0 0 0 908 0 582 0 0 0 0 pw_readfile
F 5137 2 5135 5136
S 5138 23 5 0 0 0 5141 582 25835 10 0 A 0 0 0 0 0 0 0 0 0 0 0 0 0 0 0 0 0 0 0 0 0 0 0 0 0 0 0 0 read_header
S 5139 1 3 1 0 28 1 5138 23281 14 43000 A 0 0 0 0 0 0 0 0 0 0 0 0 0 0 0 0 0 0 0 0 0 0 0 0 0 0 0 0 dirname
S 5140 1 3 2 0 6 1 5138 6794 14 3000 A 0 0 0 0 0 0 0 0 0 0 0 0 0 0 0 0 0 0 0 0 0 0 0 0 0 0 0 0 ierr
S 5141 14 5 0 0 0 1 5138 25835 10 400000 A 0 0 0 0 0 0 0 2251 2 0 0 0 0 0 0 0 0 0 0 0 0 1152 0 582 0 0 0 0 read_header
F 5141 2 5139 5140
S 5142 23 5 0 0 0 5145 582 25847 10 0 A 0 0 0 0 0 0 0 0 0 0 0 0 0 0 0 0 0 0 0 0 0 0 0 0 0 0 0 0 read_dim
S 5143 1 3 1 0 28 1 5142 23281 14 43000 A 0 0 0 0 0 0 0 0 0 0 0 0 0 0 0 0 0 0 0 0 0 0 0 0 0 0 0 0 dirname
S 5144 1 3 2 0 6 1 5142 6794 14 3000 A 0 0 0 0 0 0 0 0 0 0 0 0 0 0 0 0 0 0 0 0 0 0 0 0 0 0 0 0 ierr
S 5145 14 5 0 0 0 1 5142 25847 10 400000 A 0 0 0 0 0 0 0 2254 2 0 0 0 0 0 0 0 0 0 0 0 0 1204 0 582 0 0 0 0 read_dim
F 5145 2 5143 5144
S 5146 23 5 0 0 0 5149 582 25856 10 0 A 0 0 0 0 0 0 0 0 0 0 0 0 0 0 0 0 0 0 0 0 0 0 0 0 0 0 0 0 read_cell
S 5147 1 3 1 0 28 1 5146 23281 14 43000 A 0 0 0 0 0 0 0 0 0 0 0 0 0 0 0 0 0 0 0 0 0 0 0 0 0 0 0 0 dirname
S 5148 1 3 2 0 6 1 5146 6794 14 3000 A 0 0 0 0 0 0 0 0 0 0 0 0 0 0 0 0 0 0 0 0 0 0 0 0 0 0 0 0 ierr
S 5149 14 5 0 0 0 1 5146 25856 10 400000 A 0 0 0 0 0 0 0 2257 2 0 0 0 0 0 0 0 0 0 0 0 0 1401 0 582 0 0 0 0 read_cell
F 5149 2 5147 5148
S 5150 23 5 0 0 0 5153 582 25866 10 0 A 0 0 0 0 0 0 0 0 0 0 0 0 0 0 0 0 0 0 0 0 0 0 0 0 0 0 0 0 read_ions
S 5151 1 3 1 0 28 1 5150 23281 14 43000 A 0 0 0 0 0 0 0 0 0 0 0 0 0 0 0 0 0 0 0 0 0 0 0 0 0 0 0 0 dirname
S 5152 1 3 2 0 6 1 5150 6794 14 3000 A 0 0 0 0 0 0 0 0 0 0 0 0 0 0 0 0 0 0 0 0 0 0 0 0 0 0 0 0 ierr
S 5153 14 5 0 0 0 1 5150 25866 10 400000 A 0 0 0 0 0 0 0 2260 2 0 0 0 0 0 0 0 0 0 0 0 0 1537 0 582 0 0 0 0 read_ions
F 5153 2 5151 5152
S 5154 23 5 0 0 0 5157 582 25876 10 0 A 0 0 0 0 0 0 0 0 0 0 0 0 0 0 0 0 0 0 0 0 0 0 0 0 0 0 0 0 read_symmetry
S 5155 1 3 1 0 28 1 5154 23281 14 43000 A 0 0 0 0 0 0 0 0 0 0 0 0 0 0 0 0 0 0 0 0 0 0 0 0 0 0 0 0 dirname
S 5156 1 3 2 0 6 1 5154 6794 14 3000 A 0 0 0 0 0 0 0 0 0 0 0 0 0 0 0 0 0 0 0 0 0 0 0 0 0 0 0 0 ierr
S 5157 14 5 0 0 0 1 5154 25876 10 400000 A 0 0 0 0 0 0 0 2263 2 0 0 0 0 0 0 0 0 0 0 0 0 1680 0 582 0 0 0 0 read_symmetry
F 5157 2 5155 5156
S 5158 23 5 0 0 0 5161 582 25890 10 0 A 0 0 0 0 0 0 0 0 0 0 0 0 0 0 0 0 0 0 0 0 0 0 0 0 0 0 0 0 read_efield
S 5159 1 3 1 0 28 1 5158 23281 14 43000 A 0 0 0 0 0 0 0 0 0 0 0 0 0 0 0 0 0 0 0 0 0 0 0 0 0 0 0 0 dirname
S 5160 1 3 2 0 6 1 5158 6794 14 3000 A 0 0 0 0 0 0 0 0 0 0 0 0 0 0 0 0 0 0 0 0 0 0 0 0 0 0 0 0 ierr
S 5161 14 5 0 0 0 1 5158 25890 10 400000 A 0 0 0 0 0 0 0 2266 2 0 0 0 0 0 0 0 0 0 0 0 0 1780 0 582 0 0 0 0 read_efield
F 5161 2 5159 5160
S 5162 23 5 0 0 0 5165 582 25902 10 0 A 0 0 0 0 0 0 0 0 0 0 0 0 0 0 0 0 0 0 0 0 0 0 0 0 0 0 0 0 read_planewaves
S 5163 1 3 1 0 28 1 5162 23281 14 43000 A 0 0 0 0 0 0 0 0 0 0 0 0 0 0 0 0 0 0 0 0 0 0 0 0 0 0 0 0 dirname
S 5164 1 3 2 0 6 1 5162 6794 14 3000 A 0 0 0 0 0 0 0 0 0 0 0 0 0 0 0 0 0 0 0 0 0 0 0 0 0 0 0 0 ierr
S 5165 14 5 0 0 0 1 5162 25902 10 400000 A 0 0 0 0 0 0 0 2269 2 0 0 0 0 0 0 0 0 0 0 0 0 1847 0 582 0 0 0 0 read_planewaves
F 5165 2 5163 5164
S 5166 23 5 0 0 0 5169 582 25918 10 0 A 0 0 0 0 0 0 0 0 0 0 0 0 0 0 0 0 0 0 0 0 0 0 0 0 0 0 0 0 read_spin
S 5167 1 3 1 0 28 1 5166 23281 14 43000 A 0 0 0 0 0 0 0 0 0 0 0 0 0 0 0 0 0 0 0 0 0 0 0 0 0 0 0 0 dirname
S 5168 1 3 2 0 6 1 5166 6794 14 3000 A 0 0 0 0 0 0 0 0 0 0 0 0 0 0 0 0 0 0 0 0 0 0 0 0 0 0 0 0 ierr
S 5169 14 5 0 0 0 1 5166 25918 10 400000 A 0 0 0 0 0 0 0 2272 2 0 0 0 0 0 0 0 0 0 0 0 0 1931 0 582 0 0 0 0 read_spin
F 5169 2 5167 5168
S 5170 23 5 0 0 0 5173 582 25928 10 0 A 0 0 0 0 0 0 0 0 0 0 0 0 0 0 0 0 0 0 0 0 0 0 0 0 0 0 0 0 read_magnetization
S 5171 1 3 1 0 28 1 5170 23281 14 43000 A 0 0 0 0 0 0 0 0 0 0 0 0 0 0 0 0 0 0 0 0 0 0 0 0 0 0 0 0 dirname
S 5172 1 3 2 0 6 1 5170 6794 14 3000 A 0 0 0 0 0 0 0 0 0 0 0 0 0 0 0 0 0 0 0 0 0 0 0 0 0 0 0 0 ierr
S 5173 14 5 0 0 0 1 5170 25928 10 400000 A 0 0 0 0 0 0 0 2275 2 0 0 0 0 0 0 0 0 0 0 0 0 2018 0 582 0 0 0 0 read_magnetization
F 5173 2 5171 5172
S 5174 23 5 0 0 0 5177 582 25947 10 0 A 0 0 0 0 0 0 0 0 0 0 0 0 0 0 0 0 0 0 0 0 0 0 0 0 0 0 0 0 read_xc
S 5175 1 3 1 0 28 1 5174 23281 14 43000 A 0 0 0 0 0 0 0 0 0 0 0 0 0 0 0 0 0 0 0 0 0 0 0 0 0 0 0 0 dirname
S 5176 1 3 2 0 6 1 5174 6794 14 3000 A 0 0 0 0 0 0 0 0 0 0 0 0 0 0 0 0 0 0 0 0 0 0 0 0 0 0 0 0 ierr
S 5177 14 5 0 0 0 1 5174 25947 10 400000 A 0 0 0 0 0 0 0 2278 2 0 0 0 0 0 0 0 0 0 0 0 0 2143 0 582 0 0 0 0 read_xc
F 5177 2 5175 5176
S 5178 23 5 0 0 0 5181 582 25955 10 0 A 0 0 0 0 0 0 0 0 0 0 0 0 0 0 0 0 0 0 0 0 0 0 0 0 0 0 0 0 read_brillouin_zone
S 5179 1 3 1 0 28 1 5178 23281 14 43000 A 0 0 0 0 0 0 0 0 0 0 0 0 0 0 0 0 0 0 0 0 0 0 0 0 0 0 0 0 dirname
S 5180 1 3 2 0 6 1 5178 6794 14 3000 A 0 0 0 0 0 0 0 0 0 0 0 0 0 0 0 0 0 0 0 0 0 0 0 0 0 0 0 0 ierr
S 5181 14 5 0 0 0 1 5178 25955 10 400000 A 0 0 0 0 0 0 0 2281 2 0 0 0 0 0 0 0 0 0 0 0 0 2225 0 582 0 0 0 0 read_brillouin_zone
F 5181 2 5179 5180
S 5182 23 5 0 0 0 5185 582 25975 10 0 A 0 0 0 0 0 0 0 0 0 0 0 0 0 0 0 0 0 0 0 0 0 0 0 0 0 0 0 0 read_occupations
S 5183 1 3 1 0 28 1 5182 23281 14 43000 A 0 0 0 0 0 0 0 0 0 0 0 0 0 0 0 0 0 0 0 0 0 0 0 0 0 0 0 0 dirname
S 5184 1 3 2 0 6 1 5182 6794 14 3000 A 0 0 0 0 0 0 0 0 0 0 0 0 0 0 0 0 0 0 0 0 0 0 0 0 0 0 0 0 ierr
S 5185 14 5 0 0 0 1 5182 25975 10 400000 A 0 0 0 0 0 0 0 2284 2 0 0 0 0 0 0 0 0 0 0 0 0 2311 0 582 0 0 0 0 read_occupations
F 5185 2 5183 5184
S 5186 23 5 0 0 0 5189 582 25992 10 0 A 0 0 0 0 0 0 0 0 0 0 0 0 0 0 0 0 0 0 0 0 0 0 0 0 0 0 0 0 read_band_structure
S 5187 1 3 1 0 28 1 5186 23281 14 43000 A 0 0 0 0 0 0 0 0 0 0 0 0 0 0 0 0 0 0 0 0 0 0 0 0 0 0 0 0 dirname
S 5188 1 3 2 0 6 1 5186 6794 14 3000 A 0 0 0 0 0 0 0 0 0 0 0 0 0 0 0 0 0 0 0 0 0 0 0 0 0 0 0 0 ierr
S 5189 14 5 0 0 0 1 5186 25992 10 400000 A 0 0 0 0 0 0 0 2287 2 0 0 0 0 0 0 0 0 0 0 0 0 2485 0 582 0 0 0 0 read_band_structure
F 5189 2 5187 5188
S 5190 23 5 0 0 0 5193 582 26012 10 0 A 0 0 0 0 0 0 0 0 0 0 0 0 0 0 0 0 0 0 0 0 0 0 0 0 0 0 0 0 read_wavefunctions
S 5191 1 3 1 0 28 1 5190 23281 14 43000 A 0 0 0 0 0 0 0 0 0 0 0 0 0 0 0 0 0 0 0 0 0 0 0 0 0 0 0 0 dirname
S 5192 1 3 2 0 6 1 5190 6794 14 3000 A 0 0 0 0 0 0 0 0 0 0 0 0 0 0 0 0 0 0 0 0 0 0 0 0 0 0 0 0 ierr
S 5193 14 5 0 0 0 1 5190 26012 10 400000 A 0 0 0 0 0 0 0 2290 2 0 0 0 0 0 0 0 0 0 0 0 0 2651 0 582 0 0 0 0 read_wavefunctions
F 5193 2 5191 5192
S 5194 23 5 0 0 0 5197 582 26031 10 0 A 0 0 0 0 0 0 0 0 0 0 0 0 0 0 0 0 0 0 0 0 0 0 0 0 0 0 0 0 read_phonon
S 5195 1 3 1 0 28 1 5194 23281 14 43000 A 0 0 0 0 0 0 0 0 0 0 0 0 0 0 0 0 0 0 0 0 0 0 0 0 0 0 0 0 dirname
S 5196 1 3 2 0 6 1 5194 6794 14 3000 A 0 0 0 0 0 0 0 0 0 0 0 0 0 0 0 0 0 0 0 0 0 0 0 0 0 0 0 0 ierr
S 5197 14 5 0 0 0 1 5194 26031 10 400000 A 0 0 0 0 0 0 0 2293 2 0 0 0 0 0 0 0 0 0 0 0 0 2990 0 582 0 0 0 0 read_phonon
F 5197 2 5195 5196
S 5198 23 5 0 0 0 5201 582 26043 10 0 A 0 0 0 0 0 0 0 0 0 0 0 0 0 0 0 0 0 0 0 0 0 0 0 0 0 0 0 0 read_ef
S 5199 1 3 1 0 28 1 5198 23281 14 43000 A 0 0 0 0 0 0 0 0 0 0 0 0 0 0 0 0 0 0 0 0 0 0 0 0 0 0 0 0 dirname
S 5200 1 3 2 0 6 1 5198 6794 14 3000 A 0 0 0 0 0 0 0 0 0 0 0 0 0 0 0 0 0 0 0 0 0 0 0 0 0 0 0 0 ierr
S 5201 14 5 0 0 0 1 5198 26043 10 400000 A 0 0 0 0 0 0 0 2296 2 0 0 0 0 0 0 0 0 0 0 0 0 3045 0 582 0 0 0 0 read_ef
F 5201 2 5199 5200
S 5202 23 5 0 0 0 5205 582 26051 10 0 A 0 0 0 0 0 0 0 0 0 0 0 0 0 0 0 0 0 0 0 0 0 0 0 0 0 0 0 0 read_
S 5203 1 3 1 0 28 1 5202 23281 14 43000 A 0 0 0 0 0 0 0 0 0 0 0 0 0 0 0 0 0 0 0 0 0 0 0 0 0 0 0 0 dirname
S 5204 1 3 2 0 6 1 5202 6794 14 3000 A 0 0 0 0 0 0 0 0 0 0 0 0 0 0 0 0 0 0 0 0 0 0 0 0 0 0 0 0 ierr
S 5205 14 5 0 0 0 1 5202 26051 10 400000 A 0 0 0 0 0 0 0 2299 2 0 0 0 0 0 0 0 0 0 0 0 0 3097 0 582 0 0 0 0 read_
F 5205 2 5203 5204
S 5206 23 5 0 0 0 5212 582 26057 10 0 A 0 0 0 0 0 0 0 0 0 0 0 0 0 0 0 0 0 0 0 0 0 0 0 0 0 0 0 0 gk_l2gmap
S 5207 6 3 1 0 6 1 5206 26067 800014 3000 A 0 0 0 0 0 0 0 0 0 0 0 0 0 0 0 0 0 0 0 0 0 0 0 0 0 0 0 0 ngm
S 5208 7 3 1 0 1196 1 5206 26071 800214 3000 A 0 0 0 0 0 0 0 0 0 0 0 0 0 0 0 0 0 0 0 0 0 0 0 0 0 0 0 0 ig_l2g
S 5209 6 3 1 0 6 1 5206 26078 800014 3000 A 0 0 0 0 0 0 0 0 0 0 0 0 0 0 0 0 0 0 0 0 0 0 0 0 0 0 0 0 ngk
S 5210 7 3 1 0 1193 1 5206 26082 800214 3000 A 0 0 0 0 0 0 0 0 0 0 0 0 0 0 0 0 0 0 0 0 0 0 0 0 0 0 0 0 igk
S 5211 7 3 2 0 1199 1 5206 26086 800214 3000 A 0 0 0 0 0 0 0 0 0 0 0 0 0 0 0 0 0 0 0 0 0 0 0 0 0 0 0 0 igk_l2g
S 5212 14 5 0 0 0 1 5206 26057 210 400000 A 0 0 0 0 0 0 0 2302 5 0 0 0 0 0 0 0 0 0 0 0 0 3138 0 582 0 0 0 0 gk_l2gmap
F 5212 5 5207 5208 5209 5210 5211
S 5213 6 1 0 0 6 1 5206 26094 40800016 3000 A 0 0 0 0 0 0 0 0 0 0 0 0 0 0 0 0 0 0 0 0 0 0 0 0 0 0 0 0 z_e_1719
S 5214 6 1 0 0 6 1 5206 26103 40800016 3000 A 0 0 0 0 0 0 0 0 0 0 0 0 0 0 0 0 0 0 0 0 0 0 0 0 0 0 0 0 z_e_1721
S 5215 23 5 0 0 0 5222 582 26112 10 0 A 0 0 0 0 0 0 0 0 0 0 0 0 0 0 0 0 0 0 0 0 0 0 0 0 0 0 0 0 gk_l2gmap_kdip
S 5216 1 3 1 0 6 1 5215 26127 14 3000 A 0 0 0 0 0 0 0 0 0 0 0 0 0 0 0 0 0 0 0 0 0 0 0 0 0 0 0 0 npw_g
S 5217 6 3 1 0 6 1 5215 26133 800014 3000 A 0 0 0 0 0 0 0 0 0 0 0 0 0 0 0 0 0 0 0 0 0 0 0 0 0 0 0 0 ngk_g
S 5218 6 3 1 0 6 1 5215 26078 800014 3000 A 0 0 0 0 0 0 0 0 0 0 0 0 0 0 0 0 0 0 0 0 0 0 0 0 0 0 0 0 ngk
S 5219 7 3 1 0 1202 1 5215 26086 800214 3000 A 0 0 0 0 0 0 0 0 0 0 0 0 0 0 0 0 0 0 0 0 0 0 0 0 0 0 0 0 igk_l2g
S 5220 7 3 2 0 1208 1 5215 26139 80800214 3000 A 0 0 0 0 0 0 0 0 0 0 0 0 0 0 0 0 0 0 0 0 0 0 0 0 0 0 0 0 igk_l2g_kdip
S 5221 7 3 2 0 1205 1 5215 26152 80800214 3000 A 0 0 0 0 0 0 0 0 0 0 0 0 0 0 0 0 0 0 0 0 0 0 0 0 0 0 0 0 igwk
S 5222 14 5 0 0 0 1 5215 26112 210 400000 A 0 0 0 0 0 0 0 2308 6 0 0 0 0 0 0 0 0 0 0 0 0 3167 0 582 0 0 0 0 gk_l2gmap_kdip
F 5222 6 5216 5217 5218 5219 5220 5221
S 5223 6 1 0 0 6 1 5215 26157 40800016 3000 A 0 0 0 0 0 0 0 0 0 0 0 0 0 0 0 0 0 0 0 0 0 0 0 0 0 0 0 0 z_e_1723
S 5224 6 1 0 0 6 1 5215 26166 40800016 3000 A 0 0 0 0 0 0 0 0 0 0 0 0 0 0 0 0 0 0 0 0 0 0 0 0 0 0 0 0 z_e_1725
A 1719 1 0 0 1018 6 5209 0 0 0 0 0 0 0 0 0 0 0 0 0
A 1720 1 0 0 1697 6 5213 0 0 0 0 0 0 0 0 0 0 0 0 0
A 1721 1 0 0 1297 6 5207 0 0 0 0 0 0 0 0 0 0 0 0 0
A 1722 1 0 0 1306 6 5214 0 0 0 0 0 0 0 0 0 0 0 0 0
A 1723 1 0 0 1676 6 5218 0 0 0 0 0 0 0 0 0 0 0 0 0
A 1724 1 0 0 1035 6 5223 0 0 0 0 0 0 0 0 0 0 0 0 0
A 1725 1 0 0 1308 6 5217 0 0 0 0 0 0 0 0 0 0 0 0 0
A 1726 1 0 0 1038 6 5224 0 0 0 0 0 0 0 0 0 0 0 0 0
Z
Z
