V26 rap_point_group_so
9 pwcom.F90 S582 0
04/24/2012  15:53:20
use kinds private
use kinds private
enduse
D 56 21 6 1 3 17 0 0 0 0 0
 0 17 3 3 17 17
D 59 21 6 2 20 19 0 0 0 0 0
 0 18 3 3 18 18
 0 17 18 3 17 17
D 62 21 6 2 20 19 0 0 0 0 0
 0 18 3 3 18 18
 0 17 18 3 17 17
D 65 21 6 1 3 17 0 0 0 0 0
 0 17 3 3 17 17
D 68 21 12 2 20 19 0 0 0 0 0
 0 18 3 3 18 18
 0 17 18 3 17 17
D 71 21 12 3 24 23 0 0 0 0 0
 0 21 3 3 21 21
 0 21 21 3 21 21
 0 22 15 3 22 22
D 74 18 25
D 76 21 74 1 3 18 0 0 0 0 0
 0 18 3 3 18 18
D 79 18 26
D 81 21 79 1 3 17 0 0 0 0 0
 0 17 3 3 17 17
D 84 21 79 1 3 17 0 0 0 0 0
 0 17 3 3 17 17
S 582 24 0 0 0 9 1 0 4658 5 0 A 0 0 0 0 0 0 0 0 0 0 0 0 262 0 0 0 0 0 0 0 0 243 0 0 0 0 0 0 rap_point_group_so
S 584 23 0 0 0 9 587 582 4683 4 0 A 0 0 0 0 0 0 0 0 0 0 0 0 0 0 0 0 0 0 0 0 0 0 0 582 0 0 0 0 dp
S 586 3 0 0 0 6 1 1 0 0 0 A 0 0 0 0 0 0 0 0 0 4 0 0 0 0 0 0 0 0 0 0 0 0 0 0 0 0 0 0 6
R 587 16 1 kinds dp
S 594 6 4 0 0 6 595 582 4717 4 0 A 0 0 0 0 0 0 0 0 0 0 0 0 614 0 0 0 0 0 0 0 0 0 0 582 0 0 0 0 nrap
S 595 7 4 0 4 56 597 582 4722 800004 100 A 0 0 0 0 0 16 0 0 0 0 0 0 614 0 0 0 0 0 0 0 0 0 0 582 0 0 0 0 nelem_so
S 596 3 0 0 0 6 0 1 0 0 0 A 0 0 0 0 0 0 0 0 0 24 0 0 0 0 0 0 0 0 0 0 0 0 0 0 0 0 0 0 6
S 597 7 4 0 4 59 601 582 4731 800004 100 A 0 0 0 0 0 112 0 0 0 0 0 0 614 0 0 0 0 0 0 0 0 0 0 582 0 0 0 0 elem_so
S 598 3 0 0 0 6 0 1 0 0 0 A 0 0 0 0 0 0 0 0 0 12 0 0 0 0 0 0 0 0 0 0 0 0 0 0 0 0 0 0 6
S 599 3 0 0 0 6 0 1 0 0 0 A 0 0 0 0 0 0 0 0 0 288 0 0 0 0 0 0 0 0 0 0 0 0 0 0 0 0 0 0 6
S 600 3 0 0 0 6 0 1 0 0 0 A 0 0 0 0 0 0 0 0 0 13 0 0 0 0 0 0 0 0 0 0 0 0 0 0 0 0 0 0 6
S 601 7 4 0 4 62 602 582 4739 800004 100 A 0 0 0 0 0 1264 0 0 0 0 0 0 614 0 0 0 0 0 0 0 0 0 0 582 0 0 0 0 has_e
S 602 7 4 0 4 65 603 582 4745 800004 100 A 0 0 0 0 0 2416 0 0 0 0 0 0 614 0 0 0 0 0 0 0 0 0 0 582 0 0 0 0 which_irr_so
S 603 7 4 0 4 68 604 582 4758 800004 100 A 0 0 0 0 0 2512 0 0 0 0 0 0 614 0 0 0 0 0 0 0 0 0 0 582 0 0 0 0 char_mat_so
S 604 7 4 0 4 71 1 582 4770 800004 100 A 0 0 0 0 0 7120 0 0 0 0 0 0 614 0 0 0 0 0 0 0 0 0 0 582 0 0 0 0 d_spin
S 605 3 0 0 0 6 0 1 0 0 0 A 0 0 0 0 0 0 0 0 0 2 0 0 0 0 0 0 0 0 0 0 0 0 0 0 0 0 0 0 6
S 606 3 0 0 0 6 0 1 0 0 0 A 0 0 0 0 0 0 0 0 0 48 0 0 0 0 0 0 0 0 0 0 0 0 0 0 0 0 0 0 6
S 607 3 0 0 0 6 0 1 0 0 0 A 0 0 0 0 0 0 0 0 0 192 0 0 0 0 0 0 0 0 0 0 0 0 0 0 0 0 0 0 6
S 608 3 0 0 0 6 0 1 0 0 0 A 0 0 0 0 0 0 0 0 0 7 0 0 0 0 0 0 0 0 0 0 0 0 0 0 0 0 0 0 6
S 609 3 0 0 0 6 0 1 0 0 0 A 0 0 0 0 0 0 0 0 0 15 0 0 0 0 0 0 0 0 0 0 0 0 0 0 0 0 0 0 6
S 610 7 4 0 4 76 612 582 4777 800004 100 A 0 0 0 0 0 0 0 0 0 0 0 0 615 0 0 0 0 0 0 0 0 0 0 582 0 0 0 0 name_rap_so
S 611 3 0 0 0 6 0 1 0 0 0 A 0 0 0 0 0 0 0 0 0 5 0 0 0 0 0 0 0 0 0 0 0 0 0 0 0 0 0 0 6
S 612 7 4 0 4 81 613 582 4789 800004 100 A 0 0 0 0 0 192 0 0 0 0 0 0 615 0 0 0 0 0 0 0 0 0 0 582 0 0 0 0 name_class_so
S 613 7 4 0 4 84 1 582 4803 800004 100 A 0 0 0 0 0 320 0 0 0 0 0 0 615 0 0 0 0 0 0 0 0 0 0 582 0 0 0 0 name_class_so1
S 614 11 0 0 4 9 1 582 4818 40800000 801000 A 0 0 0 0 0 10192 0 0 594 604 0 0 0 0 0 0 0 0 0 0 0 0 0 0 0 0 0 0 _rap_point_group_so$0
S 615 11 0 0 4 9 614 582 4840 40800000 801000 A 0 0 0 0 0 440 0 0 610 613 0 0 0 0 0 0 0 0 0 0 0 0 0 0 0 0 0 0 _rap_point_group_so$1
A 15 2 0 0 0 6 586 0 0 0 15 0 0 0 0 0 0 0 0 0
A 17 2 0 0 0 6 596 0 0 0 17 0 0 0 0 0 0 0 0 0
A 18 2 0 0 0 6 598 0 0 0 18 0 0 0 0 0 0 0 0 0
A 19 2 0 0 0 6 599 0 0 0 19 0 0 0 0 0 0 0 0 0
A 20 2 0 0 0 6 600 0 0 0 20 0 0 0 0 0 0 0 0 0
A 21 2 0 0 0 6 605 0 0 0 21 0 0 0 0 0 0 0 0 0
A 22 2 0 0 0 6 606 0 0 0 22 0 0 0 0 0 0 0 0 0
A 23 2 0 0 0 6 607 0 0 0 23 0 0 0 0 0 0 0 0 0
A 24 2 0 0 0 6 608 0 0 0 24 0 0 0 0 0 0 0 0 0
A 25 2 0 0 0 6 609 0 0 0 25 0 0 0 0 0 0 0 0 0
A 26 2 0 0 0 6 611 0 0 0 26 0 0 0 0 0 0 0 0 0
Z
Z
