V26 rap_point_group
9 pwcom.F90 S582 0
04/24/2012  15:53:20
use kinds private
use kinds private
enduse
D 56 21 6 1 3 17 0 0 0 0 0
 0 17 3 3 17 17
D 59 21 6 2 19 18 0 0 0 0 0
 0 13 3 3 13 13
 0 17 13 3 17 17
D 62 21 6 1 3 17 0 0 0 0 0
 0 17 3 3 17 17
D 65 21 12 2 21 20 0 0 0 0 0
 0 17 3 3 17 17
 0 17 17 3 17 17
D 68 18 22
D 70 21 68 1 3 17 0 0 0 0 0
 0 17 3 3 17 17
D 73 18 23
D 75 21 73 1 3 17 0 0 0 0 0
 0 17 3 3 17 17
D 78 18 24
D 80 18 25
D 82 21 80 1 3 17 0 0 0 0 0
 0 17 3 3 17 17
S 582 24 0 0 0 9 1 0 4658 5 0 A 0 0 0 0 0 0 0 0 0 0 0 0 241 0 0 0 0 0 0 0 0 221 0 0 0 0 0 0 rap_point_group
S 584 23 0 0 0 9 587 582 4680 4 0 A 0 0 0 0 0 0 0 0 0 0 0 0 0 0 0 0 0 0 0 0 0 0 0 582 0 0 0 0 dp
S 585 3 0 0 0 6 1 1 0 0 0 A 0 0 0 0 0 0 0 0 0 8 0 0 0 0 0 0 0 0 0 0 0 0 0 0 0 0 0 0 6
R 587 16 1 kinds dp
S 594 6 4 0 0 6 595 582 4714 4 0 A 0 0 0 0 0 0 0 0 0 0 0 0 613 0 0 0 0 0 0 0 0 0 0 582 0 0 0 0 code_group
S 595 6 4 0 0 6 596 582 4725 4 0 A 0 0 0 0 0 4 0 0 0 0 0 0 613 0 0 0 0 0 0 0 0 0 0 582 0 0 0 0 nclass
S 596 7 4 0 4 56 598 582 4732 800004 100 A 0 0 0 0 0 16 0 0 0 0 0 0 613 0 0 0 0 0 0 0 0 0 0 582 0 0 0 0 nelem
S 597 3 0 0 0 6 0 1 0 0 0 A 0 0 0 0 0 0 0 0 0 12 0 0 0 0 0 0 0 0 0 0 0 0 0 0 0 0 0 0 6
S 598 7 4 0 4 59 601 582 4738 800004 100 A 0 0 0 0 0 64 0 0 0 0 0 0 613 0 0 0 0 0 0 0 0 0 0 582 0 0 0 0 elem
S 599 3 0 0 0 6 0 1 0 0 0 A 0 0 0 0 0 0 0 0 0 96 0 0 0 0 0 0 0 0 0 0 0 0 0 0 0 0 0 0 6
S 600 3 0 0 0 6 0 1 0 0 0 A 0 0 0 0 0 0 0 0 0 9 0 0 0 0 0 0 0 0 0 0 0 0 0 0 0 0 0 0 6
S 601 7 4 0 4 62 602 582 4743 800004 100 A 0 0 0 0 0 448 0 0 0 0 0 0 613 0 0 0 0 0 0 0 0 0 0 582 0 0 0 0 which_irr
S 602 7 4 0 4 65 1 582 4753 800004 100 A 0 0 0 0 0 496 0 0 0 0 0 0 613 0 0 0 0 0 0 0 0 0 0 582 0 0 0 0 char_mat
S 603 3 0 0 0 6 0 1 0 0 0 A 0 0 0 0 0 0 0 0 0 144 0 0 0 0 0 0 0 0 0 0 0 0 0 0 0 0 0 0 6
S 604 3 0 0 0 6 0 1 0 0 0 A 0 0 0 0 0 0 0 0 0 13 0 0 0 0 0 0 0 0 0 0 0 0 0 0 0 0 0 0 6
S 605 3 0 0 0 6 0 1 0 0 0 A 0 0 0 0 0 0 0 0 0 15 0 0 0 0 0 0 0 0 0 0 0 0 0 0 0 0 0 0 6
S 606 7 4 0 4 70 608 582 4762 800004 100 A 0 0 0 0 0 0 0 0 0 0 0 0 614 0 0 0 0 0 0 0 0 0 0 582 0 0 0 0 name_rap
S 607 3 0 0 0 6 0 1 0 0 0 A 0 0 0 0 0 0 0 0 0 3 0 0 0 0 0 0 0 0 0 0 0 0 0 0 0 0 0 0 6
S 608 7 4 0 4 75 610 582 4771 800004 100 A 0 0 0 0 0 192 0 0 0 0 0 0 614 0 0 0 0 0 0 0 0 0 0 582 0 0 0 0 ir_ram
S 609 3 0 0 0 6 0 1 0 0 0 A 0 0 0 0 0 0 0 0 0 11 0 0 0 0 0 0 0 0 0 0 0 0 0 0 0 0 0 0 6
S 610 6 4 0 0 78 612 582 4778 4 0 A 0 0 0 0 0 228 0 0 0 0 0 0 614 0 0 0 0 0 0 0 0 0 0 582 0 0 0 0 gname
S 611 3 0 0 0 6 0 1 0 0 0 A 0 0 0 0 0 0 0 0 0 5 0 0 0 0 0 0 0 0 0 0 0 0 0 0 0 0 0 0 6
S 612 7 4 0 4 82 1 582 4784 800004 100 A 0 0 0 0 0 240 0 0 0 0 0 0 614 0 0 0 0 0 0 0 0 0 0 582 0 0 0 0 name_class
S 613 11 0 0 4 9 1 582 4795 40800000 801000 A 0 0 0 0 0 2800 0 0 594 602 0 0 0 0 0 0 0 0 0 0 0 0 0 0 0 0 0 0 _rap_point_group$0
S 614 11 0 0 4 9 613 582 4814 40800000 801000 A 0 0 0 0 0 300 0 0 606 612 0 0 0 0 0 0 0 0 0 0 0 0 0 0 0 0 0 0 _rap_point_group$1
A 13 2 0 0 0 6 585 0 0 0 13 0 0 0 0 0 0 0 0 0
A 17 2 0 0 0 6 597 0 0 0 17 0 0 0 0 0 0 0 0 0
A 18 2 0 0 0 6 599 0 0 0 18 0 0 0 0 0 0 0 0 0
A 19 2 0 0 0 6 600 0 0 0 19 0 0 0 0 0 0 0 0 0
A 20 2 0 0 0 6 603 0 0 0 20 0 0 0 0 0 0 0 0 0
A 21 2 0 0 0 6 604 0 0 0 21 0 0 0 0 0 0 0 0 0
A 22 2 0 0 0 6 605 0 0 0 22 0 0 0 0 0 0 0 0 0
A 23 2 0 0 0 6 607 0 0 0 23 0 0 0 0 0 0 0 0 0
A 24 2 0 0 0 6 609 0 0 0 24 0 0 0 0 0 0 0 0 0
A 25 2 0 0 0 6 611 0 0 0 25 0 0 0 0 0 0 0 0 0
Z
Z
