V26 rap_point_group_is
9 pwcom.F90 S582 0
04/24/2012  15:53:20
use kinds private
use kinds private
enduse
D 56 21 6 2 15 19 0 0 0 0 0
 0 17 3 3 17 17
 0 18 17 3 18 18
D 59 21 9 3 22 21 0 0 0 0 0
 0 17 3 3 17 17
 0 17 17 3 17 17
 0 18 20 3 18 18
D 62 21 12 3 25 24 0 0 0 0 0
 0 23 3 3 23 23
 0 23 23 3 23 23
 0 18 15 3 18 18
D 65 18 26
D 67 21 65 1 3 18 0 0 0 0 0
 0 18 3 3 18 18
D 70 18 27
S 582 24 0 0 0 9 1 0 4658 5 0 A 0 0 0 0 0 0 0 0 0 0 0 0 282 0 0 0 0 0 0 0 0 264 0 0 0 0 0 0 rap_point_group_is
S 584 23 0 0 0 9 587 582 4683 4 0 A 0 0 0 0 0 0 0 0 0 0 0 0 0 0 0 0 0 0 0 0 0 0 0 582 0 0 0 0 dp
S 586 3 0 0 0 6 1 1 0 0 0 A 0 0 0 0 0 0 0 0 0 4 0 0 0 0 0 0 0 0 0 0 0 0 0 0 0 0 0 0 6
R 587 16 1 kinds dp
S 594 7 4 0 4 56 598 582 4717 800004 100 A 0 0 0 0 0 0 0 0 0 0 0 0 612 0 0 0 0 0 0 0 0 0 0 582 0 0 0 0 ftau_is
S 595 3 0 0 0 6 0 1 0 0 0 A 0 0 0 0 0 0 0 0 0 3 0 0 0 0 0 0 0 0 0 0 0 0 0 0 0 0 0 0 6
S 596 3 0 0 0 6 0 1 0 0 0 A 0 0 0 0 0 0 0 0 0 48 0 0 0 0 0 0 0 0 0 0 0 0 0 0 0 0 0 0 6
S 597 3 0 0 0 6 0 1 0 0 0 A 0 0 0 0 0 0 0 0 0 144 0 0 0 0 0 0 0 0 0 0 0 0 0 0 0 0 0 0 6
S 598 6 4 0 0 6 599 582 4725 4 0 A 0 0 0 0 0 576 0 0 0 0 0 0 612 0 0 0 0 0 0 0 0 0 0 582 0 0 0 0 nsym_is
S 599 6 4 0 0 6 604 582 4733 4 0 A 0 0 0 0 0 580 0 0 0 0 0 0 612 0 0 0 0 0 0 0 0 0 0 582 0 0 0 0 code_group_is
S 600 7 4 0 4 59 1 582 4747 800004 100 A 0 0 0 0 0 0 0 0 0 0 0 0 613 0 0 0 0 0 0 0 0 0 0 582 0 0 0 0 sr_is
S 601 3 0 0 0 6 0 1 0 0 0 A 0 0 0 0 0 0 0 0 0 9 0 0 0 0 0 0 0 0 0 0 0 0 0 0 0 0 0 0 6
S 602 3 0 0 0 6 0 1 0 0 0 A 0 0 0 0 0 0 0 0 0 432 0 0 0 0 0 0 0 0 0 0 0 0 0 0 0 0 0 0 6
S 603 3 0 0 0 6 0 1 0 0 0 A 0 0 0 0 0 0 0 0 0 13 0 0 0 0 0 0 0 0 0 0 0 0 0 0 0 0 0 0 6
S 604 7 4 0 4 62 1 582 4753 800004 100 A 0 0 0 0 0 592 0 0 0 0 0 0 612 0 0 0 0 0 0 0 0 0 0 582 0 0 0 0 d_spin_is
S 605 3 0 0 0 6 0 1 0 0 0 A 0 0 0 0 0 0 0 0 0 2 0 0 0 0 0 0 0 0 0 0 0 0 0 0 0 0 0 0 6
S 606 3 0 0 0 6 0 1 0 0 0 A 0 0 0 0 0 0 0 0 0 192 0 0 0 0 0 0 0 0 0 0 0 0 0 0 0 0 0 0 6
S 607 3 0 0 0 6 0 1 0 0 0 A 0 0 0 0 0 0 0 0 0 7 0 0 0 0 0 0 0 0 0 0 0 0 0 0 0 0 0 0 6
S 608 3 0 0 0 6 0 1 0 0 0 A 0 0 0 0 0 0 0 0 0 45 0 0 0 0 0 0 0 0 0 0 0 0 0 0 0 0 0 0 6
S 609 7 4 0 4 67 611 582 4763 800004 100 A 0 0 0 0 0 0 0 0 0 0 0 0 614 0 0 0 0 0 0 0 0 0 0 582 0 0 0 0 sname_is
S 610 3 0 0 0 6 0 1 0 0 0 A 0 0 0 0 0 0 0 0 0 11 0 0 0 0 0 0 0 0 0 0 0 0 0 0 0 0 0 0 6
S 611 6 4 0 0 70 1 582 4772 4 0 A 0 0 0 0 0 2160 0 0 0 0 0 0 614 0 0 0 0 0 0 0 0 0 0 582 0 0 0 0 gname_is
S 612 11 0 0 4 9 1 582 4781 40800000 801000 A 0 0 0 0 0 3664 0 0 594 604 0 0 0 0 0 0 0 0 0 0 0 0 0 0 0 0 0 0 _rap_point_group_is$0
S 613 11 0 0 4 9 612 582 4803 40800000 801000 A 0 0 0 0 0 3456 0 0 600 600 0 0 0 0 0 0 0 0 0 0 0 0 0 0 0 0 0 0 _rap_point_group_is$2
S 614 11 0 0 4 9 613 582 4825 40800000 801000 A 0 0 0 0 0 2171 0 0 609 611 0 0 0 0 0 0 0 0 0 0 0 0 0 0 0 0 0 0 _rap_point_group_is$1
A 15 2 0 0 0 6 586 0 0 0 15 0 0 0 0 0 0 0 0 0
A 17 2 0 0 0 6 595 0 0 0 17 0 0 0 0 0 0 0 0 0
A 18 2 0 0 0 6 596 0 0 0 18 0 0 0 0 0 0 0 0 0
A 19 2 0 0 0 6 597 0 0 0 19 0 0 0 0 0 0 0 0 0
A 20 2 0 0 0 6 601 0 0 0 20 0 0 0 0 0 0 0 0 0
A 21 2 0 0 0 6 602 0 0 0 21 0 0 0 0 0 0 0 0 0
A 22 2 0 0 0 6 603 0 0 0 22 0 0 0 0 0 0 0 0 0
A 23 2 0 0 0 6 605 0 0 0 23 0 0 0 0 0 0 0 0 0
A 24 2 0 0 0 6 606 0 0 0 24 0 0 0 0 0 0 0 0 0
A 25 2 0 0 0 6 607 0 0 0 25 0 0 0 0 0 0 0 0 0
A 26 2 0 0 0 6 608 0 0 0 26 0 0 0 0 0 0 0 0 0
A 27 2 0 0 0 6 610 0 0 0 27 0 0 0 0 0 0 0 0 0
Z
Z
