V26 realus
10 realus.F90 S582 0
04/24/2012  15:55:14
use kinds private
use kinds private
enduse
D 56 21 6 2 39 38 0 1 0 0 1
 22 26 34 22 26 24
 28 32 36 28 32 30
D 59 21 6 1 0 19 0 0 0 0 0
 0 19 0 3 19 0
D 62 21 6 1 49 48 0 1 0 0 1
 43 46 47 43 46 44
D 65 21 6 1 0 41 0 0 0 0 0
 0 41 0 3 41 0
D 68 21 9 1 58 57 0 1 0 0 1
 52 55 56 52 55 53
D 71 21 6 1 0 41 0 0 0 0 0
 0 41 0 3 41 0
D 74 21 9 1 67 66 0 1 0 0 1
 61 64 65 61 64 62
D 77 21 6 1 0 41 0 0 0 0 0
 0 41 0 3 41 0
D 80 21 9 2 82 81 0 1 0 0 1
 71 74 79 71 74 72
 75 78 80 75 78 76
D 83 21 6 1 0 19 0 0 0 0 0
 0 19 0 3 19 0
D 86 21 9 3 107 106 0 1 0 0 1
 88 91 102 88 91 89
 92 95 103 92 95 93
 97 101 105 97 101 99
D 89 21 6 1 0 86 0 0 0 0 0
 0 86 0 3 86 0
D 92 21 9 3 128 127 0 1 0 0 1
 112 115 124 112 115 113
 116 119 125 116 119 117
 120 123 126 120 123 121
D 95 21 6 1 0 86 0 0 0 0 0
 0 86 0 3 86 0
D 98 21 9 1 3 130 0 0 1 0 0
 0 129 3 3 130 130
D 101 21 9 1 3 132 0 0 1 0 0
 0 131 3 3 132 132
D 104 21 9 1 3 130 0 0 1 0 0
 0 129 3 3 130 130
D 107 21 9 1 3 134 0 0 1 0 0
 0 133 3 3 134 134
D 110 21 9 1 3 136 0 0 1 0 0
 0 135 3 3 136 136
D 113 21 9 1 3 138 0 0 1 0 0
 0 137 3 3 138 138
S 582 24 0 0 0 9 1 0 4658 10005 0 A 0 0 0 0 0 0 0 0 0 0 0 0 0 0 0 0 0 0 0 0 0 27 0 0 0 0 0 0 realus
S 584 23 0 0 0 9 587 582 4671 4 0 A 0 0 0 0 0 0 0 0 0 0 0 0 0 0 0 0 0 0 0 0 0 0 0 582 0 0 0 0 dp
S 585 3 0 0 0 6 1 1 0 0 0 A 0 0 0 0 0 0 0 0 0 8 0 0 0 0 0 0 0 0 0 0 0 0 0 0 0 0 0 0 6
R 587 16 1 kinds dp
S 594 7 6 0 0 56 1 582 4705 10a00004 51 A 0 0 0 0 0 0 599 0 0 0 601 0 0 0 0 0 0 0 0 598 0 0 600 582 0 0 0 0 box
S 595 6 4 0 0 6 596 582 4709 40800006 0 A 0 0 0 0 0 0 0 0 0 0 0 0 655 0 0 0 0 0 0 0 0 0 0 582 0 0 0 0 z_b_0
S 596 6 4 0 0 6 610 582 4715 40800006 0 A 0 0 0 0 0 4 0 0 0 0 0 0 655 0 0 0 0 0 0 0 0 0 0 582 0 0 0 0 z_b_1
S 597 3 0 0 0 6 0 1 0 0 0 A 0 0 0 0 0 0 0 0 0 24 0 0 0 0 0 0 0 0 0 0 0 0 0 0 0 0 0 0 6
S 598 8 4 0 0 59 613 582 4721 40822004 1020 A 0 0 0 0 0 0 0 0 0 0 0 0 655 0 0 0 0 0 0 0 0 0 0 582 0 0 0 0 box$sd
S 599 6 4 0 0 7 600 582 4728 40802001 1020 A 0 0 0 0 0 0 0 0 0 0 0 0 655 0 0 0 0 0 0 0 0 0 0 582 0 0 0 0 box$p
S 600 6 4 0 0 7 598 582 4734 40802000 1020 A 0 0 0 0 0 0 0 0 0 0 0 0 655 0 0 0 0 0 0 0 0 0 0 582 0 0 0 0 box$o
S 601 22 1 0 0 9 1 582 4740 40000000 1000 A 0 0 0 0 0 0 0 594 0 0 0 0 598 0 0 0 0 0 0 0 0 0 0 582 0 0 0 0 box$arrdsc
S 602 3 0 0 0 6 0 1 0 0 0 A 0 0 0 0 0 0 0 0 0 13 0 0 0 0 0 0 0 0 0 0 0 0 0 0 0 0 0 0 6
S 603 3 0 0 0 6 0 1 0 0 0 A 0 0 0 0 0 0 0 0 0 14 0 0 0 0 0 0 0 0 0 0 0 0 0 0 0 0 0 0 6
S 604 3 0 0 0 6 0 1 0 0 0 A 0 0 0 0 0 0 0 0 0 19 0 0 0 0 0 0 0 0 0 0 0 0 0 0 0 0 0 0 6
S 605 3 0 0 0 6 0 1 0 0 0 A 0 0 0 0 0 0 0 0 0 20 0 0 0 0 0 0 0 0 0 0 0 0 0 0 0 0 0 0 6
S 606 3 0 0 0 6 0 1 0 0 0 A 0 0 0 0 0 0 0 0 0 17 0 0 0 0 0 0 0 0 0 0 0 0 0 0 0 0 0 0 6
S 607 3 0 0 0 6 0 1 0 0 0 A 0 0 0 0 0 0 0 0 0 23 0 0 0 0 0 0 0 0 0 0 0 0 0 0 0 0 0 0 6
S 608 3 0 0 0 6 0 1 0 0 0 A 0 0 0 0 0 0 0 0 0 7 0 0 0 0 0 0 0 0 0 0 0 0 0 0 0 0 0 0 6
S 609 7 6 0 0 62 1 582 4751 10a00004 51 A 0 0 0 0 0 0 613 0 0 0 615 0 0 0 0 0 0 0 0 612 0 0 614 582 0 0 0 0 maxbox
S 610 6 4 0 0 6 617 582 4758 40800006 0 A 0 0 0 0 0 8 0 0 0 0 0 0 655 0 0 0 0 0 0 0 0 0 0 582 0 0 0 0 z_b_2
S 611 3 0 0 0 6 0 1 0 0 0 A 0 0 0 0 0 0 0 0 0 18 0 0 0 0 0 0 0 0 0 0 0 0 0 0 0 0 0 0 6
S 612 8 4 0 0 65 619 582 4764 40822004 1020 A 0 0 0 0 0 0 0 0 0 0 0 0 655 0 0 0 0 0 0 0 0 0 0 582 0 0 0 0 maxbox$sd
S 613 6 4 0 0 7 614 582 4774 40802001 1020 A 0 0 0 0 0 0 0 0 0 0 0 0 655 0 0 0 0 0 0 0 0 0 0 582 0 0 0 0 maxbox$p
S 614 6 4 0 0 7 612 582 4783 40802000 1020 A 0 0 0 0 0 0 0 0 0 0 0 0 655 0 0 0 0 0 0 0 0 0 0 582 0 0 0 0 maxbox$o
S 615 22 1 0 0 6 1 582 4792 40000000 1000 A 0 0 0 0 0 0 0 609 0 0 0 0 612 0 0 0 0 0 0 0 0 0 0 582 0 0 0 0 maxbox$arrdsc
S 616 7 6 0 0 68 1 582 4806 10a00004 51 A 0 0 0 0 0 0 619 0 0 0 621 0 0 0 0 0 0 0 0 618 0 0 620 582 0 0 0 0 qsave
S 617 6 4 0 0 6 623 582 4812 40800006 0 A 0 0 0 0 0 12 0 0 0 0 0 0 655 0 0 0 0 0 0 0 0 0 0 582 0 0 0 0 z_b_3
S 618 8 4 0 0 71 625 582 4818 40822004 1020 A 0 0 0 0 0 0 0 0 0 0 0 0 655 0 0 0 0 0 0 0 0 0 0 582 0 0 0 0 qsave$sd
S 619 6 4 0 0 7 620 582 4827 40802001 1020 A 0 0 0 0 0 0 0 0 0 0 0 0 655 0 0 0 0 0 0 0 0 0 0 582 0 0 0 0 qsave$p
S 620 6 4 0 0 7 618 582 4835 40802000 1020 A 0 0 0 0 0 0 0 0 0 0 0 0 655 0 0 0 0 0 0 0 0 0 0 582 0 0 0 0 qsave$o
S 621 22 1 0 0 9 1 582 4843 40000000 1000 A 0 0 0 0 0 0 0 616 0 0 0 0 618 0 0 0 0 0 0 0 0 0 0 582 0 0 0 0 qsave$arrdsc
S 622 7 6 0 0 74 1 582 4856 10a00004 51 A 0 0 0 0 0 0 625 0 0 0 627 0 0 0 0 0 0 0 0 624 0 0 626 582 0 0 0 0 boxrad
S 623 6 4 0 0 6 629 582 4863 40800006 0 A 0 0 0 0 0 16 0 0 0 0 0 0 655 0 0 0 0 0 0 0 0 0 0 582 0 0 0 0 z_b_4
S 624 8 4 0 0 77 632 582 4869 40822004 1020 A 0 0 0 0 0 0 0 0 0 0 0 0 655 0 0 0 0 0 0 0 0 0 0 582 0 0 0 0 boxrad$sd
S 625 6 4 0 0 7 626 582 4879 40802001 1020 A 0 0 0 0 0 0 0 0 0 0 0 0 655 0 0 0 0 0 0 0 0 0 0 582 0 0 0 0 boxrad$p
S 626 6 4 0 0 7 624 582 4888 40802000 1020 A 0 0 0 0 0 0 0 0 0 0 0 0 655 0 0 0 0 0 0 0 0 0 0 582 0 0 0 0 boxrad$o
S 627 22 1 0 0 9 1 582 4897 40000000 1000 A 0 0 0 0 0 0 0 622 0 0 0 0 624 0 0 0 0 0 0 0 0 0 0 582 0 0 0 0 boxrad$arrdsc
S 628 7 6 0 0 80 1 582 4911 10a00004 51 A 0 0 0 0 0 0 632 0 0 0 634 0 0 0 0 0 0 0 0 631 0 0 633 582 0 0 0 0 boxdist
S 629 6 4 0 0 6 630 582 4919 40800006 0 A 0 0 0 0 0 20 0 0 0 0 0 0 655 0 0 0 0 0 0 0 0 0 0 582 0 0 0 0 z_b_5
S 630 6 4 0 0 6 636 582 4925 40800006 0 A 0 0 0 0 0 24 0 0 0 0 0 0 655 0 0 0 0 0 0 0 0 0 0 582 0 0 0 0 z_b_6
S 631 8 4 0 0 83 641 582 4931 40822004 1020 A 0 0 0 0 0 0 0 0 0 0 0 0 655 0 0 0 0 0 0 0 0 0 0 582 0 0 0 0 boxdist$sd
S 632 6 4 0 0 7 633 582 4942 40802001 1020 A 0 0 0 0 0 0 0 0 0 0 0 0 655 0 0 0 0 0 0 0 0 0 0 582 0 0 0 0 boxdist$p
S 633 6 4 0 0 7 631 582 4952 40802000 1020 A 0 0 0 0 0 0 0 0 0 0 0 0 655 0 0 0 0 0 0 0 0 0 0 582 0 0 0 0 boxdist$o
S 634 22 1 0 0 9 1 582 4962 40000000 1000 A 0 0 0 0 0 0 0 628 0 0 0 0 631 0 0 0 0 0 0 0 0 0 0 582 0 0 0 0 boxdist$arrdsc
S 635 7 6 0 0 86 1 582 4977 10a00004 51 A 0 0 0 0 0 0 641 0 0 0 643 0 0 0 0 0 0 0 0 640 0 0 642 582 0 0 0 0 xyz
S 636 6 4 0 0 6 637 582 4981 40800006 0 A 0 0 0 0 0 28 0 0 0 0 0 0 655 0 0 0 0 0 0 0 0 0 0 582 0 0 0 0 z_b_7
S 637 6 4 0 0 6 638 582 4987 40800006 0 A 0 0 0 0 0 32 0 0 0 0 0 0 655 0 0 0 0 0 0 0 0 0 0 582 0 0 0 0 z_b_8
S 638 6 4 0 0 6 648 582 4993 40800006 0 A 0 0 0 0 0 36 0 0 0 0 0 0 655 0 0 0 0 0 0 0 0 0 0 582 0 0 0 0 z_b_9
S 639 3 0 0 0 6 0 1 0 0 0 A 0 0 0 0 0 0 0 0 0 30 0 0 0 0 0 0 0 0 0 0 0 0 0 0 0 0 0 0 6
S 640 8 4 0 0 89 652 582 4999 40822004 1020 A 0 0 0 0 0 0 0 0 0 0 0 0 655 0 0 0 0 0 0 0 0 0 0 582 0 0 0 0 xyz$sd
S 641 6 4 0 0 7 642 582 5006 40802001 1020 A 0 0 0 0 0 0 0 0 0 0 0 0 655 0 0 0 0 0 0 0 0 0 0 582 0 0 0 0 xyz$p
S 642 6 4 0 0 7 640 582 5012 40802000 1020 A 0 0 0 0 0 0 0 0 0 0 0 0 655 0 0 0 0 0 0 0 0 0 0 582 0 0 0 0 xyz$o
S 643 22 1 0 0 9 1 582 5018 40000000 1000 A 0 0 0 0 0 0 0 635 0 0 0 0 640 0 0 0 0 0 0 0 0 0 0 582 0 0 0 0 xyz$arrdsc
S 644 3 0 0 0 6 0 1 0 0 0 A 0 0 0 0 0 0 0 0 0 25 0 0 0 0 0 0 0 0 0 0 0 0 0 0 0 0 0 0 6
S 645 3 0 0 0 6 0 1 0 0 0 A 0 0 0 0 0 0 0 0 0 26 0 0 0 0 0 0 0 0 0 0 0 0 0 0 0 0 0 0 6
S 646 3 0 0 0 6 0 1 0 0 0 A 0 0 0 0 0 0 0 0 0 29 0 0 0 0 0 0 0 0 0 0 0 0 0 0 0 0 0 0 6
S 647 7 6 0 0 92 1 582 5029 10a00004 51 A 0 0 0 0 0 0 652 0 0 0 654 0 0 0 0 0 0 0 0 651 0 0 653 582 0 0 0 0 spher
S 648 6 4 0 0 6 649 582 5035 40800006 0 A 0 0 0 0 0 40 0 0 0 0 0 0 655 0 0 0 0 0 0 0 0 0 0 582 0 0 0 0 z_b_10
S 649 6 4 0 0 6 650 582 5042 40800006 0 A 0 0 0 0 0 44 0 0 0 0 0 0 655 0 0 0 0 0 0 0 0 0 0 582 0 0 0 0 z_b_11
S 650 6 4 0 0 6 1 582 5049 40800006 0 A 0 0 0 0 0 48 0 0 0 0 0 0 655 0 0 0 0 0 0 0 0 0 0 582 0 0 0 0 z_b_12
S 651 8 4 0 0 95 595 582 5056 40822004 1020 A 0 0 0 0 0 0 0 0 0 0 0 0 655 0 0 0 0 0 0 0 0 0 0 582 0 0 0 0 spher$sd
S 652 6 4 0 0 7 653 582 5065 40802001 1020 A 0 0 0 0 0 0 0 0 0 0 0 0 655 0 0 0 0 0 0 0 0 0 0 582 0 0 0 0 spher$p
S 653 6 4 0 0 7 651 582 5073 40802000 1020 A 0 0 0 0 0 0 0 0 0 0 0 0 655 0 0 0 0 0 0 0 0 0 0 582 0 0 0 0 spher$o
S 654 22 1 0 0 9 1 582 5081 40000000 1000 A 0 0 0 0 0 0 0 647 0 0 0 0 651 0 0 0 0 0 0 0 0 0 0 582 0 0 0 0 spher$arrdsc
S 655 11 0 0 0 9 1 582 5094 40800000 801000 A 0 0 0 0 0 812 0 0 599 650 0 0 0 0 0 0 0 0 0 0 0 0 0 0 0 0 0 0 _realus$0
S 656 23 5 0 0 0 657 582 5104 0 0 A 0 0 0 0 0 0 0 0 0 0 0 0 0 0 0 0 0 0 0 0 0 0 0 0 0 0 0 0 deallocatenewdreal
S 657 14 5 0 0 0 1 656 5104 0 400000 A 0 0 0 0 0 0 0 4 0 0 0 0 0 0 0 0 0 0 0 0 0 44 0 582 0 0 0 0 deallocatenewdreal
F 657 0
S 658 23 5 0 0 0 659 582 5123 0 0 A 0 0 0 0 0 0 0 0 0 0 0 0 0 0 0 0 0 0 0 0 0 0 0 0 0 0 0 0 qpointlist
S 659 14 5 0 0 0 1 658 5123 0 400000 A 0 0 0 0 0 0 0 5 0 0 0 0 0 0 0 0 0 0 0 0 0 55 0 582 0 0 0 0 qpointlist
F 659 0
S 660 23 5 0 0 0 661 582 5134 0 0 A 0 0 0 0 0 0 0 0 0 0 0 0 0 0 0 0 0 0 0 0 0 0 0 0 0 0 0 0 newd_r
S 661 14 5 0 0 0 1 660 5134 0 400000 A 0 0 0 0 0 0 0 6 0 0 0 0 0 0 0 0 0 0 0 0 0 468 0 582 0 0 0 0 newd_r
F 661 0
S 662 23 5 0 0 0 669 582 5141 0 0 A 0 0 0 0 0 0 0 0 0 0 0 0 0 0 0 0 0 0 0 0 0 0 0 0 0 0 0 0 setqfcorr
S 663 7 3 1 0 101 1 662 5151 800204 3000 A 0 0 0 0 0 0 0 0 0 0 0 0 0 0 0 0 0 0 0 0 0 0 0 0 0 0 0 0 qfcoef
S 664 7 3 2 0 104 1 662 5158 800204 3000 A 0 0 0 0 0 0 0 0 0 0 0 0 0 0 0 0 0 0 0 0 0 0 0 0 0 0 0 0 rho
S 665 7 3 1 0 98 1 662 5162 800204 3000 A 0 0 0 0 0 0 0 0 0 0 0 0 0 0 0 0 0 0 0 0 0 0 0 0 0 0 0 0 r
S 666 6 3 1 0 6 1 662 5164 800004 3000 A 0 0 0 0 0 0 0 0 0 0 0 0 0 0 0 0 0 0 0 0 0 0 0 0 0 0 0 0 nqf
S 667 1 3 1 0 6 1 662 5168 4 3000 A 0 0 0 0 0 0 0 0 0 0 0 0 0 0 0 0 0 0 0 0 0 0 0 0 0 0 0 0 ltot
S 668 6 3 1 0 6 1 662 5173 800004 3000 A 0 0 0 0 0 0 0 0 0 0 0 0 0 0 0 0 0 0 0 0 0 0 0 0 0 0 0 0 mesh
S 669 14 5 0 0 0 1 662 5141 200 400000 A 0 0 0 0 0 0 0 7 6 0 0 0 0 0 0 0 0 0 0 0 0 738 0 582 0 0 0 0 setqfcorr
F 669 6 663 664 665 666 667 668
S 670 6 1 0 0 6 1 662 5178 40800006 3000 A 0 0 0 0 0 0 0 0 0 0 0 0 0 0 0 0 0 0 0 0 0 0 0 0 0 0 0 0 z_e_129
S 671 6 1 0 0 6 1 662 5186 40800006 3000 A 0 0 0 0 0 0 0 0 0 0 0 0 0 0 0 0 0 0 0 0 0 0 0 0 0 0 0 0 z_e_131
S 672 23 5 0 0 0 678 582 5194 0 0 A 0 0 0 0 0 0 0 0 0 0 0 0 0 0 0 0 0 0 0 0 0 0 0 0 0 0 0 0 setqfcorrpt
S 673 7 3 1 0 107 1 672 5151 800204 3000 A 0 0 0 0 0 0 0 0 0 0 0 0 0 0 0 0 0 0 0 0 0 0 0 0 0 0 0 0 qfcoef
S 674 1 3 2 0 9 1 672 5158 4 3000 A 0 0 0 0 0 0 0 0 0 0 0 0 0 0 0 0 0 0 0 0 0 0 0 0 0 0 0 0 rho
S 675 1 3 1 0 9 1 672 5162 4 3000 A 0 0 0 0 0 0 0 0 0 0 0 0 0 0 0 0 0 0 0 0 0 0 0 0 0 0 0 0 r
S 676 6 3 1 0 6 1 672 5164 800004 3000 A 0 0 0 0 0 0 0 0 0 0 0 0 0 0 0 0 0 0 0 0 0 0 0 0 0 0 0 0 nqf
S 677 1 3 1 0 6 1 672 5168 4 3000 A 0 0 0 0 0 0 0 0 0 0 0 0 0 0 0 0 0 0 0 0 0 0 0 0 0 0 0 0 ltot
S 678 14 5 0 0 0 1 672 5194 200 400000 A 0 0 0 0 0 0 0 14 5 0 0 0 0 0 0 0 0 0 0 0 0 778 0 582 0 0 0 0 setqfcorrpt
F 678 5 673 674 675 676 677
S 679 6 1 0 0 6 1 672 5206 40800006 3000 A 0 0 0 0 0 0 0 0 0 0 0 0 0 0 0 0 0 0 0 0 0 0 0 0 0 0 0 0 z_e_133
S 680 23 5 0 0 0 686 582 5214 0 0 A 0 0 0 0 0 0 0 0 0 0 0 0 0 0 0 0 0 0 0 0 0 0 0 0 0 0 0 0 setqfcorrptfirst
S 681 7 3 1 0 110 1 680 5151 800204 3000 A 0 0 0 0 0 0 0 0 0 0 0 0 0 0 0 0 0 0 0 0 0 0 0 0 0 0 0 0 qfcoef
S 682 1 3 2 0 9 1 680 5158 4 3000 A 0 0 0 0 0 0 0 0 0 0 0 0 0 0 0 0 0 0 0 0 0 0 0 0 0 0 0 0 rho
S 683 1 3 1 0 9 1 680 5162 4 3000 A 0 0 0 0 0 0 0 0 0 0 0 0 0 0 0 0 0 0 0 0 0 0 0 0 0 0 0 0 r
S 684 6 3 1 0 6 1 680 5164 800004 3000 A 0 0 0 0 0 0 0 0 0 0 0 0 0 0 0 0 0 0 0 0 0 0 0 0 0 0 0 0 nqf
S 685 1 3 1 0 6 1 680 5168 4 3000 A 0 0 0 0 0 0 0 0 0 0 0 0 0 0 0 0 0 0 0 0 0 0 0 0 0 0 0 0 ltot
S 686 14 5 0 0 0 1 680 5214 200 400000 A 0 0 0 0 0 0 0 20 5 0 0 0 0 0 0 0 0 0 0 0 0 813 0 582 0 0 0 0 setqfcorrptfirst
F 686 5 681 682 683 684 685
S 687 6 1 0 0 6 1 680 5231 40800006 3000 A 0 0 0 0 0 0 0 0 0 0 0 0 0 0 0 0 0 0 0 0 0 0 0 0 0 0 0 0 z_e_135
S 688 23 5 0 0 0 694 582 5239 0 0 A 0 0 0 0 0 0 0 0 0 0 0 0 0 0 0 0 0 0 0 0 0 0 0 0 0 0 0 0 setqfcorrptsecond
S 689 7 3 1 0 113 1 688 5151 800204 3000 A 0 0 0 0 0 0 0 0 0 0 0 0 0 0 0 0 0 0 0 0 0 0 0 0 0 0 0 0 qfcoef
S 690 1 3 2 0 9 1 688 5158 4 3000 A 0 0 0 0 0 0 0 0 0 0 0 0 0 0 0 0 0 0 0 0 0 0 0 0 0 0 0 0 rho
S 691 1 3 1 0 9 1 688 5162 4 3000 A 0 0 0 0 0 0 0 0 0 0 0 0 0 0 0 0 0 0 0 0 0 0 0 0 0 0 0 0 r
S 692 6 3 1 0 6 1 688 5164 800004 3000 A 0 0 0 0 0 0 0 0 0 0 0 0 0 0 0 0 0 0 0 0 0 0 0 0 0 0 0 0 nqf
S 693 1 3 1 0 6 1 688 5168 4 3000 A 0 0 0 0 0 0 0 0 0 0 0 0 0 0 0 0 0 0 0 0 0 0 0 0 0 0 0 0 ltot
S 694 14 5 0 0 0 1 688 5239 200 400000 A 0 0 0 0 0 0 0 26 5 0 0 0 0 0 0 0 0 0 0 0 0 845 0 582 0 0 0 0 setqfcorrptsecond
F 694 5 689 690 691 692 693
S 695 6 1 0 0 6 1 688 5257 40800006 3000 A 0 0 0 0 0 0 0 0 0 0 0 0 0 0 0 0 0 0 0 0 0 0 0 0 0 0 0 0 z_e_137
S 696 23 5 0 0 0 697 582 5265 0 0 A 0 0 0 0 0 0 0 0 0 0 0 0 0 0 0 0 0 0 0 0 0 0 0 0 0 0 0 0 addusdens_r
S 697 14 5 0 0 0 1 696 5265 0 400000 A 0 0 0 0 0 0 0 32 0 0 0 0 0 0 0 0 0 0 0 0 0 877 0 582 0 0 0 0 addusdens_r
F 697 0
A 13 2 0 0 0 6 585 0 0 0 13 0 0 0 0 0 0 0 0 0
A 19 2 0 0 0 6 597 0 0 0 19 0 0 0 0 0 0 0 0 0
A 20 2 0 0 0 6 602 0 0 0 20 0 0 0 0 0 0 0 0 0
A 21 1 0 1 0 59 598 0 0 0 0 0 0 0 0 0 0 0 0 0
A 22 10 0 0 0 6 21 1 0 0 0 0 0 0 0 0 0 0 0 0
X 1 20
A 23 2 0 0 0 6 603 0 0 0 23 0 0 0 0 0 0 0 0 0
A 24 10 0 0 22 6 21 4 0 0 0 0 0 0 0 0 0 0 0 0
X 1 23
A 25 4 0 0 0 6 24 0 3 0 0 0 0 2 0 0 0 0 0 0
A 26 4 0 0 0 6 22 0 25 0 0 0 0 1 0 0 0 0 0 0
A 27 2 0 0 0 6 604 0 0 0 27 0 0 0 0 0 0 0 0 0
A 28 10 0 0 24 6 21 7 0 0 0 0 0 0 0 0 0 0 0 0
X 1 27
A 29 2 0 0 0 6 605 0 0 0 29 0 0 0 0 0 0 0 0 0
A 30 10 0 0 28 6 21 10 0 0 0 0 0 0 0 0 0 0 0 0
X 1 29
A 31 4 0 0 0 6 30 0 3 0 0 0 0 2 0 0 0 0 0 0
A 32 4 0 0 0 6 28 0 31 0 0 0 0 1 0 0 0 0 0 0
A 33 2 0 0 0 6 606 0 0 0 33 0 0 0 0 0 0 0 0 0
A 34 10 0 0 30 6 21 13 0 0 0 0 0 0 0 0 0 0 0 0
X 1 33
A 35 2 0 0 0 6 607 0 0 0 35 0 0 0 0 0 0 0 0 0
A 36 10 0 0 34 6 21 16 0 0 0 0 0 0 0 0 0 0 0 0
X 1 35
A 37 2 0 0 0 6 608 0 0 0 37 0 0 0 0 0 0 0 0 0
A 38 10 0 0 36 6 21 19 0 0 0 0 0 0 0 0 0 0 0 0
X 1 37
A 39 10 0 0 38 6 21 22 0 0 0 0 0 0 0 0 0 0 0 0
X 1 13
A 41 2 0 0 0 6 611 0 0 0 41 0 0 0 0 0 0 0 0 0
A 42 1 0 3 0 65 612 0 0 0 0 0 0 0 0 0 0 0 0 0
A 43 10 0 0 0 6 42 1 0 0 0 0 0 0 0 0 0 0 0 0
X 1 20
A 44 10 0 0 43 6 42 4 0 0 0 0 0 0 0 0 0 0 0 0
X 1 23
A 45 4 0 0 0 6 44 0 3 0 0 0 0 2 0 0 0 0 0 0
A 46 4 0 0 0 6 43 0 45 0 0 0 0 1 0 0 0 0 0 0
A 47 10 0 0 44 6 42 13 0 0 0 0 0 0 0 0 0 0 0 0
X 1 33
A 48 10 0 0 47 6 42 19 0 0 0 0 0 0 0 0 0 0 0 0
X 1 37
A 49 10 0 0 48 6 42 22 0 0 0 0 0 0 0 0 0 0 0 0
X 1 13
A 51 1 0 3 0 71 618 0 0 0 0 0 0 0 0 0 0 0 0 0
A 52 10 0 0 0 6 51 1 0 0 0 0 0 0 0 0 0 0 0 0
X 1 20
A 53 10 0 0 52 6 51 4 0 0 0 0 0 0 0 0 0 0 0 0
X 1 23
A 54 4 0 0 0 6 53 0 3 0 0 0 0 2 0 0 0 0 0 0
A 55 4 0 0 31 6 52 0 54 0 0 0 0 1 0 0 0 0 0 0
A 56 10 0 0 53 6 51 13 0 0 0 0 0 0 0 0 0 0 0 0
X 1 33
A 57 10 0 0 56 6 51 19 0 0 0 0 0 0 0 0 0 0 0 0
X 1 37
A 58 10 0 0 57 6 51 22 0 0 0 0 0 0 0 0 0 0 0 0
X 1 13
A 60 1 0 3 0 77 624 0 0 0 0 0 0 0 0 0 0 0 0 0
A 61 10 0 0 0 6 60 1 0 0 0 0 0 0 0 0 0 0 0 0
X 1 20
A 62 10 0 0 61 6 60 4 0 0 0 0 0 0 0 0 0 0 0 0
X 1 23
A 63 4 0 0 0 6 62 0 3 0 0 0 0 2 0 0 0 0 0 0
A 64 4 0 0 0 6 61 0 63 0 0 0 0 1 0 0 0 0 0 0
A 65 10 0 0 62 6 60 13 0 0 0 0 0 0 0 0 0 0 0 0
X 1 33
A 66 10 0 0 65 6 60 19 0 0 0 0 0 0 0 0 0 0 0 0
X 1 37
A 67 10 0 0 66 6 60 22 0 0 0 0 0 0 0 0 0 0 0 0
X 1 13
A 70 1 0 1 0 83 631 0 0 0 0 0 0 0 0 0 0 0 0 0
A 71 10 0 0 0 6 70 1 0 0 0 0 0 0 0 0 0 0 0 0
X 1 20
A 72 10 0 0 71 6 70 4 0 0 0 0 0 0 0 0 0 0 0 0
X 1 23
A 73 4 0 0 0 6 72 0 3 0 0 0 0 2 0 0 0 0 0 0
A 74 4 0 0 0 6 71 0 73 0 0 0 0 1 0 0 0 0 0 0
A 75 10 0 0 72 6 70 7 0 0 0 0 0 0 0 0 0 0 0 0
X 1 27
A 76 10 0 0 75 6 70 10 0 0 0 0 0 0 0 0 0 0 0 0
X 1 29
A 77 4 0 0 0 6 76 0 3 0 0 0 0 2 0 0 0 0 0 0
A 78 4 0 0 0 6 75 0 77 0 0 0 0 1 0 0 0 0 0 0
A 79 10 0 0 76 6 70 13 0 0 0 0 0 0 0 0 0 0 0 0
X 1 33
A 80 10 0 0 79 6 70 16 0 0 0 0 0 0 0 0 0 0 0 0
X 1 35
A 81 10 0 0 80 6 70 19 0 0 0 0 0 0 0 0 0 0 0 0
X 1 37
A 82 10 0 0 81 6 70 22 0 0 0 0 0 0 0 0 0 0 0 0
X 1 13
A 86 2 0 0 0 6 639 0 0 0 86 0 0 0 0 0 0 0 0 0
A 87 1 0 5 0 89 640 0 0 0 0 0 0 0 0 0 0 0 0 0
A 88 10 0 0 0 6 87 1 0 0 0 0 0 0 0 0 0 0 0 0
X 1 20
A 89 10 0 0 88 6 87 4 0 0 0 0 0 0 0 0 0 0 0 0
X 1 23
A 90 4 0 0 0 6 89 0 3 0 0 0 0 2 0 0 0 0 0 0
A 91 4 0 0 0 6 88 0 90 0 0 0 0 1 0 0 0 0 0 0
A 92 10 0 0 89 6 87 7 0 0 0 0 0 0 0 0 0 0 0 0
X 1 27
A 93 10 0 0 92 6 87 10 0 0 0 0 0 0 0 0 0 0 0 0
X 1 29
A 94 4 0 0 0 6 93 0 3 0 0 0 0 2 0 0 0 0 0 0
A 95 4 0 0 0 6 92 0 94 0 0 0 0 1 0 0 0 0 0 0
A 96 2 0 0 0 6 644 0 0 0 96 0 0 0 0 0 0 0 0 0
A 97 10 0 0 93 6 87 25 0 0 0 0 0 0 0 0 0 0 0 0
X 1 96
A 98 2 0 0 0 6 645 0 0 0 98 0 0 0 0 0 0 0 0 0
A 99 10 0 0 97 6 87 28 0 0 0 0 0 0 0 0 0 0 0 0
X 1 98
A 100 4 0 0 0 6 99 0 3 0 0 0 0 2 0 0 0 0 0 0
A 101 4 0 0 0 6 97 0 100 0 0 0 0 1 0 0 0 0 0 0
A 102 10 0 0 99 6 87 13 0 0 0 0 0 0 0 0 0 0 0 0
X 1 33
A 103 10 0 0 102 6 87 16 0 0 0 0 0 0 0 0 0 0 0 0
X 1 35
A 104 2 0 0 0 6 646 0 0 0 104 0 0 0 0 0 0 0 0 0
A 105 10 0 0 103 6 87 31 0 0 0 0 0 0 0 0 0 0 0 0
X 1 104
A 106 10 0 0 105 6 87 19 0 0 0 0 0 0 0 0 0 0 0 0
X 1 37
A 107 10 0 0 106 6 87 22 0 0 0 0 0 0 0 0 0 0 0 0
X 1 13
A 111 1 0 5 74 95 651 0 0 0 0 0 0 0 0 0 0 0 0 0
A 112 10 0 0 0 6 111 1 0 0 0 0 0 0 0 0 0 0 0 0
X 1 20
A 113 10 0 0 112 6 111 4 0 0 0 0 0 0 0 0 0 0 0 0
X 1 23
A 114 4 0 0 20 6 113 0 3 0 0 0 0 2 0 0 0 0 0 0
A 115 4 0 0 0 6 112 0 114 0 0 0 0 1 0 0 0 0 0 0
A 116 10 0 0 113 6 111 7 0 0 0 0 0 0 0 0 0 0 0 0
X 1 27
A 117 10 0 0 116 6 111 10 0 0 0 0 0 0 0 0 0 0 0 0
X 1 29
A 118 4 0 0 33 6 117 0 3 0 0 0 0 2 0 0 0 0 0 0
A 119 4 0 0 0 6 116 0 118 0 0 0 0 1 0 0 0 0 0 0
A 120 10 0 0 117 6 111 25 0 0 0 0 0 0 0 0 0 0 0 0
X 1 96
A 121 10 0 0 120 6 111 28 0 0 0 0 0 0 0 0 0 0 0 0
X 1 98
A 122 4 0 0 26 6 121 0 3 0 0 0 0 2 0 0 0 0 0 0
A 123 4 0 0 0 6 120 0 122 0 0 0 0 1 0 0 0 0 0 0
A 124 10 0 0 121 6 111 13 0 0 0 0 0 0 0 0 0 0 0 0
X 1 33
A 125 10 0 0 124 6 111 16 0 0 0 0 0 0 0 0 0 0 0 0
X 1 35
A 126 10 0 0 125 6 111 31 0 0 0 0 0 0 0 0 0 0 0 0
X 1 104
A 127 10 0 0 126 6 111 19 0 0 0 0 0 0 0 0 0 0 0 0
X 1 37
A 128 10 0 0 127 6 111 22 0 0 0 0 0 0 0 0 0 0 0 0
X 1 13
A 129 1 0 0 0 6 668 0 0 0 0 0 0 0 0 0 0 0 0 0
A 130 1 0 0 0 6 670 0 0 0 0 0 0 0 0 0 0 0 0 0
A 131 1 0 0 0 6 666 0 0 0 0 0 0 0 0 0 0 0 0 0
A 132 1 0 0 0 6 671 0 0 0 0 0 0 0 0 0 0 0 0 0
A 133 1 0 0 0 6 676 0 0 0 0 0 0 0 0 0 0 0 0 0
A 134 1 0 0 0 6 679 0 0 0 0 0 0 0 0 0 0 0 0 0
A 135 1 0 0 11 6 684 0 0 0 0 0 0 0 0 0 0 0 0 0
A 136 1 0 0 0 6 687 0 0 0 0 0 0 0 0 0 0 0 0 0
A 137 1 0 0 0 6 692 0 0 0 0 0 0 0 0 0 0 0 0 0
A 138 1 0 0 0 6 695 0 0 0 0 0 0 0 0 0 0 0 0 0
Z
Z
