V26 relax
9 pwcom.F90 S582 0
04/24/2012  15:53:20
use kinds private
use kinds private
enduse
S 582 24 0 0 0 9 1 0 4658 5 0 A 0 0 0 0 0 0 0 0 0 0 0 0 385 0 0 0 0 0 0 0 0 370 0 0 0 0 0 0 relax
S 584 23 0 0 0 9 587 582 4670 4 0 A 0 0 0 0 0 0 0 0 0 0 0 0 0 0 0 0 0 0 0 0 0 0 0 582 0 0 0 0 dp
R 587 16 1 kinds dp
S 594 6 4 0 0 9 595 582 4704 4 0 A 0 0 0 0 0 0 0 0 0 0 0 0 599 0 0 0 0 0 0 0 0 0 0 582 0 0 0 0 epse
S 595 6 4 0 0 9 596 582 4709 4 0 A 0 0 0 0 0 8 0 0 0 0 0 0 599 0 0 0 0 0 0 0 0 0 0 582 0 0 0 0 epsf
S 596 6 4 0 0 9 597 582 4714 4 0 A 0 0 0 0 0 16 0 0 0 0 0 0 599 0 0 0 0 0 0 0 0 0 0 582 0 0 0 0 epsp
S 597 6 4 0 0 9 598 582 4719 4 0 A 0 0 0 0 0 24 0 0 0 0 0 0 599 0 0 0 0 0 0 0 0 0 0 582 0 0 0 0 starting_diag_threshold
S 598 6 4 0 0 9 1 582 4743 4 0 A 0 0 0 0 0 32 0 0 0 0 0 0 599 0 0 0 0 0 0 0 0 0 0 582 0 0 0 0 starting_scf_threshold
S 599 11 0 0 0 9 1 582 4766 40800000 801000 A 0 0 0 0 0 40 0 0 594 598 0 0 0 0 0 0 0 0 0 0 0 0 0 0 0 0 0 0 _relax$2
Z
Z
