V26 scf
11 scf_mod.F90 S582 0
04/24/2012  15:55:09
use pseudo_types private
use uspp_param private
use paw_variables private
use gsmooth private
use gvect private
use funct private
use ions_base private
use ldau private
use lsda_mod private
use kinds private
use pseudo_types private
use uspp_param private
use paw_variables private
use gsmooth private
use gvect private
use funct private
use ions_base private
use ldau private
use lsda_mod private
use kinds private
enduse
D 821 24 2118 5360 2117 7
D 827 18 2
D 1108 18 2
D 1128 24 2464 744 2463 7
D 1134 21 9 2 1582 1581 0 1 0 0 1
 1571 1574 1579 1571 1574 1572
 1575 1578 1580 1575 1578 1576
D 1137 21 6 1 0 34 0 0 0 0 0
 0 34 0 3 34 0
D 1140 21 12 2 1597 1596 0 1 0 0 1
 1586 1589 1594 1586 1589 1587
 1590 1593 1595 1590 1593 1591
D 1143 21 6 1 0 34 0 0 0 0 0
 0 34 0 3 34 0
D 1146 21 9 2 1612 1611 0 1 0 0 1
 1601 1604 1609 1601 1604 1602
 1605 1608 1610 1605 1608 1606
D 1149 21 6 1 0 34 0 0 0 0 0
 0 34 0 3 34 0
D 1152 21 12 2 1627 1626 0 1 0 0 1
 1616 1619 1624 1616 1619 1617
 1620 1623 1625 1620 1623 1621
D 1155 21 6 1 0 34 0 0 0 0 0
 0 34 0 3 34 0
D 1158 21 9 4 1654 1653 0 1 0 0 1
 1633 1636 1649 1633 1636 1634
 1637 1640 1650 1637 1640 1638
 1641 1644 1651 1641 1644 1642
 1645 1648 1652 1645 1648 1646
D 1161 21 6 1 0 1354 0 0 0 0 0
 0 1354 0 3 1354 0
D 1164 21 9 3 1675 1674 0 1 0 0 1
 1659 1662 1671 1659 1662 1660
 1663 1666 1672 1663 1666 1664
 1667 1670 1673 1667 1670 1668
D 1167 21 6 1 0 56 0 0 0 0 0
 0 56 0 3 56 0
D 1170 20 7
D 1172 20 7
D 1174 20 7
D 1176 20 7
D 1178 20 7
D 1180 20 7
D 1182 24 2512 520 2509 7
D 1188 21 12 2 1690 1689 0 1 0 0 1
 1679 1682 1687 1679 1682 1680
 1683 1686 1688 1683 1686 1684
D 1191 21 6 1 0 34 0 0 0 0 0
 0 34 0 3 34 0
D 1194 21 12 2 1705 1704 0 1 0 0 1
 1694 1697 1702 1694 1697 1695
 1698 1701 1703 1698 1701 1699
D 1197 21 6 1 0 34 0 0 0 0 0
 0 34 0 3 34 0
D 1200 21 9 4 1732 1731 0 1 0 0 1
 1711 1714 1727 1711 1714 1712
 1715 1718 1728 1715 1718 1716
 1719 1722 1729 1719 1722 1720
 1723 1726 1730 1723 1726 1724
D 1203 21 6 1 0 1354 0 0 0 0 0
 0 1354 0 3 1354 0
D 1206 21 9 3 1753 1752 0 1 0 0 1
 1737 1740 1749 1737 1740 1738
 1741 1744 1750 1741 1744 1742
 1745 1748 1751 1745 1748 1746
D 1209 21 6 1 0 56 0 0 0 0 0
 0 56 0 3 56 0
D 1212 20 7
D 1214 20 7
D 1216 20 7
D 1218 20 7
D 1220 21 9 1 1762 1761 0 1 0 0 1
 1756 1759 1760 1756 1759 1757
D 1223 21 6 1 0 58 0 0 0 0 0
 0 58 0 3 58 0
D 1226 21 9 2 1777 1776 0 1 0 0 1
 1766 1769 1774 1766 1769 1767
 1770 1773 1775 1770 1773 1771
D 1229 21 6 1 0 34 0 0 0 0 0
 0 34 0 3 34 0
D 1232 21 9 1 1786 1785 0 1 0 0 1
 1780 1783 1784 1780 1783 1781
D 1235 21 6 1 0 58 0 0 0 0 0
 0 58 0 3 58 0
D 1238 21 9 2 1801 1800 0 1 0 0 1
 1790 1793 1798 1790 1793 1791
 1794 1797 1799 1794 1797 1795
D 1241 21 6 1 0 34 0 0 0 0 0
 0 34 0 3 34 0
D 1244 21 12 1 1810 1809 0 1 0 0 1
 1804 1807 1808 1804 1807 1805
D 1247 21 6 1 0 58 0 0 0 0 0
 0 58 0 3 58 0
D 1250 21 9 1 1827 1826 0 1 0 0 1
 1821 1824 1825 1821 1824 1822
D 1253 21 6 1 0 58 0 0 0 0 0
 0 58 0 3 58 0
D 1256 21 6 1 0 3 0 0 0 0 0
 0 3 0 3 3 0
D 1259 21 6 1 0 3 0 0 0 0 0
 0 3 0 3 3 0
D 1262 21 12 1 3 1829 0 0 1 0 0
 0 1828 3 3 1829 1829
D 1265 21 12 1 3 1829 0 0 1 0 0
 0 1828 3 3 1829 1829
S 582 24 0 0 0 9 1 0 4658 10005 0 A 0 0 0 0 0 0 0 0 0 0 0 0 0 0 0 0 0 0 0 0 0 12 0 0 0 0 0 0 scf
S 584 23 0 0 0 9 611 582 4668 4 0 A 0 0 0 0 0 0 0 0 0 0 0 0 0 0 0 0 0 0 0 0 0 0 0 582 0 0 0 0 dp
S 586 23 0 0 0 6 643 582 4680 4 0 A 0 0 0 0 0 0 0 0 0 0 0 0 0 0 0 0 0 0 0 0 0 0 0 582 0 0 0 0 nspin
S 588 23 0 0 0 6 676 582 4691 4 0 A 0 0 0 0 0 0 0 0 0 0 0 0 0 0 0 0 0 0 0 0 0 0 0 582 0 0 0 0 lda_plus_u
S 589 23 0 0 0 9 675 582 4702 4 0 A 0 0 0 0 0 0 0 0 0 0 0 0 0 0 0 0 0 0 0 0 0 0 0 582 0 0 0 0 hubbard_lmax
S 591 23 0 0 0 6 691 582 4725 4 0 A 0 0 0 0 0 0 0 0 0 0 0 0 0 0 0 0 0 0 0 0 0 0 0 582 0 0 0 0 nat
S 593 23 0 0 0 9 1436 582 4735 4 0 A 0 0 0 0 0 0 0 0 0 0 0 0 0 0 0 0 0 0 0 0 0 0 0 582 0 0 0 0 dft_is_meta
S 595 23 0 0 0 6 1736 582 4753 4 0 A 0 0 0 0 0 0 0 0 0 0 0 0 0 0 0 0 0 0 0 0 0 0 0 582 0 0 0 0 nr1
S 596 23 0 0 0 6 1737 582 4757 4 0 A 0 0 0 0 0 0 0 0 0 0 0 0 0 0 0 0 0 0 0 0 0 0 0 582 0 0 0 0 nr2
S 597 23 0 0 0 6 1738 582 4761 4 0 A 0 0 0 0 0 0 0 0 0 0 0 0 0 0 0 0 0 0 0 0 0 0 0 582 0 0 0 0 nr3
S 598 23 0 0 0 6 1739 582 4765 4 0 A 0 0 0 0 0 0 0 0 0 0 0 0 0 0 0 0 0 0 0 0 0 0 0 582 0 0 0 0 nrx1
S 599 23 0 0 0 6 1740 582 4770 4 0 A 0 0 0 0 0 0 0 0 0 0 0 0 0 0 0 0 0 0 0 0 0 0 0 582 0 0 0 0 nrx2
S 600 23 0 0 0 6 1741 582 4775 4 0 A 0 0 0 0 0 0 0 0 0 0 0 0 0 0 0 0 0 0 0 0 0 0 0 582 0 0 0 0 nrx3
S 601 23 0 0 0 6 1742 582 4780 4 0 A 0 0 0 0 0 0 0 0 0 0 0 0 0 0 0 0 0 0 0 0 0 0 0 582 0 0 0 0 nrxx
S 602 23 0 0 0 6 1732 582 4785 4 0 A 0 0 0 0 0 0 0 0 0 0 0 0 0 0 0 0 0 0 0 0 0 0 0 582 0 0 0 0 ngm
S 604 23 0 0 0 6 1829 582 4797 4 0 A 0 0 0 0 0 0 0 0 0 0 0 0 0 0 0 0 0 0 0 0 0 0 0 582 0 0 0 0 ngms
S 606 23 0 0 0 9 1861 582 4816 4 0 A 0 0 0 0 0 0 0 0 0 0 0 0 0 0 0 0 0 0 0 0 0 0 0 582 0 0 0 0 okpaw
S 608 23 0 0 0 6 2455 582 4833 4 0 A 0 0 0 0 0 0 0 0 0 0 0 0 0 0 0 0 0 0 0 0 0 0 0 582 0 0 0 0 nhm
S 609 3 0 0 0 6 1 1 0 0 0 A 0 0 0 0 0 0 0 0 0 8 0 0 0 0 0 0 0 0 0 0 0 0 0 0 0 0 0 0 6
R 611 16 1 kinds dp
S 623 3 0 0 0 6 1 1 0 0 0 A 0 0 0 0 0 0 0 0 0 7 0 0 0 0 0 0 0 0 0 0 0 0 0 0 0 0 0 0 6
R 643 6 8 lsda_mod nspin
S 648 3 0 0 0 6 1 1 0 0 0 A 0 0 0 0 0 0 0 0 0 24 0 0 0 0 0 0 0 0 0 0 0 0 0 0 0 0 0 0 6
S 649 3 0 0 0 6 1 1 0 0 0 A 0 0 0 0 0 0 0 0 0 13 0 0 0 0 0 0 0 0 0 0 0 0 0 0 0 0 0 0 6
S 650 3 0 0 0 6 1 1 0 0 0 A 0 0 0 0 0 0 0 0 0 14 0 0 0 0 0 0 0 0 0 0 0 0 0 0 0 0 0 0 6
S 651 3 0 0 0 6 1 1 0 0 0 A 0 0 0 0 0 0 0 0 0 19 0 0 0 0 0 0 0 0 0 0 0 0 0 0 0 0 0 0 6
S 652 3 0 0 0 6 1 1 0 0 0 A 0 0 0 0 0 0 0 0 0 20 0 0 0 0 0 0 0 0 0 0 0 0 0 0 0 0 0 0 6
S 653 3 0 0 0 6 1 1 0 0 0 A 0 0 0 0 0 0 0 0 0 17 0 0 0 0 0 0 0 0 0 0 0 0 0 0 0 0 0 0 6
S 654 3 0 0 0 6 1 1 0 0 0 A 0 0 0 0 0 0 0 0 0 23 0 0 0 0 0 0 0 0 0 0 0 0 0 0 0 0 0 0 6
S 657 3 0 0 0 6 1 1 0 0 0 A 0 0 0 0 0 0 0 0 0 30 0 0 0 0 0 0 0 0 0 0 0 0 0 0 0 0 0 0 6
R 675 6 18 ldau hubbard_lmax
R 676 6 19 ldau lda_plus_u
S 683 3 0 0 0 6 1 1 0 0 0 A 0 0 0 0 0 0 0 0 0 18 0 0 0 0 0 0 0 0 0 0 0 0 0 0 0 0 0 0 6
R 691 6 6 ions_base nat
R 1436 14 94 funct dft_is_meta
R 1732 6 4 gvect ngm
R 1736 6 8 gvect nr1
R 1737 6 9 gvect nr2
R 1738 6 10 gvect nr3
R 1739 6 11 gvect nrx1
R 1740 6 12 gvect nrx2
R 1741 6 13 gvect nrx3
R 1742 6 14 gvect nrxx
R 1829 6 2 gsmooth ngms
S 1856 3 0 0 0 6 1 1 0 0 0 A 0 0 0 0 0 0 0 0 0 25 0 0 0 0 0 0 0 0 0 0 0 0 0 0 0 0 0 0 6
S 1857 3 0 0 0 6 1 1 0 0 0 A 0 0 0 0 0 0 0 0 0 26 0 0 0 0 0 0 0 0 0 0 0 0 0 0 0 0 0 0 6
S 1858 3 0 0 0 6 1 1 0 0 0 A 0 0 0 0 0 0 0 0 0 29 0 0 0 0 0 0 0 0 0 0 0 0 0 0 0 0 0 0 6
R 1861 6 3 paw_variables okpaw
S 2061 3 0 0 0 1108 1 1 0 0 0 A 0 0 0 0 0 0 0 0 11801 0 0 0 0 0 0 0 0 0 0 0 0 0 0 0 0 0 0 0 18 0
S 2063 3 0 0 0 6 1 1 0 0 0 A 0 0 0 0 0 0 0 0 0 36 0 0 0 0 0 0 0 0 0 0 0 0 0 0 0 0 0 0 6
S 2064 3 0 0 0 6 1 1 0 0 0 A 0 0 0 0 0 0 0 0 0 31 0 0 0 0 0 0 0 0 0 0 0 0 0 0 0 0 0 0 6
S 2065 3 0 0 0 6 1 1 0 0 0 A 0 0 0 0 0 0 0 0 0 32 0 0 0 0 0 0 0 0 0 0 0 0 0 0 0 0 0 0 6
S 2066 3 0 0 0 6 1 1 0 0 0 A 0 0 0 0 0 0 0 0 0 35 0 0 0 0 0 0 0 0 0 0 0 0 0 0 0 0 0 0 6
R 2117 25 51 pseudo_types pseudo_upf
R 2118 5 52 pseudo_types generated pseudo_upf
R 2119 5 53 pseudo_types author pseudo_upf
R 2120 5 54 pseudo_types date pseudo_upf
R 2121 5 55 pseudo_types comment pseudo_upf
R 2122 5 56 pseudo_types psd pseudo_upf
R 2123 5 57 pseudo_types typ pseudo_upf
R 2124 5 58 pseudo_types rel pseudo_upf
R 2125 5 59 pseudo_types tvanp pseudo_upf
R 2126 5 60 pseudo_types tcoulombp pseudo_upf
R 2127 5 61 pseudo_types nlcc pseudo_upf
R 2128 5 62 pseudo_types dft pseudo_upf
R 2129 5 63 pseudo_types zp pseudo_upf
R 2130 5 64 pseudo_types etotps pseudo_upf
R 2131 5 65 pseudo_types ecutwfc pseudo_upf
R 2132 5 66 pseudo_types ecutrho pseudo_upf
R 2133 5 67 pseudo_types nv pseudo_upf
R 2134 5 68 pseudo_types lmax pseudo_upf
R 2135 5 69 pseudo_types lmax_rho pseudo_upf
R 2136 5 70 pseudo_types nwfc pseudo_upf
R 2137 5 71 pseudo_types nbeta pseudo_upf
R 2138 5 72 pseudo_types kbeta pseudo_upf
R 2140 5 74 pseudo_types kbeta$sd pseudo_upf
R 2141 5 75 pseudo_types kbeta$p pseudo_upf
R 2142 5 76 pseudo_types kbeta$o pseudo_upf
R 2144 5 78 pseudo_types kkbeta pseudo_upf
R 2145 5 79 pseudo_types lll pseudo_upf
R 2147 5 81 pseudo_types lll$sd pseudo_upf
R 2148 5 82 pseudo_types lll$p pseudo_upf
R 2149 5 83 pseudo_types lll$o pseudo_upf
R 2151 5 85 pseudo_types beta pseudo_upf
R 2154 5 88 pseudo_types beta$sd pseudo_upf
R 2155 5 89 pseudo_types beta$p pseudo_upf
R 2156 5 90 pseudo_types beta$o pseudo_upf
R 2158 5 92 pseudo_types els pseudo_upf
R 2160 5 94 pseudo_types els$sd pseudo_upf
R 2161 5 95 pseudo_types els$p pseudo_upf
R 2162 5 96 pseudo_types els$o pseudo_upf
R 2164 5 98 pseudo_types els_beta pseudo_upf
R 2166 5 100 pseudo_types els_beta$sd pseudo_upf
R 2167 5 101 pseudo_types els_beta$p pseudo_upf
R 2168 5 102 pseudo_types els_beta$o pseudo_upf
R 2170 5 104 pseudo_types nchi pseudo_upf
R 2172 5 106 pseudo_types nchi$sd pseudo_upf
R 2173 5 107 pseudo_types nchi$p pseudo_upf
R 2174 5 108 pseudo_types nchi$o pseudo_upf
R 2176 5 110 pseudo_types lchi pseudo_upf
R 2178 5 112 pseudo_types lchi$sd pseudo_upf
R 2179 5 113 pseudo_types lchi$p pseudo_upf
R 2180 5 114 pseudo_types lchi$o pseudo_upf
R 2183 5 117 pseudo_types oc pseudo_upf
R 2184 5 118 pseudo_types oc$sd pseudo_upf
R 2185 5 119 pseudo_types oc$p pseudo_upf
R 2186 5 120 pseudo_types oc$o pseudo_upf
R 2188 5 122 pseudo_types epseu pseudo_upf
R 2190 5 124 pseudo_types epseu$sd pseudo_upf
R 2191 5 125 pseudo_types epseu$p pseudo_upf
R 2192 5 126 pseudo_types epseu$o pseudo_upf
R 2194 5 128 pseudo_types rcut_chi pseudo_upf
R 2196 5 130 pseudo_types rcut_chi$sd pseudo_upf
R 2197 5 131 pseudo_types rcut_chi$p pseudo_upf
R 2198 5 132 pseudo_types rcut_chi$o pseudo_upf
R 2200 5 134 pseudo_types rcutus_chi pseudo_upf
R 2202 5 136 pseudo_types rcutus_chi$sd pseudo_upf
R 2203 5 137 pseudo_types rcutus_chi$p pseudo_upf
R 2204 5 138 pseudo_types rcutus_chi$o pseudo_upf
R 2206 5 140 pseudo_types chi pseudo_upf
R 2209 5 143 pseudo_types chi$sd pseudo_upf
R 2210 5 144 pseudo_types chi$p pseudo_upf
R 2211 5 145 pseudo_types chi$o pseudo_upf
R 2213 5 147 pseudo_types rho_at pseudo_upf
R 2215 5 149 pseudo_types rho_at$sd pseudo_upf
R 2216 5 150 pseudo_types rho_at$p pseudo_upf
R 2217 5 151 pseudo_types rho_at$o pseudo_upf
R 2219 5 153 pseudo_types mesh pseudo_upf
R 2220 5 154 pseudo_types xmin pseudo_upf
R 2221 5 155 pseudo_types rmax pseudo_upf
R 2222 5 156 pseudo_types zmesh pseudo_upf
R 2223 5 157 pseudo_types dx pseudo_upf
R 2225 5 159 pseudo_types r pseudo_upf
R 2226 5 160 pseudo_types r$sd pseudo_upf
R 2227 5 161 pseudo_types r$p pseudo_upf
R 2228 5 162 pseudo_types r$o pseudo_upf
R 2231 5 165 pseudo_types rab pseudo_upf
R 2232 5 166 pseudo_types rab$sd pseudo_upf
R 2233 5 167 pseudo_types rab$p pseudo_upf
R 2234 5 168 pseudo_types rab$o pseudo_upf
R 2236 5 170 pseudo_types rho_atc pseudo_upf
R 2238 5 172 pseudo_types rho_atc$sd pseudo_upf
R 2239 5 173 pseudo_types rho_atc$p pseudo_upf
R 2240 5 174 pseudo_types rho_atc$o pseudo_upf
R 2242 5 176 pseudo_types lloc pseudo_upf
R 2243 5 177 pseudo_types rcloc pseudo_upf
R 2244 5 178 pseudo_types vloc pseudo_upf
R 2246 5 180 pseudo_types vloc$sd pseudo_upf
R 2247 5 181 pseudo_types vloc$p pseudo_upf
R 2248 5 182 pseudo_types vloc$o pseudo_upf
R 2250 5 184 pseudo_types dion pseudo_upf
R 2253 5 187 pseudo_types dion$sd pseudo_upf
R 2254 5 188 pseudo_types dion$p pseudo_upf
R 2255 5 189 pseudo_types dion$o pseudo_upf
R 2257 5 191 pseudo_types q_with_l pseudo_upf
R 2258 5 192 pseudo_types nqf pseudo_upf
R 2259 5 193 pseudo_types nqlc pseudo_upf
R 2260 5 194 pseudo_types qqq_eps pseudo_upf
R 2261 5 195 pseudo_types rinner pseudo_upf
R 2263 5 197 pseudo_types rinner$sd pseudo_upf
R 2264 5 198 pseudo_types rinner$p pseudo_upf
R 2265 5 199 pseudo_types rinner$o pseudo_upf
R 2267 5 201 pseudo_types qqq pseudo_upf
R 2270 5 204 pseudo_types qqq$sd pseudo_upf
R 2271 5 205 pseudo_types qqq$p pseudo_upf
R 2272 5 206 pseudo_types qqq$o pseudo_upf
R 2274 5 208 pseudo_types qfunc pseudo_upf
R 2277 5 211 pseudo_types qfunc$sd pseudo_upf
R 2278 5 212 pseudo_types qfunc$p pseudo_upf
R 2279 5 213 pseudo_types qfunc$o pseudo_upf
R 2281 5 215 pseudo_types qfuncl pseudo_upf
R 2285 5 219 pseudo_types qfuncl$sd pseudo_upf
R 2286 5 220 pseudo_types qfuncl$p pseudo_upf
R 2287 5 221 pseudo_types qfuncl$o pseudo_upf
R 2289 5 223 pseudo_types qfcoef pseudo_upf
R 2294 5 228 pseudo_types qfcoef$sd pseudo_upf
R 2295 5 229 pseudo_types qfcoef$p pseudo_upf
R 2296 5 230 pseudo_types qfcoef$o pseudo_upf
R 2298 5 232 pseudo_types has_wfc pseudo_upf
R 2299 5 233 pseudo_types aewfc pseudo_upf
R 2302 5 236 pseudo_types aewfc$sd pseudo_upf
R 2303 5 237 pseudo_types aewfc$p pseudo_upf
R 2304 5 238 pseudo_types aewfc$o pseudo_upf
R 2306 5 240 pseudo_types pswfc pseudo_upf
R 2309 5 243 pseudo_types pswfc$sd pseudo_upf
R 2310 5 244 pseudo_types pswfc$p pseudo_upf
R 2311 5 245 pseudo_types pswfc$o pseudo_upf
R 2313 5 247 pseudo_types has_so pseudo_upf
R 2314 5 248 pseudo_types nn pseudo_upf
R 2316 5 250 pseudo_types nn$sd pseudo_upf
R 2317 5 251 pseudo_types nn$p pseudo_upf
R 2318 5 252 pseudo_types nn$o pseudo_upf
R 2320 5 254 pseudo_types rcut pseudo_upf
R 2322 5 256 pseudo_types rcut$sd pseudo_upf
R 2323 5 257 pseudo_types rcut$p pseudo_upf
R 2324 5 258 pseudo_types rcut$o pseudo_upf
R 2326 5 260 pseudo_types rcutus pseudo_upf
R 2328 5 262 pseudo_types rcutus$sd pseudo_upf
R 2329 5 263 pseudo_types rcutus$p pseudo_upf
R 2330 5 264 pseudo_types rcutus$o pseudo_upf
R 2332 5 266 pseudo_types jchi pseudo_upf
R 2334 5 268 pseudo_types jchi$sd pseudo_upf
R 2335 5 269 pseudo_types jchi$p pseudo_upf
R 2336 5 270 pseudo_types jchi$o pseudo_upf
R 2338 5 272 pseudo_types jjj pseudo_upf
R 2340 5 274 pseudo_types jjj$sd pseudo_upf
R 2341 5 275 pseudo_types jjj$p pseudo_upf
R 2342 5 276 pseudo_types jjj$o pseudo_upf
R 2344 5 278 pseudo_types paw_data_format pseudo_upf
R 2345 5 279 pseudo_types tpawp pseudo_upf
R 2346 5 280 pseudo_types paw pseudo_upf
R 2347 5 281 pseudo_types grid pseudo_upf
R 2349 5 283 pseudo_types grid$p pseudo_upf
R 2351 5 285 pseudo_types has_gipaw pseudo_upf
R 2352 5 286 pseudo_types gipaw_data_format pseudo_upf
R 2353 5 287 pseudo_types gipaw_ncore_orbitals pseudo_upf
R 2354 5 288 pseudo_types gipaw_core_orbital_n pseudo_upf
R 2356 5 290 pseudo_types gipaw_core_orbital_n$sd pseudo_upf
R 2357 5 291 pseudo_types gipaw_core_orbital_n$p pseudo_upf
R 2358 5 292 pseudo_types gipaw_core_orbital_n$o pseudo_upf
R 2360 5 294 pseudo_types gipaw_core_orbital_l pseudo_upf
R 2362 5 296 pseudo_types gipaw_core_orbital_l$sd pseudo_upf
R 2363 5 297 pseudo_types gipaw_core_orbital_l$p pseudo_upf
R 2364 5 298 pseudo_types gipaw_core_orbital_l$o pseudo_upf
R 2366 5 300 pseudo_types gipaw_core_orbital_el pseudo_upf
R 2368 5 302 pseudo_types gipaw_core_orbital_el$sd pseudo_upf
R 2369 5 303 pseudo_types gipaw_core_orbital_el$p pseudo_upf
R 2370 5 304 pseudo_types gipaw_core_orbital_el$o pseudo_upf
R 2372 5 306 pseudo_types gipaw_core_orbital pseudo_upf
R 2375 5 309 pseudo_types gipaw_core_orbital$sd pseudo_upf
R 2376 5 310 pseudo_types gipaw_core_orbital$p pseudo_upf
R 2377 5 311 pseudo_types gipaw_core_orbital$o pseudo_upf
R 2379 5 313 pseudo_types gipaw_vlocal_ae pseudo_upf
R 2381 5 315 pseudo_types gipaw_vlocal_ae$sd pseudo_upf
R 2382 5 316 pseudo_types gipaw_vlocal_ae$p pseudo_upf
R 2383 5 317 pseudo_types gipaw_vlocal_ae$o pseudo_upf
R 2385 5 319 pseudo_types gipaw_vlocal_ps pseudo_upf
R 2387 5 321 pseudo_types gipaw_vlocal_ps$sd pseudo_upf
R 2388 5 322 pseudo_types gipaw_vlocal_ps$p pseudo_upf
R 2389 5 323 pseudo_types gipaw_vlocal_ps$o pseudo_upf
R 2391 5 325 pseudo_types gipaw_wfs_nchannels pseudo_upf
R 2392 5 326 pseudo_types gipaw_wfs_el pseudo_upf
R 2394 5 328 pseudo_types gipaw_wfs_el$sd pseudo_upf
R 2395 5 329 pseudo_types gipaw_wfs_el$p pseudo_upf
R 2396 5 330 pseudo_types gipaw_wfs_el$o pseudo_upf
R 2398 5 332 pseudo_types gipaw_wfs_ll pseudo_upf
R 2400 5 334 pseudo_types gipaw_wfs_ll$sd pseudo_upf
R 2401 5 335 pseudo_types gipaw_wfs_ll$p pseudo_upf
R 2402 5 336 pseudo_types gipaw_wfs_ll$o pseudo_upf
R 2404 5 338 pseudo_types gipaw_wfs_ae pseudo_upf
R 2407 5 341 pseudo_types gipaw_wfs_ae$sd pseudo_upf
R 2408 5 342 pseudo_types gipaw_wfs_ae$p pseudo_upf
R 2409 5 343 pseudo_types gipaw_wfs_ae$o pseudo_upf
R 2411 5 345 pseudo_types gipaw_wfs_rcut pseudo_upf
R 2413 5 347 pseudo_types gipaw_wfs_rcut$sd pseudo_upf
R 2414 5 348 pseudo_types gipaw_wfs_rcut$p pseudo_upf
R 2415 5 349 pseudo_types gipaw_wfs_rcut$o pseudo_upf
R 2417 5 351 pseudo_types gipaw_wfs_rcutus pseudo_upf
R 2419 5 353 pseudo_types gipaw_wfs_rcutus$sd pseudo_upf
R 2420 5 354 pseudo_types gipaw_wfs_rcutus$p pseudo_upf
R 2421 5 355 pseudo_types gipaw_wfs_rcutus$o pseudo_upf
R 2423 5 357 pseudo_types gipaw_wfs_ps pseudo_upf
R 2426 5 360 pseudo_types gipaw_wfs_ps$sd pseudo_upf
R 2427 5 361 pseudo_types gipaw_wfs_ps$p pseudo_upf
R 2428 5 362 pseudo_types gipaw_wfs_ps$o pseudo_upf
R 2455 6 11 uspp_param nhm
S 2463 25 0 0 0 1128 1 582 15235 1000000c 800050 A 0 0 0 0 0 0 0 0 0 0 0 0 0 0 0 0 0 0 0 2593 0 0 0 582 0 0 0 0 scf_type
S 2464 5 6 0 0 1134 2468 582 15244 10a00004 51 A 0 0 0 0 0 0 2468 0 1128 0 2470 0 0 0 0 0 0 0 0 2467 1 2464 2469 582 0 0 0 0 of_r
S 2465 6 4 0 0 6 2466 582 15249 40800006 0 A 0 0 0 0 0 0 0 0 0 0 0 0 2594 0 0 0 0 0 0 0 0 0 0 582 0 0 0 0 z_b_0_3
S 2466 6 4 0 0 6 2472 582 15257 40800006 0 A 0 0 0 0 0 4 0 0 0 0 0 0 2594 0 0 0 0 0 0 0 0 0 0 582 0 0 0 0 z_b_1_3
S 2467 5 0 0 0 1137 2471 582 15265 40822004 1020 A 0 0 0 0 0 16 0 0 1128 0 0 0 0 0 0 0 0 0 0 0 2469 2467 0 582 0 0 0 0 of_r$sd
S 2468 5 0 0 0 7 2469 582 15273 40802001 1020 A 0 0 0 0 0 0 0 0 1128 0 0 0 0 0 0 0 0 0 0 0 2464 2468 0 582 0 0 0 0 of_r$p
S 2469 5 0 0 0 7 2467 582 15280 40802000 1020 A 0 0 0 0 0 8 0 0 1128 0 0 0 0 0 0 0 0 0 0 0 2468 2469 0 582 0 0 0 0 of_r$o
S 2470 22 1 0 0 9 1 582 15287 40000000 1000 A 0 0 0 0 0 0 0 2464 0 0 0 0 2467 0 0 0 0 0 0 0 0 0 0 582 0 0 0 0 of_r$arrdsc
S 2471 5 6 0 0 1140 2475 582 15299 10a00004 51 A 0 0 0 0 0 112 2475 0 1128 0 2477 0 0 0 0 0 0 0 0 2474 2464 2471 2476 582 0 0 0 0 of_g
S 2472 6 4 0 0 6 2473 582 15304 40800006 0 A 0 0 0 0 0 8 0 0 0 0 0 0 2594 0 0 0 0 0 0 0 0 0 0 582 0 0 0 0 z_b_2_3
S 2473 6 4 0 0 6 2479 582 15312 40800006 0 A 0 0 0 0 0 12 0 0 0 0 0 0 2594 0 0 0 0 0 0 0 0 0 0 582 0 0 0 0 z_b_3_3
S 2474 5 0 0 0 1143 2478 582 15320 40822004 1020 A 0 0 0 0 0 128 0 0 1128 0 0 0 0 0 0 0 0 0 0 0 2476 2474 0 582 0 0 0 0 of_g$sd
S 2475 5 0 0 0 7 2476 582 15328 40802001 1020 A 0 0 0 0 0 112 0 0 1128 0 0 0 0 0 0 0 0 0 0 0 2471 2475 0 582 0 0 0 0 of_g$p
S 2476 5 0 0 0 7 2474 582 15335 40802000 1020 A 0 0 0 0 0 120 0 0 1128 0 0 0 0 0 0 0 0 0 0 0 2475 2476 0 582 0 0 0 0 of_g$o
S 2477 22 1 0 0 9 1 582 15342 40000000 1000 A 0 0 0 0 0 0 0 2471 0 0 0 0 2474 0 0 0 0 0 0 0 0 0 0 582 0 0 0 0 of_g$arrdsc
S 2478 5 6 0 0 1146 2482 582 15354 10a00004 51 A 0 0 0 0 0 224 2482 0 1128 0 2484 0 0 0 0 0 0 0 0 2481 2471 2478 2483 582 0 0 0 0 kin_r
S 2479 6 4 0 0 6 2480 582 15360 40800006 0 A 0 0 0 0 0 16 0 0 0 0 0 0 2594 0 0 0 0 0 0 0 0 0 0 582 0 0 0 0 z_b_4_3
S 2480 6 4 0 0 6 2486 582 15368 40800006 0 A 0 0 0 0 0 20 0 0 0 0 0 0 2594 0 0 0 0 0 0 0 0 0 0 582 0 0 0 0 z_b_5_3
S 2481 5 0 0 0 1149 2485 582 15376 40822004 1020 A 0 0 0 0 0 240 0 0 1128 0 0 0 0 0 0 0 0 0 0 0 2483 2481 0 582 0 0 0 0 kin_r$sd
S 2482 5 0 0 0 7 2483 582 15385 40802001 1020 A 0 0 0 0 0 224 0 0 1128 0 0 0 0 0 0 0 0 0 0 0 2478 2482 0 582 0 0 0 0 kin_r$p
S 2483 5 0 0 0 7 2481 582 15393 40802000 1020 A 0 0 0 0 0 232 0 0 1128 0 0 0 0 0 0 0 0 0 0 0 2482 2483 0 582 0 0 0 0 kin_r$o
S 2484 22 1 0 0 6 1 582 15401 40000000 1000 A 0 0 0 0 0 0 0 2478 0 0 0 0 2481 0 0 0 0 0 0 0 0 0 0 582 0 0 0 0 kin_r$arrdsc
S 2485 5 6 0 0 1152 2489 582 15414 10a00004 51 A 0 0 0 0 0 336 2489 0 1128 0 2491 0 0 0 0 0 0 0 0 2488 2478 2485 2490 582 0 0 0 0 kin_g
S 2486 6 4 0 0 6 2487 582 15420 40800006 0 A 0 0 0 0 0 24 0 0 0 0 0 0 2594 0 0 0 0 0 0 0 0 0 0 582 0 0 0 0 z_b_6_3
S 2487 6 4 0 0 6 2493 582 15428 40800006 0 A 0 0 0 0 0 28 0 0 0 0 0 0 2594 0 0 0 0 0 0 0 0 0 0 582 0 0 0 0 z_b_7_3
S 2488 5 0 0 0 1155 2492 582 15436 40822004 1020 A 0 0 0 0 0 352 0 0 1128 0 0 0 0 0 0 0 0 0 0 0 2490 2488 0 582 0 0 0 0 kin_g$sd
S 2489 5 0 0 0 7 2490 582 15445 40802001 1020 A 0 0 0 0 0 336 0 0 1128 0 0 0 0 0 0 0 0 0 0 0 2485 2489 0 582 0 0 0 0 kin_g$p
S 2490 5 0 0 0 7 2488 582 15453 40802000 1020 A 0 0 0 0 0 344 0 0 1128 0 0 0 0 0 0 0 0 0 0 0 2489 2490 0 582 0 0 0 0 kin_g$o
S 2491 22 1 0 0 6 1 582 15461 40000000 1000 A 0 0 0 0 0 0 0 2485 0 0 0 0 2488 0 0 0 0 0 0 0 0 0 0 582 0 0 0 0 kin_g$arrdsc
S 2492 5 6 0 0 1158 2498 582 15474 10a00004 51 A 0 0 0 0 0 448 2498 0 1128 0 2500 0 0 0 0 0 0 0 0 2497 2485 2492 2499 582 0 0 0 0 ns
S 2493 6 4 0 0 6 2494 582 15477 40800006 0 A 0 0 0 0 0 32 0 0 0 0 0 0 2594 0 0 0 0 0 0 0 0 0 0 582 0 0 0 0 z_b_8_3
S 2494 6 4 0 0 6 2495 582 15485 40800006 0 A 0 0 0 0 0 36 0 0 0 0 0 0 2594 0 0 0 0 0 0 0 0 0 0 582 0 0 0 0 z_b_9_2
S 2495 6 4 0 0 6 2496 582 15493 40800006 0 A 0 0 0 0 0 40 0 0 0 0 0 0 2594 0 0 0 0 0 0 0 0 0 0 582 0 0 0 0 z_b_10_2
S 2496 6 4 0 0 6 2502 582 15502 40800006 0 A 0 0 0 0 0 44 0 0 0 0 0 0 2594 0 0 0 0 0 0 0 0 0 0 582 0 0 0 0 z_b_11_2
S 2497 5 0 0 0 1161 2501 582 15511 40822004 1020 A 0 0 0 0 0 464 0 0 1128 0 0 0 0 0 0 0 0 0 0 0 2499 2497 0 582 0 0 0 0 ns$sd
S 2498 5 0 0 0 7 2499 582 15517 40802001 1020 A 0 0 0 0 0 448 0 0 1128 0 0 0 0 0 0 0 0 0 0 0 2492 2498 0 582 0 0 0 0 ns$p
S 2499 5 0 0 0 7 2497 582 15522 40802000 1020 A 0 0 0 0 0 456 0 0 1128 0 0 0 0 0 0 0 0 0 0 0 2498 2499 0 582 0 0 0 0 ns$o
S 2500 22 1 0 0 6 1 582 15527 40000000 1000 A 0 0 0 0 0 0 0 2492 0 0 0 0 2497 0 0 0 0 0 0 0 0 0 0 582 0 0 0 0 ns$arrdsc
S 2501 5 6 0 0 1164 2506 582 15537 10a00004 51 A 0 0 0 0 0 608 2506 0 1128 0 2508 0 0 0 0 0 0 0 0 2505 2492 2501 2507 582 0 0 0 0 bec
S 2502 6 4 0 0 6 2503 582 6169 40800006 0 A 0 0 0 0 0 48 0 0 0 0 0 0 2594 0 0 0 0 0 0 0 0 0 0 582 0 0 0 0 z_b_12_1
S 2503 6 4 0 0 6 2504 582 6178 40800006 0 A 0 0 0 0 0 52 0 0 0 0 0 0 2594 0 0 0 0 0 0 0 0 0 0 582 0 0 0 0 z_b_13_1
S 2504 6 4 0 0 6 2510 582 6376 40800006 0 A 0 0 0 0 0 56 0 0 0 0 0 0 2594 0 0 0 0 0 0 0 0 0 0 582 0 0 0 0 z_b_14_1
S 2505 5 0 0 0 1167 1 582 15541 40822004 1020 A 0 0 0 0 0 624 0 0 1128 0 0 0 0 0 0 0 0 0 0 0 2507 2505 0 582 0 0 0 0 bec$sd
S 2506 5 0 0 0 7 2507 582 15548 40802001 1020 A 0 0 0 0 0 608 0 0 1128 0 0 0 0 0 0 0 0 0 0 0 2501 2506 0 582 0 0 0 0 bec$p
S 2507 5 0 0 0 7 2505 582 15554 40802000 1020 A 0 0 0 0 0 616 0 0 1128 0 0 0 0 0 0 0 0 0 0 0 2506 2507 0 582 0 0 0 0 bec$o
S 2508 22 1 0 0 9 1 582 15560 40000000 1000 A 0 0 0 0 0 0 0 2501 0 0 0 0 2505 0 0 0 0 0 0 0 0 0 0 582 0 0 0 0 bec$arrdsc
S 2509 25 0 0 0 1182 1 582 15571 1000000c 800050 A 0 0 0 0 0 0 0 0 0 0 0 0 0 0 0 0 0 0 0 2592 0 0 0 582 0 0 0 0 mix_type
S 2510 6 4 0 0 6 2511 582 6187 40800006 0 A 0 0 0 0 0 60 0 0 0 0 0 0 2594 0 0 0 0 0 0 0 0 0 0 582 0 0 0 0 z_b_15_1
S 2511 6 4 0 0 6 2517 582 6196 40800006 0 A 0 0 0 0 0 64 0 0 0 0 0 0 2594 0 0 0 0 0 0 0 0 0 0 582 0 0 0 0 z_b_16_1
S 2512 5 6 0 0 1188 2514 582 15299 10a00004 51 A 0 0 0 0 0 0 2514 0 1182 0 2516 0 0 0 0 0 0 0 0 2513 1 2512 2515 582 0 0 0 0 of_g
S 2513 5 0 0 0 1191 2519 582 15320 40822004 1020 A 0 0 0 0 0 16 0 0 1182 0 0 0 0 0 0 0 0 0 0 0 2515 2513 0 582 0 0 0 0 of_g$sd
S 2514 5 0 0 0 7 2515 582 15328 40802001 1020 A 0 0 0 0 0 0 0 0 1182 0 0 0 0 0 0 0 0 0 0 0 2512 2514 0 582 0 0 0 0 of_g$p
S 2515 5 0 0 0 7 2513 582 15335 40802000 1020 A 0 0 0 0 0 8 0 0 1182 0 0 0 0 0 0 0 0 0 0 0 2514 2515 0 582 0 0 0 0 of_g$o
S 2516 22 1 0 0 9 1 582 15580 40000000 1000 A 0 0 0 0 0 0 0 2512 0 0 0 0 2513 0 0 0 0 0 0 0 0 0 0 582 0 0 0 0 of_g$arrdsc1
S 2517 6 4 0 0 6 2518 582 6229 40800006 0 A 0 0 0 0 0 68 0 0 0 0 0 0 2594 0 0 0 0 0 0 0 0 0 0 582 0 0 0 0 z_b_17_1
S 2518 6 4 0 0 6 2524 582 15593 40800006 0 A 0 0 0 0 0 72 0 0 0 0 0 0 2594 0 0 0 0 0 0 0 0 0 0 582 0 0 0 0 z_b_18_1
S 2519 5 6 0 0 1194 2521 582 15414 10a00004 51 A 0 0 0 0 0 112 2521 0 1182 0 2523 0 0 0 0 0 0 0 0 2520 2512 2519 2522 582 0 0 0 0 kin_g
S 2520 5 0 0 0 1197 2528 582 15436 40822004 1020 A 0 0 0 0 0 128 0 0 1182 0 0 0 0 0 0 0 0 0 0 0 2522 2520 0 582 0 0 0 0 kin_g$sd
S 2521 5 0 0 0 7 2522 582 15445 40802001 1020 A 0 0 0 0 0 112 0 0 1182 0 0 0 0 0 0 0 0 0 0 0 2519 2521 0 582 0 0 0 0 kin_g$p
S 2522 5 0 0 0 7 2520 582 15453 40802000 1020 A 0 0 0 0 0 120 0 0 1182 0 0 0 0 0 0 0 0 0 0 0 2521 2522 0 582 0 0 0 0 kin_g$o
S 2523 22 1 0 0 6 1 582 15602 40000000 1000 A 0 0 0 0 0 0 0 2519 0 0 0 0 2520 0 0 0 0 0 0 0 0 0 0 582 0 0 0 0 kin_g$arrdsc2
S 2524 6 4 0 0 6 2525 582 15616 40800006 0 A 0 0 0 0 0 76 0 0 0 0 0 0 2594 0 0 0 0 0 0 0 0 0 0 582 0 0 0 0 z_b_19_1
S 2525 6 4 0 0 6 2526 582 15625 40800006 0 A 0 0 0 0 0 80 0 0 0 0 0 0 2594 0 0 0 0 0 0 0 0 0 0 582 0 0 0 0 z_b_20_1
S 2526 6 4 0 0 6 2527 582 15634 40800006 0 A 0 0 0 0 0 84 0 0 0 0 0 0 2594 0 0 0 0 0 0 0 0 0 0 582 0 0 0 0 z_b_21_1
S 2527 6 4 0 0 6 2533 582 15643 40800006 0 A 0 0 0 0 0 88 0 0 0 0 0 0 2594 0 0 0 0 0 0 0 0 0 0 582 0 0 0 0 z_b_22_1
S 2528 5 6 0 0 1200 2530 582 15474 10a00004 51 A 0 0 0 0 0 224 2530 0 1182 0 2532 0 0 0 0 0 0 0 0 2529 2519 2528 2531 582 0 0 0 0 ns
S 2529 5 0 0 0 1203 2536 582 15511 40822004 1020 A 0 0 0 0 0 240 0 0 1182 0 0 0 0 0 0 0 0 0 0 0 2531 2529 0 582 0 0 0 0 ns$sd
S 2530 5 0 0 0 7 2531 582 15517 40802001 1020 A 0 0 0 0 0 224 0 0 1182 0 0 0 0 0 0 0 0 0 0 0 2528 2530 0 582 0 0 0 0 ns$p
S 2531 5 0 0 0 7 2529 582 15522 40802000 1020 A 0 0 0 0 0 232 0 0 1182 0 0 0 0 0 0 0 0 0 0 0 2530 2531 0 582 0 0 0 0 ns$o
S 2532 22 1 0 0 6 1 582 15652 40000000 1000 A 0 0 0 0 0 0 0 2528 0 0 0 0 2529 0 0 0 0 0 0 0 0 0 0 582 0 0 0 0 ns$arrdsc3
S 2533 6 4 0 0 6 2534 582 15663 40800006 0 A 0 0 0 0 0 92 0 0 0 0 0 0 2594 0 0 0 0 0 0 0 0 0 0 582 0 0 0 0 z_b_23_1
S 2534 6 4 0 0 6 2535 582 15672 40800006 0 A 0 0 0 0 0 96 0 0 0 0 0 0 2594 0 0 0 0 0 0 0 0 0 0 582 0 0 0 0 z_b_24_1
S 2535 6 4 0 0 6 2541 582 15681 40800006 0 A 0 0 0 0 0 100 0 0 0 0 0 0 2594 0 0 0 0 0 0 0 0 0 0 582 0 0 0 0 z_b_25_1
S 2536 5 6 0 0 1206 2538 582 15537 10a00004 51 A 0 0 0 0 0 384 2538 0 1182 0 2540 0 0 0 0 0 0 0 0 2537 2528 2536 2539 582 0 0 0 0 bec
S 2537 5 0 0 0 1209 1 582 15541 40822004 1020 A 0 0 0 0 0 400 0 0 1182 0 0 0 0 0 0 0 0 0 0 0 2539 2537 0 582 0 0 0 0 bec$sd
S 2538 5 0 0 0 7 2539 582 15548 40802001 1020 A 0 0 0 0 0 384 0 0 1182 0 0 0 0 0 0 0 0 0 0 0 2536 2538 0 582 0 0 0 0 bec$p
S 2539 5 0 0 0 7 2537 582 15554 40802000 1020 A 0 0 0 0 0 392 0 0 1182 0 0 0 0 0 0 0 0 0 0 0 2538 2539 0 582 0 0 0 0 bec$o
S 2540 22 1 0 0 9 1 582 15690 40000000 1000 A 0 0 0 0 0 0 0 2536 0 0 0 0 2537 0 0 0 0 0 0 0 0 0 0 582 0 0 0 0 bec$arrdsc4
S 2541 6 4 0 0 1128 2542 582 8368 4 0 A 0 0 0 0 0 104 0 0 0 0 0 0 2594 0 0 0 0 0 0 0 0 0 0 582 0 0 0 0 rho
S 2542 6 4 0 0 1128 2543 582 15702 4 0 A 0 0 0 0 0 848 0 0 0 0 0 0 2594 0 0 0 0 0 0 0 0 0 0 582 0 0 0 0 v
S 2543 6 4 0 0 1128 2546 582 15704 4 0 A 0 0 0 0 0 1592 0 0 0 0 0 0 2594 0 0 0 0 0 0 0 0 0 0 582 0 0 0 0 vnew
S 2544 6 4 0 0 9 1 582 15709 4 0 A 0 0 0 0 0 0 0 0 0 0 0 0 2595 0 0 0 0 0 0 0 0 0 0 582 0 0 0 0 v_of_0
S 2545 7 6 0 0 1220 1 582 15716 10a00004 51 A 0 0 0 0 0 0 2548 0 0 0 2550 0 0 0 0 0 0 0 0 2547 0 0 2549 582 0 0 0 0 vltot
S 2546 6 4 0 0 6 2552 582 15722 40800006 0 A 0 0 0 0 0 2336 0 0 0 0 0 0 2594 0 0 0 0 0 0 0 0 0 0 582 0 0 0 0 z_b_26_1
S 2547 8 4 0 0 1223 2555 582 15731 40822064 1020 A 0 0 0 0 0 0 0 0 0 0 0 0 2594 0 0 0 0 0 0 0 0 0 0 582 0 0 0 0 vltot$sd
S 2548 6 4 0 0 7 2549 582 15740 40802061 1020 A 0 0 0 0 0 72 0 0 0 0 0 0 2594 0 0 0 0 0 0 0 0 0 0 582 0 0 0 0 vltot$p
S 2549 6 4 0 0 7 2547 582 15748 40802060 1020 A 0 0 0 0 0 80 0 0 0 0 0 0 2594 0 0 0 0 0 0 0 0 0 0 582 0 0 0 0 vltot$o
S 2550 22 1 0 0 9 1 582 15756 40000000 1000 A 0 0 0 0 0 0 0 2545 0 0 0 0 2547 0 0 0 0 0 0 0 0 0 0 582 0 0 0 0 vltot$arrdsc
S 2551 7 6 0 0 1226 1 582 15769 10a00004 51 A 0 0 0 0 0 0 2555 0 0 0 2557 0 0 0 0 0 0 0 0 2554 0 0 2556 582 0 0 0 0 vrs
S 2552 6 4 0 0 6 2553 582 15773 40800006 0 A 0 0 0 0 0 2340 0 0 0 0 0 0 2594 0 0 0 0 0 0 0 0 0 0 582 0 0 0 0 z_b_27_1
S 2553 6 4 0 0 6 2559 582 15782 40800006 0 A 0 0 0 0 0 2344 0 0 0 0 0 0 2594 0 0 0 0 0 0 0 0 0 0 582 0 0 0 0 z_b_28_1
S 2554 8 4 0 0 1229 2561 582 15791 40822064 1020 A 0 0 0 0 0 88 0 0 0 0 0 0 2594 0 0 0 0 0 0 0 0 0 0 582 0 0 0 0 vrs$sd
S 2555 6 4 0 0 7 2556 582 15798 40802061 1020 A 0 0 0 0 0 184 0 0 0 0 0 0 2594 0 0 0 0 0 0 0 0 0 0 582 0 0 0 0 vrs$p
S 2556 6 4 0 0 7 2554 582 15804 40802060 1020 A 0 0 0 0 0 192 0 0 0 0 0 0 2594 0 0 0 0 0 0 0 0 0 0 582 0 0 0 0 vrs$o
S 2557 22 1 0 0 9 1 582 15810 40000000 1000 A 0 0 0 0 0 0 0 2551 0 0 0 0 2554 0 0 0 0 0 0 0 0 0 0 582 0 0 0 0 vrs$arrdsc
S 2558 7 6 0 0 1232 1 582 15821 10a00004 51 A 0 0 0 0 0 0 2561 0 0 0 2563 0 0 0 0 0 0 0 0 2560 0 0 2562 582 0 0 0 0 rho_core
S 2559 6 4 0 0 6 2565 582 15830 40800006 0 A 0 0 0 0 0 2348 0 0 0 0 0 0 2594 0 0 0 0 0 0 0 0 0 0 582 0 0 0 0 z_b_29_1
S 2560 8 4 0 0 1235 2568 582 15839 40822064 1020 A 0 0 0 0 0 200 0 0 0 0 0 0 2594 0 0 0 0 0 0 0 0 0 0 582 0 0 0 0 rho_core$sd
S 2561 6 4 0 0 7 2562 582 15851 40802061 1020 A 0 0 0 0 0 272 0 0 0 0 0 0 2594 0 0 0 0 0 0 0 0 0 0 582 0 0 0 0 rho_core$p
S 2562 6 4 0 0 7 2560 582 15862 40802060 1020 A 0 0 0 0 0 280 0 0 0 0 0 0 2594 0 0 0 0 0 0 0 0 0 0 582 0 0 0 0 rho_core$o
S 2563 22 1 0 0 9 1 582 15873 40000000 1000 A 0 0 0 0 0 0 0 2558 0 0 0 0 2560 0 0 0 0 0 0 0 0 0 0 582 0 0 0 0 rho_core$arrdsc
S 2564 7 6 0 0 1238 1 582 15889 10a00004 51 A 0 0 0 0 0 0 2568 0 0 0 2570 0 0 0 0 0 0 0 0 2567 0 0 2569 582 0 0 0 0 kedtau
S 2565 6 4 0 0 6 2566 582 15896 40800006 0 A 0 0 0 0 0 2352 0 0 0 0 0 0 2594 0 0 0 0 0 0 0 0 0 0 582 0 0 0 0 z_b_30_1
S 2566 6 4 0 0 6 2572 582 15905 40800006 0 A 0 0 0 0 0 2356 0 0 0 0 0 0 2594 0 0 0 0 0 0 0 0 0 0 582 0 0 0 0 z_b_31_1
S 2567 8 4 0 0 1241 2574 582 15914 40822064 1020 A 0 0 0 0 0 288 0 0 0 0 0 0 2594 0 0 0 0 0 0 0 0 0 0 582 0 0 0 0 kedtau$sd
S 2568 6 4 0 0 7 2569 582 15924 40802061 1020 A 0 0 0 0 0 384 0 0 0 0 0 0 2594 0 0 0 0 0 0 0 0 0 0 582 0 0 0 0 kedtau$p
S 2569 6 4 0 0 7 2567 582 15933 40802060 1020 A 0 0 0 0 0 392 0 0 0 0 0 0 2594 0 0 0 0 0 0 0 0 0 0 582 0 0 0 0 kedtau$o
S 2570 22 1 0 0 6 1 582 15942 40000000 1000 A 0 0 0 0 0 0 0 2564 0 0 0 0 2567 0 0 0 0 0 0 0 0 0 0 582 0 0 0 0 kedtau$arrdsc
S 2571 7 6 0 0 1244 1 582 15956 10a00004 51 A 0 0 0 0 0 0 2574 0 0 0 2576 0 0 0 0 0 0 0 0 2573 0 0 2575 582 0 0 0 0 rhog_core
S 2572 6 4 0 0 6 2587 582 15966 40800006 0 A 0 0 0 0 0 2360 0 0 0 0 0 0 2594 0 0 0 0 0 0 0 0 0 0 582 0 0 0 0 z_b_32_1
S 2573 8 4 0 0 1247 2465 582 15975 40822064 1020 A 0 0 0 0 0 400 0 0 0 0 0 0 2594 0 0 0 0 0 0 0 0 0 0 582 0 0 0 0 rhog_core$sd
S 2574 6 4 0 0 7 2575 582 15988 40802061 1020 A 0 0 0 0 0 472 0 0 0 0 0 0 2594 0 0 0 0 0 0 0 0 0 0 582 0 0 0 0 rhog_core$p
S 2575 6 4 0 0 7 2573 582 16000 40802060 1020 A 0 0 0 0 0 480 0 0 0 0 0 0 2594 0 0 0 0 0 0 0 0 0 0 582 0 0 0 0 rhog_core$o
S 2576 22 1 0 0 9 1 582 16012 40000000 1000 A 0 0 0 0 0 0 0 2571 0 0 0 0 2573 0 0 0 0 0 0 0 0 0 0 582 0 0 0 0 rhog_core$arrdsc
S 2577 6 4 0 0 6 1 582 16029 14 0 A 0 0 0 0 0 0 0 0 0 0 0 0 2596 0 0 0 0 0 0 0 0 0 0 582 0 0 0 0 record_length
S 2578 6 4 0 0 6 2579 582 16043 80001c 0 A 0 0 0 0 0 0 0 0 0 0 0 0 2597 0 0 0 0 0 0 0 0 0 0 582 0 0 0 0 rlen_rho
S 2579 6 4 0 0 6 2580 582 16052 80001c 0 A 0 0 0 0 0 4 0 0 0 0 0 0 2597 0 0 0 0 0 0 0 0 0 0 582 0 0 0 0 rlen_kin
S 2580 6 4 0 0 6 2581 582 16061 80001c 0 A 0 0 0 0 0 8 0 0 0 0 0 0 2597 0 0 0 0 0 0 0 0 0 0 582 0 0 0 0 rlen_ldau
S 2581 6 4 0 0 6 2582 582 16071 80001c 0 A 0 0 0 0 0 12 0 0 0 0 0 0 2597 0 0 0 0 0 0 0 0 0 0 582 0 0 0 0 rlen_bec
S 2582 6 4 0 0 6 2583 582 16080 80001c 0 A 0 0 0 0 0 16 0 0 0 0 0 0 2597 0 0 0 0 0 0 0 0 0 0 582 0 0 0 0 start_rho
S 2583 6 4 0 0 6 2584 582 16090 80001c 0 A 0 0 0 0 0 20 0 0 0 0 0 0 2597 0 0 0 0 0 0 0 0 0 0 582 0 0 0 0 start_kin
S 2584 6 4 0 0 6 2585 582 16100 80001c 0 A 0 0 0 0 0 24 0 0 0 0 0 0 2597 0 0 0 0 0 0 0 0 0 0 582 0 0 0 0 start_ldau
S 2585 6 4 0 0 6 1 582 16111 80001c 0 A 0 0 0 0 0 28 0 0 0 0 0 0 2597 0 0 0 0 0 0 0 0 0 0 582 0 0 0 0 start_bec
S 2586 7 6 0 0 1250 1 582 16121 10a00014 51 A 0 0 0 0 0 0 2589 0 0 0 2591 0 0 0 0 0 0 0 0 2588 0 0 2590 582 0 0 0 0 io_buffer
S 2587 6 4 0 0 6 1 582 16131 40800006 0 A 0 0 0 0 0 2364 0 0 0 0 0 0 2594 0 0 0 0 0 0 0 0 0 0 582 0 0 0 0 z_b_33_1
S 2588 8 4 0 0 1253 2577 582 16140 40822074 1020 A 0 0 0 0 0 488 0 0 0 0 0 0 2596 0 0 0 0 0 0 0 0 0 0 582 0 0 0 0 io_buffer$sd
S 2589 6 4 0 0 7 2590 582 16153 40802071 1020 A 0 0 0 0 0 560 0 0 0 0 0 0 2596 0 0 0 0 0 0 0 0 0 0 582 0 0 0 0 io_buffer$p
S 2590 6 4 0 0 7 2588 582 16165 40802070 1020 A 0 0 0 0 0 568 0 0 0 0 0 0 2596 0 0 0 0 0 0 0 0 0 0 582 0 0 0 0 io_buffer$o
S 2591 22 1 0 0 6 1 582 16177 40000000 1000 A 0 0 0 0 0 0 0 2586 0 0 0 0 2588 0 0 0 0 0 0 0 0 0 0 582 0 0 0 0 io_buffer$arrdsc
S 2592 8 5 0 0 1256 1 582 16194 40022004 1220 A 0 0 0 0 0 0 0 1182 0 0 0 0 0 0 0 0 0 0 0 0 0 0 0 582 0 0 0 0 scf$mix_type$td
S 2593 8 5 0 0 1259 1 582 16210 40022004 1220 A 0 0 0 0 0 0 0 1128 0 0 0 0 0 0 0 0 0 0 0 0 0 0 0 582 0 0 0 0 scf$scf_type$td
S 2594 11 0 0 0 9 2462 582 16226 40800000 801000 A 0 0 0 0 0 2856 0 0 2548 2587 0 0 0 0 0 0 0 0 0 0 0 0 0 0 0 0 0 0 _scf$0
S 2595 11 0 0 0 9 2594 582 16233 40800000 801000 A 0 0 0 0 0 8 0 0 2544 2544 0 0 0 0 0 0 0 0 0 0 0 0 0 0 0 0 0 0 _scf$2
S 2596 11 0 0 0 9 2595 582 16240 40800010 801000 A 0 0 0 0 0 92 0 0 2589 2577 0 0 0 0 0 0 0 0 0 0 0 0 0 0 0 0 0 0 _scf$4
S 2597 11 0 0 0 9 2596 582 16247 40800010 801000 A 0 0 0 0 0 32 0 0 2578 2585 0 0 0 0 0 0 0 0 0 0 0 0 0 0 0 0 0 0 _scf$12
S 2598 23 5 0 0 0 2601 582 16255 0 0 A 0 0 0 0 0 0 0 0 0 0 0 0 0 0 0 0 0 0 0 0 0 0 0 0 0 0 0 0 create_scf_type
S 2599 1 3 1 0 16 1 2598 16271 80000004 3000 A 0 0 0 0 0 0 0 0 0 0 0 0 0 0 0 0 0 0 0 0 0 0 0 0 0 0 0 0 do_not_allocate_becsum
S 2600 1 3 0 0 1128 1 2598 8368 4 3000 A 0 0 0 0 0 0 0 0 0 0 0 0 0 0 0 0 0 0 0 0 0 0 0 0 0 0 0 0 rho
S 2601 14 5 0 0 0 1 2598 16255 0 400000 A 0 0 0 0 0 0 0 291 2 0 0 0 0 0 0 0 0 0 0 0 0 85 0 582 0 0 0 0 create_scf_type
F 2601 2 2600 2599
S 2602 23 5 0 0 0 2604 582 16294 0 0 A 0 0 0 0 0 0 0 0 0 0 0 0 0 0 0 0 0 0 0 0 0 0 0 0 0 0 0 0 destroy_scf_type
S 2603 1 3 0 0 1128 1 2602 8368 4 3000 A 0 0 0 0 0 0 0 0 0 0 0 0 0 0 0 0 0 0 0 0 0 0 0 0 0 0 0 0 rho
S 2604 14 5 0 0 0 1 2602 16294 0 400000 A 0 0 0 0 0 0 0 294 1 0 0 0 0 0 0 0 0 0 0 0 0 115 0 582 0 0 0 0 destroy_scf_type
F 2604 1 2603
S 2605 23 5 0 0 0 2607 582 16311 0 0 A 0 0 0 0 0 0 0 0 0 0 0 0 0 0 0 0 0 0 0 0 0 0 0 0 0 0 0 0 create_mix_type
S 2606 1 3 0 0 1182 1 2605 8368 4 3000 A 0 0 0 0 0 0 0 0 0 0 0 0 0 0 0 0 0 0 0 0 0 0 0 0 0 0 0 0 rho
S 2607 14 5 0 0 0 1 2605 16311 0 400000 A 0 0 0 0 0 0 0 296 1 0 0 0 0 0 0 0 0 0 0 0 0 127 0 582 0 0 0 0 create_mix_type
F 2607 1 2606
S 2608 23 5 0 0 0 2610 582 16327 0 0 A 0 0 0 0 0 0 0 0 0 0 0 0 0 0 0 0 0 0 0 0 0 0 0 0 0 0 0 0 destroy_mix_type
S 2609 1 3 0 0 1182 1 2608 8368 4 3000 A 0 0 0 0 0 0 0 0 0 0 0 0 0 0 0 0 0 0 0 0 0 0 0 0 0 0 0 0 rho
S 2610 14 5 0 0 0 1 2608 16327 0 400000 A 0 0 0 0 0 0 0 298 1 0 0 0 0 0 0 0 0 0 0 0 0 145 0 582 0 0 0 0 destroy_mix_type
F 2610 1 2609
S 2611 23 5 0 0 0 2614 582 16344 0 0 A 0 0 0 0 0 0 0 0 0 0 0 0 0 0 0 0 0 0 0 0 0 0 0 0 0 0 0 0 assign_scf_to_mix_type
S 2612 1 3 1 0 1128 1 2611 16367 4 3000 A 0 0 0 0 0 0 0 0 0 0 0 0 0 0 0 0 0 0 0 0 0 0 0 0 0 0 0 0 rho_s
S 2613 1 3 3 0 1182 1 2611 16373 4 3000 A 0 0 0 0 0 0 0 0 0 0 0 0 0 0 0 0 0 0 0 0 0 0 0 0 0 0 0 0 rho_m
S 2614 14 5 0 0 0 1 2611 16344 0 400000 A 0 0 0 0 0 0 0 300 2 0 0 0 0 0 0 0 0 0 0 0 0 155 0 582 0 0 0 0 assign_scf_to_mix_type
F 2614 2 2612 2613
S 2615 23 5 0 0 0 2618 582 16379 0 0 A 0 0 0 0 0 0 0 0 0 0 0 0 0 0 0 0 0 0 0 0 0 0 0 0 0 0 0 0 assign_mix_to_scf_type
S 2616 1 3 1 0 1182 1 2615 16373 4 3000 A 0 0 0 0 0 0 0 0 0 0 0 0 0 0 0 0 0 0 0 0 0 0 0 0 0 0 0 0 rho_m
S 2617 1 3 3 0 1128 1 2615 16367 4 3000 A 0 0 0 0 0 0 0 0 0 0 0 0 0 0 0 0 0 0 0 0 0 0 0 0 0 0 0 0 rho_s
S 2618 14 5 0 0 0 1 2615 16379 0 400000 A 0 0 0 0 0 0 0 303 2 0 0 0 0 0 0 0 0 0 0 0 0 166 0 582 0 0 0 0 assign_mix_to_scf_type
F 2618 2 2616 2617
S 2619 23 5 0 0 0 2622 582 16402 0 0 A 0 0 0 0 0 0 0 0 0 0 0 0 0 0 0 0 0 0 0 0 0 0 0 0 0 0 0 0 scf_type_copy
S 2620 1 3 1 0 1128 1 2619 11741 4 3000 A 0 0 0 0 0 0 0 0 0 0 0 0 0 0 0 0 0 0 0 0 0 0 0 0 0 0 0 0 x
S 2621 1 3 3 0 1128 1 2619 11743 4 3000 A 0 0 0 0 0 0 0 0 0 0 0 0 0 0 0 0 0 0 0 0 0 0 0 0 0 0 0 0 y
S 2622 14 5 0 0 0 1 2619 16402 0 400000 A 0 0 0 0 0 0 0 306 2 0 0 0 0 0 0 0 0 0 0 0 0 200 0 582 0 0 0 0 scf_type_copy
F 2622 2 2620 2621
S 2623 23 5 0 0 0 2627 582 16416 0 0 A 0 0 0 0 0 0 0 0 0 0 0 0 0 0 0 0 0 0 0 0 0 0 0 0 0 0 0 0 mix_type_axpy
S 2624 1 3 0 0 9 1 2623 11027 4 3000 A 0 0 0 0 0 0 0 0 0 0 0 0 0 0 0 0 0 0 0 0 0 0 0 0 0 0 0 0 a
S 2625 1 3 1 0 1182 1 2623 11741 4 3000 A 0 0 0 0 0 0 0 0 0 0 0 0 0 0 0 0 0 0 0 0 0 0 0 0 0 0 0 0 x
S 2626 1 3 3 0 1182 1 2623 11743 4 3000 A 0 0 0 0 0 0 0 0 0 0 0 0 0 0 0 0 0 0 0 0 0 0 0 0 0 0 0 0 y
S 2627 14 5 0 0 0 1 2623 16416 0 400000 A 0 0 0 0 0 0 0 309 3 0 0 0 0 0 0 0 0 0 0 0 0 220 0 582 0 0 0 0 mix_type_axpy
F 2627 3 2624 2625 2626
S 2628 23 5 0 0 0 2631 582 16430 0 0 A 0 0 0 0 0 0 0 0 0 0 0 0 0 0 0 0 0 0 0 0 0 0 0 0 0 0 0 0 mix_type_copy
S 2629 1 3 1 0 1182 1 2628 11741 4 3000 A 0 0 0 0 0 0 0 0 0 0 0 0 0 0 0 0 0 0 0 0 0 0 0 0 0 0 0 0 x
S 2630 1 3 3 0 1182 1 2628 11743 4 3000 A 0 0 0 0 0 0 0 0 0 0 0 0 0 0 0 0 0 0 0 0 0 0 0 0 0 0 0 0 y
S 2631 14 5 0 0 0 1 2628 16430 0 400000 A 0 0 0 0 0 0 0 313 2 0 0 0 0 0 0 0 0 0 0 0 0 238 0 582 0 0 0 0 mix_type_copy
F 2631 2 2629 2630
S 2632 23 5 0 0 0 2635 582 16444 0 0 A 0 0 0 0 0 0 0 0 0 0 0 0 0 0 0 0 0 0 0 0 0 0 0 0 0 0 0 0 mix_type_scal
S 2633 1 3 1 0 9 1 2632 11027 4 3000 A 0 0 0 0 0 0 0 0 0 0 0 0 0 0 0 0 0 0 0 0 0 0 0 0 0 0 0 0 a
S 2634 1 3 3 0 1182 1 2632 11741 4 3000 A 0 0 0 0 0 0 0 0 0 0 0 0 0 0 0 0 0 0 0 0 0 0 0 0 0 0 0 0 x
S 2635 14 5 0 0 0 1 2632 16444 0 400000 A 0 0 0 0 0 0 0 316 2 0 0 0 0 0 0 0 0 0 0 0 0 254 0 582 0 0 0 0 mix_type_scal
F 2635 2 2633 2634
S 2636 23 5 0 0 0 2640 582 16458 0 0 A 0 0 0 0 0 0 0 0 0 0 0 0 0 0 0 0 0 0 0 0 0 0 0 0 0 0 0 0 high_frequency_mixing
S 2637 1 3 3 0 1128 1 2636 16480 4 3000 A 0 0 0 0 0 0 0 0 0 0 0 0 0 0 0 0 0 0 0 0 0 0 0 0 0 0 0 0 rhoin
S 2638 1 3 1 0 1128 1 2636 16486 4 3000 A 0 0 0 0 0 0 0 0 0 0 0 0 0 0 0 0 0 0 0 0 0 0 0 0 0 0 0 0 input_rhout
S 2639 1 3 1 0 9 1 2636 16498 4 3000 A 0 0 0 0 0 0 0 0 0 0 0 0 0 0 0 0 0 0 0 0 0 0 0 0 0 0 0 0 alphamix
S 2640 14 5 0 0 0 1 2636 16458 0 400000 A 0 0 0 0 0 0 0 319 3 0 0 0 0 0 0 0 0 0 0 0 0 270 0 582 0 0 0 0 high_frequency_mixing
F 2640 3 2637 2638 2639
S 2641 23 5 0 0 0 2645 582 16507 0 0 A 0 0 0 0 0 0 0 0 0 0 0 0 0 0 0 0 0 0 0 0 0 0 0 0 0 0 0 0 diropn_mix_file
S 2642 1 3 1 0 6 1 2641 11782 4 3000 A 0 0 0 0 0 0 0 0 0 0 0 0 0 0 0 0 0 0 0 0 0 0 0 0 0 0 0 0 iunit
S 2643 1 3 1 0 28 1 2641 16523 4 43000 A 0 0 0 0 0 0 0 0 0 0 0 0 0 0 0 0 0 0 0 0 0 0 0 0 0 0 0 0 extension
S 2644 1 3 0 0 16 1 2641 16533 4 3000 A 0 0 0 0 0 0 0 0 0 0 0 0 0 0 0 0 0 0 0 0 0 0 0 0 0 0 0 0 exst
S 2645 14 5 0 0 0 1 2641 16507 0 400000 A 0 0 0 0 0 0 0 323 3 0 0 0 0 0 0 0 0 0 0 0 0 315 0 582 0 0 0 0 diropn_mix_file
F 2645 3 2642 2643 2644
S 2646 23 5 0 0 0 2648 582 16538 0 0 A 0 0 0 0 0 0 0 0 0 0 0 0 0 0 0 0 0 0 0 0 0 0 0 0 0 0 0 0 close_mix_file
S 2647 1 3 1 0 6 1 2646 11782 4 3000 A 0 0 0 0 0 0 0 0 0 0 0 0 0 0 0 0 0 0 0 0 0 0 0 0 0 0 0 0 iunit
S 2648 14 5 0 0 0 1 2646 16538 0 400000 A 0 0 0 0 0 0 0 327 1 0 0 0 0 0 0 0 0 0 0 0 0 339 0 582 0 0 0 0 close_mix_file
F 2648 1 2647
S 2649 23 5 0 0 0 2654 582 16553 0 0 A 0 0 0 0 0 0 0 0 0 0 0 0 0 0 0 0 0 0 0 0 0 0 0 0 0 0 0 0 davcio_mix_type
S 2650 1 3 1 0 6 1 2649 11782 4 3000 A 0 0 0 0 0 0 0 0 0 0 0 0 0 0 0 0 0 0 0 0 0 0 0 0 0 0 0 0 iunit
S 2651 1 3 1 0 6 1 2649 16569 4 3000 A 0 0 0 0 0 0 0 0 0 0 0 0 0 0 0 0 0 0 0 0 0 0 0 0 0 0 0 0 record
S 2652 1 3 1 0 6 1 2649 16576 4 3000 A 0 0 0 0 0 0 0 0 0 0 0 0 0 0 0 0 0 0 0 0 0 0 0 0 0 0 0 0 iflag
S 2653 1 3 0 0 1182 1 2649 8368 4 3000 A 0 0 0 0 0 0 0 0 0 0 0 0 0 0 0 0 0 0 0 0 0 0 0 0 0 0 0 0 rho
S 2654 14 5 0 0 0 1 2649 16553 0 400000 A 0 0 0 0 0 0 0 329 4 0 0 0 0 0 0 0 0 0 0 0 0 347 0 582 0 0 0 0 davcio_mix_type
F 2654 4 2653 2650 2651 2652
S 2655 23 5 0 0 9 2659 582 16582 0 0 A 0 0 0 0 0 0 0 0 0 0 0 0 0 0 0 0 0 0 0 0 0 0 0 0 0 0 0 0 rho_ddot
S 2656 1 3 1 0 1182 1 2655 16591 4 3000 A 0 0 0 0 0 0 0 0 0 0 0 0 0 0 0 0 0 0 0 0 0 0 0 0 0 0 0 0 rho1
S 2657 1 3 1 0 1182 1 2655 16596 4 3000 A 0 0 0 0 0 0 0 0 0 0 0 0 0 0 0 0 0 0 0 0 0 0 0 0 0 0 0 0 rho2
S 2658 1 3 1 0 6 1 2655 16601 4 3000 A 0 0 0 0 0 0 0 0 0 0 0 0 0 0 0 0 0 0 0 0 0 0 0 0 0 0 0 0 gf
S 2659 14 5 0 0 9 1 2655 16582 4 400000 A 0 0 0 0 0 0 0 334 3 0 0 2660 0 0 0 0 0 0 0 0 0 367 0 582 0 0 0 0 rho_ddot
F 2659 3 2656 2657 2658
S 2660 1 3 0 0 9 1 2655 16582 4 1003000 A 0 0 0 0 0 0 0 0 0 0 0 0 0 0 0 0 0 0 0 0 0 0 0 0 0 0 0 0 rho_ddot
S 2661 23 5 0 0 9 2665 582 16604 0 0 A 0 0 0 0 0 0 0 0 0 0 0 0 0 0 0 0 0 0 0 0 0 0 0 0 0 0 0 0 tauk_ddot
S 2662 1 3 1 0 1182 1 2661 16591 4 3000 A 0 0 0 0 0 0 0 0 0 0 0 0 0 0 0 0 0 0 0 0 0 0 0 0 0 0 0 0 rho1
S 2663 1 3 1 0 1182 1 2661 16596 4 3000 A 0 0 0 0 0 0 0 0 0 0 0 0 0 0 0 0 0 0 0 0 0 0 0 0 0 0 0 0 rho2
S 2664 1 3 1 0 6 1 2661 16601 4 3000 A 0 0 0 0 0 0 0 0 0 0 0 0 0 0 0 0 0 0 0 0 0 0 0 0 0 0 0 0 gf
S 2665 14 5 0 0 9 1 2661 16604 4 400000 A 0 0 0 0 0 0 0 338 3 0 0 2666 0 0 0 0 0 0 0 0 0 498 0 582 0 0 0 0 tauk_ddot
F 2665 3 2662 2663 2664
S 2666 1 3 0 0 9 1 2661 16604 4 1003000 A 0 0 0 0 0 0 0 0 0 0 0 0 0 0 0 0 0 0 0 0 0 0 0 0 0 0 0 0 tauk_ddot
S 2667 23 5 0 0 6 2670 582 16614 0 0 A 0 0 0 0 0 0 0 0 0 0 0 0 0 0 0 0 0 0 0 0 0 0 0 0 0 0 0 0 ns_ddot
S 2668 1 3 1 0 1182 1 2667 16591 4 3000 A 0 0 0 0 0 0 0 0 0 0 0 0 0 0 0 0 0 0 0 0 0 0 0 0 0 0 0 0 rho1
S 2669 1 3 1 0 1182 1 2667 16596 4 3000 A 0 0 0 0 0 0 0 0 0 0 0 0 0 0 0 0 0 0 0 0 0 0 0 0 0 0 0 0 rho2
S 2670 14 5 0 0 9 1 2667 16614 4 400000 A 0 0 0 0 0 0 0 342 2 0 0 2671 0 0 0 0 0 0 0 0 0 602 0 582 0 0 0 0 ns_ddot
F 2670 2 2668 2669
S 2671 1 3 0 0 9 1 2667 16614 4 1003000 A 0 0 0 0 0 0 0 0 0 0 0 0 0 0 0 0 0 0 0 0 0 0 0 0 0 0 0 0 ns_ddot
S 2672 23 5 0 0 6 2676 582 16622 0 0 A 0 0 0 0 0 0 0 0 0 0 0 0 0 0 0 0 0 0 0 0 0 0 0 0 0 0 0 0 local_tf_ddot
S 2673 7 3 1 0 1262 1 2672 16591 800204 3000 A 0 0 0 0 0 0 0 0 0 0 0 0 0 0 0 0 0 0 0 0 0 0 0 0 0 0 0 0 rho1
S 2674 7 3 1 0 1265 1 2672 16596 800204 3000 A 0 0 0 0 0 0 0 0 0 0 0 0 0 0 0 0 0 0 0 0 0 0 0 0 0 0 0 0 rho2
S 2675 6 3 1 0 6 1 2672 16636 800004 3000 A 0 0 0 0 0 0 0 0 0 0 0 0 0 0 0 0 0 0 0 0 0 0 0 0 0 0 0 0 ngm0
S 2676 14 5 0 0 9 1 2672 16622 204 400000 A 0 0 0 0 0 0 0 345 3 0 0 2677 0 0 0 0 0 0 0 0 0 638 0 582 0 0 0 0 local_tf_ddot
F 2676 3 2673 2674 2675
S 2677 1 3 0 0 9 1 2672 16622 4 1003000 A 0 0 0 0 0 0 0 0 0 0 0 0 0 0 0 0 0 0 0 0 0 0 0 0 0 0 0 0 local_tf_ddot
S 2678 6 1 0 0 6 1 2672 16641 40800006 3000 A 0 0 0 0 0 0 0 0 0 0 0 0 0 0 0 0 0 0 0 0 0 0 0 0 0 0 0 0 z_e_2849
A 13 2 0 0 0 6 609 0 0 0 13 0 0 0 0 0 0 0 0 0
A 25 2 0 0 0 6 623 0 0 0 25 0 0 0 0 0 0 0 0 0
A 34 2 0 0 0 6 648 0 0 0 34 0 0 0 0 0 0 0 0 0
A 37 2 0 0 0 6 649 0 0 0 37 0 0 0 0 0 0 0 0 0
A 39 2 0 0 0 6 650 0 0 0 39 0 0 0 0 0 0 0 0 0
A 43 2 0 0 0 6 653 0 0 0 43 0 0 0 0 0 0 0 0 0
A 45 2 0 0 0 6 651 0 0 0 45 0 0 0 0 0 0 0 0 0
A 47 2 0 0 0 6 652 0 0 0 47 0 0 0 0 0 0 0 0 0
A 51 2 0 0 0 6 654 0 0 0 51 0 0 0 0 0 0 0 0 0
A 56 2 0 0 0 6 657 0 0 0 56 0 0 0 0 0 0 0 0 0
A 58 2 0 0 0 6 683 0 0 0 58 0 0 0 0 0 0 0 0 0
A 986 2 0 0 0 6 1856 0 0 0 986 0 0 0 0 0 0 0 0 0
A 988 2 0 0 0 6 1857 0 0 0 988 0 0 0 0 0 0 0 0 0
A 992 2 0 0 759 6 1858 0 0 0 992 0 0 0 0 0 0 0 0 0
A 1354 2 0 0 457 6 2063 0 0 0 1354 0 0 0 0 0 0 0 0 0
A 1372 2 0 0 460 6 2064 0 0 0 1372 0 0 0 0 0 0 0 0 0
A 1374 2 0 0 1120 6 2065 0 0 0 1374 0 0 0 0 0 0 0 0 0
A 1378 2 0 0 1180 6 2066 0 0 0 1378 0 0 0 0 0 0 0 0 0
A 1558 2 0 0 1201 827 2061 0 0 0 1558 0 0 0 0 0 0 0 0 0
A 1570 1 0 1 438 1137 2467 0 0 0 0 0 0 0 0 0 0 0 0 0
A 1571 10 0 0 1286 6 1570 4 0 0 0 0 0 0 0 0 0 0 0 0
X 1 37
A 1572 10 0 0 1571 6 1570 7 0 0 0 0 0 0 0 0 0 0 0 0
X 1 39
A 1573 4 0 0 1521 6 1572 0 3 0 0 0 0 2 0 0 0 0 0 0
A 1574 4 0 0 1158 6 1571 0 1573 0 0 0 0 1 0 0 0 0 0 0
A 1575 10 0 0 1572 6 1570 13 0 0 0 0 0 0 0 0 0 0 0 0
X 1 45
A 1576 10 0 0 1575 6 1570 16 0 0 0 0 0 0 0 0 0 0 0 0
X 1 47
A 1577 4 0 0 1574 6 1576 0 3 0 0 0 0 2 0 0 0 0 0 0
A 1578 4 0 0 481 6 1575 0 1577 0 0 0 0 1 0 0 0 0 0 0
A 1579 10 0 0 1576 6 1570 10 0 0 0 0 0 0 0 0 0 0 0 0
X 1 43
A 1580 10 0 0 1579 6 1570 19 0 0 0 0 0 0 0 0 0 0 0 0
X 1 51
A 1581 10 0 0 1580 6 1570 22 0 0 0 0 0 0 0 0 0 0 0 0
X 1 25
A 1582 10 0 0 1581 6 1570 1 0 0 0 0 0 0 0 0 0 0 0 0
X 1 13
A 1585 1 0 1 1537 1143 2474 0 0 0 0 0 0 0 0 0 0 0 0 0
A 1586 10 0 0 1212 6 1585 4 0 0 0 0 0 0 0 0 0 0 0 0
X 1 37
A 1587 10 0 0 1586 6 1585 7 0 0 0 0 0 0 0 0 0 0 0 0
X 1 39
A 1588 4 0 0 1067 6 1587 0 3 0 0 0 0 2 0 0 0 0 0 0
A 1589 4 0 0 1086 6 1586 0 1588 0 0 0 0 1 0 0 0 0 0 0
A 1590 10 0 0 1587 6 1585 13 0 0 0 0 0 0 0 0 0 0 0 0
X 1 45
A 1591 10 0 0 1590 6 1585 16 0 0 0 0 0 0 0 0 0 0 0 0
X 1 47
A 1592 4 0 0 1142 6 1591 0 3 0 0 0 0 2 0 0 0 0 0 0
A 1593 4 0 0 862 6 1590 0 1592 0 0 0 0 1 0 0 0 0 0 0
A 1594 10 0 0 1591 6 1585 10 0 0 0 0 0 0 0 0 0 0 0 0
X 1 43
A 1595 10 0 0 1594 6 1585 19 0 0 0 0 0 0 0 0 0 0 0 0
X 1 51
A 1596 10 0 0 1595 6 1585 22 0 0 0 0 0 0 0 0 0 0 0 0
X 1 25
A 1597 10 0 0 1596 6 1585 1 0 0 0 0 0 0 0 0 0 0 0 0
X 1 13
A 1600 1 0 1 1107 1149 2481 0 0 0 0 0 0 0 0 0 0 0 0 0
A 1601 10 0 0 875 6 1600 4 0 0 0 0 0 0 0 0 0 0 0 0
X 1 37
A 1602 10 0 0 1601 6 1600 7 0 0 0 0 0 0 0 0 0 0 0 0
X 1 39
A 1603 4 0 0 1030 6 1602 0 3 0 0 0 0 2 0 0 0 0 0 0
A 1604 4 0 0 218 6 1601 0 1603 0 0 0 0 1 0 0 0 0 0 0
A 1605 10 0 0 1602 6 1600 13 0 0 0 0 0 0 0 0 0 0 0 0
X 1 45
A 1606 10 0 0 1605 6 1600 16 0 0 0 0 0 0 0 0 0 0 0 0
X 1 47
A 1607 4 0 0 0 6 1606 0 3 0 0 0 0 2 0 0 0 0 0 0
A 1608 4 0 0 0 6 1605 0 1607 0 0 0 0 1 0 0 0 0 0 0
A 1609 10 0 0 1606 6 1600 10 0 0 0 0 0 0 0 0 0 0 0 0
X 1 43
A 1610 10 0 0 1609 6 1600 19 0 0 0 0 0 0 0 0 0 0 0 0
X 1 51
A 1611 10 0 0 1610 6 1600 22 0 0 0 0 0 0 0 0 0 0 0 0
X 1 25
A 1612 10 0 0 1611 6 1600 1 0 0 0 0 0 0 0 0 0 0 0 0
X 1 13
A 1615 1 0 1 812 1155 2488 0 0 0 0 0 0 0 0 0 0 0 0 0
A 1616 10 0 0 118 6 1615 4 0 0 0 0 0 0 0 0 0 0 0 0
X 1 37
A 1617 10 0 0 1616 6 1615 7 0 0 0 0 0 0 0 0 0 0 0 0
X 1 39
A 1618 4 0 0 468 6 1617 0 3 0 0 0 0 2 0 0 0 0 0 0
A 1619 4 0 0 455 6 1616 0 1618 0 0 0 0 1 0 0 0 0 0 0
A 1620 10 0 0 1617 6 1615 13 0 0 0 0 0 0 0 0 0 0 0 0
X 1 45
A 1621 10 0 0 1620 6 1615 16 0 0 0 0 0 0 0 0 0 0 0 0
X 1 47
A 1622 4 0 0 1203 6 1621 0 3 0 0 0 0 2 0 0 0 0 0 0
A 1623 4 0 0 1577 6 1620 0 1622 0 0 0 0 1 0 0 0 0 0 0
A 1624 10 0 0 1621 6 1615 10 0 0 0 0 0 0 0 0 0 0 0 0
X 1 43
A 1625 10 0 0 1624 6 1615 19 0 0 0 0 0 0 0 0 0 0 0 0
X 1 51
A 1626 10 0 0 1625 6 1615 22 0 0 0 0 0 0 0 0 0 0 0 0
X 1 25
A 1627 10 0 0 1626 6 1615 1 0 0 0 0 0 0 0 0 0 0 0 0
X 1 13
A 1632 1 0 7 1419 1161 2497 0 0 0 0 0 0 0 0 0 0 0 0 0
A 1633 10 0 0 647 6 1632 4 0 0 0 0 0 0 0 0 0 0 0 0
X 1 37
A 1634 10 0 0 1633 6 1632 7 0 0 0 0 0 0 0 0 0 0 0 0
X 1 39
A 1635 4 0 0 1578 6 1634 0 3 0 0 0 0 2 0 0 0 0 0 0
A 1636 4 0 0 338 6 1633 0 1635 0 0 0 0 1 0 0 0 0 0 0
A 1637 10 0 0 1634 6 1632 13 0 0 0 0 0 0 0 0 0 0 0 0
X 1 45
A 1638 10 0 0 1637 6 1632 16 0 0 0 0 0 0 0 0 0 0 0 0
X 1 47
A 1639 4 0 0 1128 6 1638 0 3 0 0 0 0 2 0 0 0 0 0 0
A 1640 4 0 0 1615 6 1637 0 1639 0 0 0 0 1 0 0 0 0 0 0
A 1641 10 0 0 1638 6 1632 25 0 0 0 0 0 0 0 0 0 0 0 0
X 1 986
A 1642 10 0 0 1641 6 1632 28 0 0 0 0 0 0 0 0 0 0 0 0
X 1 988
A 1643 4 0 0 610 6 1642 0 3 0 0 0 0 2 0 0 0 0 0 0
A 1644 4 0 0 983 6 1641 0 1643 0 0 0 0 1 0 0 0 0 0 0
A 1645 10 0 0 1642 6 1632 34 0 0 0 0 0 0 0 0 0 0 0 0
X 1 1372
A 1646 10 0 0 1645 6 1632 37 0 0 0 0 0 0 0 0 0 0 0 0
X 1 1374
A 1647 4 0 0 1038 6 1646 0 3 0 0 0 0 2 0 0 0 0 0 0
A 1648 4 0 0 820 6 1645 0 1647 0 0 0 0 1 0 0 0 0 0 0
A 1649 10 0 0 1646 6 1632 10 0 0 0 0 0 0 0 0 0 0 0 0
X 1 43
A 1650 10 0 0 1649 6 1632 19 0 0 0 0 0 0 0 0 0 0 0 0
X 1 51
A 1651 10 0 0 1650 6 1632 31 0 0 0 0 0 0 0 0 0 0 0 0
X 1 992
A 1652 10 0 0 1651 6 1632 40 0 0 0 0 0 0 0 0 0 0 0 0
X 1 1378
A 1653 10 0 0 1652 6 1632 22 0 0 0 0 0 0 0 0 0 0 0 0
X 1 25
A 1654 10 0 0 1653 6 1632 1 0 0 0 0 0 0 0 0 0 0 0 0
X 1 13
A 1658 1 0 5 1452 1167 2505 0 0 0 0 0 0 0 0 0 0 0 0 0
A 1659 10 0 0 0 6 1658 4 0 0 0 0 0 0 0 0 0 0 0 0
X 1 37
A 1660 10 0 0 1659 6 1658 7 0 0 0 0 0 0 0 0 0 0 0 0
X 1 39
A 1661 4 0 0 30 6 1660 0 3 0 0 0 0 2 0 0 0 0 0 0
A 1662 4 0 0 1037 6 1659 0 1661 0 0 0 0 1 0 0 0 0 0 0
A 1663 10 0 0 1660 6 1658 13 0 0 0 0 0 0 0 0 0 0 0 0
X 1 45
A 1664 10 0 0 1663 6 1658 16 0 0 0 0 0 0 0 0 0 0 0 0
X 1 47
A 1665 4 0 0 1508 6 1664 0 3 0 0 0 0 2 0 0 0 0 0 0
A 1666 4 0 0 672 6 1663 0 1665 0 0 0 0 1 0 0 0 0 0 0
A 1667 10 0 0 1664 6 1658 25 0 0 0 0 0 0 0 0 0 0 0 0
X 1 986
A 1668 10 0 0 1667 6 1658 28 0 0 0 0 0 0 0 0 0 0 0 0
X 1 988
A 1669 4 0 0 996 6 1668 0 3 0 0 0 0 2 0 0 0 0 0 0
A 1670 4 0 0 1188 6 1667 0 1669 0 0 0 0 1 0 0 0 0 0 0
A 1671 10 0 0 1668 6 1658 10 0 0 0 0 0 0 0 0 0 0 0 0
X 1 43
A 1672 10 0 0 1671 6 1658 19 0 0 0 0 0 0 0 0 0 0 0 0
X 1 51
A 1673 10 0 0 1672 6 1658 31 0 0 0 0 0 0 0 0 0 0 0 0
X 1 992
A 1674 10 0 0 1673 6 1658 22 0 0 0 0 0 0 0 0 0 0 0 0
X 1 25
A 1675 10 0 0 1674 6 1658 1 0 0 0 0 0 0 0 0 0 0 0 0
X 1 13
A 1678 1 0 1 1147 1191 2513 0 0 0 0 0 0 0 0 0 0 0 0 0
A 1679 10 0 0 1080 6 1678 4 0 0 0 0 0 0 0 0 0 0 0 0
X 1 37
A 1680 10 0 0 1679 6 1678 7 0 0 0 0 0 0 0 0 0 0 0 0
X 1 39
A 1681 4 0 0 528 6 1680 0 3 0 0 0 0 2 0 0 0 0 0 0
A 1682 4 0 0 544 6 1679 0 1681 0 0 0 0 1 0 0 0 0 0 0
A 1683 10 0 0 1680 6 1678 13 0 0 0 0 0 0 0 0 0 0 0 0
X 1 45
A 1684 10 0 0 1683 6 1678 16 0 0 0 0 0 0 0 0 0 0 0 0
X 1 47
A 1685 4 0 0 1365 6 1684 0 3 0 0 0 0 2 0 0 0 0 0 0
A 1686 4 0 0 532 6 1683 0 1685 0 0 0 0 1 0 0 0 0 0 0
A 1687 10 0 0 1684 6 1678 10 0 0 0 0 0 0 0 0 0 0 0 0
X 1 43
A 1688 10 0 0 1687 6 1678 19 0 0 0 0 0 0 0 0 0 0 0 0
X 1 51
A 1689 10 0 0 1688 6 1678 22 0 0 0 0 0 0 0 0 0 0 0 0
X 1 25
A 1690 10 0 0 1689 6 1678 1 0 0 0 0 0 0 0 0 0 0 0 0
X 1 13
A 1693 1 0 1 1404 1197 2520 0 0 0 0 0 0 0 0 0 0 0 0 0
A 1694 10 0 0 1666 6 1693 4 0 0 0 0 0 0 0 0 0 0 0 0
X 1 37
A 1695 10 0 0 1694 6 1693 7 0 0 0 0 0 0 0 0 0 0 0 0
X 1 39
A 1696 4 0 0 80 6 1695 0 3 0 0 0 0 2 0 0 0 0 0 0
A 1697 4 0 0 0 6 1694 0 1696 0 0 0 0 1 0 0 0 0 0 0
A 1698 10 0 0 1695 6 1693 13 0 0 0 0 0 0 0 0 0 0 0 0
X 1 45
A 1699 10 0 0 1698 6 1693 16 0 0 0 0 0 0 0 0 0 0 0 0
X 1 47
A 1700 4 0 0 799 6 1699 0 3 0 0 0 0 2 0 0 0 0 0 0
A 1701 4 0 0 1512 6 1698 0 1700 0 0 0 0 1 0 0 0 0 0 0
A 1702 10 0 0 1699 6 1693 10 0 0 0 0 0 0 0 0 0 0 0 0
X 1 43
A 1703 10 0 0 1702 6 1693 19 0 0 0 0 0 0 0 0 0 0 0 0
X 1 51
A 1704 10 0 0 1703 6 1693 22 0 0 0 0 0 0 0 0 0 0 0 0
X 1 25
A 1705 10 0 0 1704 6 1693 1 0 0 0 0 0 0 0 0 0 0 0 0
X 1 13
A 1710 1 0 7 1585 1203 2529 0 0 0 0 0 0 0 0 0 0 0 0 0
A 1711 10 0 0 711 6 1710 4 0 0 0 0 0 0 0 0 0 0 0 0
X 1 37
A 1712 10 0 0 1711 6 1710 7 0 0 0 0 0 0 0 0 0 0 0 0
X 1 39
A 1713 4 0 0 1192 6 1712 0 3 0 0 0 0 2 0 0 0 0 0 0
A 1714 4 0 0 305 6 1711 0 1713 0 0 0 0 1 0 0 0 0 0 0
A 1715 10 0 0 1712 6 1710 13 0 0 0 0 0 0 0 0 0 0 0 0
X 1 45
A 1716 10 0 0 1715 6 1710 16 0 0 0 0 0 0 0 0 0 0 0 0
X 1 47
A 1717 4 0 0 548 6 1716 0 3 0 0 0 0 2 0 0 0 0 0 0
A 1718 4 0 0 287 6 1715 0 1717 0 0 0 0 1 0 0 0 0 0 0
A 1719 10 0 0 1716 6 1710 25 0 0 0 0 0 0 0 0 0 0 0 0
X 1 986
A 1720 10 0 0 1719 6 1710 28 0 0 0 0 0 0 0 0 0 0 0 0
X 1 988
A 1721 4 0 0 1200 6 1720 0 3 0 0 0 0 2 0 0 0 0 0 0
A 1722 4 0 0 0 6 1719 0 1721 0 0 0 0 1 0 0 0 0 0 0
A 1723 10 0 0 1720 6 1710 34 0 0 0 0 0 0 0 0 0 0 0 0
X 1 1372
A 1724 10 0 0 1723 6 1710 37 0 0 0 0 0 0 0 0 0 0 0 0
X 1 1374
A 1725 4 0 0 558 6 1724 0 3 0 0 0 0 2 0 0 0 0 0 0
A 1726 4 0 0 1491 6 1723 0 1725 0 0 0 0 1 0 0 0 0 0 0
A 1727 10 0 0 1724 6 1710 10 0 0 0 0 0 0 0 0 0 0 0 0
X 1 43
A 1728 10 0 0 1727 6 1710 19 0 0 0 0 0 0 0 0 0 0 0 0
X 1 51
A 1729 10 0 0 1728 6 1710 31 0 0 0 0 0 0 0 0 0 0 0 0
X 1 992
A 1730 10 0 0 1729 6 1710 40 0 0 0 0 0 0 0 0 0 0 0 0
X 1 1378
A 1731 10 0 0 1730 6 1710 22 0 0 0 0 0 0 0 0 0 0 0 0
X 1 25
A 1732 10 0 0 1731 6 1710 1 0 0 0 0 0 0 0 0 0 0 0 0
X 1 13
A 1736 1 0 5 838 1209 2537 0 0 0 0 0 0 0 0 0 0 0 0 0
A 1737 10 0 0 1500 6 1736 4 0 0 0 0 0 0 0 0 0 0 0 0
X 1 37
A 1738 10 0 0 1737 6 1736 7 0 0 0 0 0 0 0 0 0 0 0 0
X 1 39
A 1739 4 0 0 198 6 1738 0 3 0 0 0 0 2 0 0 0 0 0 0
A 1740 4 0 0 1204 6 1737 0 1739 0 0 0 0 1 0 0 0 0 0 0
A 1741 10 0 0 1738 6 1736 13 0 0 0 0 0 0 0 0 0 0 0 0
X 1 45
A 1742 10 0 0 1741 6 1736 16 0 0 0 0 0 0 0 0 0 0 0 0
X 1 47
A 1743 4 0 0 202 6 1742 0 3 0 0 0 0 2 0 0 0 0 0 0
A 1744 4 0 0 1370 6 1741 0 1743 0 0 0 0 1 0 0 0 0 0 0
A 1745 10 0 0 1742 6 1736 25 0 0 0 0 0 0 0 0 0 0 0 0
X 1 986
A 1746 10 0 0 1745 6 1736 28 0 0 0 0 0 0 0 0 0 0 0 0
X 1 988
A 1747 4 0 0 0 6 1746 0 3 0 0 0 0 2 0 0 0 0 0 0
A 1748 4 0 0 416 6 1745 0 1747 0 0 0 0 1 0 0 0 0 0 0
A 1749 10 0 0 1746 6 1736 10 0 0 0 0 0 0 0 0 0 0 0 0
X 1 43
A 1750 10 0 0 1749 6 1736 19 0 0 0 0 0 0 0 0 0 0 0 0
X 1 51
A 1751 10 0 0 1750 6 1736 31 0 0 0 0 0 0 0 0 0 0 0 0
X 1 992
A 1752 10 0 0 1751 6 1736 22 0 0 0 0 0 0 0 0 0 0 0 0
X 1 25
A 1753 10 0 0 1752 6 1736 1 0 0 0 0 0 0 0 0 0 0 0 0
X 1 13
A 1755 1 0 3 1507 1223 2547 0 0 0 0 0 0 0 0 0 0 0 0 0
A 1756 10 0 0 717 6 1755 4 0 0 0 0 0 0 0 0 0 0 0 0
X 1 37
A 1757 10 0 0 1756 6 1755 7 0 0 0 0 0 0 0 0 0 0 0 0
X 1 39
A 1758 4 0 0 215 6 1757 0 3 0 0 0 0 2 0 0 0 0 0 0
A 1759 4 0 0 258 6 1756 0 1758 0 0 0 0 1 0 0 0 0 0 0
A 1760 10 0 0 1757 6 1755 10 0 0 0 0 0 0 0 0 0 0 0 0
X 1 43
A 1761 10 0 0 1760 6 1755 22 0 0 0 0 0 0 0 0 0 0 0 0
X 1 25
A 1762 10 0 0 1761 6 1755 1 0 0 0 0 0 0 0 0 0 0 0 0
X 1 13
A 1765 1 0 1 936 1229 2554 0 0 0 0 0 0 0 0 0 0 0 0 0
A 1766 10 0 0 530 6 1765 4 0 0 0 0 0 0 0 0 0 0 0 0
X 1 37
A 1767 10 0 0 1766 6 1765 7 0 0 0 0 0 0 0 0 0 0 0 0
X 1 39
A 1768 4 0 0 1257 6 1767 0 3 0 0 0 0 2 0 0 0 0 0 0
A 1769 4 0 0 1632 6 1766 0 1768 0 0 0 0 1 0 0 0 0 0 0
A 1770 10 0 0 1767 6 1765 13 0 0 0 0 0 0 0 0 0 0 0 0
X 1 45
A 1771 10 0 0 1770 6 1765 16 0 0 0 0 0 0 0 0 0 0 0 0
X 1 47
A 1772 4 0 0 766 6 1771 0 3 0 0 0 0 2 0 0 0 0 0 0
A 1773 4 0 0 1270 6 1770 0 1772 0 0 0 0 1 0 0 0 0 0 0
A 1774 10 0 0 1771 6 1765 10 0 0 0 0 0 0 0 0 0 0 0 0
X 1 43
A 1775 10 0 0 1774 6 1765 19 0 0 0 0 0 0 0 0 0 0 0 0
X 1 51
A 1776 10 0 0 1775 6 1765 22 0 0 0 0 0 0 0 0 0 0 0 0
X 1 25
A 1777 10 0 0 1776 6 1765 1 0 0 0 0 0 0 0 0 0 0 0 0
X 1 13
A 1779 1 0 3 1559 1235 2560 0 0 0 0 0 0 0 0 0 0 0 0 0
A 1780 10 0 0 538 6 1779 4 0 0 0 0 0 0 0 0 0 0 0 0
X 1 37
A 1781 10 0 0 1780 6 1779 7 0 0 0 0 0 0 0 0 0 0 0 0
X 1 39
A 1782 4 0 0 1261 6 1781 0 3 0 0 0 0 2 0 0 0 0 0 0
A 1783 4 0 0 1032 6 1780 0 1782 0 0 0 0 1 0 0 0 0 0 0
A 1784 10 0 0 1781 6 1779 10 0 0 0 0 0 0 0 0 0 0 0 0
X 1 43
A 1785 10 0 0 1784 6 1779 22 0 0 0 0 0 0 0 0 0 0 0 0
X 1 25
A 1786 10 0 0 1785 6 1779 1 0 0 0 0 0 0 0 0 0 0 0 0
X 1 13
A 1789 1 0 1 837 1241 2567 0 0 0 0 0 0 0 0 0 0 0 0 0
A 1790 10 0 0 0 6 1789 4 0 0 0 0 0 0 0 0 0 0 0 0
X 1 37
A 1791 10 0 0 1790 6 1789 7 0 0 0 0 0 0 0 0 0 0 0 0
X 1 39
A 1792 4 0 0 795 6 1791 0 3 0 0 0 0 2 0 0 0 0 0 0
A 1793 4 0 0 1516 6 1790 0 1792 0 0 0 0 1 0 0 0 0 0 0
A 1794 10 0 0 1791 6 1789 13 0 0 0 0 0 0 0 0 0 0 0 0
X 1 45
A 1795 10 0 0 1794 6 1789 16 0 0 0 0 0 0 0 0 0 0 0 0
X 1 47
A 1796 4 0 0 896 6 1795 0 3 0 0 0 0 2 0 0 0 0 0 0
A 1797 4 0 0 1748 6 1794 0 1796 0 0 0 0 1 0 0 0 0 0 0
A 1798 10 0 0 1795 6 1789 10 0 0 0 0 0 0 0 0 0 0 0 0
X 1 43
A 1799 10 0 0 1798 6 1789 19 0 0 0 0 0 0 0 0 0 0 0 0
X 1 51
A 1800 10 0 0 1799 6 1789 22 0 0 0 0 0 0 0 0 0 0 0 0
X 1 25
A 1801 10 0 0 1800 6 1789 1 0 0 0 0 0 0 0 0 0 0 0 0
X 1 13
A 1803 1 0 3 0 1247 2573 0 0 0 0 0 0 0 0 0 0 0 0 0
A 1804 10 0 0 557 6 1803 4 0 0 0 0 0 0 0 0 0 0 0 0
X 1 37
A 1805 10 0 0 1804 6 1803 7 0 0 0 0 0 0 0 0 0 0 0 0
X 1 39
A 1806 4 0 0 1285 6 1805 0 3 0 0 0 0 2 0 0 0 0 0 0
A 1807 4 0 0 746 6 1804 0 1806 0 0 0 0 1 0 0 0 0 0 0
A 1808 10 0 0 1805 6 1803 10 0 0 0 0 0 0 0 0 0 0 0 0
X 1 43
A 1809 10 0 0 1808 6 1803 22 0 0 0 0 0 0 0 0 0 0 0 0
X 1 25
A 1810 10 0 0 1809 6 1803 1 0 0 0 0 0 0 0 0 0 0 0 0
X 1 13
A 1820 1 0 3 1777 1253 2588 0 0 0 0 0 0 0 0 0 0 0 0 0
A 1821 10 0 0 1743 6 1820 4 0 0 0 0 0 0 0 0 0 0 0 0
X 1 37
A 1822 10 0 0 1821 6 1820 7 0 0 0 0 0 0 0 0 0 0 0 0
X 1 39
A 1823 4 0 0 255 6 1822 0 3 0 0 0 0 2 0 0 0 0 0 0
A 1824 4 0 0 0 6 1821 0 1823 0 0 0 0 1 0 0 0 0 0 0
A 1825 10 0 0 1822 6 1820 10 0 0 0 0 0 0 0 0 0 0 0 0
X 1 43
A 1826 10 0 0 1825 6 1820 22 0 0 0 0 0 0 0 0 0 0 0 0
X 1 25
A 1827 10 0 0 1826 6 1820 1 0 0 0 0 0 0 0 0 0 0 0 0
X 1 13
A 1828 1 0 0 1141 6 2675 0 0 0 0 0 0 0 0 0 0 0 0 0
A 1829 1 0 0 1354 6 2678 0 0 0 0 0 0 0 0 0 0 0 0 0
Z
T 2117 821 0 3 0 0
A 2118 827 0 0 1 1558 1
A 2119 827 0 0 1 1558 1
A 2120 827 0 0 1 1558 1
A 2121 827 0 0 1 1558 1
A 2122 827 0 0 1 1558 1
A 2123 827 0 0 1 1558 1
A 2124 827 0 0 1 1558 0
T 2463 1128 0 0 0 0
A 2468 7 1170 0 1 2 1
A 2475 7 1172 0 1 2 1
A 2482 7 1174 0 1 2 1
A 2489 7 1176 0 1 2 1
A 2498 7 1178 0 1 2 1
A 2506 7 1180 0 1 2 0
T 2509 1182 0 0 0 0
A 2514 7 1212 0 1 2 1
A 2521 7 1214 0 1 2 1
A 2530 7 1216 0 1 2 1
A 2538 7 1218 0 1 2 0
Z
