V26 spin_orb
9 pwcom.F90 S582 0
04/24/2012  15:53:20
use parameters private
use kinds private
use parameters private
use kinds private
enduse
D 56 21 16 1 3 18 0 0 0 0 0
 0 18 3 3 18 18
D 59 21 12 2 13 35 0 0 0 0 0
 0 25 3 3 25 25
 0 25 25 3 25 25
D 62 21 12 5 84 83 0 1 0 0 1
 44 48 74 44 48 46
 50 54 76 50 54 52
 56 60 78 56 60 58
 62 66 80 62 66 64
 68 72 82 68 72 70
D 65 21 6 1 0 41 0 0 0 0 0
 0 41 0 3 41 0
S 582 24 0 0 0 9 1 0 4658 5 0 A 0 0 0 0 0 0 0 0 0 0 0 0 543 0 0 0 0 0 0 0 0 526 0 0 0 0 0 0 spin_orb
S 584 23 0 0 0 9 590 582 4673 4 0 A 0 0 0 0 0 0 0 0 0 0 0 0 0 0 0 0 0 0 0 0 0 0 0 582 0 0 0 0 dp
S 586 23 0 0 0 6 606 582 4687 4 0 A 0 0 0 0 0 0 0 0 0 0 0 0 0 0 0 0 0 0 0 0 0 0 0 582 0 0 0 0 lmaxx
S 587 23 0 0 0 6 604 582 4693 4 0 A 0 0 0 0 0 0 0 0 0 0 0 0 0 0 0 0 0 0 0 0 0 0 0 582 0 0 0 0 npsx
S 588 3 0 0 0 6 1 1 0 0 0 A 0 0 0 0 0 0 0 0 0 8 0 0 0 0 0 0 0 0 0 0 0 0 0 0 0 0 0 0 6
R 590 16 1 kinds dp
S 597 3 0 0 0 6 1 1 0 0 0 A 0 0 0 0 0 0 0 0 0 10 0 0 0 0 0 0 0 0 0 0 0 0 0 0 0 0 0 0 6
S 601 3 0 0 0 6 1 1 0 0 0 A 0 0 0 0 0 0 0 0 0 7 0 0 0 0 0 0 0 0 0 0 0 0 0 0 0 0 0 0 6
R 604 16 2 parameters npsx
R 606 16 4 parameters lmaxx
S 614 6 4 0 0 16 615 582 4784 4 0 A 0 0 0 0 0 0 0 0 0 0 0 0 646 0 0 0 0 0 0 0 0 0 0 582 0 0 0 0 lspinorb
S 615 6 4 0 0 16 616 582 4793 4 0 A 0 0 0 0 0 4 0 0 0 0 0 0 646 0 0 0 0 0 0 0 0 0 0 582 0 0 0 0 domag
S 616 7 4 0 4 56 617 582 4799 800004 100 A 0 0 0 0 0 16 0 0 0 0 0 0 646 0 0 0 0 0 0 0 0 0 0 582 0 0 0 0 so
S 617 7 4 0 4 59 621 582 4802 800004 100 A 0 0 0 0 0 64 0 0 0 0 0 0 646 0 0 0 0 0 0 0 0 0 0 582 0 0 0 0 rot_ylm
S 619 3 0 0 0 6 0 1 0 0 0 A 0 0 0 0 0 0 0 0 0 49 0 0 0 0 0 0 0 0 0 0 0 0 0 0 0 0 0 0 6
S 620 7 6 0 0 62 1 582 4810 10a00004 51 A 0 0 0 0 0 0 628 0 0 0 630 0 0 0 0 0 0 0 0 627 0 0 629 582 0 0 0 0 fcoef
S 621 6 4 0 0 6 622 582 4816 40800006 0 A 0 0 0 0 0 848 0 0 0 0 0 0 646 0 0 0 0 0 0 0 0 0 0 582 0 0 0 0 z_b_0
S 622 6 4 0 0 6 623 582 4822 40800006 0 A 0 0 0 0 0 852 0 0 0 0 0 0 646 0 0 0 0 0 0 0 0 0 0 582 0 0 0 0 z_b_1
S 623 6 4 0 0 6 624 582 4828 40800006 0 A 0 0 0 0 0 856 0 0 0 0 0 0 646 0 0 0 0 0 0 0 0 0 0 582 0 0 0 0 z_b_2
S 624 6 4 0 0 6 625 582 4834 40800006 0 A 0 0 0 0 0 860 0 0 0 0 0 0 646 0 0 0 0 0 0 0 0 0 0 582 0 0 0 0 z_b_3
S 625 6 4 0 0 6 1 582 4840 40800006 0 A 0 0 0 0 0 864 0 0 0 0 0 0 646 0 0 0 0 0 0 0 0 0 0 582 0 0 0 0 z_b_4
S 626 3 0 0 0 6 0 1 0 0 0 A 0 0 0 0 0 0 0 0 0 42 0 0 0 0 0 0 0 0 0 0 0 0 0 0 0 0 0 0 6
S 627 8 4 0 0 65 614 582 4846 40822064 1020 A 0 0 0 0 0 0 0 0 0 0 0 0 646 0 0 0 0 0 0 0 0 0 0 582 0 0 0 0 fcoef$sd
S 628 6 4 0 0 7 629 582 4855 40802061 1020 A 0 0 0 0 0 168 0 0 0 0 0 0 646 0 0 0 0 0 0 0 0 0 0 582 0 0 0 0 fcoef$p
S 629 6 4 0 0 7 627 582 4863 40802060 1020 A 0 0 0 0 0 176 0 0 0 0 0 0 646 0 0 0 0 0 0 0 0 0 0 582 0 0 0 0 fcoef$o
S 630 22 1 0 0 9 1 582 4871 40000000 1000 A 0 0 0 0 0 0 0 620 0 0 0 0 627 0 0 0 0 0 0 0 0 0 0 582 0 0 0 0 fcoef$arrdsc
S 631 3 0 0 0 6 0 1 0 0 0 A 0 0 0 0 0 0 0 0 0 13 0 0 0 0 0 0 0 0 0 0 0 0 0 0 0 0 0 0 6
S 632 3 0 0 0 6 0 1 0 0 0 A 0 0 0 0 0 0 0 0 0 14 0 0 0 0 0 0 0 0 0 0 0 0 0 0 0 0 0 0 6
S 633 3 0 0 0 6 0 1 0 0 0 A 0 0 0 0 0 0 0 0 0 19 0 0 0 0 0 0 0 0 0 0 0 0 0 0 0 0 0 0 6
S 634 3 0 0 0 6 0 1 0 0 0 A 0 0 0 0 0 0 0 0 0 20 0 0 0 0 0 0 0 0 0 0 0 0 0 0 0 0 0 0 6
S 635 3 0 0 0 6 0 1 0 0 0 A 0 0 0 0 0 0 0 0 0 25 0 0 0 0 0 0 0 0 0 0 0 0 0 0 0 0 0 0 6
S 636 3 0 0 0 6 0 1 0 0 0 A 0 0 0 0 0 0 0 0 0 26 0 0 0 0 0 0 0 0 0 0 0 0 0 0 0 0 0 0 6
S 637 3 0 0 0 6 0 1 0 0 0 A 0 0 0 0 0 0 0 0 0 31 0 0 0 0 0 0 0 0 0 0 0 0 0 0 0 0 0 0 6
S 638 3 0 0 0 6 0 1 0 0 0 A 0 0 0 0 0 0 0 0 0 32 0 0 0 0 0 0 0 0 0 0 0 0 0 0 0 0 0 0 6
S 639 3 0 0 0 6 0 1 0 0 0 A 0 0 0 0 0 0 0 0 0 37 0 0 0 0 0 0 0 0 0 0 0 0 0 0 0 0 0 0 6
S 640 3 0 0 0 6 0 1 0 0 0 A 0 0 0 0 0 0 0 0 0 38 0 0 0 0 0 0 0 0 0 0 0 0 0 0 0 0 0 0 6
S 641 3 0 0 0 6 0 1 0 0 0 A 0 0 0 0 0 0 0 0 0 17 0 0 0 0 0 0 0 0 0 0 0 0 0 0 0 0 0 0 6
S 642 3 0 0 0 6 0 1 0 0 0 A 0 0 0 0 0 0 0 0 0 23 0 0 0 0 0 0 0 0 0 0 0 0 0 0 0 0 0 0 6
S 643 3 0 0 0 6 0 1 0 0 0 A 0 0 0 0 0 0 0 0 0 29 0 0 0 0 0 0 0 0 0 0 0 0 0 0 0 0 0 0 6
S 644 3 0 0 0 6 0 1 0 0 0 A 0 0 0 0 0 0 0 0 0 35 0 0 0 0 0 0 0 0 0 0 0 0 0 0 0 0 0 0 6
S 645 3 0 0 0 6 0 1 0 0 0 A 0 0 0 0 0 0 0 0 0 41 0 0 0 0 0 0 0 0 0 0 0 0 0 0 0 0 0 0 6
S 646 11 0 0 4 9 1 582 4884 40800000 801000 A 0 0 0 0 0 1052 0 0 628 625 0 0 0 0 0 0 0 0 0 0 0 0 0 0 0 0 0 0 _spin_orb$0
A 13 2 0 0 0 6 588 0 0 0 13 0 0 0 0 0 0 0 0 0
A 18 2 0 0 0 6 597 0 0 0 18 0 0 0 0 0 0 0 0 0
A 25 2 0 0 0 6 601 0 0 0 25 0 0 0 0 0 0 0 0 0
A 35 2 0 0 0 6 619 0 0 0 35 0 0 0 0 0 0 0 0 0
A 41 2 0 0 0 6 626 0 0 0 41 0 0 0 0 0 0 0 0 0
A 42 2 0 0 0 6 631 0 0 0 42 0 0 0 0 0 0 0 0 0
A 43 1 0 1 0 65 627 0 0 0 0 0 0 0 0 0 0 0 0 0
A 44 10 0 0 0 6 43 1 0 0 0 0 0 0 0 0 0 0 0 0
X 1 42
A 45 2 0 0 0 6 632 0 0 0 45 0 0 0 0 0 0 0 0 0
A 46 10 0 0 44 6 43 4 0 0 0 0 0 0 0 0 0 0 0 0
X 1 45
A 47 4 0 0 0 6 46 0 3 0 0 0 0 2 0 0 0 0 0 0
A 48 4 0 0 0 6 44 0 47 0 0 0 0 1 0 0 0 0 0 0
A 49 2 0 0 0 6 633 0 0 0 49 0 0 0 0 0 0 0 0 0
A 50 10 0 0 46 6 43 7 0 0 0 0 0 0 0 0 0 0 0 0
X 1 49
A 51 2 0 0 0 6 634 0 0 0 51 0 0 0 0 0 0 0 0 0
A 52 10 0 0 50 6 43 10 0 0 0 0 0 0 0 0 0 0 0 0
X 1 51
A 53 4 0 0 0 6 52 0 3 0 0 0 0 2 0 0 0 0 0 0
A 54 4 0 0 0 6 50 0 53 0 0 0 0 1 0 0 0 0 0 0
A 55 2 0 0 0 6 635 0 0 0 55 0 0 0 0 0 0 0 0 0
A 56 10 0 0 52 6 43 13 0 0 0 0 0 0 0 0 0 0 0 0
X 1 55
A 57 2 0 0 0 6 636 0 0 0 57 0 0 0 0 0 0 0 0 0
A 58 10 0 0 56 6 43 16 0 0 0 0 0 0 0 0 0 0 0 0
X 1 57
A 59 4 0 0 0 6 58 0 3 0 0 0 0 2 0 0 0 0 0 0
A 60 4 0 0 0 6 56 0 59 0 0 0 0 1 0 0 0 0 0 0
A 61 2 0 0 0 6 637 0 0 0 61 0 0 0 0 0 0 0 0 0
A 62 10 0 0 58 6 43 19 0 0 0 0 0 0 0 0 0 0 0 0
X 1 61
A 63 2 0 0 0 6 638 0 0 0 63 0 0 0 0 0 0 0 0 0
A 64 10 0 0 62 6 43 22 0 0 0 0 0 0 0 0 0 0 0 0
X 1 63
A 65 4 0 0 0 6 64 0 3 0 0 0 0 2 0 0 0 0 0 0
A 66 4 0 0 0 6 62 0 65 0 0 0 0 1 0 0 0 0 0 0
A 67 2 0 0 0 6 639 0 0 0 67 0 0 0 0 0 0 0 0 0
A 68 10 0 0 64 6 43 25 0 0 0 0 0 0 0 0 0 0 0 0
X 1 67
A 69 2 0 0 0 6 640 0 0 0 69 0 0 0 0 0 0 0 0 0
A 70 10 0 0 68 6 43 28 0 0 0 0 0 0 0 0 0 0 0 0
X 1 69
A 71 4 0 0 0 6 70 0 3 0 0 0 0 2 0 0 0 0 0 0
A 72 4 0 0 0 6 68 0 71 0 0 0 0 1 0 0 0 0 0 0
A 73 2 0 0 0 6 641 0 0 0 73 0 0 0 0 0 0 0 0 0
A 74 10 0 0 70 6 43 31 0 0 0 0 0 0 0 0 0 0 0 0
X 1 73
A 75 2 0 0 0 6 642 0 0 0 75 0 0 0 0 0 0 0 0 0
A 76 10 0 0 74 6 43 34 0 0 0 0 0 0 0 0 0 0 0 0
X 1 75
A 77 2 0 0 0 6 643 0 0 0 77 0 0 0 0 0 0 0 0 0
A 78 10 0 0 76 6 43 37 0 0 0 0 0 0 0 0 0 0 0 0
X 1 77
A 79 2 0 0 0 6 644 0 0 0 79 0 0 0 0 0 0 0 0 0
A 80 10 0 0 78 6 43 40 0 0 0 0 0 0 0 0 0 0 0 0
X 1 79
A 81 2 0 0 0 6 645 0 0 0 81 0 0 0 0 0 0 0 0 0
A 82 10 0 0 80 6 43 43 0 0 0 0 0 0 0 0 0 0 0 0
X 1 81
A 83 10 0 0 82 6 43 46 0 0 0 0 0 0 0 0 0 0 0 0
X 1 25
A 84 10 0 0 83 6 43 49 0 0 0 0 0 0 0 0 0 0 0 0
X 1 13
Z
Z
