V26 symme
9 pwcom.F90 S582 0
04/24/2012  15:53:20
use kinds private
use kinds private
enduse
D 56 21 6 3 21 20 0 0 0 0 0
 0 17 3 3 17 17
 0 17 17 3 17 17
 0 18 19 3 18 18
D 59 21 6 2 15 22 0 0 0 0 0
 0 17 3 3 17 17
 0 18 17 3 18 18
D 62 21 6 1 3 18 0 0 0 0 0
 0 18 3 3 18 18
D 65 21 6 2 45 44 0 1 0 0 1
 28 32 40 28 32 30
 34 38 42 34 38 36
D 68 21 6 1 0 26 0 0 0 0 0
 0 26 0 3 26 0
D 71 21 9 3 21 20 0 0 0 0 0
 0 17 3 3 17 17
 0 17 17 3 17 17
 0 18 19 3 18 18
D 74 21 9 3 51 50 0 0 0 0 0
 0 48 3 3 48 48
 0 48 48 3 48 48
 0 18 49 3 18 18
D 77 21 9 3 54 53 0 0 0 0 0
 0 43 3 3 43 43
 0 43 43 3 43 43
 0 18 52 3 18 18
S 582 24 0 0 0 9 1 0 4658 10005 0 A 0 0 0 0 0 0 0 0 0 0 0 0 219 0 0 0 0 0 0 0 0 195 0 0 0 0 0 0 symme
S 584 23 0 0 0 9 587 582 4670 4 0 A 0 0 0 0 0 0 0 0 0 0 0 0 0 0 0 0 0 0 0 0 0 0 0 582 0 0 0 0 dp
S 585 3 0 0 0 6 1 1 0 0 0 A 0 0 0 0 0 0 0 0 0 8 0 0 0 0 0 0 0 0 0 0 0 0 0 0 0 0 0 0 6
S 586 3 0 0 0 6 1 1 0 0 0 A 0 0 0 0 0 0 0 0 0 4 0 0 0 0 0 0 0 0 0 0 0 0 0 0 0 0 0 0 6
R 587 16 1 kinds dp
S 594 7 4 0 4 56 600 582 4704 800004 100 A 0 0 0 0 0 0 0 0 0 0 0 0 631 0 0 0 0 0 0 0 0 0 0 582 0 0 0 0 s
S 595 3 0 0 0 6 0 1 0 0 0 A 0 0 0 0 0 0 0 0 0 3 0 0 0 0 0 0 0 0 0 0 0 0 0 0 0 0 0 0 6
S 596 3 0 0 0 6 0 1 0 0 0 A 0 0 0 0 0 0 0 0 0 48 0 0 0 0 0 0 0 0 0 0 0 0 0 0 0 0 0 0 6
S 597 3 0 0 0 6 0 1 0 0 0 A 0 0 0 0 0 0 0 0 0 9 0 0 0 0 0 0 0 0 0 0 0 0 0 0 0 0 0 0 6
S 598 3 0 0 0 6 0 1 0 0 0 A 0 0 0 0 0 0 0 0 0 432 0 0 0 0 0 0 0 0 0 0 0 0 0 0 0 0 0 0 6
S 599 3 0 0 0 6 0 1 0 0 0 A 0 0 0 0 0 0 0 0 0 13 0 0 0 0 0 0 0 0 0 0 0 0 0 0 0 0 0 0 6
S 600 7 4 0 4 59 602 582 4706 800004 100 A 0 0 0 0 0 1728 0 0 0 0 0 0 631 0 0 0 0 0 0 0 0 0 0 582 0 0 0 0 ftau
S 601 3 0 0 0 6 0 1 0 0 0 A 0 0 0 0 0 0 0 0 0 144 0 0 0 0 0 0 0 0 0 0 0 0 0 0 0 0 0 0 6
S 602 6 4 0 0 6 605 582 4711 4 0 A 0 0 0 0 0 2304 0 0 0 0 0 0 631 0 0 0 0 0 0 0 0 0 0 582 0 0 0 0 nsym
S 603 7 4 0 4 62 618 582 4716 80000c 100 A 0 0 0 0 0 0 0 0 0 0 0 0 632 0 0 0 0 0 0 0 0 0 0 582 0 0 0 0 t_rev
S 604 7 6 0 0 65 1 582 4722 10a00004 51 A 0 0 0 0 0 0 609 0 0 0 611 0 0 0 0 0 0 0 0 608 0 0 610 582 0 0 0 0 irt
S 605 6 4 0 0 6 606 582 4726 40800006 0 A 0 0 0 0 0 2308 0 0 0 0 0 0 631 0 0 0 0 0 0 0 0 0 0 582 0 0 0 0 z_b_0
S 606 6 4 0 0 6 620 582 4732 40800006 0 A 0 0 0 0 0 2312 0 0 0 0 0 0 631 0 0 0 0 0 0 0 0 0 0 582 0 0 0 0 z_b_1
S 607 3 0 0 0 6 0 1 0 0 0 A 0 0 0 0 0 0 0 0 0 24 0 0 0 0 0 0 0 0 0 0 0 0 0 0 0 0 0 0 6
S 608 8 4 0 0 68 594 582 4738 40822064 1020 A 0 0 0 0 0 0 0 0 0 0 0 0 631 0 0 0 0 0 0 0 0 0 0 582 0 0 0 0 irt$sd
S 609 6 4 0 0 7 610 582 4745 40802061 1020 A 0 0 0 0 0 96 0 0 0 0 0 0 631 0 0 0 0 0 0 0 0 0 0 582 0 0 0 0 irt$p
S 610 6 4 0 0 7 608 582 4751 40802060 1020 A 0 0 0 0 0 104 0 0 0 0 0 0 631 0 0 0 0 0 0 0 0 0 0 582 0 0 0 0 irt$o
S 611 22 1 0 0 6 1 582 4757 40000000 1000 A 0 0 0 0 0 0 0 604 0 0 0 0 608 0 0 0 0 0 0 0 0 0 0 582 0 0 0 0 irt$arrdsc
S 612 3 0 0 0 6 0 1 0 0 0 A 0 0 0 0 0 0 0 0 0 14 0 0 0 0 0 0 0 0 0 0 0 0 0 0 0 0 0 0 6
S 613 3 0 0 0 6 0 1 0 0 0 A 0 0 0 0 0 0 0 0 0 19 0 0 0 0 0 0 0 0 0 0 0 0 0 0 0 0 0 0 6
S 614 3 0 0 0 6 0 1 0 0 0 A 0 0 0 0 0 0 0 0 0 20 0 0 0 0 0 0 0 0 0 0 0 0 0 0 0 0 0 0 6
S 615 3 0 0 0 6 0 1 0 0 0 A 0 0 0 0 0 0 0 0 0 17 0 0 0 0 0 0 0 0 0 0 0 0 0 0 0 0 0 0 6
S 616 3 0 0 0 6 0 1 0 0 0 A 0 0 0 0 0 0 0 0 0 23 0 0 0 0 0 0 0 0 0 0 0 0 0 0 0 0 0 0 6
S 617 3 0 0 0 6 0 1 0 0 0 A 0 0 0 0 0 0 0 0 0 7 0 0 0 0 0 0 0 0 0 0 0 0 0 0 0 0 0 0 6
S 618 6 4 0 0 16 1 582 4768 80000c 0 A 0 0 0 0 0 192 0 0 0 0 0 0 632 0 0 0 0 0 0 0 0 0 0 582 0 0 0 0 time_reversal
S 619 3 0 0 0 16 0 1 0 0 0 A 0 0 0 0 0 0 0 0 -1 -1 0 0 0 0 0 0 0 0 0 0 0 0 0 0 0 0 0 0 16
S 620 6 4 0 0 16 1 582 4782 4 0 A 0 0 0 0 0 2316 0 0 0 0 0 0 631 0 0 0 0 0 0 0 0 0 0 582 0 0 0 0 invsym
S 621 7 4 0 4 71 622 582 4789 800004 108 A 0 0 0 0 0 0 0 0 0 0 0 0 633 0 0 0 0 0 0 0 0 0 0 582 0 0 0 0 d1
S 622 7 4 0 4 74 627 582 4792 800004 108 A 0 0 0 0 0 3456 0 0 0 0 0 0 633 0 0 0 0 0 0 0 0 0 0 582 0 0 0 0 d2
S 623 3 0 0 0 6 0 1 0 0 0 A 0 0 0 0 0 0 0 0 0 5 0 0 0 0 0 0 0 0 0 0 0 0 0 0 0 0 0 0 6
S 624 3 0 0 0 6 0 1 0 0 0 A 0 0 0 0 0 0 0 0 0 25 0 0 0 0 0 0 0 0 0 0 0 0 0 0 0 0 0 0 6
S 625 3 0 0 0 6 0 1 0 0 0 A 0 0 0 0 0 0 0 0 0 1200 0 0 0 0 0 0 0 0 0 0 0 0 0 0 0 0 0 0 6
S 626 3 0 0 0 6 0 1 0 0 0 A 0 0 0 0 0 0 0 0 0 31 0 0 0 0 0 0 0 0 0 0 0 0 0 0 0 0 0 0 6
S 627 7 4 0 4 77 1 582 4795 800004 108 A 0 0 0 0 0 13056 0 0 0 0 0 0 633 0 0 0 0 0 0 0 0 0 0 582 0 0 0 0 d3
S 628 3 0 0 0 6 0 1 0 0 0 A 0 0 0 0 0 0 0 0 0 49 0 0 0 0 0 0 0 0 0 0 0 0 0 0 0 0 0 0 6
S 629 3 0 0 0 6 0 1 0 0 0 A 0 0 0 0 0 0 0 0 0 2352 0 0 0 0 0 0 0 0 0 0 0 0 0 0 0 0 0 0 6
S 630 3 0 0 0 6 0 1 0 0 0 A 0 0 0 0 0 0 0 0 0 57 0 0 0 0 0 0 0 0 0 0 0 0 0 0 0 0 0 0 6
S 631 11 0 0 4 9 1 582 4798 40800000 801000 A 0 0 0 0 0 2432 0 0 609 620 0 0 0 0 0 0 0 0 0 0 0 0 0 0 0 0 0 0 _symme$0
S 632 11 0 0 4 9 631 582 4807 40800008 801000 A 0 0 0 0 0 196 0 0 603 618 0 0 0 0 0 0 0 0 0 0 0 0 0 0 0 0 0 0 _symme$8
S 633 11 0 0 4 9 632 582 4816 40800000 801000 A 0 0 0 0 0 31872 0 0 621 627 0 0 0 0 0 0 0 0 0 0 0 0 0 0 0 0 0 0 _symme$2
A 13 2 0 0 0 6 585 0 0 0 13 0 0 0 0 0 0 0 0 0
A 15 2 0 0 0 6 586 0 0 0 15 0 0 0 0 0 0 0 0 0
A 17 2 0 0 0 6 595 0 0 0 17 0 0 0 0 0 0 0 0 0
A 18 2 0 0 0 6 596 0 0 0 18 0 0 0 0 0 0 0 0 0
A 19 2 0 0 0 6 597 0 0 0 19 0 0 0 0 0 0 0 0 0
A 20 2 0 0 0 6 598 0 0 0 20 0 0 0 0 0 0 0 0 0
A 21 2 0 0 0 6 599 0 0 0 21 0 0 0 0 0 0 0 0 0
A 22 2 0 0 0 6 601 0 0 0 22 0 0 0 0 0 0 0 0 0
A 23 1 0 1 0 62 603 0 0 0 0 0 0 0 0 0 0 0 0 0
A 26 2 0 0 0 6 607 0 0 0 26 0 0 0 0 0 0 0 0 0
A 27 1 0 3 0 68 608 0 0 0 0 0 0 0 0 0 0 0 0 0
A 28 10 0 0 0 6 27 1 0 0 0 0 0 0 0 0 0 0 0 0
X 1 21
A 29 2 0 0 0 6 612 0 0 0 29 0 0 0 0 0 0 0 0 0
A 30 10 0 0 28 6 27 4 0 0 0 0 0 0 0 0 0 0 0 0
X 1 29
A 31 4 0 0 0 6 30 0 3 0 0 0 0 2 0 0 0 0 0 0
A 32 4 0 0 0 6 28 0 31 0 0 0 0 1 0 0 0 0 0 0
A 33 2 0 0 0 6 613 0 0 0 33 0 0 0 0 0 0 0 0 0
A 34 10 0 0 30 6 27 7 0 0 0 0 0 0 0 0 0 0 0 0
X 1 33
A 35 2 0 0 0 6 614 0 0 0 35 0 0 0 0 0 0 0 0 0
A 36 10 0 0 34 6 27 10 0 0 0 0 0 0 0 0 0 0 0 0
X 1 35
A 37 4 0 0 0 6 36 0 3 0 0 0 0 2 0 0 0 0 0 0
A 38 4 0 0 0 6 34 0 37 0 0 0 0 1 0 0 0 0 0 0
A 39 2 0 0 0 6 615 0 0 0 39 0 0 0 0 0 0 0 0 0
A 40 10 0 0 36 6 27 13 0 0 0 0 0 0 0 0 0 0 0 0
X 1 39
A 41 2 0 0 0 6 616 0 0 0 41 0 0 0 0 0 0 0 0 0
A 42 10 0 0 40 6 27 16 0 0 0 0 0 0 0 0 0 0 0 0
X 1 41
A 43 2 0 0 0 6 617 0 0 0 43 0 0 0 0 0 0 0 0 0
A 44 10 0 0 42 6 27 19 0 0 0 0 0 0 0 0 0 0 0 0
X 1 43
A 45 10 0 0 44 6 27 22 0 0 0 0 0 0 0 0 0 0 0 0
X 1 13
A 46 2 0 0 0 16 619 0 0 0 46 0 0 0 0 0 0 0 0 0
A 47 1 0 0 0 16 618 0 0 0 0 0 0 0 0 0 0 0 0 0
A 48 2 0 0 0 6 623 0 0 0 48 0 0 0 0 0 0 0 0 0
A 49 2 0 0 0 6 624 0 0 0 49 0 0 0 0 0 0 0 0 0
A 50 2 0 0 0 6 625 0 0 0 50 0 0 0 0 0 0 0 0 0
A 51 2 0 0 0 6 626 0 0 0 51 0 0 0 0 0 0 0 0 0
A 52 2 0 0 0 6 628 0 0 0 52 0 0 0 0 0 0 0 0 0
A 53 2 0 0 0 6 629 0 0 0 53 0 0 0 0 0 0 0 0 0
A 54 2 0 0 0 6 630 0 0 0 54 0 0 0 0 0 0 0 0 0
Z
Z
