V26 us
9 pwcom.F90 S582 0
04/24/2012  15:53:20
use kinds private
use kinds private
enduse
D 56 21 9 4 59 58 0 1 0 0 1
 26 30 50 26 30 28
 32 36 52 32 36 34
 38 42 54 38 42 40
 44 48 56 44 48 46
D 59 21 6 1 0 23 0 0 0 0 0
 0 23 0 3 23 0
D 62 21 9 3 81 80 0 1 0 0 1
 65 68 77 65 68 66
 69 72 78 69 72 70
 73 76 79 73 76 74
D 65 21 6 1 0 63 0 0 0 0 0
 0 63 0 3 63 0
D 68 21 9 3 102 101 0 1 0 0 1
 86 89 98 86 89 87
 90 93 99 90 93 91
 94 97 100 94 97 95
D 71 21 6 1 0 63 0 0 0 0 0
 0 63 0 3 63 0
D 74 21 9 3 123 122 0 1 0 0 1
 107 110 119 107 110 108
 111 114 120 111 114 112
 115 118 121 115 118 116
D 77 21 6 1 0 63 0 0 0 0 0
 0 63 0 3 63 0
S 582 24 0 0 0 9 1 0 4658 5 0 A 0 0 0 0 0 0 0 0 0 0 0 0 451 0 0 0 0 0 0 0 0 430 0 0 0 0 0 0 us
S 584 23 0 0 0 9 587 582 4667 4 0 A 0 0 0 0 0 0 0 0 0 0 0 0 0 0 0 0 0 0 0 0 0 0 0 582 0 0 0 0 dp
S 585 3 0 0 0 6 1 1 0 0 0 A 0 0 0 0 0 0 0 0 0 8 0 0 0 0 0 0 0 0 0 0 0 0 0 0 0 0 0 0 6
R 587 16 1 kinds dp
S 594 6 4 0 0 6 595 582 4701 4 0 A 0 0 0 0 0 0 0 0 0 0 0 0 647 0 0 0 0 0 0 0 0 0 0 582 0 0 0 0 nqxq
S 595 6 4 0 0 6 599 582 4706 4 0 A 0 0 0 0 0 4 0 0 0 0 0 0 647 0 0 0 0 0 0 0 0 0 0 582 0 0 0 0 nqx
S 596 16 0 0 0 9 0 582 4710 800004 400000 A 0 0 0 0 0 0 0 0 597 17 0 0 0 0 0 0 0 0 0 0 0 0 0 582 0 0 0 0 dq
S 597 3 0 0 0 9 0 1 0 0 0 A 0 0 0 0 0 0 0 0 1065646817 1202590843 0 0 0 0 0 0 0 0 0 0 0 0 0 0 0 0 0 0 9
S 598 7 6 0 0 56 1 582 4713 10a00004 51 A 0 0 0 0 0 0 605 0 0 0 607 0 0 0 0 0 0 0 0 604 0 0 606 582 0 0 0 0 qrad
S 599 6 4 0 0 6 600 582 4718 40800006 0 A 0 0 0 0 0 8 0 0 0 0 0 0 647 0 0 0 0 0 0 0 0 0 0 582 0 0 0 0 z_b_0
S 600 6 4 0 0 6 601 582 4724 40800006 0 A 0 0 0 0 0 12 0 0 0 0 0 0 647 0 0 0 0 0 0 0 0 0 0 582 0 0 0 0 z_b_1
S 601 6 4 0 0 6 602 582 4730 40800006 0 A 0 0 0 0 0 16 0 0 0 0 0 0 647 0 0 0 0 0 0 0 0 0 0 582 0 0 0 0 z_b_2
S 602 6 4 0 0 6 622 582 4736 40800006 0 A 0 0 0 0 0 20 0 0 0 0 0 0 647 0 0 0 0 0 0 0 0 0 0 582 0 0 0 0 z_b_3
S 603 3 0 0 0 6 0 1 0 0 0 A 0 0 0 0 0 0 0 0 0 36 0 0 0 0 0 0 0 0 0 0 0 0 0 0 0 0 0 0 6
S 604 8 4 0 0 59 627 582 4742 40822064 1020 A 0 0 0 0 0 0 0 0 0 0 0 0 647 0 0 0 0 0 0 0 0 0 0 582 0 0 0 0 qrad$sd
S 605 6 4 0 0 7 606 582 4750 40802061 1020 A 0 0 0 0 0 144 0 0 0 0 0 0 647 0 0 0 0 0 0 0 0 0 0 582 0 0 0 0 qrad$p
S 606 6 4 0 0 7 604 582 4757 40802060 1020 A 0 0 0 0 0 152 0 0 0 0 0 0 647 0 0 0 0 0 0 0 0 0 0 582 0 0 0 0 qrad$o
S 607 22 1 0 0 9 1 582 4764 40000000 1000 A 0 0 0 0 0 0 0 598 0 0 0 0 604 0 0 0 0 0 0 0 0 0 0 582 0 0 0 0 qrad$arrdsc
S 608 3 0 0 0 6 0 1 0 0 0 A 0 0 0 0 0 0 0 0 0 13 0 0 0 0 0 0 0 0 0 0 0 0 0 0 0 0 0 0 6
S 609 3 0 0 0 6 0 1 0 0 0 A 0 0 0 0 0 0 0 0 0 14 0 0 0 0 0 0 0 0 0 0 0 0 0 0 0 0 0 0 6
S 610 3 0 0 0 6 0 1 0 0 0 A 0 0 0 0 0 0 0 0 0 19 0 0 0 0 0 0 0 0 0 0 0 0 0 0 0 0 0 0 6
S 611 3 0 0 0 6 0 1 0 0 0 A 0 0 0 0 0 0 0 0 0 20 0 0 0 0 0 0 0 0 0 0 0 0 0 0 0 0 0 0 6
S 612 3 0 0 0 6 0 1 0 0 0 A 0 0 0 0 0 0 0 0 0 25 0 0 0 0 0 0 0 0 0 0 0 0 0 0 0 0 0 0 6
S 613 3 0 0 0 6 0 1 0 0 0 A 0 0 0 0 0 0 0 0 0 26 0 0 0 0 0 0 0 0 0 0 0 0 0 0 0 0 0 0 6
S 614 3 0 0 0 6 0 1 0 0 0 A 0 0 0 0 0 0 0 0 0 31 0 0 0 0 0 0 0 0 0 0 0 0 0 0 0 0 0 0 6
S 615 3 0 0 0 6 0 1 0 0 0 A 0 0 0 0 0 0 0 0 0 32 0 0 0 0 0 0 0 0 0 0 0 0 0 0 0 0 0 0 6
S 616 3 0 0 0 6 0 1 0 0 0 A 0 0 0 0 0 0 0 0 0 17 0 0 0 0 0 0 0 0 0 0 0 0 0 0 0 0 0 0 6
S 617 3 0 0 0 6 0 1 0 0 0 A 0 0 0 0 0 0 0 0 0 23 0 0 0 0 0 0 0 0 0 0 0 0 0 0 0 0 0 0 6
S 618 3 0 0 0 6 0 1 0 0 0 A 0 0 0 0 0 0 0 0 0 29 0 0 0 0 0 0 0 0 0 0 0 0 0 0 0 0 0 0 6
S 619 3 0 0 0 6 0 1 0 0 0 A 0 0 0 0 0 0 0 0 0 35 0 0 0 0 0 0 0 0 0 0 0 0 0 0 0 0 0 0 6
S 620 3 0 0 0 6 0 1 0 0 0 A 0 0 0 0 0 0 0 0 0 7 0 0 0 0 0 0 0 0 0 0 0 0 0 0 0 0 0 0 6
S 621 7 6 0 0 62 1 582 4776 10a00004 51 A 0 0 0 0 0 0 627 0 0 0 629 0 0 0 0 0 0 0 0 626 0 0 628 582 0 0 0 0 tab
S 622 6 4 0 0 6 623 582 4780 40800006 0 A 0 0 0 0 0 24 0 0 0 0 0 0 647 0 0 0 0 0 0 0 0 0 0 582 0 0 0 0 z_b_4
S 623 6 4 0 0 6 624 582 4786 40800006 0 A 0 0 0 0 0 28 0 0 0 0 0 0 647 0 0 0 0 0 0 0 0 0 0 582 0 0 0 0 z_b_5
S 624 6 4 0 0 6 631 582 4792 40800006 0 A 0 0 0 0 0 32 0 0 0 0 0 0 647 0 0 0 0 0 0 0 0 0 0 582 0 0 0 0 z_b_6
S 625 3 0 0 0 6 0 1 0 0 0 A 0 0 0 0 0 0 0 0 0 30 0 0 0 0 0 0 0 0 0 0 0 0 0 0 0 0 0 0 6
S 626 8 4 0 0 65 635 582 4798 40822064 1020 A 0 0 0 0 0 160 0 0 0 0 0 0 647 0 0 0 0 0 0 0 0 0 0 582 0 0 0 0 tab$sd
S 627 6 4 0 0 7 628 582 4805 40802061 1020 A 0 0 0 0 0 280 0 0 0 0 0 0 647 0 0 0 0 0 0 0 0 0 0 582 0 0 0 0 tab$p
S 628 6 4 0 0 7 626 582 4811 40802060 1020 A 0 0 0 0 0 288 0 0 0 0 0 0 647 0 0 0 0 0 0 0 0 0 0 582 0 0 0 0 tab$o
S 629 22 1 0 0 9 1 582 4817 40000000 1000 A 0 0 0 0 0 0 0 621 0 0 0 0 626 0 0 0 0 0 0 0 0 0 0 582 0 0 0 0 tab$arrdsc
S 630 7 6 0 0 68 1 582 4828 10a00004 51 A 0 0 0 0 0 0 635 0 0 0 637 0 0 0 0 0 0 0 0 634 0 0 636 582 0 0 0 0 tab_at
S 631 6 4 0 0 6 632 582 4835 40800006 0 A 0 0 0 0 0 36 0 0 0 0 0 0 647 0 0 0 0 0 0 0 0 0 0 582 0 0 0 0 z_b_7
S 632 6 4 0 0 6 633 582 4841 40800006 0 A 0 0 0 0 0 40 0 0 0 0 0 0 647 0 0 0 0 0 0 0 0 0 0 582 0 0 0 0 z_b_8
S 633 6 4 0 0 6 638 582 4847 40800006 0 A 0 0 0 0 0 44 0 0 0 0 0 0 647 0 0 0 0 0 0 0 0 0 0 582 0 0 0 0 z_b_9
S 634 8 4 0 0 71 644 582 4853 40822064 1020 A 0 0 0 0 0 296 0 0 0 0 0 0 647 0 0 0 0 0 0 0 0 0 0 582 0 0 0 0 tab_at$sd
S 635 6 4 0 0 7 636 582 4863 40802061 1020 A 0 0 0 0 0 416 0 0 0 0 0 0 647 0 0 0 0 0 0 0 0 0 0 582 0 0 0 0 tab_at$p
S 636 6 4 0 0 7 634 582 4872 40802060 1020 A 0 0 0 0 0 424 0 0 0 0 0 0 647 0 0 0 0 0 0 0 0 0 0 582 0 0 0 0 tab_at$o
S 637 22 1 0 0 9 1 582 4881 40000000 1000 A 0 0 0 0 0 0 0 630 0 0 0 0 634 0 0 0 0 0 0 0 0 0 0 582 0 0 0 0 tab_at$arrdsc
S 638 6 4 0 0 16 640 582 4895 4 0 A 0 0 0 0 0 48 0 0 0 0 0 0 647 0 0 0 0 0 0 0 0 0 0 582 0 0 0 0 spline_ps
S 639 7 6 0 0 74 1 582 4905 10a00004 51 A 0 0 0 0 0 0 644 0 0 0 646 0 0 0 0 0 0 0 0 643 0 0 645 582 0 0 0 0 tab_d2y
S 640 6 4 0 0 6 641 582 4913 40800006 0 A 0 0 0 0 0 52 0 0 0 0 0 0 647 0 0 0 0 0 0 0 0 0 0 582 0 0 0 0 z_b_10
S 641 6 4 0 0 6 642 582 4920 40800006 0 A 0 0 0 0 0 56 0 0 0 0 0 0 647 0 0 0 0 0 0 0 0 0 0 582 0 0 0 0 z_b_11
S 642 6 4 0 0 6 1 582 4927 40800006 0 A 0 0 0 0 0 60 0 0 0 0 0 0 647 0 0 0 0 0 0 0 0 0 0 582 0 0 0 0 z_b_12
S 643 8 4 0 0 77 594 582 4934 40822064 1020 A 0 0 0 0 0 432 0 0 0 0 0 0 647 0 0 0 0 0 0 0 0 0 0 582 0 0 0 0 tab_d2y$sd
S 644 6 4 0 0 7 645 582 4945 40802061 1020 A 0 0 0 0 0 552 0 0 0 0 0 0 647 0 0 0 0 0 0 0 0 0 0 582 0 0 0 0 tab_d2y$p
S 645 6 4 0 0 7 643 582 4955 40802060 1020 A 0 0 0 0 0 560 0 0 0 0 0 0 647 0 0 0 0 0 0 0 0 0 0 582 0 0 0 0 tab_d2y$o
S 646 22 1 0 0 9 1 582 4965 40000000 1000 A 0 0 0 0 0 0 0 639 0 0 0 0 643 0 0 0 0 0 0 0 0 0 0 582 0 0 0 0 tab_d2y$arrdsc
S 647 11 0 0 0 9 1 582 4980 40800000 801000 A 0 0 0 0 0 632 0 0 605 642 0 0 0 0 0 0 0 0 0 0 0 0 0 0 0 0 0 0 _us$0
A 13 2 0 0 0 6 585 0 0 0 13 0 0 0 0 0 0 0 0 0
A 17 2 0 0 0 9 597 0 0 0 17 0 0 0 0 0 0 0 0 0
A 23 2 0 0 0 6 603 0 0 0 23 0 0 0 0 0 0 0 0 0
A 24 2 0 0 0 6 608 0 0 0 24 0 0 0 0 0 0 0 0 0
A 25 1 0 1 0 59 604 0 0 0 0 0 0 0 0 0 0 0 0 0
A 26 10 0 0 0 6 25 1 0 0 0 0 0 0 0 0 0 0 0 0
X 1 24
A 27 2 0 0 0 6 609 0 0 0 27 0 0 0 0 0 0 0 0 0
A 28 10 0 0 26 6 25 4 0 0 0 0 0 0 0 0 0 0 0 0
X 1 27
A 29 4 0 0 0 6 28 0 3 0 0 0 0 2 0 0 0 0 0 0
A 30 4 0 0 0 6 26 0 29 0 0 0 0 1 0 0 0 0 0 0
A 31 2 0 0 0 6 610 0 0 0 31 0 0 0 0 0 0 0 0 0
A 32 10 0 0 28 6 25 7 0 0 0 0 0 0 0 0 0 0 0 0
X 1 31
A 33 2 0 0 0 6 611 0 0 0 33 0 0 0 0 0 0 0 0 0
A 34 10 0 0 32 6 25 10 0 0 0 0 0 0 0 0 0 0 0 0
X 1 33
A 35 4 0 0 0 6 34 0 3 0 0 0 0 2 0 0 0 0 0 0
A 36 4 0 0 0 6 32 0 35 0 0 0 0 1 0 0 0 0 0 0
A 37 2 0 0 0 6 612 0 0 0 37 0 0 0 0 0 0 0 0 0
A 38 10 0 0 34 6 25 13 0 0 0 0 0 0 0 0 0 0 0 0
X 1 37
A 39 2 0 0 0 6 613 0 0 0 39 0 0 0 0 0 0 0 0 0
A 40 10 0 0 38 6 25 16 0 0 0 0 0 0 0 0 0 0 0 0
X 1 39
A 41 4 0 0 0 6 40 0 3 0 0 0 0 2 0 0 0 0 0 0
A 42 4 0 0 0 6 38 0 41 0 0 0 0 1 0 0 0 0 0 0
A 43 2 0 0 0 6 614 0 0 0 43 0 0 0 0 0 0 0 0 0
A 44 10 0 0 40 6 25 19 0 0 0 0 0 0 0 0 0 0 0 0
X 1 43
A 45 2 0 0 0 6 615 0 0 0 45 0 0 0 0 0 0 0 0 0
A 46 10 0 0 44 6 25 22 0 0 0 0 0 0 0 0 0 0 0 0
X 1 45
A 47 4 0 0 0 6 46 0 3 0 0 0 0 2 0 0 0 0 0 0
A 48 4 0 0 0 6 44 0 47 0 0 0 0 1 0 0 0 0 0 0
A 49 2 0 0 0 6 616 0 0 0 49 0 0 0 0 0 0 0 0 0
A 50 10 0 0 46 6 25 25 0 0 0 0 0 0 0 0 0 0 0 0
X 1 49
A 51 2 0 0 0 6 617 0 0 0 51 0 0 0 0 0 0 0 0 0
A 52 10 0 0 50 6 25 28 0 0 0 0 0 0 0 0 0 0 0 0
X 1 51
A 53 2 0 0 0 6 618 0 0 0 53 0 0 0 0 0 0 0 0 0
A 54 10 0 0 52 6 25 31 0 0 0 0 0 0 0 0 0 0 0 0
X 1 53
A 55 2 0 0 0 6 619 0 0 0 55 0 0 0 0 0 0 0 0 0
A 56 10 0 0 54 6 25 34 0 0 0 0 0 0 0 0 0 0 0 0
X 1 55
A 57 2 0 0 0 6 620 0 0 0 57 0 0 0 0 0 0 0 0 0
A 58 10 0 0 56 6 25 37 0 0 0 0 0 0 0 0 0 0 0 0
X 1 57
A 59 10 0 0 58 6 25 40 0 0 0 0 0 0 0 0 0 0 0 0
X 1 13
A 63 2 0 0 0 6 625 0 0 0 63 0 0 0 0 0 0 0 0 0
A 64 1 0 3 0 65 626 0 0 0 0 0 0 0 0 0 0 0 0 0
A 65 10 0 0 0 6 64 1 0 0 0 0 0 0 0 0 0 0 0 0
X 1 24
A 66 10 0 0 65 6 64 4 0 0 0 0 0 0 0 0 0 0 0 0
X 1 27
A 67 4 0 0 0 6 66 0 3 0 0 0 0 2 0 0 0 0 0 0
A 68 4 0 0 0 6 65 0 67 0 0 0 0 1 0 0 0 0 0 0
A 69 10 0 0 66 6 64 7 0 0 0 0 0 0 0 0 0 0 0 0
X 1 31
A 70 10 0 0 69 6 64 10 0 0 0 0 0 0 0 0 0 0 0 0
X 1 33
A 71 4 0 0 0 6 70 0 3 0 0 0 0 2 0 0 0 0 0 0
A 72 4 0 0 0 6 69 0 71 0 0 0 0 1 0 0 0 0 0 0
A 73 10 0 0 70 6 64 13 0 0 0 0 0 0 0 0 0 0 0 0
X 1 37
A 74 10 0 0 73 6 64 16 0 0 0 0 0 0 0 0 0 0 0 0
X 1 39
A 75 4 0 0 0 6 74 0 3 0 0 0 0 2 0 0 0 0 0 0
A 76 4 0 0 0 6 73 0 75 0 0 0 0 1 0 0 0 0 0 0
A 77 10 0 0 74 6 64 25 0 0 0 0 0 0 0 0 0 0 0 0
X 1 49
A 78 10 0 0 77 6 64 28 0 0 0 0 0 0 0 0 0 0 0 0
X 1 51
A 79 10 0 0 78 6 64 31 0 0 0 0 0 0 0 0 0 0 0 0
X 1 53
A 80 10 0 0 79 6 64 37 0 0 0 0 0 0 0 0 0 0 0 0
X 1 57
A 81 10 0 0 80 6 64 40 0 0 0 0 0 0 0 0 0 0 0 0
X 1 13
A 85 1 0 3 0 71 634 0 0 0 0 0 0 0 0 0 0 0 0 0
A 86 10 0 0 0 6 85 1 0 0 0 0 0 0 0 0 0 0 0 0
X 1 24
A 87 10 0 0 86 6 85 4 0 0 0 0 0 0 0 0 0 0 0 0
X 1 27
A 88 4 0 0 0 6 87 0 3 0 0 0 0 2 0 0 0 0 0 0
A 89 4 0 0 0 6 86 0 88 0 0 0 0 1 0 0 0 0 0 0
A 90 10 0 0 87 6 85 7 0 0 0 0 0 0 0 0 0 0 0 0
X 1 31
A 91 10 0 0 90 6 85 10 0 0 0 0 0 0 0 0 0 0 0 0
X 1 33
A 92 4 0 0 0 6 91 0 3 0 0 0 0 2 0 0 0 0 0 0
A 93 4 0 0 0 6 90 0 92 0 0 0 0 1 0 0 0 0 0 0
A 94 10 0 0 91 6 85 13 0 0 0 0 0 0 0 0 0 0 0 0
X 1 37
A 95 10 0 0 94 6 85 16 0 0 0 0 0 0 0 0 0 0 0 0
X 1 39
A 96 4 0 0 0 6 95 0 3 0 0 0 0 2 0 0 0 0 0 0
A 97 4 0 0 0 6 94 0 96 0 0 0 0 1 0 0 0 0 0 0
A 98 10 0 0 95 6 85 25 0 0 0 0 0 0 0 0 0 0 0 0
X 1 49
A 99 10 0 0 98 6 85 28 0 0 0 0 0 0 0 0 0 0 0 0
X 1 51
A 100 10 0 0 99 6 85 31 0 0 0 0 0 0 0 0 0 0 0 0
X 1 53
A 101 10 0 0 100 6 85 37 0 0 0 0 0 0 0 0 0 0 0 0
X 1 57
A 102 10 0 0 101 6 85 40 0 0 0 0 0 0 0 0 0 0 0 0
X 1 13
A 106 1 0 3 14 77 643 0 0 0 0 0 0 0 0 0 0 0 0 0
A 107 10 0 0 0 6 106 1 0 0 0 0 0 0 0 0 0 0 0 0
X 1 24
A 108 10 0 0 107 6 106 4 0 0 0 0 0 0 0 0 0 0 0 0
X 1 27
A 109 4 0 0 17 6 108 0 3 0 0 0 0 2 0 0 0 0 0 0
A 110 4 0 0 10 6 107 0 109 0 0 0 0 1 0 0 0 0 0 0
A 111 10 0 0 108 6 106 7 0 0 0 0 0 0 0 0 0 0 0 0
X 1 31
A 112 10 0 0 111 6 106 10 0 0 0 0 0 0 0 0 0 0 0 0
X 1 33
A 113 4 0 0 0 6 112 0 3 0 0 0 0 2 0 0 0 0 0 0
A 114 4 0 0 0 6 111 0 113 0 0 0 0 1 0 0 0 0 0 0
A 115 10 0 0 112 6 106 13 0 0 0 0 0 0 0 0 0 0 0 0
X 1 37
A 116 10 0 0 115 6 106 16 0 0 0 0 0 0 0 0 0 0 0 0
X 1 39
A 117 4 0 0 0 6 116 0 3 0 0 0 0 2 0 0 0 0 0 0
A 118 4 0 0 43 6 115 0 117 0 0 0 0 1 0 0 0 0 0 0
A 119 10 0 0 116 6 106 25 0 0 0 0 0 0 0 0 0 0 0 0
X 1 49
A 120 10 0 0 119 6 106 28 0 0 0 0 0 0 0 0 0 0 0 0
X 1 51
A 121 10 0 0 120 6 106 31 0 0 0 0 0 0 0 0 0 0 0 0
X 1 53
A 122 10 0 0 121 6 106 37 0 0 0 0 0 0 0 0 0 0 0 0
X 1 57
A 123 10 0 0 122 6 106 40 0 0 0 0 0 0 0 0 0 0 0 0
X 1 13
Z
Z
