V26 wvfct
9 pwcom.F90 S582 0
04/24/2012  15:53:20
use kinds private
use kinds private
enduse
D 56 21 6 1 30 29 0 1 0 0 1
 21 25 27 21 25 23
D 59 21 6 1 0 18 0 0 0 0 0
 0 18 0 3 18 0
D 62 21 9 2 49 48 0 1 0 0 1
 35 38 45 35 38 36
 40 44 47 40 44 42
D 65 21 6 1 0 33 0 0 0 0 0
 0 33 0 3 33 0
D 68 21 9 2 64 63 0 1 0 0 1
 53 56 61 53 56 54
 57 60 62 57 60 58
D 71 21 6 1 0 33 0 0 0 0 0
 0 33 0 3 33 0
D 74 21 9 1 73 72 0 1 0 0 1
 67 70 71 67 70 68
D 77 21 6 1 0 18 0 0 0 0 0
 0 18 0 3 18 0
D 80 21 6 2 88 87 0 1 0 0 1
 77 80 85 77 80 78
 81 84 86 81 84 82
D 83 21 6 1 0 33 0 0 0 0 0
 0 33 0 3 33 0
S 582 24 0 0 0 9 1 0 4658 5 0 A 0 0 0 0 0 0 0 0 0 0 0 0 324 0 0 0 0 0 0 0 0 300 0 0 0 0 0 0 wvfct
S 584 23 0 0 0 9 587 582 4670 4 0 A 0 0 0 0 0 0 0 0 0 0 0 0 0 0 0 0 0 0 0 0 0 0 0 582 0 0 0 0 dp
S 585 3 0 0 0 6 1 1 0 0 0 A 0 0 0 0 0 0 0 0 0 8 0 0 0 0 0 0 0 0 0 0 0 0 0 0 0 0 0 0 6
R 587 16 1 kinds dp
S 594 6 4 0 0 6 595 582 4704 4 0 A 0 0 0 0 0 0 0 0 0 0 0 0 641 0 0 0 0 0 0 0 0 0 0 582 0 0 0 0 npwx
S 595 6 4 0 0 6 596 582 4709 4 0 A 0 0 0 0 0 4 0 0 0 0 0 0 641 0 0 0 0 0 0 0 0 0 0 582 0 0 0 0 nbndx
S 596 6 4 0 0 6 597 582 4715 4 0 A 0 0 0 0 0 8 0 0 0 0 0 0 641 0 0 0 0 0 0 0 0 0 0 582 0 0 0 0 nbnd
S 597 6 4 0 0 6 598 582 4720 4 0 A 0 0 0 0 0 12 0 0 0 0 0 0 641 0 0 0 0 0 0 0 0 0 0 582 0 0 0 0 npw
S 598 6 4 0 0 6 600 582 4724 4 0 A 0 0 0 0 0 16 0 0 0 0 0 0 641 0 0 0 0 0 0 0 0 0 0 582 0 0 0 0 current_k
S 599 7 6 0 0 56 1 582 4734 10a00004 59 A 0 0 0 0 0 0 603 0 0 0 605 0 0 0 0 0 0 0 0 602 0 0 604 582 0 0 0 0 igk
S 600 6 4 0 0 6 611 582 4738 40800006 0 A 0 0 0 0 0 20 0 0 0 0 0 0 641 0 0 0 0 0 0 0 0 0 0 582 0 0 0 0 z_b_0
S 601 3 0 0 0 6 0 1 0 0 0 A 0 0 0 0 0 0 0 0 0 18 0 0 0 0 0 0 0 0 0 0 0 0 0 0 0 0 0 0 6
S 602 8 4 0 0 59 615 582 4744 40822064 1020 A 0 0 0 0 0 0 0 0 0 0 0 0 641 0 0 0 0 0 0 0 0 0 0 582 0 0 0 0 igk$sd
S 603 6 4 0 0 7 604 582 4751 40802061 1020 A 0 0 0 0 0 72 0 0 0 0 0 0 641 0 0 0 0 0 0 0 0 0 0 582 0 0 0 0 igk$p
S 604 6 4 0 0 7 602 582 4757 40802060 1020 A 0 0 0 0 0 80 0 0 0 0 0 0 641 0 0 0 0 0 0 0 0 0 0 582 0 0 0 0 igk$o
S 605 22 1 0 0 6 1 582 4763 40000000 1000 A 0 0 0 0 0 0 0 599 0 0 0 0 602 0 0 0 0 0 0 0 0 0 0 582 0 0 0 0 igk$arrdsc
S 606 3 0 0 0 6 0 1 0 0 0 A 0 0 0 0 0 0 0 0 0 13 0 0 0 0 0 0 0 0 0 0 0 0 0 0 0 0 0 0 6
S 607 3 0 0 0 6 0 1 0 0 0 A 0 0 0 0 0 0 0 0 0 14 0 0 0 0 0 0 0 0 0 0 0 0 0 0 0 0 0 0 6
S 608 3 0 0 0 6 0 1 0 0 0 A 0 0 0 0 0 0 0 0 0 17 0 0 0 0 0 0 0 0 0 0 0 0 0 0 0 0 0 0 6
S 609 3 0 0 0 6 0 1 0 0 0 A 0 0 0 0 0 0 0 0 0 7 0 0 0 0 0 0 0 0 0 0 0 0 0 0 0 0 0 0 6
S 610 7 6 0 0 62 1 582 4774 10a00004 51 A 0 0 0 0 0 0 615 0 0 0 617 0 0 0 0 0 0 0 0 614 0 0 616 582 0 0 0 0 et
S 611 6 4 0 0 6 612 582 4777 40800006 0 A 0 0 0 0 0 24 0 0 0 0 0 0 641 0 0 0 0 0 0 0 0 0 0 582 0 0 0 0 z_b_1
S 612 6 4 0 0 6 622 582 4783 40800006 0 A 0 0 0 0 0 28 0 0 0 0 0 0 641 0 0 0 0 0 0 0 0 0 0 582 0 0 0 0 z_b_2
S 613 3 0 0 0 6 0 1 0 0 0 A 0 0 0 0 0 0 0 0 0 24 0 0 0 0 0 0 0 0 0 0 0 0 0 0 0 0 0 0 6
S 614 8 4 0 0 65 625 582 4789 40822064 1020 A 0 0 0 0 0 88 0 0 0 0 0 0 641 0 0 0 0 0 0 0 0 0 0 582 0 0 0 0 et$sd
S 615 6 4 0 0 7 616 582 4795 40802061 1020 A 0 0 0 0 0 184 0 0 0 0 0 0 641 0 0 0 0 0 0 0 0 0 0 582 0 0 0 0 et$p
S 616 6 4 0 0 7 614 582 4800 40802060 1020 A 0 0 0 0 0 192 0 0 0 0 0 0 641 0 0 0 0 0 0 0 0 0 0 582 0 0 0 0 et$o
S 617 22 1 0 0 9 1 582 4805 40000000 1000 A 0 0 0 0 0 0 0 610 0 0 0 0 614 0 0 0 0 0 0 0 0 0 0 582 0 0 0 0 et$arrdsc
S 618 3 0 0 0 6 0 1 0 0 0 A 0 0 0 0 0 0 0 0 0 19 0 0 0 0 0 0 0 0 0 0 0 0 0 0 0 0 0 0 6
S 619 3 0 0 0 6 0 1 0 0 0 A 0 0 0 0 0 0 0 0 0 20 0 0 0 0 0 0 0 0 0 0 0 0 0 0 0 0 0 0 6
S 620 3 0 0 0 6 0 1 0 0 0 A 0 0 0 0 0 0 0 0 0 23 0 0 0 0 0 0 0 0 0 0 0 0 0 0 0 0 0 0 6
S 621 7 6 0 0 68 1 582 4815 10a00004 51 A 0 0 0 0 0 0 625 0 0 0 627 0 0 0 0 0 0 0 0 624 0 0 626 582 0 0 0 0 wg
S 622 6 4 0 0 6 623 582 4818 40800006 0 A 0 0 0 0 0 32 0 0 0 0 0 0 641 0 0 0 0 0 0 0 0 0 0 582 0 0 0 0 z_b_3
S 623 6 4 0 0 6 629 582 4824 40800006 0 A 0 0 0 0 0 36 0 0 0 0 0 0 641 0 0 0 0 0 0 0 0 0 0 582 0 0 0 0 z_b_4
S 624 8 4 0 0 71 631 582 4830 40822064 1020 A 0 0 0 0 0 200 0 0 0 0 0 0 641 0 0 0 0 0 0 0 0 0 0 582 0 0 0 0 wg$sd
S 625 6 4 0 0 7 626 582 4836 40802061 1020 A 0 0 0 0 0 296 0 0 0 0 0 0 641 0 0 0 0 0 0 0 0 0 0 582 0 0 0 0 wg$p
S 626 6 4 0 0 7 624 582 4841 40802060 1020 A 0 0 0 0 0 304 0 0 0 0 0 0 641 0 0 0 0 0 0 0 0 0 0 582 0 0 0 0 wg$o
S 627 22 1 0 0 9 1 582 4846 40000000 1000 A 0 0 0 0 0 0 0 621 0 0 0 0 624 0 0 0 0 0 0 0 0 0 0 582 0 0 0 0 wg$arrdsc
S 628 7 6 0 0 74 1 582 4856 10a00004 51 A 0 0 0 0 0 0 631 0 0 0 633 0 0 0 0 0 0 0 0 630 0 0 632 582 0 0 0 0 g2kin
S 629 6 4 0 0 6 635 582 4862 40800006 0 A 0 0 0 0 0 40 0 0 0 0 0 0 641 0 0 0 0 0 0 0 0 0 0 582 0 0 0 0 z_b_5
S 630 8 4 0 0 77 638 582 4868 40822064 1020 A 0 0 0 0 0 312 0 0 0 0 0 0 641 0 0 0 0 0 0 0 0 0 0 582 0 0 0 0 g2kin$sd
S 631 6 4 0 0 7 632 582 4877 40802061 1020 A 0 0 0 0 0 384 0 0 0 0 0 0 641 0 0 0 0 0 0 0 0 0 0 582 0 0 0 0 g2kin$p
S 632 6 4 0 0 7 630 582 4885 40802060 1020 A 0 0 0 0 0 392 0 0 0 0 0 0 641 0 0 0 0 0 0 0 0 0 0 582 0 0 0 0 g2kin$o
S 633 22 1 0 0 9 1 582 4893 40000000 1000 A 0 0 0 0 0 0 0 628 0 0 0 0 630 0 0 0 0 0 0 0 0 0 0 582 0 0 0 0 g2kin$arrdsc
S 634 7 6 0 0 80 1 582 4906 10a00004 51 A 0 0 0 0 0 0 638 0 0 0 640 0 0 0 0 0 0 0 0 637 0 0 639 582 0 0 0 0 btype
S 635 6 4 0 0 6 636 582 4912 40800006 0 A 0 0 0 0 0 44 0 0 0 0 0 0 641 0 0 0 0 0 0 0 0 0 0 582 0 0 0 0 z_b_6
S 636 6 4 0 0 6 1 582 4918 40800006 0 A 0 0 0 0 0 48 0 0 0 0 0 0 641 0 0 0 0 0 0 0 0 0 0 582 0 0 0 0 z_b_7
S 637 8 4 0 0 83 594 582 4924 40822064 1020 A 0 0 0 0 0 400 0 0 0 0 0 0 641 0 0 0 0 0 0 0 0 0 0 582 0 0 0 0 btype$sd
S 638 6 4 0 0 7 639 582 4933 40802061 1020 A 0 0 0 0 0 496 0 0 0 0 0 0 641 0 0 0 0 0 0 0 0 0 0 582 0 0 0 0 btype$p
S 639 6 4 0 0 7 637 582 4941 40802060 1020 A 0 0 0 0 0 504 0 0 0 0 0 0 641 0 0 0 0 0 0 0 0 0 0 582 0 0 0 0 btype$o
S 640 22 1 0 0 9 1 582 4949 40000000 1000 A 0 0 0 0 0 0 0 634 0 0 0 0 637 0 0 0 0 0 0 0 0 0 0 582 0 0 0 0 btype$arrdsc
S 641 11 0 0 0 9 1 582 4962 40800000 801000 A 0 0 0 0 0 564 0 0 603 636 0 0 0 0 0 0 0 0 0 0 0 0 0 0 0 0 0 0 _wvfct$0
A 13 2 0 0 0 6 585 0 0 0 13 0 0 0 0 0 0 0 0 0
A 18 2 0 0 0 6 601 0 0 0 18 0 0 0 0 0 0 0 0 0
A 19 2 0 0 0 6 606 0 0 0 19 0 0 0 0 0 0 0 0 0
A 20 1 0 1 0 59 602 0 0 0 0 0 0 0 0 0 0 0 0 0
A 21 10 0 0 0 6 20 1 0 0 0 0 0 0 0 0 0 0 0 0
X 1 19
A 22 2 0 0 0 6 607 0 0 0 22 0 0 0 0 0 0 0 0 0
A 23 10 0 0 21 6 20 4 0 0 0 0 0 0 0 0 0 0 0 0
X 1 22
A 24 4 0 0 0 6 23 0 3 0 0 0 0 2 0 0 0 0 0 0
A 25 4 0 0 0 6 21 0 24 0 0 0 0 1 0 0 0 0 0 0
A 26 2 0 0 0 6 608 0 0 0 26 0 0 0 0 0 0 0 0 0
A 27 10 0 0 23 6 20 7 0 0 0 0 0 0 0 0 0 0 0 0
X 1 26
A 28 2 0 0 0 6 609 0 0 0 28 0 0 0 0 0 0 0 0 0
A 29 10 0 0 27 6 20 10 0 0 0 0 0 0 0 0 0 0 0 0
X 1 28
A 30 10 0 0 29 6 20 13 0 0 0 0 0 0 0 0 0 0 0 0
X 1 13
A 33 2 0 0 0 6 613 0 0 0 33 0 0 0 0 0 0 0 0 0
A 34 1 0 3 0 65 614 0 0 0 0 0 0 0 0 0 0 0 0 0
A 35 10 0 0 0 6 34 1 0 0 0 0 0 0 0 0 0 0 0 0
X 1 19
A 36 10 0 0 35 6 34 4 0 0 0 0 0 0 0 0 0 0 0 0
X 1 22
A 37 4 0 0 0 6 36 0 3 0 0 0 0 2 0 0 0 0 0 0
A 38 4 0 0 0 6 35 0 37 0 0 0 0 1 0 0 0 0 0 0
A 39 2 0 0 0 6 618 0 0 0 39 0 0 0 0 0 0 0 0 0
A 40 10 0 0 36 6 34 16 0 0 0 0 0 0 0 0 0 0 0 0
X 1 39
A 41 2 0 0 0 6 619 0 0 0 41 0 0 0 0 0 0 0 0 0
A 42 10 0 0 40 6 34 19 0 0 0 0 0 0 0 0 0 0 0 0
X 1 41
A 43 4 0 0 0 6 42 0 3 0 0 0 0 2 0 0 0 0 0 0
A 44 4 0 0 0 6 40 0 43 0 0 0 0 1 0 0 0 0 0 0
A 45 10 0 0 42 6 34 7 0 0 0 0 0 0 0 0 0 0 0 0
X 1 26
A 46 2 0 0 0 6 620 0 0 0 46 0 0 0 0 0 0 0 0 0
A 47 10 0 0 45 6 34 22 0 0 0 0 0 0 0 0 0 0 0 0
X 1 46
A 48 10 0 0 47 6 34 10 0 0 0 0 0 0 0 0 0 0 0 0
X 1 28
A 49 10 0 0 48 6 34 13 0 0 0 0 0 0 0 0 0 0 0 0
X 1 13
A 52 1 0 3 0 71 624 0 0 0 0 0 0 0 0 0 0 0 0 0
A 53 10 0 0 0 6 52 1 0 0 0 0 0 0 0 0 0 0 0 0
X 1 19
A 54 10 0 0 53 6 52 4 0 0 0 0 0 0 0 0 0 0 0 0
X 1 22
A 55 4 0 0 0 6 54 0 3 0 0 0 0 2 0 0 0 0 0 0
A 56 4 0 0 0 6 53 0 55 0 0 0 0 1 0 0 0 0 0 0
A 57 10 0 0 54 6 52 16 0 0 0 0 0 0 0 0 0 0 0 0
X 1 39
A 58 10 0 0 57 6 52 19 0 0 0 0 0 0 0 0 0 0 0 0
X 1 41
A 59 4 0 0 0 6 58 0 3 0 0 0 0 2 0 0 0 0 0 0
A 60 4 0 0 0 6 57 0 59 0 0 0 0 1 0 0 0 0 0 0
A 61 10 0 0 58 6 52 7 0 0 0 0 0 0 0 0 0 0 0 0
X 1 26
A 62 10 0 0 61 6 52 22 0 0 0 0 0 0 0 0 0 0 0 0
X 1 46
A 63 10 0 0 62 6 52 10 0 0 0 0 0 0 0 0 0 0 0 0
X 1 28
A 64 10 0 0 63 6 52 13 0 0 0 0 0 0 0 0 0 0 0 0
X 1 13
A 66 1 0 1 0 77 630 0 0 0 0 0 0 0 0 0 0 0 0 0
A 67 10 0 0 0 6 66 1 0 0 0 0 0 0 0 0 0 0 0 0
X 1 19
A 68 10 0 0 67 6 66 4 0 0 0 0 0 0 0 0 0 0 0 0
X 1 22
A 69 4 0 0 0 6 68 0 3 0 0 0 0 2 0 0 0 0 0 0
A 70 4 0 0 0 6 67 0 69 0 0 0 0 1 0 0 0 0 0 0
A 71 10 0 0 68 6 66 7 0 0 0 0 0 0 0 0 0 0 0 0
X 1 26
A 72 10 0 0 71 6 66 10 0 0 0 0 0 0 0 0 0 0 0 0
X 1 28
A 73 10 0 0 72 6 66 13 0 0 0 0 0 0 0 0 0 0 0 0
X 1 13
A 76 1 0 3 0 83 637 0 0 0 0 0 0 0 0 0 0 0 0 0
A 77 10 0 0 0 6 76 1 0 0 0 0 0 0 0 0 0 0 0 0
X 1 19
A 78 10 0 0 77 6 76 4 0 0 0 0 0 0 0 0 0 0 0 0
X 1 22
A 79 4 0 0 0 6 78 0 3 0 0 0 0 2 0 0 0 0 0 0
A 80 4 0 0 0 6 77 0 79 0 0 0 0 1 0 0 0 0 0 0
A 81 10 0 0 78 6 76 16 0 0 0 0 0 0 0 0 0 0 0 0
X 1 39
A 82 10 0 0 81 6 76 19 0 0 0 0 0 0 0 0 0 0 0 0
X 1 41
A 83 4 0 0 3 6 82 0 3 0 0 0 0 2 0 0 0 0 0 0
A 84 4 0 0 49 6 81 0 83 0 0 0 0 1 0 0 0 0 0 0
A 85 10 0 0 82 6 76 7 0 0 0 0 0 0 0 0 0 0 0 0
X 1 26
A 86 10 0 0 85 6 76 22 0 0 0 0 0 0 0 0 0 0 0 0
X 1 46
A 87 10 0 0 86 6 76 10 0 0 0 0 0 0 0 0 0 0 0 0
X 1 28
A 88 10 0 0 87 6 76 13 0 0 0 0 0 0 0 0 0 0 0 0
X 1 13
Z
Z
